timestamp	VIRTUAL_SCALING	CPU0_F	CPU1_F	CPU2_F	CPU3_F	CPU4_F	CPU5_F	GPU_FREQ	CPU_GOVERNOR	EMC_F	TEMP0	TEMP1	TEMP2	TEMP3	TEMP4	TEMP5	TEMP6	TEMP7
1592953592276162592	1	1881	345	345	1881	1881	1881	114750000	performance	1866	30	30	28	30	27	26	100	29
1592953592319161094 	0	1883	345	345	1881	1881	1882	114750000	performance	1866	30	30	28	30	27	26	100	29
1592953594349011177	1	1881	345	345	1881	1881	1881	114750000	performance	1866	30	30	28	30	27	26	100	29
1592953594797011608 	0	1879	345	345	1883	1887	1844	114750000	performance	1866	30	30	29	30	27	26	100	29
1592953596836948346	1	1881	345	345	1881	1881	1881	114750000	performance	1866	30	30	29	30	27	26	100	30
1592953597364954883 	0	1843	345	345	1843	1842	1880	114750000	performance	1866	30	30	29	30	27	26	100	29
