timestamp	VIRTUAL_SCALING	CPU0_F	CPU1_F	CPU2_F	CPU3_F	CPU4_F	CPU5_F	CPU6_F	CPU7_F	GPU_FREQ	CPU_GOVERNOR	EMC_F	TEMP0
1606797478527775080	1	1400	1400	1400	1400	1800	1800	1800	1800	600	performance	-	56
1606797478584965392 	0	1400	1400	1400	1400	1800	1800	1800	1800	600	performance	-	56
1606797480160357181	1	1400	1400	1400	1400	1800	1800	1800	1800	600	performance	-	54
1606797480219918433 	0	1400	1400	1400	1400	1800	1800	1800	1800	600	performance	-	54
1606797481795092939	1	1400	1400	1400	1400	1800	1800	1800	1800	600	performance	-	54
1606797481854516775 	0	1400	1400	1400	1400	1800	1800	1800	1800	600	performance	-	54
1606797483430096409	1	1400	1400	1400	1400	1800	1800	1800	1800	600	performance	-	53
1606797483489714202 	0	1400	1400	1400	1400	1800	1800	1800	1800	600	performance	-	54
1606797485065529798	1	1400	1400	1400	1400	1800	1800	1800	1800	600	performance	-	53
1606797485125259924 	0	1400	1400	1400	1400	1800	1800	1800	1800	600	performance	-	53
1606797486701333692	1	1400	1400	1400	1400	1800	1800	1800	1800	600	performance	-	53
1606797486761185025 	0	1400	1400	1400	1400	1800	1800	1800	1800	600	performance	-	53
1606797488337220341	1	1400	1400	1400	1400	1800	1800	1800	1800	600	performance	-	53
1606797488397380839 	0	1400	1400	1400	1400	1800	1800	1800	1800	600	performance	-	54
1606797489973429243	1	1400	1400	1400	1400	1800	1800	1800	1800	600	performance	-	53
1606797490034035529 	0	1400	1400	1400	1400	1800	1800	1800	1800	600	performance	-	53
1606797491609930775	1	1400	1400	1400	1400	1800	1800	1800	1800	600	performance	-	53
1606797491670214272 	0	1400	1400	1400	1400	1800	1800	1800	1800	600	performance	-	54
1606797493246465187	1	1400	1400	1400	1400	1800	1800	1800	1800	600	performance	-	53
1606797493306879892 	0	1400	1400	1400	1400	1800	1800	1800	1800	600	performance	-	53
1606797494883636018	1	1400	1400	1400	1400	1800	1800	1800	1800	600	performance	-	52
1606797494943752059 	0	1400	1400	1400	1400	1800	1800	1800	1800	600	performance	-	53
1606797496519764113	1	1400	1400	1400	1400	1800	1800	1800	1800	600	performance	-	52
1606797496579624323 	0	1400	1400	1400	1400	1800	1800	1800	1800	600	performance	-	53
1606797498155622216	1	1400	1400	1400	1400	1800	1800	1800	1800	600	performance	-	52
1606797498215954547 	0	1400	1400	1400	1400	1800	1800	1800	1800	600	performance	-	52
1606797499791704990	1	1400	1400	1400	1400	1800	1800	1800	1800	600	performance	-	52
1606797499851725615 	0	1400	1400	1400	1400	1800	1800	1800	1800	600	performance	-	53
1606797501427374565	1	1400	1400	1400	1400	1800	1800	1800	1800	600	performance	-	52
1606797501487478065 	0	1400	1400	1400	1400	1800	1800	1800	1800	600	performance	-	53
1606797503063591058	1	1400	1400	1400	1400	1800	1800	1800	1800	600	performance	-	52
1606797503123160063 	0	1400	1400	1400	1400	1800	1800	1800	1800	600	performance	-	52
1606797504698857107	1	1400	1400	1400	1400	1800	1800	1800	1800	600	performance	-	52
1606797504758379695 	0	1400	1400	1400	1400	1800	1800	1800	1800	600	performance	-	52
1606797506334438909	1	1400	1400	1400	1400	1800	1800	1800	1800	600	performance	-	52
1606797506394483244 	0	1400	1400	1400	1400	1800	1800	1800	1800	600	performance	-	53
1606797507970985710	1	1400	1400	1400	1400	1800	1800	1800	1800	600	performance	-	52
1606797508030523632 	0	1400	1400	1400	1400	1800	1800	1800	1800	600	performance	-	52
1606797509606254735	1	1400	1400	1400	1400	1800	1800	1800	1800	600	performance	-	52
1606797509665760283 	0	1400	1400	1400	1400	1800	1800	1800	1800	600	performance	-	52
1606797511241476266	1	1400	1400	1400	1400	1800	1800	1800	1800	600	performance	-	52
1606797511301348936 	0	1400	1400	1400	1400	1800	1800	1800	1800	600	performance	-	52
1606797512876809553	1	1400	1400	1400	1400	1800	1800	1800	1800	600	performance	-	51
1606797512939902573 	0	1400	1400	1400	1400	1800	1800	1800	1800	600	performance	-	52
1606797514519357707	1	1400	1400	1400	1400	1800	1800	1800	1800	600	performance	-	53
1606797514581185654 	0	1400	1400	1400	1400	1800	1800	1800	1800	600	performance	-	53
1606797516158521018	1	1400	1400	1400	1400	1800	1800	1800	1800	600	performance	-	52
1606797516218364397 	0	1400	1400	1400	1400	1800	1800	1800	1800	600	performance	-	52
1606797517794001405	1	1400	1400	1400	1400	1800	1800	1800	1800	600	performance	-	51
1606797517854238614 	0	1400	1400	1400	1400	1800	1800	1800	1800	600	performance	-	51
1606797519430232416	1	1400	1400	1400	1400	1800	1800	1800	1800	600	performance	-	51
1606797519490058380 	0	1400	1400	1400	1400	1800	1800	1800	1800	600	performance	-	51
1606797521065589274	1	1400	1400	1400	1400	1800	1800	1800	1800	600	performance	-	51
1606797521126155607 	0	1400	1400	1400	1400	1800	1800	1800	1800	600	performance	-	51
1606797522701657007	1	1400	1400	1400	1400	1800	1800	1800	1800	600	performance	-	51
1606797522761612011 	0	1400	1400	1400	1400	1800	1800	1800	1800	600	performance	-	51
1606797524337081709	1	1400	1400	1400	1400	1800	1800	1800	1800	600	performance	-	51
1606797524396940965 	0	1400	1400	1400	1400	1800	1800	1800	1800	600	performance	-	51
1606797525972900289	1	1400	1400	1400	1400	1800	1800	1800	1800	600	performance	-	51
1606797526032701003 	0	1400	1400	1400	1400	1800	1800	1800	1800	600	performance	-	51
1606797527609097372	1	1400	1400	1400	1400	1800	1800	1800	1800	600	performance	-	50
1606797527668819796 	0	1400	1400	1400	1400	1800	1800	1800	1800	600	performance	-	51
1606797529244831840	1	1400	1400	1400	1400	1800	1800	1800	1800	600	performance	-	50
1606797529304764553 	0	1400	1400	1400	1400	1800	1800	1800	1800	600	performance	-	51
1606797530881234474	1	1400	1400	1400	1400	1800	1800	1800	1800	600	performance	-	50
1606797530941213688 	0	1400	1400	1400	1400	1800	1800	1800	1800	600	performance	-	51
1606797532517150910	1	1400	1400	1400	1400	1800	1800	1800	1800	600	performance	-	50
1606797532577717661 	0	1400	1400	1400	1400	1800	1800	1800	1800	600	performance	-	51
1606797534154629673	1	1400	1400	1400	1400	1800	1800	1800	1800	600	performance	-	50
1606797534214585637 	0	1400	1400	1400	1400	1800	1800	1800	1800	600	performance	-	51
1606797535790898451	1	1400	1400	1400	1400	1800	1800	1800	1800	600	performance	-	50
1606797535851394036 	0	1400	1400	1400	1400	1800	1800	1800	1800	600	performance	-	50
1606797537427060694	1	1400	1400	1400	1400	1800	1800	1800	1800	600	performance	-	51
1606797537486815910 	0	1400	1400	1400	1400	1800	1800	1800	1800	600	performance	-	51
1606797539062315824	1	1400	1400	1400	1400	1800	1800	1800	1800	600	performance	-	50
1606797539122675577 	0	1400	1400	1400	1400	1800	1800	1800	1800	600	performance	-	51
1606797540698572744	1	1400	1400	1400	1400	1800	1800	1800	1800	600	performance	-	51
1606797540758469543 	0	1400	1400	1400	1400	1800	1800	1800	1800	600	performance	-	51
1606797542334677504	1	1400	1400	1400	1400	1800	1800	1800	1800	600	performance	-	50
1606797542393986932 	0	1400	1400	1400	1400	1800	1800	1800	1800	600	performance	-	51
1606797543969381697	1	1400	1400	1400	1400	1800	1800	1800	1800	600	performance	-	51
1606797544028776958 	0	1400	1400	1400	1400	1800	1800	1800	1800	600	performance	-	51
1606797545604160395	1	1400	1400	1400	1400	1800	1800	1800	1800	600	performance	-	51
1606797545664397275 	0	1400	1400	1400	1400	1800	1800	1800	1800	600	performance	-	51
1606797547239844717	1	1400	1400	1400	1400	1800	1800	1800	1800	600	performance	-	50
1606797547299477935 	0	1400	1400	1400	1400	1800	1800	1800	1800	600	performance	-	50
1606797548875071964	1	1400	1400	1400	1400	1800	1800	1800	1800	600	performance	-	51
1606797548935552260 	0	1400	1400	1400	1400	1800	1800	1800	1800	600	performance	-	51
1606797550513120655	1	1400	1400	1400	1400	1800	1800	1800	1800	600	performance	-	50
1606797550576804884 	0	1400	1400	1400	1400	1800	1800	1800	1800	600	performance	-	52
1606797552155465818	1	1400	1400	1400	1400	1800	1800	1800	1800	600	performance	-	50
1606797552215344410 	0	1400	1400	1400	1400	1800	1800	1800	1800	600	performance	-	51
1606797553790672124	1	1400	1400	1400	1400	1800	1800	1800	1800	600	performance	-	51
1606797553850150261 	0	1400	1400	1400	1400	1800	1800	1800	1800	600	performance	-	51
1606797555425787270	1	1400	1400	1400	1400	1800	1800	1800	1800	600	performance	-	50
1606797555485461113 	0	1400	1400	1400	1400	1800	1800	1800	1800	600	performance	-	51
1606797557059583805	1	1400	1400	1400	1400	1800	1800	1800	1800	600	performance	-	51
1606797557118348031 	0	1400	1400	1400	1400	1800	1800	1800	1800	600	performance	-	51
1606797558692196606	1	1400	1400	1400	1400	1800	1800	1800	1800	600	performance	-	50
1606797558750160296 	0	1400	1400	1400	1400	1800	1800	1800	1800	600	performance	-	51
1606797560324365706	1	1400	1400	1400	1400	1800	1800	1800	1800	600	performance	-	50
1606797560382333147 	0	1400	1400	1400	1400	1800	1800	1800	1800	600	performance	-	51
1606797561956222273	1	1400	1400	1400	1400	1800	1800	1800	1800	600	performance	-	50
1606797562014162964 	0	1400	1400	1400	1400	1800	1800	1800	1800	600	performance	-	51
1606797563588132928	1	1400	1400	1400	1400	1800	1800	1800	1800	600	performance	-	50
1606797563646155869 	0	1400	1400	1400	1400	1800	1800	1800	1800	600	performance	-	51
1606797565219801923	1	1400	1400	1400	1400	1800	1800	1800	1800	600	performance	-	50
1606797565278174903 	0	1400	1400	1400	1400	1800	1800	1800	1800	600	performance	-	51
1606797566851945879	1	1400	1400	1400	1400	1800	1800	1800	1800	600	performance	-	50
1606797566910882688 	0	1400	1400	1400	1400	1800	1800	1800	1800	600	performance	-	50
1606797568484816918	1	1400	1400	1400	1400	1800	1800	1800	1800	600	performance	-	50
1606797568543269606 	0	1400	1400	1400	1400	1800	1800	1800	1800	600	performance	-	51
1606797570117323632	1	1400	1400	1400	1400	1800	1800	1800	1800	600	performance	-	50
1606797570175792278 	0	1400	1400	1400	1400	1800	1800	1800	1800	600	performance	-	51
1606797571749586311	1	1400	1400	1400	1400	1800	1800	1800	1800	600	performance	-	50
1606797571807939458 	0	1400	1400	1400	1400	1800	1800	1800	1800	600	performance	-	51
1606797573381628247	1	1400	1400	1400	1400	1800	1800	1800	1800	600	performance	-	50
1606797573440591432 	0	1400	1400	1400	1400	1800	1800	1800	1800	600	performance	-	50
1606797575014346099	1	1400	1400	1400	1400	1800	1800	1800	1800	600	performance	-	50
1606797575072761080 	0	1400	1400	1400	1400	1800	1800	1800	1800	600	performance	-	51
1606797576646294880	1	1400	1400	1400	1400	1800	1800	1800	1800	600	performance	-	50
1606797576704762902 	0	1400	1400	1400	1400	1800	1800	1800	1800	600	performance	-	50
1606797578278363082	1	1400	1400	1400	1400	1800	1800	1800	1800	600	performance	-	50
1606797578337012145 	0	1400	1400	1400	1400	1800	1800	1800	1800	600	performance	-	51
1606797579910378497	1	1400	1400	1400	1400	1800	1800	1800	1800	600	performance	-	49
1606797579968290024 	0	1400	1400	1400	1400	1800	1800	1800	1800	600	performance	-	50
1606797581542267503	1	1400	1400	1400	1400	1800	1800	1800	1800	600	performance	-	49
1606797581599976531 	0	1400	1400	1400	1400	1800	1800	1800	1800	600	performance	-	50
1606797583173925681	1	1400	1400	1400	1400	1800	1800	1800	1800	600	performance	-	50
1606797583231954624 	0	1400	1400	1400	1400	1800	1800	1800	1800	600	performance	-	50
1606797584805536615	1	1400	1400	1400	1400	1800	1800	1800	1800	600	performance	-	49
1606797584863858931 	0	1400	1400	1400	1400	1800	1800	1800	1800	600	performance	-	50
1606797586437680134	1	1400	1400	1400	1400	1800	1800	1800	1800	600	performance	-	50
1606797586495646161 	0	1400	1400	1400	1400	1800	1800	1800	1800	600	performance	-	50
1606797588068937539	1	1400	1400	1400	1400	1800	1800	1800	1800	600	performance	-	50
1606797588131381366 	0	1400	1400	1400	1400	1800	1800	1800	1800	600	performance	-	51
1606797589709768462	1	1400	1400	1400	1400	1800	1800	1800	1800	600	performance	-	50
1606797589768309735 	0	1400	1400	1400	1400	1800	1800	1800	1800	600	performance	-	50
1606797591341933663	1	1400	1400	1400	1400	1800	1800	1800	1800	600	performance	-	50
1606797591400291729 	0	1400	1400	1400	1400	1800	1800	1800	1800	600	performance	-	50
1606797592978428836	1	1400	1400	1400	1400	1800	1800	1800	1800	600	performance	-	50
1606797593040906705 	0	1400	1400	1400	1400	1800	1800	1800	1800	600	performance	-	50
1606797594805906471	1	1400	1400	1400	1400	1800	1800	1800	1800	600	performance	-	58
1606797595080979179 	0	1400	1400	1400	1400	1800	1800	1800	1800	600	performance	-	61
1606797596915718143	1	1400	1400	1400	1400	1800	1800	1800	1800	600	performance	-	70
1606797597203621006 	0	1400	1400	1400	1400	1800	1800	1800	1800	600	performance	-	71
1606797599075753992	1	1400	1400	1400	1400	1800	1800	1800	1800	600	performance	-	74
1606797599380892604 	0	1400	1400	1400	1400	1800	1800	1800	1800	600	performance	-	74
1606797601255777993	1	1400	1400	1400	1400	1800	1800	1800	1800	600	performance	-	76
1606797601575750496 	0	1400	1400	1400	1400	1800	1800	1800	1800	600	performance	-	76
1606797603430761666	1	1400	1400	1400	1400	1800	1800	1800	1800	600	performance	-	78
1606797603725739689 	0	1400	1400	1400	1400	1800	1800	1800	1800	600	performance	-	78
1606797605610718394	1	1400	1400	1400	1400	1800	1800	1800	1800	600	performance	-	79
1606797605895735491 	0	1400	1400	1400	1400	1800	1800	1800	1800	600	performance	-	79
1606797607735758328	1	1400	1400	1400	1400	1800	1800	1800	1800	600	performance	-	80
1606797607990777066 	0	1400	1400	1400	1400	1800	1800	1800	1800	600	performance	-	80
1606797609885929002	1	1400	1400	1400	1400	1800	1800	1800	1800	600	performance	-	81
1606797610225751739 	0	1400	1400	1400	1400	1800	1800	1800	1800	600	performance	-	81
1606797612135761364	1	1400	1400	1400	1400	1800	1800	1800	1800	600	performance	-	81
1606797612455748124 	0	1400	1400	1400	1400	1800	1800	1800	1800	600	performance	-	82
1606797614355733373	1	1400	1400	1400	1400	1800	1800	1800	1800	600	performance	-	82
1606797614645725356 	0	1400	1400	1400	1400	1800	1800	1800	1800	600	performance	-	82
1606797616547188769	1	1400	1400	1400	1400	1800	1800	1800	1800	600	performance	-	82
1606797616875750009 	0	1400	1400	1400	1400	1800	1800	1800	1800	600	performance	-	83
1606797618745774120	1	1400	1400	1400	1400	1800	1800	1800	1800	600	performance	-	83
1606797619070737305 	0	1400	1400	1400	1400	1800	1800	1800	1800	600	performance	-	83
1606797620970773535	1	1400	1400	1400	1400	1800	1800	1800	1800	600	performance	-	83
1606797621325842332 	0	1400	1400	1400	1400	1800	1800	1800	1800	600	performance	-	83
1606797623270923697	1	1400	1400	1400	1400	1800	1800	1800	1800	600	performance	-	84
1606797623595758052 	0	1400	1400	1400	1400	1800	1800	1800	1800	600	performance	-	84
1606797625480719492	1	1400	1400	1400	1400	1800	1800	1800	1800	600	performance	-	84
1606797625788615723 	0	1400	1400	1400	1400	1800	1800	1800	1800	600	performance	-	84
1606797627645737334	1	1400	1400	1400	1400	1800	1800	1800	1800	600	performance	-	84
1606797627960733847 	0	1400	1400	1400	1400	1800	1800	1800	1800	600	performance	-	85
1606797629778727462	1	1400	1400	1400	1400	1800	1800	1800	1800	600	performance	-	85
1606797630105778221 	0	1400	1400	1400	1400	1800	1800	1800	1800	600	performance	-	85
1606797632005747198	1	1400	1400	1400	1400	1800	1800	1800	1800	600	performance	-	85
1606797632355752373 	0	1400	1400	1400	1400	1800	1800	1800	1800	600	performance	-	85
1606797634255738732	1	1400	1400	1400	1400	1800	1800	1800	1800	600	performance	-	85
1606797634535768965 	0	1400	1400	1400	1400	1800	1800	1800	1800	600	performance	-	85
1606797636415818644	1	1400	1400	1400	1400	1800	1800	1800	1800	600	performance	-	86
1606797636708669575 	0	1400	1400	1400	1400	1800	1800	1800	1800	600	performance	-	86
1606797638605737845	1	1400	1400	1400	1400	1800	1800	1800	1800	600	performance	-	86
1606797638865803726 	0	1400	1400	1400	1400	1800	1800	1800	1800	600	performance	-	86
1606797640715721350	1	1400	1400	1400	1400	1800	1800	1800	1800	600	performance	-	86
1606797640990721706 	0	1400	1400	1400	1400	1800	1800	1800	1800	600	performance	-	86
1606797642900931143	1	1400	1400	1400	1400	1800	1800	1800	1800	600	performance	-	86
1606797643199158913 	0	1400	1400	1400	1400	1800	1800	1800	1800	600	performance	-	86
1606797645160730648	1	1400	1400	1400	1400	1800	1800	1800	1800	600	performance	-	87
1606797645480755551 	0	1400	1400	1400	1400	1800	1800	1800	1800	600	performance	-	86
1606797647375784073	1	1400	1400	1400	1400	1800	1800	1800	1800	600	performance	-	87
1606797647660740610 	0	1400	1400	1400	1400	1800	1800	1800	1800	600	performance	-	87
1606797649590752466	1	1400	1400	1400	1400	1800	1800	1800	1800	600	performance	-	87
1606797649880777007 	0	1400	1400	1400	1400	1800	1800	1800	1800	600	performance	-	87
1606797651735821128	1	1400	1400	1400	1400	1800	1800	1800	1800	600	performance	-	87
1606797651980772251 	0	1400	1400	1400	1400	1800	1800	1800	1800	600	performance	-	87
1606797653890761060	1	1400	1400	1400	1400	1800	1800	1800	1800	600	performance	-	87
1606797654210740676 	0	1400	1400	1400	1400	1800	1800	1800	1800	600	performance	-	88
1606797656090764878	1	1400	1400	1400	1400	1800	1800	1800	1800	600	performance	-	88
1606797656380886172 	0	1400	1400	1400	1400	1800	1800	1800	1800	600	performance	-	88
1606797658233719454	1	1400	1400	1400	1400	1800	1800	1800	1800	600	performance	-	88
1606797658548712860 	0	1400	1400	1400	1400	1800	1800	1800	1800	600	performance	-	87
1606797660430781935	1	1400	1400	1400	1400	1800	1800	1800	1800	600	performance	-	88
1606797660725786612 	0	1400	1400	1400	1400	1800	1800	1800	1800	600	performance	-	87
1606797662605746418	1	1400	1400	1400	1400	1800	1800	1800	1800	600	performance	-	88
1606797662930727086 	0	1400	1400	1400	1400	1800	1800	1800	1800	600	performance	-	88
1606797664820755617	1	1400	1400	1400	1400	1800	1800	1800	1800	600	performance	-	88
1606797665135753817 	0	1400	1400	1400	1400	1800	1800	1800	1800	600	performance	-	88
1606797667053617277	1	1400	1400	1400	1400	1800	1800	1800	1800	600	performance	-	88
1606797667300772349 	0	1400	1400	1400	1400	1800	1800	1800	1800	600	performance	-	88
1606797669190738894	1	1400	1400	1400	1400	1800	1800	1800	1800	600	performance	-	89
1606797669462180914 	0	1400	1400	1400	1400	1800	1800	1800	1800	600	performance	-	89
1606797671290746705	1	1400	1400	1400	1400	1800	1800	1800	1800	600	performance	-	89
1606797671600746028 	0	1400	1400	1400	1400	1800	1800	1800	1800	600	performance	-	89
1606797673480722701	1	1400	1400	1400	1400	1800	1800	1800	1800	600	performance	-	89
1606797673785751854 	0	1400	1400	1400	1400	1800	1800	1800	1800	600	performance	-	89
1606797675630910787	1	1400	1400	1400	1400	1800	1800	1800	1800	600	performance	-	89
1606797675935792108 	0	1400	1400	1400	1400	1800	1800	1800	1800	600	performance	-	89
1606797677536233288	1	1400	1400	1400	1400	1800	1800	1800	1800	600	performance	-	70
1606797677596377308 	0	1400	1400	1400	1400	1800	1800	1800	1800	600	performance	-	70
1606797679172365461	1	1400	1400	1400	1400	1800	1800	1800	1800	600	performance	-	65
1606797679232679022 	0	1400	1400	1400	1400	1800	1800	1800	1800	600	performance	-	66
1606797680808947303	1	1400	1400	1400	1400	1800	1800	1800	1800	600	performance	-	63
1606797680868809784 	0	1400	1400	1400	1400	1800	1800	1800	1800	600	performance	-	63
1606797682444780779	1	1400	1400	1400	1400	1800	1800	1800	1800	600	performance	-	62
1606797682504679344 	0	1400	1400	1400	1400	1800	1800	1800	1800	600	performance	-	61
1606797684080744634	1	1400	1400	1400	1400	1800	1800	1800	1800	600	performance	-	60
1606797684140572157 	0	1400	1400	1400	1400	1800	1800	1800	1800	600	performance	-	61
1606797685716263955	1	1400	1400	1400	1400	1800	1800	1800	1800	600	performance	-	59
1606797685776403684 	0	1400	1400	1400	1400	1800	1800	1800	1800	600	performance	-	60
1606797687352175985	1	1400	1400	1400	1400	1800	1800	1800	1800	600	performance	-	59
1606797687412532380 	0	1400	1400	1400	1400	1800	1800	1800	1800	600	performance	-	59
1606797688988470641	1	1400	1400	1400	1400	1800	1800	1800	1800	600	performance	-	58
1606797689048779037 	0	1400	1400	1400	1400	1800	1800	1800	1800	600	performance	-	59
1606797690625049092	1	1400	1400	1400	1400	1800	1800	1800	1800	600	performance	-	57
1606797690685143572 	0	1400	1400	1400	1400	1800	1800	1800	1800	600	performance	-	58
1606797692261334591	1	1400	1400	1400	1400	1800	1800	1800	1800	600	performance	-	57
1606797692321225489 	0	1400	1400	1400	1400	1800	1800	1800	1800	600	performance	-	57
1606797693896847266	1	1400	1400	1400	1400	1800	1800	1800	1800	600	performance	-	57
1606797693956780122 	0	1400	1400	1400	1400	1800	1800	1800	1800	600	performance	-	57
1606797695532392778	1	1400	1400	1400	1400	1800	1800	1800	1800	600	performance	-	56
1606797695592598591 	0	1400	1400	1400	1400	1800	1800	1800	1800	600	performance	-	57
1606797697168412291	1	1400	1400	1400	1400	1800	1800	1800	1800	600	performance	-	56
1606797697228805936 	0	1400	1400	1400	1400	1800	1800	1800	1800	600	performance	-	56
1606797698805037679	1	1400	1400	1400	1400	1800	1800	1800	1800	600	performance	-	56
1606797698868079055 	0	1400	1400	1400	1400	1800	1800	1800	1800	600	performance	-	56
1606797700447594986	1	1400	1400	1400	1400	1800	1800	1800	1800	600	performance	-	55
1606797700509174707 	0	1400	1400	1400	1400	1800	1800	1800	1800	600	performance	-	56
1606797702086282992	1	1400	1400	1400	1400	1800	1800	1800	1800	600	performance	-	55
1606797702146133267 	0	1400	1400	1400	1400	1800	1800	1800	1800	600	performance	-	55
1606797703723082725	1	1400	1400	1400	1400	1800	1800	1800	1800	600	performance	-	55
1606797703784590821 	0	1400	1400	1400	1400	1800	1800	1800	1800	600	performance	-	55
1606797705360281375	1	1400	1400	1400	1400	1800	1800	1800	1800	600	performance	-	54
1606797705420447814 	0	1400	1400	1400	1400	1800	1800	1800	1800	600	performance	-	55
1606797707000290592	1	1400	1400	1400	1400	1800	1800	1800	1800	600	performance	-	55
1606797707060677613 	0	1400	1400	1400	1400	1800	1800	1800	1800	600	performance	-	55
1606797708636903796	1	1400	1400	1400	1400	1800	1800	1800	1800	600	performance	-	55
1606797708696798655 	0	1400	1400	1400	1400	1800	1800	1800	1800	600	performance	-	55
1606797710273404672	1	1400	1400	1400	1400	1800	1800	1800	1800	600	performance	-	55
1606797710334967394 	0	1400	1400	1400	1400	1800	1800	1800	1800	600	performance	-	54
1606797711911087210	1	1400	1400	1400	1400	1800	1800	1800	1800	600	performance	-	54
1606797711971104068 	0	1400	1400	1400	1400	1800	1800	1800	1800	600	performance	-	54
1606797713546607393	1	1400	1400	1400	1400	1800	1800	1800	1800	600	performance	-	54
1606797713606773292 	0	1400	1400	1400	1400	1800	1800	1800	1800	600	performance	-	54
