TimeStamp,Total Power,CPU Power,GPU Power
1593890312301223,1.372,0.457,0.152
1593890312804299,1.372,0.381,0.152
1593890313307166,1.258,0.305,0.152
1593890313810055,1.181,0.305,0.152
1593890314312950,1.334,0.381,0.152
1593890314815602,1.334,0.381,0.152
1593890315318377,1.296,0.381,0.152
1593890315821264,1.258,0.305,0.152
1593890316324113,1.296,0.305,0.152
1593890316826860,1.296,0.305,0.152
1593890317329734,1.258,0.305,0.152
1593890317832818,1.372,0.381,0.152
1593890318335934,1.448,0.457,0.152
1593890318838640,1.41,0.457,0.152
1593890319341936,1.486,0.534,0.152
1593890319845560,1.448,0.457,0.152
1593890320348662,1.525,0.534,0.152
1593890320851700,1.525,0.534,0.152
1593890321354516,1.448,0.534,0.152
1593890321857482,1.486,0.534,0.152
1593890322360396,1.448,0.534,0.152
1593890322863163,1.486,0.534,0.152
1593890323366125,1.448,0.457,0.152
1593890323870040,1.525,0.534,0.152
1593890324373052,1.486,0.534,0.152
1593890324880605,1.486,0.534,0.152
1593890325382450,1.486,0.534,0.152
1593890325884309,1.486,0.534,0.152
1593890326386249,1.486,0.457,0.152
1593890326888018,1.486,0.534,0.152
1593890327389962,1.448,0.457,0.152
1593890327891835,1.486,0.534,0.152
1593890328393765,1.486,0.534,0.152
1593890328895661,1.486,0.534,0.152
1593890329397477,1.715,0.533,0.152
1593890329899474,1.83,0.533,0.152
1593890330401317,1.715,0.533,0.152
1593890330903050,1.486,0.457,0.152
1593890331408156,1.448,0.457,0.152
1593890331909970,1.639,0.534,0.152
1593890332411754,1.525,0.457,0.152
1593890332913546,1.525,0.534,0.152
1593890333415460,1.525,0.534,0.152
1593890333917283,1.486,0.534,0.152
1593890334419144,1.486,0.534,0.152
1593890334921002,1.486,0.534,0.152
1593890335422779,1.41,0.457,0.152
1593890335924678,1.448,0.457,0.152
1593890336429840,1.448,0.457,0.152
1593890336932062,1.486,0.457,0.152
1593890337433883,1.715,0.533,0.152
1593890337935731,1.792,0.533,0.152
1593890338437547,1.677,0.534,0.152
1593890338939383,1.525,0.534,0.152
1593890339441712,1.41,0.457,0.152
1593890339943655,1.41,0.457,0.152
1593890340445497,1.448,0.457,0.152
1593890340952161,1.448,0.457,0.152
1593890341458822,1.525,0.534,0.152
1593890341962021,1.448,0.534,0.152
1593890342465231,1.525,0.534,0.152
1593890342968276,1.448,0.534,0.152
1593890343471237,1.448,0.457,0.152
1593890343985441,1.41,0.457,0.152
1593890344487715,1.448,0.457,0.152
1593890344989550,1.486,0.457,0.152
1593890345491432,1.486,0.534,0.152
1593890345993237,1.486,0.457,0.152
1593890346495076,1.677,0.534,0.152
1593890346996854,1.525,0.534,0.152
1593890347498605,1.486,0.457,0.152
1593890348000688,1.41,0.457,0.152
1593890348502499,1.41,0.457,0.152
1593890349004389,1.486,0.534,0.152
1593890349506217,1.486,0.534,0.152
1593890350008227,1.525,0.534,0.152
1593890350510111,1.448,0.534,0.152
1593890351011947,1.448,0.534,0.152
1593890351513800,1.525,0.534,0.152
1593890352015602,1.448,0.457,0.152
1593890352517381,1.448,0.534,0.152
1593890353019216,1.448,0.534,0.152
1593890353521097,1.448,0.457,0.152
1593890354022990,1.486,0.534,0.152
1593890354524901,1.486,0.534,0.152
1593890355026757,1.525,0.534,0.152
1593890355528745,1.486,0.534,0.152
1593890356030580,1.525,0.534,0.152
1593890356532334,1.448,0.534,0.152
1593890357034084,1.41,0.457,0.152
1593890357535945,1.448,0.534,0.152
1593890358037753,1.486,0.534,0.152
1593890358539578,1.525,0.534,0.152
1593890359042430,1.486,0.534,0.152
1593890359545727,1.715,0.533,0.152
1593890360049227,1.753,0.533,0.152
1593890360552273,1.525,0.534,0.152
1593890361055158,1.525,0.534,0.152
1593890361558175,1.448,0.534,0.152
1593890362061488,1.486,0.534,0.152
1593890362564163,1.525,0.534,0.152
1593890363066042,1.525,0.534,0.152
1593890363567981,1.486,0.534,0.152
1593890364069801,1.563,0.534,0.152
1593890364571633,1.486,0.534,0.152
1593890365073345,1.41,0.457,0.152
1593890365575214,1.448,0.457,0.152
1593890366077054,1.41,0.457,0.152
1593890366578957,1.486,0.534,0.152
1593890367083515,1.486,0.534,0.152
1593890367585250,1.486,0.534,0.152
1593890368087068,1.525,0.534,0.152
1593890368588964,1.448,0.457,0.152
1593890369090723,1.448,0.457,0.152
1593890369592376,1.372,0.457,0.152
1593890370094160,1.41,0.457,0.152
1593890370596079,1.448,0.457,0.152
1593890371098032,1.486,0.457,0.152
1593890371599914,1.448,0.457,0.152
1593890372101820,1.525,0.534,0.152
1593890372603752,1.486,0.534,0.152
1593890373105445,1.486,0.534,0.152
1593890373607250,1.486,0.534,0.152
1593890374109182,1.41,0.457,0.152
1593890374610988,1.448,0.534,0.152
1593890375112963,1.448,0.534,0.152
1593890375614748,1.486,0.534,0.152
1593890376116646,1.486,0.534,0.152
1593890376618381,1.448,0.457,0.152
1593890377120318,1.486,0.534,0.152
1593890377623798,1.486,0.534,0.152
1593890378126691,1.486,0.457,0.152
1593890378629903,1.41,0.457,0.152
1593890379132947,1.334,0.457,0.152
1593890379636034,1.448,0.457,0.152
1593890380138889,1.486,0.534,0.152
1593890380645731,1.486,0.534,0.152
1593890381148512,1.486,0.534,0.152
1593890381651614,1.448,0.457,0.152
1593890382154599,1.525,0.534,0.152
1593890382657499,1.448,0.534,0.152
1593890383164778,1.448,0.457,0.152
1593890383667945,1.448,0.534,0.152
1593890384170697,1.486,0.534,0.152
1593890384673603,1.525,0.534,0.152
1593890385176660,1.448,0.457,0.152
1593890385679016,1.525,0.534,0.152
1593890386180950,1.486,0.534,0.152
1593890386682799,1.41,0.457,0.152
1593890387184634,1.41,0.457,0.152
1593890387687260,1.448,0.457,0.152
1593890388189186,1.486,0.457,0.152
1593890388690903,1.448,0.457,0.152
1593890389193241,1.525,0.534,0.152
1593890389695208,1.753,0.533,0.152
1593890390198073,1.677,0.457,0.152
1593890390701033,1.563,0.534,0.152
1593890391204137,1.448,0.457,0.152
1593890391706968,1.525,0.534,0.152
1593890392209941,1.486,0.534,0.152
1593890392713422,1.448,0.457,0.152
1593890393219902,1.525,0.534,0.152
1593890393722961,1.486,0.534,0.152
1593890394225999,1.525,0.534,0.152
1593890394729326,1.41,0.457,0.152
1593890395232341,1.372,0.457,0.152
1593890395735409,1.448,0.457,0.152
1593890396239577,1.486,0.534,0.152
1593890396742475,1.448,0.457,0.152
1593890397245466,1.486,0.534,0.152
1593890397748371,1.448,0.457,0.152
1593890398254380,1.486,0.457,0.152
1593890398757275,1.525,0.534,0.152
1593890399260233,1.448,0.534,0.152
1593890399763162,1.372,0.457,0.152
1593890400266295,1.372,0.457,0.152
1593890400769454,1.486,0.534,0.152
1593890401272555,1.486,0.534,0.152
1593890401775646,1.486,0.534,0.152
1593890402279248,1.486,0.534,0.152
1593890402782612,1.486,0.534,0.152
1593890403288638,1.486,0.457,0.152
1593890403790453,1.448,0.534,0.152
1593890404292358,1.41,0.457,0.152
1593890404794120,1.448,0.457,0.152
1593890405295957,1.41,0.457,0.152
1593890405797905,1.448,0.457,0.152
1593890406299751,1.486,0.534,0.152
1593890406801586,1.486,0.534,0.152
1593890407304064,1.525,0.534,0.152
1593890407806107,1.486,0.534,0.152
1593890408310496,1.486,0.534,0.152
1593890408813546,1.41,0.457,0.152
1593890409316684,1.448,0.457,0.152
1593890409819594,1.486,0.534,0.152
1593890410323849,1.486,0.534,0.152
1593890410827003,1.486,0.534,0.152
1593890411333153,1.448,0.534,0.152
1593890411836133,1.525,0.534,0.152
1593890412339185,1.486,0.534,0.152
1593890412842524,1.486,0.534,0.152
1593890413353866,1.448,0.457,0.152
1593890413860911,1.41,0.457,0.152
1593890414364087,1.448,0.457,0.152
1593890414867043,1.448,0.534,0.152
1593890415370068,1.525,0.534,0.152
1593890415873021,1.486,0.534,0.152
1593890416375979,1.486,0.534,0.152
1593890416884365,1.486,0.534,0.152
1593890417387416,1.448,0.534,0.152
1593890417890328,1.448,0.534,0.152
1593890418393317,1.41,0.457,0.152
1593890418899854,1.41,0.457,0.152
1593890419402174,1.601,0.457,0.152
1593890419904126,1.753,0.533,0.152
1593890420406061,1.677,0.534,0.152
1593890420907961,1.525,0.534,0.152
1593890421409794,1.563,0.534,0.152
1593890421911577,1.486,0.534,0.152
1593890422413307,1.41,0.457,0.152
1593890422915057,1.41,0.457,0.152
1593890423416792,1.448,0.457,0.152
1593890423918689,1.41,0.457,0.152
1593890424420571,1.525,0.534,0.152
1593890424922457,1.486,0.534,0.152
1593890425424444,1.486,0.534,0.152
1593890425926260,1.486,0.534,0.152
1593890426428074,1.448,0.534,0.152
1593890426929897,1.448,0.534,0.152
1593890427431848,1.41,0.534,0.152
1593890427933720,1.448,0.457,0.152
1593890428436076,1.486,0.534,0.152
1593890428938988,1.448,0.457,0.152
1593890429445678,1.486,0.534,0.152
1593890429949192,1.486,0.534,0.152
1593890430453053,1.525,0.534,0.152
1593890430956689,1.486,0.534,0.152
1593890431459699,1.41,0.457,0.152
1593890431962620,1.448,0.534,0.152
1593890432465699,1.41,0.457,0.152
1593890432968708,1.486,0.534,0.152
1593890433472305,1.486,0.534,0.152
1593890433975253,1.486,0.534,0.152
1593890434482128,1.525,0.534,0.152
1593890434985272,1.448,0.457,0.152
1593890435488284,1.486,0.534,0.152
1593890435991172,1.41,0.457,0.152
1593890436494248,1.41,0.457,0.152
1593890436997213,1.486,0.534,0.152
1593890437500274,1.448,0.457,0.152
1593890438003267,1.486,0.534,0.152
1593890438506370,1.448,0.457,0.152
1593890439010589,1.486,0.457,0.152
1593890439513575,1.525,0.534,0.152
1593890440016591,1.41,0.534,0.152
1593890440519569,1.486,0.534,0.152
1593890441022708,1.41,0.457,0.152
1593890441526093,1.41,0.457,0.152
1593890442029163,1.486,0.457,0.152
1593890442532138,1.486,0.534,0.152
1593890443035050,1.525,0.534,0.152
1593890443537967,1.486,0.534,0.152
1593890444041161,1.525,0.534,0.152
1593890444544839,1.41,0.457,0.152
1593890445047872,1.372,0.457,0.152
1593890445550717,1.486,0.534,0.152
1593890446054418,1.486,0.457,0.152
1593890446557581,1.486,0.534,0.152
1593890447060669,1.486,0.534,0.152
1593890447563556,1.486,0.534,0.152
1593890448066504,1.525,0.534,0.152
1593890448569565,1.448,0.457,0.152
1593890449072967,1.448,0.534,0.152
1593890449579511,1.601,0.534,0.152
1593890450082452,1.677,0.534,0.152
1593890450584339,1.563,0.534,0.152
1593890451086195,1.448,0.457,0.152
1593890451588203,1.525,0.534,0.152
1593890452093784,1.486,0.534,0.152
1593890452595782,1.486,0.457,0.152
1593890453097666,1.448,0.534,0.152
1593890453599447,1.41,0.457,0.152
1593890454101269,1.486,0.534,0.152
1593890454603100,1.486,0.534,0.152
1593890455104931,1.486,0.534,0.152
1593890455606920,1.486,0.534,0.152
1593890456110516,1.486,0.534,0.152
1593890456613425,1.486,0.534,0.152
1593890457116341,1.448,0.457,0.152
1593890457619262,1.486,0.534,0.152
1593890458122207,1.41,0.457,0.152
1593890458625222,1.448,0.457,0.152
1593890459128830,1.41,0.457,0.152
1593890459631925,1.448,0.457,0.152
1593890460141412,1.486,0.457,0.152
1593890460644370,1.448,0.457,0.152
1593890461147574,1.525,0.534,0.152
1593890461650608,1.486,0.534,0.152
1593890462153574,1.525,0.534,0.152
1593890462656396,1.525,0.534,0.152
1593890463159478,1.486,0.534,0.152
1593890463662299,1.41,0.534,0.152
1593890464165518,1.448,0.457,0.152
1593890464668880,1.486,0.534,0.152
1593890465174808,1.448,0.457,0.152
1593890465677870,1.486,0.534,0.152
1593890466181034,1.448,0.534,0.152
1593890466684077,1.486,0.534,0.152
1593890467187120,1.486,0.534,0.152
1593890467689987,1.448,0.534,0.152
1593890468192900,1.448,0.534,0.152
1593890468695110,1.372,0.457,0.152
1593890469198327,1.448,0.457,0.152
1593890469701242,1.486,0.534,0.152
1593890470207757,1.448,0.457,0.152
1593890470710786,1.486,0.534,0.152
1593890471213635,1.486,0.534,0.152
1593890471716847,1.486,0.457,0.152
1593890472219740,1.448,0.457,0.152
1593890472722620,1.448,0.534,0.152
1593890473225684,1.448,0.534,0.152
1593890473728630,1.41,0.457,0.152
1593890474231834,1.486,0.457,0.152
1593890474734718,1.486,0.534,0.152
1593890475242043,1.486,0.534,0.152
1593890475745357,1.486,0.534,0.152
1593890476248353,1.486,0.534,0.152
1593890476751130,1.486,0.534,0.152
1593890477254117,1.41,0.457,0.152
1593890477757246,1.486,0.457,0.152
1593890478265167,1.486,0.534,0.152
1593890478768272,1.525,0.534,0.152
1593890479271249,1.448,0.457,0.152
1593890479774319,1.41,0.457,0.152
1593890480279853,1.525,0.457,0.152
1593890480782845,1.486,0.457,0.152
1593890481285753,1.41,0.457,0.152
1593890481788617,1.448,0.534,0.152
1593890482291547,1.448,0.534,0.152
1593890482793846,1.486,0.534,0.152
1593890483295748,1.448,0.457,0.152
1593890483797558,1.525,0.534,0.152
1593890484299471,1.486,0.534,0.152
1593890484801334,1.525,0.534,0.152
1593890485303166,1.486,0.534,0.152
1593890485805317,1.525,0.534,0.152
1593890486307130,1.448,0.534,0.152
1593890486809118,1.41,0.457,0.152
1593890487312239,1.448,0.457,0.152
1593890487814095,1.448,0.534,0.152
1593890488316045,1.448,0.534,0.152
1593890488817819,1.486,0.534,0.152
1593890489319845,1.41,0.457,0.152
1593890489821751,1.525,0.534,0.152
1593890490325982,1.563,0.534,0.152
1593890490828731,1.486,0.534,0.152
1593890491330576,1.372,0.457,0.152
1593890491832338,1.41,0.457,0.152
1593890492334238,1.41,0.457,0.152
1593890492836179,1.486,0.534,0.152
1593890493337986,1.486,0.534,0.152
1593890493839876,1.486,0.534,0.152
1593890494341601,1.525,0.534,0.152
1593890494843435,1.448,0.534,0.152
1593890495345219,1.448,0.534,0.152
1593890495847025,1.41,0.457,0.152
1593890496348894,1.525,0.534,0.152
1593890496852581,1.486,0.534,0.152
1593890497354420,1.525,0.534,0.152
1593890497856517,1.525,0.534,0.152
1593890498358344,1.525,0.534,0.152
1593890498860124,1.448,0.534,0.152
1593890499361878,1.41,0.457,0.152
1593890499869097,1.486,0.534,0.152
1593890500370957,1.448,0.457,0.152
1593890500872855,1.486,0.534,0.152
1593890501374716,1.486,0.534,0.152
1593890501876764,1.486,0.534,0.152
1593890502378616,1.525,0.534,0.152
1593890502880479,1.486,0.534,0.152
1593890503382326,1.486,0.534,0.152
1593890503884087,1.372,0.457,0.152
1593890504386001,1.41,0.457,0.152
1593890504888192,1.486,0.534,0.152
1593890505391097,1.448,0.534,0.152
1593890505900329,1.486,0.534,0.152
1593890506402154,1.448,0.534,0.152
1593890506907616,1.525,0.534,0.152
1593890507410491,1.486,0.534,0.152
1593890507914747,1.41,0.457,0.152
1593890508417650,1.448,0.534,0.152
1593890508920622,1.41,0.457,0.152
1593890509423703,1.486,0.534,0.152
1593890509926578,1.486,0.534,0.152
1593890510429672,1.601,0.534,0.152
1593890510936615,1.525,0.534,0.152
1593890511439585,1.486,0.457,0.152
1593890511942716,1.486,0.457,0.152
1593890512445750,1.41,0.457,0.152
1593890512948226,1.448,0.457,0.152
1593890513450089,1.41,0.457,0.152
1593890513952191,1.486,0.534,0.152
1593890514454020,1.525,0.534,0.152
1593890514955868,1.486,0.534,0.152
1593890515457694,1.525,0.534,0.152
1593890515959585,1.486,0.534,0.152
1593890516461428,1.486,0.534,0.152
1593890516965939,1.448,0.534,0.152
1593890517467709,1.41,0.457,0.152
1593890517969594,1.448,0.457,0.152
1593890518471471,1.448,0.457,0.152
1593890518973161,1.486,0.534,0.152
1593890519474943,1.486,0.534,0.152
1593890519977543,1.486,0.457,0.152
1593890520480483,1.486,0.534,0.152
1593890520985688,1.486,0.457,0.152
1593890521488664,1.41,0.534,0.152
1593890521997635,1.41,0.457,0.152
1593890522500568,1.486,0.534,0.152
1593890523003557,1.486,0.534,0.152
1593890523505858,1.486,0.457,0.152
1593890524007738,1.448,0.534,0.152
1593890524509589,1.448,0.457,0.152
1593890525011516,1.486,0.457,0.152
1593890525513404,1.448,0.534,0.152
1593890526015218,1.486,0.534,0.152
1593890526517126,1.448,0.534,0.152
1593890527019079,1.486,0.534,0.152
1593890527521032,1.525,0.534,0.152
1593890528022861,1.486,0.534,0.152
1593890528524639,1.525,0.534,0.152
1593890529026463,1.486,0.534,0.152
1593890529528266,1.486,0.534,0.152
1593890530030144,1.486,0.534,0.152
1593890530532062,1.563,0.534,0.152
1593890531035491,1.448,0.457,0.152
1593890531537248,1.486,0.457,0.152
1593890532039055,1.486,0.457,0.152
1593890532543668,1.448,0.534,0.152
1593890533045496,1.525,0.534,0.152
1593890533557883,1.486,0.534,0.152
1593890534059714,1.486,0.534,0.152
1593890534561539,1.486,0.534,0.152
1593890535063411,1.486,0.534,0.152
1593890535565124,1.448,0.534,0.152
1593890536067094,1.448,0.534,0.152
1593890536568895,1.486,0.534,0.152
1593890537070669,1.486,0.534,0.152
1593890537575028,1.486,0.534,0.152
1593890538076918,1.448,0.457,0.152
1593890538578786,1.525,0.534,0.152
1593890539080575,1.448,0.457,0.152
1593890539582365,1.372,0.457,0.152
1593890540084172,1.525,0.457,0.152
1593890540586039,1.753,0.533,0.152
1593890541092422,1.83,0.533,0.152
1593890541594260,1.639,0.534,0.152
1593890542096113,1.525,0.534,0.152
1593890542598520,1.525,0.534,0.152
1593890543100421,1.486,0.534,0.152
1593890543602214,1.486,0.534,0.152
1593890544104116,1.41,0.457,0.152
1593890544606087,1.41,0.457,0.152
1593890545108156,1.486,0.534,0.152
1593890545610021,1.525,0.534,0.152
1593890546111876,1.486,0.534,0.152
1593890546613801,1.486,0.534,0.152
1593890547115739,1.486,0.534,0.152
1593890547617381,1.448,0.457,0.152
1593890548119268,1.486,0.534,0.152
1593890548621095,1.41,0.457,0.152
1593890549124984,1.448,0.534,0.152
1593890549626864,1.448,0.457,0.152
1593890550128699,1.486,0.534,0.152
1593890550630563,1.486,0.534,0.152
1593890551132459,1.486,0.534,0.152
1593890551634147,1.486,0.457,0.152
1593890552136123,1.486,0.534,0.152
1593890552637925,1.486,0.534,0.152
1593890553139683,1.41,0.457,0.152
1593890553644179,1.448,0.457,0.152
1593890554146011,1.486,0.534,0.152
1593890554647956,1.486,0.457,0.152
1593890555149790,1.486,0.534,0.152
1593890555651656,1.486,0.534,0.152
1593890556153565,1.525,0.534,0.152
1593890556655417,1.486,0.534,0.152
1593890557157232,1.41,0.457,0.152
1593890557659044,1.486,0.534,0.152
1593890558160937,1.525,0.534,0.152
1593890558662711,1.486,0.534,0.152
1593890559164725,1.448,0.534,0.152
1593890559666619,1.525,0.534,0.152
1593890560168524,1.563,0.534,0.152
1593890560670385,1.525,0.534,0.152
1593890561172197,1.448,0.457,0.152
1593890561674054,1.448,0.457,0.152
1593890562176429,1.448,0.457,0.152
1593890562679446,1.372,0.457,0.152
1593890563182316,1.448,0.457,0.152
1593890563685437,1.448,0.534,0.152
1593890564202857,1.525,0.534,0.152
1593890564705790,1.486,0.534,0.152
1593890565208738,1.41,0.457,0.152
1593890565711795,1.448,0.534,0.152
1593890566214957,1.41,0.457,0.152
1593890566717409,1.448,0.457,0.152
1593890567219249,1.448,0.457,0.152
1593890567721154,1.448,0.457,0.152
1593890568222870,1.486,0.457,0.152
1593890568724603,1.448,0.457,0.152
1593890569229476,1.448,0.457,0.152
1593890569731299,1.486,0.534,0.152
1593890570233054,1.41,0.457,0.152
1593890570734771,1.372,0.457,0.152
1593890571236724,1.486,0.457,0.152
1593890571738585,1.448,0.457,0.152
1593890572240373,1.486,0.534,0.152
1593890572742249,1.486,0.534,0.152
1593890573244276,1.525,0.534,0.152
1593890573746103,1.486,0.534,0.152
1593890574250989,1.448,0.457,0.152
1593890574752906,1.448,0.534,0.152
1593890575254672,1.41,0.457,0.152
1593890575756666,1.486,0.457,0.152
1593890576258492,1.486,0.534,0.152
1593890576760373,1.448,0.534,0.152
1593890577263356,1.486,0.534,0.152
1593890577765242,1.486,0.534,0.152
1593890578267059,1.525,0.534,0.152
1593890578769005,1.525,0.534,0.152
1593890579273548,1.525,0.534,0.152
1593890579775867,1.448,0.534,0.152
1593890580277640,1.525,0.534,0.152
1593890580779478,1.486,0.534,0.152
1593890581281386,1.486,0.534,0.152
1593890581783285,1.486,0.534,0.152
1593890582287449,1.486,0.534,0.152
1593890582789281,1.486,0.534,0.152
1593890583291073,1.41,0.457,0.152
1593890583792933,1.448,0.534,0.152
1593890584297522,1.41,0.457,0.152
1593890584799449,1.448,0.457,0.152
1593890585301221,1.715,0.457,0.152
1593890585803146,1.753,0.533,0.152
1593890586305121,1.715,0.533,0.152
1593890586806983,1.563,0.534,0.152
1593890587308865,1.677,0.534,0.152
1593890587810708,1.448,0.457,0.152
1593890588312508,1.41,0.457,0.152
1593890588814296,1.448,0.534,0.152
1593890589319205,1.677,0.457,0.152
1593890589822530,1.792,0.457,0.152
1593890590325420,1.868,0.533,0.152
1593890590833925,1.868,0.533,0.152
1593890591336833,1.639,0.534,0.152
1593890591840026,1.563,0.534,0.152
1593890592342990,1.486,0.534,0.152
1593890592846001,1.448,0.457,0.152
1593890593349040,1.601,0.457,0.152
1593890593853230,1.753,0.457,0.152
1593890594356295,1.677,0.534,0.152
1593890594859148,1.525,0.534,0.152
1593890595362037,1.525,0.534,0.152
1593890595865049,1.486,0.534,0.152
1593890596368035,1.41,0.457,0.152
1593890596871021,1.448,0.534,0.152
1593890597374248,1.448,0.534,0.152
1593890597877333,1.525,0.534,0.152
1593890598380389,1.486,0.534,0.152
1593890598883621,1.486,0.534,0.152
1593890599386488,1.486,0.534,0.152
1593890599895766,1.448,0.457,0.152
1593890600397609,1.486,0.534,0.152
1593890600899363,1.372,0.457,0.152
1593890601401122,1.334,0.457,0.152
1593890601902950,1.448,0.534,0.152
1593890602404876,1.486,0.534,0.152
1593890602906667,1.525,0.534,0.152
1593890603408591,1.486,0.534,0.152
1593890603910408,1.486,0.534,0.152
1593890604416499,1.525,0.534,0.152
1593890604919569,1.448,0.457,0.152
1593890605422786,1.486,0.534,0.152
1593890605925759,1.41,0.457,0.152
1593890606428809,1.486,0.457,0.152
1593890606931814,1.486,0.534,0.152
1593890607434707,1.41,0.457,0.152
1593890607937775,1.486,0.534,0.152
1593890608440874,1.448,0.534,0.152
1593890608943824,1.525,0.534,0.152
1593890609450815,1.486,0.534,0.152
1593890609954606,1.486,0.534,0.152
1593890610457578,1.448,0.534,0.152
1593890610960692,1.41,0.457,0.152
1593890611463587,1.486,0.534,0.152
1593890611965303,1.448,0.457,0.152
1593890612467136,1.525,0.534,0.152
1593890612968953,1.448,0.534,0.152
1593890613470798,1.448,0.457,0.152
1593890613972640,1.486,0.534,0.152
1593890614474378,1.41,0.457,0.152
1593890614976154,1.448,0.457,0.152
1593890615478015,1.448,0.534,0.152
1593890615979877,1.448,0.457,0.152
1593890616481694,1.486,0.534,0.152
1593890616983590,1.448,0.457,0.152
1593890617485451,1.448,0.457,0.152
1593890617987376,1.486,0.534,0.152
1593890618489116,1.41,0.457,0.152
1593890618990816,1.448,0.457,0.152
1593890619492629,1.372,0.457,0.152
1593890619997152,1.372,0.457,0.152
1593890620499072,1.486,0.457,0.152
1593890621001081,1.525,0.534,0.152
1593890621508220,1.525,0.534,0.152
1593890622009947,1.525,0.534,0.152
1593890622511894,1.525,0.534,0.152
1593890623013773,1.525,0.534,0.152
1593890623515587,1.41,0.457,0.152
1593890624017334,1.448,0.457,0.152
1593890624519033,1.41,0.457,0.152
1593890625023688,1.41,0.457,0.152
1593890625525519,1.486,0.457,0.152
1593890626027538,1.486,0.534,0.152
1593890626529384,1.486,0.534,0.152
1593890627031201,1.486,0.534,0.152
1593890627533054,1.41,0.457,0.152
1593890628034768,1.448,0.457,0.152
1593890628536555,1.448,0.457,0.152
1593890629038517,1.448,0.457,0.152
1593890629540444,1.486,0.534,0.152
1593890630042318,1.486,0.534,0.152
1593890630544147,1.639,0.534,0.152
1593890631046045,1.792,0.533,0.152
1593890631547942,1.677,0.533,0.152
1593890632049697,1.486,0.534,0.152
1593890632551461,1.448,0.457,0.152
1593890633053362,1.41,0.457,0.152
1593890633555198,1.41,0.457,0.152
1593890634057074,1.525,0.534,0.152
1593890634558915,1.448,0.457,0.152
1593890635060814,1.486,0.534,0.152
1593890635566234,1.486,0.534,0.152
1593890636069476,1.448,0.457,0.152
1593890636572461,1.486,0.457,0.152
1593890637075397,1.41,0.457,0.152
1593890637578255,1.448,0.534,0.152
1593890638081127,1.448,0.534,0.152
1593890638584197,1.41,0.457,0.152
1593890639087089,1.486,0.534,0.152
1593890639590546,1.448,0.457,0.152
1593890640094419,1.525,0.534,0.152
1593890640597554,1.486,0.534,0.152
1593890641101167,1.486,0.534,0.152
1593890641604572,1.486,0.534,0.152
1593890642107513,1.41,0.457,0.152
1593890642611941,1.448,0.534,0.152
1593890643114940,1.41,0.457,0.152
1593890643617966,1.372,0.457,0.152
1593890644121195,1.486,0.457,0.152
1593890644624102,1.448,0.534,0.152
1593890645127113,1.525,0.534,0.152
1593890645632692,1.486,0.534,0.152
1593890646135816,1.448,0.457,0.152
1593890646638825,1.41,0.457,0.152
1593890647141846,1.41,0.457,0.152
1593890647644768,1.41,0.457,0.152
1593890648147115,1.486,0.534,0.152
1593890648648925,1.448,0.457,0.152
1593890649150837,1.448,0.457,0.152
1593890649652845,1.486,0.534,0.152
1593890650154584,1.41,0.457,0.152
1593890650659069,1.448,0.457,0.152
1593890651160950,1.448,0.534,0.152
1593890651662805,1.525,0.534,0.152
1593890652164729,1.486,0.457,0.152
1593890652666605,1.525,0.534,0.152
1593890653168426,1.486,0.534,0.152
1593890653670335,1.486,0.534,0.152
1593890654172151,1.448,0.457,0.152
1593890654673860,1.41,0.457,0.152
1593890655175715,1.486,0.457,0.152
1593890655680334,1.448,0.457,0.152
1593890656182148,1.41,0.457,0.152
1593890656683972,1.448,0.457,0.152
1593890657185796,1.448,0.457,0.152
1593890657687727,1.448,0.457,0.152
1593890658189763,1.486,0.534,0.152
1593890658691499,1.448,0.534,0.152
1593890659193227,1.486,0.457,0.152
1593890659695069,1.448,0.457,0.152
1593890660197039,1.486,0.534,0.152
1593890660701735,1.41,0.457,0.152
1593890661203594,1.372,0.457,0.152
1593890661705470,1.486,0.457,0.152
1593890662207282,1.486,0.534,0.152
1593890662709109,1.486,0.534,0.152
1593890663210891,1.525,0.534,0.152
1593890663712748,1.486,0.534,0.152
1593890664214646,1.486,0.534,0.152
1593890664716440,1.448,0.534,0.152
1593890665218173,1.486,0.534,0.152
1593890665722638,1.448,0.534,0.152
1593890666224591,1.448,0.534,0.152
1593890666726405,1.486,0.457,0.152
1593890667228203,1.448,0.534,0.152
1593890667730004,1.525,0.534,0.152
1593890668231846,1.448,0.534,0.152
1593890668733736,1.448,0.534,0.152
1593890669235488,1.41,0.457,0.152
1593890669737290,1.41,0.457,0.152
1593890670239136,1.448,0.457,0.152
1593890670741915,1.486,0.534,0.152
1593890671245082,1.448,0.457,0.152
1593890671748106,1.486,0.457,0.152
1593890672250977,1.486,0.534,0.152
1593890672754253,1.486,0.457,0.152
1593890673257922,1.448,0.534,0.152
1593890673760948,1.41,0.457,0.152
1593890674263888,1.448,0.457,0.152
1593890674766801,1.448,0.457,0.152
1593890675271804,1.448,0.457,0.152
1593890675777164,1.525,0.534,0.152
1593890676280078,1.448,0.457,0.152
1593890676782901,1.525,0.534,0.152
1593890677285903,1.486,0.534,0.152
1593890677789871,1.486,0.534,0.152
1593890678292925,1.448,0.457,0.152
1593890678795186,1.372,0.457,0.152
1593890679297163,1.486,0.457,0.152
1593890679799077,1.486,0.534,0.152
1593890680300867,1.448,0.457,0.152
1593890680805853,1.486,0.534,0.152
1593890681307687,1.486,0.534,0.152
1593890681809522,1.486,0.457,0.152
1593890682311182,1.41,0.457,0.152
1593890682812834,1.334,0.457,0.152
1593890683321076,1.41,0.457,0.152
1593890683822887,1.486,0.534,0.152
1593890684324688,1.448,0.534,0.152
1593890684826467,1.525,0.534,0.152
1593890685328965,1.486,0.534,0.152
1593890685832200,1.525,0.534,0.152
1593890686335009,1.372,0.457,0.152
1593890686838024,1.372,0.457,0.152
1593890687341122,1.41,0.457,0.152
1593890687843893,1.448,0.457,0.152
1593890688346168,1.448,0.534,0.152
1593890688848068,1.525,0.534,0.152
1593890689349933,1.486,0.534,0.152
1593890689851795,1.525,0.534,0.152
1593890690353627,1.486,0.534,0.152
1593890690858458,1.525,0.534,0.152
1593890691360296,1.525,0.457,0.152
1593890691862085,1.525,0.534,0.152
1593890692363985,1.525,0.534,0.152
1593890692865869,1.486,0.534,0.152
1593890693367733,1.525,0.534,0.152
1593890693869503,1.448,0.457,0.152
1593890694371299,1.486,0.534,0.152
1593890694873216,1.448,0.457,0.152
1593890695375075,1.41,0.457,0.152
1593890695880733,1.486,0.534,0.152
1593890696383734,1.486,0.534,0.152
1593890696889749,1.486,0.534,0.152
1593890697391658,1.486,0.534,0.152
1593890697893510,1.525,0.534,0.152
1593890698395270,1.41,0.457,0.152
1593890698897033,1.41,0.457,0.152
1593890699398930,1.448,0.457,0.152
1593890699904690,1.448,0.534,0.152
1593890700406605,1.486,0.457,0.152
1593890700911786,1.486,0.534,0.152
1593890701413659,1.448,0.457,0.152
1593890701915455,1.486,0.534,0.152
1593890702417263,1.41,0.457,0.152
1593890702919113,1.486,0.534,0.152
1593890703420934,1.41,0.534,0.152
1593890703922699,1.448,0.457,0.152
1593890704424599,1.486,0.534,0.152
1593890704926454,1.448,0.457,0.152
1593890705428388,1.486,0.534,0.152
1593890705933501,1.486,0.534,0.152
1593890706437384,1.525,0.534,0.152
1593890706939177,1.486,0.534,0.152
1593890707441117,1.525,0.534,0.152
1593890707942885,1.448,0.534,0.152
1593890708444912,1.448,0.534,0.152
1593890708946734,1.525,0.534,0.152
1593890709448758,1.486,0.534,0.152
1593890709950598,1.486,0.534,0.152
1593890710452492,1.486,0.534,0.152
1593890710957127,1.525,0.534,0.152
1593890711458908,1.448,0.534,0.152
1593890711960572,1.372,0.457,0.152
1593890712462227,1.41,0.457,0.152
1593890712964140,1.448,0.457,0.152
1593890713465853,1.448,0.457,0.152
1593890713968167,1.486,0.534,0.152
1593890714470060,1.486,0.534,0.152
1593890714971936,1.525,0.534,0.152
1593890715473799,1.448,0.457,0.152
1593890715978433,1.41,0.457,0.152
1593890716480314,1.41,0.534,0.152
1593890716982125,1.448,0.457,0.152
1593890717483973,1.486,0.534,0.152
1593890717985779,1.525,0.534,0.152
1593890718487630,1.525,0.534,0.152
1593890718989453,1.525,0.534,0.152
1593890719491299,1.525,0.534,0.152
1593890719993076,1.486,0.534,0.152
1593890720494877,1.448,0.534,0.152
1593890720999647,1.448,0.534,0.152
1593890721501455,1.448,0.534,0.152
1593890722003281,1.563,0.534,0.152
1593890722505075,1.486,0.457,0.152
1593890723007011,1.486,0.534,0.152
1593890723508946,1.525,0.534,0.152
1593890724010720,1.525,0.534,0.152
1593890724512549,1.448,0.457,0.152
1593890725014314,1.41,0.457,0.152
1593890725517032,1.486,0.457,0.152
1593890726020244,1.486,0.534,0.152
1593890726523173,1.525,0.534,0.152
1593890727026101,1.486,0.534,0.152
1593890727529250,1.448,0.457,0.152
1593890728032446,1.486,0.534,0.152
1593890728535501,1.41,0.457,0.152
1593890729038648,1.448,0.534,0.152
1593890729541703,1.41,0.457,0.152
1593890730044892,1.525,0.534,0.152
1593890730547874,1.525,0.534,0.152
1593890731050888,1.41,0.457,0.152
1593890731553930,1.486,0.534,0.152
1593890732056972,1.525,0.534,0.152
1593890732559886,1.525,0.534,0.152
1593890733062861,1.448,0.534,0.152
1593890733565954,1.486,0.534,0.152
1593890734070435,1.448,0.534,0.152
1593890734572420,1.525,0.534,0.152
1593890735074267,1.486,0.534,0.152
1593890735576129,1.448,0.457,0.152
1593890736080449,1.525,0.534,0.152
1593890736582497,1.525,0.534,0.152
1593890737084437,1.525,0.534,0.152
1593890737586252,1.448,0.534,0.152
1593890738088122,1.486,0.534,0.152
1593890738589932,1.41,0.457,0.152
1593890739091921,1.486,0.457,0.152
1593890739593845,1.486,0.534,0.152
1593890740095704,1.486,0.534,0.152
1593890740597532,1.486,0.534,0.152
1593890741102267,1.448,0.457,0.152
1593890741604129,1.525,0.534,0.152
1593890742105854,1.486,0.534,0.152
1593890742607639,1.41,0.457,0.152
1593890743109426,1.448,0.457,0.152
1593890743611223,1.41,0.457,0.152
1593890744114188,1.486,0.457,0.152
1593890744617209,1.486,0.534,0.152
1593890745120284,1.486,0.534,0.152
1593890745624290,1.525,0.534,0.152
1593890746129869,1.41,0.457,0.152
1593890746632706,1.448,0.457,0.152
1593890747135583,1.448,0.457,0.152
1593890747638285,1.448,0.457,0.152
1593890748141394,1.525,0.534,0.152
1593890748644518,1.448,0.457,0.152
1593890749147435,1.486,0.534,0.152
1593890749650293,1.486,0.534,0.152
1593890750153234,1.525,0.534,0.152
1593890750656186,1.448,0.457,0.152
1593890751161673,1.448,0.534,0.152
1593890751664678,1.486,0.457,0.152
1593890752167886,1.715,0.533,0.152
1593890752670918,1.639,0.534,0.152
1593890753174004,1.525,0.534,0.152
1593890753677127,1.525,0.534,0.152
1593890754180119,1.486,0.457,0.152
1593890754683033,1.41,0.457,0.152
1593890755186101,1.448,0.457,0.152
1593890755689059,1.372,0.457,0.152
1593890756191870,1.41,0.457,0.152
1593890756693675,1.486,0.457,0.152
1593890757195597,1.486,0.534,0.152
1593890757704474,1.525,0.534,0.152
1593890758209985,1.486,0.534,0.152
1593890758711937,1.486,0.457,0.152
1593890759213575,1.372,0.457,0.152
1593890759715087,1.334,0.457,0.152
1593890760218025,1.448,0.457,0.152
1593890760720924,1.486,0.534,0.152
1593890761224679,1.525,0.534,0.152
1593890761727673,1.525,0.534,0.152
1593890762233786,1.448,0.457,0.152
1593890762737276,1.525,0.534,0.152
1593890763250848,1.448,0.457,0.152
1593890763753743,1.486,0.534,0.152
1593890764256711,1.448,0.457,0.152
1593890764759719,1.448,0.457,0.152
1593890765263163,1.486,0.534,0.152
1593890765766196,1.448,0.457,0.152
1593890766270966,1.486,0.534,0.152
1593890766772912,1.486,0.534,0.152
1593890767274790,1.448,0.457,0.152
1593890767777098,1.486,0.534,0.152
1593890768278931,1.41,0.457,0.152
1593890768780886,1.448,0.534,0.152
1593890769282801,1.448,0.534,0.152
1593890769784814,1.486,0.534,0.152
1593890770286651,1.486,0.534,0.152
1593890770788480,1.486,0.534,0.152
1593890771293106,1.525,0.534,0.152
1593890771794949,1.486,0.534,0.152
1593890772296818,1.486,0.534,0.152
1593890772798584,1.41,0.457,0.152
1593890773300469,1.448,0.534,0.152
1593890773802268,1.486,0.534,0.152
1593890774304135,1.448,0.457,0.152
1593890774805846,1.486,0.534,0.152
1593890775307692,1.486,0.534,0.152
1593890775809589,1.525,0.534,0.152
1593890776314141,1.525,0.534,0.152
1593890776816034,1.448,0.534,0.152
1593890777317799,1.448,0.457,0.152
1593890777819668,1.372,0.457,0.152
1593890778321571,1.486,0.457,0.152
1593890778823429,1.486,0.534,0.152
1593890779325198,1.486,0.534,0.152
1593890779827037,1.525,0.534,0.152
1593890780328934,1.486,0.534,0.152
1593890780830746,1.486,0.534,0.152
1593890781335742,1.41,0.457,0.152
1593890781837562,1.486,0.534,0.152
1593890782339447,1.601,0.534,0.152
1593890782841221,1.486,0.457,0.152
1593890783343061,1.525,0.534,0.152
1593890783844930,1.448,0.534,0.152
1593890784346916,1.525,0.534,0.152
1593890784849036,1.486,0.534,0.152
1593890785350762,1.486,0.534,0.152
1593890785852537,1.448,0.534,0.152
1593890786357100,1.41,0.457,0.152
1593890786858941,1.486,0.534,0.152
1593890787360872,1.448,0.457,0.152
1593890787862709,1.486,0.534,0.152
1593890788364529,1.486,0.534,0.152
1593890788866290,1.448,0.457,0.152
1593890789368193,1.448,0.457,0.152
1593890789870093,1.41,0.457,0.152
1593890790372008,1.486,0.534,0.152
1593890790873846,1.525,0.534,0.152
1593890791375852,1.525,0.534,0.152
1593890791877712,1.525,0.534,0.152
1593890792379619,1.486,0.534,0.152
1593890792881380,1.486,0.534,0.152
1593890793383131,1.41,0.457,0.152
1593890793885020,1.448,0.457,0.152
1593890794386845,1.486,0.534,0.152
1593890794888611,1.448,0.534,0.152
1593890795390341,1.525,0.534,0.152
1593890795892239,1.448,0.457,0.152
1593890796394112,1.525,0.534,0.152
1593890796897049,1.448,0.534,0.152
1593890797400197,1.448,0.457,0.152
1593890797903152,1.448,0.534,0.152
1593890798406283,1.448,0.457,0.152
1593890798909359,1.486,0.534,0.152
1593890799412274,1.486,0.534,0.152
1593890799921542,1.525,0.534,0.152
1593890800423256,1.486,0.534,0.152
1593890800925245,1.448,0.457,0.152
1593890801427003,1.486,0.534,0.152
1593890801932574,1.41,0.457,0.152
1593890802437018,1.448,0.457,0.152
1593890802940012,1.486,0.534,0.152
1593890803447609,1.486,0.534,0.152
1593890803950435,1.486,0.534,0.152
1593890804453502,1.448,0.457,0.152
1593890804956374,1.525,0.534,0.152
1593890805459242,1.448,0.457,0.152
1593890805962282,1.448,0.457,0.152
1593890806465187,1.41,0.457,0.152
1593890806968517,1.486,0.534,0.152
1593890807472151,1.525,0.534,0.152
1593890807974968,1.486,0.457,0.152
1593890808478082,1.486,0.534,0.152
1593890808981005,1.525,0.534,0.152
1593890809483876,1.486,0.534,0.152
1593890809986868,1.41,0.457,0.152
1593890810489715,1.372,0.457,0.152
1593890810992535,1.372,0.457,0.152
1593890811495301,1.486,0.457,0.152
1593890811998664,1.715,0.533,0.152
1593890812501750,1.601,0.457,0.152
1593890813004744,1.525,0.534,0.152
1593890813508655,1.486,0.457,0.152
1593890814011611,1.486,0.457,0.152
1593890814514540,1.448,0.457,0.152
1593890815017422,1.41,0.457,0.152
1593890815520393,1.448,0.534,0.152
1593890816023891,1.486,0.534,0.152
1593890816525738,1.486,0.534,0.152
1593890817027751,1.486,0.534,0.152
1593890817529604,1.486,0.534,0.152
1593890818031487,1.486,0.534,0.152
1593890818533402,1.486,0.534,0.152
1593890819035264,1.486,0.534,0.152
1593890819537124,1.486,0.534,0.152
1593890820038818,1.41,0.457,0.152
1593890820540756,1.448,0.457,0.152
1593890821043826,1.525,0.534,0.152
1593890821546762,1.486,0.534,0.152
1593890822049780,1.525,0.534,0.152
1593890822552779,1.486,0.534,0.152
1593890823055856,1.448,0.457,0.152
1593890823568133,1.486,0.534,0.152
1593890824070811,1.448,0.534,0.152
1593890824573874,1.448,0.534,0.152
1593890825076843,1.448,0.534,0.152
1593890825580088,1.525,0.534,0.152
1593890826081903,1.486,0.534,0.152
1593890826583804,1.486,0.534,0.152
1593890827085627,1.525,0.534,0.152
1593890827590064,1.448,0.457,0.152
1593890828091975,1.486,0.534,0.152
1593890828593762,1.448,0.534,0.152
1593890829095583,1.448,0.457,0.152
1593890829597987,1.486,0.534,0.152
1593890830099813,1.448,0.457,0.152
1593890830601544,1.486,0.457,0.152
1593890831103560,1.486,0.534,0.152
1593890831605495,1.448,0.457,0.152
1593890832107458,1.525,0.534,0.152
1593890832612171,1.525,0.534,0.152
1593890833114104,1.525,0.534,0.152
1593890833615980,1.525,0.534,0.152
1593890834117852,1.486,0.534,0.152
1593890834619702,1.525,0.534,0.152
1593890835121524,1.486,0.534,0.152
1593890835623421,1.486,0.534,0.152
1593890836125259,1.486,0.534,0.152
1593890836626964,1.448,0.457,0.152
1593890837128854,1.448,0.457,0.152
1593890837634605,1.448,0.457,0.152
1593890838137456,1.525,0.534,0.152
1593890838639299,1.448,0.534,0.152
1593890839141230,1.41,0.457,0.152
1593890839643082,1.486,0.457,0.152
1593890840144873,1.448,0.457,0.152
1593890840646605,1.448,0.457,0.152
1593890841148435,1.486,0.534,0.152
1593890841650256,1.486,0.534,0.152
1593890842152079,1.753,0.533,0.152
1593890842656597,1.525,0.457,0.152
1593890843158432,1.41,0.457,0.152
1593890843660326,1.448,0.534,0.152
1593890844165928,1.448,0.457,0.152
1593890844667774,1.486,0.457,0.152
1593890845169612,1.486,0.534,0.152
1593890845671383,1.448,0.457,0.152
1593890846173258,1.486,0.534,0.152
1593890846675133,1.448,0.534,0.152
1593890847177001,1.448,0.534,0.152
1593890847686191,1.448,0.534,0.152
1593890848189027,1.448,0.457,0.152
1593890848691928,1.486,0.534,0.152
1593890849196782,1.41,0.457,0.152
1593890849699566,1.486,0.534,0.152
1593890850202470,1.525,0.534,0.152
1593890850705587,1.448,0.457,0.152
1593890851208647,1.525,0.534,0.152
1593890851711716,1.448,0.534,0.152
1593890852214563,1.448,0.534,0.152
1593890852720342,1.448,0.534,0.152
1593890853223101,1.486,0.534,0.152
1593890853726016,1.448,0.534,0.152
1593890854228936,1.486,0.534,0.152
1593890854731790,1.486,0.534,0.152
1593890855234819,1.486,0.534,0.152
1593890855737832,1.486,0.534,0.152
1593890856241119,1.486,0.534,0.152
1593890856744112,1.448,0.534,0.152
1593890857247212,1.41,0.457,0.152
1593890857750678,1.486,0.457,0.152
1593890858253696,1.486,0.534,0.152
1593890858756918,1.525,0.534,0.152
1593890859260294,1.525,0.534,0.152
1593890859763206,1.525,0.534,0.152
1593890860266256,1.525,0.534,0.152
1593890860769258,1.448,0.534,0.152
1593890861272293,1.448,0.534,0.152
1593890861775284,1.41,0.534,0.152
1593890862278143,1.486,0.534,0.152
1593890862781275,1.486,0.534,0.152
1593890863284725,1.486,0.534,0.152
1593890863787768,1.486,0.534,0.152
1593890864290641,1.448,0.534,0.152
1593890864793565,1.486,0.534,0.152
1593890865296641,1.448,0.457,0.152
1593890865799938,1.486,0.534,0.152
1593890866302800,1.448,0.457,0.152
1593890866805770,1.41,0.457,0.152
1593890867308875,1.486,0.534,0.152
1593890867812188,1.448,0.457,0.152
1593890868315025,1.525,0.534,0.152
1593890868818202,1.486,0.534,0.152
1593890869321395,1.448,0.534,0.152
1593890869824547,1.448,0.534,0.152
1593890870327522,1.448,0.534,0.152
1593890870830426,1.448,0.457,0.152
1593890871333497,1.448,0.534,0.152
1593890871841795,1.525,0.534,0.152
1593890872344934,1.677,0.533,0.152
1593890872848268,1.753,0.533,0.152
1593890873350598,1.792,0.533,0.152
1593890873852424,1.525,0.457,0.152
1593890874354228,1.525,0.534,0.152
1593890874855877,1.41,0.457,0.152
1593890875357553,1.372,0.457,0.152
1593890875859476,1.448,0.457,0.152
1593890876361313,1.486,0.534,0.152
1593890876863128,1.486,0.534,0.152
1593890877365037,1.525,0.534,0.152
1593890877869767,1.486,0.534,0.152
1593890878371635,1.525,0.534,0.152
1593890878873471,1.448,0.534,0.152
1593890879375834,1.486,0.534,0.152
1593890879877590,1.41,0.457,0.152
1593890880379438,1.525,0.534,0.152
1593890880881206,1.486,0.534,0.152
1593890881383030,1.486,0.534,0.152
1593890881888640,1.525,0.534,0.152
1593890882390369,1.486,0.534,0.152
1593890882895429,1.486,0.534,0.152
1593890883397213,1.41,0.457,0.152
1593890883898964,1.448,0.534,0.152
1593890884400875,1.486,0.534,0.152
1593890884902727,1.486,0.534,0.152
1593890885404610,1.486,0.534,0.152
1593890885906413,1.486,0.534,0.152
1593890886409175,1.753,0.533,0.152
1593890886912262,1.792,0.533,0.152
1593890887415205,1.677,0.457,0.152
1593890887925648,1.448,0.457,0.152
1593890888428629,1.372,0.457,0.152
1593890888934099,1.41,0.457,0.152
1593890889437131,1.448,0.457,0.152
1593890889940713,1.448,0.457,0.152
1593890890443595,1.525,0.534,0.152
1593890890946545,1.486,0.534,0.152
1593890891449566,1.525,0.534,0.152
1593890891952647,1.486,0.534,0.152
1593890892455759,1.448,0.457,0.152
1593890892961345,1.448,0.457,0.152
1593890893464322,1.41,0.534,0.152
1593890893967218,1.448,0.457,0.152
1593890894471582,1.486,0.534,0.152
1593890894974452,1.448,0.457,0.152
1593890895477598,1.486,0.534,0.152
1593890895980614,1.486,0.534,0.152
1593890896483534,1.486,0.534,0.152
1593890896986460,1.448,0.534,0.152
1593890897489463,1.372,0.457,0.152
1593890897992547,1.486,0.457,0.152
1593890898495551,1.486,0.534,0.152
1593890898997832,1.448,0.457,0.152
1593890899499697,1.486,0.534,0.152
1593890900001577,1.486,0.534,0.152
1593890900503374,1.525,0.534,0.152
1593890901005147,1.41,0.457,0.152
1593890901506892,1.448,0.534,0.152
1593890902009538,1.486,0.534,0.152
1593890902511514,1.486,0.534,0.152
1593890903013368,1.601,0.534,0.152
1593890903520399,1.486,0.457,0.152
1593890904022924,1.563,0.534,0.152
1593890904524948,1.525,0.534,0.152
1593890905028239,1.41,0.457,0.152
1593890905531133,1.41,0.457,0.152
1593890906033977,1.334,0.457,0.152
1593890906543637,1.41,0.457,0.152
1593890907046460,1.486,0.534,0.152
1593890907549386,1.486,0.534,0.152
1593890908052574,1.525,0.534,0.152
1593890908560610,1.486,0.534,0.152
1593890909062356,1.486,0.534,0.152
1593890909564248,1.486,0.534,0.152
1593890910066193,1.486,0.534,0.152
1593890910568109,1.525,0.534,0.152
1593890911070017,1.525,0.534,0.152
1593890911571921,1.525,0.534,0.152
1593890912073810,1.525,0.534,0.152
1593890912575740,1.525,0.534,0.152
1593890913077566,1.486,0.534,0.152
1593890913579454,1.448,0.534,0.152
1593890914081327,1.525,0.534,0.152
1593890914583153,1.448,0.534,0.152
1593890915085043,1.448,0.534,0.152
1593890915587256,1.41,0.457,0.152
1593890916089154,1.486,0.457,0.152
1593890916590970,1.486,0.534,0.152
1593890917092856,1.448,0.457,0.152
1593890917594699,1.486,0.534,0.152
1593890918096589,1.486,0.534,0.152
1593890918601068,1.448,0.457,0.152
1593890919102816,1.41,0.457,0.152
1593890919604495,1.334,0.457,0.152
1593890920106180,1.334,0.457,0.152
1593890920608008,1.372,0.457,0.152
1593890921109827,1.448,0.457,0.152
1593890921612859,1.41,0.457,0.152
1593890922114777,1.486,0.457,0.152
1593890922616626,1.486,0.457,0.152
1593890923118465,1.486,0.534,0.152
1593890923623221,1.486,0.534,0.152
1593890924125173,1.525,0.534,0.152
1593890924627076,1.486,0.534,0.152
1593890925129006,1.525,0.534,0.152
1593890925631028,1.525,0.534,0.152
1593890926132796,1.486,0.534,0.152
1593890926634559,1.448,0.534,0.152
1593890927136441,1.486,0.457,0.152
1593890927638281,1.486,0.534,0.152
1593890928140035,1.448,0.457,0.152
1593890928644386,1.41,0.457,0.152
1593890929146169,1.372,0.457,0.152
1593890929648124,1.41,0.457,0.152
1593890930149957,1.486,0.457,0.152
1593890930651705,1.486,0.534,0.152
1593890931156924,1.448,0.457,0.152
1593890931658750,1.525,0.534,0.152
1593890932160711,1.525,0.457,0.152
1593890932662572,1.41,0.457,0.152
1593890933164324,1.448,0.457,0.152
1593890933668794,1.41,0.457,0.152
1593890934170543,1.486,0.457,0.152
1593890934672408,1.486,0.534,0.152
1593890935174225,1.486,0.534,0.152
1593890935676082,1.525,0.534,0.152
1593890936177882,1.448,0.457,0.152
1593890936679752,1.448,0.457,0.152
1593890937181528,1.41,0.457,0.152
1593890937683476,1.334,0.457,0.152
1593890938188602,1.486,0.457,0.152
1593890938690393,1.486,0.534,0.152
1593890939192341,1.525,0.534,0.152
1593890939694206,1.486,0.534,0.152
1593890940196018,1.486,0.534,0.152
1593890940697796,1.525,0.534,0.152
1593890941199744,1.41,0.457,0.152
1593890941701570,1.448,0.534,0.152
1593890942203439,1.41,0.457,0.152
1593890942705233,1.525,0.534,0.152
1593890943207060,1.486,0.534,0.152
1593890943711659,1.448,0.457,0.152
1593890944213449,1.525,0.534,0.152
1593890944715257,1.448,0.457,0.152
1593890945217093,1.525,0.534,0.152
1593890945718871,1.41,0.457,0.152
1593890946221035,1.486,0.534,0.152
1593890946722872,1.448,0.534,0.152
1593890947224725,1.448,0.534,0.152
1593890947726548,1.525,0.534,0.152
1593890948228408,1.486,0.534,0.152
1593890948733103,1.525,0.534,0.152
1593890949234852,1.486,0.534,0.152
1593890949736722,1.448,0.457,0.152
1593890950238470,1.448,0.457,0.152
1593890950740370,1.41,0.457,0.152
1593890951242092,1.448,0.457,0.152
1593890951744620,1.486,0.534,0.152
1593890952247676,1.448,0.457,0.152
1593890952750746,1.486,0.534,0.152
1593890953253881,1.41,0.457,0.152
1593890953756837,1.41,0.457,0.152
1593890954259963,1.486,0.457,0.152
1593890954762928,1.41,0.457,0.152
1593890955266409,1.448,0.534,0.152
1593890955769506,1.41,0.457,0.152
1593890956272589,1.448,0.457,0.152
1593890956775549,1.525,0.534,0.152
1593890957277865,1.448,0.457,0.152
1593890957779752,1.525,0.534,0.152
1593890958281622,1.525,0.534,0.152
1593890958783504,1.563,0.534,0.152
1593890959285281,1.41,0.457,0.152
1593890959787113,1.486,0.534,0.152
1593890960288981,1.41,0.457,0.152
1593890960790812,1.486,0.534,0.152
1593890961292834,1.525,0.534,0.152
1593890961794671,1.525,0.534,0.152
1593890962296581,1.639,0.534,0.152
1593890962798456,1.792,0.533,0.152
1593890963300344,1.753,0.457,0.152
1593890963802188,1.525,0.457,0.152
1593890964306611,1.486,0.457,0.152
1593890964808492,1.486,0.534,0.152
1593890965311113,1.448,0.457,0.152
1593890965812834,1.486,0.534,0.152
1593890966314688,1.486,0.534,0.152
1593890966816593,1.486,0.534,0.152
1593890967318551,1.486,0.534,0.152
1593890967820570,1.448,0.534,0.152
1593890968322425,1.448,0.534,0.152
1593890968824246,1.41,0.457,0.152
1593890969328942,1.525,0.534,0.152
1593890969830699,1.448,0.457,0.152
1593890970333527,1.448,0.457,0.152
1593890970836642,1.486,0.534,0.152
1593890971339642,1.486,0.534,0.152
1593890971842535,1.448,0.534,0.152
1593890972345477,1.41,0.457,0.152
1593890972848614,1.448,0.534,0.152
1593890973351642,1.486,0.534,0.152
1593890973853945,1.525,0.534,0.152
1593890974358452,1.486,0.534,0.152
1593890974860380,1.448,0.457,0.152
1593890975362161,1.525,0.534,0.152
1593890975863967,1.486,0.534,0.152
1593890976365727,1.486,0.534,0.152
1593890976867437,1.372,0.457,0.152
1593890977369075,1.334,0.457,0.152
1593890977870961,1.448,0.457,0.152
1593890978372871,1.486,0.534,0.152
1593890978874723,1.486,0.534,0.152
1593890979379431,1.525,0.534,0.152
1593890979881366,1.486,0.534,0.152
1593890980383201,1.525,0.534,0.152
1593890980885104,1.448,0.457,0.152
1593890981386854,1.486,0.534,0.152
1593890981889085,1.448,0.534,0.152
1593890982390910,1.525,0.534,0.152
1593890982892816,1.486,0.534,0.152
1593890983394740,1.486,0.457,0.152
1593890983896737,1.486,0.534,0.152
1593890984401642,1.486,0.457,0.152
1593890984903990,1.486,0.534,0.152
1593890985405849,1.372,0.457,0.152
1593890985907656,1.448,0.534,0.152
1593890986409526,1.41,0.457,0.152
1593890986911381,1.448,0.457,0.152
1593890987413197,1.486,0.534,0.152
1593890987915042,1.486,0.534,0.152
1593890988416912,1.525,0.534,0.152
1593890988918793,1.486,0.534,0.152
1593890989420610,1.486,0.534,0.152
1593890989922383,1.41,0.457,0.152
1593890990424136,1.372,0.457,0.152
1593890990925924,1.486,0.457,0.152
1593890991427767,1.525,0.534,0.152
1593890991929657,1.525,0.534,0.152
1593890992431535,1.486,0.534,0.152
1593890992933485,1.601,0.534,0.152
1593890993435411,1.525,0.534,0.152
1593890993938122,1.448,0.457,0.152
1593890994441318,1.448,0.457,0.152
1593890994944283,1.372,0.457,0.152
1593890995453064,1.41,0.457,0.152
1593890995955945,1.448,0.457,0.152
1593890996458850,1.448,0.457,0.152
1593890996961217,1.486,0.534,0.152
1593890997463073,1.486,0.534,0.152
1593890997964853,1.486,0.534,0.152
1593890998466634,1.486,0.534,0.152
1593890998968432,1.41,0.457,0.152
1593890999473041,1.448,0.534,0.152
1593890999974851,1.448,0.457,0.152
1593891000476578,1.448,0.457,0.152
1593891000978384,1.486,0.534,0.152
1593891001480184,1.486,0.534,0.152
1593891001982032,1.525,0.534,0.152
1593891002483914,1.525,0.534,0.152
1593891002985672,1.486,0.534,0.152
1593891003487457,1.41,0.457,0.152
1593891003989351,1.486,0.534,0.152
1593891004494219,1.486,0.534,0.152
1593891004996240,1.525,0.534,0.152
1593891005498073,1.486,0.534,0.152
1593891005999923,1.486,0.534,0.152
1593891006501767,1.525,0.534,0.152
1593891007003711,1.448,0.534,0.152
1593891007505532,1.525,0.534,0.152
1593891008007286,1.41,0.457,0.152
1593891008509034,1.372,0.457,0.152
1593891009010852,1.486,0.534,0.152
1593891009515470,1.486,0.534,0.152
1593891010017339,1.486,0.534,0.152
1593891010519193,1.525,0.534,0.152
1593891011021245,1.486,0.534,0.152
1593891011522961,1.486,0.534,0.152
1593891012025950,1.448,0.457,0.152
1593891012532048,1.448,0.457,0.152
1593891013035003,1.448,0.457,0.152
1593891013543590,1.486,0.534,0.152
1593891014046429,1.486,0.534,0.152
1593891014549464,1.448,0.534,0.152
1593891015052611,1.486,0.457,0.152
1593891015557477,1.486,0.534,0.152
1593891016060387,1.448,0.457,0.152
1593891016563444,1.41,0.457,0.152
1593891017066285,1.41,0.457,0.152
1593891017569460,1.486,0.534,0.152
1593891018071870,1.486,0.457,0.152
1593891018573852,1.448,0.457,0.152
1593891019075727,1.486,0.534,0.152
1593891019580445,1.486,0.534,0.152
1593891020082330,1.486,0.457,0.152
1593891020585345,1.448,0.457,0.152
1593891021089032,1.486,0.534,0.152
1593891021592010,1.41,0.457,0.152
1593891022094910,1.486,0.534,0.152
1593891022598354,1.486,0.457,0.152
1593891023101252,1.486,0.457,0.152
1593891023604257,1.486,0.534,0.152
1593891024107832,1.486,0.457,0.152
1593891024610982,1.486,0.534,0.152
1593891025113983,1.486,0.534,0.152
1593891025616942,1.448,0.457,0.152
1593891026120354,1.448,0.457,0.152
1593891026623302,1.448,0.534,0.152
1593891027126437,1.486,0.534,0.152
1593891027629698,1.486,0.534,0.152
1593891028132563,1.486,0.534,0.152
1593891028635779,1.525,0.534,0.152
1593891029138629,1.486,0.534,0.152
1593891029644294,1.41,0.457,0.152
1593891030147156,1.486,0.534,0.152
1593891030650310,1.525,0.534,0.152
1593891031153348,1.486,0.534,0.152
1593891031656458,1.448,0.457,0.152
1593891032159594,1.525,0.534,0.152
1593891032662436,1.486,0.534,0.152
1593891033165583,1.525,0.534,0.152
1593891033668481,1.486,0.534,0.152
1593891034171406,1.486,0.534,0.152
1593891034676816,1.448,0.457,0.152
1593891035179931,1.448,0.457,0.152
1593891035682691,1.486,0.534,0.152
1593891036189758,1.448,0.457,0.152
1593891036692653,1.486,0.534,0.152
1593891037195628,1.486,0.534,0.152
1593891037698445,1.525,0.534,0.152
1593891038201432,1.41,0.457,0.152
1593891038704542,1.334,0.457,0.152
1593891039213875,1.41,0.457,0.152
1593891039717026,1.448,0.457,0.152
1593891040220199,1.448,0.457,0.152
1593891040723687,1.448,0.457,0.152
1593891041227130,1.486,0.534,0.152
1593891041730248,1.448,0.457,0.152
1593891042233144,1.525,0.534,0.152
1593891042736059,1.448,0.457,0.152
1593891043239034,1.41,0.457,0.152
1593891043742020,1.372,0.457,0.152
1593891044244620,1.334,0.457,0.152
1593891044749603,1.41,0.457,0.152
1593891045251476,1.448,0.457,0.152
1593891045753314,1.448,0.457,0.152
1593891046255026,1.448,0.457,0.152
1593891046756934,1.486,0.534,0.152
1593891047258828,1.525,0.534,0.152
1593891047760741,1.486,0.534,0.152
1593891048262601,1.486,0.457,0.152
1593891048764354,1.448,0.457,0.152
1593891049266115,1.41,0.457,0.152
1593891049770523,1.486,0.457,0.152
1593891050272427,1.486,0.534,0.152
1593891050774292,1.525,0.534,0.152
1593891051276217,1.486,0.534,0.152
1593891051778108,1.525,0.534,0.152
1593891052279937,1.486,0.534,0.152
1593891052781833,1.41,0.457,0.152
1593891053283708,1.41,0.457,0.152
1593891053785568,1.448,0.457,0.152
1593891054287555,1.448,0.457,0.152
1593891054792311,1.486,0.534,0.152
1593891055294167,1.486,0.534,0.152
1593891055796006,1.525,0.534,0.152
1593891056297751,1.448,0.457,0.152
1593891056799723,1.486,0.534,0.152
1593891057301575,1.486,0.534,0.152
1593891057803423,1.486,0.534,0.152
1593891058305226,1.448,0.457,0.152
1593891058807121,1.486,0.534,0.152
1593891059309022,1.448,0.457,0.152
1593891059813836,1.448,0.534,0.152
1593891060315725,1.486,0.457,0.152
1593891060817582,1.486,0.534,0.152
1593891061319630,1.486,0.534,0.152
1593891061822921,1.486,0.534,0.152
1593891062324838,1.486,0.534,0.152
1593891062826720,1.41,0.457,0.152
1593891063328639,1.525,0.534,0.152
1593891063830390,1.486,0.534,0.152
1593891064332385,1.486,0.534,0.152
1593891064837416,1.448,0.457,0.152
1593891065339294,1.486,0.534,0.152
1593891065841218,1.525,0.534,0.152
1593891066343125,1.563,0.534,0.152
1593891066844943,1.448,0.534,0.152
1593891067346698,1.448,0.457,0.152
1593891067848547,1.41,0.457,0.152
1593891068350385,1.41,0.457,0.152
1593891068852210,1.486,0.534,0.152
1593891069354040,1.448,0.534,0.152
1593891069858550,1.448,0.457,0.152
1593891070360386,1.486,0.534,0.152
1593891070862180,1.448,0.457,0.152
1593891071364194,1.41,0.457,0.152
1593891071866056,1.448,0.457,0.152
1593891072368019,1.41,0.457,0.152
1593891072869936,1.486,0.457,0.152
1593891073375234,1.486,0.534,0.152
1593891073877268,1.486,0.534,0.152
1593891074379143,1.486,0.534,0.152
1593891074883795,1.486,0.534,0.152
1593891075385588,1.448,0.534,0.152
1593891075890643,1.41,0.457,0.152
1593891076392492,1.41,0.457,0.152
1593891076894297,1.448,0.457,0.152
1593891077396165,1.448,0.457,0.152
1593891077897982,1.41,0.457,0.152
1593891078399923,1.486,0.457,0.152
1593891078901755,1.448,0.457,0.152
1593891079404391,1.486,0.534,0.152
1593891079907526,1.486,0.534,0.152
1593891080410449,1.486,0.534,0.152
1593891080913395,1.41,0.457,0.152
1593891081416120,1.41,0.534,0.152
1593891081917916,1.486,0.534,0.152
1593891082419690,1.486,0.534,0.152
1593891082921548,1.486,0.457,0.152
1593891083428937,1.486,0.534,0.152
1593891083930752,1.486,0.534,0.152
1593891084432663,1.486,0.534,0.152
1593891084934512,1.41,0.457,0.152
1593891085439739,1.448,0.457,0.152
1593891085941572,1.448,0.457,0.152
1593891086443374,1.448,0.457,0.152
1593891086945195,1.486,0.534,0.152
1593891087447030,1.448,0.534,0.152
1593891087948910,1.525,0.534,0.152
1593891088450783,1.486,0.534,0.152
1593891088952618,1.486,0.534,0.152
1593891089454404,1.486,0.534,0.152
1593891089956252,1.41,0.457,0.152
1593891090460642,1.448,0.457,0.152
1593891090962525,1.486,0.534,0.152
1593891091472549,1.486,0.457,0.152
1593891091974426,1.486,0.534,0.152
1593891092476400,1.486,0.534,0.152
1593891092978246,1.525,0.534,0.152
1593891093480152,1.486,0.534,0.152
1593891093981932,1.448,0.534,0.152
1593891094483847,1.372,0.457,0.152
1593891094985686,1.486,0.457,0.152
1593891095491539,1.486,0.534,0.152
1593891095994520,1.486,0.534,0.152
1593891096497607,1.525,0.534,0.152
1593891097000578,1.486,0.534,0.152
1593891097503672,1.486,0.457,0.152
1593891098005932,1.448,0.457,0.152
1593891098507870,1.486,0.534,0.152
1593891099009622,1.41,0.457,0.152
1593891099511436,1.486,0.534,0.152
1593891100014392,1.486,0.534,0.152
1593891100516263,1.486,0.534,0.152
1593891101018085,1.486,0.534,0.152
1593891101519932,1.486,0.534,0.152
1593891102021732,1.525,0.534,0.152
1593891102523644,1.486,0.534,0.152
1593891103025385,1.41,0.457,0.152
1593891103527257,1.41,0.457,0.152
1593891104029211,1.448,0.457,0.152
1593891104531069,1.448,0.457,0.152
1593891105033064,1.448,0.534,0.152
1593891105534917,1.525,0.534,0.152
1593891106037667,1.448,0.457,0.152
1593891106540588,1.486,0.534,0.152
1593891107043572,1.448,0.534,0.152
1593891107546589,1.448,0.457,0.152
1593891108049364,1.486,0.534,0.152
1593891108552332,1.448,0.457,0.152
1593891109055522,1.486,0.457,0.152
1593891109557828,1.486,0.534,0.152
1593891110059657,1.486,0.457,0.152
1593891110564135,1.448,0.534,0.152
1593891111065906,1.41,0.457,0.152
1593891111567692,1.448,0.457,0.152
1593891112069397,1.448,0.457,0.152
1593891112571113,1.41,0.457,0.152
1593891113073595,1.563,0.457,0.152
1593891113575505,1.525,0.534,0.152
1593891114077315,1.563,0.534,0.152
1593891114579149,1.525,0.534,0.152
1593891115081060,1.486,0.534,0.152
1593891115586552,1.41,0.457,0.152
1593891116089432,1.334,0.457,0.152
1593891116592422,1.448,0.457,0.152
1593891117095235,1.486,0.534,0.152
1593891117598572,1.486,0.534,0.152
1593891118101746,1.486,0.534,0.152
1593891118604725,1.41,0.457,0.152
1593891119107719,1.486,0.534,0.152
1593891119610719,1.448,0.534,0.152
1593891120113983,1.41,0.457,0.152
1593891120619512,1.486,0.534,0.152
1593891121122360,1.486,0.534,0.152
1593891121625138,1.525,0.534,0.152
1593891122128160,1.486,0.534,0.152
1593891122631082,1.525,0.534,0.152
1593891123134206,1.486,0.534,0.152
1593891123637230,1.448,0.457,0.152
1593891124140189,1.448,0.457,0.152
1593891124643230,1.41,0.457,0.152
1593891125146471,1.486,0.457,0.152
1593891125652527,1.486,0.534,0.152
1593891126155446,1.486,0.534,0.152
1593891126658329,1.525,0.534,0.152
1593891127161350,1.486,0.457,0.152
1593891127664337,1.715,0.533,0.152
1593891128167300,1.639,0.457,0.152
1593891128670246,1.563,0.534,0.152
1593891129173332,1.486,0.534,0.152
1593891129676276,1.525,0.534,0.152
1593891130179131,1.486,0.457,0.152
1593891130682371,1.448,0.457,0.152
1593891131185233,1.525,0.534,0.152
1593891131688344,1.486,0.534,0.152
1593891132195643,1.486,0.534,0.152
1593891132698595,1.41,0.457,0.152
1593891133201606,1.372,0.457,0.152
1593891133704795,1.563,0.457,0.152
1593891134207822,1.448,0.457,0.152
1593891134710820,1.486,0.534,0.152
1593891135213804,1.448,0.534,0.152
1593891135716900,1.486,0.534,0.152
1593891136219980,1.486,0.534,0.152
1593891136722875,1.486,0.534,0.152
1593891137225856,1.486,0.534,0.152
1593891137729062,1.41,0.457,0.152
1593891138231983,1.41,0.457,0.152
1593891138740984,1.486,0.457,0.152
1593891139242813,1.41,0.457,0.152
1593891139744665,1.525,0.534,0.152
1593891140246476,1.525,0.534,0.152
1593891140751062,1.486,0.534,0.152
1593891141252855,1.486,0.534,0.152
1593891141754622,1.41,0.534,0.152
1593891142256376,1.448,0.457,0.152
1593891142758230,1.448,0.457,0.152
1593891143260217,1.486,0.534,0.152
1593891143762037,1.563,0.534,0.152
1593891144263883,1.486,0.457,0.152
1593891144765707,1.525,0.534,0.152
1593891145267641,1.486,0.534,0.152
1593891145772474,1.525,0.534,0.152
1593891146274255,1.41,0.457,0.152
1593891146776165,1.448,0.457,0.152
1593891147277924,1.41,0.457,0.152
1593891147779926,1.448,0.457,0.152
1593891148281772,1.486,0.534,0.152
1593891148783704,1.486,0.534,0.152
1593891149285596,1.486,0.534,0.152
1593891149787492,1.525,0.534,0.152
1593891150289219,1.486,0.534,0.152
1593891150791043,1.486,0.534,0.152
1593891151292818,1.41,0.457,0.152
1593891151794590,1.486,0.457,0.152
1593891152296360,1.486,0.534,0.152
1593891152812562,1.448,0.457,0.152
1593891153314347,1.448,0.534,0.152
1593891153816158,1.41,0.457,0.152
1593891154328289,1.486,0.457,0.152
1593891154830072,1.486,0.534,0.152
1593891155331820,1.41,0.457,0.152
1593891155833599,1.448,0.534,0.152
1593891156338218,1.486,0.534,0.152
1593891156840122,1.525,0.534,0.152
1593891157341903,1.486,0.534,0.152
1593891157843737,1.525,0.534,0.152
1593891158345474,1.486,0.534,0.152
1593891158847392,1.486,0.534,0.152
1593891159349234,1.448,0.534,0.152
1593891159851097,1.41,0.457,0.152
1593891160352912,1.525,0.457,0.152
1593891160854727,1.525,0.457,0.152
1593891161365056,1.486,0.457,0.152
1593891161866908,1.486,0.534,0.152
1593891162368768,1.448,0.457,0.152
1593891162870644,1.486,0.457,0.152
1593891163372831,1.486,0.534,0.152
1593891163874679,1.486,0.534,0.152
1593891164376572,1.448,0.534,0.152
1593891164878391,1.41,0.457,0.152
1593891165381233,1.448,0.457,0.152
1593891165884193,1.486,0.534,0.152
1593891166387278,1.448,0.457,0.152
1593891166890262,1.486,0.534,0.152
1593891167393383,1.486,0.534,0.152
1593891167896383,1.525,0.534,0.152
1593891168399528,1.486,0.457,0.152
1593891168902437,1.448,0.457,0.152
1593891169405386,1.372,0.457,0.152
1593891169910230,1.334,0.457,0.152
1593891170414183,1.41,0.457,0.152
1593891170917265,1.448,0.457,0.152
1593891171421072,1.448,0.457,0.152
1593891171924294,1.525,0.534,0.152
1593891172427086,1.486,0.534,0.152
1593891172930053,1.41,0.457,0.152
1593891173432991,1.525,0.457,0.152
1593891173942250,1.41,0.457,0.152
1593891174444532,1.372,0.457,0.152
1593891174946494,1.448,0.457,0.152
1593891175448415,1.486,0.534,0.152
1593891175950277,1.448,0.534,0.152
1593891176452189,1.525,0.534,0.152
1593891176956957,1.525,0.534,0.152
1593891177458804,1.486,0.534,0.152
1593891177960744,1.486,0.534,0.152
1593891178462605,1.448,0.534,0.152
1593891178964488,1.41,0.457,0.152
1593891179466366,1.486,0.534,0.152
1593891179968200,1.448,0.457,0.152
1593891180470081,1.486,0.457,0.152
1593891180971895,1.486,0.534,0.152
1593891181473718,1.486,0.534,0.152
1593891181978239,1.448,0.534,0.152
1593891182479895,1.372,0.457,0.152
1593891182981434,1.334,0.457,0.152
1593891183483094,1.41,0.457,0.152
1593891183984943,1.448,0.457,0.152
1593891184486808,1.448,0.534,0.152
1593891184988691,1.563,0.534,0.152
1593891185490590,1.677,0.457,0.152
1593891185992568,1.792,0.533,0.152
1593891186494402,1.677,0.533,0.152
1593891186999203,1.486,0.457,0.152
1593891187501154,1.563,0.534,0.152
1593891188002985,1.715,0.457,0.152
1593891188504877,1.677,0.534,0.152
1593891189006590,1.525,0.534,0.152
1593891189508475,1.448,0.457,0.152
1593891190010276,1.715,0.533,0.152
1593891190512124,1.525,0.457,0.152
1593891191013835,1.525,0.457,0.152
1593891191515625,1.677,0.533,0.152
1593891192020253,1.563,0.457,0.152
1593891192522352,1.525,0.534,0.152
1593891193024184,1.525,0.534,0.152
1593891193526025,1.486,0.534,0.152
1593891194027926,1.486,0.534,0.152
1593891194529695,1.486,0.534,0.152
1593891195031611,1.41,0.534,0.152
1593891195533444,1.372,0.457,0.152
1593891196035436,1.448,0.457,0.152
1593891196537322,1.448,0.457,0.152
1593891197039248,1.448,0.457,0.152
1593891197541346,1.486,0.534,0.152
1593891198043199,1.525,0.534,0.152
1593891198545110,1.486,0.534,0.152
1593891199046865,1.41,0.457,0.152
1593891199548765,1.41,0.457,0.152
1593891200050591,1.41,0.457,0.152
1593891200552347,1.448,0.534,0.152
1593891201054195,1.448,0.457,0.152
1593891201556094,1.486,0.534,0.152
1593891202060668,1.525,0.534,0.152
1593891202562561,1.486,0.534,0.152
1593891203064465,1.486,0.534,0.152
1593891203566284,1.486,0.534,0.152
1593891204068167,1.448,0.457,0.152
1593891204569902,1.41,0.457,0.152
1593891205071729,1.448,0.457,0.152
1593891205573649,1.448,0.457,0.152
1593891206075868,1.486,0.534,0.152
1593891206577687,1.448,0.457,0.152
1593891207082339,1.486,0.457,0.152
1593891207584297,1.448,0.457,0.152
1593891208086116,1.448,0.457,0.152
1593891208587952,1.41,0.457,0.152
1593891209089758,1.41,0.457,0.152
1593891209592873,1.448,0.457,0.152
1593891210094721,1.486,0.534,0.152
1593891210596638,1.486,0.457,0.152
1593891211098457,1.448,0.534,0.152
1593891211600582,1.448,0.534,0.152
1593891212105178,1.486,0.457,0.152
1593891212606835,1.372,0.457,0.152
1593891213108418,1.334,0.457,0.152
1593891213610239,1.41,0.457,0.152
1593891214112091,1.448,0.457,0.152
1593891214613962,1.448,0.534,0.152
1593891215116473,1.486,0.534,0.152
1593891215619255,1.486,0.534,0.152
1593891216122203,1.525,0.534,0.152
1593891216625212,1.486,0.534,0.152
1593891217128217,1.41,0.457,0.152
1593891217631188,1.41,0.457,0.152
1593891218134238,1.448,0.457,0.152
1593891218637623,1.525,0.534,0.152
1593891219140433,1.486,0.534,0.152
1593891219643560,1.525,0.534,0.152
1593891220146375,1.525,0.534,0.152
1593891220649512,1.525,0.534,0.152
1593891221152622,1.486,0.534,0.152
1593891221655798,1.486,0.534,0.152
1593891222158628,1.448,0.534,0.152
1593891222661695,1.41,0.457,0.152
1593891223164791,1.486,0.534,0.152
1593891223668409,1.448,0.457,0.152
1593891224171657,1.486,0.534,0.152
1593891224674577,1.486,0.534,0.152
1593891225177655,1.486,0.534,0.152
1593891225680746,1.41,0.457,0.152
1593891226185298,1.372,0.457,0.152
1593891226687128,1.448,0.457,0.152
1593891227188908,1.486,0.534,0.152
1593891227693386,1.486,0.534,0.152
1593891228195183,1.525,0.534,0.152
1593891228697087,1.486,0.534,0.152
1593891229198956,1.486,0.534,0.152
1593891229700800,1.41,0.457,0.152
1593891230202648,1.448,0.534,0.152
1593891230704602,1.448,0.457,0.152
1593891231206454,1.448,0.457,0.152
1593891231708334,1.486,0.534,0.152
1593891232210179,1.486,0.534,0.152
1593891232712123,1.525,0.534,0.152
1593891233213971,1.448,0.457,0.152
1593891233715916,1.525,0.534,0.152
1593891234217716,1.563,0.457,0.152
1593891234719510,1.486,0.457,0.152
1593891235221352,1.525,0.534,0.152
1593891235723274,1.525,0.534,0.152
1593891236225188,1.525,0.534,0.152
1593891236727036,1.448,0.534,0.152
1593891237228881,1.486,0.534,0.152
1593891237730648,1.41,0.457,0.152
1593891238235160,1.448,0.534,0.152
1593891238737113,1.486,0.534,0.152
1593891239238939,1.486,0.534,0.152
1593891239741816,1.486,0.534,0.152
1593891240244615,1.448,0.457,0.152
1593891240747827,1.486,0.457,0.152
1593891241250612,1.486,0.534,0.152
1593891241753692,1.41,0.457,0.152
1593891242256634,1.448,0.534,0.152
1593891242759598,1.448,0.457,0.152
1593891243262665,1.486,0.457,0.152
1593891243765213,1.486,0.534,0.152
1593891244267079,1.486,0.534,0.152
1593891244768902,1.486,0.534,0.152
1593891245270711,1.486,0.534,0.152
1593891245772641,1.525,0.534,0.152
1593891246274491,1.448,0.457,0.152
1593891246776415,1.486,0.457,0.152
1593891247278234,1.486,0.534,0.152
1593891247780078,1.486,0.534,0.152
1593891248284531,1.525,0.534,0.152
1593891248786377,1.448,0.457,0.152
1593891249288321,1.486,0.534,0.152
1593891249790057,1.448,0.534,0.152
1593891250292081,1.448,0.534,0.152
1593891250793928,1.448,0.534,0.152
1593891251295683,1.41,0.457,0.152
1593891251797526,1.486,0.534,0.152
1593891252299422,1.486,0.534,0.152
1593891252801265,1.525,0.534,0.152
1593891253305916,1.525,0.534,0.152
1593891253807872,1.525,0.534,0.152
1593891254309665,1.525,0.534,0.152
1593891254811443,1.448,0.534,0.152
1593891255313256,1.372,0.457,0.152
1593891255816182,1.372,0.457,0.152
1593891256318098,1.486,0.534,0.152
1593891256819999,1.448,0.457,0.152
1593891257321873,1.448,0.457,0.152
1593891257823670,1.448,0.534,0.152
1593891258328195,1.486,0.457,0.152
1593891258830037,1.525,0.534,0.152
1593891259331881,1.448,0.457,0.152
1593891259833769,1.448,0.534,0.152
1593891260335565,1.448,0.457,0.152
1593891260837494,1.486,0.457,0.152
1593891261339434,1.486,0.534,0.152
1593891261841194,1.525,0.534,0.152
1593891262343002,1.486,0.534,0.152
1593891262845893,1.486,0.534,0.152
1593891263348903,1.486,0.534,0.152
1593891263851953,1.525,0.534,0.152
1593891264354881,1.715,0.457,0.152
1593891264858036,1.448,0.457,0.152
1593891265361084,1.41,0.457,0.152
1593891265863972,1.448,0.457,0.152
1593891266369091,1.448,0.457,0.152
1593891266871138,1.486,0.534,0.152
1593891267373096,1.486,0.534,0.152
1593891267874935,1.486,0.534,0.152
1593891268379693,1.525,0.534,0.152
1593891268881534,1.41,0.457,0.152
1593891269383461,1.448,0.534,0.152
1593891269885274,1.486,0.534,0.152
1593891270387129,1.525,0.534,0.152
1593891270889071,1.486,0.534,0.152
1593891271390871,1.448,0.534,0.152
1593891271892723,1.486,0.534,0.152
1593891272394692,1.525,0.534,0.152
1593891272896608,1.525,0.534,0.152
1593891273401209,1.486,0.534,0.152
1593891273902916,1.41,0.457,0.152
1593891274404757,1.448,0.457,0.152
1593891274906605,1.525,0.534,0.152
1593891275408383,1.448,0.457,0.152
1593891275910373,1.486,0.457,0.152
1593891276412277,1.486,0.534,0.152
1593891276914024,1.448,0.457,0.152
1593891277415909,1.486,0.534,0.152
1593891277917578,1.372,0.457,0.152
1593891278421911,1.372,0.457,0.152
1593891278924339,1.41,0.457,0.152
1593891279427262,1.486,0.534,0.152
1593891279930381,1.486,0.534,0.152
1593891280433226,1.486,0.534,0.152
1593891280936290,1.41,0.457,0.152
1593891281438517,1.486,0.457,0.152
1593891281940471,1.486,0.534,0.152
1593891282442363,1.525,0.534,0.152
1593891282944328,1.525,0.534,0.152
1593891283449118,1.448,0.457,0.152
1593891283950855,1.41,0.457,0.152
1593891284452831,1.448,0.457,0.152
1593891284954694,1.486,0.534,0.152
1593891285456573,1.448,0.534,0.152
1593891285958400,1.486,0.534,0.152
1593891286460132,1.448,0.457,0.152
1593891286961935,1.486,0.534,0.152
1593891287463710,1.41,0.457,0.152
1593891287965513,1.448,0.457,0.152
1593891288470097,1.486,0.534,0.152
1593891288971908,1.448,0.457,0.152
1593891289473749,1.486,0.534,0.152
1593891289975692,1.448,0.457,0.152
1593891290477487,1.486,0.534,0.152
1593891290979695,1.448,0.457,0.152
1593891291482639,1.448,0.457,0.152
1593891291985550,1.486,0.534,0.152
1593891292488514,1.372,0.457,0.152
1593891292991425,1.372,0.457,0.152
1593891293497106,1.41,0.457,0.152
1593891294000001,1.448,0.457,0.152
1593891294503689,1.639,0.534,0.152
1593891295007265,1.525,0.534,0.152
1593891295518095,1.486,0.534,0.152
1593891296020996,1.486,0.534,0.152
1593891296524020,1.448,0.534,0.152
1593891297026962,1.486,0.534,0.152
1593891297529850,1.372,0.457,0.152
1593891298033163,1.448,0.457,0.152
1593891298536050,1.486,0.534,0.152
1593891299047644,1.448,0.534,0.152
1593891299550385,1.525,0.534,0.152
1593891300053442,1.486,0.534,0.152
1593891300560978,1.525,0.534,0.152
1593891301063929,1.41,0.457,0.152
1593891301566864,1.448,0.534,0.152
1593891302069839,1.41,0.457,0.152
1593891302572148,1.448,0.534,0.152
1593891303073976,1.486,0.534,0.152
1593891303575898,1.448,0.534,0.152
1593891304084498,1.525,0.534,0.152
1593891304587547,1.448,0.457,0.152
1593891305091557,1.486,0.534,0.152
1593891305594335,1.448,0.457,0.152
1593891306097349,1.486,0.534,0.152
1593891306600305,1.41,0.457,0.152
1593891307103167,1.448,0.457,0.152
1593891307606206,1.486,0.534,0.152
1593891308110296,1.448,0.457,0.152
1593891308613653,1.486,0.534,0.152
1593891309117488,1.448,0.457,0.152
1593891309620607,1.448,0.457,0.152
1593891310123667,1.448,0.457,0.152
1593891310626722,1.41,0.457,0.152
1593891311129778,1.448,0.534,0.152
1593891311633335,1.486,0.534,0.152
1593891312136480,1.448,0.457,0.152
1593891312639557,1.525,0.534,0.152
1593891313143270,1.448,0.457,0.152
1593891313646408,1.486,0.534,0.152
1593891314149653,1.486,0.534,0.152
1593891314652908,1.448,0.457,0.152
1593891315155902,1.448,0.534,0.152
1593891315659139,1.372,0.457,0.152
1593891316167607,1.448,0.457,0.152
1593891316670498,1.486,0.534,0.152
1593891317174808,1.486,0.534,0.152
1593891317683978,1.486,0.534,0.152
1593891318187014,1.486,0.534,0.152
1593891318689980,1.486,0.534,0.152
1593891319193000,1.448,0.457,0.152
1593891319698781,1.486,0.457,0.152
1593891320201725,1.448,0.534,0.152
1593891320704733,1.41,0.457,0.152
1593891321207820,1.486,0.534,0.152
1593891321710738,1.448,0.457,0.152
1593891322213769,1.448,0.457,0.152
1593891322716604,1.448,0.457,0.152
1593891323219544,1.448,0.457,0.152
1593891323722293,1.486,0.457,0.152
1593891324225348,1.448,0.457,0.152
1593891324728504,1.448,0.457,0.152
1593891325231497,1.448,0.457,0.152
1593891325734369,1.41,0.457,0.152
1593891326237512,1.486,0.457,0.152
1593891326748368,1.448,0.457,0.152
1593891327251451,1.486,0.534,0.152
1593891327754528,1.525,0.534,0.152
1593891328257562,1.525,0.534,0.152
1593891328760349,1.41,0.457,0.152
1593891329263222,1.41,0.457,0.152
1593891329766879,1.448,0.534,0.152
1593891330269767,1.448,0.457,0.152
1593891330772978,1.486,0.457,0.152
1593891331281312,1.486,0.534,0.152
1593891331784398,1.486,0.534,0.152
1593891332287488,1.486,0.534,0.152
1593891332790393,1.448,0.534,0.152
1593891333293291,1.448,0.534,0.152
1593891333796320,1.372,0.457,0.152
1593891334299223,1.448,0.457,0.152
1593891334802450,1.486,0.534,0.152
1593891335305554,1.486,0.534,0.152
1593891335808664,1.486,0.534,0.152
1593891336313818,1.486,0.457,0.152
1593891336817046,1.525,0.534,0.152
1593891337320139,1.448,0.534,0.152
1593891337822479,1.448,0.534,0.152
1593891338324265,1.41,0.457,0.152
1593891338825988,1.41,0.457,0.152
1593891339327928,1.448,0.457,0.152
1593891339829742,1.486,0.534,0.152
1593891340334397,1.448,0.534,0.152
1593891340837696,1.486,0.534,0.152
1593891341339490,1.448,0.457,0.152
1593891341841258,1.486,0.534,0.152
1593891342343039,1.448,0.534,0.152
1593891342845019,1.41,0.457,0.152
1593891343346815,1.486,0.534,0.152
1593891343850943,1.41,0.457,0.152
1593891344352860,1.486,0.534,0.152
1593891344854669,1.486,0.534,0.152
1593891345360166,1.525,0.534,0.152
1593891345862988,1.486,0.534,0.152
1593891346365986,1.448,0.534,0.152
1593891346869107,1.448,0.534,0.152
1593891347370844,1.372,0.457,0.152
1593891347872856,1.448,0.457,0.152
1593891348376548,1.448,0.457,0.152
1593891348878380,1.486,0.534,0.152
1593891349380169,1.525,0.534,0.152
1593891349882032,1.448,0.534,0.152
1593891350386656,1.486,0.534,0.152
1593891350888495,1.448,0.534,0.152
1593891351390379,1.41,0.457,0.152
1593891351892217,1.448,0.534,0.152
1593891352394127,1.448,0.534,0.152
1593891352895961,1.486,0.534,0.152
1593891353397806,1.601,0.457,0.152
1593891353899688,1.563,0.534,0.152
1593891354401547,1.525,0.534,0.152
1593891354903415,1.486,0.534,0.152
1593891355405199,1.448,0.457,0.152
1593891355906836,1.334,0.457,0.152
1593891356408641,1.372,0.457,0.152
1593891356910477,1.486,0.457,0.152
1593891357412383,1.448,0.534,0.152
1593891357914216,1.525,0.534,0.152
1593891358415959,1.486,0.534,0.152
1593891358917784,1.525,0.534,0.152
1593891359419668,1.525,0.534,0.152
1593891359921491,1.448,0.534,0.152
1593891360425368,1.448,0.534,0.152
1593891360927238,1.41,0.457,0.152
1593891361429147,1.486,0.534,0.152
1593891361930968,1.448,0.457,0.152
1593891362432957,1.486,0.534,0.152
1593891362934693,1.486,0.534,0.152
1593891363436617,1.448,0.534,0.152
1593891363938430,1.486,0.534,0.152
1593891364440314,1.448,0.457,0.152
1593891364942070,1.486,0.534,0.152
1593891365446453,1.41,0.457,0.152
1593891365948380,1.486,0.534,0.152
1593891366450204,1.486,0.457,0.152
1593891366952219,1.486,0.534,0.152
1593891367454077,1.525,0.534,0.152
1593891367956368,1.448,0.457,0.152
1593891368458226,1.486,0.534,0.152
1593891368962655,1.486,0.534,0.152
1593891369464617,1.486,0.534,0.152
1593891369966464,1.448,0.534,0.152
1593891370471074,1.41,0.457,0.152
1593891370972974,1.486,0.534,0.152
1593891371474728,1.448,0.534,0.152
1593891371976600,1.525,0.534,0.152
1593891372479160,1.486,0.534,0.152
1593891372981174,1.486,0.534,0.152
1593891373483019,1.448,0.457,0.152
1593891373984948,1.372,0.457,0.152
1593891374486826,1.448,0.534,0.152
1593891374988645,1.41,0.457,0.152
1593891375493100,1.41,0.457,0.152
1593891375994906,1.486,0.534,0.152
1593891376496705,1.41,0.457,0.152
1593891376998507,1.448,0.457,0.152
1593891377500358,1.486,0.534,0.152
1593891378002181,1.448,0.457,0.152
1593891378504054,1.525,0.534,0.152
1593891379005786,1.448,0.457,0.152
1593891379507690,1.448,0.457,0.152
1593891380009420,1.41,0.457,0.152
1593891380514244,1.41,0.457,0.152
1593891381016370,1.486,0.534,0.152
1593891381518192,1.486,0.534,0.152
1593891382020141,1.525,0.534,0.152
1593891382521901,1.486,0.534,0.152
1593891383023665,1.41,0.457,0.152
1593891383525431,1.41,0.457,0.152
1593891384027283,1.448,0.534,0.152
1593891384529312,1.486,0.457,0.152
1593891385031133,1.563,0.534,0.152
1593891385533148,1.486,0.534,0.152
1593891386035009,1.486,0.534,0.152
1593891386536988,1.486,0.534,0.152
1593891387038760,1.448,0.457,0.152
1593891387540552,1.41,0.457,0.152
1593891388042435,1.448,0.534,0.152
1593891388544309,1.525,0.534,0.152
1593891389046164,1.486,0.534,0.152
1593891389548025,1.486,0.534,0.152
1593891390049890,1.486,0.457,0.152
1593891390555519,1.486,0.534,0.152
1593891391058495,1.448,0.534,0.152
1593891391561419,1.41,0.457,0.152
1593891392064712,1.448,0.534,0.152
1593891392566958,1.486,0.534,0.152
1593891393069226,1.448,0.457,0.152
1593891393571039,1.486,0.534,0.152
1593891394072931,1.448,0.457,0.152
1593891394574769,1.41,0.457,0.152
1593891395076678,1.486,0.457,0.152
1593891395581467,1.486,0.534,0.152
1593891396083268,1.448,0.534,0.152
1593891396586531,1.41,0.457,0.152
1593891397089382,1.448,0.457,0.152
1593891397592591,1.448,0.534,0.152
1593891398097308,1.41,0.457,0.152
1593891398600404,1.448,0.457,0.152
1593891399103444,1.486,0.534,0.152
1593891399605265,1.448,0.457,0.152
1593891400107006,1.486,0.457,0.152
1593891400611592,1.525,0.534,0.152
1593891401113382,1.448,0.534,0.152
1593891401615164,1.41,0.457,0.152
1593891402117059,1.525,0.534,0.152
1593891402618910,1.486,0.534,0.152
1593891403120723,1.448,0.534,0.152
1593891403622544,1.486,0.534,0.152
1593891404124439,1.486,0.534,0.152
1593891404626247,1.525,0.534,0.152
1593891405128100,1.448,0.534,0.152
1593891405632554,1.486,0.534,0.152
1593891406134315,1.41,0.457,0.152
1593891406636247,1.448,0.457,0.152
1593891407138072,1.525,0.534,0.152
1593891407640045,1.448,0.534,0.152
1593891408141964,1.525,0.534,0.152
1593891408643985,1.486,0.457,0.152
1593891409146708,1.448,0.457,0.152
1593891409649709,1.448,0.534,0.152
1593891410153918,1.41,0.457,0.152
1593891410659689,1.448,0.457,0.152
1593891411168295,1.41,0.457,0.152
1593891411671106,1.486,0.534,0.152
1593891412174026,1.486,0.534,0.152
1593891412677321,1.448,0.534,0.152
1593891413180163,1.486,0.534,0.152
1593891413682922,1.448,0.457,0.152
1593891414185936,1.448,0.457,0.152
1593891414688822,1.486,0.457,0.152
1593891415191957,1.486,0.457,0.152
1593891415697784,1.525,0.534,0.152
1593891416200650,1.486,0.534,0.152
1593891416703624,1.525,0.534,0.152
1593891417206535,1.486,0.534,0.152
1593891417709384,1.486,0.534,0.152
1593891418212334,1.448,0.457,0.152
1593891418715460,1.372,0.457,0.152
1593891419218242,1.448,0.534,0.152
1593891419722174,1.525,0.534,0.152
1593891420225201,1.525,0.534,0.152
1593891420728229,1.486,0.534,0.152
1593891421231277,1.525,0.534,0.152
1593891421734335,1.448,0.457,0.152
1593891422237229,1.448,0.534,0.152
1593891422740209,1.41,0.457,0.152
1593891423243150,1.41,0.457,0.152
1593891423746131,1.486,0.534,0.152
1593891424249068,1.448,0.457,0.152
1593891424752445,1.486,0.457,0.152
1593891425256052,1.486,0.534,0.152
1593891425758748,1.525,0.534,0.152
1593891426261715,1.525,0.534,0.152
1593891426765389,1.41,0.457,0.152
1593891427268291,1.448,0.457,0.152
1593891427771246,1.41,0.457,0.152
1593891428274354,1.486,0.457,0.152
1593891428777361,1.486,0.534,0.152
1593891429280463,1.448,0.534,0.152
1593891429788639,1.486,0.534,0.152
1593891430291918,1.486,0.457,0.152
1593891430794692,1.486,0.534,0.152
1593891431297846,1.448,0.457,0.152
1593891431800988,1.448,0.457,0.152
1593891432304561,1.486,0.534,0.152
1593891432808753,1.486,0.534,0.152
1593891433311890,1.486,0.534,0.152
1593891433815075,1.486,0.534,0.152
1593891434318018,1.525,0.534,0.152
1593891434821104,1.525,0.534,0.152
1593891435325256,1.525,0.534,0.152
1593891435828207,1.486,0.534,0.152
1593891436331198,1.41,0.457,0.152
1593891436834207,1.448,0.457,0.152
1593891437337665,1.486,0.534,0.152
1593891437839957,1.525,0.534,0.152
1593891438341797,1.525,0.534,0.152
1593891438843650,1.486,0.534,0.152
1593891439345531,1.525,0.534,0.152
1593891439847381,1.448,0.457,0.152
1593891440349140,1.41,0.457,0.152
1593891440850975,1.448,0.457,0.152
1593891441352770,1.448,0.457,0.152
1593891441857729,1.486,0.457,0.152
1593891442359609,1.448,0.457,0.152
1593891442861528,1.486,0.457,0.152
1593891443363452,1.486,0.534,0.152
1593891443865384,1.486,0.534,0.152
1593891444367104,1.448,0.534,0.152
1593891444868866,1.486,0.457,0.152
1593891445370711,1.753,0.533,0.152
1593891445872493,1.525,0.534,0.152
1593891446374223,1.486,0.457,0.152
1593891446876129,1.486,0.534,0.152
1593891447378036,1.486,0.534,0.152
1593891447879939,1.486,0.534,0.152
1593891448381564,1.41,0.457,0.152
1593891448883378,1.448,0.457,0.152
1593891449385201,1.448,0.457,0.152
1593891449887024,1.448,0.457,0.152
1593891450388928,1.525,0.534,0.152
1593891450890751,1.486,0.534,0.152
1593891451392751,1.486,0.534,0.152
1593891451894548,1.486,0.534,0.152
1593891452399227,1.41,0.457,0.152
1593891452901094,1.448,0.534,0.152
1593891453402903,1.448,0.457,0.152
1593891453904810,1.486,0.534,0.152
1593891454407045,1.486,0.534,0.152
1593891454909030,1.525,0.534,0.152
1593891455410882,1.525,0.534,0.152
1593891455915657,1.525,0.534,0.152
1593891456418687,1.525,0.534,0.152
1593891456921544,1.41,0.457,0.152
1593891457424581,1.448,0.534,0.152
1593891457927649,1.525,0.534,0.152
1593891458430522,1.486,0.534,0.152
1593891458933492,1.486,0.534,0.152
1593891459436399,1.525,0.534,0.152
1593891459939556,1.486,0.534,0.152
1593891460441705,1.525,0.534,0.152
1593891460943621,1.448,0.534,0.152
1593891461445441,1.486,0.534,0.152
1593891461947165,1.41,0.457,0.152
1593891462451680,1.486,0.457,0.152
1593891462953483,1.486,0.534,0.152
1593891463455250,1.486,0.534,0.152
1593891463958101,1.525,0.534,0.152
1593891464461230,1.486,0.534,0.152
1593891464964250,1.525,0.534,0.152
1593891465466980,1.448,0.457,0.152
1593891465970098,1.486,0.534,0.152
1593891466472972,1.41,0.457,0.152
1593891466975215,1.448,0.457,0.152
1593891467477936,1.486,0.534,0.152
1593891467981355,1.486,0.534,0.152
1593891468484381,1.486,0.457,0.152
1593891468987448,1.486,0.534,0.152
1593891469490462,1.525,0.534,0.152
1593891469993447,1.486,0.534,0.152
1593891470496332,1.41,0.457,0.152
1593891470998610,1.448,0.457,0.152
1593891471509899,1.448,0.457,0.152
1593891472013069,1.525,0.534,0.152
1593891472516066,1.448,0.457,0.152
1593891473021663,1.525,0.534,0.152
1593891473524627,1.486,0.534,0.152
1593891474027776,1.525,0.534,0.152
1593891474530579,1.486,0.534,0.152
1593891475033546,1.525,0.457,0.152
1593891475536493,1.486,0.457,0.152
1593891476039527,1.41,0.457,0.152
1593891476542428,1.41,0.457,0.152
1593891477045227,1.486,0.534,0.152
1593891477548420,1.486,0.534,0.152
1593891478051467,1.486,0.534,0.152
1593891478554232,1.486,0.534,0.152
1593891479056991,1.486,0.534,0.152
1593891479559917,1.41,0.457,0.152
1593891480062803,1.448,0.534,0.152
1593891480565771,1.448,0.534,0.152
1593891481068776,1.448,0.534,0.152
1593891481572181,1.448,0.457,0.152
1593891482075018,1.41,0.457,0.152
1593891482580346,1.41,0.457,0.152
1593891483085764,1.525,0.534,0.152
1593891483588825,1.486,0.534,0.152
1593891484091865,1.486,0.534,0.152
1593891484594806,1.41,0.457,0.152
1593891485097631,1.563,0.457,0.152
1593891485600681,1.563,0.457,0.152
1593891486103960,1.601,0.457,0.152
1593891486609204,1.792,0.533,0.152
1593891487112189,1.601,0.534,0.152
1593891487615206,1.486,0.457,0.152
1593891488118492,1.486,0.534,0.152
1593891488621332,1.41,0.457,0.152
1593891489124297,1.448,0.534,0.152
1593891489626549,1.41,0.457,0.152
1593891490128362,1.448,0.457,0.152
1593891490630204,1.448,0.457,0.152
1593891491132146,1.41,0.457,0.152
1593891491634062,1.448,0.457,0.152
1593891492135909,1.525,0.534,0.152
1593891492637899,1.448,0.534,0.152
1593891493142289,1.448,0.534,0.152
1593891493643922,1.372,0.457,0.152
1593891494145541,1.41,0.457,0.152
1593891494647465,1.448,0.457,0.152
1593891495149284,1.448,0.534,0.152
1593891495651005,1.41,0.457,0.152
1593891496154302,1.486,0.534,0.152
1593891496657150,1.448,0.457,0.152
1593891497160204,1.486,0.457,0.152
1593891497663270,1.486,0.534,0.152
1593891498166415,1.486,0.534,0.152
1593891498669358,1.525,0.534,0.152
1593891499172281,1.486,0.534,0.152
1593891499675251,1.448,0.457,0.152
1593891500178116,1.486,0.534,0.152
1593891500681096,1.486,0.534,0.152
1593891501184245,1.486,0.534,0.152
1593891501687131,1.525,0.534,0.152
1593891502190289,1.525,0.534,0.152
1593891502693252,1.525,0.534,0.152
1593891503196215,1.486,0.457,0.152
1593891503699140,1.372,0.457,0.152
1593891504202233,1.334,0.457,0.152
1593891504705329,1.448,0.457,0.152
1593891505208245,1.486,0.534,0.152
1593891505711157,1.525,0.534,0.152
1593891506214198,1.486,0.534,0.152
1593891506717104,1.448,0.457,0.152
1593891507220403,1.525,0.534,0.152
1593891507723456,1.525,0.534,0.152
1593891508226496,1.486,0.534,0.152
1593891508729528,1.448,0.457,0.152
1593891509232787,1.486,0.534,0.152
1593891509736295,1.448,0.534,0.152
1593891510239236,1.486,0.457,0.152
1593891510742603,1.486,0.534,0.152
1593891511248969,1.525,0.534,0.152
1593891511751958,1.486,0.534,0.152
1593891512254585,1.41,0.457,0.152
1593891512756455,1.448,0.534,0.152
1593891513261958,1.372,0.457,0.152
1593891513765086,1.486,0.534,0.152
1593891514268317,1.448,0.457,0.152
1593891514771137,1.448,0.534,0.152
1593891515275028,1.486,0.534,0.152
1593891515777987,1.448,0.534,0.152
1593891516281217,1.525,0.534,0.152
1593891516784123,1.448,0.534,0.152
1593891517287101,1.41,0.457,0.152
1593891517792971,1.448,0.534,0.152
1593891518296149,1.448,0.534,0.152
1593891518799059,1.486,0.534,0.152
1593891519301923,1.448,0.457,0.152
1593891519805157,1.486,0.534,0.152
1593891520308249,1.486,0.534,0.152
1593891520811184,1.41,0.457,0.152
1593891521314326,1.448,0.534,0.152
1593891521823767,1.41,0.457,0.152
1593891522326811,1.448,0.457,0.152
1593891522829992,1.525,0.534,0.152
1593891523332882,1.448,0.457,0.152
1593891523835972,1.525,0.534,0.152
1593891524338843,1.448,0.457,0.152
1593891524842053,1.448,0.457,0.152
1593891525345027,1.448,0.457,0.152
1593891525847946,1.372,0.457,0.152
1593891526350816,1.448,0.457,0.152
1593891526853739,1.486,0.534,0.152
1593891527356672,1.448,0.457,0.152
1593891527859628,1.486,0.534,0.152
1593891528363520,1.448,0.457,0.152
1593891528866375,1.486,0.534,0.152
1593891529369377,1.41,0.534,0.152
1593891529872498,1.41,0.457,0.152
1593891530376193,1.448,0.534,0.152
1593891530879120,1.448,0.534,0.152
1593891531382245,1.486,0.457,0.152
1593891531885312,1.448,0.457,0.152
1593891532388212,1.486,0.534,0.152
1593891532891151,1.486,0.534,0.152
1593891533394139,1.486,0.534,0.152
1593891533897112,1.486,0.534,0.152
1593891534400173,1.486,0.534,0.152
1593891534903104,1.486,0.534,0.152
1593891535406180,1.677,0.533,0.152
1593891535909134,1.525,0.534,0.152
1593891536412303,1.486,0.457,0.152
1593891536915568,1.486,0.534,0.152
1593891537418516,1.448,0.534,0.152
1593891537921570,1.448,0.534,0.152
1593891538424601,1.41,0.457,0.152
1593891538928621,1.486,0.534,0.152
1593891539431608,1.448,0.457,0.152
1593891539934814,1.486,0.534,0.152
1593891540437784,1.486,0.534,0.152
1593891540940763,1.41,0.457,0.152
1593891541443846,1.486,0.457,0.152
1593891541946769,1.448,0.534,0.152
1593891542449738,1.448,0.457,0.152
1593891542952634,1.372,0.457,0.152
1593891543455578,1.334,0.457,0.152
1593891543958704,1.486,0.457,0.152
1593891544461863,1.525,0.534,0.152
1593891544964698,1.525,0.534,0.152
1593891545467749,1.486,0.534,0.152
1593891545970722,1.525,0.534,0.152
1593891546473822,1.525,0.534,0.152
1593891546977222,1.486,0.457,0.152
1593891547480158,1.448,0.534,0.152
1593891547982972,1.41,0.457,0.152
1593891548485974,1.486,0.534,0.152
1593891548989097,1.486,0.534,0.152
1593891549492053,1.525,0.534,0.152
1593891549994941,1.486,0.534,0.152
1593891550498104,1.525,0.534,0.152
1593891551001054,1.486,0.534,0.152
1593891551504058,1.486,0.534,0.152
1593891552007141,1.486,0.534,0.152
1593891552511729,1.448,0.457,0.152
1593891553014660,1.486,0.534,0.152
1593891553517454,1.486,0.534,0.152
1593891554023068,1.486,0.534,0.152
1593891554526219,1.486,0.534,0.152
1593891555029640,1.41,0.457,0.152
1593891555532605,1.41,0.457,0.152
1593891556036291,1.372,0.457,0.152
1593891556539259,1.448,0.457,0.152
1593891557042356,1.525,0.534,0.152
1593891557545522,1.448,0.457,0.152
1593891558048548,1.486,0.457,0.152
1593891558551294,1.486,0.534,0.152
1593891559054575,1.525,0.534,0.152
1593891559557564,1.486,0.534,0.152
1593891560060572,1.41,0.457,0.152
1593891560563488,1.448,0.534,0.152
1593891561065853,1.41,0.457,0.152
1593891561567853,1.486,0.534,0.152
1593891562069728,1.486,0.534,0.152
1593891562573389,1.448,0.457,0.152
1593891563075225,1.525,0.534,0.152
1593891563577157,1.486,0.534,0.152
1593891564083374,1.525,0.534,0.152
1593891564585293,1.525,0.534,0.152
1593891565087104,1.448,0.534,0.152
1593891565588967,1.563,0.457,0.152
1593891566090844,1.525,0.457,0.152
1593891566592837,1.486,0.534,0.152
1593891567094615,1.41,0.457,0.152
1593891567596448,1.486,0.534,0.152
1593891568098286,1.486,0.534,0.152
1593891568600146,1.525,0.534,0.152
1593891569105074,1.486,0.534,0.152
1593891569606796,1.486,0.534,0.152
1593891570108572,1.486,0.534,0.152
1593891570610406,1.525,0.534,0.152
1593891571112131,1.486,0.457,0.152
1593891571614006,1.486,0.534,0.152
1593891572115825,1.486,0.534,0.152
1593891572617675,1.486,0.534,0.152
1593891573119497,1.41,0.457,0.152
1593891573621348,1.486,0.534,0.152
1593891574126038,1.525,0.534,0.152
1593891574627912,1.525,0.534,0.152
1593891575129741,1.486,0.534,0.152
1593891575631612,1.525,0.534,0.152
1593891576133322,1.525,0.534,0.152
1593891576635215,1.448,0.457,0.152
1593891577137241,1.448,0.534,0.152
1593891577639048,1.372,0.457,0.152
1593891578140955,1.448,0.457,0.152
1593891578642818,1.486,0.534,0.152
1593891579147632,1.486,0.534,0.152
1593891579649465,1.525,0.534,0.152
1593891580153028,1.525,0.457,0.152
1593891580654861,1.448,0.457,0.152
1593891581156601,1.41,0.457,0.152
1593891581658495,1.448,0.457,0.152
1593891582160388,1.448,0.457,0.152
1593891582662166,1.448,0.457,0.152
1593891583163984,1.486,0.534,0.152
1593891583665863,1.448,0.534,0.152
1593891584170613,1.525,0.534,0.152
1593891584672492,1.486,0.534,0.152
1593891585174343,1.486,0.534,0.152
1593891585676195,1.41,0.457,0.152
1593891586177995,1.486,0.534,0.152
1593891586679911,1.486,0.534,0.152
