cset: --> last message, executed args into cpuset "/user", new pid is: 22873
stress-ng: info:  [22873] dispatching hogs: 1 cpu
stress-ng: info:  [22873] successful run completed in 60.01s (1 min, 0.01 secs)
