timestamp	VIRTUAL_SCALING	CPU0_F	CPU1_F	CPU2_F	CPU3_F	CPU4_F	CPU5_F	GPU_FREQ	CPU_GOVERNOR	EMC_F	TEMP0	TEMP1	TEMP2	TEMP3	TEMP4	TEMP5	TEMP6	TEMP7
1593983328762510425	1	652	1267	1267	652	652	652	114750000	performance	665	26	26	25	26	24	22	100	26
1593983328952708133 	0	652	1266	1267	652	652	653	114750000	performance	665	26	26	25	26	24	22	100	26
1593983330718910670	1	652	1267	1267	652	652	652	114750000	performance	665	26	26	25	26	24	22	100	25
1593983330928626027 	0	652	1234	1234	652	652	652	114750000	performance	665	26	26	25	26	24	22	100	25
1593983332748356905	1	652	1267	1267	652	652	652	114750000	performance	665	27	27	25	27	24	22	100	25
1593983332956963872 	0	653	1233	1232	652	652	653	114750000	performance	665	26	27	25	27	24	22	100	25
1593983334738047103	1	652	1267	1267	652	652	652	114750000	performance	665	26	26	25	26	24	22	100	25
1593983334969666778 	0	653	1267	1236	652	653	652	114750000	performance	665	27	27	25	27	24	22	100	25
1593983336775262759	1	652	1267	1267	652	652	652	114750000	performance	665	27	27	25	27	24	22	100	25
1593983337030220554 	0	652	1235	1267	652	653	652	114750000	performance	665	27	27	25	27	24	22	100	26
1593983338852226421	1	652	1267	1267	652	652	652	114750000	performance	665	27	27	25	27	24	22	100	26
1593983339059614277 	0	652	1236	1237	653	652	652	114750000	performance	665	26	26	25	26	24	22	100	26
1593983340851759204	1	652	1267	1267	652	652	652	114750000	performance	665	27	26	25	26	24	22	100	26
1593983341108829235 	0	652	1230	1235	652	652	653	114750000	performance	665	27	27	25	27	24	22	100	26
1593983342903623265	1	652	1267	1267	652	652	652	114750000	performance	665	26	27	25	27	24	22	100	26
1593983343129348283 	0	652	1234	1234	652	653	653	114750000	performance	665	27	26	25	26	24	22	100	26
1593983344877812189	1	652	1267	1267	652	652	652	114750000	performance	665	26	26	25	27	24	22	100	26
1593983345083727716 	0	652	1236	1267	652	652	652	114750000	performance	665	26	26	25	26	24	22	100	26
1593983346930000284	1	652	1267	1267	652	652	652	114750000	performance	665	26	26	25	26	24	22	100	25
1593983347160242032 	0	652	1267	1235	653	652	652	114750000	performance	665	26	26	25	26	24	22	100	25
1593983348956873960	1	652	1267	1267	652	652	652	114750000	performance	665	26	26	25	26	24	22	100	26
1593983349205268357 	0	652	1278	1268	653	652	652	114750000	performance	665	27	26	25	27	24	22	100	26
1593983350953640231	1	652	1267	1267	652	652	652	114750000	performance	665	27	27	25	27	24	22	100	25
1593983351184167868 	0	653	1234	1267	653	652	652	114750000	performance	665	27	27	25	27	24	22	100	25
1593983352940357419	1	652	1267	1267	652	652	652	114750000	performance	665	27	27	25	27	24	22	100	26
1593983353154963236 	0	652	1267	1266	652	652	653	114750000	performance	665	27	27	25	27	24	22	100	26
1593983354918852352	1	652	1267	1267	652	652	652	114750000	performance	665	26	26	25	26	24	22	100	25
1593983355143173457 	0	652	1266	1237	652	653	652	114750000	performance	665	26	26	25	26	24	22	100	25
1593983356882228317	1	652	1267	1267	652	652	652	114750000	performance	665	27	26	25	26	24	22	100	25
1593983357109056669 	0	652	1266	1237	653	653	652	114750000	performance	665	27	27	25	27	24	22	100	26
1593983358916607189	1	652	1267	1267	652	652	652	114750000	performance	665	26	26	25	26	24	22	100	25
1593983359139787328 	0	652	1267	1267	653	652	652	114750000	performance	665	26	26	25	27	24	22	100	25
1593983360943780515	1	652	1267	1267	652	652	652	114750000	performance	665	27	26	25	26	24	22	100	25
1593983361191844190 	0	652	1267	1267	652	652	652	114750000	performance	665	26	26	25	26	24	22	100	25
1593983362967122971	1	652	1267	1267	652	652	652	114750000	performance	665	26	26	25	26	24	22	100	26
1593983363194146109 	0	652	1267	1236	652	653	653	114750000	performance	665	26	27	25	27	24	22	100	26
1593983365033561357	1	652	1267	1267	652	652	652	114750000	performance	665	27	27	25	27	24	22	100	26
1593983365275202979 	0	652	1266	1268	652	652	653	114750000	performance	665	27	27	25	27	24	22	100	26
1593983367047886129	1	652	1267	1267	652	652	652	114750000	performance	665	26	26	25	26	24	22	100	25
1593983367282564382 	0	652	1266	1266	653	653	653	114750000	performance	665	27	27	25	27	24	22	100	26
1593983369083420559	1	652	1267	1267	652	652	652	114750000	performance	665	27	27	25	27	24	22	100	26
1593983369326857040 	0	652	1266	1233	654	652	653	114750000	performance	665	27	27	25	27	24	22	100	25
1593983371112896395	1	652	1267	1267	652	652	652	114750000	performance	665	26	26	25	27	24	22	100	26
1593983371369603800 	0	653	1235	1267	651	652	652	114750000	performance	665	26	26	25	27	24	22	100	26
1593983373176136874	1	652	1267	1267	652	652	652	114750000	performance	665	27	27	25	27	24	22	100	26
1593983373365684594 	0	653	1237	1267	652	653	652	114750000	performance	665	27	27	25	27	24	22	100	26
1593983375129900848	1	652	1267	1267	652	652	652	114750000	performance	665	27	27	25	27	24	22	100	26
1593983375368571860 	0	653	1235	1266	652	652	652	114750000	performance	665	27	27	25	27	24	22	100	26
1593983377140613663	1	652	1267	1267	652	652	652	114750000	performance	665	27	27	25	27	24	22	100	26
1593983377367401439 	0	653	1267	1267	653	652	652	114750000	performance	665	26	26	25	27	24	22	100	26
1593983379211190344	1	652	1267	1267	652	652	652	114750000	performance	665	27	27	25	27	24	22	100	26
1593983379428653842 	0	653	1236	1267	652	653	652	114750000	performance	665	27	27	25	27	24	22	100	26
1593983381224988073	1	652	1267	1267	652	652	652	114750000	performance	665	27	27	25	27	24	22	100	26
1593983381424026312 	0	652	1267	1237	652	653	652	114750000	performance	665	27	26	25	26	24	22	100	26
1593983383197987390	1	652	1267	1267	652	652	652	114750000	performance	665	27	27	25	27	24	22	100	26
1593983383409310916 	0	652	1265	1266	653	653	652	114750000	performance	665	27	27	25	27	24	22	100	26
1593983385207574631	1	652	1267	1267	652	652	652	114750000	performance	665	27	27	25	27	24	22	100	26
1593983385437912987 	0	651	1266	1236	652	652	653	114750000	performance	665	27	27	25	27	24	22	100	26
1593983387198817605	1	652	1267	1267	652	652	652	114750000	performance	665	27	27	25	27	24	22	100	26
1593983387411953302 	0	652	1266	1245	652	652	652	114750000	performance	665	27	27	25	27	24	22	100	26
1593983389225917363	1	652	1267	1267	652	652	652	114750000	performance	665	27	27	25	27	24	22	100	26
1593983389452668050 	0	652	1235	1268	652	652	652	114750000	performance	665	27	26	25	26	24	22	100	26
1593983391212606199	1	652	1267	1267	652	652	652	114750000	performance	665	26	26	25	26	24	22	100	25
1593983391450813913 	0	653	1267	1232	652	652	652	114750000	performance	665	26	26	25	26	24	22	100	25
1593983393270925433	1	652	1267	1267	652	652	652	114750000	performance	665	26	26	25	26	24	22	100	26
1593983393476007196 	0	652	1268	1268	652	653	651	114750000	performance	665	27	27	25	26	24	22	100	26
1593983395246777087	1	652	1267	1267	652	652	652	114750000	performance	665	27	27	25	26	24	22	100	26
1593983395462527551 	0	653	1266	1267	652	652	652	114750000	performance	665	27	27	25	27	24	22	100	26
1593983397227396256	1	652	1267	1267	652	652	652	114750000	performance	665	27	27	25	27	24	22	100	25
1593983397442892958 	0	652	1267	1267	653	653	653	114750000	performance	665	26	26	25	26	24	22	100	25
1593983399256018167	1	652	1267	1267	652	652	652	114750000	performance	665	26	26	25	26	24	22	100	25
1593983399461378170 	0	652	1265	1266	653	653	652	114750000	performance	665	26	26	25	26	24	22	100	25
1593983401231064791	1	652	1267	1267	652	652	652	114750000	performance	665	26	26	25	26	24	22	100	25
1593983401462038447 	0	652	1235	1267	652	652	653	114750000	performance	665	26	26	25	26	24	22	100	25
1593983403292686381	1	652	1267	1267	652	652	652	114750000	performance	665	26	26	25	26	24	22	100	25
1593983403510300984 	0	653	1235	1234	652	653	653	114750000	performance	665	27	27	25	26	24	22	100	25
1593983405359954403	1	652	1267	1267	652	652	652	114750000	performance	665	26	27	25	27	24	22	100	26
1593983405615082855 	0	652	1267	1237	651	652	653	114750000	performance	665	27	27	25	27	24	22	100	26
1593983407421213591	1	652	1267	1267	652	652	652	114750000	performance	665	26	26	25	26	24	22	100	26
1593983407658344466 	0	652	1233	1234	652	652	653	114750000	performance	665	26	26	25	26	24	22	100	26
1593983409430942016	1	652	1267	1267	652	652	652	114750000	performance	665	26	26	25	26	24	22	100	26
1593983409732974387 	0	654	1266	1267	653	653	652	114750000	performance	665	27	27	25	26	24	22	100	25
1593983411574049581	1	652	1267	1267	652	652	652	114750000	performance	665	27	27	25	27	24	22	100	26
1593983411801531441 	0	652	1233	1266	652	652	653	114750000	performance	665	27	27	25	27	24	22	100	26
1593983413620540427	1	652	1267	1267	652	652	652	114750000	performance	665	26	26	25	27	24	22	100	26
1593983413855362105 	0	652	1268	1266	652	652	653	114750000	performance	665	26	27	25	27	24	22	100	26
1593983415665737985	1	652	1267	1267	652	652	652	114750000	performance	665	26	26	25	26	24	22	100	26
1593983415932381544 	0	653	1247	1267	652	653	652	114750000	performance	665	26	26	25	27	24	22	100	26
1593983417707773670	1	652	1267	1267	652	652	652	114750000	performance	665	26	26	25	26	24	22	100	26
1593983417923284420 	0	652	1232	1237	653	652	652	114750000	performance	665	26	26	25	26	24	22	100	26
1593983419755398474	1	652	1267	1267	652	652	652	114750000	performance	665	27	27	25	27	24	22	100	26
1593983419965641611 	0	652	1234	1267	652	652	652	114750000	performance	665	27	27	25	27	24	22	100	26
1593983421739965474	1	652	1267	1267	652	652	652	114750000	performance	665	26	26	25	26	24	23	100	26
1593983421941351439 	0	653	1266	1239	653	651	653	114750000	performance	665	26	26	25	26	24	22	100	25
1593983423786278751	1	652	1267	1267	652	652	652	114750000	performance	665	27	27	25	26	24	22	100	25
1593983424002631299 	0	652	1233	1233	652	652	652	114750000	performance	665	26	27	25	27	24	22	100	25
1593983425800796484	1	652	1267	1267	652	652	652	114750000	performance	665	26	26	25	27	24	22	100	25
1593983426022700264 	0	652	1266	1238	652	652	652	114750000	performance	665	26	26	25	26	24	22	100	25
1593983427758589825	1	652	1267	1267	652	652	652	114750000	performance	665	26	26	25	26	24	22	100	26
1593983428008081476 	0	652	1235	1236	652	652	652	114750000	performance	665	26	26	25	26	24	22	100	26
1593983429831014261	1	652	1267	1267	652	652	652	114750000	performance	665	26	26	25	27	24	22	100	26
1593983430049975240 	0	652	1233	1234	652	652	652	114750000	performance	665	27	26	25	26	24	22	100	26
1593983431817622137	1	652	1267	1267	652	652	652	114750000	performance	665	26	26	25	26	24	22	100	26
1593983432022111096 	0	652	1236	1267	653	652	652	114750000	performance	665	26	26	25	26	24	22	100	25
1593983433826258300	1	652	1267	1267	652	652	652	114750000	performance	665	27	27	25	26	24	22	100	26
1593983434065159554 	0	652	1234	1266	653	653	653	114750000	performance	665	26	26	25	27	24	22	100	26
1593983435878134841	1	652	1267	1267	652	652	652	114750000	performance	665	27	27	25	27	24	22	100	26
1593983436093063605 	0	652	1237	1267	652	652	652	114750000	performance	665	27	27	25	26	24	22	100	26
1593983437871878534	1	652	1267	1267	652	652	652	114750000	performance	665	27	27	25	27	24	22	100	26
1593983438083161228 	0	652	1266	1266	652	652	652	114750000	performance	665	27	27	25	27	24	22	100	26
1593983439876617587	1	652	1267	1267	652	652	652	114750000	performance	665	26	26	25	27	24	22	100	26
1593983440087373270 	0	653	1267	1266	652	652	652	114750000	performance	665	26	26	25	27	24	22	100	26
1593983441886723518	1	652	1267	1267	652	652	652	114750000	performance	665	26	26	25	26	24	22	100	26
1593983442140454522 	0	652	1266	1236	652	652	652	114750000	performance	665	26	26	25	26	24	22	100	25
1593983443943681433	1	652	1267	1267	652	652	652	114750000	performance	665	26	26	25	26	24	22	100	26
1593983444170075702 	0	653	1267	1266	653	652	651	114750000	performance	665	26	26	25	27	24	22	100	26
1593983445985233882	1	652	1267	1267	652	652	652	114750000	performance	665	26	27	25	26	24	22	100	25
1593983446213811493 	0	653	1266	1266	652	653	652	114750000	performance	665	26	26	25	27	24	22	100	25
1593983448025419220	1	652	1267	1267	652	652	652	114750000	performance	665	27	27	25	26	24	22	100	26
1593983448269799194 	0	652	1266	1247	653	653	652	114750000	performance	665	26	26	25	26	24	22	100	26
1593983450097804648	1	652	1267	1267	652	652	652	114750000	performance	665	26	26	25	27	24	22	100	25
1593983450301863972 	0	652	1268	1237	652	652	653	114750000	performance	665	26	26	25	26	24	22	100	25
1593983452098927679	1	652	1267	1267	652	652	652	114750000	performance	665	27	26	25	26	24	22	100	26
1593983452381318145 	0	652	1234	1235	653	653	653	114750000	performance	665	27	27	25	27	24	22	100	26
1593983454144836634	1	652	1267	1267	652	652	652	114750000	performance	665	26	27	25	26	24	22	100	26
1593983454370802165 	0	652	1267	1232	652	652	653	114750000	performance	665	26	27	25	27	24	22	100	26
1593983456159822146	1	652	1267	1267	652	652	652	114750000	performance	665	26	26	25	26	24	22	100	25
1593983456374335931 	0	652	1236	1266	652	653	653	114750000	performance	665	26	27	25	27	24	23	100	25
1593983458215013106	1	652	1267	1267	652	652	652	114750000	performance	665	27	27	25	27	24	22	100	25
1593983458441183727 	0	652	1236	1236	652	653	652	114750000	performance	665	26	26	25	26	24	22	100	25
1593983460265302758	1	652	1267	1267	652	652	652	114750000	performance	665	26	27	25	27	24	22	100	25
1593983460458400739 	0	652	1235	1231	652	652	653	114750000	performance	665	26	27	25	27	24	22	100	25
1593983462261618626	1	652	1267	1267	652	652	652	114750000	performance	665	26	26	25	27	24	22	100	26
1593983462485781587 	0	653	1236	1266	652	652	652	114750000	performance	665	27	27	25	27	24	22	100	25
1593983464306899545	1	652	1267	1267	652	652	652	114750000	performance	665	26	27	25	27	24	22	100	25
1593983464519015492 	0	653	1235	1267	653	652	652	114750000	performance	665	26	26	25	26	24	22	100	25
1593983466317035461	1	652	1267	1267	652	652	652	114750000	performance	665	26	26	25	26	24	22	100	26
1593983466523101197 	0	652	1237	1231	653	652	652	114750000	performance	665	26	26	25	26	24	22	100	26
1593983468314068805	1	652	1267	1267	652	652	652	114750000	performance	665	27	27	25	26	24	22	100	26
1593983468526968052 	0	652	1232	1236	652	652	652	114750000	performance	665	26	26	25	26	24	22	100	26
1593983470316995815	1	652	1267	1267	652	652	652	114750000	performance	665	27	27	25	27	24	22	100	26
1593983470553189277 	0	653	1267	1235	652	652	653	114750000	performance	665	27	27	25	26	24	22	100	26
1593983472361979676	1	652	1267	1267	652	652	652	114750000	performance	665	26	26	25	26	24	22	100	26
1593983472567427297 	0	652	1267	1267	652	653	652	114750000	performance	665	26	27	25	27	24	22	100	26
1593983474392260124	1	652	1267	1267	652	652	652	114750000	performance	665	27	27	25	27	24	22	100	26
1593983474607668250 	0	652	1235	1235	653	653	653	114750000	performance	665	27	27	25	27	24	22	100	26
1593983476403010284	1	652	1267	1267	652	652	652	114750000	performance	665	27	27	25	27	24	22	100	26
1593983476626055030 	0	652	1238	1233	652	653	652	114750000	performance	665	27	27	25	27	24	22	100	26
1593983478415566437	1	652	1267	1267	652	652	652	114750000	performance	665	27	27	25	27	24	22	100	26
1593983478650987127 	0	653	1233	1240	653	653	652	114750000	performance	665	27	27	25	27	24	22	100	26
1593983480415561239	1	652	1267	1267	652	652	652	114750000	performance	665	27	27	25	27	24	22	100	26
1593983480618739566 	0	652	1266	1267	652	653	652	114750000	performance	665	27	26	25	26	24	22	100	26
1593983482383889712	1	652	1267	1267	652	652	652	114750000	performance	665	27	27	25	27	24	22	100	26
1593983482607229756 	0	652	1232	1243	652	653	652	114750000	performance	665	27	27	25	27	24	22	100	26
1593983484403838165	1	652	1267	1267	652	652	652	114750000	performance	665	27	27	25	27	24	22	100	26
1593983484616092417 	0	652	1266	1267	652	652	652	114750000	performance	665	27	27	25	26	24	22	100	26
1593983486383737138	1	652	1267	1267	652	652	652	114750000	performance	665	27	27	25	26	24	22	100	26
1593983486645571356 	0	653	1233	1233	652	652	652	114750000	performance	665	26	27	25	27	24	22	100	26
1593983488473558122	1	652	1267	1267	652	652	652	114750000	performance	665	27	27	25	27	24	22	100	26
1593983488704696100 	0	652	1236	1267	652	652	653	114750000	performance	665	27	27	25	26	24	22	100	26
1593983490544651159	1	652	1267	1267	652	652	652	114750000	performance	665	26	26	25	26	24	22	100	26
1593983490744786173 	0	652	1237	1265	653	653	652	114750000	performance	665	26	26	25	26	24	22	100	26
1593983492539631051	1	652	1267	1267	652	652	652	114750000	performance	665	26	26	25	26	24	22	100	25
1593983492762316915 	0	652	1235	1267	652	653	653	114750000	performance	665	27	27	25	27	24	22	100	25
1593983494544156310	1	652	1267	1267	652	652	652	114750000	performance	665	27	27	25	27	24	22	100	26
1593983494784148034 	0	653	1266	1267	652	652	652	114750000	performance	665	26	27	25	27	24	22	100	25
1593983496573854995	1	652	1267	1267	652	652	652	114750000	performance	665	26	26	25	26	24	22	100	26
1593983496823798905 	0	652	1237	1267	653	652	652	114750000	performance	665	27	27	25	26	24	22	100	26
1593983498589102556	1	652	1267	1267	652	652	652	114750000	performance	665	27	27	25	26	24	22	100	26
1593983498770766615 	0	652	1266	1267	652	652	652	114750000	performance	665	27	27	25	27	24	22	100	26
1593983500592821539	1	652	1267	1267	652	652	652	114750000	performance	665	26	26	25	27	24	22	100	26
1593983500820037829 	0	652	1236	1265	653	653	652	114750000	performance	665	27	27	25	26	24	22	100	26
1593983502591861071	1	652	1267	1267	652	652	652	114750000	performance	665	27	27	25	27	24	22	100	26
1593983502798837084 	0	652	1267	1246	653	652	653	114750000	performance	665	27	27	25	27	24	22	100	26
1593983504623666136	1	652	1267	1267	652	652	652	114750000	performance	665	27	27	25	27	24	22	100	25
1593983504841366083 	0	653	1234	1266	652	653	653	114750000	performance	665	27	27	25	27	24	22	100	26
1593983506651514314	1	652	1267	1267	652	652	652	114750000	performance	665	27	27	25	27	24	22	100	26
1593983506893074335 	0	652	1236	1267	652	653	653	114750000	performance	665	27	27	25	26	24	22	100	26
1593983508705160881	1	652	1267	1267	652	652	652	114750000	performance	665	27	27	25	27	24	22	100	26
1593983508927501336 	0	652	1233	1237	653	652	652	114750000	performance	665	26	26	25	26	24	22	100	26
1593983510720920286	1	652	1267	1267	652	652	652	114750000	performance	665	27	27	25	27	24	22	100	25
1593983510926063200 	0	653	1267	1267	652	653	652	114750000	performance	665	27	26	25	26	24	22	100	25
1593983512734348508	1	652	1267	1267	652	652	652	114750000	performance	665	26	26	25	26	24	22	100	25
1593983512940462277 	0	652	1267	1268	653	652	652	114750000	performance	665	27	26	25	26	24	22	100	25
1593983514730543704	1	652	1267	1267	652	652	652	114750000	performance	665	26	26	25	26	24	22	100	25
1593983514969078555 	0	652	1266	1267	652	652	653	114750000	performance	665	27	26	25	27	24	22	100	26
1593983516790467779	1	652	1267	1267	652	652	652	114750000	performance	665	26	26	25	26	24	22	100	26
1593983517015875291 	0	653	1267	1235	653	652	653	114750000	performance	665	27	26	25	27	24	22	100	26
1593983518831994245	1	652	1267	1267	652	652	652	114750000	performance	665	27	27	25	27	24	22	100	26
1593983519058832485 	0	652	1233	1234	651	652	654	114750000	performance	665	26	26	25	27	24	22	100	26
1593983520897355472	1	652	1267	1267	652	652	652	114750000	performance	665	27	27	25	27	24	22	100	26
1593983521098988318 	0	653	1266	1266	653	652	652	114750000	performance	665	26	26	25	26	24	22	100	26
1593983522858024605	1	652	1267	1267	652	652	652	114750000	performance	665	27	26	25	26	24	22	100	26
1593983523046054013 	0	652	1268	1266	653	652	652	114750000	performance	665	27	27	25	26	24	22	100	26
1593983524847478450	1	652	1267	1267	652	652	652	114750000	performance	665	27	27	25	27	24	22	100	26
1593983525064864795 	0	653	1237	1233	651	652	652	114750000	performance	665	26	26	25	26	24	22	100	25
1593983526802820192	1	652	1267	1267	652	652	652	114750000	performance	665	27	27	25	27	24	22	100	26
1593983527026574287 	0	653	1266	1239	652	652	652	114750000	performance	665	27	27	25	27	24	22	100	26
1593983528818772942	1	652	1267	1267	652	652	652	114750000	performance	665	27	27	25	27	24	22	100	26
1593983529053292058 	0	652	1266	1230	653	653	652	114750000	performance	665	26	27	25	27	24	22	100	26
1593983530854664494	1	652	1267	1267	652	652	652	114750000	performance	665	26	26	25	26	24	22	100	25
1593983531055181718 	0	653	1266	1243	653	653	652	114750000	performance	665	26	26	25	26	24	22	100	25
1593983532858222900	1	652	1267	1267	652	652	652	114750000	performance	665	26	27	25	27	24	22	100	26
1593983533060782568 	0	652	1267	1234	652	652	653	114750000	performance	665	27	27	25	26	24	22	100	26
1593983534844972185	1	652	1267	1267	652	652	652	114750000	performance	665	27	27	25	26	24	22	100	25
1593983535086484942 	0	653	1266	1235	652	653	653	114750000	performance	665	26	26	25	26	24	22	100	26
1593983536865499776	1	652	1267	1267	652	652	652	114750000	performance	665	27	27	25	27	24	22	100	25
1593983537079957817 	0	652	1265	1235	652	652	652	114750000	performance	665	26	26	25	26	24	22	100	25
1593983538858285832	1	652	1267	1267	652	652	652	114750000	performance	665	26	26	25	27	24	22	100	26
1593983539067659395 	0	652	1236	1236	652	653	652	114750000	performance	665	26	26	25	26	24	22	100	26
1593983540876154656	1	652	1267	1267	652	652	652	114750000	performance	665	26	27	25	27	24	22	100	25
1593983541091250141 	0	652	1237	1266	653	653	653	114750000	performance	665	27	27	25	27	24	22	100	25
1593983542896587816	1	652	1267	1267	652	652	652	114750000	performance	665	26	26	25	26	24	22	100	26
1593983543108254352 	0	652	1267	1266	652	652	653	114750000	performance	665	27	27	25	27	24	22	100	25
1593983544969865921	1	652	1267	1267	652	652	652	114750000	performance	665	26	27	25	27	24	22	100	26
1593983545193280269 	0	652	1267	1238	652	652	653	114750000	performance	665	26	26	25	27	24	22	100	26
1593983546984471558	1	652	1267	1267	652	652	652	114750000	performance	665	26	26	25	26	24	22	100	26
1593983547181730459 	0	652	1267	1266	652	653	652	114750000	performance	665	26	26	25	26	24	22	100	26
1593983548975894822	1	652	1267	1267	652	652	652	114750000	performance	665	26	26	25	26	24	22	100	26
1593983549206194618 	0	652	1267	1237	653	652	652	114750000	performance	665	26	26	25	26	24	22	100	26
1593983551031090038	1	652	1267	1267	652	652	652	114750000	performance	665	27	27	25	27	24	22	100	26
1593983551243204545 	0	652	1234	1267	653	653	653	114750000	performance	665	27	27	25	27	24	22	100	26
1593983553083162164	1	652	1267	1267	652	652	652	114750000	performance	665	27	26	25	26	24	22	100	26
1593983553335292519 	0	652	1268	1234	652	652	653	114750000	performance	665	26	26	25	26	24	22	100	26
1593983555154948869	1	652	1267	1267	652	652	652	114750000	performance	665	26	26	25	26	24	22	100	25
1593983555367640915 	0	652	1266	1237	652	651	652	114750000	performance	665	27	27	25	27	24	22	100	26
1593983557149192629	1	652	1267	1267	652	652	652	114750000	performance	665	27	27	25	27	24	22	100	26
1593983557356226434 	0	652	1234	1267	652	653	653	114750000	performance	665	26	26	25	26	24	22	100	26
1593983559189268942	1	652	1267	1267	652	652	652	114750000	performance	665	27	27	25	27	24	22	100	26
1593983559388005547 	0	652	1234	1266	652	653	652	114750000	performance	665	27	27	25	27	24	22	100	26
1593983561240886601	1	652	1267	1267	652	652	652	114750000	performance	665	27	27	25	27	24	22	100	26
1593983561458203858 	0	652	1233	1233	652	652	652	114750000	performance	665	27	27	25	27	24	22	100	26
1593983563328022514	1	652	1267	1267	652	652	652	114750000	performance	665	27	27	25	26	24	22	100	25
1593983563542744877 	0	652	1267	1242	652	652	652	114750000	performance	665	27	27	25	27	24	22	100	25
1593983565338824354	1	652	1267	1267	652	652	652	114750000	performance	665	27	27	25	27	24	22	100	26
1593983565554717187 	0	652	1266	1266	653	652	653	114750000	performance	665	27	27	25	27	24	22	100	26
1593983567340496253	1	652	1267	1267	652	652	652	114750000	performance	665	26	26	25	26	24	22	100	26
1593983567567490302 	0	652	1235	1267	653	652	652	114750000	performance	665	26	27	25	27	24	22	100	25
1593983569386882138	1	652	1267	1267	652	652	652	114750000	performance	665	27	27	25	26	24	22	100	26
1593983569627053512 	0	652	1267	1265	652	652	653	114750000	performance	665	27	27	25	27	24	22	100	26
1593983571419251719	1	652	1267	1267	652	652	652	114750000	performance	665	26	26	25	27	24	22	100	26
1593983571627568316 	0	653	1267	1267	652	652	652	114750000	performance	665	27	27	25	27	24	22	100	26
1593983573416267654	1	652	1267	1267	652	652	652	114750000	performance	665	27	27	25	26	24	22	100	26
1593983573639113584 	0	652	1267	1234	652	653	652	114750000	performance	665	27	27	25	26	24	22	100	26
1593983575362146655	1	652	1267	1267	652	652	652	114750000	performance	665	26	27	25	27	24	22	100	26
1593983575554214614 	0	653	1267	1267	651	652	652	114750000	performance	665	27	27	25	27	24	22	100	26
1593983577362970132	1	652	1267	1267	652	652	652	114750000	performance	665	27	27	25	27	24	22	100	26
1593983577637702698 	0	652	1267	1236	652	652	652	114750000	performance	665	26	26	25	26	24	22	100	25
1593983579472745921	1	652	1267	1267	652	652	652	114750000	performance	665	27	26	25	26	24	22	100	26
1593983579734287721 	0	652	1237	1267	653	652	653	114750000	performance	665	26	26	25	26	24	22	100	26
1593983581544140719	1	652	1267	1267	652	652	652	114750000	performance	665	27	27	25	27	24	22	100	25
1593983581790433919 	0	652	1236	1233	652	652	652	114750000	performance	665	27	27	25	26	24	22	100	25
1593983583532626909	1	652	1267	1267	652	652	652	114750000	performance	665	26	27	25	27	24	22	100	26
1593983583739010695 	0	652	1265	1237	652	653	652	114750000	performance	665	27	27	25	27	24	22	100	26
1593983585534530585	1	652	1267	1267	652	652	652	114750000	performance	665	26	26	25	26	24	22	100	25
1593983585771906710 	0	653	1239	1237	652	653	653	114750000	performance	665	26	26	25	26	24	22	100	25
1593983587545194600	1	652	1267	1267	652	652	652	114750000	performance	665	27	27	25	27	24	22	100	26
1593983587776622563 	0	653	1236	1267	653	652	652	114750000	performance	665	27	27	25	26	24	22	100	25
