timestamp	VIRTUAL_SCALING	CPU0_F	CPU1_F	CPU2_F	CPU3_F	CPU4_F	CPU5_F	GPU_FREQ	CPU_GOVERNOR	EMC_F	TEMP0	TEMP1	TEMP2	TEMP3	TEMP4	TEMP5	TEMP6	TEMP7
1592951478382048003	1	499	1728	1728	499	499	499	114750000	performance	1866	30	30	28	30	27	26	100	29
1592951478709548551 	0	499	1713	1714	499	499	499	114750000	performance	1866	30	30	28	30	27	26	100	29
1592951480697096505	1	499	1728	1728	499	499	499	114750000	performance	1866	30	30	28	30	27	26	100	29
1592951481106519400 	0	499	1702	1700	499	499	499	114750000	performance	1866	30	30	28	30	27	26	100	29
1592951483109105259	1	499	1728	1728	499	499	499	114750000	performance	1866	31	30	28	30	27	26	100	29
1592951483454516831 	0	499	1727	1727	499	499	499	114750000	performance	1866	30	30	28	30	27	26	100	29
1592951485533173867	1	499	1728	1728	499	499	499	114750000	performance	1866	30	30	28	30	27	26	100	29
1592951485985199080 	0	499	1728	1727	499	499	499	114750000	performance	1866	30	30	28	30	27	26	100	29
1592951488045215635	1	499	1728	1728	499	499	499	114750000	performance	1866	30	30	28	30	27	26	100	29
1592951488405177487 	0	499	1728	1728	499	499	499	114750000	performance	1866	30	30	28	30	27	26	100	29
1592951490473068185	1	499	1728	1728	499	499	499	114750000	performance	1866	30	31	28	30	27	26	100	30
1592951490788538441 	0	499	1727	1728	499	498	499	114750000	performance	1866	30	30	28	30	27	26	100	30
