TimeStamp,Total Power,CPU Power,GPU Power
1592952764468362,1.486,0.305,0.152
1592952764969860,1.486,0.305,0.152
1592952765471299,1.486,0.305,0.152
1592952765972797,1.486,0.305,0.152
1592952766474239,1.486,0.305,0.152
1592952766975779,1.486,0.305,0.152
1592952767477218,1.486,0.305,0.152
1592952767978663,1.715,0.305,0.152
1592952768480176,1.753,0.305,0.152
1592952768981637,1.792,0.305,0.152
1592952769483083,1.715,0.305,0.152
1592952769984585,1.563,0.305,0.152
1592952770488609,1.525,0.305,0.152
1592952770990055,1.486,0.305,0.152
1592952771491553,1.486,0.305,0.152
1592952771993001,1.486,0.305,0.152
1592952772494437,1.486,0.305,0.152
1592952772995954,1.486,0.305,0.152
1592952773497379,1.486,0.305,0.152
1592952773998830,1.525,0.305,0.152
1592952774500310,1.486,0.305,0.152
1592952775001757,1.486,0.305,0.152
1592952775505644,1.486,0.305,0.152
1592952776007125,1.486,0.305,0.152
1592952776508916,1.486,0.305,0.152
1592952777010364,1.486,0.305,0.152
1592952777511830,1.448,0.305,0.152
1592952778013282,1.486,0.305,0.152
1592952778514730,1.486,0.305,0.152
1592952779016206,1.486,0.305,0.152
