timestamp	VIRTUAL_SCALING	CPU0_F	CPU1_F	CPU2_F	CPU3_F	CPU4_F	CPU5_F	GPU_FREQ	CPU_GOVERNOR	EMC_F	TEMP0	TEMP1	TEMP2	TEMP3	TEMP4	TEMP5	TEMP6	TEMP7
1593898588569532657	1	345	1420	1420	345	345	345	114750000	performance	1866	28	28	26	28	25	23	100	27
1593898588734905501 	0	345	1424	1427	345	345	345	114750000	performance	1866	28	28	26	28	25	23	100	27
1593898590722519775	1	345	1420	1420	345	345	345	114750000	performance	1866	27	27	26	27	25	23	100	26
1593898591205534716 	0	345	1422	1423	345	345	345	114750000	performance	1866	27	27	26	27	25	23	100	26
1593898593184289171	1	345	1420	1420	345	345	345	114750000	performance	1866	28	28	26	28	25	23	100	26
1593898593470825459 	0	345	1422	1427	345	345	345	114750000	performance	1866	28	27	26	27	25	23	100	26
1593898595651114479	1	345	1420	1420	345	345	345	114750000	performance	1866	28	28	26	28	25	23	100	27
1593898596031564238 	0	345	1425	1426	345	345	345	114750000	performance	1866	28	27	26	27	25	23	100	27
1593898597966033213	1	345	1420	1420	345	345	345	114750000	performance	1866	28	28	26	28	25	23	100	27
1593898598147500704 	0	345	1376	1365	345	345	345	114750000	performance	1866	28	28	25	28	25	23	100	27
1593898599997549589	1	345	1420	1420	345	345	345	114750000	performance	1866	28	28	26	28	25	23	100	27
1593898600197523454 	0	345	1434	1430	345	345	345	114750000	performance	1866	28	28	26	28	25	23	100	27
1593898601975237862	1	345	1420	1420	345	345	345	114750000	performance	1866	28	28	25	28	25	23	100	27
1593898602248211643 	0	345	1423	1422	345	345	345	114750000	performance	1866	28	28	26	28	25	23	100	27
1593898604095231325	1	345	1420	1420	345	345	345	114750000	performance	1866	28	28	26	28	25	23	100	27
1593898604297024816 	0	345	1430	1434	345	345	345	114750000	performance	1866	28	28	26	28	25	23	100	27
1593898606276136127	1	345	1420	1420	345	345	345	114750000	performance	1866	28	28	26	28	25	23	100	27
1593898606607610697 	0	345	1432	1432	345	345	345	114750000	performance	1866	28	28	26	28	25	23	100	27
1593898608640138022	1	345	1420	1420	345	345	345	114750000	performance	1866	28	28	26	28	25	23	100	27
1593898608850541854 	0	345	1424	1430	345	345	345	114750000	performance	1866	28	28	26	28	25	23	100	27
1593898610841283485	1	345	1420	1420	345	345	345	114750000	performance	1866	28	28	26	28	25	23	100	27
1593898611244726802 	0	345	1424	1421	345	345	345	114750000	performance	1866	28	28	26	27	25	23	100	27
1593898613066121804	1	345	1420	1420	345	345	345	114750000	performance	1866	28	28	26	28	25	23	100	27
1593898613282695199 	0	345	1434	1430	345	345	345	114750000	performance	1866	28	28	26	28	25	23	100	27
1593898615142521214	1	345	1420	1420	345	345	345	114750000	performance	1866	28	28	26	28	25	23	100	27
1593898615484164817 	0	345	1432	1430	345	345	345	114750000	performance	1866	28	28	26	28	25	23	100	27
1593898617425349707	1	345	1420	1420	345	345	345	114750000	performance	1866	28	28	26	28	25	23	100	27
1593898617601591148 	0	345	1425	1421	345	345	345	114750000	performance	1866	28	28	26	28	25	23	100	27
1593898619453812839	1	345	1420	1420	345	345	345	114750000	performance	1866	28	28	26	28	25	23	100	27
1593898619650015518 	0	345	1419	1425	345	345	345	114750000	performance	1866	28	28	26	28	25	23	100	27
1593898621490130201	1	345	1420	1420	345	345	345	114750000	performance	1866	28	28	26	28	25	23	100	27
1593898621729013122 	0	345	1423	1423	345	345	345	114750000	performance	1866	28	28	26	28	25	23	100	27
1593898623684802239	1	345	1420	1420	345	345	345	114750000	performance	1866	28	28	26	28	25	23	100	27
1593898623981375235 	0	345	1421	1428	345	345	345	114750000	performance	1866	28	28	26	28	25	23	100	27
1593898625748653608	1	345	1420	1420	345	345	345	114750000	performance	1866	28	28	26	28	25	23	100	27
1593898626002476118 	0	345	1424	1433	345	345	345	114750000	performance	1866	28	28	26	28	25	23	100	27
1593898627831135068	1	345	1420	1420	345	345	345	114750000	performance	1866	28	28	26	28	25	23	100	27
1593898628343924315 	0	345	1434	1423	345	345	345	114750000	performance	1866	28	28	26	28	25	23	100	27
1593898630390081853	1	345	1420	1420	345	345	345	114750000	performance	1866	28	28	26	28	25	23	100	27
1593898630770363819 	0	345	1421	1424	345	345	345	114750000	performance	1866	28	27	26	27	25	23	100	27
1593898632810553034	1	345	1420	1420	345	345	345	114750000	performance	1866	28	28	26	28	25	23	100	27
1593898633213547436 	0	345	1423	1424	345	345	345	114750000	performance	1866	28	28	26	27	25	23	100	27
1593898635124983615	1	345	1420	1420	345	345	345	114750000	performance	1866	27	28	26	28	25	23	100	27
1593898635391144961 	0	345	1422	1421	345	345	345	114750000	performance	1866	28	28	26	28	25	23	100	27
1593898637354459695	1	345	1420	1420	345	345	345	114750000	performance	1866	28	28	26	28	25	23	100	27
1593898637902661002 	0	345	1426	1416	345	345	345	114750000	performance	1866	28	28	26	28	25	23	100	27
1593898640023053028	1	345	1420	1420	345	345	345	114750000	performance	1866	28	28	26	27	25	24	100	27
1593898640328121077 	0	346	1424	1421	345	345	345	114750000	performance	1866	28	28	26	28	25	23	100	27
1593898642396094276	1	345	1420	1420	345	345	345	114750000	performance	1866	28	28	26	28	25	23	100	27
1593898642832229183 	0	345	1423	1421	345	345	345	114750000	performance	1866	28	28	26	27	25	23	100	27
1593898644769177761	1	345	1420	1420	345	345	345	114750000	performance	1866	28	28	26	27	25	23	100	26
1593898645197677251 	0	345	1430	1427	346	345	345	114750000	performance	1866	27	28	26	28	25	23	100	26
1593898647201495364	1	345	1420	1420	345	345	345	114750000	performance	1866	28	28	26	27	25	23	100	27
1593898647556367886 	0	345	1421	1422	345	345	345	114750000	performance	1866	27	27	26	27	25	23	100	27
1593898649581795574	1	345	1420	1420	345	345	345	114750000	performance	1866	28	28	26	28	25	23	100	27
1593898650032563210 	0	345	1430	1423	345	345	345	114750000	performance	1866	27	27	26	27	25	23	100	27
1593898651943297317	1	345	1420	1420	345	345	345	114750000	performance	1866	28	28	26	28	25	23	100	26
1593898652276250468 	0	345	1428	1425	345	345	345	114750000	performance	1866	27	27	26	27	25	23	100	26
1593898654328748384	1	345	1420	1420	345	345	345	114750000	performance	1866	28	28	26	28	25	23	100	27
1593898654789233734 	0	345	1426	1428	345	345	345	114750000	performance	1866	28	28	26	28	25	23	100	27
1593898656550522051	1	345	1420	1420	345	345	345	114750000	performance	1866	28	28	26	28	25	23	100	27
1593898656772896034 	0	345	1430	1435	345	345	345	114750000	performance	1866	28	28	26	28	25	23	100	27
1593898658535154945	1	345	1420	1420	345	345	345	114750000	performance	1866	28	28	26	28	25	23	100	27
1593898658783750610 	0	345	1421	1418	345	345	345	114750000	performance	1866	28	28	26	28	25	23	100	27
1593898660674996148	1	345	1420	1420	345	345	345	114750000	performance	1866	28	28	26	28	25	23	100	27
1593898661055405724 	0	345	1423	1422	345	345	345	114750000	performance	1866	28	28	26	28	25	23	100	27
1593898663011945608	1	345	1420	1420	345	345	345	114750000	performance	1866	28	28	26	28	25	23	100	26
1593898663363492243 	0	345	1428	1421	345	345	346	114750000	performance	1866	27	28	26	28	25	23	100	26
1593898665203100822	1	345	1420	1420	345	345	345	114750000	performance	1866	28	28	26	28	25	23	100	27
1593898665462709133 	0	345	1424	1423	345	345	345	114750000	performance	1866	28	28	26	28	25	23	100	27
1593898667171924150	1	345	1420	1420	345	345	345	114750000	performance	1866	28	28	26	28	25	23	100	27
1593898667426588828 	0	345	1429	1430	345	345	345	114750000	performance	1866	28	28	26	28	25	23	100	27
1593898669221873723	1	345	1420	1420	345	345	345	114750000	performance	1866	28	28	26	28	25	23	100	27
1593898669421237783 	0	345	1422	1429	345	345	345	114750000	performance	1866	28	28	26	28	25	23	100	27
1593898671200015596	1	345	1420	1420	345	345	345	114750000	performance	1866	28	28	26	28	25	23	100	27
1593898671466560081 	0	345	1421	1423	345	345	345	114750000	performance	1866	28	28	26	28	25	23	100	27
1593898673493530449	1	345	1420	1420	345	345	345	114750000	performance	1866	28	28	26	28	25	23	100	27
1593898673931287694 	0	345	1423	1423	345	345	345	114750000	performance	1866	27	27	26	28	25	23	100	27
1593898675890195473	1	345	1420	1420	345	345	345	114750000	performance	1866	28	27	25	27	25	23	100	26
1593898676302629037 	0	345	1420	1423	345	345	345	114750000	performance	1866	27	27	26	28	25	23	100	26
1593898678322446657	1	345	1420	1420	345	345	345	114750000	performance	1866	28	27	26	28	25	23	100	27
1593898678742866693 	0	345	1432	1422	345	345	345	114750000	performance	1866	28	28	26	27	25	23	100	27
1593898680791659729	1	345	1420	1420	345	345	345	114750000	performance	1866	27	27	26	28	25	23	100	26
1593898681347125880 	0	345	1425	1423	345	345	345	114750000	performance	1866	27	27	26	28	25	23	100	26
1593898683228263313	1	345	1420	1420	345	345	345	114750000	performance	1866	28	28	26	28	25	23	100	27
1593898683555941258 	0	345	1420	1421	345	345	345	114750000	performance	1866	28	28	26	27	25	23	100	27
1593898685425708451	1	345	1420	1420	345	345	345	114750000	performance	1866	28	28	26	28	25	23	100	27
1593898685760521905 	0	345	1429	1429	345	345	345	114750000	performance	1866	28	28	26	28	25	23	100	27
1593898687600994981	1	345	1420	1420	345	345	345	114750000	performance	1866	28	28	26	28	25	23	100	27
1593898687813753762 	0	345	1434	1426	345	345	345	114750000	performance	1866	28	28	26	28	25	23	100	27
1593898689637059347	1	345	1420	1420	345	345	345	114750000	performance	1866	27	27	26	27	25	23	100	27
1593898690039586520 	0	345	1426	1428	345	345	345	114750000	performance	1866	28	28	26	28	25	23	100	27
1593898691844336948	1	345	1420	1420	345	345	345	114750000	performance	1866	28	28	26	28	25	23	100	27
1593898692063686536 	0	345	1431	1432	345	345	345	114750000	performance	1866	28	28	26	28	25	23	100	27
1593898693866034249	1	345	1420	1420	345	345	345	114750000	performance	1866	28	28	26	28	25	23	100	27
1593898694051714969 	0	345	1430	1433	345	345	345	114750000	performance	1866	28	28	26	28	25	23	100	27
1593898695928900665	1	345	1420	1420	345	345	345	114750000	performance	1866	28	28	26	28	25	23	100	27
1593898696271655455 	0	345	1426	1434	345	345	345	114750000	performance	1866	28	28	26	28	25	23	100	26
1593898698174235490	1	345	1420	1420	345	345	345	114750000	performance	1866	27	27	26	28	25	23	100	27
1593898698741226365 	0	345	1423	1424	345	345	345	114750000	performance	1866	28	28	26	28	25	23	100	27
1593898700780517296	1	345	1420	1420	345	345	345	114750000	performance	1866	28	28	26	28	25	23	100	27
1593898701010630792 	0	345	1432	1431	345	345	345	114750000	performance	1866	28	28	26	28	25	23	100	27
1593898702890071915	1	345	1420	1420	345	345	345	114750000	performance	1866	28	28	26	27	25	23	100	27
1593898703257863326 	0	345	1424	1422	346	345	345	114750000	performance	1866	28	28	26	28	25	23	100	27
1593898705191223512	1	345	1420	1420	345	345	345	114750000	performance	1866	28	28	26	28	25	23	100	27
1593898705567406031 	0	345	1421	1417	345	345	345	114750000	performance	1866	28	28	26	28	25	23	100	27
1593898707573548563	1	345	1420	1420	345	345	345	114750000	performance	1866	28	28	26	28	25	23	100	27
1593898707972410104 	0	345	1423	1423	345	345	345	114750000	performance	1866	28	28	26	28	25	23	100	27
1593898709918327166	1	345	1420	1420	345	345	345	114750000	performance	1866	28	28	26	28	25	23	100	27
1593898710253652665 	0	345	1422	1431	345	345	345	114750000	performance	1866	28	27	26	27	25	23	100	27
1593898712025566829	1	345	1420	1420	345	345	345	114750000	performance	1866	28	28	26	28	25	23	100	27
1593898712260931200 	0	345	1431	1429	345	345	345	114750000	performance	1866	28	28	26	28	25	23	100	27
1593898714103431837	1	345	1420	1420	345	345	345	114750000	performance	1866	28	28	26	28	25	23	100	27
1593898714322281659 	0	345	1432	1429	345	345	345	114750000	performance	1866	28	28	26	28	25	23	100	27
1593898716126303640	1	345	1420	1420	345	345	345	114750000	performance	1866	28	28	26	28	25	23	100	27
1593898716401044455 	0	345	1431	1430	345	345	345	114750000	performance	1866	28	28	26	28	25	23	100	27
1593898718181382794	1	345	1420	1420	345	345	345	114750000	performance	1866	28	28	26	28	25	23	100	27
1593898718650415091 	0	345	1427	1423	345	345	345	114750000	performance	1866	28	28	25	28	25	23	100	26
1593898720794839643	1	345	1420	1420	345	345	345	114750000	performance	1866	28	28	26	28	25	23	100	27
1593898721002347691 	0	345	1428	1432	345	345	345	114750000	performance	1866	28	28	26	28	25	23	100	27
1593898722963044558	1	345	1420	1420	345	345	345	114750000	performance	1866	28	28	26	28	25	23	100	27
1593898723372315684 	0	345	1421	1422	346	345	345	114750000	performance	1866	28	28	26	28	25	23	100	27
1593898725384966795	1	345	1420	1420	345	345	345	114750000	performance	1866	28	28	26	28	25	23	100	27
1593898725825200628 	0	345	1431	1422	345	345	345	114750000	performance	1866	28	28	26	28	25	23	100	27
1593898727929181275	1	345	1420	1420	345	345	345	114750000	performance	1866	28	28	26	28	25	23	100	27
1593898728309080414 	0	345	1424	1419	345	345	346	114750000	performance	1866	28	28	26	28	25	23	100	27
1593898730106881405	1	345	1420	1420	345	345	345	114750000	performance	1866	28	28	26	28	25	23	100	27
1593898730323287364 	0	345	1431	1421	345	345	345	114750000	performance	1866	28	28	26	28	25	23	100	27
1593898732067602856	1	345	1420	1420	345	345	345	114750000	performance	1866	28	28	26	28	25	23	100	27
1593898732244582415 	0	345	1423	1429	345	345	345	114750000	performance	1866	28	28	26	28	25	23	100	27
1593898734045548777	1	345	1420	1420	345	345	345	114750000	performance	1866	28	28	26	28	25	23	100	27
1593898734297455730 	0	345	1427	1437	345	345	345	114750000	performance	1866	28	28	26	28	25	23	100	27
1593898736119690520	1	345	1420	1420	345	345	345	114750000	performance	1866	28	28	26	28	25	23	100	27
1593898736419926971 	0	345	1431	1432	345	345	346	114750000	performance	1866	28	28	26	28	25	23	100	27
1593898738238450004	1	345	1420	1420	345	345	345	114750000	performance	1866	28	28	26	28	25	23	100	27
1593898738532147131 	0	345	1421	1427	345	345	345	114750000	performance	1866	28	28	26	28	25	23	100	27
1593898740354475639	1	345	1420	1420	345	345	345	114750000	performance	1866	28	28	26	28	25	23	100	27
1593898740799123409 	0	345	1419	1423	345	345	345	114750000	performance	1866	28	28	26	28	25	23	100	27
1593898742734768224	1	345	1420	1420	345	345	345	114750000	performance	1866	28	28	26	28	25	23	100	27
1593898742949639530 	0	345	1425	1422	345	345	345	114750000	performance	1866	28	28	26	28	25	23	100	27
1593898744785796172	1	345	1420	1420	345	345	345	114750000	performance	1866	28	28	26	28	25	23	100	27
1593898745006454967 	0	345	1429	1429	345	345	345	114750000	performance	1866	28	28	26	28	25	23	100	27
1593898746980867165	1	345	1420	1420	345	345	345	114750000	performance	1866	28	28	26	28	25	24	100	27
1593898747266130385 	0	345	1426	1431	345	345	345	114750000	performance	1866	28	28	26	28	25	23	100	27
1593898749186411879	1	345	1420	1420	345	345	345	114750000	performance	1866	28	28	26	28	25	23	100	27
1593898749493023635 	0	345	1430	1434	345	345	345	114750000	performance	1866	28	28	26	28	25	23	100	27
1593898751544185402	1	345	1420	1420	345	345	345	114750000	performance	1866	28	28	26	28	25	23	100	27
1593898751910975455 	0	345	1422	1428	345	345	345	114750000	performance	1866	28	28	26	28	25	23	100	27
1593898753674213886	1	345	1420	1420	345	345	345	114750000	performance	1866	28	28	26	28	25	24	100	27
1593898753899994664 	0	345	1431	1426	345	345	345	114750000	performance	1866	28	28	26	28	25	23	100	27
1593898755741187154	1	345	1420	1420	345	345	345	114750000	performance	1866	28	28	26	28	25	23	100	27
1593898755949278775 	0	345	1425	1422	345	345	345	114750000	performance	1866	28	28	26	28	25	23	100	27
1593898757752251753	1	345	1420	1420	345	345	345	114750000	performance	1866	28	28	26	28	25	23	100	27
1593898757980876880 	0	345	1429	1429	345	345	345	114750000	performance	1866	28	28	26	28	25	23	100	27
1593898759776994044	1	345	1420	1420	345	345	345	114750000	performance	1866	28	28	26	28	25	23	100	27
1593898760103172998 	0	345	1419	1423	345	345	345	114750000	performance	1866	27	28	26	28	25	23	100	27
1593898761894255639	1	345	1420	1420	345	345	345	114750000	performance	1866	28	28	26	28	25	23	100	27
1593898762340614192 	0	345	1422	1428	345	345	345	114750000	performance	1866	28	27	26	28	25	23	100	27
1593898764354761832	1	345	1420	1420	345	345	345	114750000	performance	1866	28	28	26	28	25	24	100	26
1593898764722925159 	0	345	1423	1427	345	345	345	114750000	performance	1866	27	28	26	28	25	23	100	27
1593898766685554068	1	345	1420	1420	345	345	345	114750000	performance	1866	28	28	26	28	25	23	100	27
1593898767111174467 	0	345	1422	1422	345	345	345	114750000	performance	1866	28	28	26	27	25	23	100	26
1593898769092769549	1	345	1420	1420	345	345	345	114750000	performance	1866	28	28	26	28	25	23	100	27
1593898769488590265 	0	345	1429	1421	345	345	345	114750000	performance	1866	28	28	26	28	25	23	100	27
1593898771478151542	1	345	1420	1420	345	345	345	114750000	performance	1866	27	28	26	28	25	23	100	26
1593898771830326037 	0	345	1419	1423	345	345	345	114750000	performance	1866	27	28	26	28	25	23	100	26
1593898773615100455	1	345	1420	1420	345	345	345	114750000	performance	1866	28	28	26	28	25	23	100	27
1593898773868891469 	0	345	1431	1425	345	345	345	114750000	performance	1866	28	28	26	28	25	23	100	27
1593898775667370874	1	345	1420	1420	345	345	345	114750000	performance	1866	27	27	26	28	25	23	100	27
1593898775912567002 	0	345	1430	1430	345	345	345	114750000	performance	1866	28	28	26	28	25	23	100	27
1593898777737082523	1	345	1420	1420	345	345	345	114750000	performance	1866	28	28	26	28	25	23	100	27
1593898778054966501 	0	345	1425	1419	345	345	345	114750000	performance	1866	28	28	26	28	25	23	100	27
1593898779860364708	1	345	1420	1420	345	345	345	114750000	performance	1866	28	28	26	27	25	23	100	27
1593898780302260935 	0	345	1424	1430	345	345	345	114750000	performance	1866	28	28	26	28	25	23	100	27
1593898782392373023	1	345	1420	1420	345	345	345	114750000	performance	1866	28	28	26	28	25	23	100	27
1593898782699017468 	0	345	1431	1426	345	345	345	114750000	performance	1866	28	28	26	28	25	23	100	27
1593898784483762103	1	345	1420	1420	345	345	345	114750000	performance	1866	28	28	26	28	25	23	100	27
1593898784693551854 	0	345	1418	1427	345	345	345	114750000	performance	1866	28	28	26	28	25	23	100	27
1593898786692831865	1	345	1420	1420	345	345	345	114750000	performance	1866	28	28	26	28	25	23	100	27
1593898787110313817 	0	345	1417	1421	345	345	345	114750000	performance	1866	28	28	26	28	25	23	100	27
1593898789160008360	1	345	1420	1420	345	345	345	114750000	performance	1866	28	28	26	28	25	23	100	27
1593898789762122887 	0	345	1428	1417	345	345	345	114750000	performance	1866	28	28	26	28	25	23	100	26
1593898791810987688	1	345	1420	1420	345	345	345	114750000	performance	1866	28	28	26	27	25	23	100	27
1593898792041522070 	0	345	1430	1426	345	345	345	114750000	performance	1866	28	28	26	28	25	23	100	27
1593898793807811150	1	345	1420	1420	345	345	345	114750000	performance	1866	28	28	26	28	25	23	100	27
1593898794058629820 	0	345	1431	1434	345	345	345	114750000	performance	1866	28	27	26	27	25	23	100	27
1593898795911214324	1	345	1420	1420	345	345	345	114750000	performance	1866	28	27	26	28	25	23	100	27
1593898796155896195 	0	345	1432	1432	345	345	345	114750000	performance	1866	28	28	26	28	25	23	100	27
1593898798196403430	1	345	1420	1420	345	345	345	114750000	performance	1866	27	28	26	27	25	23	100	26
1593898798611649258 	0	345	1420	1421	345	345	345	114750000	performance	1866	28	28	26	27	25	23	100	26
1593898800603915397	1	345	1420	1420	345	345	345	114750000	performance	1866	27	27	26	27	25	23	100	26
1593898800911784411 	0	345	1424	1428	345	345	345	114750000	performance	1866	27	28	26	28	25	23	100	26
1593898802726797561	1	345	1420	1420	345	345	345	114750000	performance	1866	28	28	26	28	25	23	100	27
1593898802919078623 	0	345	1431	1418	345	345	345	114750000	performance	1866	28	28	26	28	25	23	100	27
1593898804776955545	1	345	1420	1420	345	345	345	114750000	performance	1866	27	27	26	28	25	23	100	27
1593898804999102102 	0	345	1429	1418	345	345	345	114750000	performance	1866	27	28	26	28	25	23	100	26
1593898806860725074	1	345	1420	1420	345	345	345	114750000	performance	1866	28	28	26	28	25	23	100	27
1593898807222719630 	0	345	1429	1426	345	345	345	114750000	performance	1866	27	27	26	28	25	23	100	26
1593898809284599491	1	345	1420	1420	345	345	345	114750000	performance	1866	27	28	26	28	25	23	100	26
1593898809781637393 	0	345	1417	1420	345	345	345	114750000	performance	1866	27	27	26	28	25	23	100	27
1593898811721798985	1	345	1420	1420	345	345	345	114750000	performance	1866	27	27	26	28	25	24	100	26
1593898812160226069 	0	345	1422	1423	345	345	345	114750000	performance	1866	27	27	26	27	25	23	100	26
1593898814178405630	1	345	1420	1420	345	345	345	114750000	performance	1866	28	28	26	28	25	23	100	26
1593898814621475410 	0	345	1422	1426	345	345	345	114750000	performance	1866	28	27	26	28	25	23	100	26
1593898816611447487	1	345	1420	1420	345	345	345	114750000	performance	1866	28	27	26	27	25	24	100	27
1593898816912608938 	0	345	1423	1430	345	345	345	114750000	performance	1866	27	27	26	28	25	23	100	27
1593898818770908334	1	345	1420	1420	345	345	345	114750000	performance	1866	28	28	26	28	25	23	100	27
1593898819077783287 	0	345	1430	1420	345	345	345	114750000	performance	1866	27	28	26	28	25	23	100	27
1593898820882520567	1	345	1420	1420	345	345	345	114750000	performance	1866	28	28	26	28	25	24	100	27
1593898821113549890 	0	345	1375	1420	345	345	345	114750000	performance	1866	28	28	26	28	25	23	100	27
1593898822898985514	1	345	1420	1420	345	345	345	114750000	performance	1866	27	27	26	28	25	23	100	26
1593898823208000022 	0	345	1432	1418	345	345	345	114750000	performance	1866	28	28	26	28	25	23	100	26
1593898825002236623	1	345	1420	1420	345	345	345	114750000	performance	1866	27	27	26	28	25	23	100	27
1593898825346557810 	0	345	1431	1429	345	345	345	114750000	performance	1866	27	27	26	28	25	23	100	27
1593898827483836838	1	345	1420	1420	345	345	345	114750000	performance	1866	27	27	26	28	25	23	100	26
1593898827876482383 	0	345	1427	1421	345	345	345	114750000	performance	1866	28	27	26	27	25	23	100	26
1593898829661371208	1	345	1420	1420	345	345	345	114750000	performance	1866	28	28	25	28	25	23	100	27
1593898829872811908 	0	345	1425	1432	345	345	345	114750000	performance	1866	28	28	26	28	25	23	100	27
1593898831821818647	1	345	1420	1420	345	345	345	114750000	performance	1866	28	28	26	28	25	23	100	27
1593898832069292610 	0	345	1433	1423	345	345	345	114750000	performance	1866	28	28	26	28	25	23	100	27
1593898833919469228	1	345	1420	1420	345	345	345	114750000	performance	1866	28	28	26	27	25	23	100	27
1593898834392777037 	0	345	1429	1421	345	345	345	114750000	performance	1866	28	28	26	28	25	23	100	27
1593898836452648015	1	345	1420	1420	345	345	345	114750000	performance	1866	27	27	26	28	25	23	100	26
1593898836834318308 	0	345	1422	1423	345	345	345	114750000	performance	1866	28	28	26	28	25	23	100	26
1593898838858683863	1	345	1420	1420	345	345	345	114750000	performance	1866	28	28	26	28	25	23	100	27
1593898839239153237 	0	345	1417	1422	345	345	345	114750000	performance	1866	28	28	26	28	25	23	100	27
1593898841070710775	1	345	1420	1420	345	345	345	114750000	performance	1866	28	28	26	28	25	23	100	27
1593898841499662870 	0	346	1428	1431	345	345	345	114750000	performance	1866	27	27	26	28	25	23	100	27
1593898843497264145	1	345	1420	1420	345	345	345	114750000	performance	1866	28	27	26	28	25	23	100	27
1593898843752442682 	0	345	1424	1431	345	345	345	114750000	performance	1866	28	28	26	28	25	23	100	27
1593898845531856096	1	345	1420	1420	345	345	345	114750000	performance	1866	28	28	26	28	25	23	100	27
1593898845783122868 	0	345	1424	1424	345	345	345	114750000	performance	1866	28	28	26	28	25	24	100	27
1593898847597652965	1	345	1420	1420	345	345	345	114750000	performance	1866	28	28	26	28	25	23	100	27
1593898847771211896 	0	345	1431	1422	345	345	345	114750000	performance	1866	28	28	26	28	25	24	100	27
1593898849513456029	1	345	1420	1420	345	345	345	114750000	performance	1866	28	28	26	28	25	23	100	27
1593898849789933266 	0	345	1431	1424	345	345	345	114750000	performance	1866	28	28	26	28	25	23	100	27
1593898851569971907	1	345	1420	1420	345	345	345	114750000	performance	1866	28	28	26	28	25	23	100	27
1593898851830289290 	0	345	1432	1426	345	345	345	114750000	performance	1866	28	28	26	28	25	23	100	27
1593898853593694535	1	345	1420	1420	345	345	345	114750000	performance	1866	28	28	26	28	25	23	100	27
1593898854183576844 	0	345	1423	1427	345	345	346	114750000	performance	1866	27	28	26	28	25	23	100	27
1593898856233484665	1	345	1420	1420	345	345	345	114750000	performance	1866	28	28	26	28	25	23	100	26
1593898856663912910 	0	345	1422	1422	345	345	345	114750000	performance	1866	28	28	26	27	25	23	100	27
1593898858673603017	1	345	1420	1420	345	345	345	114750000	performance	1866	28	28	26	27	25	23	100	26
1593898859083700350 	0	345	1434	1424	345	345	345	114750000	performance	1866	28	28	26	28	25	23	100	26
1593898861067805414	1	345	1420	1420	345	345	345	114750000	performance	1866	27	27	26	28	25	23	100	26
1593898861565603969 	0	345	1426	1420	345	345	345	114750000	performance	1866	28	27	26	28	25	23	100	26
1593898863659050477	1	345	1420	1420	345	345	345	114750000	performance	1866	28	27	26	27	25	23	100	27
1593898864031237348 	0	345	1421	1429	345	345	345	114750000	performance	1866	27	28	26	28	25	23	100	27
1593898865772573192	1	345	1420	1420	345	345	345	114750000	performance	1866	28	28	26	28	25	23	100	27
1593898866051866253 	0	345	1423	1428	345	345	345	114750000	performance	1866	28	28	26	27	25	23	100	27
1593898867873556831	1	345	1420	1420	345	345	345	114750000	performance	1866	28	28	26	28	25	23	100	27
1593898868062549750 	0	345	1433	1427	345	345	345	114750000	performance	1866	28	28	26	28	25	23	100	27
1593898869856678153	1	345	1420	1420	345	345	345	114750000	performance	1866	28	28	26	28	25	23	100	27
1593898870112941515 	0	345	1424	1433	345	345	345	114750000	performance	1866	28	28	26	28	25	23	100	27
1593898871866644631	1	345	1420	1420	345	345	345	114750000	performance	1866	27	27	26	28	25	23	100	27
1593898872191767057 	0	345	1431	1432	345	345	345	114750000	performance	1866	27	28	26	28	25	23	100	27
1593898873915521344	1	345	1420	1420	345	345	345	114750000	performance	1866	28	28	26	28	25	23	100	26
1593898874332405583 	0	345	1429	1428	345	345	345	114750000	performance	1866	28	27	26	28	25	23	100	27
1593898876276139365	1	345	1420	1420	345	345	345	114750000	performance	1866	28	28	26	28	25	23	100	27
1593898876503846978 	0	345	1418	1422	345	345	345	114750000	performance	1866	27	27	26	27	25	23	100	27
1593898878478757993	1	345	1420	1420	345	345	345	114750000	performance	1866	28	28	26	28	25	23	100	27
1593898878840354753 	0	345	1428	1420	345	345	345	114750000	performance	1866	27	27	26	27	25	23	100	26
1593898880844799465	1	345	1420	1420	345	345	345	114750000	performance	1866	28	28	26	28	25	23	100	26
1593898881303077372 	0	345	1423	1423	345	345	345	114750000	performance	1866	27	27	26	28	25	23	100	27
1593898883246774975	1	345	1420	1420	345	345	345	114750000	performance	1866	28	28	26	27	25	23	100	27
1593898883711842401 	0	345	1424	1424	345	345	345	114750000	performance	1866	27	28	26	28	25	24	100	27
1593898885682102087	1	345	1420	1420	345	345	345	114750000	performance	1866	28	28	26	28	25	23	100	27
1593898886120959053 	0	345	1422	1424	345	345	345	114750000	performance	1866	27	27	26	27	25	23	100	27
1593898887877734445	1	345	1420	1420	345	345	345	114750000	performance	1866	28	28	26	27	25	23	100	27
1593898888143616625 	0	345	1433	1431	345	345	345	114750000	performance	1866	27	27	26	27	25	23	100	27
1593898889968433763	1	345	1420	1420	345	345	345	114750000	performance	1866	28	28	26	28	25	23	100	27
1593898890342521470 	0	345	1431	1428	345	345	345	114750000	performance	1866	28	28	26	28	25	23	100	27
1593898892437656207	1	345	1420	1420	345	345	345	114750000	performance	1866	28	28	26	28	25	23	100	27
1593898892700565712 	0	345	1428	1430	345	345	345	114750000	performance	1866	28	28	26	28	25	23	100	27
1593898894555039955	1	345	1420	1420	345	345	345	114750000	performance	1866	28	27	26	28	25	23	100	27
1593898894809748367 	0	345	1425	1430	345	345	345	114750000	performance	1866	28	27	26	27	25	23	100	27
1593898896582453348	1	345	1420	1420	345	345	345	114750000	performance	1866	27	28	26	28	25	23	100	27
1593898896966700197 	0	345	1420	1424	345	345	345	114750000	performance	1866	27	27	26	28	25	23	100	27
1593898898829925838	1	345	1420	1420	345	345	345	114750000	performance	1866	28	28	26	28	25	23	100	27
1593898899222466668 	0	345	1430	1420	345	345	345	114750000	performance	1866	28	27	26	28	25	23	100	27
1593898901269760862	1	345	1420	1420	345	345	345	114750000	performance	1866	28	28	26	28	25	23	100	27
1593898901605315936 	0	345	1426	1422	345	345	345	114750000	performance	1866	27	27	26	28	25	24	100	26
1593898903330879299	1	345	1420	1420	345	345	345	114750000	performance	1866	28	28	26	28	25	23	100	26
1593898903645684686 	0	345	1433	1425	345	345	345	114750000	performance	1866	28	28	26	28	25	23	100	27
1593898905541032220	1	345	1420	1420	345	345	345	114750000	performance	1866	28	28	26	28	25	23	100	27
1593898905847044776 	0	345	1420	1423	345	345	345	114750000	performance	1866	28	28	26	27	25	23	100	27
1593898907565183333	1	345	1420	1420	345	345	345	114750000	performance	1866	28	28	26	28	25	23	100	27
1593898907820637197 	0	345	1430	1430	345	345	345	114750000	performance	1866	28	28	26	28	25	23	100	27
1593898909661631432	1	345	1420	1420	345	345	345	114750000	performance	1866	28	28	26	28	25	23	100	27
1593898909902753234 	0	345	1428	1420	345	345	345	114750000	performance	1866	28	27	26	27	25	23	100	27
1593898911936863240	1	345	1420	1420	345	345	345	114750000	performance	1866	27	27	26	27	25	23	100	26
1593898912376125951 	0	345	1426	1419	345	345	345	114750000	performance	1866	27	27	26	27	25	23	100	26
1593898914151098635	1	345	1420	1420	345	345	345	114750000	performance	1866	27	27	26	27	25	23	100	26
1593898914442282582 	0	345	1424	1431	345	345	345	114750000	performance	1866	27	27	26	27	25	23	100	26
1593898916213566782	1	345	1420	1420	345	345	345	114750000	performance	1866	28	28	26	28	25	23	100	26
1593898916509619151 	0	345	1424	1424	345	345	345	114750000	performance	1866	28	28	26	28	25	23	100	26
1593898918330243640	1	345	1420	1420	345	345	345	114750000	performance	1866	28	28	26	28	25	23	100	27
1593898918527134835 	0	345	1430	1430	345	345	345	114750000	performance	1866	28	28	26	28	25	23	100	27
1593898920369412413	1	345	1420	1420	345	345	345	114750000	performance	1866	28	28	26	28	25	23	100	27
1593898920591997713 	0	345	1432	1430	345	345	345	114750000	performance	1866	27	28	26	28	25	23	100	27
1593898922418485408	1	345	1420	1420	345	345	345	114750000	performance	1866	28	28	26	28	25	23	100	27
1593898922882292081 	0	345	1432	1430	345	345	345	114750000	performance	1866	28	28	26	28	25	24	100	27
1593898924802003079	1	345	1420	1420	345	345	345	114750000	performance	1866	28	28	26	28	25	23	100	26
1593898924991737616 	0	345	1431	1423	345	345	345	114750000	performance	1866	28	28	26	28	25	24	100	26
1593898926892233235	1	345	1420	1420	345	345	345	114750000	performance	1866	28	28	26	28	25	24	100	27
1593898927084462685 	0	345	1423	1427	345	345	345	114750000	performance	1866	28	28	26	28	25	23	100	27
1593898928889139546	1	345	1420	1420	345	345	345	114750000	performance	1866	28	28	26	28	25	23	100	27
1593898929194426068 	0	345	1420	1417	345	345	345	114750000	performance	1866	28	28	26	28	25	23	100	27
1593898931029970502	1	345	1420	1420	345	345	345	114750000	performance	1866	28	28	26	28	25	24	100	27
1593898931298451204 	0	345	1429	1432	345	345	345	114750000	performance	1866	28	28	26	28	25	23	100	27
1593898933133284787	1	345	1420	1420	345	345	345	114750000	performance	1866	28	28	26	28	25	23	100	27
1593898933458609604 	0	345	1422	1423	345	345	345	114750000	performance	1866	28	28	26	28	25	23	100	27
1593898935608428713	1	345	1420	1420	345	345	345	114750000	performance	1866	27	27	26	28	25	23	100	27
1593898935877855896 	0	345	1422	1429	345	345	345	114750000	performance	1866	28	28	26	28	25	23	100	27
1593898937869813757	1	345	1420	1420	345	345	345	114750000	performance	1866	28	28	26	28	25	23	100	27
1593898938264168624 	0	345	1423	1418	345	345	345	114750000	performance	1866	28	28	26	28	25	23	100	27
1593898940252178640	1	345	1420	1420	345	345	345	114750000	performance	1866	28	28	26	28	25	23	100	27
1593898940702733595 	0	345	1427	1423	345	345	345	114750000	performance	1866	28	28	26	28	25	23	100	27
1593898942651745071	1	345	1420	1420	345	345	345	114750000	performance	1866	28	28	26	28	25	23	100	27
1593898943015118242 	0	345	1423	1423	345	345	345	114750000	performance	1866	28	27	26	27	25	23	100	27
1593898945157993906	1	345	1420	1420	345	345	345	114750000	performance	1866	28	28	26	28	25	23	100	27
1593898945402141915 	0	345	1430	1430	345	345	345	114750000	performance	1866	28	28	26	28	25	23	100	27
1593898947205654808	1	345	1420	1420	345	345	345	114750000	performance	1866	28	28	26	28	25	23	100	27
1593898947528193529 	0	346	1429	1425	345	345	345	114750000	performance	1866	28	28	26	28	25	23	100	27
1593898949291444152	1	345	1420	1420	345	345	345	114750000	performance	1866	28	28	26	28	25	23	100	26
1593898949553953067 	0	345	1430	1427	345	345	345	114750000	performance	1866	27	27	26	28	25	23	100	27
1593898951438098963	1	345	1420	1420	345	345	345	114750000	performance	1866	28	28	26	28	25	23	100	27
1593898951701319964 	0	345	1426	1418	345	345	345	114750000	performance	1866	28	28	26	28	25	23	100	27
1593898953589995775	1	345	1420	1420	345	345	345	114750000	performance	1866	28	28	26	28	25	23	100	27
1593898954086268713 	0	345	1423	1421	345	345	345	114750000	performance	1866	28	28	26	28	25	23	100	27
1593898956150383221	1	345	1420	1420	345	345	345	114750000	performance	1866	27	27	26	28	25	23	100	27
1593898956508995148 	0	345	1421	1423	345	345	345	114750000	performance	1866	28	28	26	28	25	23	100	27
1593898958468720384	1	345	1420	1420	345	345	345	114750000	performance	1866	28	28	26	28	25	23	100	27
1593898958916616080 	0	345	1419	1420	345	345	345	114750000	performance	1866	27	27	26	28	25	23	100	27
1593898960789415936	1	345	1420	1420	345	345	345	114750000	performance	1866	27	27	26	27	25	23	100	26
1593898961076429262 	0	345	1423	1426	345	345	345	114750000	performance	1866	27	27	26	27	25	23	100	26
1593898963109932877	1	345	1420	1420	345	345	345	114750000	performance	1866	28	28	26	28	25	23	100	27
1593898963411125365 	0	345	1419	1420	345	345	345	114750000	performance	1866	28	28	26	28	25	23	100	27
1593898965374323989	1	345	1420	1420	345	345	345	114750000	performance	1866	27	27	26	27	25	23	100	27
1593898965634436886 	0	345	1431	1430	345	345	345	114750000	performance	1866	28	28	26	28	25	23	100	27
1593898967485452473	1	345	1420	1420	345	345	345	114750000	performance	1866	28	28	26	28	25	23	100	27
1593898967811145634 	0	345	1421	1421	345	345	345	114750000	performance	1866	28	28	26	28	25	23	100	27
1593898969604247637	1	345	1420	1420	345	345	345	114750000	performance	1866	28	28	26	28	25	23	100	27
1593898969810202565 	0	345	1432	1426	345	345	345	114750000	performance	1866	28	28	26	28	25	24	100	27
1593898971739444292	1	345	1420	1420	345	345	345	114750000	performance	1866	28	28	26	28	25	23	100	27
1593898972045417677 	0	345	1427	1420	345	345	345	114750000	performance	1866	28	28	26	27	25	24	100	27
1593898973881419961	1	345	1420	1420	345	345	345	114750000	performance	1866	27	27	26	27	25	23	100	27
1593898974368338639 	0	345	1422	1432	345	345	345	114750000	performance	1866	27	27	26	27	25	23	100	26
1593898976437263166	1	345	1420	1420	345	345	345	114750000	performance	1866	28	28	26	27	25	23	100	27
1593898976692420847 	0	345	1429	1430	345	345	345	114750000	performance	1866	28	27	26	28	25	23	100	27
1593898978732632576	1	345	1420	1420	345	345	345	114750000	performance	1866	28	28	26	28	25	23	100	27
1593898979176841694 	0	345	1422	1423	345	345	345	114750000	performance	1866	28	28	26	27	25	23	100	27
1593898981197266819	1	345	1420	1420	345	345	345	114750000	performance	1866	28	28	26	28	25	23	100	26
1593898981716972208 	0	345	1428	1422	345	345	345	114750000	performance	1866	27	27	26	28	25	23	100	26
1593898983742460238	1	345	1420	1420	345	345	345	114750000	performance	1866	28	27	26	28	25	23	100	27
1593898984119658480 	0	345	1419	1423	345	345	345	114750000	performance	1866	28	28	26	28	25	23	100	27
1593898985940854628	1	345	1420	1420	345	345	345	114750000	performance	1866	27	27	26	28	25	23	100	27
1593898986237061680 	0	345	1429	1423	345	345	345	114750000	performance	1866	28	28	26	28	25	23	100	27
1593898988038077568	1	345	1420	1420	345	345	345	114750000	performance	1866	28	28	26	28	25	23	100	27
1593898988312081549 	0	345	1427	1425	345	346	345	114750000	performance	1866	28	28	26	28	25	23	100	27
1593898990075511243	1	345	1420	1420	345	345	345	114750000	performance	1866	28	28	26	28	25	23	100	27
1593898990420911224 	0	345	1432	1434	345	345	345	114750000	performance	1866	28	28	26	28	25	23	100	27
1593898992404132168	1	345	1420	1420	345	345	345	114750000	performance	1866	28	28	26	28	25	23	100	27
1593898992670061839 	0	345	1434	1434	345	345	345	114750000	performance	1866	28	28	26	28	25	23	100	27
1593898994684551721	1	345	1420	1420	345	345	345	114750000	performance	1866	28	28	26	28	25	23	100	27
1593898995063591242 	0	345	1428	1431	345	345	346	114750000	performance	1866	28	28	26	28	25	23	100	27
1593898996857755515	1	345	1420	1420	345	345	345	114750000	performance	1866	28	28	26	28	25	23	100	27
1593898997154476920 	0	345	1430	1418	345	345	345	114750000	performance	1866	28	28	26	28	25	23	100	27
1593898998980217391	1	345	1420	1420	345	345	345	114750000	performance	1866	28	28	26	28	25	23	100	27
1593898999391250421 	0	345	1421	1422	345	345	345	114750000	performance	1866	28	28	26	28	25	23	100	27
1593899001484019124	1	345	1420	1420	345	345	345	114750000	performance	1866	28	28	26	28	25	23	100	27
1593899002005184433 	0	345	1420	1420	345	345	345	114750000	performance	1866	28	28	26	28	25	23	100	27
1593899003784473996	1	345	1420	1420	345	345	345	114750000	performance	1866	28	28	26	28	25	23	100	27
1593899004042874274 	0	345	1424	1430	345	345	345	114750000	performance	1866	28	28	26	28	25	24	100	27
1593899005824922067	1	345	1420	1420	345	345	345	114750000	performance	1866	28	28	26	28	25	24	100	27
1593899006110798887 	0	345	1429	1425	345	346	345	114750000	performance	1866	27	28	26	28	25	23	100	27
1593899008165847506	1	345	1420	1420	345	345	345	114750000	performance	1866	28	27	26	27	25	24	100	27
1593899008600819958 	0	345	1420	1425	345	345	345	114750000	performance	1866	28	28	26	28	25	23	100	27
1593899010517230155	1	345	1420	1420	345	345	345	114750000	performance	1866	27	28	26	28	25	23	100	27
1593899010817153271 	0	345	1420	1425	345	345	345	114750000	performance	1866	28	28	26	28	25	23	100	27
1593899012672622184	1	345	1420	1420	345	345	345	114750000	performance	1866	28	28	26	28	25	23	100	27
1593899012877542826 	0	345	1430	1426	345	345	346	114750000	performance	1866	27	27	26	27	25	23	100	27
1593899014913980235	1	345	1420	1420	345	345	345	114750000	performance	1866	27	27	26	28	25	23	100	26
1593899015376553729 	0	345	1425	1421	345	345	345	114750000	performance	1866	28	27	26	28	25	23	100	26
1593899017412551413	1	345	1420	1420	345	345	345	114750000	performance	1866	27	28	26	28	25	23	100	27
1593899017853717797 	0	345	1418	1421	345	345	345	114750000	performance	1866	28	28	26	28	25	23	100	26
1593899019780257999	1	345	1420	1420	345	345	345	114750000	performance	1866	28	28	26	28	25	23	100	27
1593899020045859493 	0	345	1429	1433	345	345	345	114750000	performance	1866	28	28	26	28	25	23	100	27
1593899021825807515	1	345	1420	1420	345	345	345	114750000	performance	1866	28	28	26	28	25	23	100	27
1593899022204897341 	0	345	1426	1426	345	345	345	114750000	performance	1866	27	28	26	28	25	23	100	27
1593899023974116070	1	345	1420	1420	345	345	345	114750000	performance	1866	28	28	26	28	25	23	100	27
1593899024201537081 	0	345	1425	1425	345	345	345	114750000	performance	1866	28	28	26	28	25	23	100	27
1593899025954093213	1	345	1420	1420	345	345	345	114750000	performance	1866	28	28	26	28	25	23	100	27
1593899026320271377 	0	345	1422	1423	345	345	345	114750000	performance	1866	28	28	26	28	25	23	100	27
1593899028256532699	1	345	1420	1420	345	345	345	114750000	performance	1866	28	28	26	28	25	23	100	27
1593899028661857473 	0	345	1433	1429	345	345	345	114750000	performance	1866	28	28	26	28	25	23	100	27
1593899030716483345	1	345	1420	1420	345	345	345	114750000	performance	1866	28	28	26	27	25	23	100	27
1593899030921020717 	0	345	1434	1431	345	345	345	114750000	performance	1866	28	28	26	28	25	23	100	27
1593899032746220983	1	345	1420	1420	345	345	345	114750000	performance	1866	28	28	26	28	25	23	100	27
1593899032986715403 	0	345	1430	1433	345	345	345	114750000	performance	1866	28	28	26	28	25	23	100	27
1593899035033416928	1	345	1420	1420	345	345	345	114750000	performance	1866	28	28	26	28	25	23	100	27
1593899035428347192 	0	345	1423	1420	345	345	345	114750000	performance	1866	28	28	26	28	25	23	100	27
1593899037409590399	1	345	1420	1420	345	345	345	114750000	performance	1866	28	28	26	28	25	23	100	27
1593899037736233370 	0	345	1431	1425	345	345	345	114750000	performance	1866	28	27	26	28	25	23	100	27
1593899039809312316	1	345	1420	1420	345	345	345	114750000	performance	1866	28	28	26	28	25	23	100	27
1593899040040496696 	0	345	1424	1424	345	345	345	114750000	performance	1866	28	28	26	28	25	23	100	27
1593899041958890283	1	345	1420	1420	345	345	345	114750000	performance	1866	28	28	26	28	25	23	100	27
1593899042271821443 	0	345	1421	1424	345	345	345	114750000	performance	1866	28	28	26	28	25	23	100	27
1593899044059393617	1	345	1420	1420	345	345	345	114750000	performance	1866	28	28	26	28	25	23	100	27
1593899044278580376 	0	345	1433	1432	345	345	345	114750000	performance	1866	28	28	26	28	25	23	100	27
1593899046037324784	1	345	1420	1420	345	345	345	114750000	performance	1866	28	28	26	28	25	23	100	27
1593899046322623370 	0	345	1422	1422	345	345	345	114750000	performance	1866	28	28	26	28	25	24	100	27
1593899048185999557	1	345	1420	1420	345	345	345	114750000	performance	1866	28	28	26	28	25	23	100	27
1593899048626286873 	0	345	1430	1429	345	345	345	114750000	performance	1866	28	28	26	28	25	23	100	27
1593899050402077205	1	345	1420	1420	345	345	345	114750000	performance	1866	28	28	26	28	25	23	100	27
1593899050600529229 	0	345	1429	1429	345	345	345	114750000	performance	1866	28	28	26	27	25	23	100	27
1593899052458185558	1	345	1420	1420	345	345	345	114750000	performance	1866	28	28	26	28	25	23	100	27
1593899052670704648 	0	345	1434	1428	345	345	345	114750000	performance	1866	28	28	26	28	25	23	100	27
1593899054449910407	1	345	1420	1420	345	345	345	114750000	performance	1866	28	28	26	28	25	23	100	27
1593899054684556721 	0	345	1427	1430	345	345	345	114750000	performance	1866	28	28	26	28	25	23	100	27
