timestamp	VIRTUAL_SCALING	CPU0_F	CPU1_F	CPU2_F	CPU3_F	CPU4_F	CPU5_F	GPU_FREQ	CPU_GOVERNOR	EMC_F	TEMP0	TEMP1	TEMP2	TEMP3	TEMP4	TEMP5	TEMP6	TEMP7
1593988791339585015	1	1881	345	345	1881	1881	1881	114750000	performance	1866	28	28	27	28	25	24	100	27
1593988791386227205 	0	1881	345	345	1842	1843	1842	114750000	performance	1866	28	28	27	28	25	24	100	27
1593988793050044637	1	1881	345	345	1881	1881	1881	114750000	performance	1866	28	28	26	28	25	24	100	27
1593988793190254568 	0	1889	345	345	1884	1887	1888	114750000	performance	1866	28	28	27	28	25	24	100	27
1593988794900451149	1	1881	345	345	1881	1881	1881	114750000	performance	1866	28	28	27	28	25	24	100	27
1593988795002191098 	0	1890	345	345	1881	1880	1873	114750000	performance	1866	28	28	27	28	25	24	100	27
1593988796657769315	1	1881	345	345	1881	1881	1881	114750000	performance	1866	28	28	27	28	25	24	100	27
1593988796736069671 	0	1843	345	345	1844	1881	1881	114750000	performance	1866	28	28	26	28	25	24	100	27
1593988798332305849	1	1881	345	345	1881	1881	1881	114750000	performance	1866	28	28	27	28	25	24	100	27
1593988798402252174 	0	1881	345	345	1880	1843	1842	114750000	performance	1866	28	28	27	28	25	24	100	27
1593988800061649644	1	1881	345	345	1881	1881	1881	114750000	performance	1866	28	28	26	28	25	24	100	27
1593988800181130208 	0	1878	345	345	1873	1887	1883	114750000	performance	1866	28	28	26	28	25	24	100	27
1593988801856241945	1	1881	345	345	1881	1881	1881	114750000	performance	1866	28	28	27	28	25	24	100	27
1593988801961253625 	0	1843	345	345	1880	1843	1843	114750000	performance	1866	28	28	26	28	25	24	100	27
1593988803614652725	1	1881	345	345	1881	1881	1881	114750000	performance	1866	28	28	26	28	25	24	100	27
1593988803757836849 	0	1881	345	345	1882	1884	1880	114750000	performance	1866	28	28	26	28	25	24	100	27
1593988805372656110	1	1881	345	345	1881	1881	1881	114750000	performance	1866	28	28	27	28	25	24	100	27
1593988805459902055 	0	1887	345	345	1887	1886	1884	114750000	performance	1866	28	28	27	28	25	24	100	27
1593988807183701370	1	1881	345	345	1881	1881	1881	114750000	performance	1866	28	28	27	28	25	24	100	27
1593988807238301526 	0	1843	345	345	1882	1881	1843	114750000	performance	1866	28	28	26	28	25	24	100	27
1593988808834666344	1	1881	345	345	1881	1881	1881	114750000	performance	1866	28	28	26	28	25	24	100	27
1593988808941930869 	0	1881	345	345	1875	1880	1879	114750000	performance	1866	28	28	26	28	25	24	100	27
1593988810539635759	1	1881	345	345	1881	1881	1881	114750000	performance	1866	28	28	26	28	25	24	100	27
1593988810717694357 	0	1891	345	345	1890	1891	1887	114750000	performance	1866	28	28	27	28	25	24	100	27
1593988812333082197	1	1881	345	345	1881	1881	1881	114750000	performance	1866	28	28	27	28	25	24	100	27
1593988812453551630 	0	1880	345	345	1880	1877	1873	114750000	performance	1866	28	28	26	28	25	24	100	27
1593988814093951231	1	1881	345	345	1881	1881	1881	114750000	performance	1866	28	28	27	28	25	24	100	27
1593988814228431401 	0	1878	345	345	1896	1876	1880	114750000	performance	1866	28	28	26	28	25	24	100	27
1593988815819095642	1	1881	345	345	1881	1881	1881	114750000	performance	1866	28	28	26	28	25	24	100	27
1593988815953396387 	0	1878	346	345	1881	1875	1876	114750000	performance	1866	28	28	27	28	25	24	100	27
1593988817661681501	1	1881	345	345	1881	1881	1881	114750000	performance	1866	28	28	26	28	25	24	100	27
1593988817719222474 	0	1877	345	345	1881	1877	1878	114750000	performance	1866	28	28	26	28	25	24	100	27
1593988819409523131	1	1881	345	345	1881	1881	1881	114750000	performance	1866	28	28	27	28	25	24	100	27
1593988819461061765 	0	1875	345	345	1877	1880	1878	114750000	performance	1866	28	28	26	28	25	24	100	27
1593988821047556447	1	1881	345	345	1881	1881	1881	114750000	performance	1866	28	28	26	28	25	24	100	27
1593988821143028551 	0	1877	345	345	1879	1881	1879	114750000	performance	1866	28	28	26	28	25	24	100	27
1593988822876940917	1	1881	345	345	1881	1881	1881	114750000	performance	1866	28	28	26	28	25	24	100	27
1593988822987046162 	0	1893	345	345	1892	1892	1876	114750000	performance	1866	28	28	26	28	25	24	100	27
1593988824578458791	1	1881	345	345	1881	1881	1881	114750000	performance	1866	28	28	26	28	25	24	100	27
1593988824619637014 	0	1897	345	345	1892	1890	1886	114750000	performance	1866	28	28	26	28	25	24	100	27
1593988826245994389	1	1881	345	345	1881	1881	1881	114750000	performance	1866	28	28	26	28	25	24	100	27
1593988826324976414 	0	1877	345	345	1879	1882	1881	114750000	performance	1866	28	28	26	28	25	24	100	27
1593988827966215956	1	1881	345	345	1881	1881	1881	114750000	performance	1866	28	28	26	28	25	24	100	27
1593988828033181335 	0	1881	345	345	1881	1880	1880	114750000	performance	1866	28	28	26	28	25	24	100	27
1593988829687430456	1	1881	345	345	1881	1881	1881	114750000	performance	1866	28	28	26	28	25	24	100	27
1593988829765375035 	0	1881	345	345	1887	1882	1885	114750000	performance	1866	28	28	26	28	25	24	100	27
1593988831376425603	1	1881	345	345	1881	1881	1881	114750000	performance	1866	28	28	26	28	25	24	100	27
1593988831449497033 	0	1887	345	345	1885	1887	1887	114750000	performance	1866	28	28	26	28	25	24	100	27
1593988833088829716	1	1881	345	345	1881	1881	1881	114750000	performance	1866	28	28	26	28	25	24	100	27
1593988833259395759 	0	1881	345	345	1894	1885	1883	114750000	performance	1866	28	28	26	28	25	24	100	27
1593988834901731403	1	1881	345	345	1881	1881	1881	114750000	performance	1866	28	28	26	28	25	24	100	27
1593988835007431150 	0	1881	345	345	1882	1880	1879	114750000	performance	1866	28	28	26	28	25	24	100	27
1593988836680242235	1	1881	345	345	1881	1881	1881	114750000	performance	1866	28	28	26	28	25	24	100	27
1593988836781894119 	0	1884	345	345	1880	1879	1880	114750000	performance	1866	28	28	26	28	25	24	100	27
1593988838544618907	1	1881	345	345	1881	1881	1881	114750000	performance	1866	28	28	26	28	25	24	100	27
1593988838646457256 	0	1879	345	345	1875	1874	1878	114750000	performance	1866	28	28	26	28	25	24	100	27
1593988840249101727	1	1881	345	345	1881	1881	1881	114750000	performance	1866	28	28	26	28	25	24	100	27
1593988840326642080 	0	1880	345	345	1876	1876	1881	114750000	performance	1866	28	28	26	28	25	24	100	27
1593988841915213157	1	1881	345	345	1881	1881	1881	114750000	performance	1866	28	28	26	28	25	24	100	27
1593988842018885309 	0	1884	345	345	1885	1884	1891	114750000	performance	1866	28	28	26	28	25	24	100	27
1593988843620174731	1	1881	345	345	1881	1881	1881	114750000	performance	1866	28	28	26	28	25	24	100	27
1593988843666955738 	0	1878	345	345	1880	1878	1881	114750000	performance	1866	28	28	26	28	25	24	100	27
1593988845300973734	1	1881	345	345	1881	1881	1881	114750000	performance	1866	28	28	26	28	25	24	100	27
1593988845392988250 	0	1880	345	345	1882	1883	1883	114750000	performance	1866	28	28	26	28	25	24	100	27
1593988846961703725	1	1881	345	345	1881	1881	1881	114750000	performance	1866	28	28	26	28	25	24	100	27
1593988847018057586 	0	1895	345	345	1896	1889	1895	114750000	performance	1866	28	28	26	28	25	24	100	27
1593988848577096525	1	1881	345	345	1881	1881	1881	114750000	performance	1866	28	28	26	28	25	24	100	27
1593988848654580973 	0	1887	345	345	1884	1884	1889	114750000	performance	1866	28	28	26	28	25	24	100	27
1593988850276215601	1	1881	345	345	1881	1881	1881	114750000	performance	1866	28	28	26	28	25	24	100	27
1593988850421777564 	0	1878	345	345	1877	1876	1876	114750000	performance	1866	28	28	26	28	25	24	100	27
1593988852055550598	1	1881	345	345	1881	1881	1881	114750000	performance	1866	28	28	26	28	25	24	100	27
1593988852186768893 	0	1880	345	345	1844	1844	1844	114750000	performance	1866	28	28	26	28	25	24	100	27
1593988853801298649	1	1881	345	345	1881	1881	1881	114750000	performance	1866	28	28	26	28	25	24	100	27
1593988853853587271 	0	1881	345	345	1881	1881	1879	114750000	performance	1866	28	28	26	28	25	24	100	27
1593988855515129362	1	1881	345	345	1881	1881	1881	114750000	performance	1866	28	28	26	28	25	24	100	27
1593988855610543322 	0	1877	345	345	1879	1880	1880	114750000	performance	1866	28	28	26	28	25	24	100	27
1593988857242602491	1	1881	345	345	1881	1881	1881	114750000	performance	1866	28	28	26	28	25	24	100	27
1593988857321043489 	0	1888	345	345	1877	1879	1876	114750000	performance	1866	28	28	26	28	25	24	100	27
1593988858942887302	1	1881	345	345	1881	1881	1881	114750000	performance	1866	28	28	26	28	25	24	100	27
1593988859000900310 	0	1882	345	345	1883	1885	1882	114750000	performance	1866	28	28	26	28	25	24	100	27
1593988860668644293	1	1881	345	345	1881	1881	1881	114750000	performance	1866	28	28	26	28	25	24	100	27
1593988860752876684 	0	1877	345	345	1878	1881	1876	114750000	performance	1866	28	28	26	28	25	24	100	27
1593988862320481560	1	1881	345	345	1881	1881	1881	114750000	performance	1866	28	28	26	28	25	24	100	27
1593988862438469763 	0	1877	345	345	1875	1874	1879	114750000	performance	1866	28	28	26	28	25	24	100	27
1593988864047898817	1	1881	345	345	1881	1881	1881	114750000	performance	1866	28	28	26	28	25	24	100	27
1593988864137636008 	0	1881	345	345	1888	1883	1880	114750000	performance	1866	28	28	26	28	25	24	100	27
1593988865804244304	1	1881	345	345	1881	1881	1881	114750000	performance	1866	28	28	26	28	25	24	100	27
1593988865879760069 	0	1884	345	345	1893	1889	1890	114750000	performance	1866	28	28	26	28	25	24	100	27
1593988867485966096	1	1881	345	345	1881	1881	1881	114750000	performance	1866	28	28	26	28	25	24	100	27
1593988867624122703 	0	1877	345	345	1879	1876	1881	114750000	performance	1866	28	28	26	28	25	24	100	27
1593988869267425105	1	1881	345	345	1881	1881	1881	114750000	performance	1866	28	28	26	28	25	24	100	27
1593988869352468701 	0	1893	345	345	1885	1892	1891	114750000	performance	1866	28	28	26	28	25	24	100	27
1593988870989971997	1	1881	345	345	1881	1881	1881	114750000	performance	1866	28	28	26	28	25	24	100	27
1593988871070707632 	0	1881	345	345	1882	1884	1883	114750000	performance	1866	28	28	26	28	25	24	100	27
1593988872710808160	1	1881	345	345	1881	1881	1881	114750000	performance	1866	28	28	26	28	25	24	100	27
1593988872769140305 	0	1875	345	345	1878	1876	1878	114750000	performance	1866	28	28	26	28	25	24	100	27
1593988874371987689	1	1881	345	345	1881	1881	1881	114750000	performance	1866	28	28	26	28	25	24	100	27
1593988874459653796 	0	1881	345	345	1878	1876	1876	114750000	performance	1866	28	28	26	28	25	24	100	27
1593988876101790015	1	1881	345	345	1881	1881	1881	114750000	performance	1866	28	28	26	28	25	24	100	27
1593988876185856325 	0	1885	345	345	1885	1888	1888	114750000	performance	1866	28	28	26	28	25	24	100	27
1593988877796376905	1	1881	345	345	1881	1881	1881	114750000	performance	1866	28	28	26	28	25	24	100	27
1593988877905724130 	0	1885	345	345	1883	1889	1889	114750000	performance	1866	28	28	26	28	25	24	100	27
1593988879511856077	1	1881	345	345	1881	1881	1881	114750000	performance	1866	28	28	26	28	25	24	100	27
1593988879608857342 	0	1877	345	345	1881	1891	1872	114750000	performance	1866	28	28	26	28	25	24	100	27
1593988881202703106	1	1881	345	345	1881	1881	1881	114750000	performance	1866	28	28	26	28	25	24	100	27
1593988881308141315 	0	1883	345	345	1888	1889	1881	114750000	performance	1866	28	28	26	28	25	24	100	27
1593988882905975678	1	1881	345	345	1881	1881	1881	114750000	performance	1866	28	28	26	28	25	24	100	27
1593988882982032566 	0	1881	345	345	1878	1878	1877	114750000	performance	1866	28	28	26	28	25	24	100	27
1593988884597753112	1	1881	345	345	1881	1881	1881	114750000	performance	1866	28	28	26	28	25	24	100	27
1593988884679513969 	0	1890	345	345	1879	1882	1884	114750000	performance	1866	28	28	26	28	25	24	100	27
1593988886275363681	1	1881	345	345	1881	1881	1881	114750000	performance	1866	28	28	26	28	25	24	100	27
1593988886393852814 	0	1874	345	345	1877	1875	1875	114750000	performance	1866	28	28	26	28	25	24	100	27
1593988888045710561	1	1881	345	345	1881	1881	1881	114750000	performance	1866	28	28	26	28	25	24	100	27
1593988888145595267 	0	1879	345	345	1875	1878	1880	114750000	performance	1866	28	28	26	28	25	24	100	27
1593988889725872568	1	1881	345	345	1881	1881	1881	114750000	performance	1866	28	28	26	28	25	24	100	27
1593988889802275730 	0	1879	345	345	1873	1878	1880	114750000	performance	1866	28	28	26	28	25	24	100	27
1593988891410293352	1	1881	345	345	1881	1881	1881	114750000	performance	1866	28	28	26	28	25	24	100	27
1593988891482612426 	0	1842	345	345	1881	1881	1880	114750000	performance	1866	28	28	26	28	25	24	100	27
1593988893063415298	1	1881	345	345	1881	1881	1881	114750000	performance	1866	28	28	26	28	25	24	100	27
1593988893108792873 	0	1878	345	345	1877	1880	1878	114750000	performance	1866	28	28	26	28	25	24	100	27
1593988894773746120	1	1881	345	345	1881	1881	1881	114750000	performance	1866	28	28	26	28	25	24	100	27
1593988894869890900 	0	1881	345	345	1888	1882	1884	114750000	performance	1866	28	28	26	28	25	24	100	27
1593988896513794649	1	1881	345	345	1881	1881	1881	114750000	performance	1866	28	28	26	28	25	24	100	27
1593988896685036920 	0	1883	345	345	1883	1886	1884	114750000	performance	1866	28	28	26	28	25	24	100	27
1593988898334181692	1	1881	345	345	1881	1881	1881	114750000	performance	1866	28	28	26	28	25	24	100	27
1593988898448549713 	0	1891	345	345	1886	1889	1888	114750000	performance	1866	28	28	26	28	25	24	100	27
1593988900105583170	1	1881	345	345	1881	1881	1881	114750000	performance	1866	28	28	26	28	25	24	100	27
1593988900197865944 	0	1881	345	345	1842	1842	1843	114750000	performance	1866	28	28	26	28	25	24	100	27
1593988901943769995	1	1881	345	345	1881	1881	1881	114750000	performance	1866	28	28	26	28	25	24	100	27
1593988902047893766 	0	1880	345	345	1880	1878	1880	114750000	performance	1866	28	28	26	28	25	24	100	27
1593988903717867682	1	1881	345	345	1881	1881	1881	114750000	performance	1866	28	28	26	28	25	24	100	27
1593988903862968617 	0	1884	345	345	1889	1885	1887	114750000	performance	1866	28	28	26	28	25	24	100	27
1593988905517140586	1	1881	345	345	1881	1881	1881	114750000	performance	1866	28	28	26	28	25	24	100	27
1593988905576640162 	0	1881	345	346	1884	1879	1883	114750000	performance	1866	28	28	26	28	25	24	100	27
1593988907186127296	1	1881	345	345	1881	1881	1881	114750000	performance	1866	28	28	26	28	25	24	100	27
1593988907242574919 	0	1890	345	345	1894	1892	1892	114750000	performance	1866	28	28	26	28	25	24	100	27
1593988908822924988	1	1881	345	345	1881	1881	1881	114750000	performance	1866	28	28	26	28	25	24	100	27
1593988908908254570 	0	1884	345	345	1876	1880	1878	114750000	performance	1866	28	28	26	28	25	24	100	27
1593988910529212522	1	1881	345	345	1881	1881	1881	114750000	performance	1866	28	28	26	28	25	24	100	27
1593988910614730521 	0	1890	345	345	1883	1885	1892	114750000	performance	1866	28	28	26	28	25	24	100	27
1593988912257487576	1	1881	345	345	1881	1881	1881	114750000	performance	1866	28	28	26	28	25	24	100	27
1593988912299702316 	0	1882	345	345	1876	1878	1880	114750000	performance	1866	28	28	26	28	25	24	100	27
1593988913883836791	1	1881	345	345	1881	1881	1881	114750000	performance	1866	28	28	26	28	25	24	100	27
1593988913936232327 	0	1885	345	345	1886	1887	1886	114750000	performance	1866	28	28	26	28	25	24	100	27
1593988915591737519	1	1881	345	345	1881	1881	1881	114750000	performance	1866	28	28	26	28	25	24	100	27
1593988915713799057 	0	1882	345	345	1880	1881	1878	114750000	performance	1866	28	28	26	28	25	24	100	27
1593988917306138988	1	1881	345	345	1881	1881	1881	114750000	performance	1866	28	28	26	28	25	24	100	27
1593988917409866404 	0	1880	345	345	1881	1845	1843	114750000	performance	1866	28	28	26	28	25	24	100	27
1593988919015119882	1	1881	345	345	1881	1881	1881	114750000	performance	1866	28	28	26	28	25	24	100	27
1593988919106755068 	0	1878	345	345	1881	1880	1879	114750000	performance	1866	28	28	26	28	25	24	100	27
1593988920745688228	1	1881	345	345	1881	1881	1881	114750000	performance	1866	28	28	26	28	25	24	100	27
1593988920883896356 	0	1881	345	345	1883	1882	1883	114750000	performance	1866	28	28	26	28	25	24	100	27
1593988922467995695	1	1881	345	345	1881	1881	1881	114750000	performance	1866	28	28	26	28	25	24	100	27
1593988922517546798 	0	1878	345	345	1874	1880	1879	114750000	performance	1866	28	28	26	28	25	24	100	27
1593988924119150334	1	1881	345	345	1881	1881	1881	114750000	performance	1866	28	28	26	28	25	24	100	27
1593988924225118019 	0	1888	345	345	1889	1881	1880	114750000	performance	1866	28	28	26	28	25	24	100	27
1593988925809334223	1	1881	345	345	1881	1881	1881	114750000	performance	1866	28	28	26	28	25	24	100	27
1593988925902790764 	0	1874	345	345	1879	1882	1879	114750000	performance	1866	28	28	26	28	25	24	100	27
1593988927493506173	1	1881	345	345	1881	1881	1881	114750000	performance	1866	28	28	26	28	25	24	100	27
1593988927624044464 	0	1882	345	345	1876	1881	1883	114750000	performance	1866	28	28	26	28	25	24	100	27
1593988929316296205	1	1881	345	345	1881	1881	1881	114750000	performance	1866	28	28	26	28	25	24	100	27
1593988929441722563 	0	1878	345	345	1882	1876	1880	114750000	performance	1866	28	28	26	28	25	24	100	27
1593988931079161891	1	1881	345	345	1881	1881	1881	114750000	performance	1866	28	28	26	28	25	24	100	27
1593988931155970207 	0	1879	345	345	1881	1877	1881	114750000	performance	1866	28	28	26	28	25	24	100	27
1593988932773847502	1	1881	345	345	1881	1881	1881	114750000	performance	1866	28	28	26	28	25	24	100	27
1593988932874510932 	0	1889	345	345	1882	1883	1883	114750000	performance	1866	28	28	26	28	25	24	100	27
1593988934472464624	1	1881	345	345	1881	1881	1881	114750000	performance	1866	28	28	26	28	25	24	100	27
1593988934577412591 	0	1876	345	345	1879	1879	1877	114750000	performance	1866	28	28	26	28	25	24	100	27
1593988936207974375	1	1881	345	345	1881	1881	1881	114750000	performance	1866	28	28	26	28	25	24	100	27
1593988936308419404 	0	1880	345	345	1842	1842	1843	114750000	performance	1866	28	28	26	28	25	24	100	27
1593988937936535126	1	1881	345	345	1881	1881	1881	114750000	performance	1866	28	28	26	28	25	24	100	27
1593988938045953647 	0	1885	345	345	1882	1887	1882	114750000	performance	1866	28	28	26	28	25	24	100	27
1593988939640539735	1	1881	345	345	1881	1881	1881	114750000	performance	1866	28	28	26	28	25	24	100	27
1593988939727344973 	0	1843	345	345	1842	1843	1842	114750000	performance	1866	28	28	26	28	25	24	100	27
1593988941377304405	1	1881	345	345	1881	1881	1881	114750000	performance	1866	28	28	26	28	25	24	100	27
1593988941452107174 	0	1879	345	345	1879	1880	1881	114750000	performance	1866	28	28	26	28	25	24	100	27
1593988943099489759	1	1881	345	345	1881	1881	1881	114750000	performance	1866	28	28	26	28	25	24	100	27
1593988943256053769 	0	1842	345	345	1843	1881	1881	114750000	performance	1866	28	28	26	28	25	24	100	27
1593988944854812713	1	1881	345	345	1881	1881	1881	114750000	performance	1866	28	28	26	28	25	24	100	27
1593988944927278028 	0	1876	345	345	1879	1880	1883	114750000	performance	1866	28	28	26	28	25	24	100	27
1593988946533972634	1	1881	345	345	1881	1881	1881	114750000	performance	1866	28	28	26	28	25	24	100	27
1593988946600935965 	0	1882	345	345	1887	1888	1885	114750000	performance	1866	28	28	26	28	25	24	100	27
1593988948280286416	1	1881	345	345	1881	1881	1881	114750000	performance	1866	28	28	26	28	25	24	100	27
1593988948345603177 	0	1884	345	345	1895	1888	1888	114750000	performance	1866	28	28	26	28	25	24	100	27
1593988949946215796	1	1881	345	345	1881	1881	1881	114750000	performance	1866	28	28	26	28	25	24	100	27
1593988950028897075 	0	1888	345	345	1886	1884	1889	114750000	performance	1866	28	28	26	28	25	24	100	27
1593988951688812692	1	1881	345	345	1881	1881	1881	114750000	performance	1866	28	28	26	28	25	24	100	27
1593988951750403993 	0	1883	345	345	1882	1885	1885	114750000	performance	1866	28	28	26	28	25	24	100	27
1593988953450989702	1	1881	345	345	1881	1881	1881	114750000	performance	1866	28	28	26	28	25	24	100	27
1593988953531538936 	0	1842	345	345	1881	1882	1843	114750000	performance	1866	28	28	26	28	25	24	100	27
1593988955149054756	1	1881	345	345	1881	1881	1881	114750000	performance	1866	28	28	26	28	25	24	100	27
1593988955214387614 	0	1884	345	345	1890	1888	1888	114750000	performance	1866	28	28	26	28	25	24	100	27
1593988956948820751	1	1881	345	345	1881	1881	1881	114750000	performance	1866	28	28	26	28	25	24	100	27
1593988957080929131 	0	1877	345	345	1878	1880	1883	114750000	performance	1866	28	28	26	28	25	24	100	27
1593988958821989603	1	1881	345	345	1881	1881	1881	114750000	performance	1866	28	28	26	28	25	24	100	27
1593988958863332114 	0	1879	345	345	1881	1880	1878	114750000	performance	1866	28	28	26	28	25	24	100	27
1593988960530307261	1	1881	345	345	1881	1881	1881	114750000	performance	1866	28	28	26	28	25	24	100	27
1593988960619949699 	0	1879	345	345	1876	1880	1880	114750000	performance	1866	28	28	26	28	25	24	100	27
1593988962251940643	1	1881	345	345	1881	1881	1881	114750000	performance	1866	28	28	26	28	25	24	100	27
1593988962387200178 	0	1891	345	345	1882	1884	1882	114750000	performance	1866	28	28	26	28	25	24	100	27
1593988964032602112	1	1881	345	345	1881	1881	1881	114750000	performance	1866	28	28	26	28	25	24	100	27
1593988964164947613 	0	1881	345	345	1882	1844	1844	114750000	performance	1866	28	28	26	28	25	24	100	27
1593988965817294195	1	1881	345	345	1881	1881	1881	114750000	performance	1866	28	28	26	28	25	24	100	27
1593988965888361423 	0	1882	345	345	1883	1882	1882	114750000	performance	1866	28	28	26	28	25	24	100	27
1593988967478334172	1	1881	345	345	1881	1881	1881	114750000	performance	1866	28	28	26	28	25	24	100	27
1593988967558180298 	0	1883	345	345	1883	1883	1889	114750000	performance	1866	28	28	26	28	25	24	100	27
1593988969178123876	1	1881	345	345	1881	1881	1881	114750000	performance	1866	28	28	26	28	25	24	100	27
1593988969268570576 	0	1844	345	345	1880	1880	1881	114750000	performance	1866	28	28	26	28	25	24	100	27
1593988970869703229	1	1881	345	345	1881	1881	1881	114750000	performance	1866	28	28	26	28	25	24	100	27
1593988970936645185 	0	1896	345	345	1895	1897	1895	114750000	performance	1866	28	28	26	28	25	24	100	27
1593988972540894017	1	1881	345	345	1881	1881	1881	114750000	performance	1866	28	28	26	28	25	24	100	27
1593988972589381177 	0	1887	345	345	1894	1893	1891	114750000	performance	1866	28	28	26	28	25	24	100	27
1593988974217294946	1	1881	345	345	1881	1881	1881	114750000	performance	1866	28	28	26	28	25	24	100	27
1593988974286754292 	0	1891	345	345	1892	1888	1892	114750000	performance	1866	28	28	26	28	25	24	100	27
1593988975909339166	1	1881	345	345	1881	1881	1881	114750000	performance	1866	28	28	26	28	25	24	100	27
1593988976012276113 	0	1841	345	345	1882	1842	1842	114750000	performance	1866	28	28	26	28	25	24	100	27
1593988977747162564	1	1881	345	345	1881	1881	1881	114750000	performance	1866	28	28	26	28	25	24	100	27
1593988977833644921 	0	1882	345	345	1842	1843	1841	114750000	performance	1866	28	28	26	28	25	24	100	27
1593988979445155107	1	1881	345	345	1881	1881	1881	114750000	performance	1866	28	28	26	28	25	24	100	27
1593988979533528866 	0	1880	345	345	1844	1844	1881	114750000	performance	1866	28	28	26	28	25	24	100	27
1593988981215648036	1	1881	345	345	1881	1881	1881	114750000	performance	1866	28	28	26	28	25	24	100	27
1593988981313491098 	0	1883	345	345	1887	1894	1896	114750000	performance	1866	28	28	26	28	25	24	100	27
1593988983028681468	1	1881	345	345	1881	1881	1881	114750000	performance	1866	28	28	26	28	25	24	100	27
1593988983115749939 	0	1881	345	345	1843	1842	1842	114750000	performance	1866	28	28	26	28	25	24	100	27
1593988984713000939	1	1881	345	345	1881	1881	1881	114750000	performance	1866	28	28	26	28	25	24	100	27
1593988984812826220 	0	1891	345	345	1888	1891	1890	114750000	performance	1866	28	28	26	28	25	24	100	27
1593988986462207185	1	1881	345	345	1881	1881	1881	114750000	performance	1866	28	28	26	28	25	24	100	27
1593988986538865389 	0	1844	345	345	1843	1843	1844	114750000	performance	1866	28	28	26	28	25	24	100	27
1593988988197958858	1	1881	345	345	1881	1881	1881	114750000	performance	1866	28	28	26	28	25	24	100	27
1593988988271889877 	0	1878	345	345	1879	1881	1880	114750000	performance	1866	28	28	26	28	25	24	100	27
1593988989830970768	1	1881	345	345	1881	1881	1881	114750000	performance	1866	28	28	26	28	25	24	100	27
1593988989930243246 	0	1887	345	345	1895	1896	1884	114750000	performance	1866	28	28	26	28	25	24	100	27
1593988991549169123	1	1881	345	345	1881	1881	1881	114750000	performance	1866	28	28	26	28	25	24	100	27
1593988991654885063 	0	1886	345	345	1883	1882	1884	114750000	performance	1866	28	28	26	28	25	24	100	27
1593988993307786816	1	1881	345	345	1881	1881	1881	114750000	performance	1866	28	28	26	28	25	24	100	27
1593988993381914477 	0	1880	345	345	1876	1879	1877	114750000	performance	1866	28	28	26	28	25	24	100	27
1593988994946793577	1	1881	345	345	1881	1881	1881	114750000	performance	1866	28	28	26	28	25	24	100	27
1593988995008243820 	0	1879	345	345	1882	1879	1879	114750000	performance	1866	28	28	26	28	25	24	100	27
1593988996656384170	1	1881	345	345	1881	1881	1881	114750000	performance	1866	28	28	26	28	25	24	100	27
1593988996757022480 	0	1878	345	345	1877	1878	1876	114750000	performance	1866	28	28	26	28	25	24	100	27
1593988998413677791	1	1881	345	345	1881	1881	1881	114750000	performance	1866	28	28	26	28	25	24	100	27
1593988998510964594 	0	1891	345	345	1893	1889	1892	114750000	performance	1866	28	28	26	28	25	24	100	27
1593989000150068091	1	1881	345	345	1881	1881	1881	114750000	performance	1866	28	28	26	28	25	23	100	27
1593989000225730001 	0	1880	345	345	1877	1878	1880	114750000	performance	1866	28	28	26	28	25	23	100	27
1593989001823523276	1	1881	345	345	1881	1881	1881	114750000	performance	1866	28	28	26	28	25	24	100	27
1593989001914618619 	0	1877	345	345	1877	1881	1875	114750000	performance	1866	28	28	26	28	25	24	100	27
1593989003527108714	1	1881	345	345	1881	1881	1881	114750000	performance	1866	28	28	26	28	25	24	100	27
1593989003632413995 	0	1880	345	345	1880	1882	1879	114750000	performance	1866	28	28	26	28	25	24	100	27
1593989005282267571	1	1881	345	345	1881	1881	1881	114750000	performance	1866	28	28	26	28	25	24	100	26
1593989005327628313 	0	1884	345	345	1892	1889	1886	114750000	performance	1866	28	28	26	28	25	23	100	26
1593989006928900520	1	1881	345	345	1881	1881	1881	114750000	performance	1866	28	28	26	28	25	23	100	27
1593989006979852751 	0	1880	345	345	1881	1881	1878	114750000	performance	1866	28	28	26	28	25	23	100	27
1593989008677193641	1	1881	345	345	1881	1881	1881	114750000	performance	1866	28	28	26	28	25	23	100	27
1593989008760784525 	0	1881	345	345	1889	1891	1886	114750000	performance	1866	28	28	26	28	25	24	100	27
1593989010368163103	1	1881	345	345	1881	1881	1881	114750000	performance	1866	28	28	26	28	25	24	100	27
1593989010419607240 	0	1887	345	345	1881	1885	1882	114750000	performance	1866	28	28	26	28	25	24	100	27
1593989012025219824	1	1881	345	345	1881	1881	1881	114750000	performance	1866	28	28	26	28	25	24	100	27
1593989012105715618 	0	1890	345	345	1886	1886	1887	114750000	performance	1866	28	28	26	28	25	24	100	27
1593989013723574256	1	1881	345	345	1881	1881	1881	114750000	performance	1866	28	28	26	28	25	23	100	27
1593989013784087118 	0	1891	345	345	1893	1878	1879	114750000	performance	1866	28	28	26	28	25	24	100	27
1593989015382347531	1	1881	345	345	1881	1881	1881	114750000	performance	1866	28	28	26	28	25	23	100	27
1593989015468165916 	0	1879	345	345	1883	1883	1885	114750000	performance	1866	28	28	26	28	25	23	100	27
1593989017137373523	1	1881	345	345	1881	1881	1881	114750000	performance	1866	28	28	26	28	25	23	100	27
1593989017260449019 	0	1877	345	345	1881	1879	1880	114750000	performance	1866	28	28	26	28	25	23	100	27
1593989018883575880	1	1881	345	345	1881	1881	1881	114750000	performance	1866	28	28	26	28	25	23	100	27
1593989019010833545 	0	1843	345	345	1843	1844	1880	114750000	performance	1866	28	28	26	28	25	23	100	27
1593989020682345550	1	1881	345	345	1881	1881	1881	114750000	performance	1866	28	28	26	28	25	24	100	27
1593989020902724264 	0	1885	345	345	1884	1881	1876	114750000	performance	1866	28	28	26	28	25	24	100	27
1593989022560021307	1	1881	345	345	1881	1881	1881	114750000	performance	1866	28	28	26	28	25	24	100	27
1593989022622885127 	0	1887	345	345	1885	1888	1881	114750000	performance	1866	28	28	26	28	25	24	100	27
1593989024257169780	1	1881	345	345	1881	1881	1881	114750000	performance	1866	28	28	26	28	25	24	100	27
1593989024355048490 	0	1893	345	345	1885	1893	1884	114750000	performance	1866	28	28	26	28	25	24	100	27
1593989025977435123	1	1881	345	345	1881	1881	1881	114750000	performance	1866	28	28	26	28	25	23	100	27
1593989026077724695 	0	1878	345	345	1881	1882	1881	114750000	performance	1866	28	28	26	28	25	24	100	27
1593989027694850402	1	1881	345	345	1881	1881	1881	114750000	performance	1866	28	28	26	28	25	24	100	27
1593989027748417656 	0	1878	345	345	1877	1880	1883	114750000	performance	1866	28	28	26	28	25	24	100	27
1593989029382761126	1	1881	345	345	1881	1881	1881	114750000	performance	1866	28	28	26	28	25	24	100	27
1593989029461844847 	0	1878	345	345	1876	1880	1878	114750000	performance	1866	28	28	26	28	25	24	100	27
1593989031023002262	1	1881	345	345	1881	1881	1881	114750000	performance	1866	28	28	26	28	25	24	100	27
1593989031189565881 	0	1878	345	345	1879	1879	1880	114750000	performance	1866	28	28	26	28	25	24	100	27
1593989032778885635	1	1881	345	345	1881	1881	1881	114750000	performance	1866	28	28	26	28	25	24	100	27
1593989032831108241 	0	1881	345	345	1881	1842	1842	114750000	performance	1866	28	28	26	28	25	24	100	27
1593989034452046609	1	1881	345	345	1881	1881	1881	114750000	performance	1866	28	28	26	28	25	23	100	27
1593989034498985249 	0	1878	345	345	1876	1879	1880	114750000	performance	1866	28	28	26	28	25	24	100	27
1593989036137832041	1	1881	345	345	1881	1881	1881	114750000	performance	1866	28	28	26	28	25	24	100	27
1593989036225249570 	0	1842	345	345	1843	1882	1881	114750000	performance	1866	28	28	26	28	25	24	100	27
1593989037933662045	1	1881	345	345	1881	1881	1881	114750000	performance	1866	28	28	26	28	25	24	100	27
1593989038015177748 	0	1881	345	345	1843	1842	1843	114750000	performance	1866	28	28	26	28	25	24	100	27
1593989039586907512	1	1881	345	345	1881	1881	1881	114750000	performance	1866	28	28	26	28	25	24	100	27
1593989039731059162 	0	1891	345	345	1888	1896	1896	114750000	performance	1866	28	28	26	28	25	24	100	27
1593989041339192272	1	1881	345	345	1881	1881	1881	114750000	performance	1866	28	28	26	28	25	23	100	27
1593989041436446275 	0	1881	345	345	1843	1880	1844	114750000	performance	1866	28	28	26	28	25	23	100	27
1593989043097000392	1	1881	345	345	1881	1881	1881	114750000	performance	1866	28	28	26	28	25	24	100	27
1593989043217463265 	0	1885	345	345	1882	1884	1887	114750000	performance	1866	28	28	26	28	25	24	100	27
1593989044808093202	1	1881	345	345	1881	1881	1881	114750000	performance	1866	28	28	26	28	25	24	100	27
1593989044880098611 	0	1880	345	345	1880	1876	1876	114750000	performance	1866	28	28	26	28	25	24	100	27
1593989046482883178	1	1881	345	345	1881	1881	1881	114750000	performance	1866	28	28	26	28	25	24	100	27
1593989046562178357 	0	1880	345	345	1880	1883	1883	114750000	performance	1866	28	28	26	28	25	23	100	27
1593989048164330569	1	1881	345	345	1881	1881	1881	114750000	performance	1866	28	28	26	28	25	24	100	27
1593989048276474129 	0	1889	345	345	1880	1881	1876	114750000	performance	1866	28	28	26	28	25	24	100	27
1593989049949373502	1	1881	345	345	1881	1881	1881	114750000	performance	1866	28	28	26	28	25	24	100	27
1593989050052798773 	0	1874	345	345	1875	1876	1878	114750000	performance	1866	28	28	26	28	25	23	100	27
1593989051731916102	1	1881	345	345	1881	1881	1881	114750000	performance	1866	28	28	26	28	25	24	100	27
1593989051781274691 	0	1881	345	345	1878	1881	1877	114750000	performance	1866	28	28	26	28	25	23	100	27
1593989053465098927	1	1881	345	345	1881	1881	1881	114750000	performance	1866	28	28	26	28	25	23	100	27
1593989053576323315 	0	1877	345	345	1877	1876	1879	114750000	performance	1866	28	28	26	28	25	24	100	27
1593989055218276461	1	1881	345	345	1881	1881	1881	114750000	performance	1866	28	28	26	28	25	24	100	27
1593989055319845432 	0	1879	345	345	1880	1878	1878	114750000	performance	1866	28	28	26	28	25	24	100	27
1593989056987431974	1	1881	345	345	1881	1881	1881	114750000	performance	1866	28	28	26	28	25	24	100	27
1593989057104714285 	0	1887	345	345	1891	1889	1889	114750000	performance	1866	28	28	26	28	25	24	100	27
1593989058747107145	1	1881	345	345	1881	1881	1881	114750000	performance	1866	28	28	26	28	25	24	100	27
1593989058829017827 	0	1877	345	345	1878	1874	1882	114750000	performance	1866	28	28	26	28	25	24	100	27
1593989060497451446	1	1881	345	345	1881	1881	1881	114750000	performance	1866	28	28	26	28	25	24	100	27
1593989060570268028 	0	1891	345	345	1889	1889	1884	114750000	performance	1866	28	28	26	28	25	24	100	27
1593989062254878540	1	1881	345	345	1881	1881	1881	114750000	performance	1866	28	28	26	28	25	24	100	27
1593989062366547826 	0	1881	345	345	1876	1881	1880	114750000	performance	1866	28	28	26	28	25	24	100	27
1593989064034536259	1	1881	345	345	1881	1881	1881	114750000	performance	1866	28	28	26	28	25	24	100	27
1593989064083654015 	0	1843	345	345	1843	1881	1881	114750000	performance	1866	28	28	26	28	25	24	100	27
1593989065701366797	1	1881	345	345	1881	1881	1881	114750000	performance	1866	28	28	26	28	25	24	100	27
1593989065829958452 	0	1878	345	345	1878	1878	1878	114750000	performance	1866	28	28	26	28	25	24	100	27
1593989067442560741	1	1881	345	345	1881	1881	1881	114750000	performance	1866	28	28	26	28	25	23	100	27
1593989067541170399 	0	1880	345	345	1880	1878	1882	114750000	performance	1866	28	28	26	28	25	24	100	27
1593989069168907143	1	1881	345	345	1881	1881	1881	114750000	performance	1866	28	28	26	28	25	24	100	27
1593989069242940019 	0	1887	345	345	1890	1891	1892	114750000	performance	1866	28	28	26	28	25	24	100	27
1593989070872617478	1	1881	345	345	1881	1881	1881	114750000	performance	1866	28	28	26	28	25	24	100	27
1593989070953736859 	0	1885	345	345	1884	1886	1886	114750000	performance	1866	28	28	26	28	25	24	100	27
1593989072545506675	1	1881	345	345	1881	1881	1881	114750000	performance	1866	28	28	26	28	25	24	100	27
1593989072650860212 	0	1879	345	345	1885	1879	1879	114750000	performance	1866	28	28	26	28	25	24	100	27
1593989074226565487	1	1881	345	345	1881	1881	1881	114750000	performance	1866	28	28	26	28	25	24	100	27
1593989074328588765 	0	1887	345	345	1880	1874	1881	114750000	performance	1866	28	28	26	28	25	24	100	27
1593989075921315291	1	1881	345	345	1881	1881	1881	114750000	performance	1866	28	28	26	28	25	24	100	27
1593989076010308285 	0	1882	345	345	1881	1878	1881	114750000	performance	1866	28	28	26	28	25	24	100	27
1593989077612787539	1	1881	345	345	1881	1881	1881	114750000	performance	1866	28	28	26	28	25	24	100	27
1593989077711500174 	0	1886	345	345	1887	1887	1887	114750000	performance	1866	28	28	26	28	25	24	100	27
1593989079382667441	1	1881	345	345	1881	1881	1881	114750000	performance	1866	28	28	26	28	25	24	100	27
1593989079466366165 	0	1882	345	345	1842	1842	1844	114750000	performance	1866	28	28	26	28	25	24	100	27
1593989081053890676	1	1881	345	345	1881	1881	1881	114750000	performance	1866	28	28	26	28	25	24	100	27
1593989081111920100 	0	1881	345	345	1879	1881	1881	114750000	performance	1866	28	28	26	28	25	24	100	27
1593989082734325485	1	1881	345	345	1881	1881	1881	114750000	performance	1866	28	28	26	28	25	24	100	27
1593989082855852684 	0	1881	345	345	1877	1877	1880	114750000	performance	1866	28	28	26	28	25	24	100	27
1593989084433235824	1	1881	345	345	1881	1881	1881	114750000	performance	1866	28	28	26	28	25	24	100	27
1593989084519537027 	0	1885	345	345	1888	1888	1889	114750000	performance	1866	28	28	26	28	25	24	100	27
1593989086136250539	1	1881	345	345	1881	1881	1881	114750000	performance	1866	28	28	26	28	25	24	100	27
1593989086258038092 	0	1884	345	345	1890	1890	1890	114750000	performance	1866	28	28	26	28	25	24	100	27
1593989087855014882	1	1881	345	345	1881	1881	1881	114750000	performance	1866	28	28	26	28	25	24	100	27
1593989087969403319 	0	1881	345	345	1880	1882	1881	114750000	performance	1866	28	28	26	28	25	24	100	27
1593989089637065830	1	1881	345	345	1881	1881	1881	114750000	performance	1866	28	28	26	28	25	24	100	27
1593989089738592241 	0	1879	345	345	1877	1882	1880	114750000	performance	1866	28	28	26	28	25	24	100	27
1593989091335911529	1	1881	345	345	1881	1881	1881	114750000	performance	1866	28	28	26	28	25	24	100	27
1593989091387595124 	0	1884	345	345	1890	1890	1894	114750000	performance	1866	28	28	26	28	25	24	100	27
1593989092998097176	1	1881	345	345	1881	1881	1881	114750000	performance	1866	28	28	26	28	25	24	100	27
1593989093081126264 	0	1883	345	345	1887	1886	1885	114750000	performance	1866	28	28	26	28	25	24	100	27
1593989094714528065	1	1881	345	345	1881	1881	1881	114750000	performance	1866	28	28	26	28	25	23	100	27
1593989094788396460 	0	1879	345	345	1879	1878	1878	114750000	performance	1866	28	28	26	28	25	23	100	27
1593989096452255525	1	1881	345	345	1881	1881	1881	114750000	performance	1866	28	28	26	28	25	24	100	27
1593989096514907599 	0	1893	345	345	1898	1889	1892	114750000	performance	1866	28	28	26	28	25	24	100	27
1593989098173759883	1	1881	345	345	1881	1881	1881	114750000	performance	1866	28	28	26	28	25	24	100	27
1593989098283419717 	0	1880	345	345	1879	1879	1880	114750000	performance	1866	28	28	26	28	25	24	100	27
1593989099969042300	1	1881	345	345	1881	1881	1881	114750000	performance	1866	28	28	26	28	25	23	100	27
1593989100106061909 	0	1878	345	345	1878	1882	1878	114750000	performance	1866	28	28	26	28	25	23	100	27
1593989101732685366	1	1881	345	345	1881	1881	1881	114750000	performance	1866	28	28	26	28	25	24	100	27
1593989101847902736 	0	1880	345	345	1880	1876	1880	114750000	performance	1866	28	28	26	28	25	24	100	27
1593989103436422933	1	1881	345	345	1881	1881	1881	114750000	performance	1866	28	28	26	28	25	24	100	27
1593989103527120290 	0	1887	345	345	1886	1888	1890	114750000	performance	1866	28	28	26	28	25	23	100	27
1593989105170634501	1	1881	345	345	1881	1881	1881	114750000	performance	1866	28	28	26	28	25	24	100	27
1593989105266912626 	0	1881	345	345	1842	1842	1882	114750000	performance	1866	28	28	26	28	25	24	100	27
1593989106911759229	1	1881	345	345	1881	1881	1881	114750000	performance	1866	28	28	26	28	25	24	100	27
1593989107043648279 	0	1881	345	345	1843	1843	1843	114750000	performance	1866	28	28	26	28	25	24	100	27
1593989108627252576	1	1881	345	345	1881	1881	1881	114750000	performance	1866	28	28	26	28	25	23	100	27
1593989108750217703 	0	1876	345	345	1880	1879	1882	114750000	performance	1866	28	28	26	28	25	24	100	27
1593989110382332008	1	1881	345	345	1881	1881	1881	114750000	performance	1866	28	28	26	28	24	24	100	27
1593989110454986445 	0	1884	345	345	1883	1883	1886	114750000	performance	1866	28	28	26	28	25	24	100	27
1593989112187951157	1	1881	345	345	1881	1881	1881	114750000	performance	1866	28	28	26	28	24	24	100	27
1593989112248073073 	0	1884	345	345	1879	1880	1883	114750000	performance	1866	28	28	26	28	25	24	100	27
1593989113869773750	1	1881	345	345	1881	1881	1881	114750000	performance	1866	28	28	26	28	25	24	100	27
1593989113945951150 	0	1880	345	345	1879	1881	1878	114750000	performance	1866	28	28	26	28	24	24	100	27
1593989115548672485	1	1881	345	345	1881	1881	1881	114750000	performance	1866	28	28	26	28	24	24	100	27
1593989115660571085 	0	1881	345	345	1887	1885	1886	114750000	performance	1866	28	28	26	28	24	24	100	27
1593989117374191205	1	1881	345	345	1881	1881	1881	114750000	performance	1866	28	28	26	28	24	24	100	27
1593989117489080894 	0	1844	345	345	1843	1843	1881	114750000	performance	1866	28	28	26	28	25	24	100	27
1593989119137286588	1	1881	345	345	1881	1881	1881	114750000	performance	1866	28	28	26	28	24	24	100	27
1593989119288544551 	0	1887	345	345	1878	1887	1883	114750000	performance	1866	28	28	26	28	24	23	100	27
1593989120890778491	1	1881	345	345	1881	1881	1881	114750000	performance	1866	28	28	26	28	24	24	100	27
1593989120943615565 	0	1882	345	345	1842	1843	1844	114750000	performance	1866	28	28	26	28	24	24	100	27
1593989122535460965	1	1881	345	345	1881	1881	1881	114750000	performance	1866	28	28	26	28	24	24	100	27
1593989122591513257 	0	1880	345	345	1876	1878	1878	114750000	performance	1866	28	28	26	28	24	24	100	27
1593989124221477278	1	1881	345	345	1881	1881	1881	114750000	performance	1866	28	28	26	28	24	23	100	27
1593989124317084935 	0	1879	345	345	1878	1879	1879	114750000	performance	1866	28	28	26	28	24	23	100	27
1593989126052663390	1	1881	345	345	1881	1881	1881	114750000	performance	1866	28	28	26	28	24	24	100	27
1593989126171497070 	0	1888	345	345	1881	1884	1884	114750000	performance	1866	28	28	26	28	24	24	100	27
1593989127753706318	1	1881	345	345	1881	1881	1881	114750000	performance	1866	28	28	26	28	24	24	100	27
1593989127826651348 	0	1889	345	345	1885	1884	1887	114750000	performance	1866	28	28	26	28	24	24	100	27
1593989129468163915	1	1881	345	345	1881	1881	1881	114750000	performance	1866	28	28	26	28	24	24	100	27
1593989129549205152 	0	1882	345	345	1843	1843	1844	114750000	performance	1866	28	28	26	28	24	24	100	27
1593989131111431277	1	1881	345	345	1881	1881	1881	114750000	performance	1866	28	28	26	28	24	24	100	27
1593989131193988170 	0	1881	345	345	1879	1881	1879	114750000	performance	1866	28	28	26	28	24	24	100	27
1593989132811689400	1	1881	345	345	1881	1881	1881	114750000	performance	1866	28	28	26	28	24	23	100	27
1593989132902403045 	0	1886	345	345	1889	1887	1888	114750000	performance	1866	28	28	26	28	24	23	100	27
1593989134631057844	1	1881	345	345	1881	1881	1881	114750000	performance	1866	28	28	26	28	24	24	100	27
1593989134705225377 	0	1881	345	345	1884	1880	1879	114750000	performance	1866	28	28	26	28	24	23	100	27
1593989136336793855	1	1881	345	345	1881	1881	1881	114750000	performance	1866	28	28	26	28	24	23	100	27
1593989136409243074 	0	1878	345	345	1882	1880	1878	114750000	performance	1866	28	28	26	28	24	23	100	27
1593989138043806802	1	1881	345	345	1881	1881	1881	114750000	performance	1866	28	28	26	28	24	24	100	27
1593989138135397379 	0	1879	345	345	1878	1876	1876	114750000	performance	1866	28	28	26	28	24	24	100	27
1593989139748012852	1	1881	345	345	1881	1881	1881	114750000	performance	1866	28	28	26	28	24	23	100	27
1593989139834498600 	0	1879	345	345	1876	1877	1881	114750000	performance	1866	28	28	26	28	24	23	100	27
1593989141427564519	1	1881	345	345	1881	1881	1881	114750000	performance	1866	28	28	26	28	24	23	100	27
1593989141483682284 	0	1885	345	345	1887	1889	1884	114750000	performance	1866	28	28	26	28	24	23	100	27
1593989143182268141	1	1881	345	345	1881	1881	1881	114750000	performance	1866	28	28	26	28	24	23	100	27
1593989143229323934 	0	1886	345	345	1882	1885	1889	114750000	performance	1866	28	28	26	28	24	23	100	27
1593989144895741797	1	1881	345	345	1881	1881	1881	114750000	performance	1866	28	28	26	28	25	23	100	27
1593989144959719639 	0	1879	345	345	1878	1880	1877	114750000	performance	1866	28	28	26	28	25	24	100	27
1593989146612863570	1	1881	345	345	1881	1881	1881	114750000	performance	1866	28	28	26	28	24	23	100	27
1593989146682329316 	0	1885	345	345	1887	1886	1887	114750000	performance	1866	27	27	26	27	25	23	100	27
1593989148366692851	1	1881	345	345	1881	1881	1881	114750000	performance	1866	28	28	26	28	24	23	100	27
1593989148462349788 	0	1895	345	345	1892	1888	1887	114750000	performance	1866	28	28	26	28	24	23	100	27
1593989150088152633	1	1881	345	345	1881	1881	1881	114750000	performance	1866	28	28	26	28	24	23	100	27
1593989150202758768 	0	1881	345	345	1886	1883	1887	114750000	performance	1866	27	27	26	28	24	23	100	27
1593989151805914057	1	1881	345	345	1881	1881	1881	114750000	performance	1866	28	28	26	28	24	24	100	27
1593989151939753616 	0	1880	345	345	1882	1842	1842	114750000	performance	1866	28	28	26	28	24	23	100	27
1593989153559662666	1	1881	345	345	1881	1881	1881	114750000	performance	1866	28	28	26	28	24	23	100	27
1593989153608574725 	0	1890	345	345	1889	1888	1890	114750000	performance	1866	28	28	26	28	24	23	100	27
1593989155230305898	1	1881	345	345	1881	1881	1881	114750000	performance	1866	28	28	26	28	24	23	100	27
1593989155319056907 	0	1844	345	345	1844	1845	1880	114750000	performance	1866	28	28	26	28	24	23	100	27
1593989156929797425	1	1881	345	345	1881	1881	1881	114750000	performance	1866	28	28	26	28	24	23	100	27
1593989156995252619 	0	1881	345	345	1882	1879	1881	114750000	performance	1866	28	28	26	28	24	23	100	27
1593989158608194814	1	1881	345	345	1881	1881	1881	114750000	performance	1866	28	28	26	28	24	24	100	27
1593989158700064081 	0	1843	345	345	1882	1881	1842	114750000	performance	1866	28	28	26	28	24	24	100	27
1593989160267386715	1	1881	345	345	1881	1881	1881	114750000	performance	1866	28	28	26	28	24	23	100	27
1593989160327753592 	0	1883	345	345	1884	1881	1879	114750000	performance	1866	28	28	26	28	24	23	100	27
1593989161989315812	1	1881	345	345	1881	1881	1881	114750000	performance	1866	28	28	26	28	24	23	100	27
1593989162062252650 	0	1891	345	345	1889	1896	1893	114750000	performance	1866	28	28	26	28	24	23	100	27
1593989163679745078	1	1881	345	345	1881	1881	1881	114750000	performance	1866	28	28	26	28	24	24	100	27
1593989163728382064 	0	1888	345	345	1884	1889	1887	114750000	performance	1866	28	28	26	28	24	24	100	27
1593989165344808182	1	1881	345	345	1881	1881	1881	114750000	performance	1866	28	28	26	28	24	23	100	27
1593989165466658935 	0	1882	345	345	1883	1843	1843	114750000	performance	1866	28	28	26	28	24	23	100	27
1593989167152012268	1	1881	345	345	1881	1881	1881	114750000	performance	1866	28	28	26	28	24	23	100	27
1593989167243129275 	0	1882	345	345	1880	1886	1885	114750000	performance	1866	28	28	26	28	24	23	100	27
1593989168852325527	1	1881	345	345	1881	1881	1881	114750000	performance	1866	28	28	26	28	24	23	100	27
1593989168923852725 	0	1882	345	345	1889	1889	1887	114750000	performance	1866	28	28	26	28	24	24	100	27
1593989170488569680	1	1881	345	345	1881	1881	1881	114750000	performance	1866	28	28	26	28	24	24	100	27
1593989170571924882 	0	1898	345	345	1890	1892	1892	114750000	performance	1866	28	28	26	28	24	24	100	27
1593989172241376843	1	1881	345	345	1881	1881	1881	114750000	performance	1866	28	28	26	28	24	23	100	27
1593989172331193747 	0	1881	345	345	1843	1841	1842	114750000	performance	1866	28	28	26	28	24	23	100	27
1593989173950888172	1	1881	345	345	1881	1881	1881	114750000	performance	1866	28	28	26	28	24	24	100	27
1593989174071418789 	0	1895	345	345	1889	1884	1894	114750000	performance	1866	28	28	26	28	24	24	100	27
1593989175659609736	1	1881	345	345	1881	1881	1881	114750000	performance	1866	28	28	26	28	24	24	100	27
1593989175814022438 	0	1843	345	345	1881	1843	1881	114750000	performance	1866	28	28	26	28	24	24	100	27
1593989177432920858	1	1881	345	345	1881	1881	1881	114750000	performance	1866	28	28	26	28	24	24	100	27
1593989177525356561 	0	1886	345	345	1884	1884	1881	114750000	performance	1866	28	28	26	28	24	24	100	27
1593989179124163729	1	1881	345	345	1881	1881	1881	114750000	performance	1866	28	28	26	28	24	23	100	27
1593989179233252392 	0	1877	345	345	1878	1880	1882	114750000	performance	1866	28	28	26	28	24	24	100	27
1593989180818425146	1	1881	345	345	1881	1881	1881	114750000	performance	1866	28	28	26	28	24	23	100	27
1593989180883795508 	0	1889	345	345	1891	1882	1889	114750000	performance	1866	28	28	26	28	24	23	100	27
1593989182487913011	1	1881	345	345	1881	1881	1881	114750000	performance	1866	28	28	26	28	24	23	100	27
1593989182561250747 	0	1843	345	345	1843	1843	1842	114750000	performance	1866	28	28	26	28	24	23	100	27
1593989184185514319	1	1881	345	345	1881	1881	1881	114750000	performance	1866	28	28	26	28	24	23	100	27
1593989184321500482 	0	1881	345	345	1843	1880	1844	114750000	performance	1866	28	28	26	28	24	23	100	27
1593989185964105663	1	1881	345	345	1881	1881	1881	114750000	performance	1866	28	28	26	28	24	24	100	27
1593989186055728529 	0	1879	345	345	1877	1880	1882	114750000	performance	1866	28	28	26	28	24	24	100	27
1593989187759863347	1	1881	345	345	1881	1881	1881	114750000	performance	1866	28	28	26	28	24	23	100	27
1593989187822696862 	0	1886	345	345	1887	1891	1888	114750000	performance	1866	28	28	26	28	24	23	100	27
1593989189407096524	1	1881	345	345	1881	1881	1881	114750000	performance	1866	28	28	26	28	24	24	100	27
1593989189506767468 	0	1880	345	345	1883	1879	1882	114750000	performance	1866	28	28	26	28	24	24	100	27
1593989191128012366	1	1881	345	345	1881	1881	1881	114750000	performance	1866	28	28	26	28	24	24	100	27
1593989191186773154 	0	1879	345	345	1878	1880	1879	114750000	performance	1866	27	27	26	27	24	23	100	27
1593989192802265091	1	1881	345	345	1881	1881	1881	114750000	performance	1866	28	28	26	28	24	23	100	27
1593989192886081864 	0	1885	345	345	1892	1890	1883	114750000	performance	1866	28	28	26	28	24	23	100	27
