TimeStamp,Total Power,CPU Power,GPU Power
1592953366177042,1.601,0.457,0.152
1592953366679158,1.639,0.534,0.152
1592953367181707,1.601,0.457,0.152
1592953367683815,1.753,0.457,0.152
1592953368185797,1.982,0.534,0.152
1592953368687781,2.058,0.457,0.152
1592953369189773,2.02,0.457,0.152
1592953369691836,1.982,0.457,0.152
1592953370193816,1.753,0.534,0.152
1592953370696085,1.677,0.457,0.152
1592953371198161,1.639,0.457,0.152
1592953371700299,1.639,0.457,0.152
1592953372202297,1.639,0.457,0.152
1592953372704334,1.601,0.457,0.152
1592953373206398,1.601,0.457,0.152
1592953373708599,1.639,0.457,0.152
1592953374210590,1.677,0.534,0.152
1592953374724811,1.639,0.457,0.152
1592953375226813,1.601,0.457,0.152
1592953375731781,1.639,0.457,0.152
1592953376233819,1.677,0.534,0.152
1592953376735886,1.639,0.457,0.152
1592953377237885,1.601,0.457,0.152
1592953377739948,1.601,0.457,0.152
1592953378242006,1.639,0.457,0.152
1592953378744158,1.639,0.457,0.152
1592953379246157,1.601,0.457,0.152
1592953379748270,1.792,0.457,0.152
1592953380250312,2.02,0.457,0.152
1592953380755276,2.058,0.457,0.152
1592953381257612,2.058,0.457,0.152
1592953381759812,1.944,0.457,0.152
1592953382261819,1.715,0.457,0.152
1592953382763939,1.639,0.457,0.152
1592953383265900,1.639,0.457,0.152
1592953383767964,1.639,0.534,0.152
1592953384270323,1.639,0.457,0.152
1592953384772423,1.601,0.457,0.152
1592953385274439,1.601,0.457,0.152
1592953385779253,1.792,0.534,0.152
1592953386281899,1.677,0.457,0.152
1592953386783994,1.601,0.457,0.152
1592953387286016,1.601,0.457,0.152
1592953387788341,1.639,0.534,0.152
1592953388290325,1.639,0.457,0.152
1592953388792339,1.601,0.457,0.152
1592953389294346,1.601,0.534,0.152
1592953389796434,1.639,0.534,0.152
1592953390298478,1.639,0.457,0.152
1592953390803528,1.639,0.457,0.152
1592953391305555,1.601,0.457,0.152
1592953391807711,1.83,0.534,0.152
1592953392309795,1.982,0.457,0.152
1592953392812039,2.02,0.457,0.152
1592953393314021,2.02,0.457,0.152
1592953393816146,2.02,0.534,0.152
1592953394318164,1.944,0.457,0.152
1592953394820564,1.792,0.457,0.152
1592953395322540,1.677,0.457,0.152
1592953395827473,1.677,0.534,0.152
1592953396329485,1.601,0.457,0.152
1592953396831511,1.639,0.457,0.152
1592953397333514,1.563,0.457,0.152
