timestamp	VIRTUAL_SCALING	CPU0_F	CPU1_F	CPU2_F	CPU3_F	CPU4_F	CPU5_F	GPU_FREQ	CPU_GOVERNOR	EMC_F	TEMP0	TEMP1	TEMP2	TEMP3	TEMP4	TEMP5	TEMP6	TEMP7
1592953366417195787	1	345	960	960	345	345	345	114750000	performance	665	29	29	28	29	27	25	100	28
1592953366581409417 	0	345	959	959	345	345	345	114750000	performance	665	29	29	28	29	27	25	100	28
1592953368589822537	1	345	960	960	345	345	345	114750000	performance	665	29	29	28	29	27	25	100	28
1592953368966364251 	0	345	960	960	345	345	345	114750000	performance	665	29	29	28	29	27	25	100	28
1592953370929979056	1	345	960	960	345	345	345	114750000	performance	665	29	29	28	29	27	25	100	28
1592953371422456650 	0	345	960	959	345	345	345	114750000	performance	665	29	29	28	29	27	25	100	28
1592953373525379408	1	345	960	960	345	345	345	114750000	performance	665	29	29	28	29	27	25	100	28
1592953373939755127 	0	345	960	960	345	345	345	114750000	performance	665	29	29	28	29	27	25	100	28
1592953375959877595	1	345	960	960	345	345	345	114750000	performance	665	29	29	27	29	27	25	100	28
1592953376359073171 	0	345	960	959	345	345	345	114750000	performance	665	29	29	28	29	27	25	100	28
1592953378355991184	1	345	960	960	345	345	345	114750000	performance	665	29	29	27	29	27	25	100	28
1592953378782175100 	0	345	960	960	345	345	345	114750000	performance	665	29	29	28	29	27	25	100	28
1592953380781773824	1	345	960	960	345	345	345	114750000	performance	665	29	29	27	29	27	25	100	28
1592953381166196075 	0	345	960	960	345	345	346	114750000	performance	665	29	29	28	29	27	25	100	28
1592953383152050852	1	345	960	960	345	345	345	114750000	performance	665	29	29	27	29	27	25	100	28
1592953383530854909 	0	345	960	959	345	345	345	114750000	performance	665	29	29	27	29	27	25	100	28
1592953385576200304	1	345	960	960	345	345	345	114750000	performance	665	29	29	28	29	27	25	100	28
1592953385957749969 	0	345	961	959	345	345	345	114750000	performance	665	29	29	27	29	27	25	100	28
1592953387913708590	1	345	960	960	345	345	345	114750000	performance	665	29	29	27	29	27	25	100	28
1592953388273578956 	0	345	960	959	345	345	345	114750000	performance	665	29	29	27	29	27	25	100	28
1592953390290398118	1	345	960	960	345	345	345	114750000	performance	665	29	29	28	29	27	25	100	28
1592953390675237138 	0	345	960	959	345	345	345	114750000	performance	665	29	29	27	29	27	25	100	28
1592953392683798354	1	345	960	960	345	345	345	114750000	performance	665	29	29	27	29	27	25	100	28
1592953393183635203 	0	345	960	959	345	345	345	114750000	performance	665	29	29	27	29	27	25	100	28
1592953395198870808	1	345	960	960	345	345	345	114750000	performance	665	29	29	27	29	27	25	100	28
1592953395611793179 	0	345	960	959	345	345	345	114750000	performance	665	29	29	27	29	27	25	100	28
1592953397312587680	1	345	960	960	345	345	345	114750000	performance	665	29	29	27	29	27	25	100	28
