timestamp	VIRTUAL_SCALING	CPU0_F	CPU1_F	CPU2_F	CPU3_F	CPU4_F	CPU5_F	GPU_FREQ	CPU_GOVERNOR	EMC_F	TEMP0	TEMP1	TEMP2	TEMP3	TEMP4	TEMP5	TEMP6	TEMP7
1592951365346483716	1	345	1420	1420	345	345	345	114750000	performance	1866	31	31	29	31	29	27	100	30
1592951365656081131 	0	345	1429	1428	345	345	345	114750000	performance	1866	31	31	29	31	29	27	100	30
1592951367649292666	1	345	1420	1420	345	345	345	114750000	performance	1866	31	31	29	31	28	27	100	30
1592951368129319689 	0	345	1422	1421	345	345	345	114750000	performance	1866	31	31	29	31	28	27	100	30
1592951370171842577	1	345	1420	1420	345	345	345	114750000	performance	1866	31	31	29	31	28	27	100	30
1592951370647686365 	0	345	1421	1423	345	345	345	114750000	performance	1866	31	31	29	31	28	27	100	30
1592951372754398336	1	345	1420	1420	345	345	345	114750000	performance	1866	31	31	29	31	28	27	100	30
1592951373257529962 	0	345	1420	1420	345	345	345	114750000	performance	1866	31	31	29	31	28	27	100	30
1592951375305800805	1	345	1420	1420	345	345	345	114750000	performance	1866	31	31	29	31	28	27	100	30
1592951375721272633 	0	345	1421	1418	345	345	345	114750000	performance	1866	31	31	29	31	28	27	100	30
1592951377721507399	1	345	1420	1420	345	345	345	114750000	performance	1866	31	31	29	31	28	27	100	30
1592951378241291168 	0	345	1420	1419	345	345	345	114750000	performance	1866	31	31	29	31	28	27	100	30
1592951380158546511	1	345	1420	1420	345	345	345	114750000	performance	1866	31	31	29	31	28	27	100	30
1592951380338700243 	0	345	1417	1369	345	345	345	114750000	performance	1866	31	31	29	31	28	27	100	30
