timestamp	VIRTUAL_SCALING	CPU0_F	CPU1_F	CPU2_F	CPU3_F	CPU4_F	CPU5_F	GPU_FREQ	CPU_GOVERNOR	EMC_F	TEMP0	TEMP1	TEMP2	TEMP3	TEMP4	TEMP5	TEMP6	TEMP7
1593943453458447297	1	499	1574	1574	499	499	499	114750000	performance	408	24	24	22	24	22	20	100	23
/home/jetsonuob/Projects/iperfect/tools/check_temp.sh: line 105: <unknown>/1000: syntax error: operand expected (error token is "<unknown>/1000")
