TimeStamp,Total Power,CPU Power,GPU Power
1592835301503099,3.048,0.838,0.152
1592835302004876,1.868,0.534,0.152
1592835302506502,1.486,0.457,0.152
1592835303008042,1.334,0.457,0.152
1592835303509686,1.334,0.457,0.152
1592835304011328,1.334,0.457,0.152
1592835304516129,1.296,0.457,0.152
1592835305018049,1.296,0.457,0.152
1592835305519726,1.334,0.457,0.152
1592835306021388,1.296,0.457,0.152
1592835306522988,1.334,0.457,0.152
1592835307024657,1.296,0.457,0.152
1592835307526256,1.334,0.457,0.152
1592835308027923,1.334,0.457,0.152
1592835308529503,1.296,0.457,0.152
1592835309031042,1.296,0.457,0.152
1592835309535044,1.334,0.457,0.152
1592835310036761,1.334,0.457,0.152
1592835310538332,1.296,0.457,0.152
1592835311039814,1.296,0.457,0.152
1592835311541461,1.296,0.457,0.152
1592835312043112,1.334,0.457,0.152
1592835312544863,1.334,0.457,0.152
1592835313046392,1.296,0.457,0.152
1592835313548042,1.296,0.457,0.152
1592835314049763,1.334,0.457,0.152
1592835314554016,1.296,0.457,0.152
1592835315055603,1.296,0.457,0.152
1592835315557107,1.296,0.457,0.152
1592835316058780,1.372,0.457,0.152
1592835316560431,1.372,0.457,0.152
1592835317062013,1.334,0.457,0.152
1592835317563565,1.296,0.457,0.152
1592835318065692,1.334,0.457,0.152
1592835318567344,1.334,0.457,0.152
1592835319068983,1.296,0.457,0.152
1592835319573120,1.296,0.457,0.152
1592835320074721,1.334,0.457,0.152
1592835320576471,1.296,0.457,0.152
1592835321078052,1.296,0.457,0.152
1592835321579582,1.296,0.457,0.152
1592835322081271,1.296,0.457,0.152
1592835322582933,1.334,0.457,0.152
1592835323084577,1.296,0.457,0.152
1592835323586111,1.296,0.457,0.152
1592835324087744,1.334,0.457,0.152
1592835324591963,1.372,0.457,0.152
1592835325093599,1.334,0.457,0.152
1592835325595192,1.334,0.457,0.152
1592835326097233,1.296,0.457,0.152
1592835326598920,1.334,0.457,0.152
1592835327100579,1.296,0.457,0.152
1592835327602139,1.296,0.457,0.152
1592835328103622,1.296,0.457,0.152
1592835328605738,1.334,0.457,0.152
1592835329107385,1.296,0.457,0.152
1592835329611818,1.296,0.457,0.152
1592835330113347,1.296,0.457,0.152
1592835330614955,1.334,0.457,0.152
1592835331116624,1.296,0.457,0.152
1592835331618195,1.296,0.457,0.152
1592835332119688,1.296,0.457,0.152
1592835332621313,1.334,0.457,0.152
1592835333122974,1.296,0.457,0.152
1592835333624566,1.296,0.457,0.152
1592835334126086,1.296,0.457,0.152
1592835334630308,1.334,0.457,0.152
1592835335131942,1.372,0.457,0.152
1592835335633516,1.296,0.457,0.152
1592835336135033,1.296,0.457,0.152
1592835336636712,1.334,0.457,0.152
1592835337138361,1.334,0.457,0.152
1592835337639922,1.296,0.457,0.152
1592835338141444,1.296,0.457,0.152
1592835338643013,1.296,0.457,0.152
1592835339144681,1.334,0.457,0.152
1592835339648181,1.296,0.457,0.152
1592835340149651,1.296,0.457,0.152
1592835340651237,1.296,0.457,0.152
1592835341152889,1.334,0.457,0.152
1592835341654506,1.296,0.457,0.152
1592835342156101,1.296,0.457,0.152
1592835342657641,1.296,0.457,0.152
1592835343159234,1.334,0.457,0.152
1592835343660882,1.296,0.457,0.152
1592835344162451,1.296,0.457,0.152
1592835344666474,1.296,0.457,0.152
1592835345168060,1.334,0.457,0.152
1592835345669758,1.41,0.457,0.152
1592835346171374,1.334,0.457,0.152
1592835346672879,1.296,0.457,0.152
1592835347174442,1.372,0.457,0.152
1592835347676124,1.334,0.457,0.152
1592835348177674,1.296,0.457,0.152
1592835348679200,1.296,0.457,0.152
1592835349180874,1.334,0.457,0.152
1592835349685149,1.334,0.457,0.152
1592835350186780,1.334,0.457,0.152
1592835350688328,1.296,0.457,0.152
1592835351189899,1.334,0.457,0.152
1592835351691546,1.334,0.457,0.152
1592835352193128,1.296,0.457,0.152
1592835352694620,1.296,0.457,0.152
1592835353196167,1.296,0.457,0.152
1592835353697892,1.334,0.457,0.152
1592835354199477,1.296,0.457,0.152
1592835354703504,1.296,0.457,0.152
1592835355205161,1.296,0.457,0.152
1592835355706824,1.334,0.457,0.152
1592835356208467,1.296,0.457,0.152
1592835356710012,1.296,0.457,0.152
1592835357211479,1.296,0.457,0.152
1592835357713075,1.296,0.457,0.152
1592835358214713,1.296,0.457,0.152
1592835358716486,1.296,0.457,0.152
1592835359217977,1.296,0.457,0.152
1592835359722079,1.334,0.457,0.152
1592835360223727,1.334,0.457,0.152
1592835360725312,1.334,0.457,0.152
1592835361226820,1.296,0.457,0.152
1592835361728407,1.334,0.457,0.152
