TimeStamp,Total Power,CPU Power,GPU Power
1593985449877825,4.645,1.98,0.152
1593985450379128,3.695,1.143,0.152
1593985450880414,3.276,0.686,0.152
1593985451381778,4.152,1.6,0.152
1593985451883408,4.645,1.98,0.152
1593985452384936,4.721,2.133,0.152
1593985452886537,4.76,2.133,0.152
1593985453387943,4.721,2.057,0.152
1593985453889327,4.76,2.133,0.152
1593985454391010,4.798,2.133,0.152
1593985454892899,4.721,2.133,0.152
1593985455394600,4.607,1.98,0.152
1593985455895883,4.457,1.828,0.152
1593985456397534,4.457,1.904,0.152
1593985456900723,4.495,1.904,0.152
1593985457402468,4.495,1.904,0.152
1593985457904322,4.495,1.904,0.152
1593985458405827,4.419,1.828,0.152
1593985458907588,4.533,1.904,0.152
1593985459409311,4.495,1.904,0.152
1593985459911061,4.457,1.828,0.152
1593985460413153,4.533,1.904,0.152
1593985460914437,4.495,1.904,0.152
1593985461415725,4.381,1.828,0.152
1593985461917016,4.419,1.828,0.152
1593985462418273,4.533,1.904,0.152
1593985462919830,4.457,1.828,0.152
1593985463421126,4.419,1.828,0.152
1593985463923464,4.457,1.828,0.152
1593985464424733,4.457,1.828,0.152
1593985464926014,4.457,1.828,0.152
1593985465429639,4.419,1.828,0.152
1593985465931381,4.495,1.904,0.152
1593985466433153,4.457,1.904,0.152
1593985466934866,4.419,1.828,0.152
1593985467436269,4.533,1.904,0.152
1593985467937921,4.495,1.904,0.152
1593985468439722,4.381,1.828,0.152
1593985468941478,4.419,1.828,0.152
1593985469442939,4.457,1.828,0.152
1593985469944600,4.419,1.828,0.152
1593985470446320,4.419,1.828,0.152
1593985470947777,4.533,1.904,0.152
1593985471449439,4.419,1.828,0.152
1593985471950743,4.419,1.828,0.152
1593985472452043,4.457,1.828,0.152
1593985472953748,4.607,2.057,0.152
1593985473455025,4.607,1.98,0.152
1593985473956277,4.457,1.904,0.152
1593985474457532,4.571,1.904,0.152
1593985474958765,4.533,1.904,0.152
1593985475463130,4.457,1.828,0.152
1593985475964386,4.419,1.828,0.152
1593985476465629,4.419,1.828,0.152
1593985476966889,4.419,1.828,0.152
1593985477468140,4.419,1.828,0.152
1593985477969401,4.533,1.904,0.152
1593985478470692,4.495,1.904,0.152
1593985478971980,4.495,1.904,0.152
1593985479473314,4.609,1.98,0.152
1593985479974615,4.645,1.98,0.152
1593985480477965,4.609,1.98,0.152
1593985480979234,4.533,1.904,0.152
1593985481480495,4.76,2.057,0.152
1593985481981768,4.531,1.904,0.152
1593985482483051,4.533,1.904,0.152
1593985482984724,4.607,1.98,0.152
1593985483486026,4.683,2.057,0.152
1593985483987346,4.569,1.98,0.152
1593985484488595,4.569,1.98,0.152
1593985484989890,4.76,2.133,0.152
1593985485491204,4.569,1.98,0.152
1593985485992508,4.607,1.98,0.152
1593985486493820,4.533,1.904,0.152
1593985486995107,4.645,1.98,0.152
1593985487496357,4.874,1.98,0.152
1593985487997604,4.912,1.904,0.152
1593985488498900,5.064,2.057,0.152
1593985489000193,4.798,1.98,0.152
1593985489501453,4.569,1.904,0.152
1593985490002743,4.607,1.98,0.152
1593985490504071,4.569,1.904,0.152
1593985491005354,4.571,1.98,0.152
1593985491506668,4.495,1.904,0.152
1593985492007964,4.645,2.057,0.152
1593985492509237,4.569,1.98,0.152
1593985493010548,4.495,1.904,0.152
1593985493512809,4.569,1.98,0.152
1593985494014070,4.645,1.98,0.152
1593985494515315,4.533,1.904,0.152
1593985495016583,4.533,1.904,0.152
1593985495517905,4.645,1.98,0.152
1593985496019178,4.533,1.904,0.152
1593985496520486,4.533,1.904,0.152
1593985497021720,4.645,2.057,0.152
1593985497523018,4.645,2.057,0.152
1593985498024296,4.533,1.98,0.152
1593985498525560,4.607,1.98,0.152
1593985499026835,4.645,2.057,0.152
1593985499528146,4.495,1.904,0.152
1593985500029439,4.495,1.904,0.152
1593985500530692,4.683,2.057,0.152
1593985501031988,4.607,1.98,0.152
1593985501533346,4.533,1.904,0.152
1593985502034636,4.533,1.904,0.152
1593985502536110,4.721,2.057,0.152
1593985503037381,4.607,1.98,0.152
1593985503538668,4.607,1.98,0.152
1593985504039998,4.683,2.057,0.152
1593985504541290,4.607,1.98,0.152
1593985505042562,4.569,1.98,0.152
1593985505543839,4.533,1.98,0.152
1593985506045130,4.569,1.98,0.152
1593985506546443,4.533,1.904,0.152
1593985507047712,4.531,1.98,0.152
1593985507548953,4.683,2.057,0.152
1593985508050221,4.607,1.98,0.152
1593985508551550,4.533,1.904,0.152
1593985509052804,4.721,2.133,0.152
1593985509554069,4.912,2.285,0.152
1593985510055380,4.874,2.285,0.152
1593985510556636,4.874,2.209,0.152
1593985511057938,4.95,2.285,0.152
1593985511559238,4.798,2.133,0.152
1593985512060578,4.607,1.98,0.152
1593985512561846,4.569,1.98,0.152
1593985513063127,4.533,1.904,0.152
1593985513564360,4.457,1.828,0.152
1593985514065646,4.342,1.752,0.152
1593985514566888,4.533,1.904,0.152
1593985515068188,4.419,1.828,0.152
1593985515569478,4.419,1.828,0.152
1593985516070810,4.419,1.828,0.152
1593985516572086,4.457,1.828,0.152
1593985517073367,4.419,1.828,0.152
1593985517574660,4.419,1.828,0.152
1593985518075933,4.457,1.828,0.152
1593985518577286,4.381,1.828,0.152
1593985519078519,4.457,1.828,0.152
1593985519579781,4.571,1.98,0.152
1593985520081074,4.495,1.904,0.152
1593985520582372,4.495,1.904,0.152
1593985521086019,4.457,1.828,0.152
1593985521587326,4.495,1.828,0.152
1593985522088600,4.419,1.828,0.152
1593985522589888,4.419,1.828,0.152
1593985523091211,4.495,1.904,0.152
1593985523592453,4.495,1.904,0.152
1593985524093747,4.457,1.828,0.152
1593985524595005,4.457,1.828,0.152
1593985525096289,4.495,1.904,0.152
1593985525597554,4.457,1.828,0.152
1593985526101028,4.381,1.828,0.152
1593985526602269,4.495,1.904,0.152
1593985527103559,4.457,1.828,0.152
1593985527604827,4.457,1.828,0.152
1593985528106072,4.457,1.828,0.152
1593985528607344,4.457,1.904,0.152
1593985529108633,4.381,1.828,0.152
1593985529609959,4.342,1.752,0.152
1593985530111233,4.533,1.904,0.152
1593985530612524,4.419,1.828,0.152
1593985531116054,4.419,1.828,0.152
1593985531617345,4.495,1.828,0.152
1593985532118583,4.457,1.828,0.152
1593985532619830,4.419,1.828,0.152
1593985533121131,4.457,1.828,0.152
1593985533622403,4.495,1.904,0.152
1593985534123707,4.381,1.828,0.152
1593985534624969,4.457,1.828,0.152
1593985535126234,4.533,1.904,0.152
1593985535627543,4.495,1.904,0.152
1593985536130822,4.569,1.98,0.152
1593985536632084,4.457,1.904,0.152
1593985537133360,4.457,1.904,0.152
1593985537634683,4.495,1.904,0.152
1593985538135965,4.419,1.828,0.152
1593985538637230,4.533,1.904,0.152
1593985539138513,4.419,1.828,0.152
1593985539639799,4.457,1.904,0.152
1593985540141033,4.495,1.904,0.152
1593985540644024,4.495,1.904,0.152
1593985541145292,4.533,1.904,0.152
1593985541646557,4.533,1.98,0.152
1593985542147865,4.533,1.904,0.152
1593985542649138,4.495,1.904,0.152
1593985543150384,4.457,1.828,0.152
1593985543651703,4.495,1.904,0.152
1593985544152971,4.495,1.904,0.152
1593985544654287,4.419,1.828,0.152
1593985545155547,4.419,1.828,0.152
1593985545656814,4.457,1.828,0.152
1593985546160116,4.419,1.828,0.152
1593985546661396,4.419,1.828,0.152
1593985547162678,4.533,1.904,0.152
1593985547664019,4.457,1.904,0.152
1593985548165309,4.381,1.828,0.152
1593985548666579,4.419,1.828,0.152
1593985549167916,4.457,1.828,0.152
1593985549669171,4.419,1.828,0.152
1593985550170465,4.609,1.828,0.152
1593985550671792,4.912,1.904,0.152
1593985551174656,4.874,1.904,0.152
1593985551679799,4.836,1.828,0.152
1593985552181078,4.607,1.904,0.152
1593985552682378,4.533,1.904,0.152
1593985553183692,4.457,1.828,0.152
1593985553684939,4.381,1.828,0.152
1593985554186213,4.533,1.904,0.152
1593985554687498,4.457,1.828,0.152
1593985555188780,4.457,1.828,0.152
1593985555690031,4.493,1.904,0.152
1593985556191287,4.457,1.828,0.152
1593985556692614,4.457,1.828,0.152
1593985557193870,4.419,1.828,0.152
1593985557695114,4.457,1.828,0.152
1593985558196404,4.457,1.904,0.152
1593985558697681,4.419,1.828,0.152
1593985559198959,4.533,1.904,0.152
1593985559700226,4.457,1.828,0.152
1593985560201515,4.533,1.904,0.152
1593985560702752,4.495,1.904,0.152
1593985561204073,4.533,1.904,0.152
1593985561705319,4.495,1.904,0.152
1593985562206567,4.419,1.828,0.152
1593985562707802,4.533,1.904,0.152
1593985563209061,4.457,1.828,0.152
1593985563710321,4.381,1.828,0.152
1593985564211627,4.457,1.904,0.152
1593985564712896,4.495,1.904,0.152
1593985565214206,4.419,1.828,0.152
1593985565715552,4.457,1.828,0.152
1593985566218880,4.571,1.904,0.152
1593985566720129,4.419,1.828,0.152
1593985567221432,4.419,1.828,0.152
1593985567722748,4.457,1.828,0.152
1593985568224055,4.457,1.828,0.152
1593985568725335,4.419,1.828,0.152
1593985569227007,4.457,1.828,0.152
1593985569728293,4.457,1.828,0.152
1593985570229605,4.419,1.828,0.152
1593985570730894,4.457,1.828,0.152
1593985571232176,4.571,1.904,0.152
1593985571733442,4.495,1.904,0.152
1593985572234708,4.495,1.904,0.152
1593985572735987,4.457,1.828,0.152
1593985573237247,4.495,1.904,0.152
1593985573738605,4.457,1.828,0.152
1593985574239915,4.419,1.828,0.152
1593985574741173,4.495,1.828,0.152
1593985575242463,4.495,1.904,0.152
1593985575743815,4.419,1.828,0.152
1593985576247133,4.419,1.828,0.152
1593985576748451,4.457,1.904,0.152
1593985577249733,4.457,1.828,0.152
1593985577751052,4.342,1.752,0.152
1593985578252351,4.495,1.828,0.152
1593985578753581,4.457,1.904,0.152
1593985579254859,4.419,1.828,0.152
1593985579756158,4.419,1.828,0.152
1593985580257440,4.457,1.828,0.152
1593985580758729,4.457,1.828,0.152
1593985581262163,4.419,1.828,0.152
1593985581763587,4.495,1.904,0.152
1593985582264883,4.419,1.828,0.152
1593985582766154,4.381,1.828,0.152
1593985583267483,4.495,1.904,0.152
1593985583768747,4.457,1.828,0.152
1593985584270025,4.457,1.828,0.152
1593985584771282,4.419,1.828,0.152
1593985585272619,4.495,1.828,0.152
1593985585773880,4.495,1.904,0.152
1593985586275246,4.495,1.904,0.152
1593985586776711,4.569,1.98,0.152
1593985587278023,4.457,1.828,0.152
1593985587779368,4.381,1.828,0.152
1593985588280614,4.457,1.828,0.152
1593985588781867,4.457,1.828,0.152
1593985589283120,4.457,1.828,0.152
1593985589784448,4.419,1.828,0.152
1593985590285703,4.533,1.904,0.152
1593985590786987,4.457,1.904,0.152
1593985591288232,4.495,1.904,0.152
1593985591789537,4.495,1.904,0.152
1593985592290850,4.495,1.904,0.152
1593985592792112,4.419,1.828,0.152
1593985593293381,4.457,1.828,0.152
1593985593794656,4.495,1.828,0.152
1593985594295931,4.457,1.828,0.152
1593985594797263,4.419,1.828,0.152
1593985595298554,4.495,1.904,0.152
1593985595799831,4.495,1.904,0.152
1593985596301109,4.607,1.98,0.152
1593985596802406,4.533,1.98,0.152
1593985597303692,4.533,1.904,0.152
1593985597804975,4.457,1.828,0.152
1593985598306246,4.457,1.828,0.152
1593985598807526,4.533,1.904,0.152
1593985599308863,4.457,1.828,0.152
1593985599810164,4.457,1.828,0.152
1593985600311429,4.495,1.904,0.152
1593985600812718,4.419,1.828,0.152
1593985601313957,4.495,1.904,0.152
1593985601816321,4.457,1.904,0.152
1593985602317565,4.607,1.98,0.152
1593985602818830,4.457,1.828,0.152
1593985603320246,4.419,1.828,0.152
1593985603821510,4.495,1.904,0.152
1593985604322827,4.457,1.828,0.152
1593985604824190,4.457,1.828,0.152
1593985605325473,4.457,1.828,0.152
1593985605826727,4.457,1.904,0.152
1593985606328013,4.495,1.904,0.152
1593985606829276,4.571,1.98,0.152
1593985607330567,4.607,1.98,0.152
1593985607831997,4.457,1.828,0.152
1593985608333303,4.419,1.828,0.152
1593985608834583,4.419,1.828,0.152
1593985609335911,4.457,1.828,0.152
1593985609837151,4.457,1.828,0.152
1593985610338441,4.419,1.828,0.152
1593985610839780,4.571,1.904,0.152
1593985611341058,4.495,1.904,0.152
1593985611842340,4.607,1.98,0.152
1593985612346722,4.645,2.057,0.152
1593985612848001,4.76,2.133,0.152
1593985613349261,5.026,2.133,0.152
1593985613850551,5.14,2.132,0.152
1593985614351878,5.216,2.132,0.152
1593985614853162,5.064,2.209,0.152
1593985615354421,4.836,2.133,0.152
1593985615855788,4.76,2.133,0.152
1593985616357097,4.76,2.133,0.152
1593985616860628,4.798,2.133,0.152
1593985617361891,4.76,2.133,0.152
1593985617863157,4.76,2.133,0.152
1593985618364452,4.76,2.133,0.152
1593985618865707,4.721,2.133,0.152
1593985619366986,4.798,2.133,0.152
1593985619868227,4.798,2.209,0.152
1593985620369495,4.76,2.133,0.152
1593985620870717,4.76,2.133,0.152
1593985621372072,4.798,2.133,0.152
1593985621875530,4.683,2.057,0.152
1593985622376813,4.683,2.057,0.152
1593985622878075,4.721,2.133,0.152
1593985623379369,4.76,2.133,0.152
1593985623880712,4.721,2.133,0.152
1593985624381976,4.76,2.133,0.152
1593985624883276,4.836,2.209,0.152
1593985625384611,4.721,2.133,0.152
1593985625885885,4.607,1.98,0.152
1593985626387130,4.495,1.904,0.152
1593985626888536,4.495,1.904,0.152
1593985627389821,4.457,1.828,0.152
1593985627891080,4.342,1.752,0.152
1593985628392345,4.533,1.904,0.152
1593985628893599,4.495,1.904,0.152
1593985629394848,4.457,1.828,0.152
1593985629896493,4.419,1.828,0.152
1593985630397725,4.609,1.98,0.152
1593985630899005,4.533,1.904,0.152
1593985631400375,4.419,1.828,0.152
1593985631901681,4.533,1.904,0.152
1593985632402940,4.457,1.828,0.152
1593985632904290,4.419,1.828,0.152
1593985633405529,4.495,1.904,0.152
1593985633906781,4.495,1.904,0.152
1593985634408062,4.419,1.828,0.152
1593985634909297,4.419,1.828,0.152
1593985635410567,4.533,1.904,0.152
1593985635911901,4.533,1.98,0.152
1593985636413173,4.457,1.828,0.152
1593985636914444,4.495,1.904,0.152
1593985637415735,4.495,1.904,0.152
1593985637917022,4.457,1.828,0.152
1593985638419084,4.381,1.828,0.152
1593985638920370,4.533,1.904,0.152
1593985639421613,4.457,1.828,0.152
1593985639922903,4.457,1.904,0.152
1593985640427239,4.645,1.98,0.152
1593985640928698,4.533,1.904,0.152
1593985641429990,4.419,1.828,0.152
1593985641931286,4.419,1.828,0.152
1593985642432619,4.495,1.828,0.152
1593985642933898,4.457,1.904,0.152
1593985643435187,4.419,1.828,0.152
1593985643936433,4.495,1.828,0.152
1593985644437723,4.495,1.904,0.152
1593985644939021,4.381,1.828,0.152
1593985645440293,4.381,1.828,0.152
1593985645941566,4.495,1.904,0.152
1593985646442856,4.569,1.98,0.152
1593985646945328,4.533,1.904,0.152
1593985647446574,4.571,1.904,0.152
1593985647947839,4.495,1.904,0.152
1593985648449143,4.419,1.828,0.152
1593985648950839,4.457,1.828,0.152
1593985649452122,4.457,1.828,0.152
1593985649953378,4.419,1.828,0.152
1593985650454757,4.381,1.828,0.152
1593985650956111,4.495,1.904,0.152
1593985651457412,4.419,1.828,0.152
1593985651958690,4.571,1.98,0.152
1593985652462394,4.721,2.057,0.152
1593985652963731,4.683,2.057,0.152
1593985653465056,4.569,1.98,0.152
1593985653966711,4.533,1.904,0.152
1593985654468225,4.607,1.98,0.152
1593985654969960,4.533,1.98,0.152
1593985655471730,4.569,1.98,0.152
1593985655973128,4.721,2.133,0.152
1593985656474702,4.533,1.98,0.152
1593985656975987,4.607,1.98,0.152
1593985657477344,4.533,1.98,0.152
1593985657978636,4.607,1.98,0.152
1593985658479940,4.607,1.98,0.152
1593985658981199,4.571,1.98,0.152
1593985659482488,4.721,2.057,0.152
1593985659984058,4.569,1.98,0.152
1593985660485304,4.569,1.98,0.152
1593985660986603,4.533,1.98,0.152
1593985661487892,4.645,2.057,0.152
1593985661989189,4.607,1.98,0.152
1593985662490471,4.607,1.98,0.152
1593985662991747,4.683,2.057,0.152
1593985663492983,4.569,1.98,0.152
1593985663994619,4.533,1.904,0.152
1593985664495895,4.569,1.98,0.152
1593985664997153,4.607,1.98,0.152
1593985665498403,4.569,1.98,0.152
1593985665999691,4.533,1.98,0.152
1593985666500951,4.721,2.057,0.152
1593985667002233,4.569,1.98,0.152
1593985667503537,4.571,1.98,0.152
1593985668004872,4.645,1.98,0.152
1593985668506149,4.683,2.057,0.152
1593985669007444,4.569,1.98,0.152
1593985669508716,4.571,1.98,0.152
