TimeStamp,Total Power,CPU Power,GPU Power
1593969352360695,4.076,1.447,0.152
1593969352862742,3.125,0.609,0.152
1593969353364505,3.428,0.914,0.152
1593969353866241,3.619,1.067,0.152
1593969354368249,4.266,1.676,0.152
1593969354871744,5.102,2.513,0.152
1593969355373503,5.293,2.665,0.152
1593969355875363,5.369,2.741,0.152
1593969356377133,5.369,2.741,0.152
1593969356879029,5.369,2.817,0.152
1593969357380890,5.331,2.741,0.152
1593969357882631,5.407,2.817,0.152
1593969358385915,5.369,2.741,0.152
1593969358887462,5.407,2.741,0.152
1593969359389370,5.673,2.817,0.152
1593969359891190,5.788,2.817,0.152
1593969360393166,5.864,2.817,0.152
1593969360904041,5.712,2.817,0.152
1593969361405840,5.521,2.817,0.152
1593969361907710,5.445,2.741,0.152
1593969362409406,5.445,2.817,0.152
1593969362911412,5.407,2.817,0.152
1593969363413197,5.445,2.817,0.152
1593969363915123,5.483,2.817,0.152
1593969364416897,5.445,2.817,0.152
1593969364918755,5.369,2.741,0.152
1593969365420587,5.331,2.741,0.152
1593969365922554,5.331,2.741,0.152
1593969366424616,5.369,2.741,0.152
1593969366926229,5.369,2.741,0.152
1593969367428068,5.369,2.741,0.152
1593969367929898,5.407,2.741,0.152
1593969368431678,5.369,2.741,0.152
1593969368933469,5.331,2.741,0.152
1593969369435210,5.293,2.665,0.152
1593969369937273,5.331,2.741,0.152
1593969370439064,5.331,2.741,0.152
1593969370940885,5.331,2.741,0.152
1593969371442644,5.331,2.741,0.152
1593969371944684,5.369,2.741,0.152
1593969372446448,5.369,2.741,0.152
1593969372948269,5.331,2.741,0.152
1593969373450079,5.293,2.665,0.152
1593969373952065,5.369,2.741,0.152
1593969374453838,5.331,2.741,0.152
1593969374955634,5.331,2.741,0.152
1593969375457534,5.369,2.741,0.152
1593969375959547,5.407,2.741,0.152
1593969376461327,5.331,2.741,0.152
1593969376963074,5.331,2.665,0.152
1593969377464876,5.369,2.741,0.152
1593969377966656,5.331,2.741,0.152
1593969378468719,5.293,2.665,0.152
1593969378970632,5.331,2.741,0.152
1593969379473307,5.331,2.741,0.152
1593969379975094,5.331,2.741,0.152
1593969380476849,5.331,2.741,0.152
1593969380978626,5.369,2.741,0.152
1593969381480606,5.369,2.741,0.152
1593969381982460,5.331,2.665,0.152
1593969382484224,5.331,2.741,0.152
1593969382985950,5.293,2.665,0.152
1593969383487728,5.331,2.741,0.152
1593969383989579,5.331,2.741,0.152
1593969384491519,5.331,2.741,0.152
1593969384993415,5.331,2.741,0.152
1593969385495191,5.369,2.741,0.152
1593969385997041,5.369,2.741,0.152
1593969386498803,5.293,2.665,0.152
1593969387004469,5.293,2.665,0.152
1593969387506370,5.331,2.741,0.152
1593969388011783,5.331,2.741,0.152
1593969388513546,5.331,2.741,0.152
1593969389015506,5.407,2.741,0.152
1593969389517296,5.369,2.741,0.152
1593969390019014,5.331,2.665,0.152
1593969390520739,5.331,2.665,0.152
1593969391022640,5.331,2.741,0.152
1593969391524429,5.331,2.665,0.152
1593969392026247,5.293,2.665,0.152
1593969392528196,5.331,2.741,0.152
1593969393032590,5.407,2.741,0.152
1593969393534417,5.369,2.741,0.152
1593969394036219,5.369,2.741,0.152
1593969394538127,5.407,2.741,0.152
1593969395040033,5.407,2.741,0.152
1593969395541789,5.331,2.741,0.152
1593969396043623,5.331,2.665,0.152
1593969396545525,5.331,2.665,0.152
1593969397047279,5.369,2.741,0.152
1593969397549191,5.331,2.665,0.152
1593969398053386,5.331,2.665,0.152
1593969398555488,5.445,2.741,0.152
1593969399057119,5.445,2.817,0.152
1593969399558888,5.407,2.817,0.152
1593969400060848,5.445,2.817,0.152
1593969400562859,5.483,2.817,0.152
1593969401064638,5.445,2.817,0.152
1593969401566404,5.445,2.817,0.152
1593969402068186,5.445,2.817,0.152
1593969402569921,5.483,2.817,0.152
1593969403074991,5.445,2.817,0.152
1593969403576802,5.483,2.817,0.152
1593969404078738,5.445,2.817,0.152
1593969404580736,5.407,2.817,0.152
1593969405082605,5.369,2.741,0.152
1593969405584408,5.483,2.817,0.152
1593969406086271,5.445,2.817,0.152
1593969406588247,5.407,2.817,0.152
1593969407090205,5.407,2.817,0.152
1593969407592056,5.369,2.741,0.152
1593969408096513,5.407,2.817,0.152
1593969408598444,5.407,2.741,0.152
1593969409100247,5.445,2.817,0.152
1593969409602005,5.407,2.817,0.152
1593969410103823,5.445,2.817,0.152
1593969410605689,5.445,2.817,0.152
1593969411107513,5.445,2.817,0.152
1593969411609396,5.445,2.817,0.152
1593969412111410,5.445,2.817,0.152
1593969412613187,5.445,2.817,0.152
1593969413117466,5.407,2.817,0.152
1593969413619713,5.407,2.817,0.152
1593969414121496,5.407,2.817,0.152
1593969414623276,5.331,2.741,0.152
1593969415125183,5.369,2.741,0.152
1593969415627024,5.407,2.817,0.152
1593969416129283,5.407,2.817,0.152
1593969416631048,5.369,2.741,0.152
1593969417132823,5.369,2.741,0.152
1593969417634725,5.445,2.817,0.152
1593969418139506,5.445,2.817,0.152
1593969418641329,5.445,2.817,0.152
1593969419143056,5.445,2.817,0.152
1593969419645377,5.483,2.817,0.152
1593969420147173,5.483,2.817,0.152
1593969420648989,5.445,2.817,0.152
1593969421150967,5.445,2.817,0.152
1593969421664769,5.521,2.894,0.152
1593969422166545,5.635,2.817,0.152
1593969422668612,5.788,2.817,0.152
1593969423174903,5.864,2.817,0.152
1593969423695426,5.826,2.817,0.152
1593969424197222,5.559,2.817,0.152
1593969424699017,5.445,2.817,0.152
1593969425201225,5.369,2.741,0.152
1593969425703008,5.369,2.741,0.152
1593969426205366,5.369,2.741,0.152
1593969426707158,5.369,2.741,0.152
1593969427209240,5.407,2.817,0.152
1593969427711016,5.369,2.741,0.152
1593969428215684,5.369,2.741,0.152
1593969428717441,5.369,2.741,0.152
1593969429219228,5.369,2.741,0.152
1593969429721550,5.369,2.741,0.152
1593969430223423,5.331,2.741,0.152
1593969430725267,5.331,2.741,0.152
1593969431227057,5.331,2.741,0.152
1593969431728897,5.331,2.741,0.152
1593969432230671,5.369,2.741,0.152
1593969432732714,5.407,2.741,0.152
1593969433237555,5.407,2.741,0.152
1593969433739390,5.369,2.741,0.152
1593969434241191,5.331,2.741,0.152
1593969434743054,5.369,2.741,0.152
1593969435244941,5.331,2.741,0.152
1593969435746721,5.293,2.665,0.152
1593969436251276,5.293,2.665,0.152
1593969436753339,5.407,2.741,0.152
1593969437255172,5.331,2.741,0.152
1593969437757240,5.331,2.741,0.152
1593969438262078,5.407,2.741,0.152
1593969438763879,5.407,2.741,0.152
1593969439265712,5.369,2.741,0.152
1593969439767561,5.331,2.741,0.152
1593969440269544,5.407,2.741,0.152
1593969440771285,5.407,2.741,0.152
1593969441273496,5.331,2.741,0.152
1593969441775244,5.331,2.665,0.152
1593969442277924,5.369,2.741,0.152
1593969442779710,5.369,2.741,0.152
1593969443284090,5.369,2.741,0.152
1593969443785792,5.331,2.741,0.152
1593969444287764,5.407,2.741,0.152
1593969444789607,5.369,2.741,0.152
1593969445291408,5.369,2.741,0.152
1593969445793365,5.369,2.741,0.152
1593969446295289,5.369,2.741,0.152
1593969446797223,5.331,2.741,0.152
1593969447299140,5.331,2.741,0.152
1593969447800944,5.331,2.741,0.152
1593969448305305,5.369,2.741,0.152
1593969448807022,5.369,2.741,0.152
1593969449308838,5.369,2.741,0.152
1593969449810765,5.407,2.741,0.152
1593969450312784,5.369,2.741,0.152
1593969450814720,5.369,2.741,0.152
1593969451316639,5.369,2.741,0.152
1593969451820155,5.369,2.741,0.152
1593969452321929,5.331,2.665,0.152
1593969452823742,5.331,2.741,0.152
1593969453328230,5.331,2.741,0.152
1593969453830017,5.369,2.741,0.152
1593969454332082,5.369,2.741,0.152
1593969454833852,5.369,2.741,0.152
1593969455336076,5.369,2.741,0.152
1593969455837988,5.369,2.741,0.152
1593969456339890,5.407,2.817,0.152
1593969456841715,5.369,2.741,0.152
1593969457343775,5.369,2.741,0.152
1593969457845622,5.369,2.741,0.152
1593969458350000,5.331,2.741,0.152
1593969458851738,5.293,2.665,0.152
1593969459353686,5.369,2.741,0.152
1593969459855482,5.331,2.741,0.152
1593969460357234,5.331,2.741,0.152
1593969460859041,5.293,2.665,0.152
1593969461361295,5.369,2.741,0.152
1593969461863090,5.369,2.741,0.152
1593969462364808,5.331,2.741,0.152
1593969462866555,5.331,2.741,0.152
1593969463371179,5.407,2.741,0.152
1593969463873105,5.369,2.741,0.152
1593969464374869,5.369,2.741,0.152
1593969464876813,5.369,2.741,0.152
1593969465378830,5.407,2.741,0.152
1593969465880609,5.369,2.741,0.152
1593969466382390,5.331,2.741,0.152
1593969466884247,5.331,2.741,0.152
1593969467386131,5.369,2.741,0.152
1593969467887899,5.331,2.741,0.152
1593969468392886,5.369,2.741,0.152
1593969468896678,5.369,2.741,0.152
1593969469398532,5.369,2.741,0.152
1593969469900331,5.369,2.741,0.152
1593969470402142,5.369,2.741,0.152
1593969470904097,5.407,2.741,0.152
1593969471405940,5.331,2.741,0.152
1593969471908042,5.331,2.741,0.152
1593969472409837,5.331,2.741,0.152
1593969472912068,5.407,2.817,0.152
1593969473416370,5.331,2.741,0.152
1593969473918213,5.369,2.741,0.152
1593969474421817,5.369,2.741,0.152
1593969474923686,5.369,2.741,0.152
1593969475425477,5.369,2.741,0.152
1593969475927182,5.331,2.741,0.152
1593969476429487,5.369,2.741,0.152
1593969476931574,5.369,2.741,0.152
1593969477433334,5.331,2.741,0.152
1593969477935073,5.331,2.665,0.152
1593969478437024,5.331,2.741,0.152
1593969478938828,5.331,2.741,0.152
1593969479440627,5.331,2.741,0.152
1593969479942396,5.331,2.665,0.152
1593969480444292,5.369,2.741,0.152
1593969480946038,5.331,2.741,0.152
1593969481447856,5.293,2.665,0.152
1593969481949896,5.293,2.665,0.152
1593969482451773,5.369,2.741,0.152
1593969482953554,5.331,2.741,0.152
1593969483458001,5.331,2.665,0.152
1593969483959741,5.331,2.741,0.152
1593969484461624,5.369,2.741,0.152
1593969484970885,5.369,2.741,0.152
1593969485472659,5.673,2.741,0.152
1593969485974909,5.75,2.741,0.152
1593969486477109,5.75,2.741,0.152
1593969486978864,5.559,2.741,0.152
1593969487480722,5.369,2.741,0.152
1593969487982480,5.369,2.741,0.152
1593969488487114,5.369,2.741,0.152
1593969488988891,5.331,2.741,0.152
1593969489490746,5.369,2.741,0.152
1593969489993833,5.369,2.741,0.152
1593969490495647,5.369,2.741,0.152
1593969490997392,5.293,2.665,0.152
1593969491499174,5.331,2.741,0.152
1593969492001100,5.331,2.665,0.152
1593969492502888,5.331,2.741,0.152
1593969493004881,5.369,2.741,0.152
1593969493509466,5.369,2.741,0.152
1593969494011205,5.369,2.741,0.152
1593969494513122,5.331,2.741,0.152
1593969495014909,5.369,2.741,0.152
1593969495518244,5.293,2.665,0.152
1593969496020087,5.331,2.741,0.152
1593969496521889,5.369,2.741,0.152
1593969497023680,5.331,2.741,0.152
1593969497525613,5.369,2.741,0.152
1593969498027742,5.369,2.741,0.152
1593969498532248,5.369,2.741,0.152
1593969499034001,5.331,2.665,0.152
1593969499535963,5.331,2.741,0.152
1593969500037762,5.331,2.741,0.152
1593969500539546,5.331,2.665,0.152
1593969501041278,5.293,2.665,0.152
1593969501543127,5.407,2.741,0.152
1593969502044889,5.369,2.741,0.152
1593969502546665,5.331,2.665,0.152
1593969503048845,5.331,2.665,0.152
1593969503553488,5.369,2.741,0.152
1593969504055266,5.293,2.741,0.152
1593969504557241,5.331,2.741,0.152
1593969505059113,5.331,2.741,0.152
1593969505561027,5.407,2.741,0.152
1593969506062787,5.369,2.741,0.152
1593969506564744,5.331,2.741,0.152
1593969507066655,5.369,2.741,0.152
1593969507568451,5.369,2.741,0.152
1593969508070203,5.331,2.741,0.152
1593969508574561,5.331,2.741,0.152
1593969509076570,5.369,2.741,0.152
1593969509578361,5.369,2.741,0.152
1593969510080194,5.369,2.741,0.152
1593969510582098,5.369,2.741,0.152
1593969511084053,5.369,2.741,0.152
1593969511585836,5.293,2.741,0.152
1593969512087658,5.331,2.741,0.152
1593969512589425,5.331,2.741,0.152
1593969513091295,5.369,2.741,0.152
1593969513593610,5.369,2.741,0.152
1593969514096169,5.369,2.741,0.152
1593969514599581,5.369,2.741,0.152
1593969515101369,5.369,2.741,0.152
1593969515603133,5.331,2.665,0.152
1593969516104882,5.293,2.665,0.152
1593969516606830,5.331,2.741,0.152
1593969517108623,5.331,2.741,0.152
1593969517610417,5.369,2.741,0.152
1593969518112221,5.293,2.665,0.152
1593969518616922,5.369,2.741,0.152
1593969519124097,5.331,2.665,0.152
1593969519625888,5.293,2.665,0.152
1593969520127670,5.293,2.665,0.152
1593969520629435,5.331,2.741,0.152
1593969521131232,5.331,2.741,0.152
1593969521633090,5.331,2.741,0.152
1593969522135151,5.331,2.741,0.152
1593969522637340,5.369,2.741,0.152
1593969523139129,5.369,2.741,0.152
1593969523643879,5.369,2.741,0.152
1593969524146591,5.331,2.741,0.152
1593969524648403,5.331,2.741,0.152
1593969525150173,5.293,2.665,0.152
1593969525651911,5.293,2.665,0.152
1593969526153808,5.369,2.741,0.152
1593969526655666,5.369,2.741,0.152
1593969527157411,5.331,2.665,0.152
1593969527659106,5.331,2.665,0.152
1593969528161165,5.369,2.741,0.152
1593969528665577,5.331,2.741,0.152
1593969529167518,5.293,2.665,0.152
1593969529669293,5.293,2.665,0.152
1593969530171138,5.369,2.741,0.152
1593969530673276,5.331,2.741,0.152
1593969531175122,5.331,2.741,0.152
1593969531677223,5.331,2.741,0.152
1593969532179158,5.369,2.741,0.152
1593969532681027,5.331,2.741,0.152
1593969533182778,5.293,2.665,0.152
1593969533687170,5.331,2.741,0.152
1593969534189433,5.369,2.741,0.152
1593969534691257,5.331,2.665,0.152
1593969535193241,5.369,2.741,0.152
1593969535695223,5.369,2.741,0.152
1593969536197129,5.369,2.741,0.152
1593969536698891,5.331,2.741,0.152
1593969537200677,5.331,2.741,0.152
1593969537702678,5.331,2.741,0.152
1593969538204489,5.331,2.741,0.152
1593969538709043,5.369,2.741,0.152
1593969539210600,5.331,2.741,0.152
1593969539712394,5.407,2.741,0.152
1593969540214311,5.369,2.741,0.152
1593969540716153,5.331,2.741,0.152
1593969541218073,5.293,2.741,0.152
1593969541720034,5.331,2.741,0.152
1593969542221823,5.331,2.741,0.152
1593969542723748,5.293,2.665,0.152
1593969543225666,5.331,2.741,0.152
1593969543730296,5.369,2.741,0.152
1593969544232499,5.407,2.741,0.152
1593969544734308,5.331,2.665,0.152
1593969545236146,5.369,2.741,0.152
1593969545737923,5.331,2.741,0.152
1593969546239686,5.293,2.665,0.152
1593969546741618,5.293,2.665,0.152
1593969547243533,5.407,2.741,0.152
1593969547745324,5.331,2.741,0.152
1593969548247092,5.559,2.741,0.152
1593969548752123,5.75,2.741,0.152
1593969549253923,5.826,2.741,0.152
1593969549756273,5.712,2.741,0.152
1593969550258087,5.445,2.741,0.152
1593969550760236,5.369,2.741,0.152
1593969551262022,5.369,2.741,0.152
1593969551763830,5.369,2.741,0.152
1593969552265614,5.331,2.741,0.152
1593969552767743,5.369,2.741,0.152
1593969553269515,5.407,2.741,0.152
1593969553774121,5.369,2.741,0.152
1593969554275918,5.369,2.741,0.152
1593969554777823,5.369,2.741,0.152
1593969555279642,5.331,2.741,0.152
1593969555781350,5.293,2.665,0.152
1593969556283264,5.331,2.665,0.152
1593969556785398,5.369,2.741,0.152
1593969557287177,5.331,2.741,0.152
1593969557789009,5.369,2.741,0.152
1593969558290788,5.369,2.741,0.152
1593969558795091,5.407,2.741,0.152
1593969559296744,5.331,2.741,0.152
1593969559798546,5.331,2.741,0.152
1593969560300690,5.331,2.741,0.152
1593969560802491,5.331,2.741,0.152
1593969561304538,5.331,2.665,0.152
1593969561806335,5.369,2.741,0.152
1593969562309183,5.369,2.741,0.152
1593969562810963,5.369,2.741,0.152
1593969563312773,5.331,2.741,0.152
1593969563817215,5.293,2.665,0.152
1593969564318938,5.331,2.741,0.152
1593969564820855,5.369,2.741,0.152
1593969565322643,5.369,2.741,0.152
1593969565826415,5.331,2.665,0.152
1593969566328052,5.369,2.741,0.152
1593969566829840,5.331,2.741,0.152
1593969567331673,5.293,2.665,0.152
1593969567833627,5.331,2.665,0.152
1593969568335554,5.369,2.741,0.152
1593969568840088,5.369,2.741,0.152
1593969569341842,5.331,2.741,0.152
1593969569845242,5.407,2.741,0.152
1593969570347017,5.369,2.741,0.152
1593969570848787,5.331,2.665,0.152
1593969571350528,5.293,2.665,0.152
1593969571852515,5.331,2.741,0.152
1593969572354313,5.331,2.741,0.152
1593969572856120,5.331,2.741,0.152
1593969573357856,5.331,2.741,0.152
1593969573862528,5.407,2.741,0.152
1593969574364368,5.369,2.741,0.152
1593969574866124,5.331,2.741,0.152
1593969575368248,5.293,2.665,0.152
1593969575870213,5.369,2.741,0.152
1593969576372253,5.331,2.741,0.152
1593969576874016,5.369,2.741,0.152
1593969577375847,5.445,2.817,0.152
1593969577877627,5.445,2.817,0.152
1593969578379378,5.445,2.817,0.152
1593969578884059,5.445,2.817,0.152
1593969579386396,5.445,2.817,0.152
1593969579888184,5.445,2.817,0.152
1593969580389988,5.407,2.817,0.152
1593969580891762,5.445,2.817,0.152
1593969581393668,5.369,2.741,0.152
1593969581895441,5.369,2.741,0.152
1593969582398923,5.369,2.741,0.152
1593969582900800,5.331,2.741,0.152
1593969583402733,5.369,2.741,0.152
1593969583907492,5.331,2.741,0.152
1593969584409240,5.369,2.741,0.152
1593969584911010,5.293,2.665,0.152
1593969585412832,5.331,2.741,0.152
1593969585914753,5.331,2.741,0.152
1593969586416639,5.369,2.741,0.152
1593969586918789,5.369,2.741,0.152
1593969587420815,5.331,2.741,0.152
1593969587922568,5.331,2.741,0.152
1593969588424388,5.331,2.741,0.152
1593969588928833,5.331,2.741,0.152
1593969589430581,5.331,2.741,0.152
1593969589932393,5.293,2.665,0.152
1593969590434167,5.293,2.665,0.152
1593969590936118,5.369,2.741,0.152
1593969591437920,5.331,2.741,0.152
1593969591939690,5.293,2.665,0.152
1593969592441594,5.331,2.665,0.152
1593969592943425,5.369,2.741,0.152
1593969593445395,5.293,2.665,0.152
1593969593947148,5.255,2.665,0.152
1593969594449154,5.293,2.665,0.152
1593969594950944,5.331,2.741,0.152
1593969595452691,5.293,2.665,0.152
1593969595954425,5.293,2.665,0.152
1593969596456323,5.369,2.741,0.152
1593969596958331,5.255,2.665,0.152
1593969597460304,5.255,2.665,0.152
1593969597962018,5.293,2.665,0.152
1593969598464100,5.331,2.741,0.152
1593969598968576,5.369,2.741,0.152
1593969599470373,5.293,2.665,0.152
1593969599972417,5.331,2.741,0.152
1593969600474608,5.331,2.741,0.152
1593969600976413,5.293,2.741,0.152
1593969601478180,5.293,2.665,0.152
1593969601980085,5.369,2.741,0.152
1593969602482815,5.369,2.741,0.152
1593969602984783,5.331,2.741,0.152
1593969603486722,5.331,2.741,0.152
1593969603991296,5.369,2.741,0.152
1593969604493229,5.369,2.741,0.152
1593969604994987,5.293,2.665,0.152
1593969605496787,5.331,2.741,0.152
1593969606000369,5.331,2.665,0.152
1593969606502152,5.331,2.741,0.152
1593969607004085,5.331,2.741,0.152
1593969607505872,5.293,2.665,0.152
1593969608007942,5.293,2.665,0.152
1593969608509719,5.293,2.665,0.152
1593969609014168,5.331,2.741,0.152
1593969609515940,5.369,2.741,0.152
1593969610017833,5.369,2.741,0.152
1593969610519881,5.407,2.817,0.152
1593969611021615,5.369,2.741,0.152
1593969611523995,5.712,2.741,0.152
1593969612025787,5.94,2.894,0.152
1593969612527631,5.864,2.817,0.152
1593969613038179,5.597,2.817,0.152
1593969613540058,5.445,2.817,0.152
1593969614044629,5.407,2.817,0.152
1593969614546383,5.559,2.894,0.152
1593969615048123,5.559,2.894,0.152
1593969615550006,5.597,2.97,0.152
1593969616051877,5.559,2.97,0.152
1593969616553606,5.559,2.894,0.152
1593969617055523,5.521,2.894,0.152
1593969617557478,5.597,2.97,0.152
1593969618059275,5.559,2.894,0.152
1593969618561200,5.559,2.894,0.152
1593969619065677,5.559,2.894,0.152
1593969619567811,5.597,2.97,0.152
1593969620069662,5.597,2.97,0.152
1593969620571593,5.559,2.894,0.152
1593969621073370,5.559,2.894,0.152
1593969621575523,5.597,2.97,0.152
1593969622077283,5.559,2.894,0.152
1593969622579098,5.559,2.894,0.152
1593969623080910,5.597,2.97,0.152
1593969623582765,5.635,2.97,0.152
1593969624087101,5.559,2.894,0.152
1593969624589197,5.521,2.894,0.152
1593969625092162,5.559,2.894,0.152
1593969625594011,5.559,2.97,0.152
1593969626095760,5.597,2.97,0.152
1593969626597519,5.597,2.97,0.152
1593969627099591,5.597,2.97,0.152
1593969627601374,5.559,2.97,0.152
1593969628103291,5.559,2.97,0.152
1593969628605188,5.521,2.894,0.152
1593969629110892,5.445,2.817,0.152
1593969629612841,5.369,2.741,0.152
1593969630114870,5.445,2.817,0.152
