TimeStamp,Total Power,CPU Power,GPU Power
1592951940995839,2.972,0.533,0.152
1592951941497418,2.211,0.457,0.152
1592951941998956,1.944,0.381,0.152
1592951942500443,1.715,0.381,0.152
1592951943002026,1.563,0.457,0.152
1592951943503572,1.525,0.381,0.152
1592951944007756,1.448,0.381,0.152
1592951944509224,1.486,0.381,0.152
1592951945010731,1.525,0.457,0.152
1592951945512292,1.448,0.381,0.152
1592951946013819,1.486,0.381,0.152
1592951946515467,1.715,0.457,0.152
1592951947016926,1.525,0.381,0.152
1592951947518368,1.677,0.381,0.152
1592951948019865,1.563,0.381,0.152
1592951948521355,1.639,0.457,0.152
1592951949025168,1.715,0.381,0.152
1592951949526639,1.715,0.381,0.152
1592951950028314,1.601,0.457,0.152
1592951950529783,1.486,0.381,0.152
1592951951031269,1.486,0.381,0.152
1592951951532816,1.448,0.381,0.152
1592951952034316,1.486,0.381,0.152
1592951952535915,1.486,0.381,0.152
1592951953037414,1.448,0.381,0.152
1592951953538910,1.486,0.457,0.152
1592951954042663,1.448,0.381,0.152
1592951954544168,1.486,0.381,0.152
1592951955046368,1.486,0.381,0.152
1592951955547842,1.448,0.381,0.152
1592951956049387,1.486,0.457,0.152
1592951956550840,1.448,0.381,0.152
1592951957052287,1.448,0.381,0.152
1592951957553861,1.525,0.457,0.152
1592951958055483,1.486,0.381,0.152
1592951958556927,1.525,0.457,0.152
1592951959058516,1.486,0.457,0.152
1592951959560033,1.448,0.381,0.152
1592951960061777,1.448,0.381,0.152
1592951960563258,1.448,0.381,0.152
1592951961064799,1.486,0.381,0.152
1592951961566241,1.563,0.381,0.152
1592951962067680,1.563,0.381,0.152
1592951962569134,1.525,0.457,0.152
1592951963070582,1.448,0.381,0.152
1592951963572107,1.486,0.381,0.152
1592951964073682,1.563,0.457,0.152
1592951964575219,1.486,0.381,0.152
1592951965076771,1.41,0.381,0.152
1592951965578245,1.486,0.457,0.152
1592951966079794,1.486,0.381,0.152
1592951966581231,1.448,0.381,0.152
1592951967082759,1.525,0.457,0.152
1592951967584312,1.486,0.381,0.152
1592951968085807,1.448,0.381,0.152
1592951968587438,1.448,0.381,0.152
1592951969091253,1.525,0.457,0.152
1592951969592758,1.448,0.381,0.152
1592951970094174,1.448,0.381,0.152
1592951970595926,1.525,0.457,0.152
1592951971097420,1.486,0.381,0.152
1592951971598822,1.448,0.381,0.152
1592951972100479,1.448,0.381,0.152
1592951972601977,1.486,0.457,0.152
1592951973103407,1.448,0.381,0.152
1592951973604917,1.448,0.381,0.152
1592951974109215,1.525,0.457,0.152
1592951974610702,1.486,0.381,0.152
1592951975112212,1.448,0.381,0.152
1592951975613799,1.448,0.381,0.152
1592951976115285,1.525,0.457,0.152
1592951976616935,1.486,0.381,0.152
1592951977118423,1.448,0.381,0.152
1592951977621252,1.525,0.457,0.152
1592951978122700,1.448,0.381,0.152
1592951978624213,1.448,0.381,0.152
1592951979128668,1.486,0.381,0.152
1592951979630160,1.486,0.381,0.152
1592951980131673,1.448,0.381,0.152
1592951980633148,1.486,0.381,0.152
1592951981134633,1.486,0.457,0.152
1592951981636210,1.448,0.381,0.152
1592951982137798,1.448,0.381,0.152
1592951982639503,1.525,0.457,0.152
1592951983140958,1.715,0.381,0.152
1592951983642394,1.639,0.381,0.152
1592951984146256,1.525,0.381,0.152
1592951984647765,1.525,0.457,0.152
1592951985149255,1.448,0.381,0.152
1592951985650713,1.448,0.381,0.152
1592951986152324,1.525,0.457,0.152
1592951986653806,1.448,0.381,0.152
1592951987155294,1.486,0.381,0.152
1592951987657002,1.448,0.381,0.152
1592951988158489,1.486,0.381,0.152
1592951988660159,1.448,0.381,0.152
1592951989164018,1.448,0.381,0.152
1592951989665463,1.525,0.457,0.152
1592951990166920,1.448,0.381,0.152
1592951990668367,1.448,0.381,0.152
1592951991170404,1.448,0.381,0.152
1592951991671902,1.448,0.381,0.152
1592951992173409,1.486,0.381,0.152
1592951992674914,1.448,0.381,0.152
1592951993176425,1.486,0.381,0.152
1592951993677922,1.486,0.457,0.152
1592951994181884,1.486,0.381,0.152
1592951994683458,1.486,0.457,0.152
1592951995184994,1.486,0.381,0.152
1592951995686552,1.486,0.381,0.152
1592951996188005,1.448,0.381,0.152
1592951996689486,1.448,0.381,0.152
1592951997190993,1.486,0.381,0.152
1592951997692437,1.448,0.381,0.152
1592951998193881,1.486,0.457,0.152
1592951998695588,1.486,0.457,0.152
1592951999199455,1.448,0.381,0.152
1592951999701021,1.448,0.381,0.152
1592952000204732,1.525,0.457,0.152
1592952000706237,1.448,0.381,0.152
1592952001207729,1.41,0.381,0.152
1592952001709318,1.525,0.457,0.152
1592952002210863,1.448,0.381,0.152
1592952002712391,1.448,0.381,0.152
1592952003214099,1.486,0.457,0.152
1592952003715601,1.486,0.381,0.152
1592952004219457,1.448,0.381,0.152
1592952004720857,1.41,0.381,0.152
1592952005222314,1.525,0.457,0.152
1592952005723759,1.448,0.381,0.152
1592952006225169,1.448,0.381,0.152
1592952006727450,1.525,0.457,0.152
1592952007228959,1.486,0.381,0.152
1592952007730439,1.448,0.381,0.152
1592952008231934,1.41,0.381,0.152
1592952008733378,1.525,0.457,0.152
1592952009237219,1.448,0.381,0.152
1592952009738619,1.41,0.381,0.152
1592952010241257,1.486,0.457,0.152
1592952010742751,1.486,0.381,0.152
1592952011244203,1.448,0.381,0.152
1592952011745679,1.448,0.381,0.152
1592952012247180,1.525,0.457,0.152
1592952012748612,1.448,0.381,0.152
1592952013250068,1.448,0.381,0.152
1592952013751702,1.715,0.457,0.152
1592952014253183,1.753,0.381,0.152
1592952014754685,1.639,0.381,0.152
1592952015256212,1.525,0.381,0.152
1592952015757670,1.486,0.381,0.152
1592952016259162,1.486,0.381,0.152
1592952016760832,1.486,0.381,0.152
1592952017262287,1.486,0.457,0.152
1592952017763871,1.448,0.381,0.152
1592952018265325,1.448,0.381,0.152
1592952018766918,1.448,0.381,0.152
1592952019270879,1.448,0.381,0.152
1592952019772509,1.448,0.381,0.152
1592952020274023,1.448,0.381,0.152
1592952020775548,1.486,0.381,0.152
1592952021277035,1.448,0.381,0.152
1592952021778553,1.486,0.381,0.152
1592952022280125,1.486,0.457,0.152
1592952022781628,1.486,0.381,0.152
1592952023283262,1.486,0.381,0.152
1592952023784926,1.448,0.381,0.152
1592952024288877,1.525,0.457,0.152
1592952024790324,1.448,0.381,0.152
1592952025291794,1.448,0.381,0.152
1592952025793392,1.525,0.457,0.152
1592952026294884,1.448,0.381,0.152
1592952026796518,1.448,0.381,0.152
1592952027298138,1.448,0.381,0.152
1592952027799637,1.486,0.381,0.152
1592952028301137,1.486,0.381,0.152
1592952028802610,1.448,0.381,0.152
1592952029306335,1.525,0.457,0.152
1592952029807930,1.486,0.457,0.152
1592952030309443,1.448,0.381,0.152
1592952030811003,1.448,0.381,0.152
1592952031312626,1.486,0.381,0.152
1592952031814135,1.448,0.381,0.152
1592952032315648,1.448,0.381,0.152
1592952032817142,1.486,0.381,0.152
1592952033318603,1.448,0.381,0.152
1592952033820156,1.448,0.381,0.152
1592952034324264,1.486,0.381,0.152
1592952034825762,1.486,0.457,0.152
1592952035327262,1.486,0.381,0.152
1592952035828799,1.448,0.381,0.152
1592952036330226,1.525,0.457,0.152
1592952036831855,1.486,0.381,0.152
1592952037333316,1.448,0.381,0.152
1592952037834832,1.486,0.457,0.152
1592952038336378,1.486,0.457,0.152
1592952038837838,1.448,0.381,0.152
1592952039342201,1.448,0.381,0.152
1592952039843950,1.486,0.457,0.152
1592952040345456,1.448,0.381,0.152
1592952040846893,1.41,0.381,0.152
1592952041349510,1.525,0.457,0.152
1592952041851015,1.486,0.381,0.152
1592952042352458,1.448,0.381,0.152
1592952042854037,1.448,0.381,0.152
1592952043355542,1.677,0.457,0.152
1592952043856984,1.525,0.381,0.152
1592952044360817,1.677,0.381,0.152
