TimeStamp,Total Power,CPU Power,GPU Power
1593919417470824,1.677,0.61,0.152
1593919417972437,1.525,0.457,0.152
1593919418473862,1.448,0.457,0.152
1593919418975290,1.486,0.457,0.152
1593919419476900,1.601,0.533,0.152
1593919419978393,1.486,0.381,0.152
1593919420479873,1.525,0.457,0.152
1593919420981372,1.639,0.533,0.152
1593919421482855,1.601,0.533,0.152
1593919421984371,1.563,0.533,0.152
1593919422488603,1.639,0.61,0.152
1593919422990154,1.639,0.61,0.152
1593919423491645,1.639,0.533,0.152
1593919423993087,1.563,0.533,0.152
1593919424494531,1.563,0.533,0.152
1593919424996033,1.639,0.61,0.152
1593919425497478,1.563,0.533,0.152
1593919425998943,1.563,0.533,0.152
1593919426500459,1.639,0.61,0.152
1593919427001904,1.563,0.533,0.152
1593919427506081,1.639,0.61,0.152
1593919428007668,1.639,0.61,0.152
1593919428509069,1.601,0.533,0.152
1593919429010671,1.677,0.61,0.152
1593919429512289,1.563,0.533,0.152
1593919430013768,1.601,0.61,0.152
1593919430515395,1.601,0.533,0.152
1593919431016880,1.563,0.533,0.152
1593919431518779,1.677,0.61,0.152
1593919432020305,1.601,0.533,0.152
1593919432524164,1.601,0.533,0.152
1593919433025652,1.601,0.533,0.152
1593919433527124,1.601,0.61,0.152
1593919434028632,1.601,0.61,0.152
1593919434530094,1.601,0.533,0.152
1593919435031574,1.601,0.61,0.152
1593919435533029,1.677,0.61,0.152
1593919436034472,1.601,0.533,0.152
1593919436536061,1.601,0.61,0.152
1593919437037647,1.639,0.61,0.152
1593919437541493,1.601,0.533,0.152
1593919438042938,1.563,0.533,0.152
1593919438544389,1.639,0.61,0.152
1593919439045888,1.601,0.533,0.152
1593919439547358,1.639,0.61,0.152
1593919440048783,1.639,0.61,0.152
1593919440550279,1.601,0.61,0.152
1593919441051885,1.601,0.61,0.152
1593919441553414,1.563,0.533,0.152
1593919442054906,1.677,0.61,0.152
1593919442558781,1.601,0.533,0.152
1593919443060205,1.563,0.533,0.152
1593919443561795,1.677,0.61,0.152
1593919444063416,1.563,0.533,0.152
1593919444564874,1.639,0.61,0.152
1593919445066424,1.601,0.61,0.152
1593919445568029,1.601,0.61,0.152
1593919446069481,1.601,0.61,0.152
1593919446570892,1.563,0.533,0.152
1593919447072479,1.715,0.61,0.152
1593919447576254,1.601,0.533,0.152
1593919448077633,1.563,0.533,0.152
1593919448580101,1.639,0.61,0.152
1593919449081610,1.601,0.61,0.152
1593919449583070,1.639,0.61,0.152
1593919450084594,1.601,0.533,0.152
1593919450586053,1.677,0.61,0.152
1593919451087536,1.601,0.61,0.152
1593919451588944,1.563,0.533,0.152
1593919452090474,1.677,0.61,0.152
1593919452594514,1.601,0.61,0.152
1593919453096013,1.601,0.533,0.152
1593919453597430,1.639,0.61,0.152
1593919454098914,1.601,0.61,0.152
1593919454600386,1.601,0.61,0.152
1593919455101942,1.563,0.533,0.152
1593919455604171,1.715,0.61,0.152
1593919456105697,1.601,0.61,0.152
1593919456607142,1.563,0.533,0.152
1593919457108638,1.639,0.61,0.152
1593919457612652,1.601,0.533,0.152
1593919458114093,1.639,0.61,0.152
1593919458615564,1.601,0.61,0.152
1593919459117024,1.639,0.61,0.152
1593919459618524,1.601,0.61,0.152
1593919460120053,1.601,0.533,0.152
1593919460621638,1.677,0.61,0.152
1593919461123133,1.601,0.533,0.152
1593919461625275,1.601,0.533,0.152
1593919462126783,1.601,0.61,0.152
1593919462630638,1.601,0.533,0.152
1593919463132139,1.791,0.61,0.152
1593919463633634,1.943,0.533,0.152
1593919464135114,2.058,0.61,0.152
1593919464636833,2.019,0.61,0.152
1593919465138316,1.753,0.61,0.152
1593919465639920,1.677,0.61,0.152
1593919466141402,1.601,0.61,0.152
1593919466642905,1.639,0.61,0.152
1593919467144401,1.601,0.61,0.152
1593919467648185,1.601,0.61,0.152
1593919468149755,1.677,0.61,0.152
1593919468651129,1.563,0.533,0.152
1593919469153230,1.639,0.61,0.152
1593919469654753,1.601,0.61,0.152
1593919470156298,1.563,0.533,0.152
1593919470657765,1.601,0.61,0.152
1593919471159232,1.601,0.61,0.152
1593919471660775,1.639,0.61,0.152
1593919472162260,1.601,0.61,0.152
1593919472666004,1.601,0.61,0.152
1593919473167644,1.677,0.61,0.152
1593919473669111,1.563,0.533,0.152
1593919474170644,1.639,0.533,0.152
1593919474672327,1.677,0.61,0.152
1593919475173830,1.563,0.533,0.152
1593919475675294,1.601,0.61,0.152
1593919476176790,1.601,0.61,0.152
1593919476678361,1.677,0.61,0.152
1593919477179820,1.601,0.533,0.152
1593919477684624,1.601,0.61,0.152
1593919478186129,1.639,0.61,0.152
1593919478687720,1.563,0.533,0.152
1593919479189137,1.639,0.533,0.152
1593919479690618,1.639,0.61,0.152
1593919480192062,1.563,0.533,0.152
1593919480693466,1.601,0.533,0.152
1593919481195023,1.639,0.61,0.152
1593919481696524,1.639,0.533,0.152
1593919482197975,1.563,0.533,0.152
1593919482701779,1.563,0.533,0.152
1593919483203242,1.677,0.61,0.152
1593919483704743,1.601,0.533,0.152
1593919484206167,1.563,0.533,0.152
1593919484707683,1.677,0.61,0.152
1593919485209178,1.601,0.533,0.152
1593919485710634,1.639,0.533,0.152
1593919486212247,1.601,0.61,0.152
1593919486713753,1.601,0.61,0.152
1593919487215209,1.601,0.533,0.152
1593919487719216,1.563,0.533,0.152
1593919488220775,1.677,0.61,0.152
1593919488722162,1.601,0.533,0.152
1593919489223530,1.563,0.533,0.152
1593919489725706,1.677,0.61,0.152
1593919490227207,1.601,0.61,0.152
1593919490728845,1.563,0.533,0.152
1593919491230322,1.639,0.61,0.152
1593919491731825,1.639,0.61,0.152
1593919492233271,1.563,0.533,0.152
1593919492737211,1.639,0.61,0.152
1593919493239654,1.601,0.61,0.152
1593919493741102,1.639,0.533,0.152
1593919494242550,1.563,0.533,0.152
1593919494744000,1.563,0.533,0.152
1593919495245501,1.639,0.61,0.152
1593919495746953,1.563,0.533,0.152
1593919496248397,1.601,0.533,0.152
1593919496749857,1.677,0.61,0.152
1593919497251296,1.563,0.533,0.152
1593919497755096,1.677,0.61,0.152
1593919498256754,1.601,0.61,0.152
1593919498758206,1.563,0.533,0.152
1593919499259852,1.639,0.61,0.152
1593919499761314,1.563,0.533,0.152
1593919500262789,1.601,0.61,0.152
1593919500764366,1.601,0.61,0.152
1593919501265858,1.563,0.533,0.152
1593919501767472,1.677,0.61,0.152
1593919502268947,1.601,0.533,0.152
1593919502772799,1.601,0.533,0.152
1593919503274254,1.601,0.61,0.152
1593919503775779,1.601,0.533,0.152
1593919504277280,1.639,0.61,0.152
1593919504778748,1.563,0.533,0.152
1593919505280223,1.677,0.61,0.152
1593919505781686,1.639,0.61,0.152
1593919506283147,1.563,0.533,0.152
1593919506784979,1.639,0.61,0.152
1593919507286557,1.601,0.61,0.152
1593919507790819,1.639,0.61,0.152
1593919508292280,1.601,0.533,0.152
1593919508793731,1.601,0.61,0.152
1593919509295189,1.639,0.61,0.152
1593919509796931,1.563,0.533,0.152
1593919510298708,1.715,0.61,0.152
1593919510800245,1.639,0.61,0.152
1593919511301700,1.563,0.533,0.152
1593919511803112,1.601,0.533,0.152
1593919512304618,1.639,0.61,0.152
1593919512808469,1.601,0.533,0.152
1593919513309892,1.601,0.533,0.152
1593919513811500,1.639,0.61,0.152
1593919514313008,1.639,0.533,0.152
1593919514814430,1.563,0.533,0.152
1593919515315955,1.601,0.533,0.152
1593919515817465,1.677,0.61,0.152
1593919516318955,1.563,0.533,0.152
1593919516820376,1.601,0.533,0.152
1593919517322096,1.677,0.61,0.152
1593919517825957,1.601,0.533,0.152
1593919518327420,1.639,0.533,0.152
1593919518829064,1.601,0.533,0.152
1593919519330554,1.601,0.61,0.152
1593919519832020,1.601,0.533,0.152
1593919520333447,1.563,0.533,0.152
1593919520834860,1.677,0.61,0.152
1593919521336289,1.601,0.533,0.152
1593919521837711,1.563,0.533,0.152
1593919522339279,1.677,0.61,0.152
1593919522843661,1.639,0.61,0.152
1593919523345102,1.563,0.533,0.152
1593919523846526,1.639,0.61,0.152
1593919524348026,1.639,0.61,0.152
1593919524849477,1.601,0.533,0.152
1593919525351020,1.601,0.533,0.152
1593919525852694,1.639,0.61,0.152
1593919526354048,1.905,0.61,0.152
1593919526855415,1.981,0.533,0.152
1593919527356891,1.981,0.533,0.152
1593919527860835,1.981,0.61,0.152
1593919528362203,1.677,0.533,0.152
1593919528863840,1.639,0.61,0.152
1593919529365340,1.677,0.61,0.152
1593919529866763,1.563,0.533,0.152
1593919530368256,1.677,0.61,0.152
1593919530869856,1.601,0.533,0.152
1593919531371460,1.601,0.533,0.152
1593919531873062,1.639,0.61,0.152
1593919532374567,1.601,0.533,0.152
1593919532878377,1.677,0.61,0.152
1593919533379842,1.601,0.533,0.152
1593919533881332,1.563,0.533,0.152
1593919534382960,1.677,0.61,0.152
1593919534884412,1.563,0.533,0.152
1593919535385908,1.677,0.61,0.152
1593919535887376,1.563,0.533,0.152
1593919536388897,1.601,0.533,0.152
1593919536890381,1.677,0.61,0.152
1593919537391841,1.563,0.533,0.152
1593919537895633,1.677,0.61,0.152
1593919538397199,1.639,0.61,0.152
1593919538898697,1.563,0.533,0.152
1593919539400307,1.639,0.61,0.152
1593919539901792,1.601,0.533,0.152
1593919540403291,1.639,0.61,0.152
1593919540904809,1.601,0.533,0.152
1593919541406287,1.601,0.61,0.152
1593919541907792,1.639,0.61,0.152
1593919542409234,1.563,0.533,0.152
1593919542913152,1.677,0.61,0.152
1593919543414660,1.639,0.61,0.152
1593919543916166,1.525,0.533,0.152
1593919544417584,1.601,0.533,0.152
1593919544919129,1.677,0.61,0.152
1593919545420648,1.563,0.533,0.152
1593919545922105,1.601,0.61,0.152
1593919546423673,1.601,0.61,0.152
1593919546925169,1.677,0.61,0.152
1593919547426616,1.601,0.61,0.152
1593919547930463,1.601,0.61,0.152
1593919548431903,1.677,0.61,0.152
1593919548933269,1.563,0.533,0.152
1593919549434589,1.601,0.533,0.152
1593919549936045,1.677,0.61,0.152
1593919550437486,1.563,0.533,0.152
1593919550938880,1.639,0.61,0.152
1593919551441592,1.601,0.61,0.152
1593919551943094,1.677,0.61,0.152
1593919552444654,1.601,0.61,0.152
1593919552948899,1.563,0.533,0.152
1593919553450313,1.715,0.61,0.152
1593919553952024,1.601,0.533,0.152
1593919554453436,1.601,0.533,0.152
1593919554955004,1.639,0.61,0.152
1593919555456496,1.601,0.533,0.152
1593919555957950,1.639,0.533,0.152
1593919556459499,1.601,0.61,0.152
1593919556960993,1.639,0.61,0.152
1593919557462963,1.601,0.61,0.152
1593919557966701,1.563,0.533,0.152
1593919558468378,1.715,0.61,0.152
1593919558969870,1.601,0.61,0.152
1593919559471290,1.563,0.533,0.152
1593919559972886,1.639,0.61,0.152
1593919560474393,1.601,0.61,0.152
1593919560975856,1.639,0.61,0.152
1593919561477343,1.639,0.61,0.152
1593919561978846,1.639,0.61,0.152
1593919562480315,1.639,0.61,0.152
1593919562984239,1.601,0.61,0.152
1593919563486129,1.677,0.61,0.152
1593919563987627,1.601,0.61,0.152
1593919564489347,1.563,0.533,0.152
1593919564990825,1.639,0.61,0.152
1593919565492310,1.601,0.61,0.152
1593919565993765,1.639,0.533,0.152
1593919566495252,1.601,0.61,0.152
1593919566996955,1.639,0.61,0.152
1593919567498443,1.639,0.61,0.152
1593919568002233,1.601,0.61,0.152
1593919568503627,1.639,0.533,0.152
1593919569005163,1.639,0.61,0.152
1593919569506897,1.601,0.61,0.152
1593919570008624,1.677,0.61,0.152
1593919570510138,1.639,0.61,0.152
1593919571011704,1.601,0.61,0.152
1593919571513192,1.639,0.61,0.152
1593919572014786,1.601,0.533,0.152
1593919572516255,1.639,0.61,0.152
1593919573020310,1.601,0.61,0.152
1593919573521785,1.601,0.533,0.152
1593919574023259,1.639,0.61,0.152
1593919574524906,1.601,0.61,0.152
1593919575026356,1.639,0.61,0.152
1593919575527874,1.639,0.61,0.152
1593919576029377,1.639,0.61,0.152
1593919576530853,1.601,0.61,0.152
1593919577032297,1.563,0.533,0.152
1593919577533835,1.677,0.61,0.152
1593919578037689,1.601,0.61,0.152
1593919578539156,1.601,0.533,0.152
1593919579040627,1.639,0.61,0.152
1593919579542127,1.601,0.533,0.152
1593919580043584,1.601,0.533,0.152
1593919580545114,1.601,0.61,0.152
1593919581046622,1.601,0.61,0.152
1593919581548094,1.639,0.61,0.152
1593919582049525,1.563,0.533,0.152
1593919582550996,1.677,0.61,0.152
1593919583054826,1.639,0.61,0.152
1593919583556230,1.563,0.533,0.152
1593919584057783,1.715,0.61,0.152
1593919584559264,1.601,0.61,0.152
1593919585060832,1.601,0.61,0.152
1593919585562237,1.601,0.61,0.152
1593919586063687,1.639,0.61,0.152
1593919586565173,1.639,0.61,0.152
1593919587066622,1.563,0.533,0.152
1593919587568297,1.677,0.61,0.152
1593919588069788,1.639,0.61,0.152
1593919588571186,1.563,0.533,0.152
1593919589075516,1.715,0.61,0.152
1593919589576970,1.981,0.61,0.152
1593919590078424,2.019,0.61,0.152
1593919590579835,1.981,0.533,0.152
1593919591081367,1.829,0.61,0.152
1593919591582865,1.715,0.61,0.152
1593919592084454,1.601,0.533,0.152
1593919592585986,1.601,0.61,0.152
1593919593087541,1.639,0.61,0.152
1593919593588960,1.563,0.533,0.152
1593919594090275,1.601,0.533,0.152
1593919594591751,1.677,0.61,0.152
1593919595093201,1.601,0.533,0.152
1593919595594625,1.601,0.533,0.152
1593919596096600,1.601,0.61,0.152
1593919596598102,1.677,0.61,0.152
1593919597099551,1.563,0.533,0.152
1593919597601009,1.639,0.61,0.152
1593919598104810,1.639,0.61,0.152
1593919598606261,1.563,0.533,0.152
1593919599107768,1.677,0.61,0.152
1593919599609358,1.639,0.61,0.152
1593919600110839,1.639,0.533,0.152
1593919600612457,1.601,0.61,0.152
1593919601113990,1.601,0.533,0.152
1593919601615544,1.639,0.61,0.152
1593919602116994,1.601,0.533,0.152
1593919602618475,1.639,0.533,0.152
1593919603122374,1.677,0.61,0.152
1593919603623873,1.563,0.533,0.152
1593919604125280,1.639,0.61,0.152
1593919604626871,1.601,0.533,0.152
1593919605128407,1.639,0.533,0.152
1593919605629918,1.639,0.61,0.152
1593919606131388,1.563,0.533,0.152
1593919606632846,1.639,0.61,0.152
1593919607134440,1.601,0.533,0.152
1593919607635977,1.601,0.533,0.152
1593919608139933,1.639,0.61,0.152
1593919608641333,1.563,0.533,0.152
1593919609142812,1.639,0.61,0.152
1593919609644281,1.563,0.533,0.152
1593919610145739,1.639,0.61,0.152
1593919610647241,1.639,0.61,0.152
1593919611148827,1.563,0.533,0.152
1593919611650238,1.677,0.61,0.152
1593919612151785,1.601,0.61,0.152
1593919612653258,1.639,0.61,0.152
1593919613157128,1.601,0.61,0.152
1593919613658685,1.601,0.61,0.152
1593919614160182,1.639,0.61,0.152
1593919614661636,1.563,0.533,0.152
1593919615163106,1.677,0.61,0.152
1593919615664723,1.601,0.61,0.152
1593919616166184,1.563,0.533,0.152
1593919616668155,1.677,0.61,0.152
1593919617169659,1.601,0.61,0.152
1593919617671072,1.639,0.61,0.152
1593919618172503,1.563,0.533,0.152
1593919618673982,1.639,0.61,0.152
1593919619175478,1.639,0.61,0.152
1593919619676857,1.563,0.533,0.152
1593919620178411,1.715,0.61,0.152
1593919620680029,1.601,0.61,0.152
1593919621181521,1.563,0.533,0.152
1593919621683090,1.639,0.61,0.152
1593919622184630,1.601,0.61,0.152
1593919622686100,1.639,0.61,0.152
1593919623187625,1.563,0.533,0.152
1593919623693229,1.677,0.61,0.152
1593919624194709,1.639,0.61,0.152
1593919624696167,1.563,0.533,0.152
1593919625197709,1.639,0.61,0.152
1593919625699205,1.639,0.61,0.152
1593919626200804,1.601,0.533,0.152
1593919626702211,1.601,0.533,0.152
1593919627203643,1.639,0.61,0.152
1593919627705106,1.639,0.61,0.152
1593919628206542,1.563,0.533,0.152
1593919628710376,1.639,0.61,0.152
1593919629211956,1.639,0.61,0.152
1593919629713409,1.563,0.533,0.152
1593919630215203,1.677,0.61,0.152
1593919630716892,1.639,0.61,0.152
1593919631218331,1.639,0.61,0.152
1593919631719933,1.601,0.61,0.152
1593919632221512,1.639,0.61,0.152
1593919632722999,1.639,0.61,0.152
1593919633224449,1.563,0.533,0.152
1593919633728234,1.639,0.61,0.152
1593919634229734,1.639,0.61,0.152
1593919634731184,1.563,0.533,0.152
1593919635232661,1.677,0.61,0.152
1593919635734112,1.639,0.61,0.152
1593919636235558,1.639,0.61,0.152
1593919636737024,1.639,0.61,0.152
1593919637238569,1.601,0.533,0.152
1593919637740083,1.639,0.61,0.152
1593919638241659,1.601,0.61,0.152
1593919638745574,1.639,0.61,0.152
1593919639247036,1.639,0.61,0.152
1593919639748566,1.563,0.533,0.152
1593919640250076,1.639,0.61,0.152
1593919640752395,1.639,0.61,0.152
1593919641253884,1.563,0.533,0.152
1593919641755480,1.639,0.61,0.152
1593919642256899,1.563,0.533,0.152
1593919642758396,1.639,0.61,0.152
1593919643260043,1.639,0.61,0.152
1593919643763816,1.563,0.533,0.152
1593919644265291,1.677,0.61,0.152
1593919644766871,1.601,0.61,0.152
1593919645268308,1.677,0.61,0.152
1593919645769944,1.601,0.61,0.152
1593919646271444,1.563,0.533,0.152
1593919646772939,1.639,0.61,0.152
1593919647274395,1.563,0.533,0.152
1593919647775855,1.677,0.61,0.152
1593919648277351,1.639,0.61,0.152
1593919648780955,1.563,0.533,0.152
1593919649282564,1.677,0.61,0.152
1593919649784083,1.639,0.61,0.152
1593919650285543,1.639,0.61,0.152
1593919650786955,1.563,0.533,0.152
1593919651288601,1.639,0.61,0.152
1593919651790066,1.639,0.61,0.152
1593919652291634,1.829,0.533,0.152
1593919652793169,2.058,0.61,0.152
1593919653294673,2.058,0.61,0.152
1593919653797998,1.943,0.61,0.152
1593919654299633,1.753,0.61,0.152
1593919654801143,1.639,0.61,0.152
1593919655302570,1.639,0.61,0.152
1593919655803983,1.601,0.533,0.152
1593919656305444,1.677,0.61,0.152
1593919656806869,1.639,0.61,0.152
1593919657308304,1.563,0.533,0.152
1593919657809865,1.639,0.61,0.152
1593919658311359,1.639,0.61,0.152
1593919658815082,1.601,0.61,0.152
1593919659316462,1.601,0.61,0.152
1593919659818615,1.639,0.61,0.152
1593919660320093,1.639,0.61,0.152
1593919660821528,1.601,0.533,0.152
1593919661322994,1.601,0.61,0.152
1593919661824494,1.639,0.61,0.152
1593919662325941,1.563,0.533,0.152
1593919662827540,1.639,0.61,0.152
1593919663329019,1.639,0.61,0.152
1593919663832967,1.563,0.533,0.152
1593919664334354,1.601,0.533,0.152
1593919664835891,1.601,0.61,0.152
1593919665337391,1.639,0.61,0.152
1593919665838795,1.601,0.533,0.152
1593919666340307,1.601,0.533,0.152
1593919666841811,1.639,0.61,0.152
1593919667343261,1.563,0.533,0.152
1593919667844771,1.677,0.61,0.152
1593919668346290,1.639,0.61,0.152
1593919668847740,1.601,0.61,0.152
1593919669349328,1.639,0.61,0.152
1593919669850914,1.563,0.533,0.152
1593919670352420,1.639,0.61,0.152
1593919670853918,1.563,0.533,0.152
1593919671355397,1.601,0.533,0.152
1593919671856898,1.639,0.61,0.152
1593919672358343,1.563,0.533,0.152
1593919672859823,1.639,0.61,0.152
1593919673362435,1.601,0.61,0.152
1593919673863967,1.601,0.533,0.152
1593919674365469,1.639,0.61,0.152
1593919674866932,1.563,0.533,0.152
1593919675368429,1.677,0.61,0.152
1593919675870022,1.639,0.61,0.152
1593919676371453,1.601,0.533,0.152
1593919676872969,1.677,0.61,0.152
1593919677374426,1.563,0.533,0.152
1593919677875897,1.639,0.61,0.152
1593919678377512,1.563,0.533,0.152
1593919678881826,1.639,0.61,0.152
1593919679383373,1.639,0.61,0.152
1593919679884864,1.563,0.533,0.152
1593919680386319,1.677,0.61,0.152
1593919680887817,1.601,0.61,0.152
1593919681389306,1.601,0.533,0.152
1593919681891735,1.639,0.61,0.152
1593919682393191,1.639,0.61,0.152
1593919682894642,1.639,0.533,0.152
1593919683396045,1.563,0.533,0.152
1593919683900037,1.601,0.61,0.152
1593919684401537,1.639,0.61,0.152
1593919684902967,1.563,0.533,0.152
1593919685404431,1.677,0.61,0.152
1593919685905932,1.639,0.61,0.152
1593919686407296,1.563,0.533,0.152
1593919686909015,1.639,0.61,0.152
1593919687410525,1.601,0.61,0.152
1593919687912007,1.639,0.61,0.152
1593919688413418,1.563,0.533,0.152
1593919688917123,1.677,0.61,0.152
1593919689418585,1.639,0.61,0.152
1593919689919973,1.563,0.533,0.152
1593919690421568,1.715,0.61,0.152
1593919690923082,1.639,0.61,0.152
1593919691424654,1.563,0.533,0.152
1593919691926055,1.601,0.61,0.152
1593919692427981,1.677,0.61,0.152
1593919692929480,1.677,0.61,0.152
1593919693430917,1.601,0.533,0.152
1593919693934853,1.601,0.61,0.152
1593919694436432,1.677,0.61,0.152
1593919694937897,1.563,0.533,0.152
1593919695439376,1.639,0.533,0.152
1593919695940841,1.639,0.61,0.152
1593919696442252,1.563,0.533,0.152
1593919696943703,1.601,0.533,0.152
1593919697445861,1.677,0.61,0.152
1593919697947361,1.601,0.533,0.152
1593919698448841,1.639,0.61,0.152
1593919698952714,1.601,0.61,0.152
1593919699454203,1.677,0.61,0.152
1593919699955663,1.601,0.61,0.152
1593919700457093,1.601,0.61,0.152
1593919700958636,1.715,0.61,0.152
1593919701460150,1.601,0.533,0.152
1593919701961686,1.601,0.533,0.152
1593919702464343,1.601,0.61,0.152
1593919702965848,1.601,0.533,0.152
1593919703467300,1.639,0.61,0.152
1593919703971160,1.601,0.533,0.152
1593919704472654,1.677,0.61,0.152
1593919704974111,1.601,0.61,0.152
1593919705475603,1.601,0.61,0.152
1593919705977178,1.677,0.61,0.152
1593919706478653,1.601,0.61,0.152
1593919706980192,1.677,0.61,0.152
1593919707481640,1.601,0.61,0.152
1593919707983066,1.601,0.61,0.152
1593919708484871,1.639,0.61,0.152
1593919708988997,1.563,0.533,0.152
1593919709490458,1.639,0.61,0.152
1593919709991960,1.639,0.61,0.152
1593919710493435,1.601,0.533,0.152
1593919710995028,1.639,0.61,0.152
1593919711496505,1.639,0.61,0.152
1593919711998000,1.601,0.61,0.152
1593919712499414,1.639,0.61,0.152
1593919713000831,1.601,0.61,0.152
1593919713502335,1.677,0.61,0.152
1593919714006196,1.601,0.61,0.152
1593919714508083,1.601,0.61,0.152
1593919715009694,1.753,0.61,0.152
1593919715511199,1.905,0.533,0.152
1593919716012765,2.058,0.61,0.152
1593919716514238,2.019,0.61,0.152
1593919717015872,1.829,0.61,0.152
1593919717517363,1.677,0.61,0.152
1593919718018812,1.639,0.61,0.152
1593919718520388,1.715,0.61,0.152
1593919719024331,1.601,0.61,0.152
1593919719526801,1.601,0.61,0.152
1593919720028324,1.639,0.61,0.152
1593919720529862,1.601,0.533,0.152
1593919721031445,1.639,0.61,0.152
1593919721532914,1.639,0.61,0.152
1593919722034415,1.601,0.61,0.152
1593919722535875,1.639,0.61,0.152
1593919723037398,1.639,0.61,0.152
1593919723538898,1.677,0.61,0.152
1593919724042692,1.601,0.61,0.152
1593919724544239,1.563,0.533,0.152
1593919725045666,1.715,0.61,0.152
1593919725547128,1.563,0.533,0.152
1593919726048684,1.639,0.533,0.152
1593919726550239,1.639,0.61,0.152
1593919727051770,1.601,0.61,0.152
1593919727553247,1.601,0.61,0.152
1593919728054791,1.601,0.533,0.152
1593919728556261,1.715,0.61,0.152
1593919729057664,1.601,0.61,0.152
1593919729559012,1.563,0.533,0.152
1593919730060614,1.715,0.61,0.152
1593919730562103,1.601,0.533,0.152
1593919731063557,1.639,0.533,0.152
1593919731565103,1.601,0.533,0.152
1593919732066606,1.601,0.533,0.152
1593919732568076,1.639,0.61,0.152
1593919733069481,1.563,0.533,0.152
1593919733571020,1.677,0.61,0.152
1593919734072479,1.639,0.61,0.152
1593919734576450,1.601,0.533,0.152
1593919735078000,1.677,0.61,0.152
1593919735579528,1.601,0.61,0.152
1593919736080985,1.563,0.533,0.152
1593919736582544,1.639,0.61,0.152
1593919737084053,1.601,0.61,0.152
1593919737585493,1.639,0.61,0.152
1593919738086858,1.563,0.533,0.152
1593919738588577,1.639,0.61,0.152
1593919739090067,1.639,0.61,0.152
1593919739593794,1.563,0.533,0.152
1593919740095260,1.639,0.61,0.152
1593919740596905,1.639,0.61,0.152
1593919741098355,1.563,0.533,0.152
1593919741599872,1.639,0.61,0.152
1593919742101328,1.639,0.61,0.152
1593919742602774,1.639,0.61,0.152
1593919743104243,1.639,0.61,0.152
1593919743606670,1.601,0.533,0.152
1593919744108294,1.639,0.61,0.152
1593919744612232,1.563,0.533,0.152
1593919745113771,1.639,0.61,0.152
1593919745615272,1.639,0.61,0.152
1593919746116851,1.563,0.533,0.152
1593919746618331,1.639,0.61,0.152
1593919747120305,1.601,0.61,0.152
1593919747621782,1.677,0.61,0.152
1593919748123278,1.639,0.61,0.152
1593919748624720,1.563,0.533,0.152
1593919749126215,1.639,0.61,0.152
1593919749630110,1.601,0.61,0.152
1593919750131641,1.677,0.61,0.152
1593919750633149,1.677,0.61,0.152
1593919751134728,1.601,0.61,0.152
1593919751636247,1.639,0.61,0.152
1593919752139206,1.563,0.533,0.152
1593919752640753,1.677,0.61,0.152
1593919753142250,1.601,0.61,0.152
1593919753643748,1.563,0.533,0.152
1593919754145202,1.639,0.61,0.152
1593919754649010,1.601,0.61,0.152
1593919755150513,1.639,0.61,0.152
1593919755652184,1.639,0.61,0.152
1593919756153697,1.639,0.61,0.152
1593919756655162,1.639,0.61,0.152
1593919757156592,1.563,0.533,0.152
1593919757658192,1.715,0.61,0.152
1593919758159829,1.601,0.61,0.152
1593919758661279,1.563,0.533,0.152
1593919759162715,1.677,0.61,0.152
1593919759666714,1.601,0.533,0.152
1593919760168194,1.639,0.61,0.152
1593919760669752,1.601,0.61,0.152
1593919761171262,1.639,0.61,0.152
1593919761672892,1.639,0.61,0.152
1593919762174311,1.563,0.533,0.152
1593919762675800,1.753,0.61,0.152
1593919763177261,1.601,0.61,0.152
1593919763678674,1.563,0.533,0.152
1593919764180321,1.639,0.61,0.152
1593919764684397,1.639,0.61,0.152
1593919765185846,1.639,0.61,0.152
1593919765687258,1.601,0.533,0.152
1593919766189808,1.677,0.61,0.152
1593919766691266,1.639,0.61,0.152
1593919767192744,1.563,0.533,0.152
1593919767695836,1.677,0.61,0.152
1593919768197333,1.639,0.61,0.152
1593919768698726,1.563,0.533,0.152
1593919769200310,1.639,0.61,0.152
1593919769704262,1.639,0.61,0.152
1593919770205748,1.639,0.61,0.152
1593919770707156,1.601,0.61,0.152
1593919771208798,1.639,0.61,0.152
1593919771710280,1.639,0.61,0.152
1593919772211849,1.563,0.533,0.152
1593919772713321,1.639,0.61,0.152
1593919773214789,1.639,0.61,0.152
1593919773716233,1.525,0.533,0.152
1593919774217695,1.601,0.61,0.152
1593919774721452,1.677,0.61,0.152
1593919775222911,1.563,0.533,0.152
1593919775724579,1.639,0.61,0.152
1593919776226167,1.601,0.61,0.152
1593919776727668,1.601,0.61,0.152
1593919777229149,1.601,0.61,0.152
1593919777730622,1.563,0.533,0.152
1593919778232071,1.905,0.61,0.152
1593919778734406,1.981,0.533,0.152
1593919779235892,2.019,0.61,0.152
1593919779760393,2.019,0.61,0.152
1593919780261857,1.715,0.61,0.152
1593919780763366,1.715,0.61,0.152
1593919781264801,1.601,0.533,0.152
1593919781766263,1.639,0.61,0.152
1593919782268836,1.677,0.61,0.152
1593919782770308,1.563,0.533,0.152
1593919783271956,1.639,0.61,0.152
1593919783774800,1.601,0.61,0.152
1593919784276343,1.601,0.61,0.152
1593919784780274,1.601,0.61,0.152
1593919785281740,1.601,0.533,0.152
1593919785783238,1.677,0.61,0.152
1593919786284808,1.563,0.533,0.152
1593919786787442,1.601,0.533,0.152
1593919787288958,1.677,0.61,0.152
1593919787790403,1.563,0.533,0.152
1593919788291824,1.563,0.533,0.152
1593919788793246,1.677,0.61,0.152
1593919789294717,1.563,0.533,0.152
1593919789798595,1.639,0.533,0.152
1593919790300155,1.639,0.61,0.152
1593919790801671,1.601,0.61,0.152
1593919791303139,1.601,0.61,0.152
1593919791805257,1.601,0.533,0.152
1593919792306760,1.677,0.61,0.152
1593919792808213,1.601,0.533,0.152
1593919793309627,1.563,0.533,0.152
1593919793812093,1.715,0.61,0.152
1593919794313579,1.563,0.533,0.152
1593919794817645,1.639,0.533,0.152
1593919795319189,1.601,0.533,0.152
1593919795820752,1.639,0.61,0.152
1593919796322175,1.601,0.61,0.152
1593919796823574,1.563,0.533,0.152
1593919797324981,1.715,0.61,0.152
1593919797826965,1.601,0.61,0.152
1593919798328394,1.563,0.533,0.152
1593919798829951,1.639,0.61,0.152
1593919799331450,1.601,0.533,0.152
1593919799835494,1.601,0.533,0.152
1593919800337070,1.677,0.61,0.152
1593919800838568,1.601,0.61,0.152
1593919801340020,1.639,0.61,0.152
1593919801841572,1.563,0.533,0.152
1593919802343134,1.639,0.61,0.152
1593919802844648,1.639,0.61,0.152
1593919803346122,1.563,0.533,0.152
1593919803847627,1.639,0.61,0.152
1593919804349125,1.601,0.61,0.152
1593919804853001,1.563,0.533,0.152
1593919805354440,1.639,0.61,0.152
1593919805855982,1.639,0.61,0.152
1593919806357437,1.639,0.61,0.152
1593919806858903,1.639,0.61,0.152
1593919807360610,1.601,0.61,0.152
1593919807862106,1.639,0.61,0.152
1593919808363687,1.563,0.533,0.152
1593919808865088,1.639,0.61,0.152
1593919809366549,1.639,0.61,0.152
1593919809870414,1.601,0.533,0.152
1593919810371907,1.639,0.61,0.152
1593919810873467,1.639,0.61,0.152
1593919811374953,1.639,0.533,0.152
1593919811876463,1.601,0.61,0.152
1593919812377918,1.563,0.533,0.152
1593919812879376,1.639,0.61,0.152
1593919813380952,1.601,0.61,0.152
1593919813882458,1.601,0.533,0.152
1593919814384069,1.639,0.61,0.152
1593919814888044,1.563,0.533,0.152
1593919815389534,1.639,0.533,0.152
1593919815891178,1.601,0.61,0.152
1593919816392686,1.601,0.533,0.152
1593919816894181,1.639,0.533,0.152
1593919817395645,1.563,0.533,0.152
1593919817897110,1.639,0.61,0.152
1593919818398635,1.639,0.61,0.152
1593919818900234,1.563,0.533,0.152
1593919819401781,1.677,0.61,0.152
1593919819906114,1.639,0.61,0.152
1593919820407576,1.563,0.533,0.152
1593919820909084,1.601,0.533,0.152
1593919821410632,1.601,0.61,0.152
1593919821912274,1.677,0.61,0.152
1593919822413737,1.601,0.61,0.152
1593919822915205,1.601,0.61,0.152
1593919823416757,1.639,0.61,0.152
1593919823918224,1.563,0.533,0.152
1593919824419911,1.639,0.61,0.152
1593919824923964,1.639,0.61,0.152
1593919825425413,1.563,0.533,0.152
1593919825926784,1.601,0.61,0.152
1593919826428264,1.639,0.61,0.152
1593919826929746,1.639,0.61,0.152
1593919827431171,1.601,0.533,0.152
1593919827933893,1.639,0.61,0.152
1593919828435410,1.677,0.61,0.152
1593919828936829,1.563,0.533,0.152
1593919829438209,1.639,0.533,0.152
1593919829941953,1.715,0.61,0.152
1593919830443437,1.563,0.533,0.152
1593919830944850,1.639,0.61,0.152
1593919831447445,1.639,0.61,0.152
1593919831948948,1.639,0.61,0.152
1593919832450395,1.601,0.61,0.152
1593919832951931,1.563,0.533,0.152
1593919833453390,1.677,0.61,0.152
1593919833954846,1.563,0.533,0.152
1593919834456264,1.601,0.533,0.152
1593919834960573,1.677,0.61,0.152
1593919835462100,1.601,0.533,0.152
1593919835963559,1.639,0.61,0.152
1593919836465018,1.601,0.61,0.152
1593919836966474,1.639,0.61,0.152
1593919837468026,1.601,0.61,0.152
1593919837969474,1.601,0.61,0.152
1593919838470971,1.715,0.61,0.152
1593919838972471,1.601,0.533,0.152
1593919839474025,1.601,0.61,0.152
1593919839978160,1.639,0.61,0.152
1593919840479681,1.601,0.533,0.152
1593919840981120,1.677,0.61,0.152
1593919841482611,1.905,0.533,0.152
1593919841984081,2.019,0.61,0.152
1593919842485527,2.019,0.61,0.152
1593919842986965,1.867,0.61,0.152
1593919843488643,1.753,0.61,0.152
1593919843990131,1.639,0.61,0.152
1593919844491709,1.601,0.533,0.152
1593919844995885,1.639,0.61,0.152
1593919845497375,1.601,0.61,0.152
1593919845998834,1.639,0.533,0.152
1593919846500397,1.601,0.61,0.152
1593919847001893,1.639,0.61,0.152
1593919847503368,1.639,0.61,0.152
1593919848004837,1.601,0.533,0.152
1593919848506774,1.639,0.61,0.152
1593919849008175,1.639,0.61,0.152
1593919849509688,1.601,0.61,0.152
1593919850013537,1.639,0.61,0.152
1593919850515009,1.601,0.61,0.152
1593919851016652,1.639,0.61,0.152
1593919851518160,1.601,0.61,0.152
1593919852020558,1.601,0.61,0.152
1593919852522048,1.639,0.533,0.152
1593919853023547,1.563,0.533,0.152
1593919853524989,1.525,0.533,0.152
1593919854026441,1.639,0.61,0.152
1593919854527989,1.601,0.533,0.152
1593919855031767,1.639,0.533,0.152
1593919855533252,1.639,0.61,0.152
1593919856034751,1.601,0.61,0.152
1593919856536198,1.639,0.61,0.152
1593919857037770,1.601,0.533,0.152
1593919857539488,1.677,0.61,0.152
1593919858040907,1.601,0.61,0.152
1593919858542289,1.563,0.533,0.152
1593919859043771,1.639,0.61,0.152
1593919859545272,1.601,0.533,0.152
1593919860049342,1.639,0.61,0.152
1593919860550888,1.639,0.61,0.152
1593919861052375,1.601,0.61,0.152
1593919861553833,1.639,0.61,0.152
1593919862055232,1.563,0.533,0.152
1593919862556742,1.715,0.61,0.152
1593919863058211,1.601,0.61,0.152
1593919863559629,1.563,0.533,0.152
1593919864061168,1.715,0.61,0.152
1593919864562670,1.601,0.533,0.152
1593919865066753,1.601,0.533,0.152
1593919865568429,1.601,0.61,0.152
1593919866069934,1.601,0.61,0.152
1593919866571405,1.639,0.61,0.152
1593919867072819,1.563,0.533,0.152
1593919867574362,1.715,0.61,0.152
1593919868075863,1.639,0.61,0.152
1593919868577305,1.563,0.533,0.152
1593919869078895,1.639,0.61,0.152
1593919869580529,1.639,0.61,0.152
1593919870084779,1.677,0.61,0.152
1593919870586211,1.601,0.61,0.152
1593919871087629,1.639,0.61,0.152
1593919871589081,1.639,0.61,0.152
1593919872090506,1.563,0.533,0.152
1593919872592202,1.677,0.61,0.152
1593919873093704,1.639,0.61,0.152
1593919873595162,1.563,0.533,0.152
1593919874096904,1.677,0.61,0.152
1593919874598400,1.639,0.61,0.152
1593919875102354,1.639,0.61,0.152
1593919875603949,1.639,0.61,0.152
1593919876105560,1.639,0.61,0.152
1593919876607046,1.639,0.61,0.152
1593919877108557,1.563,0.533,0.152
1593919877610034,1.601,0.61,0.152
1593919878111667,1.639,0.61,0.152
1593919878613128,1.563,0.533,0.152
1593919879114604,1.639,0.533,0.152
1593919879616148,1.639,0.61,0.152
1593919880120240,1.563,0.533,0.152
1593919880621731,1.677,0.61,0.152
1593919881123283,1.601,0.533,0.152
1593919881624906,1.639,0.533,0.152
1593919882126516,1.639,0.61,0.152
1593919882628024,1.563,0.533,0.152
1593919883129554,1.677,0.61,0.152
1593919883630992,1.563,0.533,0.152
1593919884132429,1.639,0.533,0.152
1593919884634011,1.639,0.61,0.152
1593919885137871,1.563,0.533,0.152
1593919885639380,1.639,0.61,0.152
1593919886140829,1.563,0.533,0.152
1593919886642287,1.639,0.61,0.152
1593919887143799,1.639,0.61,0.152
1593919887645251,1.563,0.533,0.152
1593919888146711,1.677,0.61,0.152
1593919888648231,1.639,0.61,0.152
1593919889149624,1.639,0.61,0.152
1593919889651223,1.601,0.61,0.152
1593919890155460,1.601,0.533,0.152
1593919890656968,1.639,0.61,0.152
1593919891158435,1.563,0.533,0.152
1593919891659940,1.677,0.61,0.152
1593919892161442,1.601,0.61,0.152
1593919892662858,1.563,0.533,0.152
1593919893164752,1.677,0.61,0.152
1593919893666257,1.601,0.61,0.152
1593919894167761,1.639,0.61,0.152
1593919894669176,1.563,0.533,0.152
1593919895172945,1.639,0.61,0.152
1593919895674453,1.639,0.61,0.152
1593919896175879,1.563,0.533,0.152
1593919896677413,1.715,0.61,0.152
1593919897178923,1.601,0.61,0.152
1593919897680483,1.563,0.533,0.152
1593919898182001,1.639,0.61,0.152
1593919898683628,1.601,0.61,0.152
1593919899185092,1.639,0.533,0.152
1593919899686493,1.563,0.533,0.152
1593919900190610,1.677,0.61,0.152
1593919900692081,1.639,0.61,0.152
1593919901193514,1.563,0.533,0.152
1593919901695090,1.639,0.61,0.152
1593919902196627,1.639,0.61,0.152
1593919902698093,1.563,0.533,0.152
1593919903199547,1.601,0.533,0.152
1593919903700981,1.639,0.61,0.152
1593919904202489,1.829,0.61,0.152
1593919904703955,1.943,0.533,0.152
1593919905207498,2.019,0.61,0.152
1593919905708964,2.019,0.61,0.152
1593919906210430,1.715,0.533,0.152
1593919906712270,1.715,0.61,0.152
1593919907213763,1.639,0.61,0.152
1593919907715210,1.601,0.533,0.152
1593919908216815,1.639,0.61,0.152
1593919908718396,1.639,0.61,0.152
1593919909219927,1.677,0.61,0.152
1593919909721381,1.601,0.533,0.152
1593919910225230,1.601,0.61,0.152
1593919910726737,1.639,0.61,0.152
1593919911228196,1.563,0.533,0.152
1593919911729667,1.639,0.61,0.152
1593919912231126,1.639,0.61,0.152
1593919912732589,1.601,0.533,0.152
1593919913234100,1.677,0.61,0.152
1593919913735672,1.563,0.533,0.152
1593919914237171,1.639,0.61,0.152
1593919914738756,1.601,0.533,0.152
1593919915242607,1.563,0.533,0.152
1593919915744097,1.639,0.61,0.152
1593919916245510,1.563,0.533,0.152
1593919916746985,1.677,0.61,0.152
1593919917248556,1.639,0.61,0.152
1593919917750036,1.563,0.533,0.152
1593919918251571,1.639,0.61,0.152
1593919918753016,1.563,0.533,0.152
1593919919254436,1.677,0.61,0.152
1593919919756009,1.639,0.61,0.152
1593919920259869,1.563,0.533,0.152
1593919920761351,1.677,0.61,0.152
1593919921262935,1.639,0.61,0.152
1593919921764424,1.639,0.61,0.152
1593919922266845,1.639,0.61,0.152
1593919922768477,1.563,0.533,0.152
1593919923269977,1.639,0.61,0.152
1593919923771437,1.563,0.533,0.152
1593919924272926,1.677,0.61,0.152
1593919924774429,1.639,0.61,0.152
1593919925278251,1.563,0.533,0.152
1593919925779884,1.677,0.61,0.152
1593919926281393,1.639,0.61,0.152
1593919926782808,1.639,0.61,0.152
1593919927284206,1.601,0.61,0.152
1593919927785753,1.639,0.61,0.152
1593919928287259,1.639,0.61,0.152
1593919928788762,1.563,0.533,0.152
1593919929290250,1.677,0.61,0.152
1593919929791772,1.639,0.61,0.152
1593919930295572,1.601,0.533,0.152
1593919930797117,1.677,0.61,0.152
1593919931298622,1.639,0.61,0.152
1593919931800006,1.639,0.61,0.152
1593919932301423,1.601,0.61,0.152
1593919932802892,1.677,0.61,0.152
1593919933304485,1.639,0.61,0.152
1593919933805898,1.563,0.533,0.152
1593919934307573,1.677,0.61,0.152
1593919934809061,1.639,0.61,0.152
1593919935312816,1.563,0.533,0.152
1593919935814231,1.601,0.61,0.152
1593919936315638,1.677,0.61,0.152
1593919936817119,1.639,0.61,0.152
1593919937318543,1.601,0.61,0.152
1593919937820809,1.601,0.61,0.152
1593919938322271,1.677,0.61,0.152
1593919938823835,1.563,0.533,0.152
1593919939325377,1.639,0.61,0.152
1593919939826880,1.677,0.61,0.152
1593919940330814,1.601,0.533,0.152
1593919940832237,1.601,0.61,0.152
1593919941334096,1.639,0.61,0.152
1593919941835590,1.639,0.61,0.152
1593919942336948,1.601,0.61,0.152
1593919942838411,1.601,0.61,0.152
1593919943339947,1.677,0.61,0.152
1593919943841392,1.563,0.533,0.152
1593919944342851,1.677,0.61,0.152
1593919944844455,1.677,0.61,0.152
1593919945348293,1.601,0.533,0.152
1593919945849852,1.677,0.61,0.152
1593919946351546,1.601,0.61,0.152
1593919946853041,1.639,0.61,0.152
1593919947354486,1.563,0.533,0.152
1593919947855967,1.563,0.533,0.152
1593919948357461,1.677,0.61,0.152
1593919948858865,1.601,0.533,0.152
1593919949360417,1.601,0.61,0.152
1593919949862871,1.677,0.61,0.152
1593919950367129,1.563,0.533,0.152
1593919950868891,1.677,0.61,0.152
1593919951370352,1.563,0.533,0.152
1593919951871858,1.601,0.533,0.152
1593919952373309,1.677,0.61,0.152
1593919952874766,1.563,0.533,0.152
1593919953376240,1.677,0.61,0.152
1593919953877809,1.601,0.533,0.152
1593919954379269,1.563,0.533,0.152
1593919954881059,1.639,0.61,0.152
1593919955385055,1.601,0.533,0.152
1593919955886558,1.677,0.61,0.152
1593919956388021,1.563,0.533,0.152
1593919956889483,1.601,0.61,0.152
1593919957390978,1.639,0.61,0.152
1593919957892464,1.563,0.533,0.152
1593919958393994,1.677,0.61,0.152
1593919958895545,1.639,0.61,0.152
1593919959397008,1.563,0.533,0.152
1593919959898418,1.601,0.61,0.152
1593919960402333,1.601,0.61,0.152
1593919960903836,1.639,0.61,0.152
1593919961405295,1.563,0.533,0.152
1593919961906754,1.601,0.61,0.152
1593919962408237,1.639,0.61,0.152
1593919962909746,1.563,0.533,0.152
1593919963411379,1.677,0.61,0.152
1593919963912883,1.639,0.61,0.152
1593919964414349,1.563,0.533,0.152
1593919964915927,1.601,0.533,0.152
1593919965419708,1.639,0.61,0.152
1593919965921165,1.639,0.61,0.152
1593919966422582,1.563,0.533,0.152
1593919966924146,1.639,0.61,0.152
1593919967425683,1.943,0.61,0.152
1593919967927134,1.943,0.533,0.152
1593919968428613,2.019,0.533,0.152
1593919968932139,1.905,0.61,0.152
1593919969433654,1.677,0.61,0.152
1593919969935136,1.639,0.533,0.152
1593919970438922,1.563,0.533,0.152
1593919970940428,1.677,0.61,0.152
1593919971441896,1.601,0.533,0.152
1593919971943432,1.525,0.533,0.152
1593919972444994,1.677,0.61,0.152
1593919972946525,1.601,0.61,0.152
1593919973447990,1.563,0.533,0.152
1593919973949548,1.639,0.61,0.152
1593919974451055,1.639,0.61,0.152
1593919974952514,1.601,0.533,0.152
1593919975456446,1.601,0.61,0.152
1593919975958011,1.639,0.61,0.152
1593919976459539,1.639,0.61,0.152
1593919976960983,1.563,0.533,0.152
1593919977462451,1.639,0.61,0.152
1593919977963941,1.677,0.61,0.152
1593919978465327,1.563,0.533,0.152
1593919978966811,1.677,0.61,0.152
1593919979468331,1.639,0.61,0.152
1593919979969773,1.601,0.61,0.152
1593919980473608,1.639,0.61,0.152
1593919980976083,1.601,0.61,0.152
1593919981477567,1.677,0.61,0.152
1593919981979087,1.563,0.533,0.152
1593919982480582,1.601,0.61,0.152
1593919982982040,1.639,0.61,0.152
1593919983483435,1.563,0.533,0.152
1593919983984944,1.639,0.61,0.152
1593919984486501,1.677,0.61,0.152
1593919984988014,1.563,0.533,0.152
1593919985492086,1.677,0.61,0.152
1593919985993535,1.563,0.533,0.152
1593919986494975,1.639,0.61,0.152
1593919986996453,1.677,0.61,0.152
1593919987497929,1.563,0.533,0.152
1593919987999420,1.677,0.61,0.152
1593919988501014,1.601,0.533,0.152
1593919989002413,1.639,0.61,0.152
1593919989504796,1.639,0.61,0.152
1593919990006412,1.601,0.61,0.152
1593919990510502,1.677,0.61,0.152
1593919991011975,1.563,0.533,0.152
1593919991513428,1.639,0.61,0.152
1593919992014929,1.639,0.61,0.152
1593919992516402,1.563,0.533,0.152
1593919993017948,1.677,0.61,0.152
1593919993519453,1.639,0.61,0.152
1593919994020906,1.639,0.61,0.152
1593919994522317,1.563,0.533,0.152
1593919995023877,1.601,0.533,0.152
1593919995527743,1.639,0.61,0.152
1593919996029194,1.563,0.533,0.152
1593919996530644,1.639,0.61,0.152
1593919997032289,1.639,0.61,0.152
1593919997533769,1.563,0.533,0.152
1593919998035413,1.639,0.61,0.152
1593919998536936,1.639,0.61,0.152
1593919999038397,1.601,0.533,0.152
1593919999539856,1.601,0.61,0.152
1593920000041329,1.639,0.61,0.152
1593920000545130,1.639,0.61,0.152
1593920001046556,1.563,0.533,0.152
1593920001548123,1.677,0.61,0.152
1593920002049707,1.639,0.61,0.152
1593920002551175,1.563,0.533,0.152
1593920003052604,1.639,0.61,0.152
1593920003554045,1.677,0.61,0.152
1593920004055536,1.601,0.61,0.152
1593920004556967,1.601,0.61,0.152
1593920005058507,1.601,0.61,0.152
1593920005560014,1.677,0.61,0.152
1593920006061432,1.563,0.533,0.152
1593920006562828,1.525,0.533,0.152
1593920007064297,1.677,0.61,0.152
1593920007565751,1.563,0.533,0.152
1593920008067165,1.639,0.533,0.152
1593920008569080,1.677,0.61,0.152
1593920009070482,1.601,0.61,0.152
1593920009571843,1.601,0.61,0.152
1593920010073315,1.601,0.61,0.152
1593920010577105,1.715,0.61,0.152
1593920011078511,1.601,0.61,0.152
1593920011579985,1.601,0.61,0.152
1593920012081438,1.715,0.61,0.152
1593920012582898,1.563,0.533,0.152
1593920013084530,1.639,0.61,0.152
1593920013586096,1.639,0.61,0.152
1593920014087628,1.601,0.61,0.152
1593920014589085,1.601,0.61,0.152
1593920015090610,1.563,0.533,0.152
1593920015594612,1.677,0.61,0.152
1593920016096038,1.601,0.61,0.152
1593920016597492,1.601,0.533,0.152
1593920017099061,1.677,0.61,0.152
1593920017600635,1.563,0.533,0.152
1593920018102138,1.601,0.533,0.152
1593920018603604,1.601,0.533,0.152
1593920019105069,1.601,0.533,0.152
1593920019606650,1.563,0.533,0.152
1593920020108201,1.601,0.533,0.152
1593920020612502,1.601,0.61,0.152
1593920021113942,1.601,0.533,0.152
1593920021615415,1.601,0.533,0.152
1593920022116988,1.563,0.533,0.152
1593920022618477,1.639,0.533,0.152
1593920023119989,1.601,0.61,0.152
1593920023621453,1.563,0.533,0.152
1593920024122920,1.639,0.61,0.152
1593920024624423,1.601,0.61,0.152
1593920025125901,1.563,0.533,0.152
1593920025627483,1.639,0.61,0.152
1593920026129057,1.601,0.533,0.152
1593920026630564,1.563,0.533,0.152
1593920027132021,1.601,0.533,0.152
1593920027633436,1.601,0.533,0.152
1593920028134933,1.601,0.533,0.152
1593920028636397,1.563,0.533,0.152
1593920029137856,1.639,0.61,0.152
1593920029639357,1.677,0.61,0.152
1593920030140801,1.753,0.533,0.152
1593920030644941,1.943,0.533,0.152
1593920031146480,2.096,0.61,0.152
1593920031647964,1.981,0.61,0.152
1593920032149459,1.715,0.533,0.152
1593920032651054,1.753,0.61,0.152
1593920033152660,1.601,0.533,0.152
1593920033654115,1.563,0.533,0.152
1593920034155652,1.639,0.61,0.152
1593920034657150,1.601,0.533,0.152
1593920035158627,1.639,0.533,0.152
1593920035662484,1.563,0.533,0.152
1593920036163983,1.677,0.61,0.152
1593920036665443,1.639,0.533,0.152
1593920037166855,1.563,0.533,0.152
1593920037668562,1.601,0.533,0.152
1593920038170058,1.639,0.61,0.152
1593920038671761,1.563,0.533,0.152
1593920039173167,1.563,0.533,0.152
1593920039674618,1.677,0.61,0.152
1593920040176084,1.563,0.533,0.152
1593920040679832,1.601,0.533,0.152
1593920041181579,1.639,0.61,0.152
1593920041683135,1.601,0.533,0.152
1593920042184570,1.639,0.533,0.152
1593920042686035,1.601,0.61,0.152
1593920043187559,1.601,0.61,0.152
1593920043689016,1.601,0.533,0.152
1593920044190576,1.601,0.533,0.152
1593920044692141,1.639,0.61,0.152
1593920045194058,1.601,0.533,0.152
1593920045697878,1.563,0.533,0.152
1593920046199355,1.563,0.533,0.152
1593920046700860,1.601,0.61,0.152
1593920047202330,1.563,0.533,0.152
1593920047703799,1.639,0.533,0.152
1593920048205313,1.639,0.61,0.152
1593920048706764,1.563,0.533,0.152
1593920049208222,1.677,0.61,0.152
1593920049709797,1.601,0.61,0.152
1593920050211355,1.601,0.533,0.152
1593920050715254,1.677,0.61,0.152
1593920051216887,1.563,0.533,0.152
1593920051718381,1.601,0.533,0.152
1593920052219939,1.601,0.533,0.152
1593920052721407,1.601,0.533,0.152
1593920053224557,1.639,0.61,0.152
1593920053726009,1.601,0.533,0.152
1593920054227476,1.601,0.533,0.152
1593920054730607,1.639,0.533,0.152
1593920055232088,1.601,0.533,0.152
1593920055736078,1.601,0.61,0.152
1593920056237736,1.601,0.533,0.152
1593920056739198,1.601,0.61,0.152
1593920057240716,1.639,0.61,0.152
1593920057742166,1.601,0.533,0.152
1593920058244359,1.601,0.533,0.152
1593920058745931,1.563,0.533,0.152
1593920059247455,1.601,0.533,0.152
1593920059748914,1.563,0.533,0.152
1593920060250360,1.639,0.533,0.152
1593920060754158,1.601,0.533,0.152
1593920061255630,1.563,0.533,0.152
1593920061757070,1.677,0.61,0.152
1593920062258567,1.601,0.61,0.152
1593920062760032,1.563,0.533,0.152
1593920063261588,1.639,0.533,0.152
1593920063763090,1.639,0.61,0.152
1593920064264612,1.563,0.533,0.152
1593920064766053,1.601,0.533,0.152
1593920065267633,1.601,0.61,0.152
1593920065771649,1.601,0.533,0.152
1593920066273106,1.563,0.533,0.152
1593920066774646,1.601,0.533,0.152
1593920067276164,1.677,0.61,0.152
1593920067777648,1.563,0.533,0.152
1593920068279043,1.563,0.533,0.152
1593920068780498,1.715,0.61,0.152
1593920069281904,1.601,0.533,0.152
1593920069783257,1.563,0.533,0.152
1593920070285946,1.677,0.61,0.152
1593920070789936,1.601,0.61,0.152
1593920071291415,1.563,0.533,0.152
1593920071792824,1.601,0.533,0.152
1593920072294271,1.639,0.61,0.152
1593920072795774,1.601,0.533,0.152
1593920073297182,1.563,0.533,0.152
1593920073799686,1.639,0.61,0.152
1593920074301180,1.639,0.61,0.152
1593920074802687,1.563,0.533,0.152
1593920075304347,1.601,0.533,0.152
1593920075805806,1.639,0.61,0.152
1593920076307263,1.563,0.533,0.152
1593920076809030,1.563,0.533,0.152
1593920077310549,1.677,0.61,0.152
1593920077812031,1.563,0.533,0.152
1593920078313462,1.639,0.533,0.152
1593920078814924,1.601,0.533,0.152
1593920079316398,1.601,0.533,0.152
1593920079817839,1.639,0.533,0.152
1593920080319352,1.601,0.61,0.152
1593920080823126,1.601,0.61,0.152
1593920081324591,1.601,0.533,0.152
1593920081826313,1.601,0.61,0.152
1593920082328783,1.601,0.533,0.152
1593920082830277,1.601,0.533,0.152
1593920083331940,1.563,0.533,0.152
1593920083833445,1.601,0.533,0.152
1593920084334938,1.639,0.61,0.152
1593920084836389,1.563,0.533,0.152
1593920085337854,1.639,0.533,0.152
1593920085841696,1.639,0.61,0.152
1593920086343153,1.563,0.533,0.152
1593920086844736,1.639,0.61,0.152
1593920087346336,1.563,0.533,0.152
1593920087847826,1.601,0.533,0.152
1593920088349325,1.639,0.61,0.152
1593920088850779,1.563,0.533,0.152
1593920089352243,1.639,0.61,0.152
1593920089854461,1.601,0.61,0.152
1593920090355969,1.563,0.533,0.152
1593920090859932,1.677,0.61,0.152
1593920091361452,1.601,0.533,0.152
1593920091862957,1.563,0.533,0.152
1593920092364412,1.601,0.533,0.152
1593920092865872,1.601,0.61,0.152
1593920093367378,1.905,0.61,0.152
1593920093868899,2.019,0.533,0.152
1593920094370318,2.019,0.61,0.152
1593920094871930,1.905,0.61,0.152
1593920095373441,1.677,0.533,0.152
1593920095877477,1.601,0.533,0.152
1593920096378998,1.639,0.533,0.152
1593920096880537,1.601,0.533,0.152
1593920097382012,1.563,0.533,0.152
1593920097883482,1.639,0.61,0.152
1593920098384990,1.601,0.61,0.152
1593920098886444,1.563,0.533,0.152
1593920099388055,1.639,0.61,0.152
1593920099889513,1.639,0.61,0.152
1593920100390999,1.563,0.533,0.152
1593920100894827,1.601,0.533,0.152
1593920101396380,1.639,0.61,0.152
1593920101897918,1.639,0.61,0.152
1593920102399379,1.601,0.533,0.152
1593920102900829,1.639,0.61,0.152
1593920103402324,1.639,0.61,0.152
1593920103906279,1.563,0.533,0.152
1593920104407998,1.601,0.533,0.152
1593920104909517,1.639,0.61,0.152
1593920105410986,1.563,0.533,0.152
1593920105914677,1.639,0.533,0.152
1593920106416147,1.677,0.61,0.152
1593920106917621,1.563,0.533,0.152
1593920107419050,1.601,0.533,0.152
1593920107920626,1.563,0.533,0.152
1593920108422136,1.639,0.61,0.152
1593920108923601,1.601,0.533,0.152
1593920109424959,1.601,0.533,0.152
1593920109927470,1.753,0.61,0.152
1593920110428990,1.639,0.61,0.152
1593920110932879,1.563,0.533,0.152
1593920111434353,1.677,0.61,0.152
1593920111935849,1.601,0.61,0.152
1593920112437302,1.639,0.61,0.152
1593920112938905,1.639,0.61,0.152
1593920113440412,1.639,0.61,0.152
1593920113941845,1.639,0.61,0.152
1593920114443368,1.563,0.533,0.152
1593920114944877,1.677,0.61,0.152
1593920115446379,1.639,0.61,0.152
1593920115950207,1.563,0.533,0.152
1593920116451715,1.639,0.61,0.152
1593920116953219,1.601,0.61,0.152
1593920117454641,1.639,0.61,0.152
1593920117956296,1.639,0.61,0.152
1593920118457751,1.639,0.61,0.152
1593920118959200,1.639,0.61,0.152
1593920119460865,1.601,0.61,0.152
1593920119962469,1.639,0.61,0.152
1593920120463970,1.639,0.61,0.152
1593920120967781,1.563,0.533,0.152
1593920121469239,1.639,0.61,0.152
1593920121970726,1.639,0.61,0.152
1593920122472164,1.601,0.61,0.152
1593920122973646,1.639,0.61,0.152
1593920123475246,1.601,0.61,0.152
1593920123976829,1.639,0.61,0.152
1593920124478325,1.601,0.61,0.152
1593920124979794,1.601,0.61,0.152
1593920125481260,1.639,0.61,0.152
1593920125985155,1.601,0.61,0.152
1593920126486685,1.639,0.61,0.152
1593920126988175,1.639,0.61,0.152
1593920127489620,1.601,0.61,0.152
1593920127991065,1.601,0.61,0.152
1593920128492691,1.563,0.533,0.152
1593920128994200,1.639,0.61,0.152
1593920129495824,1.601,0.61,0.152
1593920129997246,1.601,0.533,0.152
1593920130498696,1.639,0.61,0.152
1593920131002645,1.601,0.61,0.152
1593920131504218,1.639,0.61,0.152
1593920132005788,1.601,0.61,0.152
1593920132507613,1.677,0.61,0.152
1593920133009066,1.639,0.61,0.152
1593920133510500,1.563,0.533,0.152
1593920134012099,1.677,0.61,0.152
1593920134513663,1.601,0.61,0.152
1593920135015121,1.639,0.533,0.152
1593920135516680,1.677,0.61,0.152
1593920136020682,1.601,0.61,0.152
1593920136522163,1.639,0.61,0.152
1593920137023820,1.601,0.61,0.152
1593920137525284,1.677,0.61,0.152
1593920138026727,1.601,0.61,0.152
1593920138528269,1.563,0.533,0.152
1593920139029683,1.715,0.61,0.152
1593920139531150,1.601,0.61,0.152
1593920140032613,1.563,0.533,0.152
1593920140534167,1.639,0.61,0.152
1593920141038090,1.601,0.61,0.152
1593920141539554,1.639,0.61,0.152
1593920142040966,1.563,0.533,0.152
1593920142542547,1.677,0.61,0.152
1593920143044008,1.639,0.61,0.152
1593920143545444,1.563,0.533,0.152
1593920144047014,1.677,0.61,0.152
1593920144548512,1.639,0.61,0.152
1593920145049962,1.601,0.533,0.152
1593920145552753,1.601,0.61,0.152
1593920146056767,1.639,0.61,0.152
1593920146558223,1.639,0.61,0.152
1593920147059645,1.563,0.533,0.152
1593920147561145,1.639,0.61,0.152
1593920148062636,1.639,0.61,0.152
1593920148564096,1.563,0.533,0.152
1593920149065435,1.677,0.61,0.152
1593920149566940,1.639,0.61,0.152
1593920150068393,1.601,0.533,0.152
1593920150569810,1.677,0.61,0.152
1593920151073557,1.639,0.61,0.152
1593920151575043,1.639,0.61,0.152
1593920152076603,1.601,0.533,0.152
1593920152578204,1.601,0.61,0.152
1593920153079725,1.639,0.61,0.152
1593920153581178,1.563,0.533,0.152
1593920154082651,1.639,0.61,0.152
1593920154584175,1.639,0.61,0.152
1593920155085614,1.601,0.533,0.152
1593920155587053,1.639,0.61,0.152
1593920156091237,1.792,0.61,0.152
1593920156592903,1.981,0.61,0.152
1593920157094425,2.019,0.61,0.152
1593920157621787,1.981,0.61,0.152
1593920158123289,1.791,0.61,0.152
1593920158625020,1.639,0.61,0.152
1593920159126522,1.639,0.61,0.152
1593920159628098,1.639,0.61,0.152
1593920160129588,1.601,0.61,0.152
1593920160631101,1.639,0.61,0.152
1593920161134867,1.563,0.533,0.152
1593920161636328,1.639,0.61,0.152
1593920162137830,1.601,0.61,0.152
1593920162639290,1.563,0.533,0.152
1593920163140760,1.677,0.61,0.152
1593920163642265,1.601,0.61,0.152
1593920164143832,1.639,0.61,0.152
1593920164646176,1.601,0.61,0.152
1593920165147934,1.639,0.61,0.152
1593920165649433,1.639,0.61,0.152
1593920166153165,1.563,0.533,0.152
1593920166654606,1.677,0.61,0.152
1593920167156144,1.601,0.61,0.152
1593920167657616,1.563,0.533,0.152
1593920168159191,1.677,0.61,0.152
1593920168660785,1.601,0.61,0.152
1593920169162183,1.639,0.61,0.152
1593920169663549,1.563,0.533,0.152
1593920170165030,1.677,0.61,0.152
1593920170666507,1.639,0.61,0.152
1593920171170369,1.563,0.533,0.152
1593920171671933,1.715,0.61,0.152
1593920172173441,1.601,0.61,0.152
1593920172674901,1.563,0.533,0.152
1593920173177057,1.639,0.61,0.152
1593920173678559,1.639,0.61,0.152
1593920174180021,1.639,0.61,0.152
1593920174681434,1.601,0.61,0.152
1593920175183020,1.677,0.61,0.152
1593920175684511,1.677,0.61,0.152
1593920176188599,1.563,0.533,0.152
1593920176690150,1.639,0.61,0.152
1593920177191653,1.639,0.61,0.152
1593920177693110,1.563,0.533,0.152
1593920178194523,1.601,0.61,0.152
1593920178696248,1.639,0.61,0.152
1593920179197690,1.639,0.61,0.152
1593920179699107,1.601,0.61,0.152
1593920180200789,1.601,0.61,0.152
1593920180702286,1.677,0.61,0.152
1593920181206016,1.563,0.533,0.152
1593920181707488,1.677,0.61,0.152
1593920182208985,1.639,0.61,0.152
1593920182710437,1.563,0.533,0.152
1593920183212049,1.639,0.61,0.152
1593920183713620,1.639,0.61,0.152
1593920184215108,1.639,0.61,0.152
1593920184716595,1.601,0.61,0.152
1593920185218060,1.563,0.533,0.152
1593920185719611,1.677,0.61,0.152
1593920186223561,1.563,0.533,0.152
1593920186724988,1.639,0.61,0.152
1593920187226482,1.677,0.61,0.152
1593920187728062,1.563,0.533,0.152
1593920188229542,1.677,0.61,0.152
1593920188731097,1.601,0.61,0.152
1593920189232585,1.639,0.61,0.152
1593920189734171,1.639,0.61,0.152
1593920190235673,1.563,0.533,0.152
1593920190737170,1.677,0.61,0.152
1593920191240976,1.563,0.533,0.152
1593920191742448,1.639,0.61,0.152
1593920192244060,1.677,0.61,0.152
1593920192745539,1.563,0.533,0.152
1593920193247013,1.639,0.61,0.152
1593920193748489,1.563,0.533,0.152
1593920194250000,1.639,0.61,0.152
1593920194751602,1.639,0.61,0.152
1593920195253051,1.563,0.533,0.152
1593920195754505,1.677,0.61,0.152
1593920196258365,1.639,0.61,0.152
1593920196759875,1.601,0.61,0.152
1593920197261443,1.639,0.61,0.152
1593920197762927,1.563,0.533,0.152
1593920198264331,1.639,0.61,0.152
1593920198765749,1.563,0.533,0.152
1593920199267172,1.639,0.61,0.152
1593920199768677,1.639,0.61,0.152
1593920200270131,1.563,0.533,0.152
1593920200771712,1.677,0.61,0.152
1593920201275648,1.639,0.61,0.152
1593920201777112,1.601,0.533,0.152
1593920202278507,1.601,0.61,0.152
1593920202780101,1.639,0.61,0.152
1593920203281553,1.639,0.61,0.152
1593920203782987,1.563,0.533,0.152
1593920204284585,1.601,0.61,0.152
1593920204786085,1.639,0.61,0.152
1593920205287550,1.563,0.533,0.152
1593920205789042,1.639,0.61,0.152
1593920206292964,1.677,0.61,0.152
1593920206794424,1.563,0.533,0.152
1593920207295840,1.639,0.61,0.152
1593920207797303,1.677,0.61,0.152
1593920208298781,1.639,0.61,0.152
1593920208800203,1.601,0.61,0.152
1593920209301765,1.601,0.61,0.152
1593920209803262,1.677,0.61,0.152
1593920210304934,1.563,0.533,0.152
1593920210806357,1.601,0.533,0.152
1593920211310250,1.715,0.61,0.152
1593920211811789,1.601,0.533,0.152
1593920212313212,1.639,0.61,0.152
1593920212814737,1.639,0.61,0.152
1593920213316320,1.639,0.61,0.152
1593920213817732,1.601,0.61,0.152
1593920214319476,1.601,0.61,0.152
1593920214820974,1.677,0.61,0.152
1593920215322415,1.563,0.533,0.152
1593920215823829,1.563,0.533,0.152
1593920216327704,1.677,0.61,0.152
1593920216829193,1.601,0.533,0.152
1593920217330674,1.639,0.61,0.152
1593920217832212,1.601,0.61,0.152
1593920218333630,1.639,0.61,0.152
1593920218835012,1.601,0.61,0.152
1593920219336466,1.867,0.61,0.152
1593920219837955,2.096,0.61,0.152
1593920220339778,1.981,0.61,0.152
1593920220841343,1.943,0.61,0.152
1593920221345366,1.715,0.61,0.152
1593920221846862,1.601,0.61,0.152
1593920222348303,1.639,0.61,0.152
1593920222849760,1.601,0.61,0.152
1593920223351253,1.639,0.61,0.152
1593920223852755,1.601,0.61,0.152
1593920224354230,1.601,0.533,0.152
1593920224857417,1.677,0.61,0.152
1593920225358941,1.563,0.533,0.152
1593920225860547,1.601,0.61,0.152
1593920226364452,1.601,0.61,0.152
1593920226865915,1.601,0.533,0.152
1593920227367696,1.677,0.61,0.152
1593920227869205,1.601,0.533,0.152
1593920228370698,1.639,0.61,0.152
1593920228872195,1.601,0.61,0.152
1593920229373569,1.601,0.533,0.152
1593920229875175,1.677,0.61,0.152
1593920230376635,1.639,0.61,0.152
1593920230878185,1.601,0.61,0.152
1593920231381940,1.639,0.61,0.152
1593920231883413,1.601,0.61,0.152
1593920232384875,1.677,0.61,0.152
1593920232886338,1.601,0.533,0.152
1593920233387904,1.601,0.61,0.152
1593920233889494,1.677,0.61,0.152
1593920234391004,1.563,0.533,0.152
1593920234892494,1.639,0.533,0.152
1593920235393922,1.639,0.61,0.152
1593920235895427,1.601,0.61,0.152
1593920236399205,1.601,0.61,0.152
1593920236900694,1.639,0.61,0.152
1593920237402188,1.677,0.61,0.152
1593920237903647,1.601,0.533,0.152
1593920238405182,1.563,0.533,0.152
1593920238906789,1.677,0.61,0.152
1593920239408334,1.563,0.533,0.152
1593920239909719,1.639,0.533,0.152
1593920240411288,1.677,0.61,0.152
1593920240913016,1.601,0.533,0.152
1593920241416902,1.601,0.61,0.152
1593920241918432,1.601,0.533,0.152
1593920242420051,1.677,0.61,0.152
1593920242921476,1.601,0.533,0.152
1593920243422889,1.563,0.533,0.152
1593920243925380,1.715,0.61,0.152
1593920244426871,1.601,0.533,0.152
1593920244928395,1.639,0.61,0.152
1593920245431040,1.601,0.61,0.152
1593920245932626,1.639,0.61,0.152
1593920246436671,1.601,0.61,0.152
1593920246938095,1.563,0.533,0.152
1593920247439579,1.715,0.61,0.152
1593920247941049,1.601,0.61,0.152
1593920248442465,1.601,0.533,0.152
1593920248944410,1.639,0.61,0.152
1593920249445784,1.601,0.61,0.152
1593920249947177,1.639,0.61,0.152
1593920250448684,1.601,0.61,0.152
1593920250950144,1.639,0.61,0.152
1593920251453827,1.639,0.61,0.152
1593920251955551,1.601,0.533,0.152
1593920252457106,1.715,0.61,0.152
1593920252958591,1.601,0.61,0.152
1593920253460026,1.601,0.533,0.152
1593920253961472,1.601,0.61,0.152
1593920254463010,1.601,0.533,0.152
1593920254964469,1.639,0.61,0.152
1593920255465940,1.639,0.61,0.152
1593920255967431,1.639,0.61,0.152
1593920256471451,1.639,0.61,0.152
1593920256972963,1.601,0.61,0.152
1593920257475119,1.677,0.61,0.152
1593920257976607,1.639,0.61,0.152
1593920258478194,1.601,0.61,0.152
1593920258979739,1.639,0.61,0.152
1593920259481223,1.601,0.61,0.152
1593920259982666,1.639,0.61,0.152
1593920260484180,1.601,0.61,0.152
1593920260986335,1.639,0.61,0.152
1593920261490348,1.639,0.61,0.152
1593920261991837,1.601,0.61,0.152
1593920262493283,1.639,0.61,0.152
1593920262994704,1.639,0.61,0.152
1593920263496186,1.601,0.61,0.152
1593920263997648,1.639,0.61,0.152
1593920264499103,1.639,0.61,0.152
1593920265000806,1.677,0.61,0.152
1593920265502297,1.601,0.61,0.152
1593920266003885,1.601,0.61,0.152
1593920266508077,1.639,0.61,0.152
1593920267009579,1.601,0.533,0.152
1593920267511025,1.639,0.61,0.152
1593920268012475,1.639,0.61,0.152
1593920268513971,1.601,0.61,0.152
1593920269015441,1.601,0.61,0.152
1593920269517381,1.639,0.61,0.152
1593920270018887,1.715,0.61,0.152
1593920270520495,1.601,0.61,0.152
1593920271021905,1.563,0.533,0.152
1593920271525621,1.715,0.61,0.152
1593920272027089,1.563,0.533,0.152
1593920272528509,1.639,0.61,0.152
1593920273030042,1.677,0.61,0.152
1593920273531550,1.601,0.61,0.152
1593920274033001,1.639,0.61,0.152
1593920274534534,1.601,0.533,0.152
1593920275036009,1.677,0.61,0.152
1593920275538023,1.601,0.533,0.152
1593920276039431,1.525,0.533,0.152
1593920276543482,1.753,0.61,0.152
1593920277044971,1.601,0.61,0.152
1593920277546384,1.563,0.533,0.152
1593920278047955,1.639,0.61,0.152
1593920278549496,1.639,0.61,0.152
1593920279050952,1.639,0.61,0.152
1593920279552395,1.601,0.533,0.152
1593920280053794,1.677,0.61,0.152
1593920280555263,1.639,0.61,0.152
1593920281056717,1.563,0.533,0.152
1593920281561660,1.677,0.61,0.152
1593920282063164,1.753,0.61,0.152
1593920282564641,1.905,0.533,0.152
1593920283066196,2.058,0.61,0.152
1593920283567756,2.019,0.61,0.152
1593920284069266,1.829,0.61,0.152
1593920284570734,1.639,0.61,0.152
1593920285072371,1.639,0.61,0.152
1593920285573864,1.639,0.61,0.152
1593920286075340,1.563,0.533,0.152
1593920286579387,1.677,0.61,0.152
1593920287080888,1.639,0.61,0.152
1593920287582357,1.563,0.533,0.152
1593920288083985,1.639,0.61,0.152
1593920288585435,1.639,0.61,0.152
1593920289086888,1.639,0.61,0.152
1593920289588527,1.639,0.61,0.152
1593920290090127,1.601,0.61,0.152
1593920290591668,1.639,0.61,0.152
1593920291093179,1.563,0.533,0.152
1593920291597088,1.677,0.61,0.152
1593920292098592,1.639,0.61,0.152
1593920292600054,1.563,0.533,0.152
1593920293101519,1.639,0.61,0.152
1593920293603099,1.639,0.61,0.152
1593920294104608,1.677,0.61,0.152
1593920294606112,1.639,0.61,0.152
1593920295107568,1.563,0.533,0.152
1593920295608992,1.639,0.61,0.152
1593920296110445,1.601,0.61,0.152
1593920296614238,1.601,0.533,0.152
1593920297115849,1.677,0.61,0.152
1593920297617455,1.601,0.533,0.152
1593920298118957,1.563,0.533,0.152
1593920298620505,1.601,0.533,0.152
1593920299121988,1.563,0.533,0.152
1593920299623627,1.677,0.61,0.152
1593920300125069,1.601,0.533,0.152
1593920300626518,1.601,0.61,0.152
1593920301128054,1.639,0.61,0.152
1593920301632175,1.563,0.533,0.152
1593920302134578,1.677,0.61,0.152
1593920302636105,1.639,0.61,0.152
1593920303137525,1.563,0.533,0.152
1593920303638982,1.601,0.61,0.152
1593920304140602,1.639,0.61,0.152
1593920304642120,1.677,0.61,0.152
1593920305143565,1.601,0.533,0.152
1593920305645017,1.601,0.61,0.152
1593920306146524,1.639,0.61,0.152
1593920306650369,1.563,0.533,0.152
1593920307152013,1.677,0.61,0.152
1593920307653518,1.639,0.61,0.152
1593920308154966,1.563,0.533,0.152
1593920308656349,1.639,0.61,0.152
1593920309157824,1.639,0.61,0.152
1593920309659226,1.677,0.61,0.152
1593920310160637,1.601,0.61,0.152
1593920310662175,1.601,0.61,0.152
1593920311163679,1.677,0.61,0.152
1593920311667555,1.563,0.533,0.152
1593920312168970,1.639,0.533,0.152
1593920312670539,1.715,0.61,0.152
1593920313172026,1.601,0.533,0.152
1593920313673424,1.601,0.61,0.152
1593920314174901,1.601,0.61,0.152
1593920314676397,1.677,0.61,0.152
1593920315177845,1.601,0.61,0.152
1593920315679425,1.563,0.533,0.152
1593920316180966,1.677,0.61,0.152
1593920316684772,1.601,0.533,0.152
1593920317186196,1.601,0.533,0.152
1593920317688087,1.677,0.61,0.152
1593920318189582,1.563,0.533,0.152
1593920318691025,1.601,0.61,0.152
1593920319192495,1.601,0.533,0.152
1593920319693989,1.639,0.61,0.152
1593920320195435,1.601,0.61,0.152
1593920320697242,1.601,0.61,0.152
1593920321198698,1.715,0.61,0.152
1593920321700308,1.601,0.533,0.152
1593920322201861,1.601,0.61,0.152
1593920322703462,1.601,0.61,0.152
1593920323204992,1.601,0.533,0.152
1593920323706412,1.639,0.61,0.152
1593920324207883,1.601,0.533,0.152
1593920324709381,1.639,0.61,0.152
1593920325210823,1.601,0.61,0.152
1593920325712289,1.601,0.533,0.152
1593920326213846,1.677,0.61,0.152
1593920326715471,1.601,0.61,0.152
1593920327216978,1.639,0.61,0.152
1593920327718440,1.601,0.61,0.152
1593920328219892,1.601,0.533,0.152
1593920328721491,1.677,0.61,0.152
1593920329222984,1.601,0.533,0.152
1593920329724452,1.639,0.61,0.152
1593920330226003,1.639,0.61,0.152
1593920330727506,1.563,0.533,0.152
1593920331229088,1.639,0.61,0.152
1593920331733084,1.601,0.61,0.152
1593920332234583,1.601,0.61,0.152
1593920332736045,1.601,0.61,0.152
1593920333237502,1.601,0.61,0.152
1593920333739002,1.677,0.61,0.152
1593920334240463,1.601,0.533,0.152
1593920334742028,1.601,0.61,0.152
1593920335243705,1.677,0.61,0.152
1593920335745209,1.563,0.533,0.152
1593920336246651,1.639,0.61,0.152
1593920336750501,1.601,0.61,0.152
1593920337252023,1.601,0.61,0.152
1593920337753480,1.601,0.61,0.152
1593920338254887,1.601,0.61,0.152
1593920338756546,1.677,0.61,0.152
1593920339258005,1.601,0.533,0.152
1593920339759682,1.563,0.533,0.152
1593920340261196,1.677,0.61,0.152
1593920340762663,1.563,0.533,0.152
1593920341264096,1.601,0.533,0.152
1593920341768131,1.715,0.61,0.152
1593920342269592,1.563,0.533,0.152
1593920342771045,1.639,0.61,0.152
1593920343274066,1.601,0.61,0.152
1593920343775704,1.639,0.61,0.152
1593920344277152,1.601,0.61,0.152
1593920344778567,1.563,0.533,0.152
1593920345280096,1.981,0.61,0.152
1593920345781561,1.981,0.61,0.152
1593920346282980,1.981,0.533,0.152
1593920346791871,1.981,0.61,0.152
1593920347293372,1.753,0.61,0.152
1593920347794838,1.677,0.61,0.152
1593920348296317,1.563,0.533,0.152
1593920348797853,1.677,0.61,0.152
1593920349299251,1.639,0.61,0.152
1593920349800670,1.563,0.533,0.152
1593920350302243,1.677,0.61,0.152
1593920350803775,1.639,0.61,0.152
1593920351305225,1.563,0.533,0.152
1593920351809179,1.601,0.61,0.152
1593920352310616,1.639,0.61,0.152
1593920352812093,1.639,0.61,0.152
1593920353313472,1.563,0.533,0.152
1593920353815004,1.601,0.61,0.152
1593920354316541,1.639,0.61,0.152
1593920354818005,1.563,0.533,0.152
1593920355319470,1.677,0.61,0.152
1593920355820995,1.639,0.61,0.152
1593920356322534,1.563,0.533,0.152
1593920356823996,1.677,0.61,0.152
1593920357326133,1.601,0.61,0.152
1593920357827629,1.677,0.61,0.152
1593920358329197,1.601,0.61,0.152
1593920358830742,1.563,0.533,0.152
1593920359332262,1.639,0.61,0.152
1593920359833720,1.563,0.533,0.152
1593920360335153,1.677,0.61,0.152
1593920360836670,1.639,0.61,0.152
1593920361338118,1.563,0.533,0.152
1593920361842237,1.639,0.61,0.152
1593920362344652,1.601,0.533,0.152
1593920362846150,1.677,0.61,0.152
1593920363347658,1.639,0.61,0.152
1593920363849165,1.563,0.533,0.152
1593920364350626,1.677,0.61,0.152
1593920364852266,1.601,0.61,0.152
1593920365353771,1.639,0.61,0.152
1593920365856426,1.639,0.61,0.152
1593920366357918,1.563,0.533,0.152
1593920366861824,1.639,0.61,0.152
1593920367363278,1.563,0.533,0.152
1593920367864814,1.677,0.61,0.152
1593920368366316,1.639,0.61,0.152
1593920368867775,1.563,0.533,0.152
1593920369369245,1.677,0.61,0.152
1593920369870753,1.639,0.61,0.152
1593920370372217,1.639,0.61,0.152
1593920370873741,1.601,0.61,0.152
1593920371375384,1.639,0.61,0.152
1593920371879457,1.639,0.61,0.152
1593920372380912,1.563,0.533,0.152
1593920372882363,1.639,0.61,0.152
1593920373383869,1.639,0.61,0.152
1593920373885336,1.563,0.533,0.152
1593920374386942,1.677,0.61,0.152
1593920374888633,1.639,0.61,0.152
1593920375390096,1.601,0.533,0.152
1593920375891640,1.601,0.61,0.152
1593920376393102,1.639,0.61,0.152
1593920376897406,1.639,0.61,0.152
1593920377398835,1.563,0.533,0.152
1593920377902173,1.677,0.61,0.152
1593920378403667,1.639,0.61,0.152
1593920378905233,1.563,0.533,0.152
1593920379406616,1.601,0.61,0.152
1593920379908047,1.639,0.61,0.152
1593920380409488,1.601,0.61,0.152
1593920380910897,1.601,0.61,0.152
1593920381412482,1.639,0.61,0.152
1593920381916460,1.677,0.61,0.152
1593920382417906,1.563,0.533,0.152
1593920382919473,1.601,0.533,0.152
1593920383420962,1.677,0.61,0.152
1593920383922416,1.563,0.533,0.152
1593920384423827,1.639,0.61,0.152
1593920384925345,1.677,0.61,0.152
1593920385426846,1.601,0.533,0.152
1593920385928277,1.601,0.61,0.152
1593920386429730,1.563,0.533,0.152
1593920386935078,1.677,0.61,0.152
1593920387436515,1.563,0.533,0.152
1593920387937976,1.601,0.61,0.152
1593920388439463,1.677,0.61,0.152
1593920388940945,1.563,0.533,0.152
1593920389442498,1.677,0.61,0.152
1593920389944166,1.639,0.61,0.152
1593920390445663,1.601,0.61,0.152
1593920390947115,1.601,0.61,0.152
1593920391448722,1.563,0.533,0.152
1593920391952609,1.677,0.61,0.152
1593920392454054,1.601,0.533,0.152
1593920392955648,1.601,0.533,0.152
1593920393457102,1.677,0.61,0.152
1593920393958542,1.563,0.533,0.152
1593920394460026,1.677,0.61,0.152
1593920394962537,1.563,0.533,0.152
1593920395464023,1.601,0.533,0.152
1593920395965609,1.639,0.61,0.152
1593920396467106,1.563,0.533,0.152
1593920396970994,1.677,0.61,0.152
1593920397472441,1.563,0.533,0.152
1593920397973903,1.563,0.533,0.152
1593920398475455,1.639,0.61,0.152
1593920398976939,1.563,0.533,0.152
1593920399478422,1.639,0.61,0.152
1593920399979875,1.563,0.533,0.152
1593920400481328,1.601,0.61,0.152
1593920400982826,1.639,0.61,0.152
1593920401484326,1.563,0.533,0.152
1593920401988233,1.677,0.61,0.152
1593920402490694,1.639,0.61,0.152
1593920402992122,1.601,0.533,0.152
1593920403493699,1.601,0.61,0.152
1593920403996415,1.563,0.533,0.152
1593920404497915,1.639,0.61,0.152
1593920404999381,1.563,0.533,0.152
1593920405500872,1.601,0.61,0.152
1593920406002371,1.639,0.61,0.152
1593920406503814,1.563,0.533,0.152
1593920407007642,1.677,0.61,0.152
1593920407509143,1.639,0.61,0.152
1593920408011021,1.639,0.533,0.152
1593920408512467,1.905,0.61,0.152
1593920409013904,2.058,0.61,0.152
1593920409515354,2.058,0.61,0.152
1593920410019792,1.829,0.61,0.152
1593920410521395,1.715,0.61,0.152
1593920411022908,1.677,0.61,0.152
1593920411524392,1.563,0.533,0.152
1593920412029754,1.639,0.61,0.152
1593920412531259,1.639,0.61,0.152
1593920413032734,1.563,0.533,0.152
1593920413534149,1.601,0.61,0.152
1593920414035748,1.639,0.61,0.152
1593920414537203,1.677,0.61,0.152
1593920415038665,1.563,0.533,0.152
1593920415541238,1.563,0.533,0.152
1593920416042709,1.677,0.61,0.152
1593920416544172,1.563,0.533,0.152
1593920417047898,1.639,0.533,0.152
1593920417550311,1.677,0.61,0.152
1593920418051805,1.601,0.533,0.152
1593920418553240,1.601,0.61,0.152
1593920419054690,1.601,0.533,0.152
1593920419556297,1.677,0.61,0.152
1593920420057769,1.601,0.533,0.152
1593920420559229,1.601,0.61,0.152
1593920421060852,1.677,0.61,0.152
1593920421562302,1.563,0.533,0.152
1593920422066284,1.639,0.533,0.152
1593920422568079,1.639,0.61,0.152
1593920423069576,1.601,0.533,0.152
1593920423571022,1.601,0.61,0.152
1593920424072497,1.563,0.533,0.152
1593920424573986,1.677,0.61,0.152
1593920425075449,1.601,0.533,0.152
1593920425576921,1.601,0.61,0.152
1593920426079895,1.677,0.61,0.152
1593920426581313,1.563,0.533,0.152
1593920427085143,1.677,0.61,0.152
1593920427586742,1.601,0.533,0.152
1593920428088226,1.601,0.61,0.152
1593920428589810,1.639,0.61,0.152
1593920429091357,1.563,0.533,0.152
1593920429592858,1.715,0.61,0.152
1593920430094318,1.601,0.61,0.152
1593920430595793,1.601,0.533,0.152
1593920431098046,1.639,0.61,0.152
1593920431599570,1.601,0.533,0.152
1593920432103344,1.677,0.61,0.152
1593920432604796,1.601,0.533,0.152
1593920433106292,1.601,0.61,0.152
1593920433607837,1.677,0.61,0.152
1593920434109320,1.563,0.533,0.152
1593920434610852,1.677,0.61,0.152
1593920435112524,1.639,0.61,0.152
1593920435614026,1.563,0.533,0.152
1593920436116111,1.639,0.61,0.152
1593920436617695,1.601,0.533,0.152
1593920437119981,1.639,0.61,0.152
1593920437621435,1.601,0.61,0.152
1593920438122889,1.601,0.61,0.152
1593920438624436,1.677,0.61,0.152
1593920439125854,1.563,0.533,0.152
1593920439627487,1.639,0.61,0.152
1593920440128988,1.677,0.61,0.152
1593920440630441,1.563,0.533,0.152
1593920441131860,1.601,0.533,0.152
1593920441633416,1.639,0.61,0.152
1593920442137416,1.601,0.533,0.152
1593920442638874,1.601,0.61,0.152
1593920443140416,1.601,0.61,0.152
1593920443641892,1.677,0.61,0.152
1593920444143587,1.563,0.533,0.152
1593920444645123,1.563,0.533,0.152
1593920445146667,1.677,0.61,0.152
1593920445648246,1.563,0.533,0.152
1593920446149668,1.601,0.533,0.152
1593920446651268,1.715,0.61,0.152
1593920447155373,1.601,0.533,0.152
1593920447656821,1.601,0.61,0.152
1593920448158229,1.563,0.533,0.152
1593920448659849,1.677,0.61,0.152
1593920449161341,1.601,0.61,0.152
1593920449662705,1.563,0.533,0.152
1593920450164323,1.715,0.61,0.152
1593920450665798,1.601,0.533,0.152
1593920451167234,1.639,0.533,0.152
1593920451668716,1.639,0.61,0.152
1593920452172831,1.601,0.61,0.152
1593920452674266,1.601,0.61,0.152
1593920453175943,1.563,0.533,0.152
1593920453677439,1.715,0.61,0.152
1593920454178929,1.601,0.61,0.152
1593920454680393,1.563,0.533,0.152
1593920455182800,1.639,0.61,0.152
1593920455684280,1.601,0.533,0.152
1593920456185719,1.639,0.533,0.152
1593920456687191,1.601,0.61,0.152
1593920457191118,1.639,0.61,0.152
1593920457692568,1.639,0.61,0.152
1593920458194030,1.601,0.61,0.152
1593920458695679,1.715,0.61,0.152
1593920459197167,1.601,0.61,0.152
1593920459698742,1.601,0.61,0.152
1593920460200275,1.639,0.61,0.152
1593920460701767,1.601,0.61,0.152
1593920461203183,1.639,0.61,0.152
1593920461704616,1.601,0.61,0.152
1593920462208394,1.639,0.61,0.152
1593920462709838,1.639,0.61,0.152
1593920463211443,1.601,0.533,0.152
1593920463713001,1.677,0.61,0.152
1593920464214496,1.601,0.61,0.152
1593920464716021,1.601,0.61,0.152
1593920465217493,1.601,0.61,0.152
1593920465718964,1.601,0.61,0.152
1593920466220632,1.677,0.61,0.152
1593920466722144,1.601,0.533,0.152
1593920467226068,1.639,0.61,0.152
1593920467727549,1.601,0.533,0.152
1593920468229081,1.601,0.533,0.152
1593920468730530,1.639,0.533,0.152
1593920469232028,1.601,0.61,0.152
1593920469733565,1.601,0.61,0.152
1593920470235091,1.639,0.533,0.152
1593920470736660,1.639,0.61,0.152
1593920471238357,1.829,0.61,0.152
1593920471739728,1.981,0.533,0.152
1593920472243677,2.019,0.533,0.152
1593920472750105,2.019,0.61,0.152
1593920473251652,1.753,0.61,0.152
1593920473753103,1.601,0.533,0.152
1593920474254596,1.677,0.61,0.152
1593920474756107,1.601,0.61,0.152
1593920475257537,1.563,0.533,0.152
1593920475759073,1.677,0.61,0.152
1593920476260609,1.639,0.61,0.152
1593920476762065,1.639,0.61,0.152
1593920477266338,1.563,0.533,0.152
1593920477768673,1.639,0.61,0.152
1593920478270190,1.639,0.61,0.152
1593920478771646,1.563,0.533,0.152
1593920479273060,1.677,0.61,0.152
1593920479774562,1.601,0.61,0.152
1593920480276035,1.563,0.533,0.152
1593920480779410,1.639,0.61,0.152
1593920481280907,1.601,0.533,0.152
1593920481782398,1.639,0.61,0.152
1593920482286203,1.563,0.533,0.152
1593920482787678,1.677,0.61,0.152
1593920483289155,1.601,0.61,0.152
1593920483790566,1.563,0.533,0.152
1593920484292110,1.677,0.61,0.152
1593920484793618,1.601,0.61,0.152
1593920485295124,1.563,0.533,0.152
1593920485796661,1.601,0.533,0.152
1593920486298118,1.639,0.61,0.152
1593920486799784,1.639,0.61,0.152
1593920487303789,1.563,0.533,0.152
1593920487806129,1.601,0.61,0.152
1593920488307627,1.639,0.533,0.152
1593920488809073,1.563,0.533,0.152
1593920489310643,1.601,0.533,0.152
1593920489812175,1.639,0.61,0.152
1593920490313654,1.563,0.533,0.152
1593920490815031,1.601,0.61,0.152
1593920491316977,1.639,0.61,0.152
1593920491818463,1.601,0.61,0.152
1593920492322295,1.601,0.61,0.152
1593920492823782,1.601,0.533,0.152
1593920493325275,1.677,0.61,0.152
1593920493826764,1.563,0.533,0.152
1593920494328501,1.639,0.61,0.152
1593920494829994,1.677,0.61,0.152
1593920495331486,1.563,0.533,0.152
1593920495833039,1.677,0.61,0.152
1593920496334634,1.601,0.61,0.152
1593920496836259,1.601,0.61,0.152
1593920497340076,1.601,0.61,0.152
1593920497841555,1.563,0.533,0.152
1593920498343050,1.677,0.61,0.152
1593920498844484,1.563,0.533,0.152
1593920499345942,1.601,0.61,0.152
1593920499847526,1.677,0.61,0.152
1593920500349011,1.563,0.533,0.152
1593920500850505,1.677,0.61,0.152
1593920501351979,1.601,0.533,0.152
1593920501853451,1.601,0.533,0.152
1593920502357424,1.677,0.61,0.152
1593920502858920,1.563,0.533,0.152
1593920503360412,1.677,0.61,0.152
1593920503861858,1.601,0.61,0.152
1593920504363457,1.563,0.533,0.152
1593920504865621,1.639,0.61,0.152
1593920505367122,1.563,0.533,0.152
1593920505868654,1.639,0.61,0.152
1593920506370125,1.601,0.533,0.152
1593920506871632,1.601,0.533,0.152
1593920507375493,1.677,0.61,0.152
1593920507876902,1.563,0.533,0.152
1593920508378428,1.677,0.61,0.152
1593920508879975,1.639,0.61,0.152
1593920509381440,1.563,0.533,0.152
1593920509882800,1.601,0.533,0.152
1593920510384480,1.601,0.533,0.152
1593920510885974,1.639,0.61,0.152
1593920511387440,1.563,0.533,0.152
1593920511888892,1.601,0.533,0.152
1593920512392979,1.677,0.61,0.152
1593920512894425,1.563,0.533,0.152
1593920513396102,1.601,0.61,0.152
1593920513897610,1.677,0.61,0.152
1593920514399088,1.563,0.533,0.152
1593920514900489,1.639,0.533,0.152
1593920515401953,1.677,0.61,0.152
1593920515903400,1.601,0.533,0.152
1593920516404817,1.601,0.61,0.152
1593920516906627,1.639,0.61,0.152
1593920517410748,1.677,0.61,0.152
1593920517912189,1.563,0.533,0.152
1593920518413589,1.563,0.533,0.152
1593920518915051,1.677,0.61,0.152
1593920519416517,1.563,0.533,0.152
1593920519917919,1.639,0.533,0.152
1593920520419492,1.639,0.61,0.152
1593920520920980,1.601,0.61,0.152
1593920521422432,1.601,0.61,0.152
1593920521923832,1.563,0.533,0.152
1593920522427630,1.715,0.61,0.152
1593920522929075,1.601,0.533,0.152
1593920523430487,1.563,0.533,0.152
1593920523932145,1.753,0.61,0.152
1593920524433668,1.601,0.533,0.152
1593920524935085,1.639,0.61,0.152
1593920525436641,1.639,0.61,0.152
1593920525938115,1.601,0.61,0.152
1593920526439582,1.601,0.61,0.152
1593920526941577,1.601,0.61,0.152
1593920527445599,1.715,0.61,0.152
1593920527947065,1.601,0.61,0.152
1593920528448480,1.563,0.533,0.152
1593920528950027,1.639,0.61,0.152
1593920529451538,1.601,0.533,0.152
1593920529952937,1.639,0.61,0.152
1593920530454452,1.639,0.61,0.152
1593920530955977,1.639,0.61,0.152
1593920531457432,1.639,0.61,0.152
1593920531958903,1.601,0.533,0.152
1593920532462855,1.677,0.61,0.152
1593920532964388,1.601,0.61,0.152
1593920533465834,1.601,0.61,0.152
1593920533969998,1.639,0.61,0.152
1593920534471434,1.943,0.61,0.152
1593920534973019,2.058,0.61,0.152
1593920535474515,2.019,0.61,0.152
1593920535976098,1.867,0.61,0.152
1593920536477583,1.715,0.61,0.152
1593920536979079,1.601,0.533,0.152
1593920537482981,1.639,0.61,0.152
1593920537984461,1.639,0.61,0.152
1593920538485956,1.601,0.61,0.152
1593920538987429,1.639,0.61,0.152
1593920539488885,1.639,0.61,0.152
1593920539990387,1.677,0.61,0.152
1593920540491816,1.601,0.61,0.152
1593920540993329,1.563,0.533,0.152
1593920541494930,1.677,0.61,0.152
1593920541996449,1.601,0.533,0.152
1593920542500765,1.639,0.533,0.152
1593920543002225,1.639,0.61,0.152
1593920543503834,1.601,0.533,0.152
1593920544005264,1.639,0.61,0.152
1593920544506928,1.639,0.61,0.152
1593920545008463,1.677,0.61,0.152
1593920545509923,1.601,0.61,0.152
1593920546011292,1.563,0.533,0.152
1593920546513057,1.715,0.61,0.152
1593920547014534,1.601,0.533,0.152
1593920547518342,1.601,0.533,0.152
1593920548019920,1.677,0.61,0.152
1593920548521430,1.601,0.533,0.152
1593920549022895,1.601,0.61,0.152
1593920549524527,1.601,0.533,0.152
1593920550026046,1.677,0.61,0.152
1593920550527530,1.601,0.61,0.152
1593920551028930,1.563,0.533,0.152
1593920551531271,1.715,0.61,0.152
1593920552033018,1.601,0.61,0.152
1593920552537018,1.601,0.533,0.152
1593920553038565,1.639,0.61,0.152
1593920553540217,1.601,0.61,0.152
1593920554041676,1.639,0.61,0.152
1593920554543083,1.563,0.533,0.152
1593920555044502,1.677,0.61,0.152
1593920555545959,1.639,0.61,0.152
1593920556047379,1.563,0.533,0.152
1593920556548948,1.639,0.61,0.152
1593920557050449,1.601,0.61,0.152
1593920557554270,1.601,0.533,0.152
1593920558055768,1.639,0.61,0.152
1593920558557273,1.601,0.61,0.152
1593920559058735,1.639,0.61,0.152
1593920559560298,1.601,0.61,0.152
1593920560062067,1.639,0.61,0.152
1593920560563568,1.639,0.61,0.152
1593920561065022,1.563,0.533,0.152
1593920561566489,1.639,0.61,0.152
1593920562068126,1.601,0.61,0.152
1593920562572088,1.601,0.533,0.152
1593920563073574,1.639,0.61,0.152
1593920563575029,1.639,0.61,0.152
1593920564076517,1.639,0.61,0.152
1593920564578014,1.601,0.61,0.152
1593920565079938,1.601,0.533,0.152
1593920565581425,1.639,0.61,0.152
1593920566083050,1.601,0.533,0.152
1593920566584588,1.639,0.61,0.152
1593920567086084,1.639,0.61,0.152
1593920567589865,1.601,0.533,0.152
1593920568091376,1.639,0.61,0.152
1593920568593496,1.601,0.61,0.152
1593920569094942,1.639,0.61,0.152
1593920569596367,1.639,0.61,0.152
1593920570097773,1.563,0.533,0.152
1593920570599224,1.639,0.61,0.152
1593920571101074,1.601,0.61,0.152
1593920571602524,1.639,0.61,0.152
1593920572103985,1.639,0.61,0.152
1593920572608095,1.639,0.61,0.152
1593920573109529,1.639,0.61,0.152
1593920573611068,1.563,0.533,0.152
1593920574112814,1.639,0.61,0.152
1593920574614314,1.601,0.533,0.152
1593920575115785,1.563,0.533,0.152
1593920575617250,1.639,0.61,0.152
1593920576118764,1.601,0.533,0.152
1593920576620229,1.639,0.61,0.152
1593920577121772,1.639,0.61,0.152
1593920577625795,1.639,0.61,0.152
1593920578127224,1.639,0.61,0.152
1593920578628742,1.563,0.533,0.152
1593920579130160,1.715,0.61,0.152
1593920579631615,1.601,0.61,0.152
1593920580133049,1.563,0.533,0.152
1593920580634693,1.677,0.61,0.152
1593920581136260,1.601,0.533,0.152
1593920581637723,1.639,0.533,0.152
1593920582139116,1.563,0.533,0.152
1593920582642963,1.639,0.61,0.152
1593920583144407,1.639,0.61,0.152
1593920583645818,1.563,0.533,0.152
1593920584147452,1.677,0.61,0.152
1593920584648956,1.639,0.61,0.152
1593920585150432,1.563,0.533,0.152
1593920585651866,1.601,0.533,0.152
1593920586153342,1.639,0.61,0.152
1593920586654796,1.563,0.533,0.152
1593920587156211,1.601,0.61,0.152
1593920587661370,1.639,0.61,0.152
1593920588162864,1.677,0.61,0.152
1593920588664307,1.601,0.533,0.152
1593920589165761,1.601,0.61,0.152
1593920589667171,1.677,0.61,0.152
1593920590168690,1.601,0.533,0.152
1593920590671258,1.677,0.61,0.152
1593920591173113,1.677,0.61,0.152
1593920591674553,1.563,0.533,0.152
1593920592177489,1.601,0.61,0.152
1593920592681568,1.601,0.61,0.152
1593920593183070,1.677,0.61,0.152
1593920593684474,1.601,0.533,0.152
1593920594185938,1.601,0.61,0.152
1593920594687445,1.639,0.61,0.152
1593920595188900,1.563,0.533,0.152
1593920595690380,1.677,0.61,0.152
1593920596192014,1.639,0.61,0.152
1593920596693496,1.563,0.533,0.152
1593920597194945,1.867,0.61,0.152
1593920597698632,1.943,0.533,0.152
1593920598200255,2.058,0.61,0.152
1593920598703834,1.981,0.61,0.152
1593920599205353,1.715,0.61,0.152
1593920599706853,1.715,0.61,0.152
1593920600208308,1.563,0.533,0.152
1593920600709779,1.639,0.61,0.152
1593920601211479,1.639,0.61,0.152
1593920601712969,1.563,0.533,0.152
1593920602214470,1.677,0.61,0.152
1593920602718265,1.563,0.533,0.152
1593920603219863,1.677,0.61,0.152
1593920603721407,1.639,0.61,0.152
1593920604223011,1.563,0.533,0.152
1593920604725352,1.677,0.61,0.152
1593920605226843,1.563,0.533,0.152
1593920605728532,1.639,0.61,0.152
1593920606229979,1.563,0.533,0.152
1593920606731441,1.563,0.533,0.152
1593920607232958,1.639,0.61,0.152
1593920607736845,1.563,0.533,0.152
1593920608238308,1.677,0.61,0.152
1593920608739821,1.639,0.61,0.152
1593920609241291,1.563,0.533,0.152
1593920609743438,1.677,0.61,0.152
1593920610245021,1.639,0.61,0.152
1593920610746525,1.639,0.61,0.152
1593920611247968,1.601,0.533,0.152
1593920611749432,1.601,0.61,0.152
1593920612250928,1.639,0.61,0.152
1593920612754665,1.563,0.533,0.152
1593920613257968,1.715,0.61,0.152
1593920613759689,1.639,0.61,0.152
1593920614261192,1.563,0.533,0.152
1593920614764249,1.601,0.61,0.152
1593920615265727,1.639,0.61,0.152
1593920615767174,1.677,0.61,0.152
1593920616268597,1.601,0.533,0.152
1593920616770148,1.677,0.61,0.152
1593920617271876,1.639,0.61,0.152
1593920617775794,1.563,0.533,0.152
1593920618277812,1.639,0.61,0.152
1593920618779439,1.639,0.61,0.152
1593920619280896,1.563,0.533,0.152
1593920619782303,1.601,0.61,0.152
1593920620283897,1.639,0.61,0.152
1593920620785382,1.639,0.61,0.152
1593920621286797,1.601,0.61,0.152
1593920621788340,1.601,0.533,0.152
1593920622289806,1.677,0.61,0.152
1593920622793593,1.563,0.533,0.152
1593920623295021,1.601,0.533,0.152
1593920623796771,1.677,0.61,0.152
1593920624298228,1.563,0.533,0.152
1593920624799631,1.601,0.61,0.152
1593920625301171,1.601,0.61,0.152
1593920625802666,1.639,0.61,0.152
1593920626304156,1.601,0.61,0.152
1593920626805591,1.601,0.61,0.152
1593920627307089,1.677,0.61,0.152
1593920627811004,1.563,0.533,0.152
1593920628312702,1.639,0.61,0.152
1593920628814322,1.677,0.61,0.152
1593920629315821,1.563,0.533,0.152
1593920629817206,1.639,0.61,0.152
1593920630318710,1.601,0.533,0.152
1593920630820259,1.639,0.61,0.152
1593920631321715,1.601,0.61,0.152
1593920631823197,1.601,0.533,0.152
1593920632324846,1.677,0.61,0.152
1593920632828633,1.563,0.533,0.152
1593920633330103,1.639,0.61,0.152
1593920633831982,1.639,0.61,0.152
1593920634333477,1.601,0.533,0.152
1593920634835042,1.677,0.61,0.152
1593920635336514,1.601,0.533,0.152
1593920635837983,1.639,0.61,0.152
1593920636340095,1.601,0.61,0.152
1593920636841583,1.563,0.533,0.152
1593920637343195,1.677,0.61,0.152
1593920637847232,1.601,0.533,0.152
1593920638348906,1.601,0.533,0.152
1593920638850364,1.601,0.533,0.152
1593920639351824,1.563,0.533,0.152
1593920639853325,1.639,0.61,0.152
1593920640354809,1.601,0.61,0.152
1593920640856293,1.601,0.61,0.152
1593920641357747,1.677,0.61,0.152
1593920641859201,1.563,0.533,0.152
1593920642360844,1.639,0.61,0.152
1593920642864858,1.639,0.61,0.152
1593920643366331,1.563,0.533,0.152
1593920643867788,1.639,0.61,0.152
1593920644369199,1.601,0.61,0.152
1593920644870702,1.639,0.61,0.152
1593920645372176,1.601,0.61,0.152
1593920645873755,1.601,0.61,0.152
1593920646375263,1.677,0.61,0.152
1593920646876729,1.563,0.533,0.152
1593920647378156,1.601,0.533,0.152
1593920647881981,1.677,0.61,0.152
1593920648383487,1.563,0.533,0.152
1593920648884872,1.601,0.533,0.152
1593920649386558,1.639,0.61,0.152
1593920649887968,1.601,0.533,0.152
1593920650389490,1.639,0.61,0.152
1593920650891072,1.601,0.533,0.152
1593920651392720,1.677,0.61,0.152
1593920651894134,1.601,0.533,0.152
1593920652395555,1.563,0.533,0.152
1593920652899454,1.715,0.61,0.152
1593920653400946,1.601,0.533,0.152
1593920653902395,1.639,0.533,0.152
1593920654403935,1.601,0.533,0.152
1593920654905545,1.601,0.61,0.152
1593920655406999,1.601,0.61,0.152
1593920655908407,1.563,0.533,0.152
1593920656409811,1.715,0.61,0.152
1593920656911223,1.601,0.533,0.152
1593920657412952,1.525,0.533,0.152
1593920657916823,1.639,0.61,0.152
1593920658418424,1.601,0.533,0.152
1593920658919848,1.639,0.533,0.152
1593920659421273,1.601,0.61,0.152
1593920659922726,1.601,0.61,0.152
1593920660424232,1.905,0.61,0.152
1593920660925816,1.943,0.533,0.152
1593920661427643,2.096,0.61,0.152
1593920661929156,1.867,0.61,0.152
1593920662430632,1.639,0.533,0.152
1593920662934389,1.677,0.61,0.152
1593920663435887,1.601,0.533,0.152
1593920663937358,1.639,0.61,0.152
1593920664438824,1.601,0.61,0.152
1593920664940327,1.639,0.61,0.152
1593920665441777,1.639,0.61,0.152
1593920665943248,1.601,0.61,0.152
1593920666446347,1.677,0.61,0.152
1593920666947827,1.601,0.61,0.152
1593920667449429,1.601,0.533,0.152
1593920667953625,1.639,0.61,0.152
1593920668455116,1.601,0.61,0.152
1593920668956586,1.639,0.61,0.152
1593920669458036,1.601,0.61,0.152
1593920669959738,1.639,0.61,0.152
1593920670461228,1.639,0.61,0.152
1593920670962719,1.601,0.533,0.152
1593920671464193,1.639,0.533,0.152
1593920671965654,1.601,0.61,0.152
1593920672467156,1.601,0.61,0.152
1593920672971092,1.639,0.533,0.152
1593920673472582,1.601,0.61,0.152
1593920673974156,1.677,0.61,0.152
1593920674475626,1.601,0.533,0.152
1593920674977219,1.563,0.533,0.152
1593920675478719,1.639,0.61,0.152
1593920675980228,1.563,0.533,0.152
1593920676481691,1.639,0.533,0.152
1593920676983121,1.639,0.61,0.152
1593920677484616,1.601,0.533,0.152
1593920677988378,1.639,0.533,0.152
1593920678490796,1.601,0.61,0.152
1593920678992308,1.677,0.61,0.152
1593920679493780,1.601,0.533,0.152
1593920679995188,1.563,0.533,0.152
1593920680496778,1.677,0.61,0.152
1593920680998276,1.563,0.533,0.152
1593920681499754,1.601,0.533,0.152
1593920682001574,1.639,0.61,0.152
1593920682503065,1.601,0.533,0.152
1593920683007088,1.639,0.61,0.152
1593920683508687,1.601,0.533,0.152
1593920684010188,1.677,0.61,0.152
1593920684511658,1.601,0.61,0.152
1593920685013070,1.563,0.533,0.152
1593920685514487,1.715,0.61,0.152
1593920686016051,1.563,0.533,0.152
1593920686517473,1.601,0.533,0.152
1593920687019041,1.601,0.61,0.152
1593920687520559,1.601,0.61,0.152
1593920688024708,1.639,0.61,0.152
1593920688526119,1.563,0.533,0.152
1593920689027576,1.715,0.61,0.152
1593920689528999,1.639,0.61,0.152
1593920690030358,1.563,0.533,0.152
1593920690531925,1.677,0.61,0.152
1593920691033433,1.601,0.61,0.152
1593920691534854,1.601,0.533,0.152
1593920692036477,1.639,0.61,0.152
1593920692537983,1.639,0.61,0.152
1593920693041777,1.639,0.61,0.152
1593920693543219,1.563,0.533,0.152
1593920694044941,1.639,0.61,0.152
1593920694546428,1.639,0.61,0.152
1593920695047874,1.563,0.533,0.152
1593920695549330,1.639,0.61,0.152
1593920696050797,1.601,0.61,0.152
1593920696552243,1.601,0.533,0.152
1593920697053727,1.639,0.61,0.152
1593920697555184,1.639,0.61,0.152
1593920698059283,1.639,0.61,0.152
1593920698561906,1.639,0.61,0.152
1593920699064469,1.601,0.61,0.152
1593920699565967,1.639,0.61,0.152
1593920700068749,1.563,0.533,0.152
1593920700570244,1.639,0.61,0.152
1593920701071783,1.639,0.61,0.152
1593920701573232,1.563,0.533,0.152
1593920702074715,1.601,0.61,0.152
1593920702576367,1.601,0.61,0.152
1593920703080321,1.639,0.61,0.152
1593920703581817,1.639,0.61,0.152
1593920704083266,1.563,0.533,0.152
1593920704584841,1.639,0.61,0.152
1593920705086294,1.601,0.61,0.152
1593920705587767,1.639,0.61,0.152
1593920706089241,1.639,0.61,0.152
1593920706590805,1.601,0.533,0.152
1593920707092338,1.639,0.61,0.152
1593920707593927,1.563,0.533,0.152
1593920708097718,1.677,0.61,0.152
1593920708599217,1.639,0.61,0.152
1593920709100806,1.563,0.533,0.152
1593920709602259,1.639,0.61,0.152
1593920710103789,1.639,0.61,0.152
1593920710605271,1.639,0.61,0.152
1593920711106819,1.639,0.61,0.152
1593920711608327,1.639,0.61,0.152
1593920712109786,1.601,0.61,0.152
1593920712611167,1.563,0.533,0.152
1593920713115231,1.715,0.61,0.152
1593920713616832,1.601,0.533,0.152
1593920714118322,1.563,0.533,0.152
1593920714619797,1.677,0.61,0.152
1593920715121292,1.601,0.533,0.152
1593920715622758,1.563,0.533,0.152
1593920716124326,1.601,0.533,0.152
1593920716625795,1.601,0.61,0.152
1593920717127298,1.601,0.533,0.152
1593920717628854,1.563,0.533,0.152
1593920718132729,1.639,0.61,0.152
1593920718634199,1.639,0.533,0.152
1593920719135636,1.563,0.533,0.152
1593920719637242,1.601,0.61,0.152
1593920720138741,1.639,0.61,0.152
1593920720640203,1.563,0.533,0.152
1593920721141613,1.601,0.533,0.152
1593920721643111,1.677,0.61,0.152
1593920722144562,1.601,0.533,0.152
1593920722646003,1.601,0.61,0.152
1593920723149837,1.792,0.61,0.152
1593920723651664,2.019,0.61,0.152
1593920724153116,2.019,0.533,0.152
1593920724656760,1.943,0.533,0.152
1593920725158213,1.867,0.61,0.152
1593920725659667,1.639,0.533,0.152
1593920726161086,1.639,0.533,0.152
1593920726663446,1.639,0.61,0.152
1593920727164934,1.601,0.533,0.152
1593920727666383,1.601,0.533,0.152
1593920728170327,1.563,0.533,0.152
1593920728671838,1.715,0.61,0.152
1593920729173282,1.601,0.533,0.152
1593920729680724,1.563,0.533,0.152
1593920730182269,1.677,0.61,0.152
1593920730683771,1.563,0.533,0.152
1593920731185219,1.639,0.533,0.152
1593920731686690,1.601,0.61,0.152
1593920732188191,1.601,0.61,0.152
1593920732689699,1.601,0.61,0.152
1593920733193458,1.601,0.533,0.152
1593920733694905,1.715,0.61,0.152
1593920734196386,1.601,0.61,0.152
1593920734697922,1.601,0.61,0.152
1593920735200507,1.639,0.61,0.152
1593920735701998,1.601,0.533,0.152
1593920736203441,1.639,0.533,0.152
1593920736704895,1.601,0.61,0.152
1593920737206349,1.601,0.61,0.152
1593920737707810,1.639,0.61,0.152
1593920738211597,1.601,0.533,0.152
1593920738713204,1.677,0.61,0.152
1593920739214687,1.601,0.61,0.152
1593920739716158,1.601,0.61,0.152
1593920740217627,1.639,0.61,0.152
1593920740719093,1.601,0.61,0.152
1593920741220826,1.677,0.61,0.152
1593920741722331,1.601,0.61,0.152
1593920742223858,1.639,0.61,0.152
1593920742725315,1.639,0.61,0.152
1593920743229443,1.601,0.533,0.152
1593920743731031,1.639,0.61,0.152
1593920744232511,1.601,0.61,0.152
1593920744734015,1.601,0.533,0.152
1593920745235465,1.601,0.533,0.152
1593920745736884,1.601,0.533,0.152
1593920746238572,1.677,0.61,0.152
1593920746740062,1.563,0.533,0.152
1593920747241605,1.601,0.61,0.152
1593920747743074,1.677,0.61,0.152
1593920748244544,1.563,0.533,0.152
1593920748745970,1.639,0.533,0.152
1593920749247607,1.601,0.61,0.152
1593920749749003,1.601,0.533,0.152
1593920750250327,1.601,0.533,0.152
1593920750751798,1.601,0.61,0.152
1593920751253291,1.677,0.61,0.152
1593920751754815,1.563,0.533,0.152
1593920752257253,1.563,0.533,0.152
1593920752758762,1.677,0.61,0.152
1593920753262528,1.563,0.533,0.152
1593920753763959,1.563,0.533,0.152
1593920754265388,1.677,0.61,0.152
1593920754766858,1.563,0.533,0.152
1593920755268275,1.639,0.533,0.152
1593920755770495,1.639,0.61,0.152
1593920756272021,1.601,0.61,0.152
1593920756773485,1.639,0.61,0.152
1593920757274885,1.563,0.533,0.152
1593920757776405,1.715,0.61,0.152
1593920758280788,1.601,0.61,0.152
1593920758782166,1.563,0.533,0.152
1593920759283774,1.677,0.61,0.152
1593920759785277,1.601,0.61,0.152
1593920760286760,1.676,0.61,0.152
