TimeStamp,Total Power,CPU Power,GPU Power
1593991754322157,2.362,1.143,0.152
1593991754824060,1.981,0.838,0.152
1593991755325953,1.715,0.61,0.152
1593991755827785,1.715,0.61,0.152
1593991756329315,1.753,0.61,0.152
1593991756831036,1.867,0.686,0.152
1593991757332567,2.248,1.067,0.152
1593991757836948,2.439,1.22,0.152
1593991758338796,2.477,1.22,0.152
1593991758840475,2.477,1.22,0.152
1593991759342188,2.439,1.22,0.152
1593991759844041,2.477,1.295,0.152
1593991760345832,2.515,1.296,0.152
1593991760847412,2.439,1.22,0.152
1593991761348928,2.401,1.22,0.152
1593991761850331,2.362,1.143,0.152
1593991762351792,2.439,1.22,0.152
1593991762853239,2.477,1.22,0.152
1593991763354635,2.401,1.22,0.152
1593991763856277,2.401,1.143,0.152
1593991764357722,2.401,1.143,0.152
1593991764859438,2.362,1.143,0.152
1593991765361234,2.362,1.143,0.152
1593991765862771,2.362,1.143,0.152
1593991766364226,2.439,1.143,0.152
1593991766865721,2.401,1.143,0.152
1593991767367215,2.362,1.143,0.152
1593991767868656,2.362,1.143,0.152
1593991768372377,2.401,1.143,0.152
1593991768873801,2.401,1.143,0.152
1593991769375292,2.401,1.143,0.152
1593991769876901,2.362,1.143,0.152
1593991770378532,2.401,1.22,0.152
1593991770880119,2.324,1.143,0.152
1593991771381597,2.362,1.143,0.152
1593991771883004,2.362,1.143,0.152
1593991772384454,2.362,1.143,0.152
1593991772885875,2.401,1.143,0.152
1593991773387595,2.362,1.143,0.152
1593991773889330,2.362,1.143,0.152
1593991774391110,2.439,1.143,0.152
1593991774892550,2.362,1.143,0.152
1593991775394017,2.362,1.143,0.152
1593991775895442,2.362,1.143,0.152
1593991776396804,2.362,1.143,0.152
1593991776898236,2.362,1.143,0.152
1593991777399647,2.362,1.143,0.152
1593991777901048,2.401,1.143,0.152
1593991778402477,2.401,1.143,0.152
1593991778903942,2.362,1.143,0.152
1593991779405411,2.362,1.143,0.152
1593991779906845,2.362,1.143,0.152
1593991780409126,2.401,1.143,0.152
1593991780910523,2.401,1.143,0.152
1593991781411955,2.324,1.143,0.152
1593991781913404,2.362,1.143,0.152
1593991782414863,2.439,1.143,0.152
1593991782916356,2.401,1.143,0.152
1593991783417782,2.362,1.143,0.152
1593991783919469,2.324,1.143,0.152
1593991784421127,2.401,1.143,0.152
1593991784922531,2.362,1.143,0.152
1593991785424022,2.324,1.143,0.152
1593991785925438,2.362,1.143,0.152
1593991786426897,2.477,1.22,0.152
1593991786928319,2.362,1.143,0.152
1593991787429741,2.667,1.143,0.152
1593991787931171,2.744,1.143,0.152
1593991788432700,2.896,1.219,0.152
1593991788934136,2.629,1.143,0.152
1593991789435611,2.477,1.22,0.152
1593991789936981,2.477,1.22,0.152
1593991790438406,2.515,1.22,0.152
1593991790939844,2.477,1.22,0.152
1593991791441267,2.439,1.22,0.152
1593991791942723,2.477,1.22,0.152
1593991792444240,2.515,1.22,0.152
1593991792945669,2.515,1.295,0.152
1593991793447102,2.477,1.22,0.152
1593991793948768,2.477,1.22,0.152
1593991794450638,2.553,1.295,0.152
1593991794952516,2.515,1.296,0.152
1593991795454413,2.477,1.296,0.152
1593991795956141,2.515,1.296,0.152
1593991796458100,2.553,1.295,0.152
1593991796959730,2.477,1.22,0.152
1593991797461168,2.477,1.295,0.152
1593991797962611,2.477,1.22,0.152
1593991798464050,2.515,1.22,0.152
1593991798968030,2.477,1.22,0.152
1593991799469485,2.477,1.22,0.152
1593991799970962,2.477,1.22,0.152
1593991800472407,2.515,1.22,0.152
1593991800973793,2.515,1.296,0.152
1593991801475469,2.477,1.22,0.152
1593991801978577,2.477,1.22,0.152
1593991802480096,2.477,1.22,0.152
1593991802981527,2.477,1.22,0.152
1593991803482961,2.477,1.296,0.152
1593991803986761,2.477,1.296,0.152
1593991804488363,2.553,1.296,0.152
1593991804989710,2.477,1.22,0.152
1593991805491212,2.439,1.22,0.152
1593991805992722,2.515,1.296,0.152
1593991806494233,2.515,1.295,0.152
1593991806995869,2.477,1.296,0.152
1593991807497283,2.477,1.296,0.152
1593991807998780,2.477,1.296,0.152
1593991808500259,2.515,1.296,0.152
1593991809003925,2.477,1.22,0.152
1593991809505404,2.477,1.22,0.152
1593991810006839,2.515,1.296,0.152
1593991810508237,2.477,1.22,0.152
1593991811009651,2.515,1.296,0.152
1593991811511165,2.477,1.22,0.152
1593991812017539,2.439,1.219,0.152
1593991812518914,2.515,1.219,0.152
1593991813020422,2.477,1.22,0.152
1593991813521795,2.477,1.296,0.152
1593991814023295,2.477,1.22,0.152
1593991814524733,2.515,1.22,0.152
1593991815026208,2.439,1.22,0.152
1593991815527597,2.439,1.22,0.152
1593991816029057,2.477,1.22,0.152
1593991816530523,2.515,1.219,0.152
1593991817031998,2.477,1.219,0.152
1593991817533427,2.439,1.22,0.152
1593991818034876,2.477,1.22,0.152
1593991818536344,2.477,1.22,0.152
1593991819037772,2.477,1.22,0.152
1593991819539259,2.477,1.22,0.152
1593991820040726,2.477,1.296,0.152
1593991820542182,2.515,1.296,0.152
1593991821043634,2.515,1.22,0.152
1593991821545048,2.477,1.22,0.152
1593991822046473,2.477,1.296,0.152
1593991822547903,2.477,1.219,0.152
1593991823049279,2.477,1.219,0.152
1593991823550801,2.439,1.219,0.152
1593991824052209,2.477,1.296,0.152
1593991824553661,2.515,1.219,0.152
1593991825055123,2.477,1.219,0.152
1593991825556589,2.477,1.22,0.152
1593991826058760,2.477,1.219,0.152
1593991826560262,2.515,1.22,0.152
1593991827061643,2.477,1.22,0.152
1593991827563086,2.515,1.296,0.152
1593991828064627,2.477,1.22,0.152
1593991828570563,2.477,1.22,0.152
1593991829071967,2.477,1.22,0.152
1593991829573424,2.439,1.22,0.152
1593991830074900,2.401,1.22,0.152
1593991830576391,2.401,1.143,0.152
1593991831077841,2.362,1.143,0.152
1593991831579280,2.362,1.143,0.152
1593991832080756,2.362,1.143,0.152
1593991832582165,2.401,1.143,0.152
1593991833083575,2.362,1.143,0.152
1593991833585071,2.362,1.143,0.152
1593991834086466,2.362,1.143,0.152
1593991834590154,2.362,1.143,0.152
1593991835091582,2.401,1.143,0.152
1593991835593469,2.439,1.22,0.152
1593991836094972,2.401,1.143,0.152
1593991836596400,2.362,1.143,0.152
1593991837097851,2.401,1.143,0.152
1593991837599346,2.324,1.143,0.152
1593991838100804,2.362,1.143,0.152
1593991838602186,2.362,1.143,0.152
1593991839103603,2.362,1.143,0.152
1593991839607247,2.401,1.143,0.152
1593991840108723,2.362,1.22,0.152
1593991840610188,2.401,1.22,0.152
1593991841111605,2.477,1.22,0.152
1593991841613091,2.439,1.22,0.152
1593991842114542,2.439,1.22,0.152
1593991842616005,2.362,1.143,0.152
1593991843117417,2.362,1.143,0.152
1593991843618944,2.362,1.143,0.152
1593991844120350,2.324,1.143,0.152
1593991844623962,2.324,1.143,0.152
1593991845125545,2.362,1.143,0.152
1593991845627037,2.362,1.143,0.152
1593991846128471,2.362,1.143,0.152
1593991846629899,2.401,1.22,0.152
1593991847131346,2.401,1.143,0.152
1593991847632758,2.362,1.143,0.152
1593991848134255,2.362,1.143,0.152
1593991848635650,2.362,1.143,0.152
1593991849136993,2.401,1.143,0.152
1593991849638498,2.362,1.143,0.152
1593991850140216,2.515,1.143,0.152
1593991850641724,2.744,1.143,0.152
1593991851143512,2.82,1.143,0.152
1593991851644922,2.744,1.143,0.152
1593991852146380,2.439,1.143,0.152
1593991852647890,2.401,1.143,0.152
1593991853149320,2.401,1.143,0.152
1593991853650754,2.362,1.143,0.152
1593991854152260,2.401,1.143,0.152
1593991854653654,2.362,1.143,0.152
1593991855155064,2.401,1.22,0.152
1593991855656608,2.362,1.143,0.152
1593991856159974,2.362,1.143,0.152
1593991856661456,2.362,1.143,0.152
1593991857162888,2.439,1.143,0.152
1593991857664342,2.401,1.143,0.152
1593991858165805,2.401,1.143,0.152
1593991858667281,2.401,1.143,0.152
1593991859168746,2.362,1.143,0.152
1593991859670172,2.401,1.143,0.152
1593991860171635,2.362,1.143,0.152
1593991860673068,2.324,1.143,0.152
1593991861174523,2.362,1.143,0.152
1593991861675996,2.362,1.143,0.152
1593991862177470,2.439,1.22,0.152
1593991862678975,2.439,1.22,0.152
1593991863180499,2.401,1.143,0.152
1593991863681848,2.362,1.143,0.152
1593991864183431,2.362,1.143,0.152
1593991864684835,2.324,1.143,0.152
1593991865189452,2.439,1.22,0.152
1593991865691156,2.401,1.143,0.152
1593991866193046,2.362,1.143,0.152
1593991866694661,2.362,1.143,0.152
1593991867199120,2.401,1.143,0.152
1593991867701010,2.477,1.22,0.152
1593991868202579,2.401,1.143,0.152
1593991868704059,2.439,1.22,0.152
1593991869205450,2.477,1.22,0.152
1593991869706873,2.515,1.219,0.152
1593991870208412,2.477,1.219,0.152
1593991870709835,2.477,1.22,0.152
1593991871211213,2.401,1.22,0.152
1593991871712639,2.401,1.143,0.152
1593991872214084,2.324,1.143,0.152
1593991872715553,2.362,1.143,0.152
1593991873218831,2.362,1.143,0.152
1593991873720327,2.401,1.143,0.152
1593991874221768,2.362,1.143,0.152
1593991874723215,2.362,1.143,0.152
1593991875224796,2.401,1.143,0.152
1593991875726274,2.401,1.143,0.152
1593991876227779,2.362,1.143,0.152
1593991876729176,2.362,1.143,0.152
1593991877230562,2.362,1.143,0.152
1593991877731998,2.401,1.143,0.152
1593991878233482,2.362,1.143,0.152
1593991878734916,2.401,1.143,0.152
1593991879236366,2.362,1.143,0.152
1593991879737866,2.362,1.143,0.152
1593991880239299,2.401,1.143,0.152
1593991880740722,2.362,1.143,0.152
1593991881242123,2.362,1.143,0.152
1593991881743582,2.401,1.143,0.152
1593991882245307,2.362,1.143,0.152
1593991882746738,2.362,1.143,0.152
1593991883248168,2.362,1.143,0.152
1593991883749551,2.401,1.143,0.152
1593991884250991,2.362,1.143,0.152
1593991884752428,2.362,1.143,0.152
1593991885256469,2.362,1.143,0.152
1593991885757901,2.439,1.22,0.152
1593991886259276,2.362,1.143,0.152
1593991886760714,2.362,1.143,0.152
1593991887263039,2.362,1.143,0.152
1593991887764600,2.362,1.143,0.152
1593991888266017,2.324,1.143,0.152
1593991888768264,2.401,1.22,0.152
1593991889269913,2.439,1.22,0.152
1593991889771362,2.553,1.296,0.152
1593991890275454,2.515,1.296,0.152
1593991890777012,2.515,1.296,0.152
1593991891278482,2.515,1.296,0.152
1593991891780226,2.477,1.296,0.152
1593991892281813,2.515,1.296,0.152
1593991892783250,2.515,1.296,0.152
1593991893285086,2.515,1.296,0.152
1593991893786932,2.515,1.295,0.152
1593991894288393,2.515,1.296,0.152
1593991894789842,2.477,1.296,0.152
1593991895293599,2.515,1.296,0.152
1593991895795074,2.553,1.295,0.152
1593991896296549,2.515,1.296,0.152
1593991896797966,2.515,1.296,0.152
1593991897299373,2.401,1.143,0.152
1593991897800813,2.362,1.143,0.152
1593991898302278,2.362,1.143,0.152
1593991898803719,2.362,1.143,0.152
1593991899305172,2.324,1.143,0.152
1593991899806656,2.401,1.143,0.152
1593991900310303,2.439,1.22,0.152
1593991900811726,2.362,1.22,0.152
1593991901317299,2.362,1.22,0.152
1593991901818805,2.477,1.22,0.152
1593991902320263,2.477,1.22,0.152
1593991902821646,2.477,1.22,0.152
1593991903323146,2.439,1.22,0.152
1593991903824570,2.515,1.22,0.152
1593991904325978,2.477,1.22,0.152
1593991904827409,2.439,1.22,0.152
1593991905330953,2.477,1.296,0.152
1593991905832437,2.553,1.296,0.152
1593991906333882,2.477,1.22,0.152
1593991906835359,2.439,1.22,0.152
1593991907336919,2.477,1.22,0.152
1593991907838649,2.477,1.22,0.152
1593991908340110,2.477,1.22,0.152
1593991908841551,2.477,1.296,0.152
1593991909342979,2.477,1.22,0.152
1593991909844395,2.439,1.22,0.152
1593991910347982,2.477,1.295,0.152
1593991910849532,2.515,1.296,0.152
1593991911350965,2.439,1.22,0.152
1593991911852388,2.477,1.22,0.152
1593991912353763,2.477,1.22,0.152
1593991912855177,2.477,1.296,0.152
1593991913356646,2.744,1.295,0.152
1593991913858027,2.934,1.295,0.152
1593991914359459,2.934,1.295,0.152
1593991914860883,2.705,1.219,0.152
1593991915364496,2.515,1.219,0.152
1593991915872948,2.515,1.22,0.152
1593991916374397,2.477,1.22,0.152
1593991916875804,2.515,1.296,0.152
1593991917377216,2.515,1.296,0.152
1593991917878635,2.477,1.22,0.152
1593991918380038,2.515,1.295,0.152
1593991918881538,2.439,1.22,0.152
1593991919382999,2.477,1.22,0.152
1593991919886895,2.477,1.219,0.152
1593991920390478,2.477,1.22,0.152
1593991920892025,2.477,1.22,0.152
1593991921393489,2.477,1.22,0.152
1593991921904373,2.477,1.22,0.152
1593991922405823,2.515,1.296,0.152
1593991922907403,2.439,1.22,0.152
1593991923408791,2.439,1.22,0.152
1593991923910200,2.515,1.296,0.152
1593991924411612,2.515,1.22,0.152
1593991924913050,2.477,1.22,0.152
1593991925416656,2.477,1.296,0.152
1593991925918086,2.477,1.296,0.152
1593991926421715,2.477,1.22,0.152
1593991926923624,2.439,1.22,0.152
1593991927425172,2.439,1.22,0.152
1593991927926582,2.515,1.296,0.152
1593991928428315,2.477,1.22,0.152
1593991928929934,2.439,1.22,0.152
1593991929431379,2.477,1.22,0.152
1593991929932837,2.477,1.296,0.152
1593991930436421,2.553,1.295,0.152
1593991930938076,2.477,1.22,0.152
1593991931439898,2.439,1.22,0.152
1593991931943075,2.439,1.22,0.152
1593991932444792,2.477,1.22,0.152
1593991932946212,2.477,1.22,0.152
1593991933448030,2.439,1.22,0.152
1593991933949730,2.439,1.296,0.152
1593991934452921,2.439,1.143,0.152
1593991934954429,2.401,1.22,0.152
1593991935457942,2.439,1.22,0.152
1593991935959418,2.439,1.22,0.152
1593991936460827,2.477,1.22,0.152
1593991936962499,2.477,1.219,0.152
1593991937464043,2.477,1.22,0.152
1593991937965633,2.439,1.22,0.152
1593991938467444,2.553,1.296,0.152
1593991938969419,2.477,1.22,0.152
1593991939470956,2.477,1.22,0.152
1593991939972561,2.477,1.22,0.152
1593991940478344,2.515,1.296,0.152
1593991940979791,2.515,1.296,0.152
1593991941481244,2.477,1.22,0.152
1593991941982647,2.439,1.22,0.152
1593991942484577,2.515,1.22,0.152
1593991942986201,2.439,1.22,0.152
1593991943487649,2.439,1.22,0.152
1593991943989096,2.439,1.22,0.152
1593991944490563,2.553,1.296,0.152
1593991944991978,2.515,1.295,0.152
1593991945495720,2.477,1.219,0.152
1593991945997161,2.515,1.296,0.152
1593991946498576,2.515,1.296,0.152
1593991947000028,2.477,1.22,0.152
1593991947501476,2.439,1.22,0.152
1593991948002919,2.439,1.22,0.152
1593991948504371,2.515,1.296,0.152
1593991949005818,2.515,1.296,0.152
1593991949507260,2.515,1.296,0.152
1593991950008838,2.477,1.296,0.152
1593991950512689,2.477,1.22,0.152
1593991951014358,2.515,1.219,0.152
1593991951515865,2.477,1.296,0.152
1593991952017308,2.439,1.22,0.152
1593991952519009,2.477,1.219,0.152
1593991953020852,2.515,1.22,0.152
1593991953522375,2.439,1.22,0.152
1593991954023807,2.439,1.22,0.152
1593991954525291,2.515,1.296,0.152
1593991955026737,2.553,1.296,0.152
1593991955530423,2.515,1.22,0.152
1593991956031856,2.477,1.22,0.152
1593991956533273,2.439,1.22,0.152
1593991957034659,2.477,1.22,0.152
1593991957536108,2.439,1.22,0.152
1593991958037535,2.439,1.22,0.152
1593991958538986,2.439,1.22,0.152
1593991959040431,2.515,1.219,0.152
1593991959541827,2.477,1.22,0.152
1593991960043336,2.439,1.22,0.152
1593991960546930,2.439,1.22,0.152
1593991961048339,2.477,1.219,0.152
1593991961549741,2.477,1.22,0.152
1593991962051202,2.439,1.22,0.152
1593991962552886,2.439,1.22,0.152
1593991963054290,2.515,1.22,0.152
1593991963555724,2.439,1.22,0.152
1593991964057146,2.439,1.22,0.152
1593991964558561,2.477,1.22,0.152
1593991965059985,2.515,1.22,0.152
1593991965563837,2.439,1.22,0.152
1593991966066427,2.439,1.22,0.152
1593991966567851,2.439,1.22,0.152
1593991967069254,2.477,1.22,0.152
1593991967570674,2.477,1.22,0.152
1593991968072083,2.439,1.22,0.152
1593991968573460,2.439,1.22,0.152
1593991969075831,2.553,1.296,0.152
1593991969577264,2.553,1.296,0.152
1593991970078720,2.553,1.372,0.152
1593991970582393,2.591,1.372,0.152
1593991971083865,2.591,1.295,0.152
1593991971585310,2.591,1.296,0.152
1593991972086737,2.553,1.296,0.152
1593991972588188,2.553,1.372,0.152
1593991973089678,2.591,1.372,0.152
1593991973591138,2.629,1.372,0.152
1593991974092615,2.591,1.372,0.152
1593991974594029,2.591,1.372,0.152
1593991975095527,2.591,1.372,0.152
1593991975599351,2.629,1.372,0.152
1593991976100812,2.744,1.372,0.152
1593991976602230,2.934,1.372,0.152
1593991977103640,3.048,1.372,0.152
1593991977605143,3.01,1.295,0.152
1593991978106566,2.744,1.372,0.152
1593991978607984,2.629,1.372,0.152
1593991979109426,2.591,1.372,0.152
1593991979610827,2.629,1.372,0.152
1593991980112320,2.591,1.372,0.152
1593991980614003,2.591,1.372,0.152
1593991981115612,2.591,1.372,0.152
1593991981617046,2.591,1.296,0.152
1593991982118401,2.591,1.372,0.152
1593991982619942,2.591,1.372,0.152
1593991983121377,2.553,1.295,0.152
1593991983622809,2.591,1.296,0.152
1593991984124245,2.591,1.372,0.152
1593991984625669,2.591,1.372,0.152
1593991985127136,2.591,1.372,0.152
1593991985628539,2.629,1.372,0.152
1593991986132646,2.591,1.372,0.152
1593991986634074,2.591,1.372,0.152
1593991987135579,2.591,1.372,0.152
1593991987636997,2.629,1.372,0.152
1593991988138440,2.591,1.372,0.152
1593991988639919,2.591,1.372,0.152
1593991989141383,2.591,1.372,0.152
1593991989642825,2.591,1.296,0.152
1593991990144287,2.553,1.295,0.152
1593991990645717,2.591,1.372,0.152
1593991991147224,2.553,1.296,0.152
1593991991648712,2.591,1.296,0.152
1593991992150115,2.591,1.372,0.152
1593991992651531,2.591,1.372,0.152
1593991993152923,2.591,1.372,0.152
1593991993654316,2.591,1.372,0.152
1593991994155802,2.591,1.372,0.152
1593991994657278,2.553,1.372,0.152
1593991995158628,2.591,1.372,0.152
1593991995661063,2.629,1.372,0.152
1593991996164641,2.82,1.372,0.152
1593991996666191,2.667,1.372,0.152
1593991997167640,2.629,1.372,0.152
1593991997669527,2.591,1.372,0.152
1593991998171265,2.591,1.372,0.152
1593991998672914,2.591,1.372,0.152
1593991999174337,2.591,1.372,0.152
1593991999675850,2.591,1.372,0.152
1593992000177316,2.591,1.296,0.152
1593992000679412,2.591,1.372,0.152
1593992001181216,2.591,1.372,0.152
1593992001684555,2.629,1.372,0.152
1593992002187912,2.591,1.296,0.152
1593992002689389,2.553,1.372,0.152
1593992003190833,2.553,1.372,0.152
1593992003692279,2.591,1.372,0.152
1593992004193729,2.591,1.295,0.152
1593992004695174,2.591,1.372,0.152
1593992005196655,2.591,1.372,0.152
1593992005698050,2.553,1.372,0.152
1593992006199519,2.591,1.296,0.152
1593992006700954,2.591,1.372,0.152
1593992007202506,2.591,1.372,0.152
1593992007704016,2.629,1.372,0.152
1593992008205453,2.629,1.372,0.152
1593992008706877,2.591,1.372,0.152
1593992009208313,2.591,1.372,0.152
1593992009709770,2.591,1.372,0.152
1593992010211219,2.591,1.295,0.152
1593992010712735,2.591,1.372,0.152
1593992011214144,2.629,1.372,0.152
1593992011715598,2.591,1.372,0.152
1593992012217088,2.591,1.372,0.152
1593992012718505,2.591,1.296,0.152
1593992013219927,2.553,1.295,0.152
1593992013721368,2.553,1.295,0.152
1593992014223104,2.591,1.372,0.152
1593992014724610,2.553,1.372,0.152
1593992015226054,2.591,1.372,0.152
1593992015727537,2.591,1.372,0.152
1593992016228966,2.591,1.295,0.152
1593992016730427,2.667,1.372,0.152
1593992017231967,2.591,1.372,0.152
1593992017734216,2.553,1.372,0.152
1593992018236031,2.591,1.372,0.152
1593992018737724,2.629,1.372,0.152
1593992019239655,2.591,1.372,0.152
1593992019741390,2.591,1.372,0.152
1593992020244927,2.591,1.372,0.152
1593992020746367,2.629,1.372,0.152
1593992021247804,2.629,1.372,0.152
1593992021749253,2.591,1.372,0.152
1593992022250687,2.591,1.372,0.152
1593992022752388,2.591,1.372,0.152
1593992023253941,2.629,1.372,0.152
1593992023755727,2.629,1.372,0.152
1593992024257091,2.591,1.372,0.152
1593992024759707,2.629,1.372,0.152
1593992025261273,2.629,1.372,0.152
1593992025762731,2.591,1.372,0.152
1593992026264144,2.591,1.372,0.152
1593992026765785,2.629,1.372,0.152
1593992027267246,2.591,1.372,0.152
1593992027768726,2.591,1.372,0.152
1593992028270433,2.591,1.372,0.152
1593992028772037,2.629,1.372,0.152
1593992029273490,2.629,1.372,0.152
1593992029774936,2.591,1.372,0.152
1593992030276422,2.591,1.372,0.152
1593992030777887,2.629,1.372,0.152
1593992031279252,2.629,1.372,0.152
1593992031780674,2.629,1.372,0.152
1593992032282184,2.591,1.372,0.152
1593992032783602,2.591,1.372,0.152
1593992033285555,2.591,1.296,0.152
1593992033786975,2.553,1.372,0.152
1593992034288415,2.591,1.372,0.152
1593992034789828,2.591,1.372,0.152
1593992035291299,2.591,1.372,0.152
1593992035792762,2.591,1.372,0.152
1593992036294215,2.591,1.372,0.152
1593992036795691,2.591,1.372,0.152
1593992037299426,2.667,1.372,0.152
1593992037800904,2.591,1.372,0.152
1593992038302334,2.591,1.372,0.152
1593992038803772,2.591,1.372,0.152
1593992039305235,2.858,1.372,0.152
1593992039806654,2.972,1.372,0.152
1593992040308216,3.01,1.372,0.152
1593992040810015,2.896,1.372,0.152
1593992041311443,2.705,1.372,0.152
1593992041812878,2.667,1.372,0.152
1593992042316453,2.591,1.296,0.152
1593992042817993,2.591,1.372,0.152
1593992043319450,2.591,1.372,0.152
1593992043820921,2.591,1.296,0.152
1593992044322307,2.591,1.372,0.152
1593992044823764,2.591,1.372,0.152
1593992045325187,2.629,1.372,0.152
1593992045826631,2.629,1.372,0.152
1593992046328102,2.591,1.372,0.152
1593992046829515,2.553,1.372,0.152
1593992047330933,2.591,1.372,0.152
1593992047832513,2.629,1.372,0.152
1593992048333980,2.553,1.372,0.152
1593992048835425,2.591,1.372,0.152
1593992049336826,2.591,1.372,0.152
1593992049838273,2.591,1.372,0.152
1593992050339859,2.629,1.372,0.152
1593992050841316,2.553,1.372,0.152
1593992051342710,2.553,1.372,0.152
1593992051844165,2.553,1.296,0.152
1593992052345631,2.591,1.295,0.152
1593992052847115,2.553,1.372,0.152
1593992053348566,2.553,1.372,0.152
1593992053849951,2.553,1.296,0.152
1593992054351442,2.553,1.296,0.152
1593992054852894,2.553,1.372,0.152
1593992055354372,2.591,1.372,0.152
1593992055856133,2.591,1.296,0.152
1593992056357682,2.591,1.295,0.152
1593992056859557,2.591,1.296,0.152
1593992057361092,2.591,1.372,0.152
1593992057862804,2.591,1.296,0.152
1593992058364583,2.591,1.372,0.152
1593992058866126,2.591,1.372,0.152
1593992059367548,2.515,1.296,0.152
1593992059868976,2.477,1.22,0.152
1593992060370672,2.515,1.296,0.152
1593992060872312,2.477,1.22,0.152
1593992061373753,2.477,1.22,0.152
1593992061875493,2.515,1.22,0.152
1593992062377016,2.439,1.22,0.152
1593992062880554,2.477,1.22,0.152
1593992063385240,2.477,1.296,0.152
1593992063887081,2.553,1.295,0.152
1593992064388517,2.477,1.22,0.152
1593992064889940,2.515,1.296,0.152
1593992065391599,2.477,1.22,0.152
1593992065895645,2.515,1.22,0.152
1593992066397161,2.401,1.22,0.152
1593992066898795,2.515,1.22,0.152
1593992067400657,2.477,1.22,0.152
1593992067904894,2.515,1.22,0.152
1593992068406394,2.477,1.22,0.152
1593992068907856,2.439,1.22,0.152
1593992069409414,2.439,1.22,0.152
1593992069911018,2.477,1.219,0.152
1593992070412683,2.515,1.296,0.152
1593992070914163,2.477,1.22,0.152
1593992071420036,2.439,1.22,0.152
1593992071921514,2.515,1.219,0.152
1593992072422959,2.477,1.22,0.152
1593992072924669,2.439,1.22,0.152
1593992073426456,2.477,1.296,0.152
1593992073929011,2.515,1.22,0.152
1593992074430532,2.477,1.22,0.152
1593992074932016,2.439,1.22,0.152
1593992075433487,2.477,1.296,0.152
1593992075934913,2.515,1.296,0.152
1593992076436382,2.477,1.296,0.152
1593992076937974,2.477,1.296,0.152
1593992077439585,2.439,1.22,0.152
1593992077943261,2.515,1.296,0.152
1593992078444941,2.515,1.296,0.152
1593992078946444,2.515,1.296,0.152
1593992079448460,2.591,1.372,0.152
1593992079950337,2.553,1.295,0.152
1593992080452444,2.477,1.296,0.152
1593992080959445,2.477,1.22,0.152
1593992081460859,2.439,1.296,0.152
1593992081962555,2.477,1.296,0.152
1593992082464124,2.477,1.296,0.152
1593992082965557,2.477,1.296,0.152
1593992083467279,2.477,1.22,0.152
1593992083968910,2.515,1.296,0.152
1593992084470288,2.553,1.296,0.152
1593992084971983,2.515,1.296,0.152
1593992085473758,2.515,1.296,0.152
1593992085975516,2.439,1.22,0.152
1593992086476923,2.477,1.22,0.152
1593992086978378,2.553,1.296,0.152
1593992087479821,2.553,1.372,0.152
1593992087981214,2.591,1.372,0.152
1593992088483103,2.553,1.295,0.152
