TimeStamp,Total Power,CPU Power,GPU Power
1592951532363194,3.239,0.915,0.152
1592951532864801,2.325,0.686,0.152
1592951533366263,1.982,0.686,0.152
1592951533867751,1.868,0.686,0.152
1592951534369185,1.906,0.686,0.152
1592951534870630,1.868,0.686,0.152
1592951535372105,1.83,0.686,0.152
1592951535873576,1.906,0.686,0.152
1592951536374989,1.868,0.686,0.152
1592951536876428,1.83,0.686,0.152
1592951537377896,1.868,0.686,0.152
1592951537882298,1.906,0.686,0.152
1592951538383772,1.868,0.686,0.152
