TimeStamp,A7 Voltage(V),A7 Current(A),A7 Power(W),A15 Voltage(V),A15 Current(A),A15 Power(W),GPU Power(W)
1606697542056788167,1.100000,0.435000,0.514000,1.100000,3.524000,3.989000,0.099000
1606697542638576529,1.100000,0.434000,0.512000,1.100000,3.565000,4.035000,0.103000
1606697543275963243,1.100000,0.461000,0.544000,1.100000,3.655000,4.141000,0.106000
1606697543898812265,1.000000,0.128000,0.130000,1.100000,3.581000,4.057000,0.109000
1606697544527715115,1.000000,0.129000,0.131000,1.100000,3.688000,4.178000,0.110000
1606697545081229874,1.000000,0.128000,0.130000,1.100000,3.705000,4.197000,0.112000
1606697545633276495,1.100000,0.551000,0.650000,0.900000,1.135000,1.113000,0.113000
1606697546183511527,1.100000,0.551000,0.650000,0.900000,0.886000,0.868000,0.113000
1606697546735369427,1.100000,0.525000,0.610000,0.900000,1.246000,1.239000,0.111000
1606697547290132241,1.100000,0.486000,0.550000,1.000000,2.330000,2.448000,0.111000
1606697547844884007,1.100000,0.487000,0.550000,1.000000,2.338000,2.457000,0.112000
1606697548423251913,1.100000,0.356000,0.392000,1.000000,2.776000,3.003000,0.113000
1606697549001771816,1.000000,0.284000,0.307000,1.100000,3.697000,4.188000,0.114000
1606697549573162615,1.000000,0.254000,0.275000,1.100000,3.719000,4.213000,0.116000
1606697550128419769,1.100000,0.491000,0.555000,1.000000,2.924000,3.193000,0.119000
1606697550682180913,1.100000,0.491000,0.555000,1.000000,2.883000,3.145000,0.119000
1606697551233666215,1.100000,0.492000,0.556000,1.000000,2.657000,2.898000,0.120000
1606697551789699681,1.100000,0.493000,0.557000,1.000000,3.325000,3.640000,0.121000
1606697552339670841,1.100000,0.492000,0.556000,1.000000,3.349000,3.667000,0.122000
1606697552916092898,1.100000,0.473000,0.534000,1.000000,3.344000,3.661000,0.123000
1606697553490310191,1.100000,0.395000,0.447000,1.100000,3.626000,4.115000,0.124000
1606697554066052190,1.100000,0.437000,0.494000,1.100000,3.768000,4.276000,0.125000
1606697554636514340,1.100000,0.409000,0.462000,1.100000,3.784000,4.294000,0.125000
1606697555206312693,1.100000,0.417000,0.472000,1.000000,3.404000,3.727000,0.128000
1606697555779651957,1.100000,0.401000,0.453000,1.000000,3.399000,3.721000,0.128000
1606697556337779825,1.100000,0.396000,0.448000,1.000000,3.372000,3.692000,0.128000
1606697556891352809,1.100000,0.562000,0.663000,1.100000,3.773000,4.282000,0.129000
1606697557439132153,1.100000,0.565000,0.666000,1.100000,3.742000,4.247000,0.131000
1606697558010121139,1.100000,0.565000,0.666000,1.100000,3.817000,4.332000,0.132000
1606697558590482870,1.100000,0.400000,0.452000,1.000000,3.426000,3.751000,0.132000
1606697559190184738,1.100000,0.423000,0.478000,1.000000,3.404000,3.727000,0.131000
1606697559745412811,1.100000,0.564000,0.666000,1.100000,3.775000,4.284000,0.131000
1606697560296231749,1.100000,0.566000,0.667000,1.100000,3.823000,4.339000,0.135000
1606697560846568597,1.100000,0.568000,0.670000,1.100000,3.796000,4.308000,0.134000
1606697561396418894,1.100000,0.536000,0.620000,1.100000,3.809000,4.323000,0.137000
1606697561950933983,1.100000,0.502000,0.567000,1.100000,3.842000,4.360000,0.136000
1606697562503951643,1.100000,0.501000,0.566000,1.100000,3.807000,4.320000,0.137000
1606697563083808445,1.100000,0.434000,0.491000,1.100000,3.848000,4.367000,0.137000
1606697563661256068,1.100000,0.422000,0.477000,1.100000,3.831000,4.348000,0.138000
1606697564220724755,1.100000,0.411000,0.465000,1.100000,3.854000,4.374000,0.138000
1606697564769113220,1.100000,0.551000,0.648000,1.100000,3.824000,4.340000,0.138000
1606697565324016890,1.100000,0.570000,0.672000,1.100000,3.863000,4.384000,0.139000
1606697565899505277,1.100000,0.570000,0.672000,1.100000,3.834000,4.351000,0.140000
1606697566476091404,1.100000,0.407000,0.460000,1.100000,3.866000,4.391000,0.140000
1606697567051677694,1.100000,0.405000,0.458000,1.100000,3.869000,4.395000,0.141000
1606697567603100582,1.100000,0.494000,0.571000,1.100000,3.846000,4.369000,0.141000
1606697568158231969,1.100000,0.572000,0.674000,1.100000,3.834000,4.355000,0.142000
1606697568709174636,1.100000,0.573000,0.676000,1.100000,3.877000,4.404000,0.143000
1606697569260785464,1.100000,0.573000,0.676000,1.100000,3.885000,4.413000,0.143000
1606697569819457124,1.100000,0.505000,0.571000,1.100000,3.835000,4.356000,0.143000
1606697570371442730,1.100000,0.505000,0.571000,1.100000,3.865000,4.390000,0.144000
1606697570924557541,1.100000,0.509000,0.577000,1.100000,3.889000,4.417000,0.143000
1606697571479931384,1.100000,0.572000,0.674000,1.100000,3.851000,4.374000,0.144000
1606697572030454180,1.100000,0.572000,0.674000,1.100000,3.869000,4.395000,0.145000
1606697572582336799,1.100000,0.573000,0.676000,1.100000,3.869000,4.395000,0.145000
1606697573133408749,1.100000,0.574000,0.677000,1.100000,3.869000,4.395000,0.146000
1606697573688093649,1.100000,0.575000,0.678000,1.100000,3.900000,4.430000,0.146000
1606697574231792830,1.100000,0.574000,0.677000,1.100000,3.871000,4.397000,0.147000
1606697574774824254,1.100000,0.578000,0.682000,1.100000,3.884000,4.412000,0.147000
1606697575316247712,1.100000,0.579000,0.683000,1.100000,3.906000,4.437000,0.148000
1606697575860700042,1.100000,0.580000,0.684000,1.100000,3.910000,4.441000,0.148000
1606697576409488990,1.100000,0.536000,0.616000,1.100000,3.889000,4.417000,0.148000
1606697576956919017,1.100000,0.510000,0.576000,1.100000,3.866000,4.391000,0.148000
1606697577503222283,1.100000,0.509000,0.575000,1.100000,3.911000,4.442000,0.148000
1606697578050808923,1.100000,0.511000,0.577000,1.100000,3.911000,4.442000,0.148000
1606697578597568676,1.100000,0.510000,0.576000,1.100000,3.829000,4.349000,0.148000
1606697579142719342,1.100000,0.545000,0.630000,1.100000,3.905000,4.436000,0.148000
1606697579702939089,1.100000,0.582000,0.686000,1.100000,3.919000,4.451000,0.149000
1606697580249183575,1.100000,0.579000,0.683000,1.100000,3.892000,4.421000,0.149000
1606697580793553220,1.100000,0.580000,0.684000,1.100000,3.898000,4.428000,0.150000
1606697581334904441,1.100000,0.580000,0.684000,1.100000,3.889000,4.417000,0.150000
1606697581879840825,1.100000,0.582000,0.686000,1.100000,3.922000,4.455000,0.150000
1606697582435568578,1.100000,0.582000,0.686000,1.100000,3.920000,4.453000,0.150000
1606697582976340532,1.100000,0.581000,0.685000,1.100000,3.897000,4.426000,0.150000
1606697583522233185,1.100000,0.581000,0.685000,1.100000,3.901000,4.431000,0.151000
1606697584068307711,1.100000,0.581000,0.685000,1.100000,3.891000,4.420000,0.151000
1606697584613199643,1.100000,0.581000,0.685000,1.100000,3.925000,4.458000,0.152000
1606697585158137989,1.100000,0.581000,0.685000,1.100000,3.916000,4.448000,0.152000
1606697585712093120,1.100000,0.579000,0.683000,1.100000,3.856000,4.380000,0.152000
1606697586255900493,1.100000,0.581000,0.685000,1.100000,3.928000,4.462000,0.152000
1606697586799978110,1.100000,0.582000,0.686000,1.100000,3.934000,4.469000,0.153000
1606697587343417678,1.100000,0.568000,0.670000,1.100000,3.769000,4.281000,0.153000
1606697587887677533,1.100000,0.583000,0.687000,1.100000,3.932000,4.466000,0.153000
1606697588447552549,1.100000,0.584000,0.689000,1.100000,3.940000,4.475000,0.153000
1606697588990875059,1.100000,0.583000,0.687000,1.100000,3.909000,4.440000,0.153000
1606697589535077767,1.100000,0.582000,0.686000,1.100000,3.885000,4.413000,0.153000
1606697590080607431,1.100000,0.582000,0.686000,1.100000,3.918000,4.450000,0.153000
1606697590625613752,1.100000,0.582000,0.686000,1.100000,3.939000,4.474000,0.153000
1606697591177065445,1.100000,0.582000,0.686000,1.100000,3.899000,4.429000,0.154000
1606697591727596547,1.100000,0.582000,0.686000,1.100000,3.905000,4.436000,0.154000
1606697592272809934,1.100000,0.583000,0.687000,1.100000,3.931000,4.465000,0.154000
1606697592816357482,1.100000,0.583000,0.687000,1.100000,3.916000,4.448000,0.155000
1606697593359047022,1.100000,0.583000,0.687000,1.100000,3.942000,4.478000,0.155000
1606697593914711225,1.100000,0.583000,0.687000,1.100000,3.917000,4.449000,0.155000
1606697594460717419,1.100000,0.567000,0.669000,1.100000,3.810000,4.328000,0.155000
1606697595005675527,1.100000,0.584000,0.689000,1.100000,3.941000,4.476000,0.155000
1606697595550477166,1.100000,0.583000,0.687000,1.100000,3.939000,4.474000,0.155000
1606697596090573052,1.100000,0.583000,0.687000,1.100000,3.886000,4.414000,0.156000
1606697596636721929,1.100000,0.585000,0.690000,1.100000,3.944000,4.480000,0.156000
1606697597191938886,1.100000,0.586000,0.691000,1.100000,3.953000,4.490000,0.156000
1606697597738099585,1.100000,0.585000,0.690000,1.100000,3.941000,4.476000,0.156000
1606697598280752528,1.100000,0.584000,0.689000,1.100000,3.916000,4.448000,0.156000
1606697598826813632,1.100000,0.583000,0.687000,1.100000,3.943000,4.479000,0.156000
1606697599372783604,1.100000,0.583000,0.687000,1.100000,3.957000,4.495000,0.156000
1606697599923100155,1.100000,0.585000,0.690000,1.100000,3.946000,4.482000,0.157000
1606697600467597196,1.100000,0.585000,0.690000,1.100000,3.918000,4.450000,0.157000
1606697601013234111,1.100000,0.584000,0.689000,1.100000,3.949000,4.486000,0.157000
1606697601559188848,1.100000,0.586000,0.691000,1.100000,3.957000,4.495000,0.157000
1606697602103831291,1.100000,0.580000,0.684000,1.100000,3.940000,4.475000,0.158000
1606697602650303058,1.100000,0.585000,0.690000,1.100000,3.927000,4.461000,0.158000
1606697603205052904,1.100000,0.587000,0.692000,1.100000,3.962000,4.500000,0.158000
1606697603750642118,1.100000,0.587000,0.692000,1.100000,3.960000,4.498000,0.158000
1606697604294138994,1.100000,0.586000,0.691000,1.100000,3.952000,4.489000,0.158000
1606697604839555447,1.100000,0.586000,0.691000,1.100000,3.919000,4.451000,0.158000
1606697605382133476,1.100000,0.586000,0.691000,1.100000,3.937000,4.472000,0.158000
1606697605946820039,1.100000,0.586000,0.691000,1.100000,3.962000,4.500000,0.158000
1606697606492352054,1.100000,0.585000,0.690000,1.100000,3.935000,4.470000,0.158000
1606697607038253776,1.100000,0.585000,0.690000,1.100000,3.905000,4.436000,0.158000
1606697607584166529,1.100000,0.586000,0.691000,1.100000,3.955000,4.492000,0.158000
1606697608129674112,1.100000,0.586000,0.691000,1.100000,3.968000,4.507000,0.159000
1606697608684492643,1.100000,0.586000,0.691000,1.100000,3.969000,4.508000,0.159000
1606697609230681172,1.100000,0.588000,0.693000,1.100000,3.941000,4.476000,0.159000
1606697609775958819,1.100000,0.587000,0.692000,1.100000,3.969000,4.508000,0.159000
1606697610318577836,1.100000,0.587000,0.692000,1.100000,3.970000,4.509000,0.160000
1606697610863361347,1.100000,0.586000,0.691000,1.100000,3.927000,4.461000,0.160000
1606697611426432761,1.100000,0.587000,0.692000,1.100000,3.960000,4.498000,0.160000
1606697611970637137,1.100000,0.587000,0.692000,1.100000,3.974000,4.514000,0.160000
1606697612510589545,1.100000,0.587000,0.692000,1.100000,3.926000,4.459000,0.160000
1606697613054189700,1.100000,0.586000,0.691000,1.100000,3.928000,4.462000,0.160000
1606697613598445387,1.100000,0.588000,0.693000,1.100000,3.970000,4.509000,0.160000
1606697614139710655,1.100000,0.586000,0.691000,1.100000,3.950000,4.487000,0.160000
1606697614694411035,1.100000,0.586000,0.691000,1.100000,3.972000,4.516000,0.160000
1606697615239486289,1.100000,0.581000,0.685000,1.100000,3.886000,4.414000,0.160000
1606697615785744911,1.100000,0.586000,0.691000,1.100000,3.971000,4.511000,0.160000
1606697616330100444,1.100000,0.586000,0.691000,1.100000,3.974000,4.514000,0.160000
1606697616872791849,1.100000,0.588000,0.693000,1.100000,3.976000,4.520000,0.161000
1606697617425241824,1.100000,0.586000,0.691000,1.100000,3.943000,4.479000,0.161000
1606697617968594717,1.100000,0.587000,0.692000,1.100000,3.956000,4.494000,0.161000
1606697618514368099,1.100000,0.587000,0.692000,1.100000,3.982000,4.527000,0.161000
1606697619060148771,1.100000,0.587000,0.692000,1.100000,3.980000,4.521000,0.162000
1606697619601407310,1.100000,0.586000,0.691000,1.100000,3.912000,4.444000,0.161000
1606697620148216760,1.100000,0.588000,0.693000,1.100000,3.976000,4.516000,0.162000
1606697620699283450,1.100000,0.587000,0.692000,1.100000,3.980000,4.521000,0.162000
1606697621245515763,1.100000,0.587000,0.692000,1.100000,3.959000,4.497000,0.162000
1606697621790101987,1.100000,0.587000,0.692000,1.100000,3.944000,4.480000,0.162000
1606697622336053745,1.100000,0.588000,0.693000,1.100000,3.980000,4.521000,0.162000
1606697622881602791,1.100000,0.588000,0.693000,1.100000,3.983000,4.524000,0.162000
1606697623440272946,1.100000,0.586000,0.691000,1.100000,3.950000,4.487000,0.162000
1606697623987717897,1.100000,0.587000,0.692000,1.100000,3.943000,4.479000,0.163000
1606697624532571422,1.100000,0.587000,0.692000,1.100000,3.976000,4.516000,0.163000
1606697625078350862,1.100000,0.587000,0.692000,1.100000,3.983000,4.524000,0.163000
1606697625624104042,1.100000,0.586000,0.691000,1.100000,3.963000,4.501000,0.163000
1606697626174961132,1.100000,0.586000,0.691000,1.100000,3.957000,4.495000,0.163000
1606697626723678425,1.100000,0.587000,0.692000,1.100000,3.956000,4.494000,0.163000
1606697627269782172,1.100000,0.587000,0.692000,1.100000,3.986000,4.528000,0.163000
1606697627813674332,1.100000,0.587000,0.692000,1.100000,3.970000,4.509000,0.163000
1606697628357892068,1.100000,0.588000,0.693000,1.100000,3.959000,4.497000,0.163000
1606697628921000830,1.100000,0.589000,0.695000,1.100000,3.985000,4.526000,0.164000
1606697629466551802,1.100000,0.588000,0.693000,1.100000,3.989000,4.531000,0.164000
1606697630012055064,1.100000,0.588000,0.693000,1.100000,3.963000,4.501000,0.164000
1606697630558596357,1.100000,0.587000,0.692000,1.100000,3.941000,4.476000,0.164000
1606697631101064692,1.100000,0.588000,0.693000,1.100000,3.993000,4.540000,0.164000
1606697631646508474,1.100000,0.589000,0.695000,1.100000,3.993000,4.540000,0.165000
1606697632203493870,1.100000,0.589000,0.695000,1.100000,3.946000,4.482000,0.164000
