Timestamp,Voltage(V),Ampere(A),Power(W),Watt Hour
1606697541337390541,5.024,0.868,4.363,0.000
1606697541454425892,5.024,0.871,4.378,0.000
1606697541554367389,5.015,0.787,3.950,0.000
1606697541628597396,5.016,0.813,4.080,0.000
1606697541704646156,5.019,0.876,4.397,0.000
1606697541803783735,5.010,0.732,3.668,0.000
1606697542071631143,5.010,0.721,3.611,0.000
1606697542147528859,5.009,0.714,3.576,0.000
1606697542225050368,5.011,0.749,3.760,0.000
1606697542302913086,5.020,0.913,4.588,0.000
1606697542380744429,5.010,0.720,3.607,0.000
1606697542458495730,5.010,0.715,3.584,0.000
1606697542535204989,5.009,0.715,3.584,0.000
1606697542615020917,5.020,0.943,4.737,0.000
1606697542693370094,5.010,0.716,3.588,0.000
1606697542770757312,5.010,0.716,3.588,0.000
1606697542849125822,5.009,0.711,3.565,0.000
1606697542928779792,5.009,0.708,3.550,0.000
1606697543005524426,5.009,0.710,3.557,0.000
1606697543155837310,5.020,0.941,4.725,0.000
1606697543303713150,5.009,0.714,3.580,0.000
1606697543424643209,5.009,0.711,3.561,0.000
1606697543557823448,5.009,0.708,3.546,0.000
1606697543667402910,5.016,0.905,4.546,0.000
1606697543796227353,5.016,0.905,4.546,0.000
1606697543932748054,5.009,0.710,3.561,0.000
1606697544060298578,5.009,0.709,3.554,0.000
1606697544183779053,5.009,0.710,3.561,0.000
1606697544308172321,5.012,0.783,3.931,0.000
1606697544432822131,5.009,0.713,3.573,0.000
1606697544569941538,5.009,0.709,3.550,0.000
1606697544695983933,5.009,0.708,3.550,0.000
1606697544809264896,5.009,0.708,3.550,0.000
1606697544870322550,5.023,0.968,4.863,0.000
1606697544928152616,5.009,0.708,3.550,0.000
1606697544983536013,5.009,0.707,3.542,0.000
1606697545041851621,5.009,0.706,3.538,0.000
1606697545102251856,5.009,0.707,3.542,0.000
1606697545159832212,5.020,0.939,4.718,0.000
1606697545216471443,5.009,0.715,3.584,0.000
1606697545273209423,5.009,0.705,3.534,0.000
1606697545331887656,5.009,0.703,3.527,0.000
1606697545387829136,5.009,0.705,3.534,0.000
1606697545442010447,5.009,0.704,3.527,0.000
1606697545497973426,5.019,0.926,4.653,0.000
1606697545552953030,5.021,0.863,4.336,0.000
1606697545616077476,5.009,0.706,3.538,0.000
1606697545673097748,5.009,0.701,3.515,0.000
1606697545728794936,5.009,0.701,3.515,0.000
1606697545785159500,5.014,0.808,4.057,0.000
1606697545843766774,5.021,0.897,4.508,0.000
1606697545897070876,5.017,0.805,4.042,0.000
1606697545954248315,5.011,0.735,3.683,0.000
1606697546010729670,5.009,0.701,3.515,0.000
1606697546058532389,5.009,0.700,3.508,0.000
1606697546116134661,5.009,0.711,3.565,0.000
1606697546181732650,5.009,0.702,3.515,0.000
1606697546238442421,5.009,0.700,3.508,0.000
1606697546293404857,5.009,0.701,3.512,0.000
1606697546381143120,5.009,0.699,3.504,0.000
1606697546438157558,5.020,0.925,4.649,0.000
1606697546495166788,5.020,0.925,4.649,0.000
1606697546553790644,5.009,0.703,3.523,0.000
1606697546613706085,5.007,0.698,3.500,0.000
1606697546672006566,5.009,0.698,3.496,0.000
1606697546741914976,5.007,0.698,3.496,0.000
1606697546797507163,5.019,0.918,4.611,0.000
1606697546853040432,5.012,0.757,3.798,0.000
1606697546912697665,5.009,0.703,3.523,0.000
1606697546970076186,5.007,0.699,3.504,0.000
1606697547026247873,5.007,0.699,3.504,0.000
1606697547082860684,5.007,0.699,3.504,0.000
1606697547141956081,5.015,0.837,4.202,0.000
1606697547197851558,5.007,0.701,3.515,0.000
1606697547259912708,5.007,0.699,3.504,0.000
1606697547323224818,5.007,0.698,3.496,0.000
1606697547383156175,5.007,0.698,3.496,0.000
1606697547440072694,5.019,0.919,4.618,0.000
1606697547499777301,5.009,0.704,3.527,0.000
1606697547555493486,5.007,0.701,3.512,0.000
1606697547612707089,5.007,0.696,3.489,0.000
1606697547671501028,5.007,0.696,3.489,0.000
1606697547729758799,5.007,0.702,3.515,0.000
1606697547787456820,5.020,0.936,4.706,0.000
1606697547853444807,5.009,0.708,3.550,0.000
1606697547952617040,5.009,0.703,3.523,0.000
1606697548036489629,5.007,0.696,3.485,0.000
1606697548115241921,5.007,0.696,3.489,0.000
1606697548200529511,5.020,0.941,4.725,0.000
1606697548280176720,5.007,0.701,3.512,0.000
1606697548358577595,5.007,0.701,3.512,0.000
1606697548445155061,5.007,0.695,3.481,0.000
1606697548527805565,5.007,0.694,3.473,0.000
1606697548607719150,5.017,0.847,4.256,0.000
1606697548687575234,5.011,0.751,3.767,0.000
1606697548769788654,5.009,0.701,3.512,0.000
1606697548848402612,5.009,0.703,3.523,0.000
1606697548928875239,5.007,0.692,3.466,0.000
1606697549019930626,5.011,0.746,3.741,0.000
1606697549101080627,5.016,0.864,4.336,0.000
1606697549182019002,5.009,0.706,3.538,0.000
1606697549261788043,5.009,0.706,3.538,0.000
1606697549340771916,5.007,0.692,3.470,0.000
1606697549419956040,5.007,0.697,3.492,0.000
1606697549518519350,5.020,0.943,4.737,0.000
1606697549594549679,5.007,0.691,3.462,0.000
1606697549651055654,5.007,0.691,3.462,0.000
1606697549707843879,5.007,0.691,3.462,0.000
1606697549764945397,5.007,0.690,3.458,0.000
1606697549821881705,5.007,0.690,3.458,0.000
1606697549879958015,5.009,0.705,3.534,0.000
1606697549936914574,5.007,0.691,3.462,0.000
1606697549993834217,5.007,0.690,3.458,0.000
1606697550054414820,5.007,0.692,3.466,0.000
1606697550116023132,5.017,0.881,4.424,0.000
1606697550173379982,5.010,0.738,3.702,0.000
1606697550231348457,5.007,0.692,3.470,0.000
1606697550286890680,5.007,0.692,3.470,0.000
1606697550346916865,5.007,0.691,3.462,0.000
1606697550405084049,5.007,0.692,3.466,0.000
1606697550462888524,5.012,0.784,3.931,0.000
1606697550521536875,5.017,0.868,4.363,0.000
1606697550580465435,5.007,0.694,3.477,0.000
1606697550637424367,5.007,0.692,3.466,0.000
1606697550699959472,5.007,0.691,3.462,0.000
1606697550756129696,5.007,0.701,3.512,0.000
1606697550814958338,5.019,0.928,4.660,0.000
1606697550871862313,5.007,0.690,3.458,0.000
1606697550929456287,5.007,0.690,3.458,0.000
1606697550985215635,5.007,0.691,3.466,0.000
1606697551042907651,5.007,0.690,3.458,0.000
1606697551129840945,5.021,0.954,4.794,0.000
1606697551187876128,5.010,0.718,3.595,0.000
1606697551251909774,5.007,0.690,3.458,0.000
1606697551307867788,5.007,0.689,3.454,0.000
1606697551367086722,5.007,0.690,3.454,0.000
1606697551424261445,5.019,0.890,4.470,0.000
1606697551480725042,5.009,0.721,3.615,0.000
1606697551538133349,5.009,0.721,3.615,0.000
1606697551595121613,5.007,0.688,3.450,0.000
1606697551651498711,5.007,0.687,3.443,0.000
1606697551708981768,5.007,0.687,3.443,0.000
1606697551772173788,5.014,0.818,4.107,0.000
1606697551830430596,5.015,0.815,4.092,0.000
1606697551889278154,5.007,0.689,3.450,0.000
1606697551947442587,5.007,0.687,3.443,0.000
1606697552004288268,5.007,0.687,3.443,0.000
1606697552061567531,5.009,0.698,3.496,0.000
1606697552121298214,5.009,0.698,3.496,0.000
1606697552178035019,5.007,0.688,3.447,0.000
1606697552235301157,5.007,0.686,3.439,0.000
1606697552291488587,5.007,0.685,3.431,0.000
1606697552360420111,5.007,0.686,3.439,0.000
1606697552415684415,5.021,0.942,4.733,0.000
1606697552476455390,5.007,0.690,3.454,0.000
1606697552534289113,5.007,0.687,3.439,0.000
1606697552590947626,5.007,0.686,3.439,0.000
1606697552701328190,5.007,0.687,3.443,0.000
1606697552781248476,5.007,0.685,3.435,0.000
1606697552858925593,5.019,0.903,4.538,0.000
1606697552944525050,5.009,0.715,3.584,0.000
1606697553024535960,5.007,0.690,3.454,0.000
1606697553102457909,5.007,0.688,3.447,0.000
1606697553180006482,5.007,0.685,3.435,0.000
1606697553259323431,5.015,0.791,3.966,0.000
1606697553337995881,5.017,0.809,4.061,0.000
1606697553417132663,5.010,0.730,3.657,0.000
1606697553507473249,5.010,0.730,3.657,0.000
1606697553586383365,5.007,0.687,3.439,0.000
1606697553665173981,5.015,0.769,3.859,0.000
1606697553745554306,5.016,0.820,4.115,0.000
1606697553823608172,5.010,0.721,3.615,0.000
1606697553899679868,5.007,0.687,3.443,0.000
1606697553980025236,5.007,0.685,3.431,0.000
1606697554065262023,5.019,0.902,4.534,0.000
1606697554145462513,5.007,0.686,3.439,0.000
1606697554231233759,5.007,0.686,3.439,0.000
1606697554310515790,5.007,0.685,3.431,0.000
1606697554386993152,5.007,0.684,3.424,0.000
1606697554485242451,5.007,0.685,3.428,0.000
1606697554576708118,5.007,0.698,3.496,0.000
1606697554664649907,5.007,0.686,3.439,0.000
1606697554741698603,5.007,0.684,3.428,0.000
1606697554824689263,5.011,0.746,3.741,0.000
1606697554900162332,5.027,1.000,5.031,0.000
1606697554978714196,5.027,1.000,5.031,0.000
1606697555061415396,5.009,0.704,3.531,0.000
1606697555139099924,5.007,0.684,3.428,0.000
1606697555226274585,5.007,0.683,3.420,0.000
1606697555306064824,5.007,0.683,3.420,0.000
1606697555384624727,5.009,0.713,3.573,0.000
1606697555462554339,5.007,0.685,3.431,0.000
1606697555541936619,5.007,0.683,3.420,0.000
1606697555620113439,5.007,0.682,3.416,0.000
1606697555696687216,5.007,0.682,3.416,0.000
1606697555783832544,5.015,0.817,4.103,0.000
1606697555863267532,5.007,0.685,3.431,0.000
1606697555930287384,5.007,0.683,3.424,0.000
1606697556009267413,5.007,0.685,3.431,0.000
1606697556102015660,5.007,0.683,3.424,0.000
1606697556158923043,5.019,0.913,4.584,0.000
1606697556215252009,5.007,0.699,3.504,0.000
1606697556270780308,5.006,0.685,3.428,0.000
1606697556334749405,5.006,0.684,3.428,0.000
1606697556393505707,5.006,0.684,3.428,0.000
1606697556448577047,5.007,0.688,3.447,0.000
1606697556505033304,5.019,0.913,4.588,0.000
1606697556561805312,5.007,0.689,3.450,0.000
1606697556615176609,5.006,0.683,3.424,0.000
1606697556671934909,5.006,0.683,3.424,0.000
1606697556729539417,5.006,0.684,3.428,0.000
1606697556785040799,5.019,0.908,4.565,0.000
1606697556845098685,5.009,0.707,3.542,0.000
1606697556908131157,5.009,0.692,3.466,0.000
1606697556964536831,5.007,0.687,3.439,0.000
1606697557021020755,5.006,0.684,3.428,0.000
1606697557079956347,5.006,0.684,3.428,0.000
1606697557136558645,5.010,0.738,3.702,0.000
1606697557193096318,5.007,0.684,3.428,0.000
1606697557250051825,5.006,0.681,3.412,0.000
1606697557304775247,5.007,0.682,3.416,0.000
1606697557360852836,5.006,0.681,3.408,0.000
1606697557419720970,5.016,0.859,4.309,0.000
1606697557478993353,5.016,0.859,4.309,0.000
1606697557534924568,5.007,0.683,3.420,0.000
1606697557624583394,5.006,0.681,3.412,0.000
1606697557708787799,5.007,0.680,3.408,0.000
1606697557786778616,5.007,0.686,3.439,0.000
1606697557864448807,5.020,0.921,4.626,0.000
1606697557946663960,5.007,0.693,3.473,0.000
1606697558031191031,5.007,0.681,3.408,0.000
1606697558107126761,5.007,0.680,3.408,0.000
1606697558188911454,5.007,0.680,3.405,0.000
1606697558268543937,5.021,0.928,4.664,0.000
1606697558346252793,5.007,0.701,3.512,0.000
1606697558425378108,5.007,0.681,3.412,0.000
1606697558503894382,5.007,0.680,3.405,0.000
1606697558592755497,5.007,0.679,3.401,0.000
1606697558675538941,5.017,0.866,4.347,0.000
1606697558752931921,5.007,0.685,3.435,0.000
1606697558833852780,5.007,0.684,3.428,0.000
1606697558913926388,5.006,0.681,3.412,0.000
1606697558993375038,5.006,0.682,3.416,0.000
1606697559071332351,5.011,0.772,3.870,0.000
1606697559170073555,5.015,0.822,4.126,0.000
1606697559246263533,5.007,0.685,3.431,0.000
1606697559301519495,5.006,0.680,3.408,0.000
1606697559358833666,5.006,0.680,3.405,0.000
1606697559414496044,5.011,0.727,3.645,0.000
1606697559470980506,5.017,0.878,4.408,0.000
1606697559527356802,5.009,0.712,3.569,0.000
1606697559584086223,5.009,0.712,3.569,0.000
1606697559640589935,5.006,0.681,3.412,0.000
1606697559696517397,5.006,0.681,3.408,0.000
1606697559760942574,5.019,0.901,4.523,0.000
1606697559815699451,5.009,0.706,3.538,0.000
1606697559872247163,5.006,0.682,3.412,0.000
1606697559928003583,5.006,0.680,3.405,0.000
1606697559986913381,5.006,0.681,3.412,0.000
1606697560043217509,5.019,0.882,4.431,0.000
1606697560099326261,5.009,0.714,3.576,0.000
1606697560155667388,5.009,0.714,3.576,0.000
1606697560213035392,5.007,0.687,3.439,0.000
1606697560276557108,5.007,0.697,3.492,0.000
1606697560334732237,5.007,0.680,3.408,0.000
1606697560391553740,5.014,0.799,4.012,0.000
1606697560448657952,5.014,0.799,4.008,0.000
1606697560506800997,5.007,0.689,3.450,0.000
1606697560563673458,5.006,0.679,3.401,0.000
1606697560620181336,5.007,0.678,3.397,0.000
1606697560676709089,5.007,0.689,3.454,0.000
1606697560740606555,5.007,0.689,3.454,0.000
1606697560796203641,5.007,0.682,3.420,0.000
1606697560860697650,5.006,0.680,3.405,0.000
1606697560916770027,5.006,0.678,3.397,0.000
1606697560973882030,5.007,0.678,3.397,0.000
1606697561063816141,5.019,0.910,4.569,0.000
1606697561119910434,5.007,0.689,3.450,0.000
1606697561175872143,5.006,0.680,3.408,0.000
1606697561232137061,5.007,0.678,3.393,0.000
1606697561290245938,5.007,0.677,3.389,0.000
1606697561346886982,5.006,0.678,3.397,0.000
1606697561412179615,5.019,0.894,4.492,0.000
1606697561470083867,5.009,0.703,3.527,0.000
1606697561530986538,5.006,0.681,3.412,0.000
1606697561589165333,5.006,0.680,3.405,0.000
1606697561647347710,5.006,0.680,3.405,0.000
1606697561703935962,5.015,0.838,4.206,0.000
1606697561761251380,5.011,0.752,3.771,0.000
1606697561811950794,5.006,0.684,3.428,0.000
1606697561869484005,5.006,0.680,3.408,0.000
1606697561932202719,5.006,0.680,3.405,0.000
1606697561990044555,5.006,0.678,3.397,0.000
1606697562048438682,5.009,0.726,3.637,0.000
1606697562105246265,5.007,0.688,3.447,0.000
1606697562162151724,5.006,0.681,3.412,0.000
1606697562219561516,5.006,0.683,3.420,0.000
1606697562276804559,5.006,0.679,3.401,0.000
1606697562333395642,5.020,0.849,4.263,0.000
1606697562382342137,5.007,0.686,3.439,0.000
1606697562438404345,5.007,0.686,3.439,0.000
1606697562507138354,5.006,0.680,3.405,0.000
1606697562603354467,5.006,0.680,3.408,0.000
1606697562684783319,5.006,0.680,3.405,0.000
1606697562763765502,5.019,0.882,4.428,0.000
1606697562842891811,5.007,0.693,3.473,0.000
1606697562919517284,5.007,0.677,3.393,0.000
1606697562997466091,5.007,0.679,3.401,0.000
1606697563079546734,5.006,0.677,3.389,0.000
1606697563162076460,5.016,0.863,4.336,0.000
1606697563240588433,5.010,0.733,3.672,0.000
1606697563319019864,5.007,0.677,3.393,0.000
1606697563400886506,5.006,0.676,3.386,0.000
1606697563476933227,5.007,0.677,3.393,0.000
1606697563554563533,5.011,0.749,3.760,0.000
1606697563639768052,5.021,0.926,4.653,0.000
1606697563719621734,5.007,0.678,3.393,0.000
1606697563798312541,5.006,0.676,3.386,0.000
1606697563877909890,5.006,0.677,3.389,0.000
1606697563956362779,5.007,0.685,3.431,0.000
1606697564036418752,5.021,0.920,4.622,0.000
1606697564129197317,5.007,0.680,3.405,0.000
1606697564202949701,5.006,0.679,3.397,0.000
1606697564259601074,5.007,0.677,3.393,0.000
1606697564315588446,5.007,0.682,3.412,0.000
1606697564365395231,5.019,0.900,4.519,0.000
1606697564425432606,5.007,0.690,3.454,0.000
1606697564480298144,5.006,0.678,3.397,0.000
1606697564533931681,5.006,0.678,3.397,0.000
1606697564586509135,5.006,0.680,3.405,0.000
1606697564633866959,5.006,0.676,3.386,0.000
1606697564688125080,5.017,0.895,4.496,0.000
1606697564747009996,5.007,0.689,3.450,0.000
1606697564806983413,5.006,0.682,3.416,0.000
1606697564863913452,5.006,0.678,3.397,0.000
1606697564915525571,5.006,0.677,3.393,0.000
1606697564973562237,5.015,0.832,4.176,0.000
1606697565027919149,5.006,0.681,3.412,0.000
1606697565081011476,5.006,0.681,3.412,0.000
1606697565137006139,5.006,0.681,3.412,0.000
1606697565192909718,5.006,0.681,3.408,0.000
1606697565247120713,5.007,0.688,3.447,0.000
1606697565307748879,5.019,0.895,4.496,0.000
1606697565363365583,5.006,0.680,3.408,0.000
1606697565419611371,5.006,0.678,3.393,0.000
1606697565477395660,5.006,0.678,3.397,0.000
1606697565531529196,5.007,0.680,3.405,0.000
1606697565587831067,5.021,0.928,4.664,0.000
1606697565639030518,5.021,0.928,4.664,0.000
1606697565729870704,5.007,0.681,3.408,0.000
1606697565801791378,5.007,0.676,3.386,0.000
1606697565879318972,5.006,0.675,3.378,0.000
1606697565960941693,5.006,0.676,3.386,0.000
1606697566039558453,5.009,0.708,3.550,0.000
1606697566115569295,5.006,0.677,3.389,0.000
1606697566186114257,5.007,0.676,3.386,0.000
1606697566264615475,5.006,0.675,3.382,0.000
1606697566338712273,5.006,0.675,3.382,0.000
1606697566415734448,5.014,0.816,4.092,0.000
1606697566501762671,5.012,0.787,3.947,0.000
1606697566575456219,5.007,0.680,3.405,0.000
1606697566652349602,5.006,0.679,3.401,0.000
1606697566729907361,5.006,0.674,3.374,0.000
1606697566802432241,5.017,0.883,4.431,0.000
1606697566876259331,5.007,0.681,3.412,0.000
1606697566950021587,5.006,0.676,3.386,0.000
1606697567028725388,5.006,0.677,3.393,0.000
1606697567105918770,5.006,0.677,3.393,0.000
1606697567184335694,5.007,0.682,3.416,0.000
1606697567277465211,5.020,0.908,4.561,0.000
1606697567334403996,5.006,0.680,3.405,0.000
1606697567389122239,5.006,0.677,3.393,0.000
1606697567444683774,5.006,0.678,3.393,0.000
1606697567503484728,5.006,0.678,3.397,0.000
1606697567557620595,5.015,0.790,3.966,0.000
1606697567618469800,5.016,0.815,4.092,0.000
1606697567674199876,5.016,0.815,4.092,0.000
1606697567728355327,5.021,0.873,4.386,0.000
1606697567783380278,5.020,0.842,4.225,0.000
1606697567836404687,5.016,0.805,4.038,0.000
1606697567892539805,5.026,1.228,6.176,0.000
1606697567947341548,5.024,1.695,8.519,0.000
1606697568003606125,5.021,1.797,9.027,0.000
1606697568058353825,5.017,1.827,9.172,0.000
1606697568116165402,5.000,1.846,9.237,0.000
1606697568176390188,5.003,1.668,8.344,0.000
1606697568230637429,5.003,1.668,8.344,0.000
1606697568287369755,5.020,1.416,7.111,0.000
1606697568339982329,5.017,1.740,8.737,0.000
1606697568393747820,5.017,1.746,8.764,0.000
1606697568450099729,5.019,1.749,8.779,0.000
1606697568504195845,5.019,1.732,8.699,0.000
1606697568557004294,5.031,1.002,5.046,0.000
1606697568611369577,5.031,0.998,5.027,0.000
1606697568665341484,5.031,0.997,5.015,0.000
1606697568724645354,5.031,0.994,5.004,0.000
1606697568784704307,5.031,0.994,5.004,0.000
1606697568840672632,5.012,1.455,7.294,0.000
1606697568894102081,5.015,1.380,6.924,0.000
1606697568952512158,5.015,1.380,6.928,0.000
1606697569008558526,5.014,1.383,6.939,0.000
1606697569092230824,5.015,1.383,6.939,0.000
1606697569149349358,5.019,1.804,9.061,0.000
1606697569206895475,5.019,1.805,9.065,0.000
1606697569273543889,5.017,1.802,9.046,0.000
1606697569331047755,5.021,1.801,9.050,0.000
1606697569385920996,5.021,1.806,9.073,0.000
1606697569443341196,5.007,1.699,8.512,0.000
1606697569496979019,5.011,1.590,7.970,0.000
1606697569552822677,5.010,1.509,7.565,0.000
1606697569610896502,5.011,1.568,7.859,0.000
1606697569667390369,5.010,1.509,7.565,0.000
1606697569724809027,5.015,1.658,8.321,0.000
1606697569779295017,5.016,1.722,8.641,0.000
1606697569841476137,5.016,1.729,8.676,0.000
1606697569899781004,5.016,1.730,8.683,0.000
1606697569957781080,5.016,1.729,8.676,0.000
1606697570012218653,5.016,1.728,8.672,0.000
1606697570065953933,4.989,1.814,9.054,0.000
1606697570122915840,4.987,1.883,9.393,0.000
1606697570177093037,4.987,1.889,9.428,0.000
1606697570232710569,4.987,1.889,9.428,0.000
1606697570284992181,4.987,1.896,9.458,0.000
1606697570347755341,4.992,1.880,9.393,0.000
1606697570409829293,5.016,1.737,8.718,0.000
1606697570463778823,5.016,1.737,8.718,0.000
1606697570516697895,5.015,1.728,8.672,0.000
1606697570570675758,5.015,1.721,8.634,0.000
1606697570659279350,5.015,1.721,8.634,0.000
1606697570715417506,4.992,1.948,9.729,0.000
1606697570770203787,4.991,1.941,9.695,0.000
1606697570824818401,4.992,1.945,9.718,0.000
1606697570881013433,4.992,1.959,9.786,0.000
1606697570943733551,5.010,1.768,8.859,0.000
1606697570997445748,5.015,1.730,8.676,0.000
1606697571052531236,5.015,1.730,8.676,0.000
1606697571105529973,5.015,1.729,8.676,0.000
1606697571163306921,5.016,1.739,8.725,0.000
1606697571215305866,5.016,1.736,8.710,0.000
1606697571271548521,4.992,1.946,9.722,0.000
1606697571322862841,4.992,1.963,9.806,0.000
1606697571377913079,4.992,1.966,9.821,0.000
1606697571436979444,4.994,1.974,9.863,0.000
1606697571495936559,4.992,1.965,9.817,0.000
1606697571552065714,4.991,1.953,9.752,0.000
1606697571603500284,4.991,1.953,9.752,0.000
1606697571661176857,4.990,1.943,9.699,0.000
1606697571714159010,4.991,1.952,9.748,0.000
1606697571770219790,4.990,1.943,9.699,0.000
1606697571821444610,4.990,1.949,9.733,0.000
1606697571875729222,4.987,1.934,9.649,0.000
1606697571933863587,4.989,1.929,9.626,0.000
1606697571987940116,4.987,1.927,9.615,0.000
1606697572048988315,4.987,1.931,9.634,0.000
1606697572105178969,4.989,1.942,9.691,0.000
1606697572164820625,4.989,1.942,9.691,0.000
1606697572218841945,4.992,1.988,9.928,0.000
1606697572270623430,4.991,1.989,9.935,0.000
1606697572325958292,4.991,1.984,9.905,0.000
1606697572381726487,4.991,1.984,9.909,0.000
1606697572448778689,4.990,1.969,9.828,0.000
1606697572504767551,4.986,1.933,9.645,0.000
1606697572561678080,4.986,1.936,9.657,0.000
1606697572619106819,4.986,1.936,9.657,0.000
1606697572674702931,4.986,1.929,9.626,0.000
1606697572732746419,4.989,1.963,9.798,0.000
1606697572789349948,4.990,1.979,9.878,0.000
1606697572844376019,4.990,1.985,9.912,0.000
1606697572899943881,4.990,1.996,9.966,0.000
1606697572961229621,4.990,1.998,9.973,0.000
1606697573013838148,4.991,2.003,10.004,0.000
1606697573068225466,4.987,1.966,9.813,0.000
1606697573134092374,4.986,1.966,9.809,0.000
1606697573191350236,4.987,1.967,9.817,0.000
1606697573254760059,4.987,1.970,9.828,0.000
1606697573309788670,4.987,1.976,9.859,0.000
1606697573360850820,4.989,1.982,9.893,0.000
1606697573417147306,4.990,2.011,10.042,0.000
1606697573473169584,4.989,1.996,9.962,0.000
1606697573530374654,4.990,2.003,10.000,0.000
1606697573585203848,4.990,1.996,9.962,0.000
1606697573639580291,4.990,2.000,9.985,0.000
1606697573704007990,4.990,2.005,10.012,0.000
1606697573762435811,4.989,1.995,9.958,0.000
1606697573814730670,4.990,2.005,10.008,0.000
1606697573868642113,4.989,2.009,10.027,0.000
1606697573936252397,4.989,2.009,10.027,0.000
1606697574185486808,4.989,2.003,9.993,0.000
1606697574686618712,4.989,2.003,9.996,0.000
1606697575188394571,4.989,2.011,10.038,0.000
1606697575689560131,4.987,2.014,10.050,0.000
1606697576189533437,4.985,1.984,9.893,0.000
1606697576688008151,4.985,1.967,9.813,0.000
1606697577187890404,4.985,1.986,9.905,0.000
1606697577689774734,4.985,1.987,9.909,0.000
1606697578187127059,4.984,1.983,9.890,0.000
1606697578688577211,4.983,1.980,9.870,0.000
1606697579190225193,4.983,2.008,10.008,0.000
1606697579694812877,4.983,2.019,10.061,0.000
1606697580186638178,4.981,2.011,10.019,0.000
1606697580685902016,4.980,2.014,10.035,0.000
1606697581185495351,4.977,2.021,10.065,0.000
1606697581688354055,4.976,2.024,10.077,0.000
1606697582186822003,4.975,2.029,10.099,0.000
1606697582688212279,4.974,2.028,10.092,0.000
1606697583189567926,4.971,2.022,10.057,0.000
1606697583689352857,4.970,2.023,10.061,0.000
1606697584189028909,4.967,2.031,10.096,0.000
1606697584689272871,4.966,2.034,10.111,0.000
1606697585196088206,4.965,2.026,10.065,0.000
1606697585696833408,4.965,2.021,10.035,0.000
1606697586189136729,4.963,2.036,10.111,0.000
1606697586686434086,4.961,2.037,10.115,0.000
1606697587189080273,4.961,2.019,10.019,0.000
1606697587689424245,4.960,2.035,10.099,0.000
1606697588188452421,4.960,2.039,10.119,0.000
1606697588689796424,4.960,2.039,10.115,0.000
1606697589187609381,4.959,2.023,10.038,0.000
1606697589690810541,4.959,2.026,10.054,0.000
1606697590191528446,4.959,2.040,10.122,0.000
1606697590688281510,4.959,2.035,10.096,0.000
1606697591196317947,4.959,2.038,10.111,0.000
1606697591690051834,4.960,2.043,10.138,0.000
1606697592189550135,4.957,2.043,10.130,0.000
1606697592688749429,4.959,2.031,10.077,0.000
1606697593188085969,4.957,2.045,10.141,0.000
1606697593687761502,4.957,2.037,10.103,0.000
1606697594190516782,4.959,1.999,9.916,0.000
1606697594690723804,4.957,2.036,10.099,0.000
1606697595189977573,4.959,2.055,10.195,0.000
1606697595686218836,4.956,2.045,10.141,0.000
1606697596188967678,4.956,2.028,10.057,0.000
1606697596689226763,4.956,2.049,10.161,0.000
1606697597198701761,4.956,2.051,10.172,0.000
1606697597689116044,4.956,2.053,10.183,0.000
1606697598188016781,4.956,2.033,10.080,0.000
1606697598689702179,4.956,2.050,10.164,0.000
1606697599187522031,4.956,2.052,10.176,0.000
1606697599690284960,4.956,2.042,10.126,0.000
1606697600187989052,4.956,2.045,10.141,0.000
1606697600686503471,4.956,2.046,10.145,0.000
1606697601188917843,4.956,2.055,10.187,0.000
1606697601686164294,4.956,2.041,10.122,0.000
1606697602189189073,4.957,2.044,10.138,0.000
1606697602692177553,4.956,2.052,10.172,0.000
1606697603195368739,4.956,2.047,10.153,0.000
1606697603689511960,4.956,2.051,10.168,0.000
1606697604186145261,4.956,2.057,10.199,0.000
1606697604686059180,4.956,2.046,10.145,0.000
1606697605190500594,4.956,2.040,10.115,0.000
1606697605686616670,4.956,2.055,10.191,0.000
1606697606186275867,4.956,2.052,10.176,0.000
1606697606688869806,4.956,2.045,10.141,0.000
1606697607189490200,4.956,2.048,10.153,0.000
1606697607689259130,4.956,2.058,10.202,0.000
1606697608185737057,4.956,2.059,10.210,0.000
1606697608700223890,4.957,2.034,10.092,0.000
1606697609190128224,4.956,2.045,10.141,0.000
1606697609686590051,4.956,2.059,10.210,0.000
1606697610186959207,4.956,2.061,10.218,0.000
1606697610691176521,4.956,2.046,10.145,0.000
1606697611190612250,4.956,2.054,10.183,0.000
1606697611688396348,4.956,2.060,10.214,0.000
1606697612186283400,4.956,2.061,10.218,0.000
1606697612688653278,4.956,2.058,10.206,0.000
1606697613189681653,4.956,2.047,10.153,0.000
1606697613689418480,4.956,2.062,10.222,0.000
1606697614191121053,4.956,2.051,10.172,0.000
1606697614696034118,4.956,2.059,10.210,0.000
1606697615186524893,4.957,2.060,10.214,0.000
1606697615688729490,4.955,2.063,10.233,0.000
1606697616188907627,4.955,2.062,10.222,0.000
1606697616691126589,4.955,2.065,10.241,0.000
1606697617188847091,4.956,2.058,10.206,0.000
1606697617688656753,4.956,2.055,10.187,0.000
1606697618187205412,4.955,2.067,10.248,0.000
1606697618688372229,4.955,2.070,10.260,0.000
1606697619185793754,4.955,2.057,10.199,0.000
1606697619688667894,4.956,2.057,10.199,0.000
1606697620189385323,4.955,2.069,10.256,0.000
1606697620699840825,4.956,2.067,10.248,0.000
1606697621189398916,4.955,2.070,10.264,0.000
1606697621689331871,4.956,2.058,10.202,0.000
1606697622189080281,4.955,2.068,10.252,0.000
1606697622688073768,4.956,2.069,10.256,0.000
1606697623189309042,4.956,2.060,10.214,0.000
1606697623688881394,4.956,2.057,10.202,0.000
1606697624188650992,4.956,2.066,10.244,0.000
1606697624687387210,4.956,2.070,10.264,0.000
1606697625188037673,4.956,2.066,10.244,0.000
1606697625688335171,4.957,2.058,10.206,0.000
1606697626192329747,4.956,2.069,10.260,0.000
1606697626684607032,4.956,2.058,10.206,0.000
1606697626936028755,4.956,2.069,10.260,0.000
1606697627439682316,4.956,2.070,10.264,0.000
1606697627937043421,4.956,2.060,10.214,0.000
1606697628184864680,4.956,2.061,10.222,0.000
1606697628688038063,4.956,2.069,10.260,0.000
1606697629188145862,4.956,2.071,10.271,0.000
1606697629690659778,4.956,2.067,10.252,0.000
1606697630187517944,4.957,2.059,10.214,0.000
1606697630687389310,4.955,2.073,10.279,0.000
1606697631187093589,4.956,2.073,10.279,0.000
1606697631688782778,4.959,2.069,10.264,0.000
1606697631937148436,4.956,2.059,10.210,0.000
1606697632407854597,4.965,1.979,9.825,0.000
