timestamp	VIRTUAL_SCALING	CPU0_F	CPU1_F	CPU2_F	CPU3_F	CPU4_F	CPU5_F	CPU6_F	CPU7_F	GPU_FREQ	CPU_GOVERNOR	EMC_F	TEMP0
1606697420703526461	1	1400	1400	1400	1400	1800	1800	1800	1800	600	performance	-	64
1606697420760739712 	0	1400	1400	1400	1400	1800	1800	1800	1800	600	performance	-	64
1606697422347783269	1	1400	1400	1400	1400	1500	1500	1500	1500	600	ondemand	-	61
1606697422409062993 	0	1400	1400	1400	1400	1800	1800	1800	1800	600	ondemand	-	62
1606697424009255450	1	1400	1400	1400	1400	1700	1700	1700	1700	600	ondemand	-	60
1606697424079748794 	0	1400	1400	1400	1400	1400	1400	1400	1400	600	ondemand	-	60
1606697425702672013	1	1400	1400	1400	1400	1800	1800	1800	1800	600	ondemand	-	59
1606697425779090421 	0	1400	1400	1400	1400	1100	1100	1100	1100	600	ondemand	-	60
1606697427401769519	1	1400	1400	1400	1400	1800	1800	1800	1800	600	ondemand	-	61
1606697427469403594 	0	1400	1400	1400	1400	1500	1500	1500	1500	600	ondemand	-	60
1606697429099663730	1	1400	1400	1400	1400	1800	1800	1800	1800	600	ondemand	-	59
1606697429164701082 	0	1400	1400	1400	1400	1700	1700	1700	1700	600	ondemand	-	59
1606697430799234986	1	1400	1400	1400	1400	1800	1800	1800	1800	600	ondemand	-	58
1606697430864200752 	0	1400	1400	1400	1400	1800	1600	1600	1600	600	ondemand	-	59
1606697432499521577	1	1400	1400	1400	1400	1800	1800	1800	1800	600	ondemand	-	57
1606697432562470874 	0	1400	1400	1400	1400	1800	1800	1800	1800	600	ondemand	-	59
1606697434200077964	1	1400	1400	1400	1400	1800	1800	1800	1800	600	ondemand	-	57
1606697434269217615 	0	1400	1400	1400	1400	1400	1400	1400	1400	600	ondemand	-	58
1606697435899829181	1	1400	1400	1400	1400	1800	1800	1800	1800	600	ondemand	-	57
1606697435962682805 	0	1400	1400	1400	1400	1800	1800	1800	1800	600	ondemand	-	58
1606697437599846105	1	1400	1400	1400	1400	1800	1800	1800	1800	600	ondemand	-	57
1606697437665680987 	0	1400	1400	1400	1400	1600	1600	1600	1600	600	ondemand	-	57
1606697439300016075	1	1400	1400	1400	1400	1800	1800	1800	1800	600	ondemand	-	56
1606697439362739233 	0	1400	1400	1400	1400	1800	1800	1800	1800	600	ondemand	-	57
1606697440999204835	1	1400	1400	1400	1400	1800	1800	1800	1800	600	ondemand	-	56
1606697441070739690 	0	1400	1400	1400	1400	1800	1200	1200	1200	600	ondemand	-	56
1606697442700883476	1	1400	1400	1400	1400	1800	1800	1800	1800	600	ondemand	-	55
1606697442773732334 	0	1400	1400	1400	1400	1200	1200	1200	1200	600	ondemand	-	55
1606697444401347367	1	1400	1400	1400	1400	1800	1800	1800	1800	600	ondemand	-	55
1606697444470744083 	0	1400	1400	1400	1400	1400	1400	1400	1400	600	ondemand	-	55
1606697446100927384	1	1400	1400	1400	1400	1800	1800	1800	1800	600	ondemand	-	55
1606697446169131341 	0	1400	1400	1400	1400	1500	1500	1500	1500	600	ondemand	-	55
1606697447801036068	1	1400	1400	1400	1400	1800	1800	1800	1800	600	ondemand	-	54
1606697447870127110 	0	1400	1400	1400	1400	1400	1400	1400	1400	600	ondemand	-	54
1606697449500708503	1	1400	1400	1400	1400	1800	1800	1800	1800	600	ondemand	-	54
1606697449564651523 	0	1400	1400	1400	1400	1700	1700	1700	1700	600	ondemand	-	55
1606697451201390072	1	1400	1400	1400	1400	1700	1700	1700	1700	600	ondemand	-	55
1606697451278391217 	0	1400	1400	1400	1400	1100	1100	1100	1100	600	ondemand	-	54
1606697452901971351	1	1400	1400	1400	1400	1800	1800	1800	1800	600	ondemand	-	55
1606697452978985036 	0	1400	1400	1400	1400	1100	1100	1100	1100	600	ondemand	-	54
1606697454602206630	1	1400	1400	1400	1400	1800	1800	1800	1800	600	ondemand	-	53
1606697454667057477 	0	1400	1400	1400	1400	1600	1600	1600	1600	600	ondemand	-	54
1606697456299935281	1	1400	1400	1400	1400	1800	1800	1800	1800	600	ondemand	-	52
1606697456368739221 	0	1400	1400	1400	1400	1800	1400	1400	1400	600	ondemand	-	53
1606697458000078488	1	1400	1400	1400	1400	1800	1800	1800	1800	600	ondemand	-	52
1606697458069114301 	0	1400	1400	1400	1400	1400	1400	1400	1400	600	ondemand	-	53
1606697459699876651	1	1400	1400	1400	1400	1800	1800	1800	1800	600	ondemand	-	52
1606697459762621524 	0	1400	1400	1400	1400	1800	1800	1800	1800	600	ondemand	-	53
1606697461399009360	1	1400	1400	1400	1400	1800	1800	1800	1800	600	ondemand	-	52
1606697461467360331 	0	1400	1400	1400	1400	1800	1400	1400	1400	600	ondemand	-	53
1606697463100017624	1	1400	1400	1400	1400	1800	1800	1800	1800	600	ondemand	-	51
1606697463162573573 	0	1400	1400	1400	1400	1800	1800	1800	1800	600	ondemand	-	52
1606697464799094758	1	1400	1400	1400	1400	1800	1800	1800	1800	600	ondemand	-	52
1606697464867344765 	0	1400	1400	1400	1400	1800	1400	1400	1400	600	ondemand	-	53
1606697466499952861	1	1400	1400	1400	1400	1800	1800	1800	1800	600	ondemand	-	51
1606697466564172602 	0	1400	1400	1400	1400	1800	1600	1600	1600	600	ondemand	-	52
1606697468199315093	1	1400	1400	1400	1400	1800	1800	1800	1800	600	ondemand	-	51
1606697468266889840 	0	1400	1400	1400	1400	1800	1400	1400	1400	600	ondemand	-	52
1606697469899980542	1	1400	1400	1400	1400	1800	1800	1800	1800	600	ondemand	-	50
1606697469964859780 	0	1400	1400	1400	1400	1700	1700	1700	1700	600	ondemand	-	51
1606697471599870658	1	1400	1400	1400	1400	1800	1800	1800	1800	600	ondemand	-	50
1606697471667741485 	0	1400	1400	1400	1400	1800	1400	1400	1400	600	ondemand	-	51
1606697473264854473	1	1400	1400	1400	1400	1200	1800	1800	1800	600	ondemand	-	52
1606697473326359569 	0	1400	1400	1400	1400	1800	1800	1800	1800	600	ondemand	-	51
1606697474963878522	1	1400	1400	1400	1400	600	600	1600	1600	600	ondemand	-	49
1606697475029617544 	0	1400	1400	1400	1400	1600	1600	1600	1600	600	ondemand	-	50
1606697476670588553	1	1400	1400	1400	1400	1800	1800	1800	1800	600	ondemand	-	50
1606697476733592857 	0	1400	1400	1400	1400	1800	1800	1800	1800	600	ondemand	-	51
1606697478392757219	1	1400	1400	1400	1400	1800	1800	1800	1800	600	ondemand	-	49
1606697478460577949 	0	1400	1400	1400	1400	1800	1800	1300	1300	600	ondemand	-	50
1606697480042709612	1	1400	1400	1400	1400	1800	1800	1800	1800	600	ondemand	-	53
1606697480112114426 	0	1400	1400	1400	1400	1400	1400	1400	1400	600	ondemand	-	52
1606697481705360962	1	1400	1400	1400	1400	1800	1800	1800	1800	600	ondemand	-	50
1606697481772452352 	0	1400	1400	1400	1400	1400	1400	1400	1400	600	ondemand	-	50
1606697483398745116	1	1400	1400	1400	1400	1800	1800	1800	1800	600	ondemand	-	49
1606697483466217836 	0	1400	1400	1400	1400	1800	1400	1400	1400	600	ondemand	-	50
1606697485098102004	1	1400	1400	1400	1400	1800	1800	1800	1800	600	ondemand	-	49
1606697485164693135 	0	1400	1400	1400	1400	1800	1400	1400	1400	600	ondemand	-	50
1606697486797999773	1	1400	1400	1400	1400	1800	1800	1800	1800	600	ondemand	-	49
1606697486864686153 	0	1400	1400	1400	1400	1800	1400	1400	1400	600	ondemand	-	50
1606697488497946427	1	1400	1400	1400	1400	1800	1800	1800	1800	600	ondemand	-	48
1606697488564756095 	0	1400	1400	1400	1400	1800	1400	1400	1400	600	ondemand	-	49
1606697490197954966	1	1400	1400	1400	1400	1800	1800	1800	1800	600	ondemand	-	50
1606697490270882562 	0	1400	1400	1400	1400	1800	1100	1100	1100	600	ondemand	-	49
1606697491898653724	1	1400	1400	1400	1400	1800	1800	1800	1800	600	ondemand	-	51
1606697491964750385 	0	1400	1400	1400	1400	1800	1400	1400	1400	600	ondemand	-	49
1606697493597624900	1	1400	1400	1400	1400	1800	1800	1800	1800	600	ondemand	-	48
1606697493664872561 	0	1400	1400	1400	1400	1800	1400	1400	1400	600	ondemand	-	49
1606697495301492725	1	1400	1400	1400	1400	1800	1800	1800	1800	600	ondemand	-	48
1606697495362252701 	0	1400	1400	1400	1400	1800	1800	1800	1800	600	ondemand	-	49
1606697496997336127	1	1400	1400	1400	1400	1800	1800	1800	1800	600	ondemand	-	48
1606697497064377322 	0	1400	1400	1400	1400	1800	1400	1400	1400	600	ondemand	-	49
1606697498697954919	1	1400	1400	1400	1400	1800	1800	1800	1800	600	ondemand	-	48
1606697498766731033 	0	1400	1400	1400	1400	1800	1300	1300	1300	600	ondemand	-	49
1606697500356893048	1	1400	1400	1400	1400	1500	1500	1500	1800	600	ondemand	-	47
1606697500418556892 	0	1400	1400	1400	1400	1800	1800	1800	1800	600	ondemand	-	49
1606697502090641188	1	1400	1400	1400	1400	1800	1800	1800	1800	600	ondemand	-	49
1606697502157657292 	0	1400	1400	1400	1400	1800	1800	1300	1300	600	ondemand	-	49
1606697503800071240	1	1400	1400	1400	1400	1800	1800	1800	1800	600	ondemand	-	47
1606697503868738846 	0	1400	1400	1400	1400	1400	1400	1400	1400	600	ondemand	-	48
1606697505501981079	1	1400	1400	1400	1400	1800	1800	1800	1800	600	ondemand	-	50
1606697505571644349 	0	1400	1400	1400	1400	1400	1400	1400	1400	600	ondemand	-	49
1606697507201936467	1	1400	1400	1400	1400	1800	1800	1800	1800	600	ondemand	-	47
1606697507271776151 	0	1400	1400	1400	1400	1400	1400	1400	1400	600	ondemand	-	49
1606697508903809996	1	1400	1400	1400	1400	1800	1800	1800	1800	600	ondemand	-	48
1606697508977904854 	0	1400	1400	1400	1400	1200	1200	1200	1200	600	ondemand	-	48
1606697510603806780	1	1400	1400	1400	1400	1800	1800	1800	1800	600	ondemand	-	47
1606697510673493625 	0	1400	1400	1400	1400	1400	1400	1400	1400	600	ondemand	-	48
1606697512300653114	1	1400	1400	1400	1400	1800	1800	1800	1800	600	ondemand	-	47
1606697512376263008 	0	1400	1400	1400	1400	1100	1100	1100	1100	600	ondemand	-	48
1606697514003626265	1	1400	1400	1400	1400	1800	1800	1800	1800	600	ondemand	-	47
1606697514073582854 	0	1400	1400	1400	1400	1400	1400	1400	1400	600	ondemand	-	47
1606697515703158041	1	1400	1400	1400	1400	900	900	900	900	600	ondemand	-	46
1606697515780408350 	0	1400	1400	1400	1400	1600	1600	1600	1600	600	ondemand	-	47
1606697517406049131	1	1400	1400	1400	1400	1700	1700	1700	1700	600	ondemand	-	48
1606697517480842640 	0	1400	1400	1400	1400	1200	1200	1200	1200	600	ondemand	-	47
1606697519101516347	1	1400	1400	1400	1400	1800	1800	1800	1800	600	ondemand	-	47
1606697519170474217 	0	1400	1400	1400	1400	1400	1400	1400	1400	600	ondemand	-	48
1606697520798645534	1	1400	1400	1400	1400	1800	1800	1800	1800	600	ondemand	-	49
1606697520860213390 	0	1400	1400	1400	1400	1800	1800	1800	1800	600	ondemand	-	49
1606697522500235868	1	1400	1400	1400	1400	1800	1800	1800	1800	600	ondemand	-	46
1606697522570665777 	0	1400	1400	1400	1400	1600	1600	1600	1600	600	ondemand	-	47
1606697524200243006	1	1400	1400	1400	1400	1800	1800	1800	1800	600	ondemand	-	47
1606697524269878160 	0	1400	1400	1400	1400	1400	1400	1400	1400	600	ondemand	-	47
1606697525900550033	1	1400	1400	1400	1400	1800	1800	1800	1800	600	ondemand	-	46
1606697525963180049 	0	1400	1400	1400	1400	1800	1800	1800	1800	600	ondemand	-	47
1606697527600158820	1	1400	1400	1400	1400	1800	1800	1800	1800	600	ondemand	-	46
1606697527669514344 	0	1400	1400	1400	1400	1400	1400	1400	1400	600	ondemand	-	47
1606697529300619166	1	1400	1400	1400	1400	1800	1800	1800	1800	600	ondemand	-	46
1606697529373517026 	0	1400	1400	1400	1400	1200	1200	1200	1200	600	ondemand	-	47
1606697531002252614	1	1400	1400	1400	1400	1800	1800	1800	1800	600	ondemand	-	46
1606697531066546374 	0	1400	1400	1400	1400	1700	1700	1700	1700	600	ondemand	-	47
1606697532700978776	1	1400	1400	1400	1400	1800	1800	1800	1800	600	ondemand	-	46
1606697532770581750 	0	1400	1400	1400	1400	1400	1400	1400	1400	600	ondemand	-	47
1606697534403062168	1	1400	1400	1400	1400	1800	1800	1800	1800	600	ondemand	-	46
1606697534472642847 	0	1400	1400	1400	1400	1400	1400	1400	1400	600	ondemand	-	47
1606697536100562570	1	1400	1400	1400	1400	1800	1800	1800	1800	600	ondemand	-	48
1606697536173684168 	0	1400	1400	1400	1400	1200	1200	1200	1200	600	ondemand	-	47
1606697537803634784	1	1400	1400	1400	1400	1800	1800	1800	1800	600	ondemand	-	46
1606697537872415125 	0	1400	1400	1400	1400	1400	1400	1400	1400	600	ondemand	-	46
1606697539507967474	1	1400	1400	1400	1400	1800	1800	1800	1800	600	ondemand	-	47
1606697539581218066 	0	1400	1400	1400	1400	1600	1600	1600	1600	600	ondemand	-	49
1606697541264902661	1	1400	1400	1400	1400	800	800	800	1500	600	ondemand	-	47
1606697541401902870 	0	1400	1400	1400	1400	1500	1500	1500	1200	600	ondemand	-	49
1606697543102034081	1	1400	1400	1400	1400	1800	1800	1800	1800	600	ondemand	-	63
1606697543167137532 	0	1000	1000	1000	1000	1800	1800	1800	1800	600	ondemand	-	61
1606697544854987907	1	1000	1000	1000	1400	1800	1400	1400	1400	600	ondemand	-	67
1606697544931701412 	0	1400	1400	1400	1400	1400	1400	1400	1400	600	ondemand	-	63
1606697546570888621	1	1300	1300	1300	1300	1600	1600	1600	1600	600	ondemand	-	59
1606697546661365179 	0	1300	1300	1300	1300	1600	1600	1600	1600	600	ondemand	-	60
1606697548499712660	1	1200	1200	1200	1200	1800	1800	1800	1800	600	ondemand	-	68
1606697548774664451 	0	1200	1200	1200	1200	1800	1800	1800	1800	600	ondemand	-	69
1606697550410932555	1	1300	1300	1300	1300	1700	1700	1700	1700	600	ondemand	-	68
1606697550486508298 	0	1300	1300	1300	1300	1700	1700	1700	1700	600	ondemand	-	69
1606697552330794291	1	1300	1300	1300	1300	1700	1700	1700	1700	600	ondemand	-	71
1606697552620758821 	0	1300	1300	1300	1300	1700	1700	1700	1700	600	ondemand	-	71
1606697554512247309	1	1300	1300	1300	1300	1800	1800	1800	1800	600	ondemand	-	75
1606697554822170302 	0	1300	1300	1300	1300	1700	1700	1700	1700	600	ondemand	-	74
1606697556655627894	1	1400	1400	1400	1400	1800	1800	1800	1800	600	ondemand	-	76
1606697556910752492 	0	1400	1400	1400	1400	1800	1800	1800	1800	600	ondemand	-	76
1606697558802166087	1	1300	1300	1300	1300	1700	1700	1700	1700	600	ondemand	-	75
1606697559102223917 	0	1300	1300	1300	1300	1700	1700	1700	1700	600	ondemand	-	75
1606697560960656561	1	1400	1400	1400	1400	1800	1800	1800	1800	600	ondemand	-	78
1606697561235814939 	0	1400	1300	1300	1300	1800	1800	1800	1800	600	ondemand	-	78
1606697563087149823	1	1300	1300	1300	1300	1800	1800	1800	1800	600	ondemand	-	79
1606697563389180497 	0	1300	1300	1300	1300	1800	1800	1800	1800	600	ondemand	-	79
1606697565302196667	1	1400	1400	1400	1400	1800	1800	1800	1800	600	ondemand	-	80
1606697565605633996 	0	1400	1400	1400	1400	1800	1800	1800	1800	600	ondemand	-	80
1606697567475844585	1	1300	1300	1400	1400	1800	1800	1800	1800	600	ondemand	-	80
1606697567775695982 	0	1400	1400	1400	1400	1800	1800	1800	1800	600	ondemand	-	81
1606697569630640847	1	1300	1300	1300	1300	1800	1800	1800	1800	600	ondemand	-	81
1606697569930697022 	0	1300	1300	1300	1300	1800	1800	1800	1800	600	ondemand	-	81
1606697571800711932	1	1400	1400	1400	1400	1800	1800	1800	1800	600	ondemand	-	81
1606697572105715344 	0	1400	1400	1400	1400	1800	1800	1800	1800	600	ondemand	-	82
1606697573980665711	1	1400	1400	1400	1400	1800	1800	1800	1800	600	ondemand	-	82
1606697574275635976 	0	1400	1400	1400	1400	1800	1800	1800	1800	600	ondemand	-	82
1606697576155675130	1	1400	1400	1300	1300	1800	1800	1800	1800	600	ondemand	-	82
1606697576450775008 	0	1300	1300	1300	1300	1800	1800	1800	1800	600	ondemand	-	82
1606697578355619499	1	1300	1300	1300	1300	1800	1800	1800	1800	600	ondemand	-	82
1606697578675614831 	0	1300	1300	1300	1300	1800	1800	1800	1800	600	ondemand	-	83
1606697580555668388	1	1400	1400	1400	1400	1800	1800	1800	1800	600	ondemand	-	83
1606697580875651623 	0	1400	1400	1400	1400	1800	1800	1800	1800	600	ondemand	-	83
1606697582755700549	1	1400	1400	1400	1400	1800	1800	1800	1800	600	ondemand	-	83
1606697583050663970 	0	1400	1400	1400	1400	1800	1800	1800	1800	600	ondemand	-	83
1606697584930704809	1	1400	1400	1400	1400	1800	1800	1800	1800	600	ondemand	-	83
1606697585215660836 	0	1400	1400	1400	1400	1800	1800	1800	1800	600	ondemand	-	83
1606697587085728878	1	1400	1400	1400	1400	1800	1800	1800	1800	600	ondemand	-	83
1606697587335833052 	0	1400	1400	1400	1400	1800	1800	1800	1800	600	ondemand	-	83
1606697589180717088	1	1400	1400	1400	1400	1800	1800	1800	1800	600	ondemand	-	84
1606697589450662629 	0	1400	1400	1400	1400	1800	1800	1800	1800	600	ondemand	-	84
1606697591325621170	1	1400	1400	1400	1400	1800	1800	1800	1800	600	ondemand	-	84
1606697591610647284 	0	1400	1400	1400	1400	1800	1800	1800	1800	600	ondemand	-	84
1606697593495663447	1	1400	1400	1400	1400	1800	1800	1800	1800	600	ondemand	-	84
1606697593780708342 	0	1400	1400	1400	1400	1800	1800	1800	1800	600	ondemand	-	84
1606697595635717459	1	1400	1400	1400	1400	1800	1800	1800	1800	600	ondemand	-	84
1606697595906143174 	0	1400	1400	1400	1400	1800	1800	1800	1800	600	ondemand	-	84
1606697597780700959	1	1400	1400	1400	1400	1800	1800	1800	1800	600	ondemand	-	85
1606697598075645702 	0	1400	1400	1400	1400	1800	1800	1800	1800	600	ondemand	-	85
1606697599955649111	1	1400	1400	1400	1400	1800	1800	1800	1800	600	ondemand	-	85
1606697600250679297 	0	1400	1400	1400	1400	1800	1800	1800	1800	600	ondemand	-	85
1606697602105691583	1	1400	1400	1400	1400	1800	1800	1800	1800	600	ondemand	-	85
1606697602380645591 	0	1400	1400	1400	1400	1800	1800	1800	1800	600	ondemand	-	85
1606697604255669208	1	1400	1400	1400	1400	1800	1800	1800	1800	600	ondemand	-	85
1606697604535726204 	0	1400	1400	1400	1400	1800	1800	1800	1800	600	ondemand	-	85
1606697606380720869	1	1400	1400	1400	1400	1800	1800	1800	1800	600	ondemand	-	85
1606697606655712354 	0	1400	1400	1400	1400	1800	1800	1800	1800	600	ondemand	-	85
1606697608565617422	1	1400	1400	1400	1400	1800	1800	1800	1800	600	ondemand	-	86
1606697608830631441 	0	1400	1400	1400	1400	1800	1800	1800	1800	600	ondemand	-	85
1606697610660673363	1	1400	1400	1400	1400	1800	1800	1800	1800	600	ondemand	-	86
1606697610915667291 	0	1400	1400	1400	1400	1800	1800	1800	1800	600	ondemand	-	86
1606697612730587848	1	1400	1400	1400	1400	1800	1800	1800	1800	600	ondemand	-	86
1606697612955594900 	0	1400	1400	1400	1400	1800	1800	1800	1800	600	ondemand	-	86
1606697614795656331	1	1400	1400	1400	1400	1800	1800	1800	1800	600	ondemand	-	86
1606697615055754527 	0	1400	1400	1400	1400	1800	1800	1800	1800	600	ondemand	-	86
1606697616900633546	1	1400	1400	1400	1400	1800	1800	1800	1800	600	ondemand	-	86
1606697617180750512 	0	1400	1400	1400	1400	1800	1800	1800	1800	600	ondemand	-	86
1606697619055712231	1	1400	1400	1400	1400	1800	1800	1800	1800	600	ondemand	-	86
1606697619330663436 	0	1400	1400	1400	1400	1800	1800	1800	1800	600	ondemand	-	86
1606697621185641001	1	1400	1400	1400	1400	1800	1800	1800	1800	600	ondemand	-	86
1606697621480633893 	0	1400	1400	1400	1400	1800	1800	1800	1800	600	ondemand	-	86
1606697623335691295	1	1400	1400	1400	1400	1800	1800	1800	1800	600	ondemand	-	86
1606697623580652786 	0	1400	1400	1400	1400	1800	1800	1800	1800	600	ondemand	-	86
1606697625450662477	1	1400	1400	1400	1400	1800	1800	1800	1800	600	ondemand	-	86
1606697625750724218 	0	1400	1400	1400	1400	1800	1800	1800	1800	600	ondemand	-	86
1606697627605628254	1	1400	1400	1400	1400	1800	1800	1800	1800	600	ondemand	-	87
1606697627880620332 	0	1400	1400	1400	1400	1800	1800	1800	1800	600	ondemand	-	87
1606697629720636633	1	1400	1400	1400	1400	1800	1800	1800	1800	600	ondemand	-	86
1606697630050650329 	0	1400	1400	1400	1400	1800	1800	1800	1800	600	ondemand	-	87
1606697631930711941	1	1400	1400	1400	1400	1800	1800	1800	1800	600	ondemand	-	87
1606697632235715805 	0	1400	1400	1400	1400	1800	1800	1800	1800	600	ondemand	-	87
1606697633826183596	1	1400	1400	1400	1400	1800	1800	1800	1800	600	performance	-	73
1606697633886247010 	0	1400	1400	1400	1400	1800	1800	1800	1800	600	performance	-	73
1606697635462432343	1	1400	1400	1400	1400	1800	1800	1800	1800	600	performance	-	70
1606697635522304713 	0	1400	1400	1400	1400	1800	1800	1800	1800	600	performance	-	70
1606697637098443458	1	1400	1400	1400	1400	1800	1800	1800	1800	600	performance	-	68
1606697637158849950 	0	1400	1400	1400	1400	1800	1800	1800	1800	600	performance	-	69
1606697638771814987	1	1400	1400	1400	1400	1800	1800	1800	1800	600	performance	-	67
1606697638833320810 	0	1400	1400	1400	1400	1800	1800	1800	1800	600	performance	-	67
1606697640410850742	1	1400	1400	1400	1400	1800	1800	1800	1800	600	performance	-	66
1606697640471055189 	0	1400	1400	1400	1400	1800	1800	1800	1800	600	performance	-	66
1606697642048144200	1	1400	1400	1400	1400	1800	1800	1800	1800	600	performance	-	66
1606697642108220103 	0	1400	1400	1400	1400	1800	1800	1800	1800	600	performance	-	66
1606697643685228519	1	1400	1400	1400	1400	1800	1800	1800	1800	600	performance	-	65
1606697643744940922 	0	1400	1400	1400	1400	1800	1800	1800	1800	600	performance	-	65
1606697645322826997	1	1400	1400	1400	1400	1800	1800	1800	1800	600	performance	-	65
1606697645384734604 	0	1400	1400	1400	1400	1800	1800	1800	1800	600	performance	-	65
1606697646961064092	1	1400	1400	1400	1400	1800	1800	1800	1800	600	performance	-	64
1606697647024407320 	0	1400	1400	1400	1400	1800	1800	1800	1800	600	performance	-	64
1606697648600848339	1	1400	1400	1400	1400	1800	1800	1800	1800	600	performance	-	64
1606697648660802319 	0	1400	1400	1400	1400	1800	1800	1800	1800	600	performance	-	64
1606697650236862875	1	1400	1400	1400	1400	1800	1800	1800	1800	600	performance	-	64
1606697650296619770 	0	1400	1400	1400	1400	1800	1800	1800	1800	600	performance	-	64
