TimeStamp,Total Power,CPU Power,GPU Power
1592836160934505,2.287,1.067,0.152
1592836161436233,3.506,1.372,0.152
1592836161937963,3.961,1.676,0.152
1592836162439639,4.076,1.753,0.152
1592836162941416,4.152,1.753,0.152
1592836163443166,4.152,1.753,0.152
1592836163944713,4.152,1.676,0.152
1592836164446126,4.152,1.753,0.152
1592836164947752,4.152,1.753,0.152
1592836165449452,4.152,1.753,0.152
1592836165950992,4.152,1.676,0.152
1592836166452454,4.152,1.676,0.152
1592836166953910,4.152,1.753,0.152
1592836167455297,4.152,1.753,0.152
1592836167956724,4.152,1.753,0.152
1592836168458206,4.152,1.753,0.152
1592836168959901,4.152,1.676,0.152
1592836169461636,4.152,1.753,0.152
1592836169963318,4.152,1.753,0.152
1592836170465009,4.19,1.753,0.152
1592836170966496,4.152,1.753,0.152
1592836171467984,4.152,1.676,0.152
1592836171969510,4.152,1.753,0.152
1592836172470935,4.152,1.753,0.152
1592836172972372,4.152,1.753,0.152
1592836173473816,4.152,1.753,0.152
1592836173975561,4.19,1.753,0.152
1592836174477171,4.152,1.753,0.152
1592836174978640,4.152,1.753,0.152
1592836175480094,4.152,1.753,0.152
1592836175981617,4.152,1.753,0.152
1592836176483341,4.19,1.753,0.152
1592836176985115,4.19,1.753,0.152
1592836177486605,4.152,1.753,0.152
1592836177988063,4.152,1.753,0.152
1592836178489576,4.152,1.753,0.152
1592836178991010,4.152,1.753,0.152
1592836179494980,4.19,1.753,0.152
1592836179996477,4.152,1.753,0.152
1592836180497966,4.152,1.676,0.152
1592836180999420,4.152,1.753,0.152
1592836181501050,4.152,1.753,0.152
1592836182002443,4.152,1.753,0.152
1592836182503859,4.19,1.753,0.152
1592836183005621,4.152,1.676,0.152
1592836183507098,4.152,1.676,0.152
1592836184008564,4.152,1.753,0.152
1592836184512253,4.152,1.753,0.152
1592836185013960,4.19,1.753,0.152
1592836185515680,4.152,1.676,0.152
1592836186017464,4.152,1.676,0.152
1592836186519164,4.228,1.753,0.152
1592836187020866,4.19,1.753,0.152
1592836187522530,4.152,1.753,0.152
1592836188024237,4.152,1.676,0.152
1592836188526000,4.19,1.676,0.152
1592836189027713,4.152,1.753,0.152
1592836189529432,4.19,1.753,0.152
1592836190031108,4.152,1.753,0.152
1592836190532830,4.19,1.753,0.152
1592836191034557,4.152,1.676,0.152
1592836191536277,4.152,1.676,0.152
1592836192038056,4.152,1.753,0.152
1592836192539720,4.152,1.753,0.152
1592836193041478,4.152,1.753,0.152
1592836193543207,4.152,1.676,0.152
1592836194044901,4.152,1.753,0.152
1592836194546587,4.152,1.753,0.152
1592836195048274,4.152,1.753,0.152
1592836195550055,4.152,1.753,0.152
1592836196051785,4.152,1.753,0.152
1592836196553482,4.152,1.753,0.152
1592836197055161,4.152,1.753,0.152
1592836197556915,4.152,1.753,0.152
1592836198058628,4.152,1.753,0.152
1592836198560406,4.152,1.753,0.152
1592836199062131,4.152,1.753,0.152
1592836199563836,4.152,1.753,0.152
1592836200065632,4.152,1.753,0.152
1592836200570270,4.19,1.753,0.152
1592836201071946,4.152,1.753,0.152
1592836201573694,4.19,1.753,0.152
1592836202075445,4.152,1.753,0.152
1592836202577168,4.152,1.676,0.152
1592836203078855,4.152,1.753,0.152
1592836203580719,4.152,1.753,0.152
1592836204082431,4.152,1.753,0.152
1592836204584162,4.19,1.753,0.152
1592836205085972,4.152,1.676,0.152
1592836205590242,4.152,1.676,0.152
1592836206091951,4.152,1.753,0.152
1592836206593654,4.152,1.753,0.152
1592836207095409,4.152,1.753,0.152
1592836207597152,4.152,1.676,0.152
1592836208098865,4.152,1.676,0.152
1592836208600616,4.152,1.753,0.152
1592836209102269,4.152,1.753,0.152
1592836209603917,4.152,1.753,0.152
1592836210105636,4.152,1.676,0.152
1592836210609762,4.152,1.676,0.152
1592836211111408,4.152,1.753,0.152
1592836211613075,4.152,1.753,0.152
1592836212114744,4.152,1.753,0.152
1592836212616461,4.19,1.753,0.152
1592836213118209,4.152,1.676,0.152
1592836213620011,4.152,1.676,0.152
1592836214121697,4.152,1.753,0.152
1592836214623413,4.152,1.753,0.152
1592836215125153,4.152,1.753,0.152
1592836215629420,4.152,1.676,0.152
1592836216131075,4.152,1.753,0.152
1592836216632736,4.266,1.753,0.152
1592836217134449,4.228,1.753,0.152
1592836217636109,4.152,1.753,0.152
1592836218137852,4.152,1.753,0.152
1592836218639563,4.152,1.753,0.152
1592836219141301,4.152,1.753,0.152
1592836219643086,4.152,1.753,0.152
1592836220144851,4.152,1.753,0.152
1592836220649211,4.152,1.753,0.152
1592836221150912,4.19,1.753,0.152
