TimeStamp,Total Power,CPU Power,GPU Power
1592836706316593,3.315,0.838,0.152
1592836706817825,4.038,1.524,0.152
1592836707321555,4.266,1.829,0.152
1592836707822738,4.342,1.905,0.152
1592836708323970,4.342,1.905,0.152
1592836708825204,4.342,1.905,0.152
1592836709326412,4.342,1.905,0.152
1592836709828699,4.342,1.981,0.152
1592836710330309,4.342,1.905,0.152
1592836710831531,4.381,1.981,0.152
1592836711333275,4.342,1.905,0.152
1592836711836200,4.342,1.905,0.152
1592836712341766,4.342,1.905,0.152
1592836712844036,4.342,1.981,0.152
1592836713345703,4.457,1.98,0.152
1592836713847881,4.381,1.905,0.152
1592836714349414,4.381,1.905,0.152
1592836714850611,4.342,1.981,0.152
1592836715351774,4.342,1.981,0.152
1592836715853426,4.342,1.905,0.152
1592836716355726,4.381,1.905,0.152
1592836716857564,4.381,1.905,0.152
1592836717359704,4.381,1.981,0.152
1592836717861393,4.381,1.905,0.152
1592836718362588,4.381,1.981,0.152
1592836718863765,4.342,1.905,0.152
1592836719364986,4.381,1.905,0.152
1592836719866192,4.342,1.905,0.152
1592836720367367,4.342,1.981,0.152
1592836720868520,4.342,1.981,0.152
1592836721369713,4.342,1.905,0.152
1592836721876250,4.342,1.904,0.152
1592836722377485,4.342,1.905,0.152
1592836722878662,4.342,1.981,0.152
1592836723379824,4.381,1.981,0.152
1592836723881021,4.342,1.904,0.152
1592836724383269,4.381,1.905,0.152
1592836724885829,4.381,1.981,0.152
1592836725387330,4.342,1.905,0.152
1592836725888566,4.342,1.905,0.152
1592836726390755,4.381,1.905,0.152
1592836726892245,4.457,1.904,0.152
1592836727394411,4.381,1.981,0.152
1592836727895894,4.381,1.905,0.152
1592836728397090,4.381,1.981,0.152
1592836728898278,4.381,1.981,0.152
1592836729399516,4.381,1.905,0.152
1592836729900788,4.381,1.905,0.152
1592836730401969,4.342,1.981,0.152
1592836730903130,4.342,1.981,0.152
1592836731404475,4.342,1.905,0.152
1592836731905687,4.342,1.905,0.152
1592836732407892,4.381,1.905,0.152
1592836732909412,4.342,1.981,0.152
1592836733410581,4.342,1.981,0.152
1592836733911762,4.342,1.905,0.152
1592836734414229,4.342,1.905,0.152
1592836734916768,4.381,1.981,0.152
1592836735418229,4.342,1.981,0.152
1592836735920844,4.342,1.981,0.152
1592836736424544,4.342,1.905,0.152
1592836736927035,4.342,1.905,0.152
1592836737428542,4.342,1.981,0.152
1592836737929751,4.381,1.981,0.152
1592836738431005,4.342,1.905,0.152
1592836738932248,4.342,1.905,0.152
1592836739433486,4.342,1.905,0.152
1592836739934666,4.342,1.981,0.152
1592836740436073,4.381,1.905,0.152
1592836740937289,4.342,1.905,0.152
1592836741439479,4.381,1.905,0.152
1592836741941017,4.342,1.981,0.152
1592836742442254,4.342,1.905,0.152
1592836742943466,4.342,1.905,0.152
1592836743444699,4.342,1.981,0.152
1592836743947126,4.342,1.905,0.152
1592836744448703,4.381,1.905,0.152
1592836744949956,4.381,1.981,0.152
1592836745451135,4.342,1.981,0.152
1592836745952335,4.342,1.981,0.152
1592836746453603,4.381,1.905,0.152
1592836746955796,4.381,1.905,0.152
1592836747457297,4.381,1.981,0.152
1592836747959518,4.381,1.981,0.152
1592836748461034,4.381,1.905,0.152
1592836748964134,4.381,1.905,0.152
1592836749465336,4.381,1.981,0.152
1592836749966532,4.381,1.981,0.152
1592836750467741,4.342,1.905,0.152
1592836750968973,4.342,1.905,0.152
1592836751470179,4.342,1.981,0.152
1592836751971376,4.342,1.981,0.152
1592836752472583,4.381,1.981,0.152
1592836752973787,4.342,1.981,0.152
1592836753474994,4.381,1.981,0.152
1592836753976212,4.381,1.981,0.152
1592836754477396,4.381,1.905,0.152
1592836754978599,4.381,1.981,0.152
1592836755479786,4.342,1.981,0.152
1592836755980968,4.342,1.905,0.152
1592836756482245,4.419,1.904,0.152
1592836756983439,4.381,1.905,0.152
1592836757484614,4.381,1.981,0.152
1592836757985800,4.342,1.981,0.152
1592836758487069,4.381,1.905,0.152
1592836758988274,4.342,1.905,0.152
1592836759489486,4.342,1.981,0.152
1592836759990710,4.342,1.905,0.152
1592836760491920,4.342,1.905,0.152
1592836760993128,4.342,1.905,0.152
1592836761494331,4.342,1.905,0.152
1592836761995537,4.342,1.905,0.152
1592836762496718,4.342,1.981,0.152
1592836762997965,4.342,1.981,0.152
1592836763499243,4.381,1.905,0.152
1592836764000459,4.342,1.905,0.152
1592836764504037,4.381,1.905,0.152
1592836765005213,4.342,1.981,0.152
1592836765506445,4.342,1.981,0.152
1592836766007660,4.342,1.905,0.152
