cset: --> last message, executed args into cpuset "/user", new pid is: 4369
stress-ng: info:  [4369] dispatching hogs: 4 cpu
stress-ng: info:  [4369] successful run completed in 60.07s (1 min, 0.07 secs)
