TimeStamp,A7 Voltage(V),A7 Current(A),A7 Power(W),A15 Voltage(V),A15 Current(A),A15 Power(W),GPU Power(W)
1606786649292504128,1.100000,0.536000,0.633000,1.000000,2.480000,2.670000,0.093000
1606786649832274346,1.100000,0.540000,0.637000,1.100000,3.523000,3.988000,0.097000
1606786650374756297,1.100000,0.544000,0.642000,1.100000,3.537000,4.003000,0.101000
1606786650918966321,1.100000,0.544000,0.642000,1.100000,3.592000,4.066000,0.104000
1606786651457356714,1.100000,0.548000,0.647000,1.100000,3.622000,4.100000,0.106000
1606786651992359711,1.100000,0.550000,0.649000,1.100000,3.627000,4.109000,0.108000
1606786652532292719,1.100000,0.549000,0.648000,1.100000,3.625000,4.103000,0.110000
1606786653077570027,1.100000,0.551000,0.650000,1.100000,3.653000,4.138000,0.112000
1606786653612859355,1.100000,0.553000,0.653000,1.100000,3.659000,4.145000,0.115000
1606786654148370516,1.100000,0.554000,0.654000,1.100000,3.685000,4.175000,0.116000
1606786654702606518,1.100000,0.555000,0.654000,1.100000,3.665000,4.152000,0.118000
1606786655242981607,1.100000,0.555000,0.654000,1.100000,3.663000,4.150000,0.119000
1606786655782362868,1.100000,0.556000,0.656000,1.100000,3.707000,4.200000,0.121000
1606786656327808758,1.100000,0.557000,0.657000,1.100000,3.717000,4.211000,0.122000
1606786656862375631,1.100000,0.558000,0.658000,1.100000,3.663000,4.150000,0.123000
1606786657413865150,1.100000,0.560000,0.660000,1.100000,3.712000,4.205000,0.124000
1606786657957377177,1.100000,0.561000,0.662000,1.100000,3.735000,4.239000,0.124000
1606786658492526755,1.100000,0.561000,0.662000,1.100000,3.712000,4.205000,0.125000
1606786659032270096,1.100000,0.560000,0.661000,1.100000,3.708000,4.201000,0.126000
1606786659577369821,1.100000,0.561000,0.661000,1.100000,3.741000,4.238000,0.127000
1606786660112871397,1.100000,0.561000,0.661000,1.100000,3.734000,4.230000,0.128000
1606786660648721553,1.100000,0.562000,0.663000,1.100000,3.754000,4.253000,0.128000
1606786661192614035,1.100000,0.562000,0.663000,1.100000,3.715000,4.216000,0.129000
1606786661732340209,1.100000,0.564000,0.665000,1.100000,3.750000,4.256000,0.129000
1606786662277352934,1.100000,0.563000,0.664000,1.100000,3.762000,4.262000,0.130000
1606786662812624885,1.100000,0.563000,0.664000,1.100000,3.768000,4.276000,0.131000
1606786663352362059,1.100000,0.564000,0.666000,1.100000,3.735000,4.239000,0.132000
1606786663897969405,1.100000,0.565000,0.666000,1.100000,3.771000,4.280000,0.132000
1606786664428171512,1.100000,0.565000,0.666000,1.100000,3.779000,4.289000,0.133000
1606786664962788925,1.100000,0.565000,0.666000,1.100000,3.770000,4.278000,0.133000
1606786665507371569,1.100000,0.563000,0.664000,1.100000,3.743000,4.248000,0.134000
1606786666047377824,1.100000,0.566000,0.667000,1.100000,3.782000,4.292000,0.134000
1606786666583252312,1.100000,0.566000,0.667000,1.100000,3.674000,4.169000,0.135000
1606786667124572809,1.100000,0.565000,0.666000,1.100000,3.764000,4.272000,0.135000
1606786667669029244,1.100000,0.566000,0.667000,1.100000,3.764000,4.272000,0.136000
1606786668212596060,1.100000,0.568000,0.670000,1.100000,3.794000,4.306000,0.136000
1606786668752395524,1.100000,0.567000,0.669000,1.100000,3.780000,4.290000,0.137000
1606786669292395736,1.100000,0.568000,0.670000,1.100000,3.788000,4.299000,0.137000
1606786669832514573,1.100000,0.566000,0.667000,1.100000,3.767000,4.275000,0.137000
1606786670374674730,1.100000,0.567000,0.669000,1.100000,3.786000,4.297000,0.137000
1606786670919027499,1.100000,0.568000,0.670000,1.100000,3.806000,4.319000,0.138000
1606786671462880979,1.100000,0.567000,0.669000,1.100000,3.793000,4.305000,0.138000
1606786672007391788,1.100000,0.560000,0.660000,1.100000,3.694000,4.192000,0.139000
1606786672547348917,1.100000,0.569000,0.671000,1.100000,3.813000,4.327000,0.139000
1606786673082923531,1.100000,0.568000,0.670000,1.100000,3.815000,4.330000,0.139000
1606786673624529732,1.100000,0.569000,0.671000,1.100000,3.779000,4.289000,0.140000
1606786674168939000,1.100000,0.569000,0.671000,1.100000,3.790000,4.301000,0.141000
1606786674712334690,1.100000,0.569000,0.671000,1.100000,3.818000,4.333000,0.141000
1606786675252362776,1.100000,0.570000,0.672000,1.100000,3.817000,4.336000,0.141000
1606786675792246113,1.100000,0.569000,0.671000,1.100000,3.815000,4.330000,0.141000
1606786676332354699,1.100000,0.570000,0.672000,1.100000,3.795000,4.307000,0.142000
1606786676874953810,1.100000,0.570000,0.672000,1.100000,3.815000,4.330000,0.142000
1606786677418887872,1.100000,0.571000,0.673000,1.100000,3.808000,4.322000,0.143000
1606786677962655268,1.100000,0.570000,0.672000,1.100000,3.826000,4.342000,0.143000
1606786678507286325,1.100000,0.570000,0.672000,1.100000,3.805000,4.318000,0.143000
1606786679047382076,1.100000,0.572000,0.674000,1.100000,3.832000,4.353000,0.143000
1606786679582816398,1.100000,0.572000,0.674000,1.100000,3.835000,4.352000,0.143000
1606786680124506640,1.100000,0.571000,0.673000,1.100000,3.838000,4.359000,0.144000
1606786680668986322,1.100000,0.571000,0.673000,1.100000,3.808000,4.322000,0.144000
1606786681212349553,1.100000,0.572000,0.674000,1.100000,3.839000,4.357000,0.144000
1606786681752344930,1.100000,0.572000,0.674000,1.100000,3.843000,4.365000,0.145000
1606786682292550638,1.100000,0.573000,0.676000,1.100000,3.831000,4.352000,0.145000
1606786682832331683,1.100000,0.570000,0.672000,1.100000,3.817000,4.332000,0.145000
1606786683374564212,1.100000,0.574000,0.677000,1.100000,3.842000,4.364000,0.146000
1606786683918995894,1.100000,0.573000,0.676000,1.100000,3.838000,4.359000,0.146000
1606786684462657289,1.100000,0.572000,0.674000,1.100000,3.848000,4.367000,0.146000
1606786685007340719,1.100000,0.572000,0.674000,1.100000,3.825000,4.341000,0.146000
1606786685547346220,1.100000,0.573000,0.676000,1.100000,3.836000,4.357000,0.147000
1606786686082817165,1.100000,0.573000,0.676000,1.100000,3.849000,4.368000,0.146000
1606786686624411656,1.100000,0.573000,0.676000,1.100000,3.849000,4.368000,0.147000
1606786687172134817,1.100000,0.573000,0.676000,1.100000,3.839000,4.357000,0.148000
1606786687712351691,1.100000,0.572000,0.674000,1.100000,3.823000,4.342000,0.148000
1606786688252384108,1.100000,0.572000,0.674000,1.100000,3.852000,4.375000,0.148000
1606786688792374442,1.100000,0.574000,0.677000,1.100000,3.841000,4.359000,0.148000
1606786689332360858,1.100000,0.574000,0.677000,1.100000,3.817000,4.332000,0.149000
1606786689874656719,1.100000,0.574000,0.677000,1.100000,3.857000,4.377000,0.149000
1606786690418867610,1.100000,0.574000,0.677000,1.100000,3.854000,4.378000,0.149000
1606786690962676794,1.100000,0.574000,0.677000,1.100000,3.861000,4.386000,0.150000
1606786691504833947,1.100000,0.572000,0.674000,1.100000,3.780000,4.290000,0.150000
1606786692047564013,1.100000,0.575000,0.678000,1.100000,3.865000,4.390000,0.150000
1606786692582871333,1.100000,0.576000,0.679000,1.100000,3.861000,4.382000,0.150000
1606786693124592488,1.100000,0.575000,0.678000,1.100000,3.863000,4.384000,0.150000
1606786693669544582,1.100000,0.575000,0.678000,1.100000,3.852000,4.372000,0.150000
1606786694212353147,1.100000,0.575000,0.678000,1.100000,3.827000,4.343000,0.151000
1606786694752357063,1.100000,0.575000,0.678000,1.100000,3.866000,4.387000,0.151000
1606786695292914350,1.100000,0.577000,0.680000,1.100000,3.873000,4.399000,0.151000
1606786695832297769,1.100000,0.575000,0.678000,1.100000,3.820000,4.335000,0.151000
1606786696374454754,1.100000,0.575000,0.678000,1.100000,3.848000,4.367000,0.151000
1606786696918920559,1.100000,0.576000,0.679000,1.100000,3.876000,4.403000,0.152000
1606786697458001979,1.100000,0.576000,0.679000,1.100000,3.854000,4.374000,0.152000
1606786698007824834,1.100000,0.576000,0.679000,1.100000,3.853000,4.373000,0.152000
1606786698545445513,1.100000,0.574000,0.677000,1.100000,3.854000,4.378000,0.153000
1606786699082366905,1.100000,0.576000,0.679000,1.100000,3.864000,4.389000,0.153000
1606786699624425391,1.100000,0.576000,0.679000,1.100000,3.878000,4.405000,0.153000
1606786700169005818,1.100000,0.577000,0.680000,1.100000,3.850000,4.373000,0.153000
1606786700712384129,1.100000,0.576000,0.679000,1.100000,3.854000,4.378000,0.153000
1606786701252394918,1.100000,0.578000,0.682000,1.100000,3.882000,4.409000,0.153000
1606786701792621164,1.100000,0.577000,0.680000,1.100000,3.890000,4.419000,0.154000
1606786702332647911,1.100000,0.577000,0.680000,1.100000,3.833000,4.354000,0.154000
1606786702874570647,1.100000,0.578000,0.682000,1.100000,3.861000,4.386000,0.154000
1606786703418963409,1.100000,0.577000,0.680000,1.100000,3.887000,4.415000,0.154000
1606786703962385551,1.100000,0.578000,0.682000,1.100000,3.890000,4.419000,0.155000
1606786704507346726,1.100000,0.576000,0.679000,1.100000,3.854000,4.378000,0.155000
1606786705047369223,1.100000,0.577000,0.680000,1.100000,3.876000,4.403000,0.155000
1606786705582819331,1.100000,0.577000,0.680000,1.100000,3.892000,4.421000,0.155000
1606786706124477317,1.100000,0.577000,0.680000,1.100000,3.887000,4.415000,0.155000
1606786706669064327,1.100000,0.577000,0.680000,1.100000,3.862000,4.387000,0.156000
1606786707212597969,1.100000,0.577000,0.680000,1.100000,3.897000,4.426000,0.155000
1606786707752927130,1.100000,0.578000,0.682000,1.100000,3.879000,4.406000,0.156000
1606786708293213083,1.100000,0.578000,0.682000,1.100000,3.898000,4.428000,0.156000
1606786708837393136,1.100000,0.575000,0.678000,1.100000,3.865000,4.390000,0.156000
1606786709380511405,1.100000,0.578000,0.682000,1.100000,3.899000,4.429000,0.156000
1606786709924689083,1.100000,0.580000,0.684000,1.100000,3.902000,4.432000,0.156000
1606786710462792382,1.100000,0.578000,0.682000,1.100000,3.868000,4.394000,0.157000
1606786711007540849,1.100000,0.579000,0.683000,1.100000,3.848000,4.371000,0.157000
1606786711547387512,1.100000,0.580000,0.684000,1.100000,3.903000,4.433000,0.157000
1606786712082887410,1.100000,0.579000,0.683000,1.100000,3.904000,4.434000,0.157000
1606786712630280485,1.100000,0.578000,0.682000,1.100000,3.865000,4.390000,0.158000
1606786713174665995,1.100000,0.580000,0.684000,1.100000,3.894000,4.423000,0.158000
1606786713712361713,1.100000,0.579000,0.683000,1.100000,3.906000,4.437000,0.158000
1606786714252307000,1.100000,0.579000,0.683000,1.100000,3.894000,4.423000,0.158000
1606786714792549327,1.100000,0.578000,0.682000,1.100000,3.872000,4.398000,0.158000
1606786715332340198,1.100000,0.579000,0.683000,1.100000,3.911000,4.442000,0.158000
1606786715874589762,1.100000,0.579000,0.683000,1.100000,3.902000,4.432000,0.158000
1606786716419003105,1.100000,0.579000,0.683000,1.100000,3.909000,4.440000,0.158000
1606786716962522411,1.100000,0.579000,0.683000,1.100000,3.863000,4.388000,0.159000
1606786717507510625,1.100000,0.579000,0.683000,1.100000,3.908000,4.439000,0.159000
1606786718047389370,1.100000,0.580000,0.684000,1.100000,3.913000,4.445000,0.159000
1606786718582904642,1.100000,0.580000,0.684000,1.100000,3.914000,4.446000,0.159000
1606786719124566209,1.100000,0.579000,0.683000,1.100000,3.871000,4.397000,0.160000
1606786719669060634,1.100000,0.581000,0.685000,1.100000,3.916000,4.448000,0.160000
1606786720212518689,1.100000,0.581000,0.685000,1.100000,3.917000,4.449000,0.160000
1606786720752663266,1.100000,0.579000,0.683000,1.100000,3.903000,4.433000,0.160000
1606786721292561344,1.100000,0.579000,0.683000,1.100000,3.884000,4.412000,0.160000
1606786721832368630,1.100000,0.581000,0.685000,1.100000,3.916000,4.448000,0.160000
1606786722374574777,1.100000,0.580000,0.684000,1.100000,3.916000,4.448000,0.160000
1606786722918925785,1.100000,0.580000,0.684000,1.100000,3.881000,4.408000,0.160000
1606786723462493590,1.100000,0.581000,0.685000,1.100000,3.913000,4.445000,0.161000
1606786724007363594,1.100000,0.581000,0.685000,1.100000,3.919000,4.451000,0.161000
1606786724547213130,1.100000,0.555000,0.654000,1.100000,3.901000,4.431000,0.161000
1606786725082841109,1.100000,0.580000,0.684000,1.100000,3.879000,4.406000,0.161000
1606786725624629132,1.100000,0.580000,0.684000,1.100000,3.921000,4.454000,0.161000
1606786726168986848,1.100000,0.580000,0.684000,1.100000,3.902000,4.432000,0.161000
1606786726712175779,1.100000,0.581000,0.685000,1.100000,3.923000,4.456000,0.161000
1606786727252241688,1.100000,0.580000,0.684000,1.100000,3.888000,4.416000,0.162000
1606786727792533929,1.100000,0.581000,0.685000,1.100000,3.891000,4.420000,0.162000
1606786728333321833,1.100000,0.581000,0.685000,1.100000,3.925000,4.458000,0.162000
1606786728874579068,1.100000,0.581000,0.685000,1.100000,3.925000,4.458000,0.162000
1606786729425941740,1.100000,0.573000,0.676000,1.100000,3.850000,4.373000,0.162000
1606786729962512461,1.100000,0.581000,0.685000,1.100000,3.928000,4.462000,0.162000
1606786730474768583,1.100000,0.582000,0.686000,1.100000,3.926000,4.459000,0.163000
