Timestamp,Voltage(V),Ampere(A),Power(W),Watt Hour
1606786648674779889,5.010,0.698,3.496,0.000
1606786648908379868,5.014,0.731,3.668,0.000
1606786649157278752,5.025,1.705,8.573,0.000
1606786649407787001,5.026,1.802,9.061,0.000
1606786649664303255,5.026,1.813,9.119,0.000
1606786649907708839,5.025,1.821,9.153,0.000
1606786650157807216,5.023,1.825,9.172,0.000
1606786650407383596,5.023,1.825,9.172,0.000
1606786650657319682,5.010,1.836,9.206,0.000
1606786650912335028,5.001,1.848,9.244,0.000
1606786651157371644,4.997,1.855,9.279,0.000
1606786651408004601,4.996,1.861,9.302,0.000
1606786651657355982,5.000,1.857,9.290,0.000
1606786651908013230,4.995,1.868,9.336,0.000
1606786652157200279,4.994,1.869,9.340,0.000
1606786652408089650,4.996,1.870,9.348,0.000
1606786652657334824,4.994,1.871,9.351,0.000
1606786652908030155,4.992,1.880,9.393,0.000
1606786653157334828,4.992,1.881,9.397,0.000
1606786653407997701,4.992,1.881,9.397,0.000
1606786653658069702,4.992,1.887,9.424,0.000
1606786653908024371,4.992,1.890,9.439,0.000
1606786654162705677,4.992,1.893,9.458,0.000
1606786654407722085,4.992,1.895,9.466,0.000
1606786654656196304,4.992,1.890,9.443,0.000
1606786654908020253,4.994,1.887,9.428,0.000
1606786655157635924,4.991,1.893,9.454,0.000
1606786655408027340,4.991,1.902,9.496,0.000
1606786655657381012,4.991,1.905,9.515,0.000
1606786655908017510,4.991,1.908,9.527,0.000
1606786656157354766,4.992,1.909,9.535,0.000
1606786656408135054,4.992,1.909,9.535,0.000
1606786656657235937,4.992,1.908,9.531,0.000
1606786656908046267,4.991,1.896,9.470,0.000
1606786657157361981,4.991,1.908,9.527,0.000
1606786657407360857,4.992,1.919,9.584,0.000
1606786657657378400,4.991,1.918,9.580,0.000
1606786657908031481,4.991,1.921,9.592,0.000
1606786658157289362,4.991,1.920,9.592,0.000
1606786658408555981,4.991,1.915,9.561,0.000
1606786658657304407,4.991,1.922,9.596,0.000
1606786658907654031,4.991,1.918,9.580,0.000
1606786659157348784,4.991,1.919,9.584,0.000
1606786659408033531,4.991,1.919,9.584,0.000
1606786659657390620,4.991,1.927,9.622,0.000
1606786659907985451,4.991,1.927,9.622,0.000
1606786660157384747,4.991,1.922,9.596,0.000
1606786660408078911,4.991,1.929,9.634,0.000
1606786660662810050,4.991,1.932,9.649,0.000
1606786660907693708,4.991,1.927,9.622,0.000
1606786661155948636,4.991,1.923,9.603,0.000
1606786661407959833,4.991,1.931,9.641,0.000
1606786661657606087,4.991,1.928,9.626,0.000
1606786661908072835,4.991,1.934,9.657,0.000
1606786662157373840,4.991,1.936,9.668,0.000
1606786662408004837,4.991,1.936,9.668,0.000
1606786662657278676,4.991,1.937,9.672,0.000
1606786662907791382,4.991,1.937,9.676,0.000
1606786663158051507,4.991,1.929,9.634,0.000
1606786663407625219,4.991,1.923,9.603,0.000
1606786663657397846,4.991,1.936,9.668,0.000
1606786663904511906,4.992,1.940,9.687,0.000
1606786664157377390,4.991,1.941,9.695,0.000
1606786664411195617,4.992,1.943,9.702,0.000
1606786664657837805,4.992,1.942,9.702,0.000
1606786664908436177,4.991,1.934,9.657,0.000
1606786665157223435,4.991,1.930,9.641,0.000
1606786665408054639,4.991,1.930,9.641,0.000
1606786665657380644,4.992,1.936,9.668,0.000
1606786665907906808,4.992,1.945,9.714,0.000
1606786666157376021,4.992,1.911,9.546,0.000
1606786666408028809,4.992,1.945,9.714,0.000
1606786666657260689,4.992,1.946,9.718,0.000
1606786666908148351,4.992,1.942,9.702,0.000
1606786667152813718,4.992,1.942,9.702,0.000
1606786667407662355,4.992,1.944,9.710,0.000
1606786667662571742,4.992,1.947,9.725,0.000
1606786667908587476,4.992,1.949,9.737,0.000
1606786668157268568,4.992,1.950,9.741,0.000
1606786668408011980,4.992,1.950,9.741,0.000
1606786668657384651,4.992,1.946,9.718,0.000
1606786668908010064,4.992,1.951,9.748,0.000
1606786669157282111,4.992,1.954,9.760,0.000
1606786669408033398,4.992,1.946,9.722,0.000
1606786669657349028,4.992,1.949,9.733,0.000
1606786669908025691,4.992,1.953,9.752,0.000
1606786670157345362,4.992,1.951,9.748,0.000
1606786670407665818,4.992,1.956,9.771,0.000
1606786670657369237,4.992,1.958,9.783,0.000
1606786670912384998,4.992,1.959,9.786,0.000
1606786671157800777,4.992,1.958,9.783,0.000
1606786671408407731,4.992,1.958,9.783,0.000
1606786671652892015,4.992,1.955,9.764,0.000
1606786671908085442,4.992,1.926,9.619,0.000
1606786672157377113,4.992,1.955,9.764,0.000
1606786672408240108,4.992,1.962,9.802,0.000
1606786672658071651,4.994,1.964,9.809,0.000
1606786672908045567,4.992,1.962,9.802,0.000
1606786673157379988,4.992,1.963,9.809,0.000
1606786673407769736,4.992,1.963,9.806,0.000
1606786673652263436,4.992,1.955,9.767,0.000
1606786673908374982,4.992,1.959,9.786,0.000
1606786674162521331,4.992,1.962,9.798,0.000
1606786674407958859,4.992,1.962,9.798,0.000
1606786674657307780,4.992,1.964,9.813,0.000
1606786674907885193,4.994,1.966,9.821,0.000
1606786675157343321,4.994,1.960,9.794,0.000
1606786675407988525,4.992,1.960,9.790,0.000
1606786675657702818,4.994,1.965,9.813,0.000
1606786675908024191,4.992,1.961,9.798,0.000
1606786676157771942,4.992,1.959,9.786,0.000
1606786676408039857,4.992,1.962,9.802,0.000
1606786676657371277,4.994,1.967,9.825,0.000
1606786676907382735,4.992,1.960,9.794,0.000
1606786677157362943,4.994,1.969,9.836,0.000
1606786677412383037,4.994,1.969,9.836,0.000
1606786677657332026,4.994,1.969,9.840,0.000
1606786677907989563,4.994,1.969,9.840,0.000
1606786678157241734,4.992,1.965,9.817,0.000
1606786678408127603,4.992,1.961,9.798,0.000
1606786678657346107,4.992,1.963,9.806,0.000
1606786678907980686,4.992,1.969,9.836,0.000
1606786679157356606,4.994,1.971,9.848,0.000
1606786679408050560,4.994,1.972,9.851,0.000
1606786679657369188,4.994,1.973,9.855,0.000
1606786679908114183,4.994,1.974,9.859,0.000
1606786680153074880,4.992,1.967,9.828,0.000
1606786680407839433,4.992,1.967,9.828,0.000
1606786680662573903,4.992,1.961,9.798,0.000
1606786680908009556,4.992,1.969,9.832,0.000
1606786681157341517,4.992,1.975,9.867,0.000
1606786681407999304,4.992,1.975,9.863,0.000
1606786681657375724,4.992,1.976,9.874,0.000
1606786681908287134,4.992,1.978,9.878,0.000
1606786682157931219,4.992,1.973,9.855,0.000
1606786682407793052,4.992,1.976,9.874,0.000
1606786682657207055,4.992,1.971,9.844,0.000
1606786682907986341,4.992,1.975,9.863,0.000
1606786683157387927,4.992,1.982,9.901,0.000
1606786683407382343,4.992,1.982,9.901,0.000
1606786683657661048,4.992,1.982,9.901,0.000
1606786683912392310,4.992,1.975,9.863,0.000
1606786684157373131,4.992,1.982,9.901,0.000
1606786684407861710,4.992,1.981,9.893,0.000
1606786684657369129,4.992,1.978,9.878,0.000
1606786684907757751,4.992,1.976,9.867,0.000
1606786685157338210,4.991,1.977,9.874,0.000
1606786685408018580,4.991,1.977,9.874,0.000
1606786685657396958,4.991,1.982,9.897,0.000
1606786685908004328,4.991,1.983,9.901,0.000
1606786686157383372,4.991,1.984,9.909,0.000
1606786686408004825,4.991,1.984,9.909,0.000
1606786686652302859,4.991,1.985,9.912,0.000
1606786686908461570,4.991,1.982,9.897,0.000
1606786687165317609,4.991,1.980,9.886,0.000
1606786687408002195,4.991,1.977,9.874,0.000
1606786687657346739,4.991,1.983,9.905,0.000
1606786687907935026,4.991,1.985,9.912,0.000
1606786688157401528,4.991,1.986,9.920,0.000
1606786688408029981,4.991,1.988,9.928,0.000
1606786688657744731,4.991,1.985,9.916,0.000
1606786688908190977,4.991,1.979,9.882,0.000
1606786689157323106,4.990,1.981,9.890,0.000
1606786689407945558,4.990,1.981,9.890,0.000
1606786689657564351,4.991,1.976,9.867,0.000
1606786689907727223,4.991,1.985,9.916,0.000
1606786690157587848,4.991,1.988,9.928,0.000
1606786690412357941,4.991,1.988,9.928,0.000
1606786690652533667,4.990,1.983,9.897,0.000
1606786690902795039,4.990,1.989,9.928,0.000
1606786691152892120,4.990,1.986,9.916,0.000
1606786691412773140,4.990,1.973,9.855,0.000
1606786691652986574,4.990,1.982,9.893,0.000
1606786691908272581,4.990,1.989,9.931,0.000
1606786692157369544,4.990,1.981,9.893,0.000
1606786692408021329,4.990,1.981,9.893,0.000
1606786692658113869,4.990,1.989,9.931,0.000
1606786692908068117,4.990,1.989,9.931,0.000
1606786693153061604,4.990,1.991,9.943,0.000
1606786693407926447,4.990,1.989,9.928,0.000
1606786693662938956,4.990,1.984,9.905,0.000
1606786693908045068,4.989,1.981,9.890,0.000
1606786694157386903,4.990,1.991,9.939,0.000
1606786694408019689,4.990,1.992,9.947,0.000
1606786694657386524,4.990,1.993,9.951,0.000
1606786694908036893,4.990,1.995,9.958,0.000
1606786695157401562,4.990,1.995,9.958,0.000
1606786695407857848,4.990,1.995,9.958,0.000
1606786695657323266,4.989,1.984,9.901,0.000
1606786695908088551,4.990,1.983,9.901,0.000
1606786696157401595,4.989,1.993,9.947,0.000
1606786696407981797,4.990,1.995,9.958,0.000
1606786696657354299,4.990,1.999,9.977,0.000
1606786696912390516,4.990,2.000,9.981,0.000
1606786697157649834,4.989,1.995,9.962,0.000
1606786697408071538,4.989,1.995,9.958,0.000
1606786697657298457,4.989,1.994,9.954,0.000
1606786697907355746,4.989,1.966,9.817,0.000
1606786698157390243,4.989,1.993,9.951,0.000
1606786698407994404,4.989,1.993,9.951,0.000
1606786698657321281,4.989,2.000,9.985,0.000
1606786698908076273,4.989,1.997,9.970,0.000
1606786699157384609,4.989,1.996,9.962,0.000
1606786699408058644,4.989,2.001,9.985,0.000
1606786699652302593,4.989,2.000,9.985,0.000
1606786699907243727,4.989,1.999,9.977,0.000
1606786700162621400,4.989,1.996,9.962,0.000
1606786700407499470,4.989,1.976,9.863,0.000
1606786700657362510,4.989,1.995,9.954,0.000
1606786700908430126,4.989,2.003,9.996,0.000
1606786701157912960,4.989,2.002,9.993,0.000
1606786701408047998,4.989,2.002,9.993,0.000
1606786701657366833,4.989,2.005,10.012,0.000
1606786701907824202,4.989,2.005,10.012,0.000
1606786702157367869,4.989,1.991,9.935,0.000
1606786702407374366,4.987,1.989,9.924,0.000
1606786702657348447,4.989,1.998,9.973,0.000
1606786702907690484,4.989,2.003,10.000,0.000
1606786703157351692,4.989,2.003,10.000,0.000
1606786703412369866,4.989,2.005,10.008,0.000
1606786703657357519,4.989,2.005,10.008,0.000
1606786703908051637,4.989,1.998,9.973,0.000
1606786704157221223,4.989,1.999,9.973,0.000
1606786704407734633,4.989,1.999,9.973,0.000
1606786704657371716,4.989,1.996,9.962,0.000
1606786704908062375,4.989,2.002,9.993,0.000
1606786705157364210,4.989,2.006,10.015,0.000
1606786705408398242,4.989,2.006,10.012,0.000
1606786705657631619,4.989,2.001,9.989,0.000
1606786705908264195,4.989,2.003,10.000,0.000
1606786706152859475,4.989,2.004,10.004,0.000
1606786706407632943,4.989,1.998,9.970,0.000
1606786706662569409,4.989,2.001,9.985,0.000
1606786706908068017,4.989,2.007,10.019,0.000
1606786707157571392,4.989,2.005,10.008,0.000
1606786707408070552,4.989,2.005,10.008,0.000
1606786707657395428,4.989,2.005,10.004,0.000
1606786707908068796,4.989,2.008,10.019,0.000
1606786708157326256,4.989,2.010,10.031,0.000
1606786708412626428,4.987,2.003,9.993,0.000
1606786708657390624,4.987,2.002,9.989,0.000
1606786708907582077,4.989,2.009,10.023,0.000
1606786709157370159,4.987,1.999,9.977,0.000
1606786709392735829,4.987,2.011,10.031,0.000
1606786709657390860,4.987,2.012,10.042,0.000
1606786709907928812,4.987,2.012,10.042,0.000
1606786710157303395,4.987,2.010,10.031,0.000
1606786710408266094,4.987,2.010,10.031,0.000
1606786710657790219,4.987,2.004,10.000,0.000
1606786710908022131,4.986,2.003,9.989,0.000
1606786711157382256,4.986,2.013,10.042,0.000
1606786711408035207,4.986,2.016,10.057,0.000
1606786711657615706,4.986,2.017,10.065,0.000
1606786711908021408,4.986,2.017,10.061,0.000
1606786712162938457,4.986,2.015,10.054,0.000
1606786712407631570,4.985,2.008,10.015,0.000
1606786712652625014,4.985,2.008,10.015,0.000
1606786712908020852,4.985,2.014,10.046,0.000
1606786713168125744,4.985,2.018,10.061,0.000
1606786713408091969,4.985,2.018,10.061,0.000
1606786713657569010,4.984,2.018,10.061,0.000
1606786713907960212,4.984,2.017,10.061,0.000
1606786714157366254,4.984,2.016,10.050,0.000
1606786714407648915,4.984,2.014,10.038,0.000
1606786714657670494,4.983,2.014,10.042,0.000
1606786714908035280,4.983,2.014,10.042,0.000
1606786715157394780,4.983,2.020,10.069,0.000
1606786715408263104,4.983,2.021,10.077,0.000
1606786715657697728,4.981,2.020,10.065,0.000
1606786715907497309,4.981,2.015,10.046,0.000
1606786716156590185,4.981,2.022,10.080,0.000
1606786716412658061,4.981,2.022,10.080,0.000
1606786716657292298,4.980,2.016,10.046,0.000
1606786716907989873,4.981,2.012,10.031,0.000
1606786717157340956,4.981,2.017,10.050,0.000
1606786717407965032,4.980,2.020,10.065,0.000
1606786717657366198,4.980,2.014,10.035,0.000
1606786717908007732,4.980,2.023,10.080,0.000
1606786718157327607,4.979,2.023,10.077,0.000
1606786718407699683,4.979,2.023,10.077,0.000
1606786718652823168,4.977,2.015,10.038,0.000
1606786718907531801,4.977,2.012,10.023,0.000
1606786719152367537,4.977,2.014,10.031,0.000
1606786719408094872,4.977,2.014,10.031,0.000
1606786719662563799,4.977,2.025,10.084,0.000
1606786719908619194,4.977,2.025,10.084,0.000
1606786720157764278,4.977,2.025,10.084,0.000
1606786720408048772,4.976,2.024,10.077,0.000
1606786720657952643,4.976,2.021,10.061,0.000
1606786720908283178,4.975,2.010,10.004,0.000
1606786721157370971,4.976,2.027,10.092,0.000
1606786721408034129,4.976,2.025,10.080,0.000
1606786721657350004,4.975,2.026,10.084,0.000
1606786721908068370,4.975,2.025,10.080,0.000
1606786722157356495,4.974,2.027,10.088,0.000
1606786722407377824,4.974,2.027,10.088,0.000
1606786722657361069,4.974,2.021,10.057,0.000
1606786722912339451,4.974,2.020,10.054,0.000
1606786723157327394,4.974,2.020,10.050,0.000
1606786723407958802,4.972,2.025,10.077,0.000
1606786723657363343,4.972,2.028,10.088,0.000
1606786723904321565,4.972,2.028,10.092,0.000
1606786724157360375,4.975,1.991,9.912,0.000
1606786724408016158,4.974,2.032,10.111,0.000
1606786724657256949,4.971,2.028,10.084,0.000
1606786724907728900,4.971,2.020,10.050,0.000
1606786725157356564,4.971,2.025,10.069,0.000
1606786725407992306,4.971,2.025,10.069,0.000
1606786725653048748,4.970,2.030,10.096,0.000
1606786725907984588,4.970,2.028,10.084,0.000
1606786726162556471,4.970,2.029,10.088,0.000
1606786726408003661,4.969,2.034,10.111,0.000
1606786726657309285,4.969,2.034,10.111,0.000
1606786726907698861,4.967,2.027,10.073,0.000
1606786727157364400,4.967,2.023,10.057,0.000
1606786727407929142,4.967,2.032,10.099,0.000
1606786727657366307,4.967,2.029,10.084,0.000
1606786727908021798,4.966,2.035,10.115,0.000
1606786728157349422,4.966,2.036,10.115,0.000
1606786728408068287,4.966,2.036,10.115,0.000
1606786728657285037,4.965,2.036,10.115,0.000
1606786728912227210,4.965,2.036,10.111,0.000
1606786729162326037,4.967,2.026,10.069,0.000
1606786729409190010,4.965,2.023,10.050,0.000
1606786729655783818,4.965,2.036,10.119,0.000
1606786729908007090,4.965,2.038,10.122,0.000
1606786730157342423,4.964,2.038,10.122,0.000
1606786730408041163,4.964,2.038,10.122,0.000
1606786730665969025,4.989,1.596,7.954,0.000
