TimeStamp,Total Power,CPU Power,GPU Power
1592834085325251,2.744,0.533,0.152
1592834085826777,2.249,0.838,0.152
1592834086331409,2.097,0.915,0.152
1592834086832878,2.058,0.991,0.152
1592834087334271,2.02,0.991,0.152
1592834087835658,2.02,0.991,0.152
1592834088337103,2.02,0.991,0.152
1592834088838528,2.058,0.991,0.152
1592834089339934,2.02,0.991,0.152
1592834089842489,2.02,0.991,0.152
1592834090344410,2.058,0.991,0.152
1592834090846854,2.02,0.991,0.152
1592834091352552,2.058,0.991,0.152
1592834091855144,2.173,0.991,0.152
1592834092357863,2.058,0.991,0.152
1592834092863484,2.287,0.991,0.152
1592834093366263,2.135,0.991,0.152
1592834093869068,2.058,0.991,0.152
1592834094373061,2.02,0.991,0.152
1592834094878949,2.02,0.991,0.152
1592834095381657,2.02,0.991,0.152
1592834095884411,2.02,0.991,0.152
1592834096389230,2.02,0.991,0.152
1592834096891856,2.02,0.991,0.152
1592834097394563,2.02,0.991,0.152
1592834097897234,2.058,0.991,0.152
1592834098399220,2.135,0.991,0.152
1592834098901262,2.058,0.991,0.152
1592834099402680,2.02,0.991,0.152
1592834099904059,2.02,0.991,0.152
1592834100405419,2.02,0.991,0.152
1592834100906815,2.02,0.991,0.152
1592834101410809,2.058,0.991,0.152
1592834101912264,2.097,0.991,0.152
1592834102413782,2.097,0.991,0.152
1592834102915205,2.058,0.991,0.152
1592834103416635,2.211,0.991,0.152
1592834103918026,2.058,0.991,0.152
1592834104419383,2.173,0.991,0.152
1592834104920766,2.058,0.991,0.152
1592834105422144,2.02,0.991,0.152
1592834105923544,2.02,0.991,0.152
1592834106427239,2.058,0.991,0.152
1592834106928822,2.02,0.991,0.152
1592834107430279,2.02,0.991,0.152
1592834107931683,2.02,0.991,0.152
1592834108433195,2.02,0.991,0.152
1592834108934599,2.02,0.991,0.152
1592834109435986,2.02,0.991,0.152
1592834109937369,2.02,0.991,0.152
1592834110438743,2.02,0.991,0.152
1592834110940196,2.02,0.991,0.152
1592834111444024,2.02,0.991,0.152
1592834111945493,2.02,0.991,0.152
1592834112446907,2.058,0.991,0.152
1592834112948796,2.135,0.991,0.152
1592834113450217,2.211,0.991,0.152
1592834113951593,2.325,0.991,0.152
1592834114452980,2.173,0.991,0.152
1592834114954367,2.173,0.991,0.152
1592834115455876,2.135,0.991,0.152
1592834115957331,2.058,0.991,0.152
1592834116461172,2.02,0.991,0.152
1592834116962601,2.058,0.991,0.152
1592834117464045,2.02,0.991,0.152
1592834117965449,2.02,0.991,0.152
1592834118467291,2.02,0.991,0.152
1592834118968714,2.02,0.991,0.152
1592834119470121,2.02,0.991,0.152
1592834119971558,2.02,0.991,0.152
1592834120472990,2.02,0.991,0.152
1592834120974404,2.02,0.991,0.152
1592834121478171,2.02,0.991,0.152
1592834121979627,2.02,0.991,0.152
1592834122481120,2.02,0.991,0.152
1592834122982541,2.02,0.991,0.152
1592834123483959,2.02,0.991,0.152
1592834123985401,2.058,0.991,0.152
1592834124486858,2.058,0.991,0.152
1592834124988333,2.097,0.991,0.152
1592834125489769,2.058,0.991,0.152
1592834125991269,2.287,0.991,0.152
1592834126495124,2.173,0.991,0.152
1592834126996567,2.058,0.991,0.152
1592834127497948,2.058,0.991,0.152
1592834128000507,2.02,0.991,0.152
1592834128501908,2.097,0.991,0.152
1592834129003346,2.058,0.991,0.152
1592834129504791,2.02,0.991,0.152
1592834130006209,2.02,0.991,0.152
1592834130507629,2.058,0.991,0.152
1592834131009181,2.02,0.991,0.152
1592834131512979,2.058,0.991,0.152
1592834132014411,2.02,0.991,0.152
1592834132515782,2.02,0.991,0.152
1592834133017237,1.982,0.991,0.152
1592834133518972,2.02,0.991,0.152
1592834134020421,2.058,0.991,0.152
1592834134521888,2.02,0.991,0.152
1592834135023327,2.02,0.991,0.152
1592834135524775,2.02,0.991,0.152
1592834136026208,2.058,0.991,0.152
1592834136529918,2.211,0.991,0.152
1592834137031372,2.135,0.991,0.152
1592834137532810,2.249,0.991,0.152
1592834138034202,2.058,0.991,0.152
1592834138535584,2.173,0.991,0.152
1592834139037035,2.097,0.991,0.152
1592834139538468,2.058,0.991,0.152
1592834140039888,2.02,0.991,0.152
1592834140541344,2.02,0.991,0.152
1592834141042830,2.02,0.991,0.152
1592834141546631,2.02,0.991,0.152
1592834142048081,2.02,0.991,0.152
1592834142549522,2.02,0.991,0.152
1592834143050918,2.02,0.991,0.152
1592834143552349,2.02,0.991,0.152
1592834144053802,2.02,0.991,0.152
1592834144555268,2.02,0.991,0.152
1592834145056659,2.02,0.991,0.152
