timestamp	VIRTUAL_SCALING	CPU0_F	CPU1_F	CPU2_F	CPU3_F	CPU4_F	CPU5_F	GPU_FREQ	CPU_GOVERNOR	EMC_F	TEMP0	TEMP1	TEMP2	TEMP3	TEMP4	TEMP5	TEMP6	TEMP7
1592834085420149745	1	960	345	345	960	960	960	114750000	performance	665	32	32	31	32	30	29	100	31
1592834085847288579 	0	961	345	345	960	959	959	114750000	performance	665	32	32	31	32	30	29	100	32
1592834088829798947	1	960	345	345	960	960	960	114750000	performance	665	32	32	30	32	30	28	100	31
1592834090390615789 	0	959	345	345	959	959	959	114750000	performance	665	32	32	30	32	30	29	100	31
1592834093458150549	1	960	345	345	960	960	960	114750000	performance	665	32	32	30	32	30	28	100	31
1592834094524838985 	0	960	345	345	959	959	960	114750000	performance	665	32	32	30	32	30	28	100	31
1592834097855187222	1	960	345	345	960	960	960	114750000	performance	665	32	32	30	32	30	28	100	31
1592834099093040995 	0	959	345	345	959	959	959	114750000	performance	665	32	32	30	32	30	28	100	31
1592834102453816581	1	960	345	345	960	960	960	114750000	performance	665	32	32	30	32	30	28	100	31
1592834103797341714 	0	960	345	345	959	959	959	114750000	performance	665	32	32	30	32	30	28	100	31
1592834106969532799	1	960	345	345	960	960	960	114750000	performance	665	32	32	30	32	30	28	100	31
1592834108545553444 	0	959	345	345	959	959	960	114750000	performance	665	32	32	30	32	30	28	100	31
1592834111513368055	1	960	345	345	960	960	960	114750000	performance	665	32	32	30	32	30	28	100	31
1592834113013783524 	0	959	345	345	960	959	959	114750000	performance	665	32	32	30	32	30	28	100	31
1592834115970238804	1	960	345	345	960	960	960	114750000	performance	665	32	32	30	32	30	28	100	31
1592834117189328842 	0	958	345	345	959	959	959	114750000	performance	665	32	32	30	32	30	28	100	31
1592834120610482677	1	960	345	345	960	960	960	114750000	performance	665	32	32	30	32	30	28	100	31
1592834121914077343 	0	959	345	345	960	959	959	114750000	performance	665	32	32	30	32	30	28	100	31
1592834125301494450	1	960	345	345	960	960	960	114750000	performance	665	32	32	30	32	29	28	100	31
1592834126596623936 	0	960	345	345	959	960	960	114750000	performance	665	32	32	30	32	29	28	100	31
1592834130185175953	1	960	345	345	960	960	960	114750000	performance	665	32	32	30	32	29	28	100	31
1592834131765431840 	0	959	345	345	960	960	959	114750000	performance	665	32	32	30	32	29	28	100	31
1592834135081587310	1	960	345	345	960	960	960	114750000	performance	665	32	32	30	32	29	28	100	31
1592834136683856422 	0	960	345	345	959	960	959	114750000	performance	665	32	32	30	32	29	28	100	31
1592834139929242683	1	960	345	345	960	960	960	114750000	performance	665	32	32	30	32	29	28	100	31
1592834141465563080 	0	959	345	345	959	959	959	114750000	performance	665	32	32	30	32	29	28	100	31
1592834144644641762	1	960	345	345	960	960	960	114750000	performance	665	32	32	30	31	29	28	100	30
