TimeStamp,Total Power,CPU Power,GPU Power
1593993342393006,2.401,1.143,0.152
1593993342894359,1.981,0.838,0.152
1593993343396019,1.715,0.61,0.152
1593993343897876,1.715,0.61,0.152
1593993344399834,1.715,0.533,0.152
1593993344901225,1.905,0.686,0.152
1593993345402707,2.248,1.067,0.152
1593993345904189,2.286,1.143,0.152
1593993346406688,2.401,1.143,0.152
1593993346908437,2.362,1.143,0.152
1593993347410851,2.362,1.143,0.152
1593993347912629,2.362,1.143,0.152
1593993348414386,2.362,1.143,0.152
1593993348915921,2.362,1.143,0.152
1593993349417362,2.362,1.143,0.152
1593993349918933,2.362,1.143,0.152
1593993350420763,2.362,1.143,0.152
1593993350922279,2.477,1.22,0.152
1593993351423742,2.401,1.22,0.152
1593993351928743,2.362,1.143,0.152
1593993352430625,2.439,1.219,0.152
1593993352932643,2.401,1.143,0.152
1593993353434043,2.362,1.143,0.152
1593993353935609,2.362,1.143,0.152
1593993354437129,2.362,1.143,0.152
1593993354938538,2.439,1.22,0.152
1593993355439972,2.362,1.143,0.152
1593993355943607,2.439,1.22,0.152
1593993356446931,2.362,1.143,0.152
1593993356948533,2.477,1.22,0.152
1593993357450045,2.439,1.22,0.152
1593993357951484,2.401,1.143,0.152
1593993358452903,2.362,1.143,0.152
1593993358954616,2.401,1.143,0.152
1593993359456032,2.362,1.143,0.152
1593993359957530,2.362,1.143,0.152
1593993360458947,2.362,1.143,0.152
1593993360963005,2.401,1.143,0.152
1593993361464916,2.401,1.143,0.152
1593993361968730,2.362,1.143,0.152
1593993362470466,2.667,1.143,0.152
1593993362972040,2.744,1.143,0.152
1593993363473747,2.782,1.143,0.152
1593993363975244,2.553,1.143,0.152
1593993364476760,2.477,1.22,0.152
1593993364979919,2.439,1.143,0.152
1593993365481333,2.362,1.143,0.152
1593993365982813,2.439,1.22,0.152
1593993366484623,2.362,1.143,0.152
1593993366986171,2.362,1.143,0.152
1593993367487626,2.362,1.143,0.152
1593993367989160,2.401,1.143,0.152
1593993368490833,2.362,1.143,0.152
1593993368992484,2.401,1.22,0.152
1593993369493921,2.324,1.143,0.152
1593993369995404,2.362,1.143,0.152
1593993370496815,2.401,1.22,0.152
1593993370998223,2.439,1.22,0.152
1593993371499673,2.401,1.143,0.152
1593993372001166,2.401,1.143,0.152
1593993372502605,2.401,1.143,0.152
1593993373004048,2.401,1.143,0.152
1593993373505558,2.439,1.22,0.152
1593993374006983,2.362,1.143,0.152
1593993374508430,2.362,1.143,0.152
1593993375009846,2.362,1.143,0.152
1593993375511364,2.401,1.143,0.152
1593993376012841,2.439,1.22,0.152
1593993376514276,2.401,1.22,0.152
1593993377015778,2.401,1.219,0.152
1593993377517224,2.553,1.295,0.152
1593993378018710,2.401,1.22,0.152
1593993378520156,2.362,1.143,0.152
1593993379021539,2.362,1.143,0.152
1593993379524623,2.439,1.143,0.152
1593993380026059,2.362,1.143,0.152
1593993380527463,2.362,1.143,0.152
1593993381028889,2.401,1.143,0.152
1593993381532750,2.324,1.143,0.152
1593993382039090,2.324,1.143,0.152
1593993382540555,2.362,1.143,0.152
1593993383041985,2.362,1.143,0.152
1593993383543416,2.401,1.143,0.152
1593993384045044,2.401,1.143,0.152
1593993384546482,2.362,1.143,0.152
1593993385047953,2.477,1.219,0.152
1593993385549366,2.515,1.295,0.152
1593993386050804,2.515,1.296,0.152
1593993386554448,2.439,1.22,0.152
1593993387055937,2.401,1.22,0.152
1593993387557384,2.439,1.219,0.152
1593993388058792,2.439,1.22,0.152
1593993388560250,2.401,1.22,0.152
1593993389061671,2.401,1.143,0.152
1593993389563086,2.401,1.143,0.152
1593993390064562,2.362,1.143,0.152
1593993390568328,2.324,1.143,0.152
1593993391069733,2.362,1.143,0.152
1593993391573303,2.362,1.143,0.152
1593993392074845,2.362,1.143,0.152
1593993392576347,2.439,1.22,0.152
1593993393077869,2.401,1.22,0.152
1593993393579365,2.439,1.143,0.152
1593993394080779,2.324,1.143,0.152
1593993394582196,2.362,1.143,0.152
1593993395083590,2.362,1.143,0.152
1593993395585019,2.401,1.143,0.152
1593993396086463,2.439,1.22,0.152
1593993396590075,2.401,1.143,0.152
1593993397092568,2.362,1.143,0.152
1593993397593982,2.401,1.143,0.152
1593993398095375,2.362,1.143,0.152
1593993398596908,2.362,1.143,0.152
1593993399098371,2.362,1.143,0.152
1593993399599745,2.439,1.143,0.152
1593993400101115,2.362,1.143,0.152
1593993400602550,2.362,1.143,0.152
1593993401104043,2.439,1.22,0.152
1593993401607778,2.477,1.22,0.152
1593993402109213,2.401,1.143,0.152
1593993402610624,2.401,1.22,0.152
1593993403112008,2.362,1.143,0.152
1593993403613406,2.401,1.143,0.152
1593993404114774,2.362,1.143,0.152
1593993404616208,2.362,1.143,0.152
1593993405117662,2.362,1.143,0.152
1593993405619122,2.401,1.143,0.152
1593993406120507,2.362,1.143,0.152
1593993406624736,2.362,1.143,0.152
1593993407126182,2.401,1.22,0.152
1593993407627618,2.439,1.22,0.152
1593993408129049,2.401,1.143,0.152
1593993408630527,2.362,1.143,0.152
1593993409131939,2.362,1.143,0.152
1593993409633289,2.401,1.143,0.152
1593993410134720,2.324,1.143,0.152
1593993410636173,2.362,1.143,0.152
1593993411137639,2.401,1.22,0.152
1593993411641484,2.477,1.22,0.152
1593993412142921,2.401,1.143,0.152
1593993412644371,2.362,1.143,0.152
1593993413145823,2.324,1.143,0.152
1593993413647223,2.362,1.143,0.152
1593993414148677,2.324,1.143,0.152
1593993414650603,2.362,1.143,0.152
1593993415152058,2.362,1.143,0.152
1593993415653545,2.401,1.143,0.152
1593993416154959,2.324,1.143,0.152
1593993416658643,2.362,1.143,0.152
1593993417160109,2.362,1.143,0.152
1593993417661541,2.362,1.143,0.152
1593993418162998,2.362,1.143,0.152
1593993418664423,2.362,1.143,0.152
1593993419165779,2.362,1.143,0.152
1593993419667197,2.362,1.143,0.152
1593993420168700,2.401,1.143,0.152
1593993420670212,2.362,1.143,0.152
1593993421172103,2.362,1.143,0.152
1593993421675791,2.362,1.143,0.152
1593993422177188,2.362,1.143,0.152
1593993422678553,2.362,1.143,0.152
1593993423179988,2.362,1.143,0.152
1593993423681336,2.362,1.143,0.152
1593993424182715,2.362,1.143,0.152
1593993424684148,2.324,1.143,0.152
1593993425185515,2.515,1.143,0.152
1593993425686932,2.744,1.143,0.152
1593993426188369,2.782,1.143,0.152
1593993426694091,2.705,1.143,0.152
1593993427195596,2.477,1.143,0.152
1593993427697054,2.401,1.143,0.152
1593993428198505,2.401,1.143,0.152
1593993428699996,2.362,1.143,0.152
1593993429201398,2.362,1.143,0.152
1593993429702821,2.324,1.143,0.152
1593993430204209,2.439,1.143,0.152
1593993430705629,2.401,1.143,0.152
1593993431207038,2.401,1.22,0.152
1593993431710583,2.401,1.22,0.152
1593993432212029,2.401,1.22,0.152
1593993432713499,2.401,1.143,0.152
1593993433214882,2.362,1.143,0.152
1593993433716422,2.362,1.143,0.152
1593993434218273,2.401,1.143,0.152
1593993434719710,2.401,1.143,0.152
1593993435221168,2.401,1.143,0.152
1593993435722611,2.362,1.143,0.152
1593993436224175,2.401,1.22,0.152
1593993436727834,2.439,1.143,0.152
1593993437229311,2.401,1.143,0.152
1593993437730789,2.439,1.22,0.152
1593993438232197,2.362,1.143,0.152
1593993438733635,2.439,1.143,0.152
1593993439235099,2.362,1.143,0.152
1593993439736589,2.401,1.143,0.152
1593993440238043,2.401,1.143,0.152
1593993440739534,2.477,1.22,0.152
1593993441240923,2.362,1.143,0.152
1593993441742355,2.324,1.143,0.152
1593993442243783,2.362,1.143,0.152
1593993442745208,2.362,1.143,0.152
1593993443246650,2.362,1.143,0.152
1593993443748121,2.362,1.143,0.152
1593993444249554,2.401,1.22,0.152
1593993444750949,2.401,1.143,0.152
1593993445252383,2.401,1.143,0.152
1593993445753803,2.401,1.143,0.152
1593993446255205,2.362,1.143,0.152
1593993446759008,2.362,1.143,0.152
1593993447260417,2.362,1.143,0.152
1593993447761842,2.324,1.143,0.152
1593993448263391,2.362,1.143,0.152
1593993448764794,2.439,1.22,0.152
1593993449266280,2.401,1.143,0.152
1593993449767776,2.362,1.143,0.152
1593993450269963,2.362,1.143,0.152
1593993450771794,2.362,1.143,0.152
1593993451273392,2.362,1.143,0.152
1593993451777389,2.362,1.143,0.152
1593993452279143,2.401,1.143,0.152
1593993452780610,2.362,1.143,0.152
1593993453282011,2.324,1.143,0.152
1593993453783406,2.362,1.143,0.152
1593993454284810,2.362,1.143,0.152
1593993454786246,2.362,1.143,0.152
1593993455287776,2.362,1.143,0.152
1593993455789186,2.362,1.143,0.152
1593993456290633,2.477,1.22,0.152
1593993456794226,2.515,1.219,0.152
1593993457295732,2.477,1.219,0.152
1593993457797152,2.439,1.22,0.152
1593993458298670,2.477,1.22,0.152
1593993458800171,2.515,1.296,0.152
1593993459301589,2.477,1.22,0.152
1593993459803041,2.439,1.22,0.152
1593993460304571,2.515,1.296,0.152
1593993460806018,2.477,1.22,0.152
1593993461307492,2.477,1.219,0.152
1593993461811137,2.477,1.22,0.152
1593993462312527,2.515,1.22,0.152
1593993462813950,2.515,1.22,0.152
1593993463315413,2.439,1.22,0.152
1593993463816852,2.477,1.296,0.152
1593993464318276,2.515,1.296,0.152
1593993464819725,2.515,1.296,0.152
1593993465321139,2.477,1.296,0.152
1593993465822588,2.477,1.22,0.076
1593993466324128,2.515,1.296,0.152
1593993466827803,2.515,1.219,0.152
1593993467329214,2.477,1.22,0.152
1593993467830625,2.515,1.296,0.152
1593993468332354,2.553,1.296,0.152
1593993468834025,2.553,1.296,0.152
1593993469335473,2.515,1.296,0.152
1593993469837002,2.477,1.296,0.152
1593993470338374,2.515,1.296,0.152
1593993470839792,2.553,1.296,0.152
1593993471341272,2.515,1.296,0.152
1593993471845139,2.477,1.22,0.152
1593993472346876,2.515,1.219,0.152
1593993472848466,2.515,1.296,0.152
1593993473349914,2.477,1.296,0.152
1593993473851380,2.477,1.22,0.152
1593993474352794,2.515,1.219,0.152
1593993474854239,2.515,1.296,0.152
1593993475355763,2.477,1.296,0.152
1593993475857162,2.477,1.296,0.152
1593993476358586,2.515,1.296,0.152
1593993476862357,2.477,1.22,0.152
1593993477364119,2.515,1.296,0.152
1593993477865638,2.515,1.296,0.152
1593993478369133,2.477,1.22,0.152
1593993478870761,2.515,1.296,0.152
1593993479372739,2.477,1.296,0.152
1593993479874114,2.477,1.22,0.152
1593993480375613,2.553,1.296,0.152
1593993480877032,2.515,1.219,0.152
1593993481378442,2.477,1.296,0.152
1593993481882196,2.477,1.296,0.152
1593993482383651,2.515,1.296,0.152
1593993482885010,2.515,1.296,0.152
1593993483386443,2.477,1.296,0.152
1593993483887931,2.515,1.296,0.152
1593993484389372,2.515,1.296,0.152
1593993484890786,2.515,1.22,0.152
1593993485392265,2.515,1.296,0.152
1593993485893697,2.515,1.295,0.152
1593993486395151,2.477,1.296,0.152
1593993486896613,2.515,1.296,0.152
1593993487398142,2.477,1.219,0.152
1593993487899603,2.477,1.22,0.152
1593993488401054,2.782,1.295,0.152
1593993488902505,2.934,1.295,0.152
1593993489403935,2.896,1.295,0.152
1593993489905450,2.744,1.295,0.152
1593993490406862,2.553,1.296,0.152
1593993490908423,2.553,1.296,0.152
1593993491409865,2.477,1.296,0.152
1593993491911364,2.515,1.296,0.152
1593993492412791,2.515,1.296,0.152
1593993492914239,2.515,1.219,0.152
1593993493415675,2.477,1.296,0.152
1593993493917200,2.477,1.22,0.152
1593993494418630,2.477,1.296,0.152
1593993494920179,2.553,1.219,0.152
1593993495421608,2.477,1.296,0.152
1593993495923033,2.477,1.296,0.152
1593993496424589,2.477,1.296,0.152
1593993496926139,2.515,1.296,0.152
1593993497427618,2.477,1.22,0.152
1593993497929042,2.439,1.22,0.152
1593993498430475,2.477,1.295,0.152
1593993498933006,2.515,1.219,0.152
1593993499434434,2.515,1.296,0.152
1593993499935818,2.477,1.296,0.152
1593993500437260,2.477,1.22,0.152
1593993500938736,2.553,1.296,0.152
1593993501440182,2.477,1.296,0.152
1593993501941590,2.477,1.22,0.152
1593993502443250,2.477,1.296,0.152
1593993502944875,2.553,1.296,0.152
1593993503446282,2.477,1.296,0.152
1593993503947760,2.477,1.296,0.152
1593993504449159,2.477,1.296,0.152
1593993504950516,2.515,1.296,0.152
1593993505451929,2.515,1.296,0.152
1593993505953382,2.515,1.296,0.152
1593993506454828,2.439,1.296,0.152
1593993506956593,2.515,1.295,0.152
1593993507458404,2.477,1.22,0.152
1593993507960187,2.477,1.296,0.152
1593993508462409,2.477,1.296,0.152
1593993508964136,2.553,1.295,0.152
1593993509465961,2.477,1.22,0.152
1593993509967572,2.477,1.296,0.152
1593993510468985,2.477,1.296,0.152
1593993510970701,2.553,1.296,0.152
1593993511472463,2.515,1.296,0.152
1593993511974219,2.477,1.296,0.152
1593993512475987,2.477,1.22,0.152
1593993512977409,2.553,1.295,0.152
1593993513478816,2.515,1.295,0.152
1593993513980400,2.477,1.295,0.152
1593993514481926,2.477,1.296,0.152
1593993514983378,2.515,1.22,0.152
1593993515484804,2.477,1.22,0.152
1593993515986234,2.515,1.295,0.152
1593993516488055,2.515,1.295,0.152
1593993516989462,2.515,1.22,0.152
1593993517491140,2.515,1.296,0.152
1593993517992870,2.477,1.296,0.152
1593993518494304,2.477,1.296,0.152
1593993518995794,2.553,1.295,0.152
1593993519497227,2.515,1.295,0.152
1593993519998660,2.477,1.295,0.152
1593993520500099,2.477,1.296,0.152
1593993521003530,2.515,1.296,0.152
1593993521504936,2.515,1.296,0.152
1593993522006352,2.477,1.296,0.152
1593993522507853,2.477,1.22,0.152
1593993523011585,2.553,1.296,0.152
1593993523513000,2.515,1.296,0.152
1593993524014430,2.477,1.22,0.152
1593993524515836,2.477,1.296,0.152
1593993525017256,2.553,1.296,0.152
1593993525518695,2.439,1.22,0.152
1593993526020117,2.477,1.296,0.152
1593993526521634,2.477,1.22,0.152
1593993527023098,2.515,1.296,0.152
1593993527524621,2.515,1.296,0.152
1593993528028283,2.477,1.22,0.152
1593993528529701,2.439,1.296,0.152
1593993529031096,2.553,1.295,0.152
1593993529532553,2.477,1.296,0.152
1593993530033991,2.477,1.295,0.152
1593993530535424,2.477,1.296,0.152
1593993531036822,2.515,1.22,0.152
1593993531538225,2.477,1.22,0.152
1593993532039781,2.439,1.22,0.152
1593993532541175,2.439,1.22,0.152
1593993533044896,2.515,1.296,0.152
1593993533546432,2.477,1.22,0.152
1593993534047902,2.439,1.22,0.152
1593993534549320,2.477,1.296,0.152
1593993535050699,2.515,1.295,0.152
1593993535552250,2.515,1.295,0.152
1593993536053667,2.515,1.296,0.152
1593993536555083,2.439,1.22,0.152
1593993537056799,2.515,1.22,0.152
1593993537558230,2.477,1.22,0.152
1593993538059895,2.439,1.22,0.152
1593993538561825,2.439,1.22,0.152
1593993539063376,2.477,1.219,0.152
1593993539564822,2.477,1.219,0.152
1593993540066574,2.477,1.219,0.152
1593993540568306,2.439,1.22,0.152
1593993541069910,2.515,1.22,0.152
1593993541571343,2.439,1.22,0.152
1593993542072790,2.439,1.22,0.152
1593993542574209,2.477,1.295,0.076
1593993543075658,2.515,1.296,0.152
1593993543577076,2.515,1.296,0.152
1593993544078495,2.477,1.22,0.152
1593993544580008,2.439,1.22,0.152
1593993545081484,2.515,1.295,0.152
1593993545582987,2.477,1.22,0.152
1593993546084370,2.439,1.22,0.152
1593993546585771,2.477,1.296,0.152
1593993547089042,2.553,1.296,0.152
1593993547590749,2.515,1.296,0.152
1593993548092319,2.515,1.296,0.152
1593993548593720,2.477,1.219,0.152
1593993549095457,2.477,1.22,0.152
1593993549597428,2.515,1.219,0.152
1593993550099131,2.477,1.219,0.152
1593993550600821,2.477,1.22,0.152
1593993551102303,2.629,1.219,0.152
1593993551603888,2.82,1.219,0.152
1593993552105353,2.858,1.219,0.152
1593993552606765,2.858,1.219,0.152
1593993553108200,2.629,1.219,0.152
1593993553609670,2.553,1.296,0.152
1593993554111094,2.477,1.22,0.152
1593993554612541,2.477,1.296,0.152
1593993555114016,2.477,1.296,0.152
1593993555615460,2.515,1.296,0.152
1593993556116974,2.477,1.22,0.152
1593993556619487,2.401,1.22,0.152
1593993557120909,2.439,1.22,0.152
1593993557622324,2.477,1.22,0.152
1593993558123762,2.477,1.22,0.152
1593993558625249,2.477,1.22,0.152
1593993559126716,2.439,1.22,0.152
1593993559628287,2.515,1.22,0.152
1593993560129697,2.477,1.22,0.152
1593993560631100,2.439,1.295,0.152
1593993561132613,2.439,1.22,0.152
1593993561634060,2.515,1.295,0.152
1593993562135515,2.553,1.295,0.152
1593993562636999,2.477,1.22,0.152
1593993563138426,2.477,1.22,0.152
1593993563641781,2.515,1.296,0.152
1593993564145302,2.477,1.22,0.152
1593993564646706,2.477,1.22,0.152
1593993565148099,2.439,1.219,0.152
1593993565649497,2.477,1.22,0.152
1593993566150884,2.515,1.219,0.152
1593993566652324,2.439,1.22,0.152
1593993567153723,2.477,1.296,0.152
1593993567655161,2.515,1.219,0.152
1593993568156580,2.477,1.22,0.152
1593993568658006,2.477,1.22,0.152
1593993569161794,2.439,1.22,0.152
1593993569663205,2.515,1.22,0.152
1593993570164703,2.515,1.22,0.152
1593993570666164,2.439,1.22,0.152
1593993571167926,2.439,1.22,0.152
1593993571669602,2.439,1.22,0.152
1593993572171004,2.477,1.296,0.152
1593993572672468,2.477,1.22,0.152
1593993573173873,2.439,1.219,0.152
1593993573675282,2.477,1.219,0.152
1593993574178873,2.477,1.219,0.152
1593993574680405,2.477,1.22,0.152
1593993575181820,2.477,1.296,0.152
1593993575683333,2.515,1.296,0.152
1593993576184793,2.515,1.296,0.152
1593993576686265,2.477,1.22,0.152
1593993577187627,2.477,1.22,0.152
1593993577689062,2.515,1.296,0.152
1593993578190456,2.477,1.22,0.152
1593993578691893,2.439,1.22,0.152
1593993579193662,2.477,1.295,0.152
1593993579695146,2.515,1.296,0.152
1593993580196574,2.477,1.22,0.152
1593993580698342,2.515,1.296,0.152
1593993581200184,2.477,1.296,0.152
1593993581702405,2.477,1.296,0.152
1593993582204250,2.477,1.22,0.152
1593993582705795,2.439,1.22,0.152
1593993583207208,2.439,1.22,0.152
1593993583708731,2.477,1.22,0.152
1593993584212440,2.515,1.295,0.152
1593993584713874,2.477,1.296,0.152
1593993585215372,2.477,1.296,0.152
1593993585716783,2.515,1.296,0.152
1593993586218224,2.477,1.22,0.152
1593993586719792,2.439,1.22,0.152
1593993587221217,2.439,1.22,0.152
1593993587722618,2.477,1.22,0.152
1593993588224056,2.477,1.219,0.152
1593993588725504,2.477,1.22,0.152
1593993589227575,2.439,1.22,0.152
1593993589729004,2.477,1.296,0.152
1593993590230433,2.477,1.22,0.152
1593993590731840,2.439,1.22,0.152
1593993591233342,2.439,1.22,0.152
1593993591734777,2.477,1.22,0.152
1593993592236148,2.477,1.22,0.152
1593993592737566,2.477,1.22,0.152
1593993593239005,2.477,1.22,0.152
1593993593740400,2.439,1.22,0.152
1593993594244064,2.477,1.22,0.152
1593993594745565,2.477,1.22,0.152
1593993595247025,2.439,1.22,0.152
1593993595748486,2.515,1.295,0.152
1593993596249965,2.477,1.219,0.152
1593993596751416,2.439,1.22,0.152
1593993597253609,2.477,1.296,0.152
1593993597755480,2.477,1.22,0.152
1593993598257175,2.477,1.22,0.152
1593993598758945,2.439,1.22,0.152
1593993599263096,2.477,1.295,0.152
1593993599764861,2.553,1.296,0.152
1593993600266482,2.477,1.22,0.152
1593993600767942,2.439,1.22,0.152
1593993601269379,2.477,1.295,0.152
1593993601770810,2.515,1.22,0.152
1593993602272404,2.477,1.296,0.152
1593993602773835,2.477,1.296,0.152
1593993603275244,2.439,1.22,0.152
1593993603777290,2.515,1.296,0.152
1593993604284209,2.515,1.22,0.152
1593993604785697,2.439,1.22,0.152
1593993605287123,2.477,1.22,0.152
1593993605788783,2.515,1.296,0.152
1593993606290222,2.515,1.295,0.152
1593993606791653,2.515,1.296,0.152
1593993607293122,2.477,1.296,0.152
1593993607794559,2.477,1.219,0.152
1593993608296094,2.439,1.22,0.152
1593993608797526,2.439,1.22,0.152
1593993609298994,2.439,1.219,0.152
1593993609800438,2.477,1.22,0.152
1593993610304721,2.477,1.22,0.152
1593993610806155,2.439,1.22,0.152
1593993611307590,2.439,1.22,0.152
1593993611809034,2.515,1.295,0.152
1593993612310456,2.477,1.22,0.152
1593993612811952,2.477,1.296,0.152
1593993613313378,2.515,1.296,0.152
1593993613814778,2.477,1.22,0.152
1593993614316222,2.744,1.295,0.152
1593993614817699,2.858,1.219,0.152
1593993615319081,2.858,1.219,0.152
1593993615820604,2.782,1.219,0.152
1593993616321991,2.591,1.219,0.152
1593993616823455,2.515,1.296,0.152
1593993617324947,2.477,1.296,0.152
1593993617832605,2.477,1.22,0.152
1593993618334082,2.439,1.22,0.152
1593993618835512,2.477,1.22,0.152
1593993619336963,2.439,1.22,0.152
1593993619838436,2.515,1.296,0.152
1593993620339859,2.477,1.22,0.152
1593993620841272,2.439,1.22,0.152
1593993621342675,2.477,1.22,0.152
1593993621844140,2.553,1.296,0.152
1593993622345578,2.477,1.22,0.152
1593993622847065,2.439,1.22,0.152
1593993623348491,2.477,1.296,0.152
1593993623849987,2.515,1.22,0.152
1593993624351508,2.477,1.22,0.152
1593993624855381,2.477,1.296,0.152
1593993625357023,2.477,1.296,0.152
1593993625858429,2.515,1.22,0.152
1593993626359885,2.477,1.22,0.152
1593993626861254,2.439,1.22,0.152
1593993627362700,2.439,1.22,0.152
1593993627868799,2.515,1.22,0.152
1593993628370170,2.477,1.22,0.152
1593993628871634,2.477,1.22,0.152
1593993629373105,2.439,1.22,0.152
1593993629877034,2.553,1.296,0.152
1593993630378437,2.477,1.219,0.152
1593993630879853,2.477,1.22,0.152
1593993631381312,2.477,1.22,0.152
1593993631882742,2.515,1.296,0.152
1593993632384149,2.477,1.296,0.152
1593993632885579,2.477,1.22,0.152
1593993633389567,2.477,1.22,0.152
1593993633892212,2.553,1.296,0.152
1593993634393626,2.515,1.296,0.152
1593993634897595,2.477,1.296,0.152
1593993635399122,2.477,1.296,0.152
1593993635900735,2.477,1.22,0.152
1593993636402143,2.439,1.22,0.152
1593993636903603,2.477,1.296,0.152
1593993637405015,2.439,1.22,0.152
1593993637907869,2.515,1.219,0.152
1593993638409298,2.477,1.22,0.152
1593993638910672,2.477,1.22,0.152
1593993639412195,2.477,1.22,0.152
1593993639913685,2.515,1.296,0.152
1593993640415096,2.477,1.22,0.152
1593993640916720,2.439,1.22,0.152
1593993641418192,2.439,1.22,0.152
1593993641923047,2.515,1.219,0.152
1593993642424904,2.477,1.22,0.152
1593993642926336,2.477,1.219,0.152
1593993643427743,2.477,1.296,0.152
1593993643929377,2.515,1.295,0.152
1593993644430929,2.515,1.296,0.152
1593993644932435,2.477,1.22,0.152
1593993645433947,2.477,1.22,0.152
1593993645935407,2.477,1.22,0.152
1593993646436846,2.439,1.22,0.152
1593993646938254,2.477,1.22,0.152
1593993647439716,2.439,1.22,0.152
1593993647941193,2.477,1.22,0.152
1593993648442656,2.477,1.22,0.152
1593993648944099,2.477,1.22,0.152
1593993649448413,2.439,1.22,0.152
1593993649949837,2.553,1.219,0.152
1593993650451512,2.477,1.22,0.152
1593993650953017,2.477,1.296,0.152
1593993651454416,2.439,1.22,0.152
1593993651962860,2.515,1.22,0.152
1593993652464350,2.515,1.296,0.152
1593993652965793,2.477,1.296,0.152
1593993653467246,2.477,1.296,0.152
1593993653968700,2.515,1.296,0.152
1593993654470181,2.553,1.295,0.152
1593993654971672,2.591,1.372,0.152
1593993655474644,2.591,1.372,0.152
1593993655976119,2.591,1.295,0.152
1593993656477595,2.591,1.372,0.152
1593993656979075,2.591,1.372,0.152
1593993657480561,2.591,1.372,0.152
1593993657982037,2.591,1.372,0.152
1593993658483472,2.629,1.372,0.152
1593993658984921,2.629,1.372,0.152
1593993659486341,2.591,1.372,0.152
1593993659987802,2.591,1.295,0.152
1593993660491697,2.629,1.372,0.152
1593993660993140,2.591,1.372,0.152
1593993661494559,2.591,1.372,0.152
1593993661996074,2.591,1.372,0.152
1593993662497512,2.591,1.372,0.152
1593993662998915,2.553,1.372,0.152
1593993663500362,2.591,1.372,0.152
1593993664001869,2.629,1.372,0.152
1593993664503242,2.591,1.372,0.152
1593993665004901,2.591,1.372,0.152
1593993665506355,2.591,1.372,0.152
1593993666007948,2.591,1.372,0.152
1593993666509392,2.591,1.295,0.152
1593993667010872,2.591,1.372,0.152
1593993667512578,2.591,1.372,0.152
1593993668015037,2.629,1.372,0.152
1593993668516667,2.591,1.372,0.152
1593993669018156,2.629,1.372,0.152
1593993669519569,2.591,1.372,0.152
1593993670021105,2.591,1.296,0.152
1593993670522775,2.591,1.372,0.152
1593993671024399,2.629,1.372,0.152
1593993671525874,2.629,1.372,0.152
1593993672027682,2.629,1.372,0.152
1593993672529484,2.591,1.372,0.152
1593993673031110,2.591,1.372,0.152
1593993673532598,2.591,1.372,0.152
1593993674033990,2.591,1.372,0.152
1593993674535405,2.515,1.296,0.152
1593993675036805,2.591,1.372,0.152
1593993675538217,2.591,1.372,0.152
1593993676039646,2.629,1.372,0.152
1593993676541085,2.629,1.372,0.152
1593993677042573,2.705,1.372,0.152
1593993677543988,2.934,1.372,0.152
1593993678045372,3.01,1.372,0.152
1593993678546784,3.01,1.372,0.152
1593993679048246,2.744,1.295,0.152
1593993679551838,2.629,1.372,0.152
1593993680053244,2.629,1.372,0.152
1593993680554715,2.591,1.295,0.152
1593993681056160,2.591,1.372,0.152
1593993681557571,2.591,1.372,0.152
1593993682059054,2.591,1.372,0.152
1593993682560596,2.553,1.296,0.152
1593993683062045,2.553,1.296,0.152
1593993683563528,2.553,1.295,0.152
1593993684072459,2.629,1.372,0.152
1593993684573900,2.591,1.372,0.152
