TimeStamp,A7 Voltage(V),A7 Current(A),A7 Power(W),A15 Voltage(V),A15 Current(A),A15 Power(W),GPU Power(W)
1606786890124065667,1.100000,0.537000,0.634000,1.100000,3.485000,3.941000,0.095000
1606786890670290137,1.100000,0.542000,0.640000,1.100000,3.538000,4.005000,0.098000
1606786891212665338,1.100000,0.544000,0.642000,1.100000,3.562000,4.032000,0.102000
1606786891752317598,1.100000,0.547000,0.646000,1.100000,3.611000,4.087000,0.104000
1606786892292366647,1.100000,0.549000,0.648000,1.100000,3.628000,4.110000,0.107000
1606786892832669862,1.100000,0.551000,0.650000,1.100000,3.645000,4.129000,0.109000
1606786893367364236,1.100000,0.550000,0.649000,1.100000,3.634000,4.117000,0.112000
1606786893914377741,1.100000,0.553000,0.653000,1.100000,3.640000,4.124000,0.113000
1606786894452385761,1.100000,0.554000,0.654000,1.100000,3.655000,4.141000,0.116000
1606786894992509101,1.100000,0.555000,0.655000,1.100000,3.682000,4.171000,0.118000
1606786895532150153,1.100000,0.554000,0.654000,1.100000,3.683000,4.172000,0.119000
1606786896077320086,1.100000,0.556000,0.656000,1.100000,3.658000,4.144000,0.121000
1606786896612770663,1.100000,0.558000,0.658000,1.100000,3.709000,4.202000,0.122000
1606786897155005865,1.100000,0.559000,0.660000,1.100000,3.718000,4.212000,0.123000
1606786897692381680,1.100000,0.559000,0.660000,1.100000,3.695000,4.186000,0.124000
1606786898232349812,1.100000,0.557000,0.657000,1.100000,3.709000,4.202000,0.124000
1606786898777341580,1.100000,0.560000,0.661000,1.100000,3.729000,4.224000,0.125000
1606786899313165821,1.100000,0.562000,0.663000,1.100000,3.739000,4.236000,0.126000
1606786899857707091,1.100000,0.560000,0.661000,1.100000,3.729000,4.224000,0.127000
1606786900397988179,1.100000,0.563000,0.664000,1.100000,3.714000,4.207000,0.128000
1606786900942337992,1.100000,0.563000,0.664000,1.100000,3.725000,4.220000,0.129000
1606786901482374540,1.100000,0.562000,0.663000,1.100000,3.757000,4.256000,0.129000
1606786902027310641,1.100000,0.563000,0.664000,1.100000,3.730000,4.226000,0.130000
1606786902562384178,1.100000,0.562000,0.663000,1.100000,3.743000,4.240000,0.132000
1606786903107361862,1.100000,0.564000,0.665000,1.100000,3.754000,4.260000,0.131000
1606786903647987573,1.100000,0.564000,0.665000,1.100000,3.771000,4.280000,0.132000
1606786904193193046,1.100000,0.564000,0.665000,1.100000,3.764000,4.272000,0.132000
1606786904737381068,1.100000,0.564000,0.665000,1.100000,3.731000,4.234000,0.133000
1606786905277958612,1.100000,0.565000,0.666000,1.100000,3.778000,4.288000,0.133000
1606786905812995066,1.100000,0.565000,0.666000,1.100000,3.780000,4.290000,0.134000
1606786906352272368,1.100000,0.565000,0.666000,1.100000,3.743000,4.248000,0.135000
1606786906898008005,1.100000,0.565000,0.666000,1.100000,3.757000,4.264000,0.135000
1606786907442532274,1.100000,0.567000,0.669000,1.100000,3.789000,4.300000,0.136000
1606786907982360197,1.100000,0.566000,0.667000,1.100000,3.768000,4.276000,0.136000
1606786908527322714,1.100000,0.566000,0.667000,1.100000,3.784000,4.294000,0.137000
1606786909062392958,1.100000,0.567000,0.669000,1.100000,3.779000,4.289000,0.137000
1606786909608047929,1.100000,0.567000,0.669000,1.100000,3.782000,4.292000,0.138000
1606786910152355574,1.100000,0.568000,0.670000,1.100000,3.800000,4.313000,0.138000
1606786910692821493,1.100000,0.567000,0.669000,1.100000,3.792000,4.303000,0.138000
1606786911232350501,1.100000,0.566000,0.667000,1.100000,3.794000,4.306000,0.139000
1606786911777358892,1.100000,0.568000,0.670000,1.100000,3.809000,4.323000,0.139000
1606786912312837217,1.100000,0.569000,0.671000,1.100000,3.809000,4.323000,0.140000
1606786912852203518,1.100000,0.568000,0.670000,1.100000,3.799000,4.311000,0.140000
1606786913398095194,1.100000,0.569000,0.671000,1.100000,3.788000,4.299000,0.141000
1606786913942347048,1.100000,0.569000,0.671000,1.100000,3.817000,4.332000,0.141000
1606786914482357719,1.100000,0.569000,0.671000,1.100000,3.820000,4.335000,0.141000
1606786915027334151,1.100000,0.569000,0.671000,1.100000,3.811000,4.325000,0.141000
1606786915562401145,1.100000,0.569000,0.671000,1.100000,3.795000,4.307000,0.142000
1606786916107552576,1.100000,0.570000,0.672000,1.100000,3.819000,4.334000,0.142000
1606786916647799329,1.100000,0.571000,0.673000,1.100000,3.816000,4.331000,0.143000
1606786917192883468,1.100000,0.570000,0.672000,1.100000,3.817000,4.332000,0.143000
1606786917728229877,1.100000,0.570000,0.672000,1.100000,3.801000,4.314000,0.143000
1606786918262400876,1.100000,0.571000,0.673000,1.100000,3.815000,4.330000,0.144000
1606786918797591577,1.100000,0.572000,0.674000,1.100000,3.832000,4.349000,0.144000
1606786919342270927,1.100000,0.572000,0.674000,1.100000,3.828000,4.344000,0.144000
1606786919882361889,1.100000,0.571000,0.673000,1.100000,3.785000,4.295000,0.144000
1606786920419036747,1.100000,0.571000,0.673000,1.100000,3.836000,4.353000,0.145000
1606786920957245929,1.100000,0.572000,0.674000,1.100000,3.839000,4.357000,0.145000
1606786921512276839,1.100000,0.572000,0.674000,1.100000,3.842000,4.360000,0.145000
1606786922052363384,1.100000,0.572000,0.674000,1.100000,3.813000,4.327000,0.146000
1606786922592671553,1.100000,0.572000,0.674000,1.100000,3.842000,4.360000,0.146000
1606786923132392392,1.100000,0.573000,0.676000,1.100000,3.832000,4.349000,0.146000
1606786923674459799,1.100000,0.573000,0.676000,1.100000,3.844000,4.362000,0.147000
1606786924212357857,1.100000,0.572000,0.674000,1.100000,3.818000,4.333000,0.147000
1606786924752355861,1.100000,0.573000,0.676000,1.100000,3.843000,4.361000,0.147000
1606786925292597571,1.100000,0.573000,0.676000,1.100000,3.848000,4.367000,0.148000
1606786925832320576,1.100000,0.572000,0.674000,1.100000,3.852000,4.375000,0.148000
1606786926374194818,1.100000,0.573000,0.676000,1.100000,3.827000,4.343000,0.148000
1606786926918904042,1.100000,0.574000,0.677000,1.100000,3.851000,4.370000,0.148000
1606786927462583189,1.100000,0.573000,0.676000,1.100000,3.854000,4.374000,0.148000
1606786928007560411,1.100000,0.575000,0.678000,1.100000,3.855000,4.375000,0.149000
1606786928547365207,1.100000,0.572000,0.674000,1.100000,3.820000,4.335000,0.149000
1606786929082945112,1.100000,0.575000,0.678000,1.100000,3.859000,4.379000,0.150000
1606786929624011775,1.100000,0.573000,0.676000,1.100000,3.859000,4.379000,0.150000
1606786930168950622,1.100000,0.574000,0.677000,1.100000,3.850000,4.369000,0.150000
1606786930712842268,1.100000,0.573000,0.676000,1.100000,3.838000,4.356000,0.150000
1606786931252757354,1.100000,0.574000,0.677000,1.100000,3.840000,4.362000,0.150000
1606786931792586316,1.100000,0.575000,0.678000,1.100000,3.859000,4.383000,0.150000
1606786932332347279,1.100000,0.574000,0.677000,1.100000,3.865000,4.390000,0.151000
1606786932874103687,1.100000,0.575000,0.678000,1.100000,3.839000,4.361000,0.151000
1606786933418914243,1.100000,0.575000,0.678000,1.100000,3.843000,4.365000,0.151000
1606786933962549847,1.100000,0.576000,0.679000,1.100000,3.869000,4.395000,0.152000
1606786934507375278,1.100000,0.575000,0.678000,1.100000,3.870000,4.396000,0.152000
1606786935047329905,1.100000,0.575000,0.678000,1.100000,3.823000,4.342000,0.152000
1606786935582794894,1.100000,0.576000,0.679000,1.100000,3.871000,4.397000,0.153000
1606786936124043139,1.100000,0.576000,0.679000,1.100000,3.874000,4.400000,0.153000
1606786936668853319,1.100000,0.576000,0.679000,1.100000,3.857000,4.381000,0.153000
1606786937212650297,1.100000,0.576000,0.679000,1.100000,3.847000,4.366000,0.153000
1606786937752306593,1.100000,0.576000,0.679000,1.100000,3.871000,4.397000,0.153000
1606786938292626884,1.100000,0.575000,0.678000,1.100000,3.865000,4.390000,0.153000
1606786938832220764,1.100000,0.577000,0.680000,1.100000,3.880000,4.407000,0.153000
1606786939373932088,1.100000,0.575000,0.678000,1.100000,3.874000,4.400000,0.154000
1606786939918915184,1.100000,0.576000,0.679000,1.100000,3.837000,4.354000,0.154000
1606786940462530538,1.100000,0.576000,0.679000,1.100000,3.860000,4.381000,0.155000
1606786941007888381,1.100000,0.576000,0.679000,1.100000,3.881000,4.404000,0.155000
1606786941552175689,1.100000,0.574000,0.677000,1.100000,3.872000,4.394000,0.155000
1606786942092585729,1.100000,0.576000,0.679000,1.100000,3.832000,4.353000,0.155000
1606786942632536064,1.100000,0.579000,0.683000,1.100000,3.888000,4.416000,0.155000
1606786943175068758,1.100000,0.578000,0.682000,1.100000,3.886000,4.414000,0.155000
1606786943712716607,1.100000,0.576000,0.679000,1.100000,3.858000,4.378000,0.156000
1606786944252734858,1.100000,0.578000,0.682000,1.100000,3.866000,4.391000,0.156000
1606786944792774567,1.100000,0.578000,0.682000,1.100000,3.893000,4.422000,0.156000
1606786945332337737,1.100000,0.578000,0.682000,1.100000,3.879000,4.406000,0.156000
1606786945874200935,1.100000,0.578000,0.682000,1.100000,3.877000,4.404000,0.156000
1606786946412395697,1.100000,0.578000,0.682000,1.100000,3.879000,4.406000,0.156000
1606786946952549989,1.100000,0.578000,0.682000,1.100000,3.878000,4.405000,0.157000
1606786947492789863,1.100000,0.578000,0.682000,1.100000,3.898000,4.428000,0.157000
1606786948032299908,1.100000,0.578000,0.682000,1.100000,3.883000,4.411000,0.157000
1606786948577343961,1.100000,0.577000,0.680000,1.100000,3.879000,4.406000,0.157000
1606786949117358086,1.100000,0.578000,0.682000,1.100000,3.893000,4.422000,0.158000
1606786949662299431,1.100000,0.579000,0.683000,1.100000,3.898000,4.428000,0.158000
1606786950197832792,1.100000,0.578000,0.682000,1.100000,3.901000,4.431000,0.158000
1606786950737580752,1.100000,0.578000,0.682000,1.100000,3.860000,4.384000,0.158000
1606786951277892584,1.100000,0.579000,0.683000,1.100000,3.900000,4.430000,0.158000
1606786951817352588,1.100000,0.579000,0.683000,1.100000,3.905000,4.436000,0.158000
1606786952359644240,1.100000,0.578000,0.682000,1.100000,3.896000,4.425000,0.158000
1606786952902927803,1.100000,0.578000,0.682000,1.100000,3.874000,4.400000,0.158000
1606786953442346223,1.100000,0.578000,0.682000,1.100000,3.902000,4.432000,0.159000
1606786953982346807,1.100000,0.580000,0.684000,1.100000,3.906000,4.437000,0.159000
1606786954527231859,1.100000,0.579000,0.683000,1.100000,3.887000,4.415000,0.159000
1606786955062307723,1.100000,0.579000,0.683000,1.100000,3.867000,4.392000,0.160000
1606786955607399316,1.100000,0.581000,0.685000,1.100000,3.909000,4.440000,0.160000
1606786956147857104,1.100000,0.579000,0.683000,1.100000,3.911000,4.442000,0.160000
1606786956692402492,1.100000,0.581000,0.685000,1.100000,3.899000,4.429000,0.160000
1606786957232315409,1.100000,0.579000,0.683000,1.100000,3.863000,4.384000,0.160000
1606786957777378710,1.100000,0.579000,0.683000,1.100000,3.897000,4.426000,0.160000
1606786958312720405,1.100000,0.580000,0.684000,1.100000,3.912000,4.444000,0.160000
1606786958852176492,1.100000,0.579000,0.683000,1.100000,3.891000,4.420000,0.160000
1606786959397813039,1.100000,0.579000,0.683000,1.100000,3.886000,4.414000,0.161000
1606786959942356510,1.100000,0.580000,0.684000,1.100000,3.898000,4.428000,0.160000
1606786960482353634,1.100000,0.579000,0.683000,1.100000,3.901000,4.431000,0.161000
1606786961027146936,1.100000,0.579000,0.683000,1.100000,3.915000,4.447000,0.161000
1606786961562709421,1.100000,0.579000,0.683000,1.100000,3.900000,4.430000,0.161000
1606786962107351016,1.100000,0.580000,0.684000,1.100000,3.885000,4.413000,0.161000
1606786962648776173,1.100000,0.581000,0.685000,1.100000,3.917000,4.449000,0.162000
1606786963192636023,1.100000,0.580000,0.684000,1.100000,3.921000,4.454000,0.162000
1606786963732356815,1.100000,0.579000,0.683000,1.100000,3.908000,4.439000,0.162000
1606786964277393949,1.100000,0.581000,0.685000,1.100000,3.897000,4.426000,0.162000
1606786964812924475,1.100000,0.580000,0.684000,1.100000,3.923000,4.456000,0.162000
1606786965352369602,1.100000,0.580000,0.684000,1.100000,3.896000,4.425000,0.162000
1606786965894594545,1.100000,0.580000,0.684000,1.100000,3.899000,4.429000,0.162000
1606786966437357068,1.100000,0.580000,0.684000,1.100000,3.901000,4.431000,0.163000
1606786966978050354,1.100000,0.580000,0.684000,1.100000,3.925000,4.458000,0.162000
1606786967512873093,1.100000,0.581000,0.685000,1.100000,3.922000,4.455000,0.163000
1606786968052193720,1.100000,0.581000,0.685000,1.100000,3.928000,4.462000,0.163000
1606786968592636882,1.100000,0.581000,0.685000,1.100000,3.900000,4.430000,0.163000
1606786969132375403,1.100000,0.581000,0.685000,1.100000,3.915000,4.447000,0.163000
1606786969674687397,1.100000,0.581000,0.685000,1.100000,3.929000,4.463000,0.163000
1606786970212831794,1.100000,0.582000,0.686000,1.100000,3.928000,4.462000,0.164000
1606786970752367731,1.100000,0.581000,0.685000,1.100000,3.871000,4.397000,0.164000
1606786971265836182,1.100000,0.582000,0.686000,1.100000,3.924000,4.457000,0.164000
