timestamp	VIRTUAL_SCALING	CPU0_F	CPU1_F	CPU2_F	CPU3_F	CPU4_F	CPU5_F	CPU6_F	CPU7_F	GPU_FREQ	CPU_GOVERNOR	EMC_F	TEMP0
1606786770032820173	1	300	500	500	500	1300	1300	1300	1300	600	ondemand	-	49
1606786770118321518 	0	500	500	500	1200	1000	1000	1000	1000	600	ondemand	-	48
1606786771723573231	1	1400	1400	1400	1400	900	900	900	900	600	ondemand	-	47
1606786771835504161 	0	1400	1400	1400	1400	700	700	700	700	600	ondemand	-	47
1606786773481195455	1	1400	1400	1400	1400	700	700	700	700	600	ondemand	-	47
1606786773604709398 	0	1400	1400	1400	1400	600	800	800	800	600	ondemand	-	47
1606786775288756620	1	1400	1400	1400	1400	400	400	400	900	600	ondemand	-	46
1606786775396566534 	0	1400	1400	1400	1400	900	900	900	600	600	ondemand	-	47
1606786777135472665	1	1400	1400	1400	1400	900	900	900	900	600	ondemand	-	46
1606786777263773702 	0	1400	1400	1400	1400	600	600	600	600	600	ondemand	-	46
1606786778961802169	1	1400	1400	1400	1400	800	800	800	800	600	ondemand	-	46
1606786779084867072 	0	1400	1400	1400	1400	700	700	700	700	600	ondemand	-	46
1606786780749140414	1	1400	1400	1400	1400	1000	1000	1000	1000	600	ondemand	-	46
1606786780897747492 	0	1400	1400	1400	1400	500	500	500	600	600	ondemand	-	46
1606786782545857683	1	1400	1400	1400	1400	1100	1100	1100	1100	600	ondemand	-	46
1606786782663536869 	0	1400	1400	1400	1400	700	700	700	700	600	ondemand	-	46
1606786784344188024	1	1400	1400	1400	1400	1000	1000	1000	1000	600	ondemand	-	46
1606786784461676628 	0	1400	1400	1400	1400	700	700	700	700	600	ondemand	-	46
1606786786175659950	1	1400	1400	1400	1400	700	700	700	700	600	ondemand	-	45
1606786786312219603 	0	1400	1400	1400	1400	600	600	600	600	600	ondemand	-	45
1606786788058515307	1	1400	1400	1400	1400	700	700	700	700	600	ondemand	-	45
1606786788165152895 	0	1400	1400	1400	1400	800	800	800	800	600	ondemand	-	45
1606786789846203169	1	1400	1400	1400	1400	1000	1000	1000	1000	600	ondemand	-	46
1606786789924344142 	0	1400	1400	1400	1400	1300	1300	1300	1300	600	ondemand	-	46
1606786791534425773	1	1400	1400	1400	1400	1600	1600	1600	1600	600	ondemand	-	48
1606786791608717312 	0	1400	1400	1400	1400	1200	1200	1200	1200	600	ondemand	-	46
1606786793216630539	1	1400	1400	1400	1400	1700	1700	1700	1700	600	ondemand	-	47
1606786793285798818 	0	1400	1400	1400	1400	1700	1700	1100	1100	600	ondemand	-	46
1606786794874286622	1	1400	1400	1400	1400	1700	1700	1700	1700	600	ondemand	-	46
1606786794975211038 	0	1400	1400	1400	1400	900	900	900	900	600	ondemand	-	46
1606786796556123347	1	1400	1400	1400	1400	1800	1800	1800	1800	600	ondemand	-	46
1606786796663937303 	0	1400	1400	1400	1400	800	800	800	800	600	ondemand	-	46
1606786798291272198	1	1400	1400	1400	1400	1100	1100	1100	1100	600	ondemand	-	45
1606786798427555143 	0	1400	1400	1400	1400	700	700	700	700	600	ondemand	-	45
1606786800138584226	1	1400	1400	1400	1400	800	800	800	800	600	ondemand	-	45
1606786800255237668 	0	1400	1400	1400	1400	700	700	700	700	600	ondemand	-	45
1606786801955830815	1	1400	1400	1400	1400	800	800	800	800	600	ondemand	-	45
1606786802077841933 	0	1400	1400	1400	1400	700	700	700	700	600	ondemand	-	45
1606786803754919225	1	1400	1400	1400	1400	900	900	900	900	600	ondemand	-	45
1606786803884151047 	0	1400	1400	1400	1400	600	600	600	800	600	ondemand	-	45
1606786805548112878	1	1400	1400	1400	1400	1000	1000	1000	1000	600	ondemand	-	44
1606786805675852126 	0	1400	1400	1400	1400	600	600	600	600	600	ondemand	-	44
1606786807364336304	1	1400	1400	1400	1400	800	800	800	800	600	ondemand	-	44
1606786807473708458 	0	1400	1400	1400	1400	800	800	800	800	600	ondemand	-	45
1606786809182867339	1	1400	1400	1400	1400	700	700	700	700	600	ondemand	-	44
1606786809314545854 	0	1400	1400	1400	1400	800	800	800	800	600	ondemand	-	44
1606786811008341247	1	1400	1400	1400	1400	600	600	600	600	600	ondemand	-	44
1606786811144980523 	0	1400	1400	1400	1400	600	600	600	600	600	ondemand	-	44
1606786812826435909	1	1400	1400	1400	1400	700	700	700	700	600	ondemand	-	44
1606786812927573905 	0	1400	1400	1400	1400	1000	1000	1000	1000	600	ondemand	-	45
1606786814616670575	1	1400	1400	1400	1400	1700	1700	1700	1700	600	ondemand	-	47
1606786814684199614 	0	1400	1400	1400	1400	1700	1700	1300	1300	600	ondemand	-	46
1606786816274160358	1	1400	1400	1400	1400	1700	1700	1700	1700	600	ondemand	-	45
1606786816344300672 	0	1400	1400	1400	1400	1400	1400	1400	1400	600	ondemand	-	45
1606786817940874624	1	1400	1400	1400	1400	1400	1400	1400	1400	600	ondemand	-	45
1606786818010957813 	0	1400	1400	1400	1400	1400	1400	1400	1400	600	ondemand	-	45
1606786819597014580	1	1400	1400	1400	1400	1800	1800	1800	1800	600	ondemand	-	45
1606786819659966730 	0	1400	1400	1400	1400	1800	1800	1800	1800	600	ondemand	-	46
1606786821243389179	1	1400	1400	1400	1400	1700	1700	1700	1700	600	ondemand	-	46
1606786821333258621 	0	1400	1400	1400	1400	900	900	900	900	600	ondemand	-	45
1606786822921587663	1	1400	1400	1400	1400	1800	1800	1800	1800	600	ondemand	-	45
1606786822998575810 	0	1400	1400	1400	1400	1800	900	900	900	600	ondemand	-	45
1606786824594385347	1	1400	1400	1400	1400	1600	1600	1000	1000	600	ondemand	-	44
1606786824688561594 	0	1400	1400	1400	1400	1000	1000	1000	800	600	ondemand	-	44
1606786826277945254	1	1400	1400	1400	1400	1800	1800	1800	1800	600	ondemand	-	46
1606786826371186591 	0	1400	1400	1400	1400	1000	1000	1000	1000	600	ondemand	-	45
1606786828013899918	1	1400	1400	1400	1400	900	900	600	600	600	ondemand	-	44
1606786828129742114 	0	1400	1400	1400	1400	800	800	800	800	600	ondemand	-	44
1606786829839134401	1	1400	1400	1400	1400	800	800	800	800	600	ondemand	-	44
1606786829967888642 	0	1400	1400	1400	1400	600	600	600	600	600	ondemand	-	44
1606786831662262354	1	1400	1400	1400	1400	800	800	800	800	600	ondemand	-	44
1606786831785671462 	0	1400	1400	1400	1400	700	700	700	600	600	ondemand	-	44
1606786833443121236	1	1400	1400	1400	1400	1100	1100	1100	1100	600	ondemand	-	44
1606786833581668875 	0	1400	1400	1400	1400	500	500	500	800	600	ondemand	-	44
1606786835255158549	1	1400	1400	1400	1400	900	900	900	900	600	ondemand	-	43
1606786835373761394 	0	1400	1400	1400	1400	700	700	700	700	600	ondemand	-	43
1606786837054029525	1	1400	1400	1400	1400	900	900	900	900	600	ondemand	-	43
1606786837183463845 	0	1400	1400	1400	1400	600	600	600	800	600	ondemand	-	44
1606786838876506062	1	1400	1400	1400	1400	700	700	700	700	600	ondemand	-	43
1606786838986602294 	0	1400	1400	1400	1400	800	800	800	700	600	ondemand	-	43
1606786840643310861	1	1400	1400	1400	1400	1100	1100	1100	1100	600	ondemand	-	43
1606786840782961368 	0	1400	1400	1400	1400	500	500	500	700	600	ondemand	-	43
1606786842476309040	1	1400	1400	1400	1400	700	700	700	700	600	ondemand	-	43
1606786842586690728 	0	1400	1400	1400	1400	800	800	800	700	600	ondemand	-	43
1606786844243347336	1	1400	1400	1400	1400	1100	1100	1100	1100	600	ondemand	-	43
1606786844374227813 	0	1400	1400	1400	1400	500	500	500	1800	600	ondemand	-	44
1606786846011402749	1	1400	1400	1400	1400	1800	1800	1800	1800	600	ondemand	-	44
1606786846077718462 	0	1400	1400	1400	1400	1800	1800	1800	1200	600	ondemand	-	45
1606786847669397597	1	1400	1400	1400	1400	1600	1600	1600	1600	600	ondemand	-	44
1606786847739228288 	0	1400	1400	1400	1400	1400	1400	1400	1400	600	ondemand	-	44
1606786849331106797	1	1400	1400	1400	1400	1800	1800	1800	1800	600	ondemand	-	44
1606786849402722851 	0	1400	1400	1400	1400	1200	1200	1200	1200	600	ondemand	-	44
1606786850988099149	1	1400	1400	1400	1400	1800	1800	1800	1800	600	ondemand	-	44
1606786851048025651 	0	1400	1400	1400	1400	1800	1800	1800	1800	600	ondemand	-	45
1606786852633404574	1	1400	1400	1400	1400	1700	1700	1700	1700	600	ondemand	-	44
1606786852702839725 	0	1400	1400	1400	1400	1300	1300	1300	1300	600	ondemand	-	44
1606786854287184112	1	1400	1400	1400	1400	1800	1800	1800	1800	600	ondemand	-	44
1606786854347085489 	0	1400	1400	1400	1400	1800	1800	1800	1800	600	ondemand	-	45
1606786855940103279	1	1400	1400	1400	1400	1500	1500	1500	1500	600	ondemand	-	44
1606786856009637096 	0	1400	1400	1400	1400	1400	1400	1400	1400	600	ondemand	-	44
1606786857593342986	1	1400	1400	1400	1400	1800	1800	1800	1800	600	ondemand	-	44
1606786857654057899 	0	1400	1400	1400	1400	1800	1800	1800	1800	600	ondemand	-	44
1606786859237054626	1	1400	1400	1400	1400	1700	1700	1700	1700	600	ondemand	-	44
1606786859308053975 	0	1400	1400	1400	1400	1300	1300	1300	1300	600	ondemand	-	44
1606786860891849946	1	1400	1400	1400	1400	1800	1800	1800	1800	600	ondemand	-	46
1606786860952104071 	0	1400	1400	1400	1400	1800	1800	1800	1800	600	ondemand	-	45
1606786862535175837	1	1400	1400	1400	1400	1700	1700	1700	1700	600	ondemand	-	44
1606786862611017531 	0	1400	1400	1400	1400	1100	1100	1100	1100	600	ondemand	-	44
1606786864197015653	1	1400	1400	1400	1400	1800	1800	1800	1800	600	ondemand	-	46
1606786864257311653 	0	1400	1400	1400	1400	1800	1800	1800	1800	600	ondemand	-	45
1606786865841145830	1	1400	1400	1400	1400	1700	1700	1700	1700	600	ondemand	-	45
1606786865928654035 	0	1400	1400	1400	1400	900	900	900	900	600	ondemand	-	44
1606786867526092959	1	1400	1400	1400	1400	1600	1600	1600	1600	600	ondemand	-	44
1606786867604692386 	0	1400	1400	1400	1400	1600	900	900	900	600	ondemand	-	44
1606786869207329444	1	1400	1400	1400	1400	1500	900	900	900	600	ondemand	-	43
1606786869313623157 	0	1400	1400	1400	1400	900	700	700	700	600	ondemand	-	43
1606786870906447693	1	1400	1400	1400	1400	1100	1100	1100	1100	600	ondemand	-	43
1606786871016258592 	0	1400	1400	1400	1400	1100	1100	500	500	600	ondemand	-	43
1606786872720145726	1	1400	1400	1400	1400	300	300	600	600	600	ondemand	-	43
1606786872831538199 	0	1400	1400	1400	1400	800	800	800	800	600	ondemand	-	43
1606786874529664701	1	1400	1400	1400	1400	700	700	700	700	600	ondemand	-	43
1606786874658700064 	0	1400	1400	1400	1400	600	600	600	600	600	ondemand	-	43
1606786876370086941	1	1400	1400	1400	1400	700	700	700	700	600	ondemand	-	43
1606786876492400721 	0	1400	1400	1400	1400	600	600	800	800	600	ondemand	-	43
1606786878147646489	1	1400	1400	1400	1400	1000	1000	1000	1000	600	ondemand	-	43
1606786878261657112 	0	1400	1400	1400	1400	700	700	700	700	600	ondemand	-	43
1606786879940490691	1	1400	1400	1400	1400	1000	1000	1000	1000	600	ondemand	-	43
1606786880075024477 	0	1400	1400	1400	1400	500	500	500	500	600	ondemand	-	43
1606786881744122533	1	1400	1400	1400	1400	1000	1000	1000	1000	600	ondemand	-	43
1606786881886511229 	0	1400	1400	1400	1400	500	500	500	600	600	ondemand	-	43
1606786883546992962	1	1400	1400	1400	1400	1000	1000	1000	1000	600	ondemand	-	43
1606786883675179538 	0	1400	1400	1400	1400	600	600	600	600	600	ondemand	-	43
1606786885352058335	1	1400	1400	1400	1400	900	900	900	900	600	ondemand	-	43
1606786885484300677 	0	1400	1400	1400	1400	600	600	600	600	600	ondemand	-	43
1606786887151860115	1	1400	1400	1400	1400	1000	1000	1000	1000	600	ondemand	-	42
1606786887271777534 	0	1400	1400	1400	1400	700	700	700	700	600	ondemand	-	43
1606786888951630311	1	1400	1400	1400	1400	1000	1000	1000	1000	600	ondemand	-	43
1606786889030769567 	0	1400	1400	1400	1400	1300	1300	1300	1300	600	ondemand	-	43
1606786890905908543	1	1400	1400	1400	1400	1800	1800	1800	1800	600	ondemand	-	62
1606786891217400975 	0	1400	1400	1400	1400	1800	1800	1800	1800	600	ondemand	-	63
1606786893120737607	1	1400	1400	1400	1400	1800	1800	1800	1800	600	ondemand	-	68
1606786893423607593 	0	1400	1400	1400	1400	1800	1800	1800	1800	600	ondemand	-	69
1606786895303701202	1	1400	1400	1400	1400	1800	1800	1800	1800	600	ondemand	-	72
1606786895575907630 	0	1400	1400	1400	1400	1800	1800	1800	1800	600	ondemand	-	72
1606786897475767573	1	1400	1400	1400	1400	1800	1800	1800	1800	600	ondemand	-	74
1606786897800742462 	0	1400	1400	1400	1400	1800	1800	1800	1800	600	ondemand	-	74
1606786899700739403	1	1400	1400	1400	1400	1800	1800	1800	1800	600	ondemand	-	75
1606786900020744866 	0	1400	1400	1400	1400	1800	1800	1800	1800	600	ondemand	-	75
1606786901880772597	1	1400	1400	1400	1400	1800	1800	1800	1800	600	ondemand	-	76
1606786902180755392 	0	1400	1400	1400	1400	1800	1800	1800	1800	600	ondemand	-	76
1606786904050738643	1	1400	1400	1400	1400	1800	1800	1800	1800	600	ondemand	-	77
1606786904375792824 	0	1400	1400	1400	1400	1800	1800	1800	1800	600	ondemand	-	77
1606786906205735532	1	1400	1400	1400	1400	1800	1800	1800	1800	600	ondemand	-	78
1606786906515796306 	0	1400	1400	1400	1400	1800	1800	1800	1800	600	ondemand	-	78
1606786908375764951	1	1400	1400	1400	1400	1800	1800	1800	1800	600	ondemand	-	79
1606786908700759507 	0	1400	1400	1400	1400	1800	1800	1800	1800	600	ondemand	-	79
1606786910553678445	1	1400	1400	1400	1400	1800	1800	1800	1800	600	ondemand	-	79
1606786910835766393 	0	1400	1400	1400	1400	1800	1800	1800	1800	600	ondemand	-	79
1606786912775790203	1	1400	1400	1400	1400	1800	1800	1800	1800	600	ondemand	-	80
1606786913100738800 	0	1400	1400	1400	1400	1800	1800	1800	1800	600	ondemand	-	80
1606786914945784993	1	1400	1400	1400	1400	1800	1800	1800	1800	600	ondemand	-	80
1606786915275771351 	0	1400	1400	1400	1400	1800	1800	1800	1800	600	ondemand	-	80
1606786917175734659	1	1400	1400	1400	1400	1800	1800	1800	1800	600	ondemand	-	81
1606786917495741703 	0	1400	1400	1400	1400	1800	1800	1800	1800	600	ondemand	-	81
1606786919380756062	1	1400	1400	1400	1400	1800	1800	1800	1800	600	ondemand	-	81
1606786919655947761 	0	1400	1400	1400	1400	1800	1800	1800	1800	600	ondemand	-	81
1606786921540740286	1	1400	1400	1400	1400	1800	1800	1800	1800	600	ondemand	-	81
1606786921845744174 	0	1400	1400	1400	1400	1800	1800	1800	1800	600	ondemand	-	81
1606786923725807812	1	1400	1400	1400	1400	1800	1800	1800	1800	600	ondemand	-	82
1606786924025738314 	0	1400	1400	1400	1400	1800	1800	1800	1800	600	ondemand	-	82
1606786925920749108	1	1400	1400	1400	1400	1800	1800	1800	1800	600	ondemand	-	82
1606786926185844286 	0	1400	1400	1400	1400	1800	1800	1800	1800	600	ondemand	-	82
1606786928075811985	1	1400	1400	1400	1400	1800	1800	1800	1800	600	ondemand	-	82
1606786928405920923 	0	1400	1400	1400	1400	1800	1800	1800	1800	600	ondemand	-	82
1606786930310782487	1	1400	1400	1400	1400	1800	1800	1800	1800	600	ondemand	-	83
1606786930645735520 	0	1400	1400	1400	1400	1800	1800	1800	1800	600	ondemand	-	83
1606786932545772862	1	1400	1400	1400	1400	1800	1800	1800	1800	600	ondemand	-	83
1606786932863668044 	0	1400	1400	1400	1400	1800	1800	1800	1800	600	ondemand	-	83
1606786934730823174	1	1400	1400	1400	1400	1800	1800	1800	1800	600	ondemand	-	83
1606786935061353984 	0	1400	1400	1400	1400	1800	1800	1800	1800	600	ondemand	-	83
1606786936960787162	1	1400	1400	1400	1400	1800	1800	1800	1800	600	ondemand	-	83
1606786937270785101 	0	1400	1400	1400	1400	1800	1800	1800	1800	600	ondemand	-	83
1606786939205739472	1	1400	1400	1400	1400	1800	1800	1800	1800	600	ondemand	-	84
1606786939500762337 	0	1400	1400	1400	1400	1800	1800	1800	1800	600	ondemand	-	84
1606786941379634225	1	1400	1400	1400	1400	1800	1800	1800	1800	600	ondemand	-	84
1606786941705744687 	0	1400	1400	1400	1400	1800	1800	1800	1800	600	ondemand	-	84
1606786943605782275	1	1400	1400	1400	1400	1800	1800	1800	1800	600	ondemand	-	84
1606786943930754953 	0	1400	1400	1400	1400	1800	1800	1800	1800	600	ondemand	-	84
1606786945832211031	1	1400	1400	1400	1400	1800	1800	1800	1800	600	ondemand	-	84
1606786946145756613 	0	1400	1400	1400	1400	1800	1800	1800	1800	600	ondemand	-	84
1606786948060831230	1	1400	1400	1400	1400	1800	1800	1800	1800	600	ondemand	-	85
1606786948380764606 	0	1400	1400	1400	1400	1800	1800	1800	1800	600	ondemand	-	85
1606786950215723014	1	1400	1400	1400	1400	1800	1800	1800	1800	600	ondemand	-	85
1606786950515760305 	0	1400	1400	1400	1400	1800	1800	1800	1800	600	ondemand	-	85
1606786952420749692	1	1400	1400	1400	1400	1800	1800	1800	1800	600	ondemand	-	85
1606786952700744525 	0	1400	1400	1400	1400	1800	1800	1800	1800	600	ondemand	-	85
1606786954600737858	1	1400	1400	1400	1400	1800	1800	1800	1800	600	ondemand	-	85
1606786954915904680 	0	1400	1400	1400	1400	1800	1800	1800	1800	600	ondemand	-	85
1606786956860845523	1	1400	1400	1400	1400	1800	1800	1800	1800	600	ondemand	-	85
1606786957180746898 	0	1400	1400	1400	1400	1800	1800	1800	1800	600	ondemand	-	85
1606786959100729771	1	1400	1400	1400	1400	1800	1800	1800	1800	600	ondemand	-	86
1606786959425762239 	0	1400	1400	1400	1400	1800	1800	1800	1800	600	ondemand	-	86
1606786961345731820	1	1400	1400	1400	1400	1800	1800	1800	1800	600	ondemand	-	86
1606786961680793475 	0	1400	1400	1400	1400	1800	1800	1800	1800	600	ondemand	-	86
1606786963575763919	1	1400	1400	1400	1400	1800	1800	1800	1800	600	ondemand	-	86
1606786963925767897 	0	1400	1400	1400	1400	1800	1800	1800	1800	600	ondemand	-	86
1606786965840816548	1	1400	1400	1400	1400	1800	1800	1800	1800	600	ondemand	-	86
1606786966180744089 	0	1400	1400	1400	1400	1800	1800	1800	1800	600	ondemand	-	86
1606786968100761250	1	1400	1400	1400	1400	1800	1800	1800	1800	600	ondemand	-	86
1606786968445780467 	0	1400	1400	1400	1400	1800	1800	1800	1800	600	ondemand	-	86
1606786970359249744	1	1400	1400	1400	1400	1800	1800	1800	1800	600	ondemand	-	86
1606786970680790218 	0	1400	1400	1400	1400	1800	1800	1800	1800	600	ondemand	-	86
1606786972385114885	1	1400	1400	1400	1400	700	700	700	700	600	ondemand	-	67
1606786972510915239 	0	1400	1400	1400	1400	700	700	600	600	600	ondemand	-	66
1606786974207822259	1	1400	1400	1400	1400	500	500	800	800	600	ondemand	-	60
1606786974315348773 	0	1400	1400	1400	1400	800	800	800	800	600	ondemand	-	60
1606786976021449606	1	1400	1400	1400	1400	800	800	800	800	600	ondemand	-	57
1606786976148516372 	0	1400	1400	1400	1400	600	600	600	600	600	ondemand	-	57
1606786977848144184	1	1400	1400	1400	1400	900	900	900	900	600	ondemand	-	55
1606786977987825145 	0	1400	1400	1400	1400	500	500	500	800	600	ondemand	-	55
1606786979643557932	1	1400	1400	1400	1400	1100	1100	1100	1100	600	ondemand	-	54
1606786979781857386 	0	1400	1400	1400	1400	500	500	500	800	600	ondemand	-	53
1606786981452111373	1	1400	1400	1400	1400	800	800	800	800	600	ondemand	-	52
1606786981572088322 	0	1400	1400	1400	1400	700	700	700	700	600	ondemand	-	53
1606786983279062519	1	1400	1400	1400	1400	700	700	700	700	600	ondemand	-	51
1606786983402922765 	0	1400	1400	1400	1400	600	800	800	800	600	ondemand	-	52
1606786985084257110	1	1400	1400	1400	1400	1000	1000	1000	1100	600	ondemand	-	51
1606786985170136015 	0	1400	1400	1400	1400	1100	1100	1100	1100	600	ondemand	-	51
1606786986761668487	1	1400	1400	1400	1400	1600	1600	1600	1600	600	ondemand	-	53
1606786986833882068 	0	1400	1400	1400	1400	1400	1400	1400	1400	600	ondemand	-	53
1606786988422320870	1	1400	1400	1400	1400	1800	1800	1800	1800	600	ondemand	-	53
1606786988491980277 	0	1400	1400	1400	1400	1800	1200	1200	1200	600	ondemand	-	52
1606786990085671139	1	1400	1400	1400	1400	1600	1600	1600	1000	600	ondemand	-	51
1606786990181570060 	0	1400	1400	1400	1400	1000	1000	1000	1000	600	ondemand	-	51
1606786991767116698	1	1400	1400	1400	1400	1800	1800	1800	1800	600	ondemand	-	51
1606786991856167853 	0	1400	1400	1400	1400	1000	1000	1000	1000	600	ondemand	-	50
1606786993491073936	1	1400	1400	1400	1400	900	900	900	900	600	ondemand	-	49
1606786993619198173 	0	1400	1400	1400	1400	700	600	600	600	600	ondemand	-	50
1606786995312257176	1	1400	1400	1400	1400	500	500	600	600	600	ondemand	-	49
1606786995438013405 	0	1400	1400	1400	1400	700	700	700	700	600	ondemand	-	49
1606786997121253094	1	1400	1400	1400	1400	900	900	900	900	600	ondemand	-	49
1606786997233502957 	0	1400	1400	1400	1400	700	700	700	700	600	ondemand	-	49
1606786998964905539	1	1400	1400	1400	1400	700	700	700	700	600	ondemand	-	48
1606786999081876327 	0	1400	1400	1400	1400	700	700	700	800	600	ondemand	-	48
1606787000756271952	1	1400	1400	1400	1400	900	900	900	900	600	ondemand	-	48
1606787000891959693 	0	1400	1400	1400	1400	600	600	600	600	600	ondemand	-	48
1606787002582677519	1	1400	1400	1400	1400	700	700	700	700	600	ondemand	-	48
1606787002708949612 	0	1400	1400	1400	1400	700	700	600	600	600	ondemand	-	48
1606787004432351962	1	1400	1400	1400	1400	1000	1000	1000	1000	600	ondemand	-	47
1606787004570260075 	0	1400	1400	1400	1400	500	500	500	500	600	ondemand	-	48
1606787006265223867	1	1400	1400	1400	1400	800	800	800	800	600	ondemand	-	47
1606787006395969962 	0	1400	1400	1400	1400	600	600	700	700	600	ondemand	-	47
1606787008097754934	1	1400	1400	1400	1400	1000	1000	1000	1000	600	ondemand	-	47
1606787008227898941 	0	1400	1400	1400	1400	800	800	800	800	600	ondemand	-	47
1606787009867640208	1	1400	1400	1400	1400	1400	1400	1400	1400	600	ondemand	-	47
1606787009930102872 	0	1400	1400	1400	1400	1800	1800	1800	1800	600	ondemand	-	49
