TimeStamp,Total Power,CPU Power,GPU Power
1593951062135845,3.163,0.686,0.152
1593951062637120,3.087,0.609,0.152
1593951063138366,3.048,0.533,0.152
1593951063639612,3.048,0.609,0.152
1593951064140874,3.048,0.609,0.152
1593951064642127,3.087,0.609,0.152
1593951065143384,3.087,0.609,0.152
1593951065644628,3.087,0.609,0.152
1593951066145881,3.087,0.609,0.152
1593951066649442,3.087,0.609,0.152
1593951067150709,3.087,0.609,0.152
1593951067651959,3.087,0.609,0.152
1593951068153238,3.087,0.609,0.152
1593951068654475,3.087,0.609,0.152
1593951069155739,3.087,0.609,0.152
1593951069656998,3.087,0.609,0.152
1593951070158234,3.087,0.609,0.152
1593951070659512,3.087,0.609,0.152
1593951071160756,3.087,0.609,0.152
1593951071663121,3.087,0.609,0.152
1593951072164372,3.087,0.609,0.152
1593951072665604,3.087,0.609,0.152
1593951073166851,3.087,0.609,0.152
1593951073668098,3.087,0.609,0.152
1593951074169346,3.087,0.609,0.152
1593951074670604,3.087,0.609,0.152
1593951075171933,3.087,0.609,0.152
1593951075673138,3.087,0.609,0.152
1593951076174388,3.087,0.609,0.152
1593951076677545,3.087,0.609,0.152
1593951077178806,3.087,0.609,0.152
1593951077680146,3.087,0.609,0.152
1593951078181410,3.087,0.609,0.152
1593951078682654,3.087,0.609,0.152
1593951079183965,3.087,0.609,0.152
1593951079685205,3.087,0.609,0.152
1593951080186451,3.087,0.609,0.152
1593951080687817,3.087,0.609,0.152
1593951081189060,3.087,0.609,0.152
1593951081692313,3.087,0.609,0.152
1593951082193594,3.087,0.609,0.152
1593951082694842,3.087,0.609,0.152
1593951083196106,3.087,0.609,0.152
1593951083697357,3.087,0.609,0.152
1593951084198599,3.087,0.609,0.152
1593951084699867,3.087,0.609,0.152
1593951085201119,3.087,0.609,0.152
1593951085702354,3.048,0.609,0.152
1593951086203611,3.087,0.609,0.152
1593951086706763,3.087,0.609,0.152
1593951087208026,3.087,0.609,0.152
1593951087709320,3.087,0.609,0.152
1593951088210560,3.087,0.609,0.152
1593951088711809,3.087,0.609,0.152
1593951089213080,3.238,0.609,0.152
1593951089714276,3.428,0.609,0.152
1593951090215541,3.466,0.609,0.152
1593951090716794,3.39,0.609,0.152
1593951091218027,3.161,0.609,0.152
1593951091721141,3.125,0.609,0.152
1593951092222391,3.087,0.609,0.152
1593951092723619,3.087,0.609,0.152
1593951093224909,3.087,0.609,0.152
1593951093726167,3.087,0.609,0.152
1593951094227412,3.087,0.609,0.152
1593951094728646,3.087,0.609,0.152
1593951095229888,3.087,0.609,0.152
1593951095731248,3.087,0.609,0.152
1593951096232552,3.087,0.609,0.152
1593951096735754,3.087,0.609,0.152
1593951097237025,3.087,0.609,0.152
1593951097738262,3.087,0.609,0.152
1593951098239525,3.087,0.609,0.152
1593951098740756,3.087,0.609,0.152
1593951099241998,3.087,0.609,0.152
1593951099743275,3.087,0.609,0.152
1593951100244585,3.087,0.609,0.152
1593951100745844,3.087,0.609,0.152
1593951101247075,3.087,0.609,0.152
1593951101750478,3.087,0.609,0.152
1593951102251772,3.087,0.609,0.152
1593951102753034,3.087,0.609,0.152
1593951103254266,3.087,0.609,0.152
1593951103755555,3.087,0.609,0.152
1593951104256795,3.087,0.609,0.152
1593951104758039,3.087,0.609,0.152
1593951105259346,3.087,0.609,0.152
1593951105760628,3.087,0.609,0.152
1593951106261866,3.087,0.609,0.152
1593951106765190,3.087,0.609,0.152
1593951107266454,3.087,0.609,0.152
1593951107767741,3.087,0.609,0.152
1593951108268982,3.087,0.609,0.152
1593951108770258,3.087,0.609,0.152
1593951109271534,3.087,0.609,0.152
1593951109772776,3.087,0.609,0.152
1593951110274018,3.087,0.609,0.152
1593951110775263,3.048,0.609,0.152
1593951111276571,3.087,0.609,0.152
1593951111779775,3.087,0.609,0.152
1593951112281029,3.087,0.609,0.152
1593951112782278,3.087,0.609,0.152
1593951113283688,3.087,0.609,0.152
1593951113784944,3.087,0.609,0.152
1593951114286163,3.087,0.609,0.152
1593951114787399,3.087,0.609,0.152
1593951115288647,3.087,0.609,0.152
1593951115789891,3.087,0.609,0.152
1593951116291136,3.087,0.609,0.152
1593951116794284,3.087,0.609,0.152
1593951117295589,3.048,0.609,0.152
1593951117796844,3.087,0.609,0.152
1593951118298095,3.087,0.609,0.152
1593951118799380,3.087,0.609,0.152
1593951119300651,3.087,0.609,0.152
1593951119801884,3.087,0.609,0.152
1593951120303185,3.087,0.609,0.152
1593951120804452,3.087,0.609,0.152
1593951121305703,3.087,0.609,0.152
1593951121809012,3.087,0.609,0.152
1593951122310260,3.087,0.609,0.152
1593951122811530,3.087,0.609,0.152
1593951123312777,3.087,0.609,0.152
1593951123814010,3.087,0.609,0.152
1593951124315269,3.048,0.609,0.152
1593951124816559,3.087,0.609,0.152
1593951125317795,3.087,0.609,0.152
1593951125819055,3.087,0.609,0.152
1593951126320311,3.087,0.609,0.152
1593951126823442,3.087,0.609,0.152
1593951127324816,3.087,0.609,0.152
1593951127826055,3.087,0.609,0.152
1593951128327336,3.087,0.609,0.152
1593951128828592,3.087,0.609,0.152
1593951129329828,3.087,0.609,0.152
1593951129831045,3.087,0.609,0.152
1593951130332415,3.087,0.609,0.152
1593951130833674,3.087,0.609,0.152
1593951131334920,3.048,0.609,0.152
1593951131838366,3.087,0.609,0.152
1593951132339672,3.087,0.609,0.152
1593951132840905,3.087,0.609,0.152
1593951133342136,3.087,0.609,0.152
1593951133843435,3.087,0.609,0.152
1593951134344686,3.087,0.609,0.152
1593951134845929,3.087,0.609,0.152
1593951135347182,3.087,0.609,0.152
1593951135848466,3.087,0.609,0.152
1593951136349723,3.087,0.609,0.152
1593951136852881,3.087,0.609,0.152
1593951137354137,3.087,0.609,0.152
1593951137855383,3.087,0.609,0.152
1593951138356622,3.087,0.609,0.152
1593951138857860,3.087,0.609,0.152
1593951139359103,3.087,0.609,0.152
1593951139860358,3.087,0.609,0.152
1593951140361624,3.087,0.609,0.152
1593951140862889,3.087,0.609,0.152
1593951141364186,3.087,0.609,0.152
1593951141867730,3.087,0.609,0.152
1593951142369003,3.087,0.609,0.152
1593951142870248,3.087,0.609,0.152
1593951143371512,3.087,0.609,0.152
1593951143872788,3.087,0.609,0.152
1593951144374026,3.087,0.609,0.152
1593951144875272,3.087,0.609,0.152
1593951145376539,3.087,0.609,0.152
1593951145877800,3.048,0.609,0.152
1593951146379039,3.087,0.609,0.152
1593951146882369,3.087,0.609,0.152
1593951147383609,3.087,0.609,0.152
1593951147884839,3.087,0.609,0.152
1593951148386072,3.087,0.609,0.152
1593951148887291,3.087,0.609,0.152
1593951149388609,3.087,0.609,0.152
1593951149889853,3.087,0.609,0.152
1593951150391131,3.087,0.609,0.152
1593951150892412,3.087,0.609,0.152
1593951151393652,3.087,0.609,0.152
1593951151896807,3.087,0.609,0.152
1593951152398066,3.352,0.609,0.152
1593951152899472,3.466,0.609,0.152
1593951153400752,3.466,0.609,0.152
1593951153902015,3.276,0.609,0.152
1593951154403255,3.125,0.609,0.152
1593951154904544,3.087,0.609,0.152
1593951155405798,3.087,0.609,0.152
1593951155907038,3.087,0.609,0.152
1593951156408287,3.087,0.609,0.152
1593951156911457,3.087,0.609,0.152
1593951157412697,3.087,0.609,0.152
1593951157913935,3.087,0.609,0.152
1593951158415183,3.087,0.609,0.152
1593951158916507,3.087,0.609,0.152
1593951159417747,3.087,0.609,0.152
1593951159919011,3.087,0.609,0.152
1593951160420311,3.087,0.609,0.152
1593951160921560,3.087,0.609,0.152
1593951161422826,3.087,0.609,0.152
1593951161926022,3.087,0.609,0.152
1593951162427920,3.087,0.609,0.152
1593951162929180,3.087,0.609,0.152
1593951163430468,3.087,0.609,0.152
1593951163931760,3.087,0.609,0.152
1593951164432995,3.087,0.609,0.152
1593951164934276,3.087,0.609,0.152
1593951165435546,3.087,0.609,0.152
1593951165936801,3.087,0.609,0.152
1593951166438041,3.087,0.609,0.152
1593951166941307,3.087,0.609,0.152
1593951167442562,3.087,0.609,0.152
1593951167943885,3.087,0.609,0.152
1593951168445124,3.087,0.609,0.152
1593951168946418,3.087,0.609,0.152
1593951169447700,3.087,0.609,0.152
1593951169948952,3.087,0.609,0.152
1593951170450214,3.087,0.609,0.152
1593951170951444,2.972,0.609,0.152
1593951171452752,3.048,0.609,0.152
1593951171955978,3.087,0.609,0.152
1593951172457237,3.087,0.609,0.152
1593951172958554,3.048,0.609,0.152
1593951173459796,3.087,0.609,0.152
1593951173961055,3.087,0.609,0.152
1593951174462305,3.087,0.609,0.152
1593951174963630,3.087,0.609,0.152
1593951175464873,3.087,0.609,0.152
1593951175966109,3.087,0.609,0.152
1593951176467443,3.087,0.609,0.152
1593951176970916,3.087,0.609,0.152
1593951177472171,3.087,0.609,0.152
1593951177973402,3.087,0.609,0.152
1593951178474683,3.087,0.609,0.152
1593951178975950,3.087,0.609,0.152
1593951179477190,3.087,0.609,0.152
1593951179978446,3.087,0.609,0.152
1593951180479720,3.087,0.609,0.152
1593951180980954,3.087,0.609,0.152
1593951181482201,3.048,0.609,0.152
1593951181985487,3.087,0.609,0.152
1593951182486726,3.087,0.609,0.152
1593951182987989,3.01,0.609,0.152
1593951183489258,3.048,0.609,0.152
1593951183990507,3.087,0.609,0.152
1593951184491744,3.087,0.609,0.152
1593951184993056,3.087,0.609,0.152
1593951185494292,3.087,0.609,0.152
1593951185995589,3.087,0.609,0.152
1593951186496853,3.048,0.609,0.152
1593951187000063,3.087,0.609,0.152
1593951187501305,3.087,0.609,0.152
1593951188002562,3.087,0.609,0.152
1593951188503779,3.087,0.609,0.152
1593951189005016,3.087,0.609,0.152
1593951189506264,3.087,0.609,0.152
1593951190007553,3.087,0.609,0.152
1593951190508831,3.087,0.609,0.152
1593951191010101,3.087,0.609,0.152
1593951191511352,3.087,0.609,0.152
1593951192014586,3.087,0.609,0.152
1593951192516014,3.087,0.609,0.152
1593951193017259,3.087,0.609,0.152
1593951193518513,3.087,0.609,0.152
1593951194019769,3.087,0.609,0.152
1593951194521018,3.087,0.609,0.152
1593951195022330,3.087,0.609,0.152
1593951195523599,3.087,0.609,0.152
1593951196024864,3.087,0.609,0.152
1593951196526102,3.087,0.609,0.152
1593951197029420,3.087,0.609,0.152
1593951197530685,3.087,0.609,0.152
1593951198031936,3.087,0.609,0.152
1593951198533178,3.087,0.609,0.152
1593951199034458,3.087,0.609,0.152
1593951199535731,3.048,0.609,0.152
1593951200036977,3.087,0.609,0.152
1593951200538190,3.087,0.609,0.152
1593951201039429,3.087,0.609,0.152
1593951201540660,3.087,0.609,0.152
1593951202043805,3.087,0.609,0.152
1593951202545047,3.087,0.609,0.152
1593951203046301,3.087,0.609,0.152
1593951203547553,3.087,0.609,0.152
1593951204048802,3.087,0.609,0.152
1593951204550040,3.087,0.609,0.152
1593951205051273,3.048,0.609,0.152
1593951205552552,2.934,0.533,0.152
1593951206053867,3.01,0.609,0.152
1593951206555116,3.048,0.609,0.152
1593951207058468,3.048,0.609,0.152
1593951207559758,3.087,0.609,0.152
1593951208061009,3.087,0.609,0.152
1593951208562261,3.087,0.609,0.152
1593951209063567,3.087,0.609,0.152
1593951209564807,3.087,0.609,0.152
1593951210066052,3.087,0.609,0.152
1593951210567285,3.087,0.609,0.152
1593951211068560,3.087,0.609,0.152
1593951211569845,3.087,0.609,0.152
1593951212072984,3.087,0.609,0.152
1593951212574225,3.087,0.609,0.152
1593951213075980,3.048,0.609,0.152
1593951213577255,3.087,0.609,0.152
1593951214078491,3.087,0.609,0.152
1593951214579831,3.087,0.609,0.152
1593951215081080,3.201,0.609,0.152
1593951215582312,3.39,0.609,0.152
1593951216083696,3.466,0.609,0.152
1593951216584945,3.466,0.609,0.152
1593951217088454,3.161,0.609,0.152
1593951217589687,3.087,0.609,0.152
1593951218090930,3.087,0.609,0.152
1593951218592177,3.087,0.609,0.152
1593951219093422,3.087,0.609,0.152
1593951219594665,3.048,0.609,0.152
1593951220095896,3.048,0.609,0.152
1593951220597146,3.087,0.609,0.152
1593951221098404,3.087,0.609,0.152
1593951221599636,3.048,0.609,0.152
1593951222102874,3.087,0.609,0.152
1593951222604115,3.087,0.609,0.152
1593951223105354,3.087,0.609,0.152
1593951223606603,3.087,0.609,0.152
1593951224107890,3.087,0.609,0.152
1593951224609125,3.087,0.609,0.152
1593951225110386,3.087,0.609,0.152
1593951225611621,3.087,0.609,0.152
1593951226112907,3.048,0.609,0.152
1593951226614155,3.087,0.609,0.152
1593951227117404,3.087,0.609,0.152
1593951227618672,3.087,0.609,0.152
1593951228119930,3.087,0.609,0.152
1593951228621164,3.087,0.609,0.152
1593951229122430,3.087,0.609,0.152
1593951229623724,3.087,0.609,0.152
1593951230124973,3.087,0.609,0.152
1593951230626229,3.087,0.609,0.152
1593951231127560,3.087,0.609,0.152
1593951231628805,3.048,0.609,0.152
1593951232132132,3.087,0.609,0.152
1593951232633376,3.087,0.609,0.152
1593951233134646,3.048,0.609,0.152
1593951233635923,3.048,0.609,0.152
1593951234137171,3.087,0.609,0.152
1593951234638415,3.087,0.609,0.152
1593951235139686,3.087,0.609,0.152
1593951235640923,3.087,0.609,0.152
1593951236142258,3.087,0.609,0.152
1593951236643528,3.087,0.609,0.152
1593951237146666,3.087,0.609,0.152
1593951237647901,3.087,0.609,0.152
1593951238149185,3.087,0.609,0.152
1593951238650419,3.087,0.609,0.152
1593951239151686,3.087,0.609,0.152
1593951239652926,3.048,0.609,0.152
1593951240154195,3.087,0.609,0.152
1593951240655422,3.087,0.609,0.152
1593951241156672,3.087,0.609,0.152
1593951241657900,3.087,0.609,0.152
1593951242161096,3.087,0.609,0.152
1593951242662332,3.087,0.609,0.152
1593951243163586,3.048,0.609,0.152
1593951243664857,3.087,0.609,0.152
1593951244166118,3.048,0.609,0.152
1593951244667371,3.087,0.609,0.152
1593951245168606,3.087,0.609,0.152
1593951245669863,3.087,0.609,0.152
1593951246171104,3.087,0.609,0.152
1593951246672341,3.087,0.609,0.152
1593951247175590,3.087,0.609,0.152
1593951247676829,3.087,0.609,0.152
1593951248178090,3.087,0.609,0.152
1593951248679363,3.087,0.609,0.152
1593951249180618,3.087,0.609,0.152
1593951249681875,3.087,0.609,0.152
1593951250183118,3.087,0.609,0.152
1593951250684360,3.087,0.609,0.152
1593951251185631,3.087,0.609,0.152
1593951251686879,3.087,0.609,0.152
1593951252190156,3.087,0.609,0.152
1593951252691461,3.087,0.609,0.152
1593951253192714,3.087,0.609,0.152
1593951253693947,3.087,0.609,0.152
1593951254195198,3.087,0.609,0.152
1593951254696458,3.048,0.609,0.152
1593951255197713,3.087,0.609,0.152
1593951255698968,3.087,0.609,0.152
1593951256200282,3.048,0.609,0.152
1593951256701563,3.048,0.609,0.152
1593951257204727,3.087,0.609,0.152
1593951257705959,3.087,0.609,0.152
1593951258207231,3.087,0.609,0.152
1593951258708533,3.087,0.609,0.152
1593951259209768,3.087,0.609,0.152
1593951259711004,3.048,0.609,0.152
1593951260212483,3.087,0.609,0.152
1593951260713723,3.087,0.609,0.152
1593951261215023,3.087,0.609,0.152
1593951261716363,3.048,0.609,0.152
1593951262219641,3.087,0.609,0.152
1593951262720894,3.087,0.609,0.152
1593951263222152,3.087,0.609,0.152
1593951263723416,3.087,0.609,0.152
1593951264224660,3.087,0.609,0.152
1593951264725924,3.048,0.609,0.152
1593951265227147,3.087,0.609,0.152
1593951265728420,3.087,0.609,0.152
1593951266229674,3.087,0.609,0.152
1593951266730920,3.087,0.609,0.152
1593951267234208,3.087,0.609,0.152
1593951267735453,3.087,0.609,0.152
1593951268236689,3.048,0.609,0.152
1593951268737955,3.048,0.609,0.152
1593951269239188,3.087,0.609,0.152
1593951269740451,3.087,0.609,0.152
1593951270241692,3.087,0.609,0.152
1593951270742959,3.087,0.609,0.152
1593951271244322,3.087,0.609,0.152
1593951271745568,3.087,0.609,0.152
1593951272248739,3.087,0.609,0.152
1593951272750010,3.087,0.609,0.152
1593951273251250,3.087,0.609,0.152
1593951273752525,3.087,0.609,0.152
1593951274253760,3.087,0.609,0.152
1593951274755008,3.087,0.609,0.152
1593951275256323,3.087,0.609,0.152
1593951275757581,3.087,0.609,0.152
1593951276258874,3.087,0.609,0.152
1593951276760087,3.087,0.609,0.152
1593951277263275,3.087,0.609,0.152
1593951277764566,3.087,0.609,0.152
1593951278265811,3.276,0.609,0.152
1593951278767064,3.428,0.609,0.152
1593951279268320,3.466,0.609,0.152
1593951279769591,3.352,0.609,0.152
1593951280270849,3.161,0.609,0.152
1593951280772094,3.087,0.609,0.152
1593951281273349,3.087,0.609,0.152
1593951281774580,3.087,0.609,0.152
1593951282277778,3.087,0.609,0.152
1593951282779017,3.087,0.609,0.152
1593951283280294,3.048,0.609,0.152
1593951283781533,3.087,0.609,0.152
1593951284282802,3.048,0.609,0.152
1593951284784076,3.087,0.609,0.152
1593951285285336,3.087,0.609,0.152
1593951285786601,3.087,0.609,0.152
1593951286287943,3.087,0.609,0.152
1593951286789172,3.048,0.609,0.152
1593951287292351,3.087,0.609,0.152
1593951287793606,3.087,0.609,0.152
1593951288294860,3.048,0.609,0.152
1593951288796098,3.087,0.609,0.152
1593951289297358,3.087,0.609,0.152
1593951289798615,3.087,0.609,0.152
1593951290299903,3.087,0.609,0.152
1593951290801137,3.087,0.609,0.152
1593951291302385,3.087,0.609,0.152
1593951291803624,3.087,0.609,0.152
1593951292306771,3.087,0.609,0.152
1593951292808067,3.087,0.609,0.152
1593951293309310,3.048,0.609,0.152
1593951293810577,3.087,0.609,0.152
1593951294311844,3.087,0.609,0.152
1593951294813092,3.048,0.609,0.152
1593951295314358,3.087,0.609,0.152
1593951295815623,3.087,0.609,0.152
1593951296316869,3.087,0.609,0.152
1593951296818142,3.087,0.609,0.152
1593951297321305,3.087,0.609,0.152
1593951297822538,3.087,0.609,0.152
1593951298323809,3.087,0.609,0.152
1593951298825058,3.087,0.609,0.152
1593951299326292,3.087,0.609,0.152
1593951299827622,3.048,0.609,0.152
1593951300328880,3.087,0.609,0.152
1593951300830116,3.087,0.609,0.152
1593951301331463,3.087,0.609,0.152
1593951301832704,3.087,0.609,0.152
1593951302336130,3.087,0.609,0.152
1593951302837367,3.087,0.609,0.152
1593951303338606,3.087,0.609,0.152
1593951303839908,3.087,0.609,0.152
1593951304341149,3.087,0.609,0.152
1593951304842389,3.087,0.609,0.152
1593951305343642,3.087,0.609,0.152
1593951305844905,3.087,0.609,0.152
1593951306346163,3.087,0.609,0.152
1593951306847404,3.087,0.609,0.152
1593951307350660,3.087,0.609,0.152
1593951307851904,3.087,0.609,0.152
1593951308353146,3.087,0.609,0.152
1593951308854388,3.087,0.609,0.152
1593951309355715,3.087,0.609,0.152
1593951309856976,3.087,0.609,0.152
1593951310358226,3.087,0.609,0.152
1593951310859522,3.087,0.609,0.152
1593951311360784,3.048,0.609,0.152
1593951311862021,3.087,0.609,0.152
1593951312365184,3.087,0.609,0.152
1593951312866444,3.087,0.609,0.152
1593951313367743,3.087,0.609,0.152
1593951313868998,3.087,0.609,0.152
1593951314370236,3.048,0.609,0.152
1593951314871536,3.087,0.609,0.152
1593951315372774,3.087,0.609,0.152
1593951315874016,3.087,0.609,0.152
1593951316375269,3.087,0.609,0.152
1593951316876596,3.087,0.609,0.152
1593951317379890,3.087,0.609,0.152
1593951317881142,3.087,0.609,0.152
1593951318382384,3.087,0.609,0.152
1593951318883633,3.087,0.609,0.152
1593951319384876,3.087,0.609,0.152
1593951319886138,3.048,0.609,0.152
1593951320387399,3.087,0.609,0.152
1593951320888650,3.087,0.609,0.152
1593951321389875,3.087,0.609,0.152
1593951321891196,3.087,0.609,0.152
1593951322394422,3.087,0.609,0.152
1593951322895702,3.087,0.609,0.152
1593951323396941,3.048,0.609,0.152
1593951323898181,3.087,0.609,0.152
1593951324399454,3.087,0.609,0.152
1593951324900729,3.048,0.609,0.152
1593951325401961,3.087,0.609,0.152
1593951325903251,3.048,0.609,0.152
1593951326404550,3.087,0.609,0.152
1593951326905780,3.087,0.609,0.152
1593951327408978,3.087,0.609,0.152
1593951327910226,3.087,0.609,0.152
1593951328411501,3.087,0.609,0.152
1593951328912740,3.087,0.609,0.152
1593951329413992,3.087,0.609,0.152
1593951329915243,3.087,0.609,0.152
1593951330416568,3.087,0.609,0.152
1593951330917824,3.087,0.609,0.152
1593951331419097,3.087,0.609,0.152
1593951331920361,3.087,0.609,0.152
1593951332423893,3.087,0.609,0.152
1593951332925153,3.087,0.609,0.152
1593951333426420,3.087,0.609,0.152
1593951333927775,3.087,0.609,0.152
1593951334429036,3.087,0.609,0.152
1593951334930271,3.087,0.609,0.152
1593951335431540,3.087,0.609,0.152
1593951335932800,3.087,0.609,0.152
1593951336434054,3.048,0.609,0.152
1593951336935285,3.087,0.609,0.152
1593951337438520,3.087,0.609,0.152
1593951337939807,3.087,0.609,0.152
1593951338441070,3.087,0.609,0.152
1593951338942330,3.087,0.609,0.152
1593951339443619,3.087,0.609,0.152
1593951339944882,3.087,0.609,0.152
1593951340446088,3.087,0.609,0.152
1593951340947399,3.087,0.609,0.152
1593951341448615,3.352,0.609,0.152
1593951341949874,3.466,0.609,0.152
1593951342452974,3.466,0.609,0.152
1593951342954224,3.276,0.609,0.152
1593951343455466,3.125,0.609,0.152
1593951343956705,3.087,0.609,0.152
1593951344457944,3.087,0.609,0.152
1593951344959181,3.087,0.609,0.152
1593951345460506,3.087,0.609,0.152
1593951345961788,3.087,0.609,0.152
1593951346463099,3.087,0.609,0.152
1593951346964351,3.087,0.609,0.152
1593951347467742,3.087,0.609,0.152
1593951347968998,3.087,0.609,0.152
1593951348470237,3.087,0.609,0.152
1593951348971538,3.087,0.609,0.152
1593951349472791,3.087,0.609,0.152
1593951349974034,3.087,0.609,0.152
1593951350475274,3.087,0.609,0.152
1593951350976691,3.087,0.609,0.152
1593951351477908,3.048,0.609,0.152
1593951351979160,3.048,0.609,0.152
1593951352482383,3.087,0.609,0.152
1593951352983620,3.087,0.609,0.152
1593951353484900,3.087,0.609,0.152
1593951353986147,3.087,0.609,0.152
1593951354487388,3.087,0.609,0.152
1593951354988666,3.087,0.609,0.152
1593951355489933,3.087,0.609,0.152
1593951355991171,3.087,0.609,0.152
1593951356492468,3.087,0.609,0.152
1593951356993707,3.087,0.609,0.152
1593951357496913,3.087,0.609,0.152
1593951357998151,3.087,0.609,0.152
1593951358499398,3.087,0.609,0.152
1593951359000634,3.087,0.609,0.152
1593951359501866,3.087,0.609,0.152
1593951360004561,3.048,0.609,0.152
1593951360505820,3.087,0.609,0.152
1593951361007083,3.087,0.609,0.152
1593951361508351,3.087,0.609,0.152
1593951362009655,3.087,0.609,0.152
1593951362510890,3.087,0.609,0.152
1593951363012134,3.087,0.609,0.152
1593951363513370,3.087,0.609,0.152
1593951364014623,3.087,0.609,0.152
1593951364515911,3.087,0.609,0.152
1593951365017154,3.087,0.609,0.152
1593951365518390,3.087,0.609,0.152
1593951366019708,3.087,0.609,0.152
1593951366520939,3.087,0.609,0.152
1593951367022189,3.087,0.609,0.152
1593951367525486,3.087,0.609,0.152
1593951368026746,3.087,0.609,0.152
1593951368527989,3.087,0.609,0.152
1593951369029260,3.087,0.609,0.152
1593951369530517,3.087,0.609,0.152
1593951370031830,3.087,0.609,0.152
1593951370533074,3.087,0.609,0.152
1593951371034309,3.087,0.609,0.152
1593951371535615,3.087,0.609,0.152
1593951372036859,3.087,0.609,0.152
1593951372539990,3.087,0.609,0.152
1593951373041263,3.087,0.609,0.152
1593951373542524,3.048,0.609,0.152
1593951374043758,3.087,0.609,0.152
1593951374545008,3.087,0.609,0.152
1593951375046248,3.048,0.609,0.152
1593951375547517,3.087,0.609,0.152
1593951376048781,3.087,0.609,0.152
1593951376550057,3.087,0.609,0.152
1593951377051377,3.087,0.609,0.152
1593951377554755,3.087,0.609,0.152
1593951378056041,3.087,0.609,0.152
1593951378557290,3.087,0.609,0.152
1593951379058552,3.087,0.609,0.152
1593951379559803,3.087,0.609,0.152
1593951380061062,3.087,0.609,0.152
1593951380562308,3.087,0.609,0.152
1593951381063561,3.087,0.609,0.152
1593951381564829,3.087,0.609,0.152
1593951382066062,3.087,0.609,0.152
1593951382569352,3.087,0.609,0.152
1593951383070574,3.087,0.609,0.152
1593951383571936,3.087,0.609,0.152
1593951384073201,3.087,0.609,0.152
1593951384574463,3.087,0.609,0.152
1593951385075802,3.087,0.609,0.152
1593951385577072,3.087,0.609,0.152
1593951386078340,3.087,0.609,0.152
1593951386579678,3.048,0.609,0.152
1593951387080922,3.048,0.609,0.152
1593951387584106,3.087,0.609,0.152
1593951388085345,3.087,0.609,0.152
1593951388586596,3.087,0.609,0.152
1593951389087871,3.087,0.609,0.152
1593951389589134,3.087,0.609,0.152
1593951390090382,3.087,0.609,0.152
1593951390591624,3.087,0.609,0.152
1593951391092920,3.087,0.609,0.152
1593951391594186,3.048,0.609,0.152
1593951392095416,3.087,0.609,0.152
1593951392598570,3.087,0.609,0.152
1593951393099817,3.087,0.609,0.152
1593951393601060,3.048,0.609,0.152
1593951394102317,3.048,0.609,0.152
1593951394603572,3.048,0.609,0.152
1593951395104838,3.048,0.609,0.152
1593951395606088,3.087,0.609,0.152
1593951396107358,3.087,0.609,0.152
1593951396608628,3.087,0.609,0.152
1593951397109853,3.087,0.609,0.152
1593951397613027,3.087,0.609,0.152
1593951398114312,3.087,0.609,0.152
1593951398615578,3.087,0.609,0.152
1593951399116820,3.087,0.609,0.152
1593951399618130,3.087,0.609,0.152
1593951400119388,3.048,0.609,0.152
1593951400620632,3.087,0.609,0.152
1593951401121891,3.087,0.609,0.152
1593951401623118,3.087,0.609,0.152
1593951402124378,3.048,0.609,0.152
1593951402627750,3.087,0.609,0.152
1593951403128993,3.087,0.609,0.152
1593951403630254,3.087,0.609,0.152
1593951404131712,3.201,0.609,0.152
1593951404632958,3.428,0.609,0.152
1593951405134208,3.466,0.609,0.152
1593951405635452,3.466,0.609,0.152
1593951406136710,3.2,0.609,0.152
1593951406637952,3.125,0.609,0.152
1593951407139200,3.087,0.609,0.152
1593951407642727,3.087,0.609,0.152
1593951408143981,3.087,0.609,0.152
1593951408645236,3.087,0.609,0.152
1593951409146487,3.087,0.609,0.152
1593951409647738,3.087,0.609,0.152
1593951410148981,3.087,0.609,0.152
1593951410650228,3.087,0.609,0.152
1593951411151473,3.087,0.609,0.152
1593951411652757,3.087,0.609,0.152
1593951412154000,3.087,0.609,0.152
1593951412657273,3.087,0.609,0.152
1593951413158531,3.087,0.609,0.152
1593951413659772,3.087,0.609,0.152
1593951414161060,3.087,0.609,0.152
1593951414662327,3.087,0.609,0.152
1593951415163573,3.048,0.609,0.152
1593951415664819,3.087,0.609,0.152
1593951416166093,3.087,0.609,0.152
1593951416667401,3.048,0.609,0.152
1593951417168647,3.087,0.609,0.152
1593951417671833,3.087,0.609,0.152
1593951418173082,3.087,0.609,0.152
1593951418674391,3.087,0.609,0.152
1593951419175654,3.087,0.609,0.152
1593951419676900,3.087,0.609,0.152
1593951420178136,3.048,0.609,0.152
1593951420679382,3.087,0.609,0.152
1593951421180639,3.087,0.609,0.152
1593951421681922,3.087,0.609,0.152
1593951422183154,3.087,0.609,0.152
1593951422686497,3.087,0.609,0.152
1593951423187797,3.087,0.609,0.152
1593951423689035,3.087,0.609,0.152
1593951424190304,3.087,0.609,0.152
1593951424691608,3.087,0.609,0.152
1593951425192861,3.087,0.609,0.152
1593951425694129,3.087,0.609,0.152
1593951426195455,3.087,0.609,0.152
1593951426696710,3.087,0.609,0.152
1593951427197990,3.087,0.609,0.152
1593951427701240,3.087,0.609,0.152
1593951428202488,3.087,0.609,0.152
1593951428703735,3.087,0.609,0.152
1593951429204976,3.087,0.609,0.152
1593951429706234,3.087,0.609,0.152
1593951430207512,3.087,0.609,0.152
1593951430708764,3.048,0.609,0.152
1593951431210055,3.087,0.609,0.152
1593951431711371,3.048,0.609,0.152
1593951432212609,3.087,0.609,0.152
1593951432715835,3.087,0.609,0.152
1593951433217084,3.087,0.609,0.152
1593951433718345,3.087,0.609,0.152
1593951434219582,3.087,0.609,0.152
1593951434720819,3.087,0.609,0.152
1593951435222081,3.087,0.609,0.152
1593951435723360,3.087,0.609,0.152
1593951436224592,3.087,0.609,0.152
1593951436725835,3.087,0.609,0.152
1593951437227085,3.048,0.609,0.152
1593951437730326,3.048,0.609,0.152
1593951438231561,3.048,0.609,0.152
1593951438732798,3.087,0.609,0.152
1593951439234059,3.087,0.609,0.152
1593951439735341,3.087,0.609,0.152
1593951440236581,3.087,0.609,0.152
1593951440737837,3.087,0.609,0.152
1593951441239090,3.087,0.609,0.152
1593951441740333,3.048,0.609,0.152
1593951442241575,3.087,0.609,0.152
1593951442744971,3.087,0.609,0.152
1593951443246213,3.087,0.609,0.152
1593951443747460,3.048,0.609,0.152
1593951444248708,3.087,0.609,0.152
1593951444749979,3.087,0.609,0.152
1593951445251226,3.087,0.609,0.152
1593951445752449,3.087,0.609,0.152
1593951446253709,3.048,0.609,0.152
1593951446754971,3.087,0.609,0.152
1593951447256245,3.087,0.609,0.152
1593951447759551,3.087,0.609,0.152
1593951448260805,3.087,0.609,0.152
1593951448762053,3.048,0.609,0.152
1593951449263293,3.087,0.609,0.152
1593951449764597,3.087,0.609,0.152
1593951450265839,3.087,0.609,0.152
1593951450767075,3.087,0.609,0.152
1593951451268354,3.087,0.609,0.152
1593951451769611,3.087,0.609,0.152
1593951452270869,3.087,0.609,0.152
1593951452774054,3.087,0.609,0.152
1593951453275360,3.087,0.609,0.152
1593951453776604,3.048,0.609,0.152
1593951454277835,3.087,0.609,0.152
1593951454779087,3.087,0.609,0.152
1593951455280354,3.048,0.609,0.152
1593951455781591,3.087,0.609,0.152
1593951456282862,3.087,0.609,0.152
1593951456784130,3.048,0.609,0.152
1593951457285598,3.048,0.609,0.152
1593951457788948,3.087,0.609,0.152
1593951458290185,3.087,0.609,0.152
1593951458791465,3.087,0.609,0.152
1593951459292715,3.087,0.609,0.152
1593951459793963,3.087,0.609,0.152
1593951460295186,3.087,0.609,0.152
1593951460796451,3.087,0.609,0.152
1593951461297691,3.087,0.609,0.152
1593951461798940,3.048,0.609,0.152
1593951462300238,3.087,0.609,0.152
1593951462803443,3.087,0.609,0.152
1593951463304685,3.087,0.609,0.152
1593951463805950,3.087,0.609,0.152
1593951464307203,3.087,0.609,0.152
1593951464808466,3.087,0.609,0.152
1593951465309717,3.087,0.609,0.152
1593951465810971,3.087,0.609,0.152
1593951466312280,3.087,0.609,0.152
1593951466813536,3.048,0.609,0.152
1593951467314773,3.276,0.609,0.152
1593951467817996,3.428,0.609,0.152
1593951468319249,3.466,0.609,0.152
1593951468820546,3.352,0.609,0.152
1593951469321794,3.163,0.609,0.152
1593951469823045,3.087,0.609,0.152
1593951470324374,3.087,0.609,0.152
1593951470825632,3.087,0.609,0.152
1593951471326877,3.087,0.609,0.152
1593951471828206,3.087,0.609,0.152
1593951472329454,3.087,0.609,0.152
1593951472832742,3.087,0.609,0.152
1593951473333985,3.087,0.609,0.152
1593951473835259,3.087,0.609,0.152
1593951474336608,3.087,0.609,0.152
1593951474837843,3.087,0.609,0.152
1593951475339134,3.087,0.609,0.152
1593951475840382,3.087,0.609,0.152
1593951476341625,3.048,0.609,0.152
1593951476842884,3.048,0.609,0.152
1593951477344127,3.087,0.609,0.152
1593951477847335,3.087,0.609,0.152
1593951478348580,3.087,0.609,0.152
1593951478849835,3.087,0.609,0.152
1593951479351087,3.087,0.609,0.152
1593951479852345,3.087,0.609,0.152
1593951480353596,3.087,0.609,0.152
1593951480854866,3.087,0.609,0.152
1593951481356119,3.087,0.609,0.152
1593951481857396,3.087,0.609,0.152
1593951482358630,3.087,0.609,0.152
1593951482861914,3.087,0.609,0.152
1593951483363154,3.087,0.609,0.152
1593951483864433,3.048,0.609,0.152
1593951484365668,3.087,0.609,0.152
1593951484866909,3.087,0.609,0.152
1593951485368153,3.087,0.609,0.152
1593951485869391,3.087,0.609,0.152
1593951486370635,3.087,0.609,0.152
1593951486871943,3.087,0.609,0.152
1593951487373170,3.087,0.609,0.152
1593951487876317,3.087,0.609,0.152
1593951488377556,3.087,0.609,0.152
1593951488878810,3.087,0.609,0.152
1593951489380150,3.087,0.609,0.152
1593951489881407,3.087,0.609,0.152
1593951490382659,3.048,0.609,0.152
1593951490883902,3.087,0.609,0.152
1593951491385154,3.087,0.609,0.152
1593951491886411,3.087,0.609,0.152
1593951492387699,3.087,0.609,0.152
1593951492890835,3.087,0.609,0.152
1593951493392110,3.087,0.609,0.152
1593951493893397,3.087,0.609,0.152
1593951494394632,3.087,0.609,0.152
1593951494895905,3.087,0.609,0.152
1593951495397152,3.048,0.609,0.152
1593951495898392,3.087,0.609,0.152
1593951496399651,3.087,0.609,0.152
1593951496900923,3.087,0.609,0.152
1593951497402190,3.048,0.609,0.152
1593951497905460,3.087,0.609,0.152
1593951498406712,3.087,0.609,0.152
1593951498908036,3.087,0.609,0.152
1593951499409280,3.087,0.609,0.152
1593951499910530,3.087,0.609,0.152
1593951500411772,3.048,0.609,0.152
1593951500913012,3.087,0.609,0.152
1593951501414267,3.087,0.609,0.152
1593951501915578,3.087,0.609,0.152
1593951502416811,3.087,0.609,0.152
1593951502920057,3.087,0.609,0.152
1593951503421310,3.087,0.609,0.152
1593951503922575,3.087,0.609,0.152
1593951504423952,3.087,0.609,0.152
1593951504925194,3.087,0.609,0.152
1593951505426430,3.087,0.609,0.152
1593951505927742,3.087,0.609,0.152
1593951506428981,3.087,0.609,0.152
1593951506930228,3.048,0.609,0.152
1593951507431519,3.087,0.609,0.152
1593951507934785,3.087,0.609,0.152
1593951508436189,3.087,0.609,0.152
1593951508937460,3.087,0.609,0.152
1593951509438702,3.087,0.609,0.152
1593951509940016,3.087,0.609,0.152
1593951510441262,3.087,0.609,0.152
1593951510942499,3.087,0.609,0.152
1593951511443951,3.087,0.609,0.152
1593951511945230,3.087,0.609,0.152
1593951512446480,3.087,0.609,0.152
1593951512949641,3.087,0.609,0.152
1593951513450894,3.087,0.609,0.152
1593951513952143,3.087,0.609,0.152
1593951514453385,3.087,0.609,0.152
1593951514954635,3.087,0.609,0.152
1593951515455933,3.048,0.609,0.152
1593951515957176,3.087,0.609,0.152
1593951516458439,3.087,0.609,0.152
1593951516959813,3.087,0.609,0.152
1593951517461050,3.087,0.609,0.152
1593951517964606,3.087,0.609,0.152
1593951518465859,3.087,0.609,0.152
1593951518967099,3.087,0.609,0.152
1593951519468357,3.087,0.609,0.152
1593951519969635,3.087,0.609,0.152
1593951520470883,3.048,0.609,0.152
1593951520972167,3.087,0.609,0.152
1593951521473415,3.087,0.609,0.152
1593951521974659,3.087,0.609,0.152
1593951522475929,3.087,0.609,0.152
1593951522979221,3.087,0.609,0.152
1593951523480528,3.087,0.609,0.152
1593951523981742,3.087,0.609,0.152
1593951524482976,3.087,0.609,0.152
1593951524984245,3.087,0.609,0.152
1593951525485520,3.048,0.609,0.152
1593951525986770,3.087,0.609,0.152
1593951526488049,3.087,0.609,0.152
1593951526989284,3.087,0.609,0.152
1593951527490528,3.087,0.609,0.152
1593951527993754,3.087,0.609,0.152
1593951528495017,3.087,0.609,0.152
1593951528996305,3.087,0.609,0.152
1593951529497572,3.087,0.609,0.152
1593951529998821,3.125,0.609,0.152
1593951530500107,3.39,0.609,0.152
1593951531001354,3.466,0.609,0.152
1593951531502621,3.466,0.609,0.152
1593951532003900,3.238,0.609,0.152
1593951532505159,3.125,0.609,0.152
1593951533008529,3.087,0.609,0.152
1593951533509802,3.087,0.609,0.152
1593951534011044,3.087,0.609,0.152
1593951534512294,3.087,0.609,0.152
1593951535013532,3.048,0.609,0.152
1593951535514781,3.087,0.609,0.152
1593951536016106,3.087,0.609,0.152
1593951536517327,3.087,0.609,0.152
1593951537018568,3.048,0.609,0.152
1593951537519823,3.048,0.609,0.152
1593951538023008,3.087,0.609,0.152
1593951538524332,3.087,0.609,0.152
1593951539025575,3.087,0.609,0.152
1593951539526815,3.087,0.609,0.152
1593951540028104,3.048,0.609,0.152
1593951540529344,3.087,0.609,0.152
1593951541030617,3.087,0.609,0.152
1593951541531962,3.087,0.609,0.152
1593951542033204,3.087,0.609,0.152
1593951542534439,3.087,0.609,0.152
1593951543037607,3.087,0.609,0.152
1593951543538855,3.087,0.609,0.152
1593951544040101,3.087,0.609,0.152
1593951544541344,3.087,0.609,0.152
1593951545042603,3.087,0.609,0.152
1593951545543871,3.048,0.609,0.152
1593951546045118,3.087,0.609,0.152
1593951546546363,3.087,0.609,0.152
1593951547047640,3.087,0.609,0.152
1593951547548883,3.087,0.609,0.152
1593951548052376,3.087,0.609,0.152
1593951548553645,3.087,0.609,0.152
1593951549054898,3.087,0.609,0.152
1593951549556185,3.087,0.609,0.152
1593951550057444,3.087,0.609,0.152
1593951550558639,3.048,0.609,0.152
1593951551060092,3.048,0.609,0.152
1593951551561336,3.087,0.609,0.152
1593951552062570,3.087,0.609,0.152
1593951552563827,3.087,0.609,0.152
1593951553067368,3.087,0.609,0.152
1593951553568621,3.087,0.609,0.152
1593951554069862,3.087,0.609,0.152
1593951554571109,3.087,0.609,0.152
1593951555072361,3.087,0.609,0.152
1593951555573613,3.087,0.609,0.152
1593951556074865,3.087,0.609,0.152
1593951556576119,3.087,0.609,0.152
1593951557077351,3.087,0.609,0.152
1593951557578603,3.087,0.609,0.152
1593951558082137,3.087,0.609,0.152
1593951558583425,3.087,0.609,0.152
1593951559084655,3.087,0.609,0.152
1593951559585910,3.087,0.609,0.152
1593951560087147,3.087,0.609,0.152
1593951560588421,3.087,0.609,0.152
1593951561089698,3.087,0.609,0.152
1593951561590944,3.087,0.609,0.152
1593951562092184,3.087,0.609,0.152
1593951562593449,3.087,0.609,0.152
1593951563094702,3.087,0.609,0.152
1593951563596008,3.087,0.609,0.152
1593951564097242,3.087,0.609,0.152
1593951564598499,3.087,0.609,0.152
1593951565099876,3.087,0.609,0.152
1593951565601112,3.087,0.609,0.152
1593951566102358,3.087,0.609,0.152
1593951566603601,3.087,0.609,0.152
1593951567104845,3.087,0.609,0.152
1593951567606101,3.087,0.609,0.152
1593951568109370,3.087,0.609,0.152
1593951568610611,3.087,0.609,0.152
1593951569111886,3.087,0.609,0.152
1593951569613123,3.087,0.609,0.152
1593951570114374,3.087,0.609,0.152
1593951570615646,3.048,0.609,0.152
1593951571116895,3.087,0.609,0.152
1593951571618186,3.087,0.609,0.152
1593951572119409,3.087,0.609,0.152
1593951572620653,3.087,0.609,0.152
1593951573123792,3.087,0.609,0.152
1593951573625056,3.087,0.609,0.152
1593951574126303,3.087,0.609,0.152
1593951574627552,3.087,0.609,0.152
1593951575128805,3.087,0.609,0.152
1593951575630054,3.087,0.609,0.152
1593951576131336,3.087,0.609,0.152
1593951576632577,3.087,0.609,0.152
1593951577133804,3.048,0.609,0.152
1593951577635046,3.048,0.609,0.152
1593951578138246,3.087,0.609,0.152
1593951578639536,3.087,0.609,0.152
1593951579140784,3.087,0.609,0.152
1593951579642036,3.087,0.609,0.152
1593951580143249,3.087,0.609,0.152
1593951580644525,3.048,0.609,0.152
1593951581145762,3.087,0.609,0.152
1593951581647020,3.087,0.609,0.152
1593951582148299,3.048,0.609,0.152
1593951582649535,3.087,0.609,0.152
1593951583153016,3.087,0.609,0.152
1593951583654256,3.087,0.609,0.152
1593951584155530,3.087,0.609,0.152
1593951584656831,3.087,0.609,0.152
1593951585158084,3.087,0.609,0.152
1593951585659354,3.087,0.609,0.152
1593951586160614,3.087,0.609,0.152
1593951586661875,3.087,0.609,0.152
1593951587163112,3.087,0.609,0.152
1593951587664463,3.087,0.609,0.152
1593951588165705,3.087,0.609,0.152
1593951588666959,3.087,0.609,0.152
1593951589168251,3.087,0.609,0.152
1593951589669491,3.087,0.609,0.152
1593951590170784,3.087,0.609,0.152
1593951590672057,3.087,0.609,0.152
1593951591173308,3.087,0.609,0.152
1593951591674579,3.087,0.609,0.152
1593951592175873,3.087,0.609,0.152
1593951592677122,3.087,0.609,0.152
1593951593180412,3.239,0.609,0.152
1593951593681662,3.428,0.609,0.152
1593951594182900,3.466,0.609,0.152
1593951594684974,3.428,0.609,0.152
1593951595186231,3.2,0.609,0.152
1593951595687542,3.125,0.609,0.152
1593951596188794,3.087,0.609,0.152
1593951596690052,3.087,0.609,0.152
1593951597191336,3.087,0.609,0.152
1593951597692569,3.087,0.609,0.152
1593951598195808,3.087,0.609,0.152
1593951598697067,3.087,0.609,0.152
1593951599198315,3.087,0.609,0.152
1593951599699696,3.087,0.609,0.152
1593951600200935,3.087,0.609,0.152
1593951600702139,3.087,0.609,0.152
1593951601203442,3.087,0.609,0.152
1593951601704703,3.087,0.609,0.152
1593951602205940,3.087,0.609,0.152
1593951602707179,3.087,0.609,0.152
1593951603210376,3.087,0.609,0.152
1593951603711627,3.048,0.609,0.152
1593951604212873,3.087,0.609,0.152
1593951604714118,3.087,0.609,0.152
1593951605215397,3.087,0.609,0.152
1593951605716637,3.087,0.609,0.152
1593951606217894,3.087,0.609,0.152
1593951606719175,3.087,0.609,0.152
1593951607220512,3.087,0.609,0.152
1593951607721763,3.087,0.609,0.152
1593951608224924,3.087,0.609,0.152
1593951608726739,3.087,0.609,0.152
1593951609227927,3.087,0.609,0.152
1593951609729162,3.087,0.609,0.152
1593951610230398,3.087,0.609,0.152
1593951610731724,3.087,0.609,0.152
1593951611232984,3.087,0.609,0.152
1593951611734224,3.087,0.609,0.152
1593951612235457,3.087,0.609,0.152
1593951612736718,3.087,0.609,0.152
1593951613239962,3.087,0.609,0.152
1593951613741228,3.087,0.609,0.152
1593951614242499,3.087,0.609,0.152
1593951614743757,3.087,0.609,0.152
1593951615245018,3.087,0.609,0.152
1593951615746266,3.087,0.609,0.152
1593951616247555,3.087,0.609,0.152
1593951616748793,3.087,0.609,0.152
1593951617250023,3.087,0.609,0.152
1593951617751274,3.087,0.609,0.152
1593951618254497,3.087,0.609,0.152
1593951618756032,3.087,0.609,0.152
1593951619257306,3.087,0.609,0.152
1593951619758543,3.087,0.609,0.152
1593951620259798,3.087,0.609,0.152
1593951620761051,3.087,0.609,0.152
1593951621262284,3.087,0.609,0.152
1593951621763540,3.087,0.609,0.152
1593951622264784,3.087,0.609,0.152
1593951622766024,3.087,0.609,0.152
1593951623269265,3.087,0.609,0.152
1593951623770532,3.087,0.609,0.152
1593951624271762,3.087,0.609,0.152
1593951624773030,3.087,0.609,0.152
1593951625274265,3.087,0.609,0.152
1593951625775539,3.087,0.609,0.152
1593951626276845,3.087,0.609,0.152
1593951626778096,3.087,0.609,0.152
1593951627279373,3.087,0.609,0.152
1593951627780606,3.087,0.609,0.152
1593951628283801,3.087,0.609,0.152
1593951628785070,3.087,0.609,0.152
1593951629286301,3.087,0.609,0.152
1593951629787543,3.087,0.609,0.152
1593951630288812,3.087,0.609,0.152
1593951630790070,3.087,0.609,0.152
1593951631291329,3.087,0.609,0.152
1593951631792574,3.087,0.609,0.152
1593951632293827,3.048,0.609,0.152
1593951632795073,3.087,0.609,0.152
1593951633298383,3.087,0.609,0.152
1593951633799636,3.087,0.609,0.152
1593951634300902,3.087,0.609,0.152
1593951634802162,3.087,0.609,0.152
1593951635303400,3.087,0.609,0.152
1593951635804647,3.087,0.609,0.152
1593951636305912,3.087,0.609,0.152
1593951636807165,3.087,0.609,0.152
1593951637308439,3.087,0.609,0.152
1593951637809688,3.087,0.609,0.152
1593951638312936,3.087,0.609,0.152
1593951638814194,3.048,0.609,0.152
1593951639315451,3.048,0.609,0.152
1593951639816691,3.087,0.609,0.152
1593951640317942,3.087,0.609,0.152
1593951640819183,3.087,0.609,0.152
1593951641320479,3.087,0.609,0.152
1593951641821674,3.087,0.609,0.152
1593951642322915,3.087,0.609,0.152
1593951642824170,3.087,0.609,0.152
1593951643327370,3.087,0.609,0.152
1593951643828649,3.048,0.609,0.152
1593951644329926,3.048,0.609,0.152
1593951644831173,3.048,0.609,0.152
1593951645332511,3.087,0.609,0.152
1593951645833763,3.048,0.609,0.152
1593951646335030,3.087,0.609,0.152
1593951646836480,3.087,0.609,0.152
1593951647337732,3.087,0.609,0.152
1593951647838989,3.087,0.609,0.152
1593951648342244,3.087,0.609,0.152
1593951648843582,3.087,0.609,0.152
1593951649344817,3.087,0.609,0.152
1593951649846079,3.087,0.609,0.152
1593951650347370,3.087,0.609,0.152
1593951650848623,3.087,0.609,0.152
1593951651349859,3.087,0.609,0.152
1593951651851121,3.087,0.609,0.152
1593951652352397,3.048,0.609,0.152
1593951652853634,3.087,0.609,0.152
1593951653356859,3.087,0.609,0.152
1593951653858125,3.087,0.609,0.152
1593951654359368,3.087,0.609,0.152
1593951654860625,3.087,0.609,0.152
1593951655361886,3.087,0.609,0.152
1593951655863143,3.087,0.609,0.152
1593951656364409,3.352,0.609,0.152
1593951656865686,3.466,0.609,0.152
1593951657366943,3.466,0.609,0.152
1593951657868196,3.314,0.609,0.152
1593951658371910,3.161,0.609,0.152
1593951658873167,3.087,0.609,0.152
1593951659374427,3.087,0.609,0.152
1593951659875701,3.087,0.609,0.152
1593951660376968,3.087,0.609,0.152
1593951660878210,3.087,0.609,0.152
1593951661379452,3.087,0.609,0.152
1593951661880716,3.087,0.609,0.152
1593951662381964,3.087,0.609,0.152
1593951662883242,3.087,0.609,0.152
1593951663386732,3.087,0.609,0.152
1593951663888095,3.087,0.609,0.152
1593951664389356,3.087,0.609,0.152
1593951664890594,3.087,0.609,0.152
1593951665391889,3.087,0.609,0.152
1593951665893146,3.087,0.609,0.152
1593951666394389,3.087,0.609,0.152
1593951666895643,3.087,0.609,0.152
1593951667396890,3.087,0.609,0.152
1593951667898127,3.087,0.609,0.152
1593951668401311,3.087,0.609,0.152
1593951668902572,3.087,0.609,0.152
1593951669403832,3.087,0.609,0.152
1593951669905090,3.087,0.609,0.152
1593951670406331,3.087,0.609,0.152
1593951670907615,3.087,0.609,0.152
1593951671408851,3.087,0.609,0.152
1593951671910100,3.087,0.609,0.152
1593951672411505,3.048,0.609,0.152
1593951672912756,3.087,0.609,0.152
1593951673415909,3.087,0.609,0.152
1593951673917181,3.087,0.609,0.152
1593951674418423,3.087,0.609,0.152
1593951674919714,3.087,0.609,0.152
1593951675420966,3.087,0.609,0.152
1593951675922223,3.087,0.609,0.152
1593951676423470,3.087,0.609,0.152
1593951676924728,3.087,0.609,0.152
1593951677425987,3.087,0.609,0.152
1593951677927231,3.048,0.609,0.152
1593951678430534,3.087,0.609,0.152
1593951678931830,3.087,0.609,0.152
1593951679433067,3.087,0.609,0.152
1593951679934315,3.087,0.609,0.152
1593951680435614,3.087,0.609,0.152
1593951680936866,3.087,0.609,0.152
1593951681438119,3.087,0.609,0.152
1593951681939442,3.087,0.609,0.152
1593951682440688,3.087,0.609,0.152
1593951682941950,3.087,0.609,0.152
1593951683445222,3.087,0.609,0.152
1593951683946473,3.087,0.609,0.152
1593951684447731,3.087,0.609,0.152
1593951684948970,3.087,0.609,0.152
1593951685450248,3.087,0.609,0.152
1593951685951531,3.087,0.609,0.152
1593951686452778,3.087,0.609,0.152
1593951686954034,3.087,0.609,0.152
1593951687455340,3.087,0.609,0.152
1593951687956594,3.087,0.609,0.152
1593951688459721,3.087,0.609,0.152
1593951688960979,3.048,0.609,0.152
1593951689462228,3.048,0.609,0.152
1593951689963509,3.087,0.609,0.152
1593951690464763,3.048,0.609,0.152
1593951690966013,3.048,0.609,0.152
1593951691467259,3.087,0.609,0.152
1593951691968552,3.087,0.609,0.152
1593951692469812,3.087,0.609,0.152
1593951692971073,3.087,0.609,0.152
1593951693474485,3.087,0.609,0.152
1593951693975763,3.087,0.609,0.152
1593951694477000,3.087,0.609,0.152
1593951694978245,3.087,0.609,0.152
1593951695479537,3.087,0.609,0.152
1593951695980790,3.087,0.609,0.152
1593951696482076,3.087,0.609,0.152
1593951696983350,3.087,0.609,0.152
1593951697484589,3.087,0.609,0.152
1593951697985844,3.087,0.609,0.152
1593951698489119,3.087,0.609,0.152
1593951698990380,3.087,0.609,0.152
1593951699491615,3.087,0.609,0.152
1593951699992859,3.087,0.609,0.152
1593951700494093,3.087,0.609,0.152
1593951700995368,3.087,0.609,0.152
1593951701496609,3.087,0.609,0.152
1593951701997862,3.087,0.609,0.152
1593951702499387,3.087,0.609,0.152
1593951703000647,3.087,0.609,0.152
1593951703503810,3.087,0.609,0.152
1593951704005093,3.087,0.609,0.152
1593951704506330,3.087,0.609,0.152
1593951705007586,3.087,0.609,0.152
1593951705508788,3.087,0.609,0.152
1593951706010037,3.087,0.609,0.152
1593951706511272,3.087,0.609,0.152
1593951707012541,3.087,0.609,0.152
1593951707513839,3.048,0.609,0.152
1593951708015079,3.087,0.609,0.152
1593951708518243,3.087,0.609,0.152
1593951709019715,3.087,0.609,0.152
1593951709520950,3.087,0.609,0.152
1593951710022196,3.087,0.609,0.152
1593951710523610,3.087,0.609,0.152
1593951711024894,3.087,0.609,0.152
1593951711526121,3.087,0.609,0.152
1593951712027417,3.087,0.609,0.152
1593951712528678,3.048,0.609,0.152
1593951713029931,3.087,0.609,0.152
1593951713533148,3.087,0.609,0.152
1593951714034417,3.048,0.609,0.152
1593951714535720,3.087,0.609,0.152
1593951715036983,3.087,0.609,0.152
1593951715538216,3.087,0.609,0.152
1593951716039534,3.087,0.609,0.152
1593951716540778,3.087,0.609,0.152
1593951717042031,3.087,0.609,0.152
1593951717543262,3.087,0.609,0.152
1593951718044541,3.087,0.609,0.152
1593951718547770,3.087,0.609,0.152
1593951719049045,3.125,0.609,0.152
1593951719550513,3.39,0.609,0.152
1593951720051838,3.504,0.609,0.152
1593951720553090,3.504,0.609,0.152
1593951721054328,3.2,0.609,0.152
1593951721555599,3.125,0.609,0.152
1593951722056847,3.087,0.609,0.152
1593951722558095,3.087,0.609,0.152
1593951723059442,3.087,0.609,0.152
1593951723562839,3.087,0.609,0.152
1593951724064186,3.087,0.609,0.152
1593951724565426,3.087,0.609,0.152
1593951725066672,3.087,0.609,0.152
1593951725567929,3.087,0.609,0.152
1593951726069208,3.048,0.609,0.152
1593951726570445,3.087,0.609,0.152
1593951727071749,3.087,0.609,0.152
1593951727572972,3.048,0.609,0.152
1593951728074226,3.087,0.609,0.152
1593951728577391,3.087,0.609,0.152
1593951729078636,3.087,0.609,0.152
1593951729579921,3.087,0.609,0.152
1593951730081195,3.087,0.609,0.152
1593951730582438,3.087,0.609,0.152
1593951731083700,3.087,0.609,0.152
1593951731584944,3.087,0.609,0.152
1593951732086179,3.087,0.609,0.152
1593951732587419,3.048,0.609,0.152
1593951733088662,3.087,0.609,0.152
1593951733591809,3.087,0.609,0.152
1593951734093076,3.087,0.609,0.152
1593951734594302,3.087,0.609,0.152
1593951735095568,3.087,0.609,0.152
1593951735596818,3.087,0.609,0.152
1593951736098081,3.087,0.609,0.152
1593951736599391,3.087,0.609,0.152
1593951737100635,3.087,0.609,0.152
1593951737601880,3.087,0.609,0.152
1593951738103133,3.087,0.609,0.152
1593951738606277,3.087,0.609,0.152
1593951739107581,3.087,0.609,0.152
1593951739608835,3.087,0.609,0.152
1593951740110090,3.087,0.609,0.152
1593951740611378,3.087,0.609,0.152
1593951741112632,3.087,0.609,0.152
1593951741613869,3.087,0.609,0.152
1593951742115128,3.087,0.609,0.152
1593951742616373,3.087,0.609,0.152
1593951743117616,3.087,0.609,0.152
1593951743620792,3.087,0.609,0.152
1593951744122035,3.087,0.609,0.152
1593951744623268,3.087,0.609,0.152
1593951745124530,3.087,0.609,0.152
1593951745625801,3.087,0.609,0.152
1593951746127067,3.048,0.609,0.152
1593951746628314,3.087,0.609,0.152
1593951747129559,3.087,0.609,0.152
1593951747630824,3.087,0.609,0.152
1593951748132119,3.087,0.609,0.152
1593951748635279,3.087,0.609,0.152
1593951749136566,3.087,0.609,0.152
1593951749637801,3.087,0.609,0.152
1593951750139056,3.087,0.609,0.152
1593951750640327,3.087,0.609,0.152
1593951751141588,3.087,0.609,0.152
1593951751642837,3.087,0.609,0.152
1593951752144111,3.087,0.609,0.152
1593951752645386,3.087,0.609,0.152
1593951753146638,3.087,0.609,0.152
1593951753650015,3.087,0.609,0.152
1593951754151248,3.087,0.609,0.152
1593951754652741,3.087,0.609,0.152
1593951755153988,3.087,0.609,0.152
1593951755655227,3.087,0.609,0.152
1593951756156437,3.087,0.609,0.152
1593951756657677,3.087,0.609,0.152
1593951757158911,3.087,0.609,0.152
1593951757660148,3.087,0.609,0.152
1593951758161389,3.087,0.609,0.152
1593951758664649,3.087,0.609,0.152
1593951759165931,3.087,0.609,0.152
1593951759667157,3.087,0.609,0.152
1593951760168477,3.048,0.609,0.152
1593951760669720,3.087,0.609,0.152
1593951761170962,3.087,0.609,0.152
1593951761672270,3.087,0.609,0.152
1593951762173512,3.087,0.609,0.152
1593951762674749,3.087,0.609,0.152
1593951763175992,3.087,0.609,0.152
1593951763679232,3.087,0.609,0.152
1593951764180587,3.048,0.609,0.152
1593951764681789,3.087,0.609,0.152
1593951765183026,3.048,0.609,0.152
1593951765684369,3.087,0.609,0.152
1593951766185637,3.087,0.609,0.152
1593951766686876,3.087,0.609,0.152
1593951767188191,3.087,0.609,0.152
1593951767689431,3.087,0.609,0.152
1593951768190660,3.087,0.609,0.152
1593951768693962,3.087,0.609,0.152
1593951769195219,3.087,0.609,0.152
1593951769696438,3.087,0.609,0.152
1593951770197655,3.087,0.609,0.152
1593951770698901,3.087,0.609,0.152
1593951771200161,3.087,0.609,0.152
1593951771701431,3.087,0.609,0.152
1593951772202695,3.087,0.609,0.152
1593951772703966,3.048,0.609,0.152
1593951773205225,3.087,0.609,0.152
1593951773708449,3.087,0.609,0.152
1593951774209743,3.087,0.609,0.152
1593951774710977,3.087,0.609,0.152
1593951775212261,3.087,0.609,0.152
1593951775713515,3.087,0.609,0.152
1593951776214757,3.087,0.609,0.152
1593951776716002,3.087,0.609,0.152
1593951777217263,3.087,0.609,0.152
1593951777718532,3.048,0.609,0.152
1593951778219779,3.048,0.609,0.152
1593951778722959,3.087,0.609,0.152
1593951779224218,3.048,0.609,0.152
1593951779725467,3.087,0.609,0.152
1593951780226720,3.087,0.609,0.152
1593951780727965,3.087,0.609,0.152
1593951781229208,3.087,0.609,0.152
1593951781730455,3.087,0.609,0.152
1593951782231735,3.276,0.609,0.152
1593951782732970,3.428,0.609,0.152
1593951783234208,3.466,0.609,0.152
1593951783737351,3.428,0.609,0.152
1593951784238598,3.201,0.609,0.152
1593951784739887,3.125,0.609,0.152
1593951785241132,3.087,0.609,0.152
1593951785742379,3.087,0.609,0.152
1593951786243687,3.048,0.609,0.152
1593951786744936,3.087,0.609,0.152
1593951787246173,3.087,0.609,0.152
1593951787747437,3.087,0.609,0.152
1593951788248693,3.087,0.609,0.152
1593951788751935,3.087,0.609,0.152
1593951789253227,3.087,0.609,0.152
1593951789754491,3.087,0.609,0.152
1593951790255726,3.087,0.609,0.152
1593951790756988,3.087,0.609,0.152
1593951791258230,3.087,0.609,0.152
1593951791759470,3.087,0.609,0.152
1593951792260743,3.087,0.609,0.152
1593951792761991,3.048,0.609,0.152
1593951793263253,3.048,0.609,0.152
1593951793766807,3.087,0.609,0.152
1593951794268104,3.087,0.609,0.152
1593951794769378,3.087,0.609,0.152
1593951795270653,3.087,0.609,0.152
1593951795771922,3.087,0.609,0.152
1593951796273191,3.087,0.609,0.152
1593951796774436,3.087,0.609,0.152
1593951797275703,3.087,0.609,0.152
1593951797777014,3.048,0.609,0.152
1593951798278248,3.087,0.609,0.152
1593951798781388,3.087,0.609,0.152
1593951799282635,3.087,0.609,0.152
1593951799783916,3.087,0.609,0.152
1593951800285155,3.087,0.609,0.152
1593951800786394,3.087,0.609,0.152
1593951801287634,3.087,0.609,0.152
1593951801788910,3.087,0.609,0.152
1593951802290166,3.087,0.609,0.152
1593951802791417,3.087,0.609,0.152
1593951803292683,3.087,0.609,0.152
1593951803795981,3.087,0.609,0.152
1593951804297245,3.087,0.609,0.152
1593951804798483,3.048,0.609,0.152
1593951805299805,3.087,0.609,0.152
1593951805801054,3.087,0.609,0.152
1593951806302294,3.087,0.609,0.152
1593951806803619,3.087,0.609,0.152
1593951807304869,3.087,0.609,0.152
1593951807806108,3.087,0.609,0.152
1593951808307418,3.087,0.609,0.152
1593951808810582,3.087,0.609,0.152
1593951809311822,3.087,0.609,0.152
1593951809813054,3.087,0.609,0.152
1593951810314297,3.087,0.609,0.152
1593951810815542,3.087,0.609,0.152
1593951811316794,3.048,0.609,0.152
1593951811818033,3.087,0.609,0.152
1593951812319275,3.087,0.609,0.152
1593951812820558,3.087,0.609,0.152
1593951813321803,3.087,0.609,0.152
1593951813824922,3.087,0.609,0.152
1593951814326191,3.087,0.609,0.152
1593951814827441,3.087,0.609,0.152
1593951815328680,3.087,0.609,0.152
1593951815829888,3.087,0.609,0.152
1593951816331129,3.087,0.609,0.152
1593951816832387,3.087,0.609,0.152
1593951817333657,3.087,0.609,0.152
1593951817834909,3.048,0.609,0.152
1593951818336180,3.048,0.609,0.152
1593951818839440,3.087,0.609,0.152
1593951819340726,3.087,0.609,0.152
1593951819841983,3.087,0.609,0.152
1593951820343227,3.087,0.609,0.152
1593951820844451,3.087,0.609,0.152
1593951821345690,3.087,0.609,0.152
1593951821846945,3.087,0.609,0.152
1593951822348194,3.048,0.609,0.152
1593951822849451,3.048,0.609,0.152
1593951823350687,3.087,0.609,0.152
1593951823853901,3.087,0.609,0.152
1593951824355144,3.087,0.609,0.152
1593951824856510,3.048,0.609,0.152
1593951825357775,3.048,0.609,0.152
1593951825859022,3.087,0.609,0.152
1593951826360323,3.087,0.609,0.152
1593951826861552,3.087,0.609,0.152
1593951827362829,3.087,0.609,0.152
1593951827864142,3.087,0.609,0.152
1593951828365392,3.087,0.609,0.152
1593951828868877,3.087,0.609,0.152
1593951829370123,3.087,0.609,0.152
1593951829871370,3.087,0.609,0.152
1593951830372604,3.087,0.609,0.152
1593951830873832,3.048,0.609,0.152
1593951831375083,3.087,0.609,0.152
1593951831876317,3.087,0.609,0.152
1593951832377565,3.087,0.609,0.152
1593951832878815,3.087,0.609,0.152
1593951833380078,3.087,0.609,0.152
1593951833883276,3.087,0.609,0.152
1593951834384568,3.087,0.609,0.152
1593951834885822,3.087,0.609,0.152
1593951835387084,3.087,0.609,0.152
1593951835888443,3.087,0.609,0.152
1593951836389710,3.048,0.609,0.152
1593951836890954,3.087,0.609,0.152
1593951837392208,3.087,0.609,0.152
1593951837893461,3.087,0.609,0.152
1593951838394701,3.087,0.609,0.152
1593951838898235,3.087,0.609,0.152
1593951839399576,3.087,0.609,0.152
1593951839900815,3.087,0.609,0.152
1593951840402061,3.087,0.609,0.152
1593951840903417,3.048,0.609,0.152
1593951841404656,3.087,0.609,0.152
1593951841905901,3.087,0.609,0.152
1593951842407148,3.087,0.609,0.152
1593951842908500,3.087,0.609,0.152
1593951843409787,3.087,0.609,0.152
1593951843913075,3.087,0.609,0.152
1593951844414324,3.048,0.609,0.152
1593951844915580,3.087,0.609,0.152
1593951845416841,3.352,0.609,0.152
1593951845918070,3.466,0.609,0.152
1593951846419378,3.466,0.609,0.152
1593951846920609,3.276,0.609,0.152
1593951847421857,3.125,0.609,0.152
1593951847923114,3.087,0.609,0.152
1593951848424357,3.087,0.609,0.152
1593951848927595,3.087,0.609,0.152
1593951849428856,3.087,0.609,0.152
1593951849930088,3.087,0.609,0.152
1593951850431361,3.087,0.609,0.152
1593951850932608,3.087,0.609,0.152
1593951851433875,3.087,0.609,0.152
1593951851935134,3.087,0.609,0.152
1593951852436411,3.087,0.609,0.152
1593951852937659,3.087,0.609,0.152
1593951853438895,3.087,0.609,0.152
1593951853942044,3.087,0.609,0.152
1593951854443346,3.048,0.609,0.152
1593951854944588,3.087,0.609,0.152
1593951855445840,3.087,0.609,0.152
1593951855947089,3.087,0.609,0.152
1593951856448333,3.087,0.609,0.152
1593951856949606,3.087,0.609,0.152
1593951857450864,3.087,0.609,0.152
1593951857952123,3.087,0.609,0.152
1593951858453399,3.087,0.609,0.152
1593951858956746,3.087,0.609,0.152
1593951859457985,3.048,0.609,0.152
1593951859959273,3.087,0.609,0.152
1593951860460664,3.087,0.609,0.152
1593951860961902,3.087,0.609,0.152
1593951861463143,3.048,0.609,0.152
1593951861964405,3.048,0.609,0.152
1593951862465656,3.087,0.609,0.152
1593951862966907,3.087,0.609,0.152
1593951863468183,3.087,0.609,0.152
1593951863971407,3.087,0.609,0.152
1593951864472668,3.087,0.609,0.152
1593951864973899,3.087,0.609,0.152
1593951865475168,3.087,0.609,0.152
1593951865976526,3.087,0.609,0.152
1593951866477765,3.048,0.609,0.152
1593951866979004,3.048,0.609,0.152
1593951867480333,3.087,0.609,0.152
1593951867981579,3.048,0.609,0.152
1593951868482816,3.087,0.609,0.152
1593951868985988,3.087,0.609,0.152
1593951869487247,3.087,0.609,0.152
1593951869988621,3.087,0.609,0.152
1593951870489868,3.087,0.609,0.152
1593951870991134,3.087,0.609,0.152
1593951871492404,3.087,0.609,0.152
1593951871993661,3.087,0.609,0.152
1593951872494929,3.087,0.609,0.152
1593951872996188,3.048,0.609,0.152
1593951873497423,3.087,0.609,0.152
1593951874000636,3.087,0.609,0.152
1593951874501897,3.087,0.609,0.152
1593951875003169,3.087,0.609,0.152
1593951875504451,3.087,0.609,0.152
1593951876005702,3.087,0.609,0.152
1593951876507156,3.087,0.609,0.152
1593951877008442,3.087,0.609,0.152
1593951877509700,3.087,0.609,0.152
1593951878010938,3.087,0.609,0.152
1593951878512177,3.087,0.609,0.152
1593951879015389,3.087,0.609,0.152
1593951879516626,3.048,0.609,0.152
1593951880017876,3.048,0.609,0.152
1593951880519119,3.048,0.609,0.152
1593951881020380,3.087,0.609,0.152
1593951881521637,3.087,0.609,0.152
1593951882022914,3.087,0.609,0.152
1593951882524202,3.087,0.609,0.152
1593951883025446,3.087,0.609,0.152
1593951883526723,3.087,0.609,0.152
1593951884029921,3.087,0.609,0.152
1593951884531178,3.087,0.609,0.152
1593951885032518,3.087,0.609,0.152
1593951885533758,3.087,0.609,0.152
1593951886035015,3.087,0.609,0.152
1593951886536297,3.087,0.609,0.152
1593951887037538,3.087,0.609,0.152
1593951887538793,3.087,0.609,0.152
1593951888040071,3.087,0.609,0.152
1593951888541312,3.087,0.609,0.152
1593951889044635,3.087,0.609,0.152
1593951889545877,3.087,0.609,0.152
1593951890047116,3.201,0.686,0.152
