TimeStamp,A7 Voltage(V),A7 Current(A),A7 Power(W),A15 Voltage(V),A15 Current(A),A15 Power(W),GPU Power(W)
1606671483996709832,0.900000,0.043000,0.039000,1.100000,3.322000,3.939000,0.067000
1606671484861703843,0.900000,0.046000,0.041000,1.000000,2.170000,2.300000,0.068000
1606671485520378915,0.900000,0.040000,0.036000,1.000000,1.920000,2.031000,0.068000
1606671486117176791,0.900000,0.177000,0.167000,1.000000,2.091000,2.216000,0.068000
1606671486724815055,0.900000,0.177000,0.167000,1.000000,1.941000,2.053000,0.069000
1606671487822566118,0.900000,0.177000,0.166000,1.000000,1.932000,2.044000,0.069000
1606671489011687241,0.900000,0.035000,0.031000,1.200000,3.515000,4.235000,0.069000
1606671490166368700,0.900000,0.043000,0.039000,1.200000,3.719000,4.485000,0.071000
1606671491322705494,0.900000,0.039000,0.035000,1.200000,3.557000,4.286000,0.073000
1606671492440858494,0.900000,0.027000,0.024000,0.900000,0.657000,0.632000,0.073000
1606671493619246687,0.900000,0.033000,0.030000,0.900000,0.748000,0.721000,0.071000
1606671494831823168,0.900000,0.026000,0.023000,0.900000,0.578000,0.556000,0.069000
1606671495962837890,0.900000,0.027000,0.024000,1.000000,1.277000,1.330000,0.069000
1606671496896649683,0.900000,0.033000,0.030000,1.000000,1.585000,1.653000,0.069000
1606671497669549421,0.900000,0.055000,0.050000,1.000000,1.800000,1.899000,0.069000
1606671498461038055,0.900000,0.058000,0.052000,1.000000,2.021000,2.138000,0.069000
1606671499166845968,0.900000,0.055000,0.050000,1.000000,1.929000,2.040000,0.070000
1606671499884367811,0.900000,0.093000,0.084000,1.100000,2.370000,2.661000,0.070000
1606671500601108236,0.900000,0.104000,0.094000,1.100000,2.543000,2.860000,0.071000
1606671501211006833,0.900000,0.121000,0.111000,1.100000,2.659000,3.023000,0.071000
1606671501807817249,0.900000,0.179000,0.169000,1.100000,3.357000,3.914000,0.072000
1606671502457410057,0.900000,0.179000,0.169000,1.100000,3.352000,3.908000,0.073000
1606671503139475693,0.900000,0.072000,0.065000,1.100000,2.963000,3.377000,0.074000
1606671503834484760,0.900000,0.071000,0.064000,1.000000,2.152000,2.334000,0.074000
1606671504515068227,0.900000,0.074000,0.067000,1.000000,2.265000,2.457000,0.074000
1606671505137131420,0.900000,0.144000,0.130000,1.100000,3.356000,3.913000,0.073000
1606671505753604607,0.900000,0.144000,0.130000,1.100000,3.394000,3.960000,0.074000
1606671506421559852,0.900000,0.144000,0.130000,1.100000,3.375000,3.938000,0.075000
1606671507070921617,0.900000,0.119000,0.108000,1.100000,3.316000,3.866000,0.075000
1606671507734764856,0.900000,0.121000,0.109000,1.100000,3.410000,3.976000,0.075000
1606671508394518341,0.900000,0.124000,0.112000,1.100000,3.405000,3.970000,0.076000
1606671509051794740,0.900000,0.119000,0.108000,1.100000,2.606000,2.931000,0.076000
1606671509693019121,0.900000,0.116000,0.105000,1.100000,2.388000,2.681000,0.076000
1606671510354277357,0.900000,0.121000,0.109000,1.100000,2.501000,2.813000,0.075000
1606671511015589426,0.900000,0.130000,0.118000,1.100000,3.376000,3.939000,0.076000
1606671511700221730,0.900000,0.116000,0.105000,1.100000,3.413000,3.982000,0.076000
1606671512412821940,0.900000,0.126000,0.114000,1.100000,3.409000,3.974000,0.078000
1606671513099412954,0.900000,0.101000,0.091000,1.100000,3.410000,3.979000,0.077000
1606671513841933071,0.900000,0.072000,0.065000,1.100000,3.359000,3.916000,0.077000
1606671514552587778,0.900000,0.086000,0.078000,1.100000,3.422000,3.993000,0.077000
1606671515236648247,0.900000,0.107000,0.097000,1.100000,3.389000,3.954000,0.079000
1606671515974099650,0.900000,0.096000,0.087000,1.100000,3.423000,3.994000,0.078000
1606671516641370559,0.900000,0.124000,0.112000,1.100000,3.425000,3.996000,0.078000
1606671517304155629,0.900000,0.129000,0.117000,1.100000,3.423000,3.994000,0.078000
1606671517961978568,0.900000,0.124000,0.112000,1.100000,3.426000,3.998000,0.079000
1606671518612072707,0.900000,0.125000,0.113000,1.100000,3.430000,4.002000,0.079000
1606671519260719469,0.900000,0.127000,0.115000,1.100000,3.433000,4.006000,0.079000
1606671519877791821,0.900000,0.146000,0.132000,1.100000,3.406000,3.971000,0.079000
1606671520495248382,0.900000,0.147000,0.133000,1.100000,3.432000,4.005000,0.079000
1606671521163961166,0.900000,0.147000,0.133000,1.100000,3.421000,3.988000,0.079000
1606671521831885949,0.900000,0.127000,0.115000,1.100000,3.429000,3.998000,0.079000
1606671522487149718,0.900000,0.134000,0.121000,1.100000,3.426000,3.994000,0.079000
1606671523185566618,0.900000,0.118000,0.107000,1.100000,3.403000,3.971000,0.080000
1606671523787708411,0.900000,0.162000,0.151000,1.100000,3.425000,3.993000,0.080000
1606671524390339913,0.900000,0.182000,0.171000,1.100000,3.373000,3.932000,0.080000
1606671525026493619,0.900000,0.182000,0.171000,1.100000,3.439000,4.013000,0.080000
1606671525630598747,0.900000,0.181000,0.171000,1.100000,3.548000,4.193000,0.080000
1606671526223944072,0.900000,0.182000,0.171000,1.200000,3.735000,4.504000,0.082000
1606671526821003067,0.900000,0.183000,0.172000,1.200000,3.799000,4.581000,0.082000
1606671527412536556,0.900000,0.182000,0.171000,1.100000,3.481000,4.072000,0.082000
1606671528023680025,0.900000,0.182000,0.171000,1.100000,3.431000,4.003000,0.082000
1606671528612718220,0.900000,0.183000,0.172000,1.100000,3.425000,3.996000,0.082000
1606671529267063153,0.900000,0.177000,0.166000,1.100000,3.445000,4.020000,0.082000
1606671529924584882,0.900000,0.132000,0.119000,1.100000,3.445000,4.020000,0.082000
1606671530599962713,0.900000,0.118000,0.107000,1.100000,3.447000,4.022000,0.082000
1606671531209217930,0.900000,0.146000,0.134000,1.100000,3.436000,4.009000,0.082000
1606671531807769092,0.900000,0.182000,0.171000,1.100000,3.420000,3.991000,0.082000
1606671532435497454,0.900000,0.181000,0.171000,1.100000,3.448000,4.023000,0.082000
1606671533031904906,0.900000,0.182000,0.171000,1.100000,3.383000,3.947000,0.082000
1606671533626924065,0.900000,0.182000,0.171000,1.200000,3.799000,4.581000,0.082000
1606671534227249354,0.900000,0.183000,0.172000,1.200000,3.829000,4.621000,0.083000
1606671534846035914,0.900000,0.183000,0.172000,1.200000,3.834000,4.623000,0.083000
1606671535462133096,0.900000,0.147000,0.133000,1.100000,3.421000,3.992000,0.083000
1606671536075606108,0.900000,0.147000,0.133000,1.100000,3.454000,4.027000,0.084000
1606671536672898102,0.900000,0.148000,0.134000,1.100000,3.428000,4.000000,0.083000
1606671537270706846,0.900000,0.183000,0.172000,1.100000,3.431000,4.003000,0.083000
1606671537886147818,0.900000,0.183000,0.172000,1.100000,3.419000,3.989000,0.083000
1606671538495409408,0.900000,0.182000,0.171000,1.100000,3.453000,4.029000,0.084000
1606671539099351784,0.900000,0.183000,0.172000,1.200000,3.829000,4.617000,0.083000
1606671539706547164,0.900000,0.183000,0.172000,1.200000,3.808000,4.592000,0.084000
1606671540336603944,0.900000,0.183000,0.172000,1.200000,3.835000,4.625000,0.084000
1606671540941740862,0.900000,0.183000,0.172000,1.200000,3.784000,4.563000,0.084000
1606671541548230074,0.900000,0.183000,0.172000,1.100000,3.451000,4.027000,0.084000
1606671542178573020,0.900000,0.183000,0.172000,1.100000,3.422000,3.993000,0.084000
1606671542786770359,0.900000,0.182000,0.171000,1.100000,3.583000,4.238000,0.084000
1606671543374439716,0.900000,0.183000,0.172000,1.200000,3.841000,4.632000,0.085000
1606671543993290649,0.900000,0.183000,0.172000,1.200000,3.808000,4.592000,0.085000
1606671544591229184,0.900000,0.178000,0.168000,1.100000,3.467000,4.045000,0.086000
1606671545179115542,0.900000,0.183000,0.172000,1.100000,3.463000,4.037000,0.085000
1606671545781063164,0.900000,0.182000,0.171000,1.100000,3.438000,4.012000,0.085000
1606671546382132786,0.900000,0.183000,0.172000,1.200000,3.748000,4.523000,0.085000
1606671546988043163,0.900000,0.183000,0.172000,1.200000,3.842000,4.637000,0.085000
1606671547584676446,0.900000,0.183000,0.172000,1.200000,3.817000,4.607000,0.086000
1606671548175186472,0.900000,0.183000,0.172000,1.200000,3.818000,4.608000,0.086000
1606671548776160469,0.900000,0.183000,0.172000,1.200000,3.815000,4.604000,0.086000
1606671549390709063,0.900000,0.183000,0.172000,1.200000,3.849000,4.645000,0.087000
1606671550028244766,0.900000,0.184000,0.173000,1.200000,3.848000,4.644000,0.087000
1606671550659955379,0.900000,0.184000,0.173000,1.200000,3.840000,4.634000,0.087000
1606671551263148960,0.900000,0.184000,0.173000,1.200000,3.839000,4.629000,0.087000
1606671551855685738,0.900000,0.183000,0.172000,1.200000,3.857000,4.655000,0.087000
1606671552494521484,0.900000,0.184000,0.173000,1.200000,3.861000,4.660000,0.087000
1606671553122975177,0.900000,0.184000,0.173000,1.200000,3.803000,4.590000,0.087000
1606671553727982718,0.900000,0.184000,0.173000,1.200000,3.857000,4.655000,0.087000
1606671554319436161,0.900000,0.184000,0.173000,1.200000,3.863000,4.662000,0.087000
1606671554944755016,0.900000,0.184000,0.173000,1.200000,3.866000,4.666000,0.088000
1606671555547555055,0.900000,0.184000,0.173000,1.200000,3.837000,4.631000,0.088000
1606671556124765691,0.900000,0.184000,0.173000,1.200000,3.866000,4.666000,0.088000
1606671556714231215,0.900000,0.184000,0.173000,1.200000,3.869000,4.669000,0.089000
1606671557288895180,0.900000,0.184000,0.173000,1.200000,3.843000,4.638000,0.089000
1606671557862182728,0.900000,0.185000,0.174000,1.200000,3.837000,4.631000,0.089000
1606671558436230193,0.900000,0.184000,0.173000,1.200000,3.858000,4.656000,0.089000
1606671559031513098,0.900000,0.183000,0.172000,1.200000,3.868000,4.668000,0.089000
1606671559605211521,0.900000,0.185000,0.174000,1.200000,3.865000,4.665000,0.089000
1606671560175327815,0.900000,0.184000,0.173000,1.200000,3.838000,4.632000,0.089000
1606671560782685983,0.900000,0.185000,0.174000,1.200000,3.871000,4.672000,0.089000
1606671561355821071,0.900000,0.184000,0.173000,1.200000,3.872000,4.673000,0.089000
1606671561926243532,0.900000,0.184000,0.173000,1.200000,3.865000,4.665000,0.089000
1606671562520411977,0.900000,0.185000,0.174000,1.200000,3.822000,4.613000,0.089000
1606671563095965984,0.900000,0.185000,0.174000,1.200000,3.877000,4.679000,0.090000
1606671563669965532,0.900000,0.184000,0.173000,1.200000,3.874000,4.675000,0.090000
1606671564262530350,0.900000,0.184000,0.173000,1.200000,3.841000,4.636000,0.090000
1606671564832039642,0.900000,0.185000,0.174000,1.200000,3.759000,4.537000,0.090000
1606671565405317147,0.900000,0.184000,0.173000,1.200000,3.875000,4.677000,0.089000
1606671565998772215,0.900000,0.185000,0.174000,1.200000,3.827000,4.619000,0.090000
1606671566577809560,0.900000,0.185000,0.174000,1.200000,3.847000,4.643000,0.089000
1606671567154729735,0.900000,0.185000,0.174000,1.200000,3.870000,4.671000,0.090000
1606671567756246270,0.900000,0.185000,0.174000,1.200000,3.843000,4.638000,0.089000
1606671568346945586,0.900000,0.185000,0.174000,1.200000,3.874000,4.675000,0.090000
1606671568922300842,0.900000,0.185000,0.174000,1.200000,3.845000,4.640000,0.090000
1606671569538108810,0.900000,0.185000,0.174000,1.200000,3.854000,4.651000,0.090000
1606671570108740811,0.900000,0.184000,0.173000,1.200000,3.877000,4.679000,0.090000
1606671570684026484,0.900000,0.185000,0.174000,1.200000,3.879000,4.681000,0.090000
1606671571272956297,0.900000,0.185000,0.174000,1.200000,3.843000,4.638000,0.091000
1606671571847147760,0.900000,0.185000,0.174000,1.200000,3.881000,4.684000,0.091000
1606671572421604473,0.900000,0.185000,0.174000,1.200000,3.881000,4.684000,0.090000
1606671573047992577,0.900000,0.185000,0.174000,1.200000,3.829000,4.621000,0.090000
1606671573622448082,0.900000,0.185000,0.174000,1.200000,3.859000,4.657000,0.091000
1606671574213084105,0.900000,0.185000,0.174000,1.200000,3.881000,4.684000,0.091000
1606671574797280787,0.900000,0.185000,0.174000,1.200000,3.858000,4.656000,0.091000
1606671575371770166,0.900000,0.185000,0.174000,1.200000,3.853000,4.650000,0.091000
1606671575951566719,0.900000,0.185000,0.174000,1.200000,3.864000,4.663000,0.091000
1606671576550419166,0.900000,0.185000,0.174000,1.200000,3.842000,4.637000,0.091000
1606671577125270213,0.900000,0.185000,0.174000,1.200000,3.883000,4.686000,0.091000
1606671577718150196,0.900000,0.185000,0.174000,1.200000,3.846000,4.642000,0.091000
1606671578296558538,0.900000,0.185000,0.174000,1.200000,3.835000,4.628000,0.091000
1606671578871639709,0.900000,0.185000,0.174000,1.200000,3.883000,4.686000,0.091000
1606671579462184564,0.900000,0.185000,0.174000,1.200000,3.867000,4.667000,0.091000
1606671580047432372,0.900000,0.185000,0.174000,1.200000,3.832000,4.625000,0.091000
1606671580622766168,0.900000,0.185000,0.174000,1.200000,3.887000,4.691000,0.091000
1606671581196693963,0.900000,0.185000,0.174000,1.200000,3.889000,4.694000,0.091000
1606671581792900658,0.900000,0.185000,0.174000,1.200000,3.860000,4.659000,0.091000
1606671582363067865,0.900000,0.185000,0.174000,1.200000,3.865000,4.665000,0.091000
1606671582936733701,0.900000,0.185000,0.174000,1.200000,3.886000,4.690000,0.091000
1606671583513261915,0.900000,0.185000,0.174000,1.200000,3.886000,4.690000,0.091000
1606671584082916913,0.900000,0.185000,0.174000,1.200000,3.880000,4.683000,0.091000
1606671584656329791,0.900000,0.185000,0.174000,1.200000,3.858000,4.656000,0.091000
1606671585244077600,0.900000,0.185000,0.174000,1.200000,3.875000,4.677000,0.091000
1606671585824420610,0.900000,0.185000,0.174000,1.200000,3.884000,4.687000,0.091000
1606671586399875864,0.900000,0.185000,0.174000,1.200000,3.887000,4.691000,0.091000
1606671586985591088,0.900000,0.185000,0.174000,1.200000,3.854000,4.651000,0.091000
1606671587562809385,0.900000,0.185000,0.174000,1.200000,3.849000,4.645000,0.092000
1606671588133493592,0.900000,0.185000,0.174000,1.200000,3.886000,4.690000,0.092000
1606671588731985663,0.900000,0.185000,0.174000,1.200000,3.883000,4.686000,0.091000
1606671589313923757,0.900000,0.185000,0.174000,1.200000,3.823000,4.614000,0.092000
1606671589885662424,0.900000,0.185000,0.174000,1.200000,3.886000,4.690000,0.092000
1606671590465735224,0.900000,0.185000,0.174000,1.200000,3.890000,4.695000,0.092000
1606671591055553410,0.900000,0.186000,0.175000,1.200000,3.851000,4.648000,0.092000
1606671591626574325,0.900000,0.185000,0.174000,1.200000,3.877000,4.679000,0.092000
1606671592198588158,0.900000,0.186000,0.175000,1.200000,3.892000,4.697000,0.092000
1606671592796692895,0.900000,0.186000,0.175000,1.200000,3.857000,4.655000,0.092000
1606671593369816645,0.900000,0.185000,0.174000,1.200000,3.867000,4.667000,0.092000
1606671593959720789,0.900000,0.185000,0.174000,1.200000,3.862000,4.661000,0.092000
1606671594547875848,0.900000,0.185000,0.174000,1.200000,3.864000,4.663000,0.092000
1606671595116816552,0.900000,0.186000,0.175000,1.200000,3.896000,4.706000,0.093000
1606671595694358849,0.900000,0.185000,0.174000,1.200000,3.854000,4.651000,0.093000
1606671596295007963,0.900000,0.185000,0.174000,1.200000,3.829000,4.621000,0.092000
1606671596867617754,0.900000,0.186000,0.175000,1.200000,3.897000,4.703000,0.093000
1606671597446590136,0.900000,0.185000,0.174000,1.200000,3.897000,4.703000,0.093000
1606671598045060538,0.900000,0.185000,0.174000,1.200000,3.833000,4.626000,0.092000
1606671598614852993,0.900000,0.185000,0.174000,1.200000,3.893000,4.698000,0.093000
1606671599208200932,0.900000,0.185000,0.174000,1.200000,3.898000,4.704000,0.093000
1606671599798464658,0.900000,0.180000,0.170000,1.200000,3.850000,4.646000,0.093000
1606671600369382656,0.900000,0.186000,0.175000,1.200000,3.859000,4.657000,0.093000
1606671600946406243,0.900000,0.185000,0.174000,1.200000,3.891000,4.696000,0.093000
1606671601542739601,0.900000,0.185000,0.174000,1.200000,3.859000,4.657000,0.093000
1606671602119384771,0.900000,0.185000,0.174000,1.200000,3.884000,4.687000,0.093000
1606671602651696435,0.900000,0.144000,0.136000,1.200000,2.867000,3.443000,0.093000
