TimeStamp,Total Power,CPU Power,GPU Power
1592833588112467,1.372,0.305,0.152
1592833588613724,2.668,0.533,0.152
1592833589114923,3.163,0.61,0.152
1592833589616122,3.087,0.686,0.152
1592833590117325,3.087,0.686,0.152
1592833590618543,3.087,0.686,0.152
1592833591119745,3.201,0.686,0.152
1592833591620954,3.125,0.686,0.152
1592833592122161,3.087,0.686,0.152
1592833592625751,3.087,0.686,0.152
1592833593126987,3.048,0.686,0.152
1592833593628211,3.048,0.686,0.152
1592833594129394,3.048,0.686,0.152
1592833594630564,3.048,0.686,0.152
1592833595131761,3.048,0.686,0.152
1592833595632959,3.048,0.686,0.152
1592833596134139,3.048,0.686,0.152
1592833596635344,3.087,0.686,0.152
1592833597136552,3.048,0.686,0.152
1592833597639754,3.048,0.686,0.152
1592833598141037,3.048,0.686,0.152
1592833598642263,3.048,0.686,0.152
1592833599143487,3.048,0.686,0.152
1592833599644771,3.048,0.686,0.152
1592833600145976,3.048,0.686,0.152
1592833600647187,3.125,0.686,0.152
1592833601148424,3.087,0.686,0.152
1592833601649626,3.087,0.686,0.152
1592833602150832,3.087,0.686,0.152
1592833602653938,3.087,0.686,0.152
1592833603155179,3.163,0.686,0.152
1592833603656400,3.239,0.686,0.152
1592833604157594,3.087,0.686,0.152
1592833604658768,3.048,0.686,0.152
1592833605159959,3.087,0.686,0.152
1592833605661158,3.048,0.686,0.152
1592833606162334,3.048,0.686,0.152
1592833606663533,3.048,0.686,0.152
1592833607164766,3.048,0.686,0.152
1592833607667969,3.048,0.686,0.152
1592833608169281,3.048,0.686,0.152
1592833608670504,3.087,0.686,0.152
1592833609171706,3.048,0.686,0.152
1592833609672879,3.048,0.686,0.152
1592833610174071,3.048,0.686,0.152
1592833610675278,3.048,0.686,0.152
1592833611176448,3.048,0.686,0.152
1592833611677643,3.087,0.686,0.152
1592833612178845,3.239,0.686,0.152
1592833612681948,3.353,0.686,0.152
1592833613183158,3.163,0.686,0.152
1592833613684380,3.087,0.686,0.152
1592833614185580,3.087,0.686,0.152
1592833614686766,3.087,0.686,0.152
1592833615187980,3.048,0.686,0.152
1592833615689196,3.048,0.686,0.152
1592833616190365,3.048,0.686,0.152
1592833616691573,3.048,0.686,0.152
1592833617192775,3.048,0.686,0.152
1592833617695852,3.048,0.686,0.152
1592833618197113,3.048,0.686,0.152
1592833618698338,3.048,0.686,0.152
1592833619199555,3.048,0.686,0.152
1592833619700768,3.277,0.686,0.152
1592833620201988,3.125,0.686,0.152
1592833620703203,3.239,0.686,0.152
1592833621204401,3.125,0.686,0.152
1592833621705600,3.239,0.686,0.152
1592833622206809,3.087,0.686,0.152
1592833622710141,3.087,0.686,0.152
1592833623211394,3.087,0.686,0.152
1592833623712622,3.239,0.686,0.152
1592833624213834,3.315,0.686,0.152
1592833624715018,3.315,0.686,0.152
1592833625216220,3.353,0.686,0.152
1592833625717402,3.239,0.686,0.152
1592833626218566,3.201,0.686,0.152
1592833626719764,3.125,0.686,0.152
1592833627220970,3.048,0.686,0.152
1592833627724031,3.201,0.686,0.152
1592833628225320,3.277,0.686,0.152
1592833628726547,3.125,0.686,0.152
1592833629227748,3.087,0.686,0.152
1592833629728922,3.048,0.686,0.152
1592833630230120,3.048,0.686,0.152
1592833630731321,3.048,0.686,0.152
1592833631232521,3.048,0.686,0.152
1592833631733716,3.048,0.686,0.152
1592833632234921,3.048,0.686,0.152
1592833632738023,3.087,0.686,0.152
1592833633239271,3.201,0.686,0.152
1592833633740524,3.163,0.686,0.152
1592833634241725,3.163,0.686,0.152
1592833634742900,3.087,0.686,0.152
1592833635244099,3.087,0.686,0.152
1592833635745314,3.087,0.686,0.152
1592833636246502,3.163,0.686,0.152
1592833636747707,3.087,0.686,0.152
1592833637248916,3.048,0.686,0.152
1592833637751997,3.048,0.686,0.152
1592833638253296,3.048,0.686,0.152
1592833638754535,3.048,0.686,0.152
1592833639255756,3.048,0.686,0.152
1592833639756954,3.048,0.686,0.152
1592833640258158,3.048,0.686,0.152
1592833640759389,3.048,0.686,0.152
1592833641260590,3.048,0.686,0.152
1592833641761789,3.048,0.686,0.152
1592833642262990,3.048,0.686,0.152
1592833642766079,3.048,0.686,0.152
1592833643267290,3.048,0.686,0.152
1592833643768523,3.048,0.686,0.152
1592833644269724,3.048,0.686,0.152
1592833644770915,3.087,0.686,0.152
1592833645272122,3.087,0.686,0.152
1592833645773358,3.277,0.686,0.152
1592833646274556,3.201,0.686,0.152
1592833646775769,3.239,0.686,0.152
1592833647276972,3.201,0.686,0.152
1592833647780028,3.163,0.686,0.152
1592833648281320,3.087,0.686,0.152
