TimeStamp,Total Power,CPU Power,GPU Power
1593983850620867,3.087,1.448,0.152
1593983851122687,2.362,0.991,0.152
1593983851624446,1.943,0.762,0.152
1593983852126157,1.791,0.686,0.152
1593983852627856,1.943,0.762,0.152
1593983853129579,2.477,1.22,0.152
1593983853631252,2.782,1.524,0.152
1593983854133033,2.896,1.6,0.152
1593983854634961,2.934,1.6,0.152
1593983855136634,2.858,1.524,0.152
1593983855638572,2.896,1.6,0.152
1593983856140328,2.896,1.6,0.152
1593983856641998,2.934,1.676,0.152
1593983857143696,2.934,1.6,0.152
1593983857645445,2.934,1.6,0.152
1593983858147232,2.934,1.676,0.152
1593983858648994,2.934,1.676,0.152
1593983859150661,2.82,1.524,0.152
1593983859652538,2.896,1.6,0.152
1593983860154241,2.896,1.6,0.152
1593983860655907,2.934,1.676,0.152
1593983861157547,2.82,1.524,0.152
1593983861659419,2.858,1.6,0.152
1593983862161069,2.896,1.676,0.152
1593983862662821,2.896,1.6,0.152
1593983863164474,2.782,1.524,0.152
1593983863666154,2.896,1.6,0.152
1593983864167838,2.896,1.676,0.152
1593983864669723,2.896,1.676,0.152
1593983865171449,2.82,1.524,0.152
1593983865673175,2.858,1.6,0.152
1593983866174826,2.858,1.6,0.152
1593983866676687,2.896,1.6,0.152
1593983867178565,2.858,1.6,0.152
1593983867680299,2.896,1.6,0.152
1593983868182031,2.896,1.6,0.152
1593983868683750,2.896,1.6,0.152
1593983869185336,2.896,1.6,0.152
1593983869686917,2.934,1.6,0.152
1593983870188498,2.896,1.6,0.152
1593983870690351,2.896,1.6,0.152
1593983871192060,2.858,1.6,0.152
1593983871693678,2.82,1.524,0.152
1593983872195265,2.858,1.6,0.152
1593983872696954,2.858,1.6,0.152
1593983873198577,2.858,1.6,0.152
1593983873700306,2.82,1.524,0.152
1593983874201901,2.896,1.6,0.152
1593983874703640,2.896,1.6,0.152
1593983875205202,2.896,1.6,0.152
1593983875706842,2.82,1.524,0.152
1593983876208535,2.82,1.6,0.152
1593983876710239,2.896,1.6,0.152
1593983877212036,2.896,1.6,0.152
1593983877716042,2.858,1.524,0.152
1593983878217684,2.896,1.6,0.152
1593983878719289,2.896,1.6,0.152
1593983879220978,2.858,1.6,0.152
1593983879722741,2.896,1.524,0.152
1593983880224401,2.896,1.6,0.152
1593983880725994,2.896,1.676,0.152
1593983881227645,2.858,1.6,0.152
1593983881729283,2.782,1.524,0.152
1593983882230936,2.858,1.6,0.152
1593983882732593,2.896,1.6,0.152
1593983883234460,2.934,1.676,0.152
1593983883736088,2.858,1.6,0.152
1593983884237907,2.858,1.6,0.152
1593983884739746,2.858,1.6,0.152
1593983885241417,2.896,1.676,0.152
1593983885743357,2.82,1.524,0.152
1593983886245153,2.896,1.6,0.152
1593983886746756,2.896,1.6,0.152
1593983887248452,2.934,1.676,0.152
1593983887749992,2.858,1.6,0.152
1593983888251660,2.896,1.6,0.152
1593983888753380,2.896,1.6,0.152
1593983889255023,2.896,1.6,0.152
1593983889756715,2.858,1.524,0.152
1593983890258264,2.858,1.6,0.152
1593983890760014,2.896,1.6,0.152
1593983891263739,2.934,1.676,0.152
1593983891766951,2.82,1.524,0.152
1593983892269213,2.82,1.524,0.152
1593983892770973,2.896,1.6,0.152
1593983893272683,2.858,1.6,0.152
1593983893775970,2.82,1.524,0.152
1593983894277664,2.82,1.524,0.152
1593983894779369,2.896,1.6,0.152
1593983895281091,2.896,1.6,0.152
1593983895782787,2.858,1.6,0.152
1593983896284505,2.82,1.524,0.152
1593983896786283,2.82,1.524,0.152
1593983897287945,2.858,1.6,0.152
1593983897789555,2.896,1.6,0.152
1593983898291187,2.896,1.6,0.152
1593983898792912,2.896,1.676,0.152
1593983899294471,2.934,1.676,0.152
1593983899796107,2.934,1.6,0.152
1593983900297707,2.858,1.524,0.152
1593983900799663,2.82,1.524,0.152
1593983901301411,2.82,1.524,0.152
1593983901803078,2.82,1.524,0.152
1593983902304928,2.782,1.524,0.152
1593983902806597,2.782,1.524,0.152
1593983903309673,2.782,1.524,0.152
1593983903811287,2.782,1.524,0.152
1593983904312996,2.82,1.524,0.152
1593983904814611,2.744,1.524,0.152
1593983905316278,2.667,1.448,0.152
1593983905817909,2.629,1.448,0.152
1593983906319605,2.667,1.372,0.152
1593983906823673,2.667,1.448,0.152
1593983907325344,2.629,1.448,0.152
1593983907826978,2.629,1.372,0.152
1593983908328649,2.705,1.448,0.152
1593983908830252,2.629,1.448,0.152
1593983909331919,2.591,1.372,0.152
1593983909833566,2.629,1.372,0.152
1593983910335144,2.629,1.372,0.152
1593983910836892,2.667,1.448,0.152
1593983911338572,2.629,1.448,0.152
1593983911842592,2.667,1.448,0.152
1593983912344288,2.934,1.372,0.152
1593983912845995,3.048,1.372,0.152
1593983913347611,3.01,1.372,0.152
1593983913849201,2.896,1.372,0.152
1593983914350844,2.705,1.372,0.152
1593983914852435,2.629,1.372,0.152
1593983915353999,2.629,1.372,0.152
1593983915859478,2.629,1.372,0.152
1593983916361097,2.667,1.448,0.152
1593983916862741,2.667,1.372,0.152
1593983917364349,2.629,1.448,0.152
1593983917865956,2.629,1.372,0.152
1593983918367611,2.629,1.372,0.152
1593983918869181,2.629,1.372,0.152
1593983919370829,2.591,1.372,0.152
1593983919872532,2.629,1.372,0.152
1593983920374062,2.667,1.372,0.152
1593983920875645,2.591,1.372,0.152
1593983921377242,2.591,1.372,0.152
1593983921878891,2.629,1.372,0.152
1593983922383772,2.667,1.448,0.152
1593983922885412,2.667,1.448,0.152
1593983923387072,2.782,1.524,0.152
1593983923888767,2.705,1.448,0.152
1593983924390577,2.629,1.372,0.152
1593983924892274,2.667,1.372,0.152
1593983925394089,2.667,1.372,0.152
1593983925895759,2.629,1.372,0.152
1593983926397376,2.667,1.448,0.152
1593983926899034,2.705,1.448,0.152
1593983927400709,2.667,1.372,0.152
1593983927902353,2.629,1.372,0.152
1593983928409478,2.629,1.372,0.152
1593983928911014,2.667,1.372,0.152
1593983929412608,2.629,1.372,0.152
1593983929914245,2.629,1.372,0.152
1593983930415999,2.667,1.372,0.152
1593983930917687,2.667,1.372,0.152
1593983931419295,2.591,1.372,0.152
1593983931921082,2.629,1.372,0.152
1593983932422733,2.629,1.372,0.152
1593983932924254,2.629,1.372,0.152
1593983933425876,2.629,1.372,0.152
1593983933927584,2.629,1.372,0.152
1593983934429152,2.629,1.372,0.152
1593983934930716,2.629,1.372,0.152
1593983935432418,2.667,1.448,0.152
1593983935934039,2.629,1.372,0.152
1593983936435747,2.591,1.372,0.152
1593983936937372,2.629,1.372,0.152
1593983937438950,2.629,1.372,0.152
1593983937940811,2.629,1.372,0.152
1593983938443978,2.591,1.372,0.152
1593983938945551,2.667,1.448,0.152
1593983939447186,2.667,1.372,0.152
1593983939948942,2.629,1.372,0.152
1593983940450629,2.629,1.372,0.152
1593983940952267,2.667,1.372,0.152
1593983941453919,2.629,1.372,0.152
1593983941955807,2.629,1.372,0.152
1593983942457452,2.629,1.372,0.152
1593983942959228,2.667,1.372,0.152
1593983943460880,2.667,1.372,0.152
1593983943962536,2.629,1.448,0.152
1593983944464263,2.629,1.448,0.152
1593983944965871,2.629,1.372,0.152
1593983945469955,2.629,1.372,0.152
1593983945971600,2.629,1.448,0.152
1593983946473383,2.629,1.372,0.152
1593983946975254,2.667,1.448,0.152
1593983947477152,2.705,1.448,0.152
1593983947978888,2.667,1.448,0.152
1593983948480575,2.629,1.372,0.152
1593983948982186,2.667,1.372,0.152
1593983949483929,2.629,1.372,0.152
1593983949985616,2.629,1.372,0.152
1593983950487250,2.591,1.372,0.152
1593983950988950,2.667,1.372,0.152
1593983951490596,2.629,1.372,0.152
1593983951992235,2.591,1.372,0.152
1593983952493966,2.629,1.372,0.152
1593983952995682,2.667,1.372,0.152
1593983953497343,2.667,1.372,0.152
1593983953999174,2.629,1.372,0.152
1593983954500911,2.705,1.448,0.152
1593983955002524,2.705,1.448,0.152
1593983955504344,2.705,1.448,0.152
1593983956005949,2.667,1.372,0.152
1593983956507630,2.629,1.448,0.152
1593983957009224,2.667,1.372,0.152
1593983957511602,2.629,1.372,0.152
1593983958013872,2.629,1.372,0.152
1593983958515558,2.591,1.372,0.152
1593983959017179,2.629,1.372,0.152
1593983959518818,2.705,1.448,0.152
1593983960020504,2.629,1.372,0.152
1593983960522091,2.629,1.372,0.152
1593983961023694,2.667,1.448,0.152
1593983961525313,2.705,1.448,0.152
1593983962026939,2.629,1.448,0.152
1593983962528810,2.629,1.448,0.152
1593983963033211,2.667,1.372,0.152
1593983963534899,2.705,1.448,0.152
1593983964036762,2.667,1.448,0.152
1593983964538426,2.667,1.448,0.152
1593983965040089,2.629,1.448,0.152
1593983965541740,2.667,1.448,0.152
1593983966043288,2.667,1.448,0.152
1593983966544968,2.629,1.372,0.152
1593983967046618,2.629,1.372,0.152
1593983967548287,2.667,1.448,0.152
1593983968049977,2.591,1.372,0.152
1593983968551653,2.629,1.372,0.152
1593983969053249,2.629,1.372,0.152
1593983969554864,2.667,1.372,0.152
1593983970056443,2.629,1.372,0.152
1593983970558135,2.629,1.372,0.152
1593983971059856,2.629,1.448,0.152
1593983971561453,2.667,1.372,0.152
1593983972063119,2.629,1.372,0.152
1593983972565022,2.591,1.372,0.152
1593983973068467,2.591,1.372,0.152
1593983973570102,2.667,1.372,0.152
1593983974071834,2.629,1.372,0.152
1593983974573422,2.629,1.372,0.152
1593983975075211,2.744,1.448,0.152
1593983975577061,3.01,1.448,0.152
1593983976078707,3.048,1.372,0.152
1593983976580405,3.01,1.372,0.152
1593983977082115,2.782,1.372,0.152
1593983977583835,2.705,1.372,0.152
1593983978088104,2.667,1.448,0.152
1593983978589732,2.629,1.372,0.152
1593983979091421,2.591,1.372,0.152
1593983979593011,2.667,1.372,0.152
1593983980094555,2.629,1.372,0.152
1593983980596292,2.667,1.448,0.152
1593983981097861,2.629,1.372,0.152
1593983981599504,2.629,1.372,0.152
1593983982101167,2.667,1.372,0.152
1593983982602728,2.629,1.372,0.152
1593983983104394,2.667,1.372,0.152
1593983983605981,2.705,1.448,0.152
1593983984107619,2.667,1.448,0.152
1593983984609285,2.629,1.448,0.152
1593983985110935,2.629,1.448,0.152
1593983985612485,2.667,1.372,0.152
1593983986114120,2.629,1.372,0.152
1593983986615841,2.629,1.372,0.152
1593983987117496,2.705,1.524,0.152
1593983987619083,2.705,1.448,0.152
1593983988120763,2.667,1.372,0.152
1593983988622421,2.629,1.448,0.152
1593983989124068,2.591,1.372,0.152
1593983989625862,2.591,1.372,0.152
1593983990127606,2.667,1.372,0.152
1593983990629232,2.629,1.372,0.152
1593983991130900,2.629,1.372,0.152
1593983991632640,2.667,1.448,0.152
1593983992134285,2.667,1.448,0.152
1593983992636048,2.629,1.372,0.152
1593983993137639,2.629,1.448,0.152
1593983993639264,2.667,1.448,0.152
1593983994141175,2.705,1.448,0.152
1593983994642877,2.629,1.448,0.152
1593983995144534,2.629,1.448,0.152
1593983995646211,2.629,1.372,0.152
1593983996147791,2.667,1.448,0.152
1593983996649403,2.667,1.448,0.152
1593983997150980,2.629,1.448,0.152
1593983997652505,2.629,1.372,0.152
1593983998154137,2.705,1.448,0.152
1593983998655853,2.667,1.448,0.152
1593983999157527,2.629,1.448,0.152
1593983999659125,2.629,1.448,0.152
1593984000160963,2.705,1.372,0.152
1593984000662645,2.629,1.372,0.152
1593984001164317,2.667,1.448,0.152
1593984001665869,2.705,1.448,0.152
1593984002167665,2.705,1.448,0.152
1593984002669315,2.629,1.372,0.152
1593984003170880,2.629,1.372,0.152
1593984003672738,2.629,1.372,0.152
1593984004174459,2.667,1.372,0.152
1593984004676129,2.629,1.372,0.152
1593984005177994,2.667,1.448,0.152
1593984005679718,2.629,1.372,0.152
1593984006181392,2.705,1.448,0.152
1593984006683016,2.667,1.448,0.152
1593984007184753,2.629,1.448,0.152
1593984007686435,2.629,1.448,0.152
1593984008188087,2.705,1.372,0.152
1593984008689685,2.705,1.448,0.152
1593984009191273,2.782,1.524,0.152
1593984009692947,2.667,1.448,0.152
1593984010194508,2.705,1.448,0.152
1593984010696393,2.667,1.448,0.152
1593984011198025,2.629,1.448,0.152
1593984011699656,2.629,1.448,0.152
1593984012201186,2.705,1.448,0.152
1593984012702830,2.667,1.448,0.152
1593984013204469,2.629,1.448,0.152
1593984013706093,2.629,1.448,0.152
1593984014207830,2.667,1.372,0.152
1593984014709483,2.629,1.372,0.152
1593984015211087,2.629,1.372,0.152
1593984015712751,2.705,1.448,0.152
1593984016214348,2.744,1.524,0.152
1593984016716063,2.82,1.524,0.152
1593984017217682,2.782,1.524,0.152
1593984017719297,2.782,1.524,0.152
1593984018220995,2.782,1.524,0.152
1593984018722774,2.782,1.524,0.152
1593984019224577,2.782,1.524,0.152
1593984019726257,2.782,1.524,0.152
1593984020227919,2.82,1.6,0.152
1593984020729532,2.82,1.524,0.152
1593984021231134,2.782,1.524,0.152
1593984021732774,2.782,1.524,0.152
1593984022234404,2.667,1.448,0.152
1593984022736071,2.667,1.372,0.152
1593984023237917,2.629,1.372,0.152
1593984023739609,2.667,1.448,0.152
1593984024241200,2.629,1.448,0.152
1593984024742889,2.667,1.448,0.152
1593984025244591,2.629,1.372,0.152
1593984025746174,2.629,1.372,0.152
1593984026247865,2.629,1.372,0.152
1593984026749601,2.667,1.448,0.152
1593984027251281,2.667,1.448,0.152
1593984027753082,2.629,1.448,0.152
1593984028254908,2.705,1.448,0.152
1593984028756677,2.744,1.448,0.152
1593984029258296,2.782,1.524,0.152
1593984029759939,2.782,1.524,0.152
1593984030261587,2.744,1.524,0.152
1593984030767931,2.782,1.448,0.152
1593984031269593,2.82,1.524,0.152
1593984031771263,2.82,1.524,0.152
1593984032273045,2.782,1.524,0.152
1593984032774717,2.782,1.524,0.152
1593984033276362,2.782,1.524,0.152
1593984033777919,2.782,1.524,0.152
1593984034279491,2.744,1.524,0.152
1593984034781336,2.82,1.524,0.152
1593984035283013,2.782,1.524,0.152
1593984035784640,2.782,1.524,0.152
1593984036286216,2.782,1.524,0.152
1593984036787888,2.782,1.524,0.152
1593984037289555,2.744,1.448,0.152
1593984037791249,2.782,1.524,0.152
1593984038292869,3.009,1.524,0.152
1593984038794431,3.161,1.524,0.152
1593984039296134,3.2,1.524,0.152
1593984039797799,3.087,1.524,0.152
1593984040299456,2.896,1.524,0.152
1593984040801085,2.858,1.524,0.152
1593984041302743,2.82,1.524,0.152
1593984041804445,2.782,1.524,0.152
1593984042306104,2.782,1.524,0.152
1593984042807875,2.782,1.524,0.152
1593984043309558,2.782,1.524,0.152
1593984043811211,2.82,1.524,0.152
1593984044312945,2.82,1.524,0.152
1593984044814593,2.82,1.524,0.152
1593984045316410,2.782,1.524,0.152
1593984045818107,2.82,1.524,0.152
1593984046319856,2.782,1.524,0.152
1593984046821503,2.82,1.524,0.152
1593984047323190,2.782,1.524,0.152
1593984047824941,2.82,1.524,0.152
1593984048326574,2.82,1.6,0.152
1593984048828315,2.82,1.524,0.152
1593984049329952,2.82,1.524,0.152
1593984049831715,2.82,1.524,0.152
1593984050333393,2.782,1.524,0.152
1593984050834966,2.782,1.524,0.152
1593984051336488,2.82,1.524,0.152
1593984051838129,2.782,1.524,0.152
1593984052339785,2.82,1.524,0.152
1593984052841508,2.782,1.524,0.152
1593984053343184,2.782,1.524,0.152
1593984053844924,2.744,1.524,0.152
1593984054346549,2.782,1.524,0.152
1593984054849060,2.782,1.524,0.152
1593984055350682,2.782,1.524,0.152
1593984055852396,2.82,1.524,0.152
1593984056354066,2.782,1.524,0.152
1593984056855837,2.782,1.524,0.152
1593984057357480,2.82,1.524,0.152
1593984057859068,2.82,1.524,0.152
1593984058360761,2.782,1.524,0.152
1593984058862573,2.782,1.524,0.152
1593984059364325,2.82,1.524,0.152
1593984059868525,2.82,1.524,0.152
1593984060370147,2.82,1.524,0.152
1593984060871906,2.782,1.524,0.152
1593984061373613,2.82,1.524,0.152
1593984061875381,2.782,1.524,0.152
1593984062377018,2.782,1.524,0.152
1593984062878646,2.782,1.524,0.152
1593984063380337,2.82,1.524,0.152
1593984063882044,2.82,1.524,0.152
1593984064383625,2.782,1.524,0.152
1593984064885223,2.782,1.524,0.152
1593984065386806,2.82,1.524,0.152
1593984065888489,2.82,1.524,0.152
1593984066390109,2.782,1.524,0.152
1593984066891672,2.782,1.524,0.152
1593984067399110,2.782,1.524,0.152
1593984067900930,2.82,1.524,0.152
1593984068402540,2.82,1.524,0.152
1593984068904331,2.82,1.6,0.152
1593984069405977,2.782,1.524,0.152
1593984069907675,2.782,1.524,0.152
1593984070409313,2.82,1.524,0.152
1593984070911003,2.82,1.6,0.152
1593984071412551,2.82,1.524,0.152
1593984071914209,2.782,1.524,0.152
1593984072415896,2.782,1.524,0.152
1593984072917589,2.82,1.6,0.152
1593984073419168,2.82,1.524,0.152
1593984073920782,2.82,1.524,0.152
1593984074422373,2.782,1.524,0.152
1593984074924001,2.782,1.524,0.152
1593984075425638,2.782,1.524,0.152
1593984075927229,2.744,1.448,0.152
1593984076428971,2.782,1.524,0.152
1593984076930588,2.782,1.524,0.152
1593984077432294,2.82,1.524,0.152
1593984077933867,2.82,1.524,0.152
1593984078435487,2.782,1.524,0.152
1593984078937089,2.82,1.524,0.152
1593984079438689,2.782,1.524,0.152
1593984079940315,2.782,1.524,0.152
1593984080441966,2.82,1.524,0.152
1593984080943598,2.782,1.524,0.152
1593984081445163,2.782,1.524,0.152
1593984081946781,2.782,1.524,0.152
1593984082448518,2.782,1.524,0.152
1593984082950195,2.782,1.524,0.152
1593984083451915,2.782,1.524,0.152
1593984083953678,2.782,1.524,0.152
1593984084455493,2.782,1.524,0.152
1593984084957120,2.782,1.524,0.152
1593984085458736,2.782,1.524,0.152
1593984085960399,2.744,1.448,0.152
1593984086461971,2.782,1.524,0.152
1593984086963624,2.782,1.524,0.152
1593984087465432,2.82,1.524,0.152
1593984087967114,2.782,1.524,0.152
1593984088468767,2.82,1.524,0.152
1593984088970412,2.82,1.6,0.152
1593984089476806,2.82,1.524,0.152
1593984089978350,2.744,1.448,0.152
1593984090479994,2.782,1.524,0.152
1593984090981638,2.782,1.524,0.152
1593984091483446,2.82,1.524,0.152
1593984091985143,2.782,1.524,0.152
1593984092486922,2.782,1.524,0.152
1593984092988553,2.82,1.524,0.152
1593984093490347,2.782,1.524,0.152
1593984093992029,2.744,1.524,0.152
1593984094493669,2.782,1.524,0.152
1593984094995399,2.82,1.524,0.152
1593984095497067,2.782,1.524,0.152
1593984095998693,2.782,1.524,0.152
1593984096500382,2.782,1.524,0.152
1593984097001946,2.782,1.524,0.152
1593984097503666,2.782,1.524,0.152
1593984098005364,2.744,1.448,0.152
1593984098507005,2.782,1.524,0.152
1593984099008690,2.782,1.524,0.152
1593984099510276,2.82,1.6,0.152
1593984100011877,2.782,1.524,0.152
1593984100513731,2.782,1.524,0.152
1593984101015987,2.82,1.524,0.152
1593984101517631,3.087,1.524,0.152
1593984102019238,3.2,1.524,0.152
1593984102521016,3.2,1.524,0.152
1593984103022613,2.934,1.524,0.152
1593984103524458,2.858,1.524,0.152
1593984104026141,2.82,1.524,0.152
1593984104528134,2.782,1.524,0.152
1593984105029763,2.782,1.524,0.152
1593984105531455,2.782,1.524,0.152
1593984106033070,2.82,1.524,0.152
1593984106534692,2.782,1.524,0.152
1593984107036462,2.782,1.524,0.152
1593984107538276,2.782,1.524,0.152
1593984108042062,2.782,1.524,0.152
1593984108543655,2.782,1.524,0.152
1593984109045177,2.782,1.524,0.152
1593984109546820,2.782,1.524,0.152
1593984110048637,2.744,1.524,0.152
1593984110551222,2.782,1.448,0.152
1593984111052852,2.82,1.6,0.152
1593984111554560,2.782,1.524,0.152
1593984112056631,2.782,1.524,0.152
1593984112558257,2.782,1.524,0.152
1593984113059905,2.782,1.524,0.152
1593984113561447,2.782,1.524,0.152
1593984114063148,2.782,1.524,0.152
1593984114564903,2.782,1.448,0.152
1593984115066537,2.782,1.524,0.152
1593984115568245,2.782,1.524,0.152
1593984116073781,2.82,1.6,0.152
1593984116575439,2.782,1.524,0.152
1593984117077100,2.782,1.524,0.152
1593984117578759,2.782,1.524,0.152
1593984118080415,2.782,1.524,0.152
1593984118582048,2.782,1.524,0.152
1593984119083915,2.782,1.524,0.152
1593984119585571,2.82,1.524,0.152
1593984120087210,2.782,1.524,0.152
1593984120589094,2.744,1.448,0.152
1593984121093636,2.782,1.524,0.152
1593984121595346,2.82,1.524,0.152
1593984122096961,2.82,1.524,0.152
1593984122598663,2.82,1.524,0.152
1593984123100302,2.82,1.524,0.152
1593984123601946,2.82,1.524,0.152
1593984124103620,2.782,1.524,0.152
1593984124605249,2.82,1.524,0.152
1593984125106967,2.82,1.524,0.152
1593984125608660,2.82,1.524,0.152
1593984126110279,2.82,1.524,0.152
1593984126611941,2.82,1.524,0.152
1593984127113620,2.82,1.524,0.152
1593984127615231,2.82,1.524,0.152
1593984128116897,2.782,1.524,0.152
1593984128618485,2.782,1.524,0.152
1593984129120105,2.82,1.524,0.152
1593984129621792,2.782,1.524,0.152
1593984130123706,2.82,1.524,0.152
1593984130625398,2.782,1.524,0.152
1593984131127078,2.782,1.524,0.152
1593984131628749,2.782,1.524,0.152
1593984132130657,2.82,1.6,0.152
