timestamp	VIRTUAL_SCALING	CPU0_F	CPU1_F	CPU2_F	CPU3_F	CPU4_F	CPU5_F	GPU_FREQ	CPU_GOVERNOR	EMC_F	TEMP0	TEMP1	TEMP2	TEMP3	TEMP4	TEMP5	TEMP6	TEMP7
1593971021183684753	1	345	1881	1881	345	345	345	114750000	performance	1866	32	32	30	32	29	29	100	32
1593971021400480439 	0	345	1233	1235	345	345	345	114750000	performance	1866	32	32	30	32	29	29	100	31
1593971023099680348	1	345	1881	1881	345	345	345	114750000	performance	1866	32	32	30	32	29	28	100	31
1593971023259470361 	0	345	1881	1881	345	345	345	114750000	performance	1866	32	32	30	32	29	28	100	31
1593971024955855790	1	345	1881	1881	345	345	345	114750000	performance	1866	33	33	30	33	29	28	100	31
1593971025115620778 	0	345	1881	1881	345	345	346	114750000	performance	1866	32	32	30	33	29	29	100	31
1593971026813820457	1	345	1881	1881	345	345	345	114750000	performance	1866	33	33	30	33	29	29	100	32
1593971026973026562 	0	345	1841	1880	345	345	345	114750000	performance	1866	33	33	30	33	29	29	100	32
1593971028670046106	1	345	1881	1881	345	345	345	114750000	performance	1866	33	33	31	33	29	29	100	32
1593971028830034232 	0	345	1881	1881	345	345	345	114750000	performance	1866	33	33	31	33	29	29	100	32
1593971030527504083	1	345	1881	1881	345	345	345	114750000	performance	1866	33	33	30	33	29	29	100	32
1593971030687469040 	0	345	1843	1842	345	345	345	114750000	performance	1866	33	33	30	33	29	29	100	32
1593971032385506319	1	345	1881	1881	345	345	345	114750000	performance	1866	33	33	31	33	29	29	100	32
1593971032545069066 	0	345	1881	1882	345	345	345	114750000	performance	1866	33	33	31	33	29	29	100	32
1593971034245837720	1	345	1881	1881	345	345	345	114750000	performance	1866	33	33	30	33	29	29	100	32
1593971034404526318 	0	345	1841	1842	345	346	345	114750000	performance	1866	33	33	31	33	29	29	100	32
1593971036101986313	1	345	1881	1881	345	345	345	114750000	performance	1866	33	33	31	33	29	29	100	32
1593971036282941664 	0	345	1881	1884	345	345	345	114750000	performance	1866	33	33	31	33	29	29	100	32
1593971038006043087	1	345	1881	1881	345	345	345	114750000	performance	1866	33	33	31	33	29	29	100	32
1593971038383559959 	0	345	1880	1879	345	345	345	114750000	performance	1866	33	33	31	33	29	29	100	32
1593971040396894005	1	345	1881	1881	345	345	345	114750000	performance	1866	33	33	31	33	29	29	100	32
1593971040556595793 	0	345	1879	1879	345	345	345	114750000	performance	1866	33	33	31	33	29	29	100	32
1593971042297780073	1	345	1881	1881	345	345	345	114750000	performance	1866	33	33	30	33	29	29	100	32
1593971042454823765 	0	345	1881	1881	345	345	345	114750000	performance	1866	33	33	30	33	29	29	100	32
1593971044153189302	1	345	1881	1881	345	345	345	114750000	performance	1866	32	33	31	33	29	29	100	32
1593971044313698358 	0	345	1879	1881	345	345	345	114750000	performance	1866	33	33	31	33	29	29	100	32
1593971046010158347	1	345	1881	1881	345	345	345	114750000	performance	1866	33	33	31	33	29	29	100	32
1593971046169397412 	0	345	1878	1880	345	345	345	114750000	performance	1866	33	33	31	33	29	29	100	32
1593971047870914423	1	345	1881	1881	345	345	345	114750000	performance	1866	33	33	30	33	29	29	100	32
1593971048028486438 	0	345	1881	1840	345	345	345	114750000	performance	1866	32	33	30	33	29	29	100	32
1593971049725458015	1	345	1881	1881	345	345	345	114750000	performance	1866	33	33	30	33	29	29	100	32
1593971049884792216 	0	345	1881	1881	345	345	345	114750000	performance	1866	33	33	31	33	29	29	100	32
1593971051583009144	1	345	1881	1881	345	345	345	114750000	performance	1866	33	33	31	33	29	29	100	32
1593971051741471308 	0	345	1880	1881	345	345	345	114750000	performance	1866	33	33	31	33	29	29	100	32
1593971053439731820	1	345	1881	1881	345	345	345	114750000	performance	1866	33	33	31	33	29	29	100	32
1593971053599102502 	0	345	1836	1838	345	345	345	114750000	performance	1866	33	33	31	33	29	29	100	32
1593971055299245969	1	345	1881	1881	345	345	345	114750000	performance	1866	33	33	31	33	29	29	100	32
1593971055455963483 	0	345	1836	1882	345	345	345	114750000	performance	1866	33	33	31	33	29	29	100	32
1593971057155699971	1	345	1881	1881	345	345	345	114750000	performance	1866	33	33	31	33	29	29	100	32
1593971057315082397 	0	346	1841	1880	345	345	345	114750000	performance	1866	33	33	31	33	29	29	100	32
1593971059011635411	1	345	1881	1881	345	345	345	114750000	performance	1866	33	33	30	33	29	29	100	32
1593971059214447208 	0	345	1881	1881	345	345	345	114750000	performance	1866	33	33	31	33	29	29	100	32
1593971060976848635	1	345	1881	1881	345	345	345	114750000	performance	1866	33	33	31	33	29	29	100	32
1593971061332544709 	0	345	1881	1880	345	345	345	114750000	performance	1866	33	33	31	33	29	29	100	32
1593971063234507071	1	345	1881	1881	345	345	345	114750000	performance	1866	33	33	31	33	29	29	100	32
1593971063395815044 	0	345	1881	1880	345	345	345	114750000	performance	1866	33	33	31	33	29	29	100	32
1593971065111085894	1	345	1881	1881	345	345	345	114750000	performance	1866	33	33	31	33	29	29	100	32
1593971065270987139 	0	345	1881	1879	345	345	345	114750000	performance	1866	33	33	31	33	29	29	100	32
1593971066971656112	1	345	1881	1881	345	345	345	114750000	performance	1866	33	33	31	33	29	29	100	32
1593971067128657212 	0	345	1881	1878	345	345	345	114750000	performance	1866	33	33	31	33	29	29	100	32
1593971068824150604	1	345	1881	1881	345	345	345	114750000	performance	1866	33	33	31	33	29	29	100	32
1593971068982926723 	0	345	1881	1837	345	345	345	114750000	performance	1866	33	33	31	33	29	29	100	32
1593971070680896449	1	345	1881	1881	345	345	345	114750000	performance	1866	33	33	31	33	29	29	100	32
1593971070838659825 	0	345	1879	1882	345	345	345	114750000	performance	1866	33	33	31	33	29	29	100	32
1593971072537159858	1	345	1881	1881	345	345	345	114750000	performance	1866	33	33	31	33	29	29	100	32
1593971072694598017 	0	345	1881	1881	345	345	345	114750000	performance	1866	33	33	30	33	29	29	100	32
1593971074392183005	1	345	1881	1881	345	345	345	114750000	performance	1866	33	33	31	33	29	29	100	32
1593971074551058676 	0	345	1841	1844	345	345	345	114750000	performance	1866	33	33	31	33	29	29	100	32
1593971076250053816	1	345	1881	1881	345	345	345	114750000	performance	1866	32	32	31	33	29	29	100	32
1593971076410576568 	0	345	1880	1842	345	345	345	114750000	performance	1866	33	33	31	33	29	29	100	32
1593971078108442198	1	345	1881	1881	345	345	345	114750000	performance	1866	33	33	31	33	29	29	100	32
1593971078268823541 	0	345	1890	1880	345	345	345	114750000	performance	1866	33	33	31	33	29	29	100	32
1593971079967527544	1	345	1881	1881	345	345	345	114750000	performance	1866	33	33	30	33	29	29	100	32
1593971080125795243 	0	345	1881	1881	345	345	345	114750000	performance	1866	33	33	31	33	29	29	100	32
1593971081823932394	1	345	1881	1881	345	345	345	114750000	performance	1866	33	33	31	33	29	29	100	32
1593971082087126717 	0	345	1879	1881	345	345	345	114750000	performance	1866	33	33	31	33	29	29	100	32
1593971083847127329	1	345	1881	1881	345	345	345	114750000	performance	1866	33	33	31	33	29	29	100	32
1593971084197615117 	0	345	1881	1881	345	345	345	114750000	performance	1866	33	33	31	33	29	29	100	32
1593971086089492109	1	345	1881	1881	345	345	345	114750000	performance	1866	33	33	31	33	29	29	100	32
1593971086250280815 	0	345	1881	1880	345	345	345	114750000	performance	1866	33	33	31	33	29	29	100	32
1593971087960810805	1	345	1881	1881	345	345	345	114750000	performance	1866	33	33	31	33	29	29	100	32
1593971088119236810 	0	345	1837	1839	345	345	345	114750000	performance	1866	33	33	31	33	29	29	100	32
1593971089816228610	1	345	1881	1881	345	345	345	114750000	performance	1866	33	33	31	33	29	29	100	32
1593971089975109369 	0	345	1881	1880	345	345	345	114750000	performance	1866	33	33	31	33	29	29	100	32
1593971091673029975	1	345	1881	1881	345	345	345	114750000	performance	1866	33	33	31	33	29	29	100	32
1593971091830765511 	0	345	1879	1881	345	345	345	114750000	performance	1866	33	33	31	33	29	29	100	32
1593971093529923596	1	345	1881	1881	345	345	345	114750000	performance	1866	33	33	31	33	29	29	100	32
1593971093688430529 	0	345	1881	1881	345	345	345	114750000	performance	1866	33	33	30	33	29	29	100	32
1593971095386088349	1	345	1881	1881	345	345	345	114750000	performance	1866	33	33	31	33	29	29	100	32
1593971095545943578 	0	345	1879	1881	345	345	346	114750000	performance	1866	33	33	31	33	29	29	100	32
1593971097244363419	1	345	1881	1881	345	345	345	114750000	performance	1866	33	33	31	33	29	29	100	32
1593971097403148433 	0	345	1881	1880	345	345	345	114750000	performance	1866	33	33	30	33	29	29	100	32
1593971099101758707	1	345	1881	1881	345	345	345	114750000	performance	1866	33	33	31	33	29	29	100	32
1593971099261787376 	0	345	1881	1878	345	345	345	114750000	performance	1866	33	33	31	33	29	29	100	32
1593971100959795439	1	345	1881	1881	345	345	345	114750000	performance	1866	33	33	31	33	29	29	100	32
1593971101119597323 	0	345	1841	1881	345	345	345	114750000	performance	1866	33	33	31	33	29	29	100	32
1593971102844526661	1	345	1881	1881	345	345	345	114750000	performance	1866	33	33	31	33	29	29	100	32
1593971103018720213 	0	345	1879	1881	345	345	345	114750000	performance	1866	33	33	31	33	29	29	100	32
1593971104720343784	1	345	1881	1881	345	345	345	114750000	performance	1866	33	33	31	33	29	29	100	32
1593971105035145381 	0	345	1878	1840	345	345	345	114750000	performance	1866	33	33	31	33	29	29	100	32
1593971106919300440	1	345	1881	1881	345	345	345	114750000	performance	1866	33	33	31	33	29	29	100	32
1593971107140575960 	0	345	1841	1881	345	345	345	114750000	performance	1866	33	33	31	33	29	29	100	32
1593971108941208712	1	345	1881	1881	345	345	345	114750000	performance	1866	33	33	31	33	29	29	100	32
1593971109101080388 	0	345	1878	1878	345	345	345	114750000	performance	1866	33	33	31	33	29	29	100	32
1593971110798322718	1	345	1881	1881	345	345	345	114750000	performance	1866	33	33	31	33	29	29	100	32
1593971110956546577 	0	345	1880	1880	345	345	345	114750000	performance	1866	33	33	31	33	29	29	100	32
1593971112656433467	1	345	1881	1881	345	345	345	114750000	performance	1866	33	33	31	33	29	29	100	32
1593971112814587629 	0	345	1880	1880	345	345	345	114750000	performance	1866	33	33	31	33	29	29	100	32
1593971114511515845	1	345	1881	1881	345	345	345	114750000	performance	1866	33	33	31	33	29	29	100	32
1593971114670173723 	0	345	1878	1882	345	345	345	114750000	performance	1866	33	33	31	33	29	29	100	32
1593971116369247904	1	345	1881	1881	345	345	345	114750000	performance	1866	33	33	31	33	29	29	100	32
1593971116529443710 	0	345	1881	1881	345	345	345	114750000	performance	1866	33	33	31	33	29	29	100	32
1593971118229857738	1	345	1881	1881	345	345	345	114750000	performance	1866	33	33	31	33	29	29	100	32
1593971118389576358 	0	345	1879	1880	345	345	345	114750000	performance	1866	33	33	31	33	29	29	100	32
1593971120086702015	1	345	1881	1881	345	345	345	114750000	performance	1866	33	33	31	33	29	29	100	32
1593971120245945209 	0	345	1880	1879	345	345	345	114750000	performance	1866	33	33	31	33	29	29	100	32
1593971121944251576	1	345	1881	1881	345	345	345	114750000	performance	1866	33	33	31	33	29	29	100	32
1593971122138261531 	0	345	1847	1843	345	345	345	114750000	performance	1866	33	33	31	33	29	29	100	32
1593971123844505001	1	345	1881	1881	345	345	345	114750000	performance	1866	33	33	30	33	29	29	100	32
1593971124006638418 	0	345	1879	1879	345	345	345	114750000	performance	1866	33	33	30	33	29	29	100	32
1593971125705684279	1	345	1881	1881	345	345	345	114750000	performance	1866	33	33	31	33	29	29	100	32
1593971125911015162 	0	345	1882	1880	345	345	345	114750000	performance	1866	33	33	31	33	29	29	100	32
1593971127661143494	1	345	1881	1881	345	345	345	114750000	performance	1866	33	33	31	33	29	29	100	32
1593971128014259937 	0	345	1881	1881	345	345	345	114750000	performance	1866	33	33	31	33	29	29	100	32
1593971129926316917	1	345	1881	1881	345	345	345	114750000	performance	1866	33	33	31	33	29	29	100	31
1593971130083920133 	0	345	1842	1843	345	345	345	114750000	performance	1866	33	33	31	33	29	29	100	32
1593971131808138203	1	345	1881	1881	345	345	345	114750000	performance	1866	33	33	31	33	29	29	100	32
1593971131966373198 	0	345	1840	1844	345	345	345	114750000	performance	1866	33	33	31	33	29	29	100	32
1593971133686783182	1	345	1881	1881	345	345	345	114750000	performance	1866	33	33	31	33	29	29	100	32
1593971133864341745 	0	345	1842	1880	345	345	345	114750000	performance	1866	33	33	31	32	29	29	100	32
1593971135561880364	1	345	1881	1881	345	345	345	114750000	performance	1866	33	33	30	33	29	29	100	32
1593971135720540802 	0	345	1840	1836	345	345	345	114750000	performance	1866	33	33	31	33	29	29	100	32
1593971137416734774	1	345	1881	1881	345	345	345	114750000	performance	1866	33	33	31	33	29	29	100	32
1593971137573783106 	0	345	1842	1881	345	345	345	114750000	performance	1866	33	33	30	33	29	29	100	32
1593971139269972534	1	345	1881	1881	345	345	345	114750000	performance	1866	33	33	30	33	29	29	100	32
1593971139428705804 	0	345	1881	1880	345	345	345	114750000	performance	1866	33	33	31	33	29	29	100	32
1593971141123846970	1	345	1881	1881	345	345	345	114750000	performance	1866	33	33	31	33	29	29	100	32
1593971141284368506 	0	345	1881	1880	345	345	345	114750000	performance	1866	33	33	31	33	29	29	100	32
1593971142981226770	1	345	1881	1881	345	345	345	114750000	performance	1866	33	33	31	33	29	29	100	32
1593971143138617664 	0	346	1882	1881	345	345	345	114750000	performance	1866	33	33	31	33	29	29	100	32
1593971144838412873	1	345	1881	1881	345	345	345	114750000	performance	1866	33	33	31	33	29	29	100	32
1593971145001972155 	0	345	1879	1877	345	345	345	114750000	performance	1866	33	33	31	33	29	29	100	32
1593971146697759053	1	345	1881	1881	345	345	345	114750000	performance	1866	33	33	31	33	29	29	100	32
1593971146858726352 	0	345	1879	1840	345	345	345	114750000	performance	1866	33	33	31	33	29	29	100	32
1593971148555870633	1	345	1881	1881	345	345	345	114750000	performance	1866	33	33	31	33	29	29	100	32
1593971148827052362 	0	345	1880	1880	345	345	345	114750000	performance	1866	33	33	31	33	29	29	100	32
1593971150651135489	1	345	1881	1881	345	345	345	114750000	performance	1866	33	33	31	33	29	29	100	32
1593971150925623253 	0	345	1843	1882	345	345	345	114750000	performance	1866	33	33	30	33	29	29	100	32
1593971152770348260	1	345	1881	1881	345	345	345	114750000	performance	1866	33	33	31	33	29	29	100	32
1593971152927705810 	0	345	1880	1880	345	345	345	114750000	performance	1866	33	33	31	33	29	29	100	32
1593971154625375406	1	345	1881	1881	345	345	345	114750000	performance	1866	33	33	31	33	29	29	100	32
1593971154784085028 	0	345	1840	1882	345	345	345	114750000	performance	1866	33	33	31	33	29	29	100	32
1593971156482832647	1	345	1881	1881	345	345	345	114750000	performance	1866	33	33	31	33	29	29	100	32
1593971156642091136 	0	345	1846	1878	345	345	345	114750000	performance	1866	33	33	31	33	29	29	100	32
1593971158343517874	1	345	1881	1881	345	345	345	114750000	performance	1866	33	33	31	33	29	29	100	32
1593971158501606725 	0	345	1840	1841	345	345	345	114750000	performance	1866	33	33	31	33	29	29	100	32
1593971160257121615	1	345	1881	1881	345	345	345	114750000	performance	1866	33	33	31	33	29	29	100	32
1593971160418438133 	0	345	1881	1881	345	346	346	114750000	performance	1866	33	33	31	33	29	29	100	32
1593971162148312619	1	345	1881	1881	345	345	345	114750000	performance	1866	33	33	30	33	29	29	100	32
1593971162308932204 	0	345	1880	1881	345	345	345	114750000	performance	1866	33	33	30	33	29	29	100	32
1593971164006061669	1	345	1881	1881	345	345	345	114750000	performance	1866	33	33	30	33	29	29	100	32
1593971164163842390 	0	345	1881	1880	345	345	345	114750000	performance	1866	33	33	30	33	29	29	100	32
1593971165864381091	1	345	1881	1881	345	345	345	114750000	performance	1866	33	33	31	33	29	29	100	32
1593971166022722391 	0	345	1882	1880	345	345	345	114750000	performance	1866	33	33	30	33	29	29	100	32
1593971167720181874	1	345	1881	1881	345	345	345	114750000	performance	1866	33	33	31	33	29	29	100	32
1593971167879227274 	0	345	1881	1880	345	345	345	114750000	performance	1866	33	33	31	33	29	29	100	32
1593971169636330654	1	345	1881	1881	345	345	345	114750000	performance	1866	33	33	31	33	29	29	100	32
1593971169923585276 	0	345	1881	1880	345	345	345	114750000	performance	1866	33	33	31	33	29	29	100	32
1593971171666480414	1	345	1881	1881	345	345	345	114750000	performance	1866	33	33	31	33	29	29	100	32
1593971172021975430 	0	345	1881	1882	345	345	345	114750000	performance	1866	33	33	31	33	29	29	100	32
1593971173936343464	1	345	1881	1881	345	345	345	114750000	performance	1866	33	33	31	33	29	29	100	32
1593971174094157849 	0	345	1881	1880	345	345	345	114750000	performance	1866	33	33	31	33	29	29	100	32
1593971175824128080	1	345	1881	1881	345	345	345	114750000	performance	1866	33	33	31	33	29	29	100	32
1593971175983521226 	0	345	1841	1882	345	345	345	114750000	performance	1866	33	33	31	33	29	29	100	32
1593971177680497730	1	345	1881	1881	345	345	345	114750000	performance	1866	33	33	30	33	29	29	100	32
1593971177837897584 	0	345	1882	1880	345	345	345	114750000	performance	1866	33	33	31	33	29	29	100	32
1593971179538085019	1	345	1881	1881	345	345	345	114750000	performance	1866	33	33	30	33	29	29	100	32
1593971179695921740 	0	345	1882	1881	345	345	345	114750000	performance	1866	33	33	31	33	29	29	100	32
1593971181396062999	1	345	1881	1881	345	345	345	114750000	performance	1866	33	33	31	33	29	29	100	32
1593971181555760595 	0	345	1881	1878	345	345	345	114750000	performance	1866	33	33	31	33	29	29	100	32
1593971183252263496	1	345	1881	1881	345	345	345	114750000	performance	1866	33	33	31	33	29	29	100	32
1593971183416490398 	0	346	1838	1880	345	345	345	114750000	performance	1866	33	33	31	33	29	29	100	32
1593971185115153216	1	345	1881	1881	345	345	345	114750000	performance	1866	33	33	31	33	29	29	100	32
1593971185273686005 	0	345	1880	1881	345	345	345	114750000	performance	1866	33	33	31	33	29	29	100	32
1593971186981046794	1	345	1881	1881	345	345	345	114750000	performance	1866	33	33	31	33	29	29	100	32
1593971187142223406 	0	345	1838	1881	345	345	345	114750000	performance	1866	33	33	31	33	29	29	100	32
1593971188839644393	1	345	1881	1881	345	345	345	114750000	performance	1866	33	33	30	33	29	29	100	32
1593971188999116803 	0	345	1881	1881	345	345	345	114750000	performance	1866	33	33	31	33	29	29	100	32
1593971190699922834	1	345	1881	1881	345	345	345	114750000	performance	1866	33	33	31	33	29	29	100	32
1593971190859238571 	0	345	1880	1881	345	345	345	114750000	performance	1866	33	33	31	33	29	29	100	32
1593971192559511094	1	345	1881	1881	345	345	345	114750000	performance	1866	33	33	31	33	29	29	100	32
1593971192717913995 	0	345	1881	1878	345	345	345	114750000	performance	1866	33	33	31	33	29	29	100	32
1593971194415732808	1	345	1881	1881	345	345	345	114750000	performance	1866	33	33	31	33	29	29	100	32
1593971194577497168 	0	345	1839	1880	345	345	345	114750000	performance	1866	33	33	31	33	29	29	100	32
1593971196275769679	1	345	1881	1881	345	345	345	114750000	performance	1866	33	33	31	33	29	29	100	32
1593971196436145391 	0	345	1876	1881	345	345	345	114750000	performance	1866	33	33	31	33	29	29	100	32
1593971198136294266	1	345	1881	1881	345	345	345	114750000	performance	1866	33	33	31	33	29	29	100	32
1593971198405782865 	0	345	1881	1851	345	345	345	114750000	performance	1866	33	33	31	33	29	29	100	32
1593971200216094776	1	345	1881	1881	345	345	345	114750000	performance	1866	33	33	31	33	29	29	100	32
1593971200511087395 	0	345	1879	1880	345	345	345	114750000	performance	1866	33	33	31	33	29	29	100	32
1593971202399010668	1	345	1881	1881	345	345	345	114750000	performance	1866	33	33	31	33	29	29	100	32
1593971202560802516 	0	345	1882	1877	345	345	345	114750000	performance	1866	33	33	31	33	29	29	100	32
1593971204258943635	1	345	1881	1881	345	345	345	114750000	performance	1866	33	33	31	33	29	29	100	32
1593971204418335117 	0	345	1881	1882	345	345	345	114750000	performance	1866	33	33	31	33	29	29	100	32
1593971206120513347	1	345	1881	1881	345	345	345	114750000	performance	1866	33	33	31	33	29	29	100	32
1593971206279631035 	0	345	1879	1838	345	345	345	114750000	performance	1866	33	33	31	33	29	29	100	32
1593971207976744212	1	345	1881	1881	345	345	345	114750000	performance	1866	33	33	31	33	29	29	100	32
1593971208136405936 	0	345	1882	1842	345	345	345	114750000	performance	1866	33	33	31	33	29	29	100	32
1593971209833252967	1	345	1881	1881	345	345	345	114750000	performance	1866	33	33	30	33	29	29	100	32
1593971209990613270 	0	345	1879	1873	345	345	346	114750000	performance	1866	33	33	31	33	29	29	100	32
1593971211689617530	1	345	1881	1881	345	345	345	114750000	performance	1866	33	33	31	33	29	29	100	32
1593971211848491697 	0	345	1836	1880	345	345	345	114750000	performance	1866	33	33	31	33	29	29	100	32
1593971213551039785	1	345	1881	1881	345	345	345	114750000	performance	1866	33	33	31	33	29	29	100	32
1593971213709651199 	0	345	1881	1880	345	345	345	114750000	performance	1866	33	33	31	33	29	29	100	32
1593971215406877880	1	345	1881	1881	345	345	345	114750000	performance	1866	33	33	31	33	29	29	100	32
1593971215568893282 	0	345	1840	1880	345	345	346	114750000	performance	1866	33	33	31	33	29	29	100	32
1593971217266035803	1	345	1881	1881	345	345	345	114750000	performance	1866	33	33	31	33	29	29	100	32
1593971217425872823 	0	345	1881	1878	345	345	345	114750000	performance	1866	33	33	31	33	29	29	100	32
1593971219124807547	1	345	1881	1881	345	345	345	114750000	performance	1866	33	33	31	33	29	29	100	32
1593971219282220490 	0	345	1882	1880	346	345	345	114750000	performance	1866	33	33	31	33	29	29	100	32
1593971220978852288	1	345	1881	1881	345	345	345	114750000	performance	1866	33	33	31	33	29	29	100	32
1593971221259582712 	0	345	1878	1881	345	345	345	114750000	performance	1866	33	33	31	33	29	29	100	32
1593971223099243849	1	345	1881	1881	345	345	345	114750000	performance	1866	33	33	31	33	29	29	100	32
1593971223368709056 	0	345	1881	1881	345	345	345	114750000	performance	1866	33	33	31	33	29	29	100	32
1593971225210624255	1	345	1881	1881	345	345	345	114750000	performance	1866	33	33	31	33	29	29	100	32
1593971225369088371 	0	345	1881	1881	345	345	345	114750000	performance	1866	33	33	31	33	29	29	100	32
1593971227066900592	1	345	1881	1881	345	345	345	114750000	performance	1866	33	33	31	33	29	29	100	32
1593971227225952744 	0	345	1881	1874	345	345	345	114750000	performance	1866	33	33	31	33	29	29	100	32
1593971228924866732	1	345	1881	1881	345	345	345	114750000	performance	1866	33	33	31	33	29	29	100	32
1593971229083117791 	0	345	1881	1843	345	345	345	114750000	performance	1866	33	33	31	33	29	29	100	32
1593971230781219294	1	345	1881	1881	345	345	345	114750000	performance	1866	33	33	31	33	29	29	100	32
1593971230940102549 	0	345	1840	1879	345	345	345	114750000	performance	1866	33	33	31	33	29	29	100	32
1593971232639906782	1	345	1881	1881	345	345	345	114750000	performance	1866	33	33	31	33	29	29	100	32
1593971232799121431 	0	345	1880	1881	345	345	345	114750000	performance	1866	33	33	31	33	29	29	100	32
1593971234497809433	1	345	1881	1881	345	345	345	114750000	performance	1866	33	33	31	33	29	29	100	32
1593971234658548795 	0	345	1878	1882	345	345	345	114750000	performance	1866	33	33	31	33	29	29	100	32
1593971236356577753	1	345	1881	1881	345	345	345	114750000	performance	1866	33	33	31	33	29	29	100	32
1593971236517534844 	0	345	1881	1882	345	345	345	114750000	performance	1866	33	33	31	33	29	29	100	32
1593971238216485376	1	345	1881	1881	345	345	345	114750000	performance	1866	33	33	31	33	29	29	100	32
1593971238373983247 	0	345	1879	1878	345	345	345	114750000	performance	1866	33	33	31	33	29	29	100	32
1593971240070083106	1	345	1881	1881	345	345	345	114750000	performance	1866	33	33	31	33	29	29	100	32
1593971240230213472 	0	345	1877	1878	345	345	345	114750000	performance	1866	33	33	31	33	29	29	100	32
1593971241929860328	1	345	1881	1881	345	345	345	114750000	performance	1866	33	33	31	33	29	29	100	32
1593971242087693337 	0	345	1840	1840	345	345	345	114750000	performance	1866	33	33	31	33	29	29	100	32
1593971243789330860	1	345	1881	1881	345	345	345	114750000	performance	1866	33	33	31	33	29	29	100	32
1593971244024158043 	0	345	1834	1881	345	345	345	114750000	performance	1866	33	33	31	33	29	29	100	32
1593971245782963769	1	345	1881	1881	345	345	345	114750000	performance	1866	33	33	31	33	29	29	100	32
1593971246122738374 	0	345	1842	1881	345	346	345	114750000	performance	1866	33	33	31	33	29	29	100	32
1593971248014165411	1	345	1881	1881	345	345	345	114750000	performance	1866	33	33	31	33	29	29	100	32
1593971248173636126 	0	345	1877	1878	345	345	345	114750000	performance	1866	33	33	31	33	29	29	100	32
1593971249905114365	1	345	1881	1881	345	345	345	114750000	performance	1866	33	33	31	33	29	29	100	32
1593971250066595043 	0	345	1839	1881	345	345	345	114750000	performance	1866	33	33	31	33	29	29	100	32
1593971251765898185	1	345	1881	1881	345	345	345	114750000	performance	1866	33	33	31	33	29	29	100	32
1593971251924237693 	0	345	1880	1878	345	345	345	114750000	performance	1866	33	33	31	33	29	29	100	32
1593971253623802116	1	345	1881	1881	345	345	345	114750000	performance	1866	33	33	31	33	29	29	100	32
1593971253785758605 	0	345	1880	1881	345	345	345	114750000	performance	1866	33	33	31	33	29	29	100	32
1593971255482731493	1	345	1881	1881	345	345	345	114750000	performance	1866	33	33	31	33	29	29	100	32
1593971255642847908 	0	345	1880	1840	345	345	345	114750000	performance	1866	33	33	31	33	29	29	100	32
1593971257344501239	1	345	1881	1881	345	345	345	114750000	performance	1866	33	33	31	33	29	29	100	32
1593971257503144781 	0	345	1882	1881	345	345	345	114750000	performance	1866	33	33	31	33	29	29	100	32
1593971259201495149	1	345	1881	1881	345	345	345	114750000	performance	1866	33	33	31	33	29	29	100	32
1593971259360558981 	0	345	1881	1880	345	345	345	114750000	performance	1866	33	33	31	33	29	29	100	32
1593971261058863621	1	345	1881	1881	345	345	345	114750000	performance	1866	33	33	31	33	29	29	100	32
1593971261216076978 	0	345	1839	1880	345	345	345	114750000	performance	1866	33	33	31	33	29	29	100	32
1593971262914112305	1	345	1881	1881	345	345	345	114750000	performance	1866	33	33	31	33	29	29	100	32
1593971263072691846 	0	345	1882	1882	345	345	345	114750000	performance	1866	33	33	31	33	29	29	100	32
1593971264770607204	1	345	1881	1881	345	345	345	114750000	performance	1866	33	33	31	33	29	29	100	32
1593971264930183903 	0	345	1879	1880	345	346	345	114750000	performance	1866	33	33	31	33	29	29	100	32
1593971266631082446	1	345	1881	1881	345	345	345	114750000	performance	1866	33	33	31	33	29	29	100	32
1593971266874551790 	0	345	1878	1879	345	345	345	114750000	performance	1866	33	33	31	33	29	29	100	32
1593971268664759330	1	345	1881	1881	345	345	345	114750000	performance	1866	33	33	31	33	29	29	100	32
1593971268987142186 	0	345	1880	1881	345	345	345	114750000	performance	1866	33	33	31	33	29	29	100	32
1593971270871673120	1	345	1881	1881	345	345	345	114750000	performance	1866	33	33	31	33	29	29	100	32
1593971271030272149 	0	345	1878	1881	345	345	345	114750000	performance	1866	33	33	31	33	29	29	100	32
1593971272732215946	1	345	1881	1881	345	345	345	114750000	performance	1866	33	33	31	33	29	29	100	32
1593971272892397577 	0	345	1879	1877	345	345	345	114750000	performance	1866	33	33	31	33	29	29	100	32
1593971274592154801	1	345	1881	1881	345	345	345	114750000	performance	1866	33	33	31	33	29	29	100	32
1593971274750599718 	0	345	1879	1877	345	345	345	114750000	performance	1866	33	33	31	33	29	29	100	32
1593971276449351976	1	345	1881	1881	345	345	345	114750000	performance	1866	33	33	31	33	29	29	100	32
1593971276610529644 	0	345	1842	1845	345	345	345	114750000	performance	1866	33	33	31	33	29	29	100	32
1593971278307849191	1	345	1881	1881	345	345	345	114750000	performance	1866	33	33	31	33	29	29	100	32
1593971278468503592 	0	345	1880	1880	345	345	345	114750000	performance	1866	33	33	31	33	29	29	100	32
1593971280237278080	1	345	1881	1881	345	345	345	114750000	performance	1866	33	33	31	33	29	29	100	32
1593971280396806234 	0	345	1881	1881	345	345	345	114750000	performance	1866	33	33	31	33	29	29	100	32
1593971282094978714	1	345	1881	1881	345	345	345	114750000	performance	1866	33	33	31	33	29	29	100	32
1593971282253852849 	0	345	1838	1839	345	345	345	114750000	performance	1866	33	33	31	33	29	29	100	32
1593971283955106914	1	345	1881	1881	345	345	345	114750000	performance	1866	33	33	31	33	29	29	100	32
1593971284113460854 	0	345	1879	1881	345	345	345	114750000	performance	1866	33	33	31	33	29	29	100	32
1593971285810840144	1	345	1881	1881	345	345	345	114750000	performance	1866	33	33	31	33	29	29	100	32
1593971285970643245 	0	345	1841	1843	345	345	345	114750000	performance	1866	33	33	31	33	29	29	100	32
1593971287669316559	1	345	1881	1881	345	345	345	114750000	performance	1866	33	33	31	33	29	29	100	32
1593971287830224145 	0	345	1877	1881	345	345	345	114750000	performance	1866	33	33	31	33	29	29	100	32
1593971289632102312	1	345	1881	1881	345	345	345	114750000	performance	1866	33	33	31	33	29	29	100	32
1593971290019579850 	0	345	1881	1882	345	345	345	114750000	performance	1866	33	33	31	33	29	29	100	32
1593971291928153226	1	345	1881	1881	345	345	345	114750000	performance	1866	33	33	31	33	29	29	100	32
1593971292087574116 	0	345	1879	1881	345	345	345	114750000	performance	1866	33	33	31	33	29	29	100	32
1593971293798093579	1	345	1881	1881	345	345	345	114750000	performance	1866	33	33	31	33	29	29	100	32
1593971293961021785 	0	345	1881	1845	345	345	345	114750000	performance	1866	33	33	31	33	29	29	100	32
1593971295660110366	1	345	1881	1881	345	345	345	114750000	performance	1866	33	33	31	33	29	29	100	32
1593971295817997231 	0	345	1881	1843	345	345	345	114750000	performance	1866	33	33	31	33	29	29	100	32
1593971297518506620	1	345	1881	1881	345	345	345	114750000	performance	1866	33	33	31	33	29	29	100	32
1593971297678992796 	0	345	1881	1880	345	345	345	114750000	performance	1866	33	33	31	33	29	29	100	32
1593971299375478386	1	345	1881	1881	345	345	345	114750000	performance	1866	33	33	31	33	29	29	100	32
1593971299536575797 	0	345	1837	1881	345	345	345	114750000	performance	1866	33	33	31	33	29	29	100	32
1593971301232753257	1	345	1881	1881	345	345	345	114750000	performance	1866	33	33	31	33	29	29	100	32
1593971301390979356 	0	345	1837	1881	345	345	345	114750000	performance	1866	33	33	31	33	29	29	100	32
