timestamp	VIRTUAL_SCALING	CPU0_F	CPU1_F	CPU2_F	CPU3_F	CPU4_F	CPU5_F	GPU_FREQ	CPU_GOVERNOR	EMC_F	TEMP0	TEMP1	TEMP2	TEMP3	TEMP4	TEMP5	TEMP6	TEMP7
1592953528768393025	1	1574	806	806	1574	1574	1574	114750000	performance	1866	29	29	27	29	26	25	100	28
1592953528816930680 	0	1575	806	806	1536	1535	1498	114750000	performance	1866	29	29	27	29	26	25	100	28
1592953530821051403	1	1574	806	806	1574	1574	1574	114750000	performance	1866	30	30	27	30	26	25	100	29
1592953531233153259 	0	1574	806	806	1538	1574	1574	114750000	performance	1866	30	30	27	30	26	25	100	29
