TimeStamp,Total Power,CPU Power,GPU Power
1593904584712618,4.721,2.133,0.152
1593904585214151,4.076,1.523,0.152
1593904585715661,3.771,1.219,0.152
1593904586217141,3.809,1.295,0.152
1593904586718552,4.457,1.904,0.152
1593904587220025,4.683,2.133,0.152
1593904587721678,4.874,2.285,0.152
1593904588223400,4.874,2.285,0.152
1593904588725903,4.874,2.285,0.152
1593904589227324,4.912,2.285,0.152
1593904589728813,4.836,2.285,0.152
1593904590230266,4.874,2.285,0.152
1593904590731759,4.874,2.209,0.152
1593904591233364,4.836,2.285,0.152
1593904591734981,4.798,2.209,0.152
1593904592236649,4.836,2.209,0.152
1593904592738304,4.912,2.285,0.152
1593904593239954,4.798,2.209,0.152
1593904593741601,4.798,2.209,0.152
1593904594243339,4.836,2.285,0.152
1593904594744973,4.798,2.209,0.152
1593904595246630,4.836,2.285,0.152
1593904595748288,4.874,2.361,0.152
1593904596250016,4.912,2.285,0.152
1593904596751732,4.874,2.285,0.152
1593904597253384,4.912,2.361,0.152
1593904597755052,4.912,2.361,0.152
1593904598256687,4.912,2.285,0.152
1593904598758330,4.95,2.361,0.152
1593904599259966,4.912,2.361,0.152
1593904599761581,4.874,2.285,0.152
1593904600263244,4.912,2.285,0.152
1593904600765031,4.874,2.285,0.152
1593904601266707,4.874,2.285,0.152
1593904601768356,4.95,2.361,0.152
1593904602270025,4.874,2.285,0.152
1593904602771663,4.836,2.285,0.152
1593904603273342,4.836,2.285,0.152
1593904603775028,4.76,2.209,0.152
1593904604276672,4.798,2.209,0.152
1593904604778344,4.798,2.209,0.152
1593904605280117,4.912,2.361,0.152
1593904605781821,4.836,2.209,0.152
1593904606283524,4.874,2.285,0.152
1593904606786474,4.912,2.285,0.152
1593904607288091,4.874,2.285,0.152
1593904607789782,4.874,2.285,0.152
1593904608291508,4.95,2.361,0.152
1593904608793218,4.95,2.361,0.152
1593904609294863,4.912,2.285,0.152
1593904609796856,5.064,2.438,0.152
1593904610298491,4.95,2.361,0.152
1593904610800168,4.912,2.361,0.152
1593904611301822,4.836,2.285,0.152
1593904611803459,4.874,2.285,0.152
1593904612305097,4.912,2.361,0.152
1593904612806722,4.95,2.361,0.152
1593904613308421,4.874,2.285,0.152
1593904613810041,4.912,2.285,0.152
1593904614311687,5.102,2.514,0.152
1593904614813250,5.14,2.589,0.152
1593904615314917,5.102,2.514,0.152
1593904615816645,4.95,2.361,0.152
1593904616318237,4.95,2.361,0.152
1593904616819979,4.95,2.361,0.152
1593904617321656,5.026,2.438,0.152
1593904617823291,5.026,2.361,0.152
1593904618325040,5.14,2.361,0.152
1593904618826672,4.95,2.285,0.152
1593904619328638,4.912,2.285,0.152
1593904619830239,4.912,2.361,0.152
1593904620331888,4.874,2.285,0.152
1593904620833590,4.912,2.361,0.152
1593904621335235,4.798,2.209,0.152
1593904621836954,5.064,2.438,0.152
1593904622338573,5.14,2.514,0.152
1593904622840200,5.178,2.589,0.152
1593904623341711,4.912,2.285,0.152
1593904623843710,5.064,2.438,0.152
1593904624347760,5.14,2.514,0.152
1593904624849218,5.026,2.438,0.152
1593904625350643,4.836,2.209,0.152
1593904625852095,4.798,2.209,0.152
1593904626353494,4.912,2.361,0.152
1593904626855481,4.95,2.361,0.152
1593904627356936,4.912,2.285,0.152
1593904627859926,4.912,2.361,0.152
1593904628361624,4.95,2.361,0.152
1593904628863246,4.988,2.361,0.152
1593904629364992,4.874,2.285,0.152
1593904629866691,4.912,2.361,0.152
1593904630368389,5.064,2.438,0.152
1593904630869997,5.14,2.59,0.152
1593904631371651,5.102,2.438,0.152
1593904631873327,5.064,2.438,0.152
1593904632375037,4.912,2.361,0.152
1593904632876841,4.912,2.361,0.152
1593904633378499,4.95,2.361,0.152
1593904633880166,4.95,2.361,0.152
1593904634381829,4.95,2.361,0.152
1593904634883605,4.912,2.361,0.152
1593904635385247,5.102,2.438,0.152
1593904635886902,4.988,2.361,0.152
1593904636388612,4.912,2.361,0.152
1593904636890261,4.95,2.361,0.152
1593904637391900,4.874,2.285,0.152
1593904637893532,5.026,2.438,0.152
1593904638395143,5.14,2.514,0.152
1593904638896716,5.178,2.513,0.152
1593904639398353,5.064,2.438,0.152
1593904639900149,4.95,2.361,0.152
1593904640401844,4.95,2.361,0.152
1593904640903508,5.102,2.514,0.152
1593904641405122,5.102,2.514,0.152
1593904641906714,5.14,2.514,0.152
1593904642408302,5.178,2.589,0.152
1593904642909921,5.178,2.589,0.152
1593904643411653,4.912,2.285,0.152
1593904643924424,4.836,2.285,0.152
1593904644426042,4.912,2.361,0.152
1593904644927728,4.95,2.361,0.152
1593904645429489,4.874,2.285,0.152
1593904645931159,4.874,2.285,0.152
1593904646432796,4.912,2.361,0.152
1593904646934457,4.95,2.361,0.152
1593904647436111,4.836,2.209,0.152
1593904647937752,5.102,2.285,0.152
1593904648439546,5.216,2.36,0.152
1593904648941267,4.912,2.285,0.152
1593904649442725,4.836,2.209,0.152
1593904649944231,4.912,2.285,0.152
1593904650448084,4.988,2.438,0.152
1593904650949504,4.95,2.361,0.152
1593904651450975,4.988,2.361,0.152
1593904651952422,5.102,2.514,0.152
1593904652454198,4.95,2.361,0.152
1593904652955737,4.912,2.361,0.152
1593904653457390,4.798,2.209,0.152
1593904653958912,4.874,2.361,0.152
1593904654460319,4.912,2.361,0.152
1593904654961747,4.874,2.285,0.152
1593904655465459,4.95,2.361,0.152
1593904655966925,5.14,2.514,0.152
1593904656468503,5.178,2.589,0.152
1593904656973159,5.102,2.514,0.152
1593904657475881,5.14,2.438,0.152
1593904657977322,5.14,2.513,0.152
1593904658478744,5.178,2.589,0.152
1593904658980174,5.102,2.514,0.152
1593904659481559,4.912,2.285,0.152
1593904659988639,4.912,2.361,0.152
1593904660493258,4.95,2.361,0.152
1593904660994706,4.874,2.361,0.152
1593904661496148,4.836,2.285,0.152
1593904661997566,4.912,2.361,0.152
1593904662499065,4.836,2.285,0.152
1593904663000604,4.95,2.361,0.152
1593904663502037,4.874,2.285,0.152
1593904664003485,4.874,2.285,0.152
1593904664504919,4.912,2.285,0.152
1593904665006338,4.874,2.285,0.152
1593904665510941,4.874,2.285,0.152
1593904666012611,4.874,2.285,0.152
1593904666514233,4.912,2.361,0.152
1593904667015923,4.874,2.285,0.152
1593904667517545,4.798,2.209,0.152
1593904668019200,4.874,2.285,0.152
1593904668520880,4.95,2.361,0.152
1593904669022544,4.912,2.285,0.152
1593904669524386,4.836,2.285,0.152
1593904670026020,4.874,2.361,0.152
1593904670527697,4.95,2.361,0.152
1593904671029309,4.836,2.209,0.152
1593904671531001,5.064,2.438,0.152
1593904672032637,5.102,2.514,0.152
1593904672534305,4.874,2.285,0.152
1593904673036225,4.874,2.285,0.152
1593904673537852,4.912,2.361,0.152
1593904674039580,4.912,2.285,0.152
1593904674541357,4.912,2.285,0.152
1593904675042989,4.912,2.285,0.152
1593904675544680,4.912,2.361,0.152
1593904676046418,5.064,2.438,0.152
1593904676551477,4.912,2.285,0.152
1593904677054310,4.95,2.361,0.152
1593904677555975,4.912,2.361,0.152
1593904678057608,4.95,2.361,0.152
1593904678559262,4.988,2.209,0.152
1593904679061092,5.178,2.361,0.152
1593904679562781,5.102,2.285,0.152
1593904680072860,4.988,2.361,0.152
1593904680574471,4.95,2.361,0.152
1593904681076147,4.874,2.285,0.152
1593904681577840,4.95,2.361,0.152
1593904682079743,4.874,2.285,0.152
1593904682581432,4.836,2.209,0.152
1593904683083142,4.912,2.361,0.152
1593904683584785,4.912,2.361,0.152
1593904684086426,4.912,2.361,0.152
1593904684588146,4.988,2.361,0.152
1593904685089771,5.216,2.513,0.152
1593904685591745,5.064,2.361,0.152
1593904686093429,5.026,2.285,0.152
1593904686595197,5.064,2.285,0.152
1593904687096890,5.178,2.285,0.152
1593904687598520,5.216,2.36,0.152
1593904688100184,5.102,2.209,0.152
1593904688601859,5.178,2.285,0.152
1593904689103610,5.255,2.361,0.152
1593904689605281,5.216,2.285,0.152
1593904690106917,5.255,2.284,0.152
1593904690608581,5.331,2.437,0.152
1593904691110242,5.178,2.285,0.152
1593904691613035,5.216,2.284,0.152
1593904692114504,5.216,2.284,0.152
1593904692616126,5.407,2.513,0.152
1593904693117805,5.369,2.437,0.152
1593904693619502,5.216,2.284,0.152
1593904694121168,5.178,2.285,0.152
1593904694622882,5.14,2.209,0.152
1593904695124571,5.14,2.285,0.152
1593904695626236,5.064,2.285,0.152
1593904696127892,4.798,2.209,0.152
1593904696629609,4.836,2.209,0.152
1593904697131218,4.874,2.285,0.152
1593904697632911,4.836,2.285,0.152
1593904698134635,4.874,2.209,0.152
1593904698636346,4.836,2.285,0.152
1593904699138054,4.874,2.285,0.152
1593904699644640,4.836,2.285,0.152
1593904700146061,4.76,2.133,0.152
1593904700647594,4.874,2.285,0.152
1593904701149040,4.836,2.285,0.152
1593904701650488,4.874,2.285,0.152
1593904702151934,4.76,2.209,0.152
1593904702660586,4.798,2.209,0.152
1593904703162014,5.102,2.285,0.152
1593904703663648,4.988,2.285,0.152
1593904704171405,4.912,2.285,0.152
1593904704672813,4.874,2.285,0.152
1593904705174209,4.798,2.209,0.152
1593904705675656,4.836,2.285,0.152
1593904706177044,4.836,2.209,0.152
1593904706681092,4.988,2.361,0.152
1593904707182917,5.026,2.438,0.152
1593904707684524,4.912,2.285,0.152
1593904708190212,4.874,2.285,0.152
1593904708691660,4.988,2.361,0.152
1593904709193103,4.912,2.361,0.152
1593904709697464,4.874,2.285,0.152
1593904710207853,4.798,2.209,0.152
1593904710709595,4.836,2.285,0.152
1593904711211023,4.874,2.285,0.152
1593904711714967,4.836,2.285,0.152
1593904712216426,4.912,2.285,0.152
1593904712718163,5.026,2.438,0.152
1593904713219627,4.912,2.285,0.152
1593904713721014,4.912,2.361,0.152
1593904714222463,4.836,2.209,0.152
1593904714723991,4.798,2.209,0.152
1593904715225453,4.874,2.285,0.152
1593904715726912,4.836,2.285,0.152
1593904716228462,4.874,2.285,0.152
1593904716732489,5.026,2.438,0.152
1593904717233894,4.95,2.361,0.152
1593904717735368,4.874,2.285,0.152
1593904718236791,4.798,2.209,0.152
1593904718738198,4.836,2.285,0.152
1593904719239593,4.874,2.285,0.152
1593904719741129,4.798,2.209,0.152
1593904720242614,4.988,2.361,0.152
1593904720745331,4.95,2.361,0.152
1593904721247025,4.874,2.285,0.152
1593904721748710,4.721,2.133,0.152
1593904722250393,4.798,2.209,0.152
1593904722752113,4.836,2.285,0.152
1593904723253738,4.874,2.285,0.152
1593904723755411,4.76,2.209,0.152
1593904724257032,4.988,2.361,0.152
1593904724758640,5.064,2.514,0.152
1593904725260439,5.064,2.438,0.152
1593904725762109,5.14,2.514,0.152
1593904726263829,5.026,2.438,0.152
1593904726765421,4.988,2.361,0.152
1593904727267121,5.026,2.438,0.152
1593904727768929,4.912,2.285,0.152
1593904728270582,4.874,2.285,0.152
1593904728772350,4.836,2.285,0.152
1593904729274119,4.874,2.285,0.152
1593904729775816,4.76,2.209,0.152
1593904730277462,4.721,2.133,0.152
1593904730779121,4.798,2.209,0.152
1593904731280849,4.874,2.285,0.152
1593904731782599,4.912,2.285,0.152
1593904732284282,4.874,2.285,0.152
1593904732785937,4.874,2.285,0.152
1593904733287646,4.798,2.209,0.152
1593904733789404,4.76,2.209,0.152
1593904734291122,4.798,2.209,0.152
1593904734792770,4.874,2.285,0.152
1593904735294446,5.064,2.285,0.152
1593904735796162,4.95,2.285,0.152
1593904736297756,5.064,2.438,0.152
1593904736799409,5.14,2.514,0.152
1593904737301062,4.912,2.361,0.152
1593904737802715,4.874,2.285,0.152
1593904738304663,4.836,2.285,0.152
1593904738806369,4.76,2.209,0.152
1593904739308123,4.798,2.285,0.152
1593904739809774,4.76,2.209,0.152
1593904740311453,4.912,2.285,0.152
1593904740813079,5.064,2.438,0.152
1593904741314783,4.912,2.361,0.152
1593904741816436,4.836,2.209,0.152
1593904742318081,4.95,2.285,0.152
1593904742819888,5.064,2.438,0.152
1593904743321511,5.102,2.514,0.152
1593904743823392,5.064,2.438,0.152
1593904744324974,5.064,2.438,0.152
1593904744826591,5.102,2.513,0.152
1593904745328326,5.102,2.514,0.152
1593904745830018,5.026,2.438,0.152
1593904746331636,4.912,2.285,0.152
1593904746833316,4.874,2.285,0.152
1593904747334949,4.798,2.209,0.152
1593904747836642,4.836,2.209,0.152
1593904748338291,4.95,2.361,0.152
1593904748839940,5.064,2.438,0.152
1593904749341599,5.102,2.514,0.152
1593904749843270,5.14,2.514,0.152
1593904750344968,5.14,2.514,0.152
1593904750846638,4.988,2.361,0.152
1593904751348316,4.95,2.361,0.152
1593904751850044,4.874,2.285,0.152
1593904752351950,4.95,2.361,0.152
1593904752853596,5.064,2.438,0.152
1593904753355215,5.102,2.514,0.152
1593904753856937,4.912,2.361,0.152
1593904754358624,4.912,2.285,0.152
1593904754860341,4.912,2.361,0.152
1593904755361978,4.912,2.361,0.152
1593904755863889,4.912,2.285,0.152
1593904756365329,5.064,2.438,0.152
1593904756866848,5.102,2.514,0.152
1593904757368328,5.064,2.438,0.152
1593904757872062,4.988,2.361,0.152
1593904758373682,4.874,2.285,0.152
1593904758875394,4.874,2.285,0.152
1593904759377070,4.836,2.285,0.152
1593904759878746,4.874,2.285,0.152
1593904760380465,4.836,2.285,0.152
1593904760882225,4.798,2.209,0.152
1593904761383949,4.874,2.285,0.152
1593904761885548,4.95,2.285,0.152
1593904762387168,4.988,2.361,0.152
1593904762888847,4.912,2.285,0.152
1593904763390596,4.874,2.285,0.152
1593904763892385,4.798,2.209,0.152
1593904764394071,4.836,2.209,0.152
1593904764895818,4.836,2.285,0.152
1593904765397279,4.874,2.285,0.152
1593904765903254,4.874,2.285,0.152
1593904766404944,5.026,2.438,0.152
1593904766906828,5.026,2.438,0.152
1593904767408346,4.912,2.285,0.152
1593904767910328,4.798,2.209,0.152
1593904768411799,4.988,2.285,0.152
1593904768913262,5.14,2.285,0.152
1593904769414998,5.14,2.285,0.152
1593904769916695,4.912,2.209,0.152
1593904770418144,4.874,2.285,0.152
1593904770919650,4.836,2.285,0.152
1593904771421043,4.874,2.285,0.152
1593904771922486,4.76,2.209,0.152
1593904772423928,4.874,2.285,0.152
1593904772925459,4.836,2.285,0.152
1593904773426890,4.874,2.285,0.152
1593904773928354,4.874,2.285,0.152
1593904774429806,4.912,2.285,0.152
1593904774931404,4.95,2.361,0.152
1593904775433127,4.912,2.285,0.152
1593904775934746,4.988,2.361,0.152
1593904776436229,5.064,2.438,0.152
1593904776937656,5.102,2.514,0.152
1593904777439070,4.874,2.285,0.152
1593904777940516,4.798,2.209,0.152
1593904778441915,4.874,2.285,0.152
1593904778943356,4.912,2.285,0.152
1593904779444805,4.836,2.285,0.152
1593904779946204,4.798,2.209,0.152
1593904780447649,4.874,2.285,0.152
1593904780949057,4.912,2.361,0.152
1593904781450511,4.836,2.209,0.152
1593904781951992,4.836,2.209,0.152
1593904782453408,4.874,2.285,0.152
1593904782954826,4.874,2.285,0.152
1593904783456301,4.836,2.285,0.152
1593904783957715,4.874,2.285,0.152
1593904784459131,4.874,2.285,0.152
1593904784960609,4.874,2.285,0.152
1593904785462047,4.836,2.209,0.152
1593904785963462,4.874,2.285,0.152
1593904786464912,4.874,2.285,0.152
1593904786966348,4.95,2.361,0.152
1593904787468181,4.836,2.209,0.152
1593904787969717,4.836,2.209,0.152
1593904788471148,4.874,2.285,0.152
1593904788972650,4.874,2.285,0.152
1593904789480182,4.836,2.285,0.152
1593904789982128,4.874,2.285,0.152
1593904790483603,4.912,2.285,0.152
1593904790985063,4.95,2.361,0.152
1593904791486471,4.874,2.285,0.152
1593904791987900,4.874,2.285,0.152
1593904792489306,4.912,2.361,0.152
1593904792992908,4.912,2.361,0.152
1593904793494323,4.912,2.285,0.152
1593904793995812,4.912,2.285,0.152
1593904794497241,4.836,2.285,0.152
1593904794998694,4.76,2.209,0.152
1593904795500226,4.836,2.285,0.152
1593904796001659,4.874,2.285,0.152
1593904796504063,4.912,2.285,0.152
1593904797005494,4.874,2.285,0.152
1593904797507293,4.874,2.285,0.152
1593904798008767,4.798,2.209,0.152
1593904798512416,4.836,2.285,0.152
1593904799013943,4.836,2.285,0.152
1593904799515406,4.874,2.285,0.152
1593904800022580,4.912,2.361,0.152
1593904800524010,4.874,2.285,0.152
1593904801025433,4.874,2.285,0.152
1593904801526879,4.988,2.438,0.152
1593904802028408,5.102,2.514,0.152
1593904802529856,5.026,2.361,0.152
1593904803031254,4.874,2.285,0.152
1593904803534911,5.026,2.438,0.152
1593904804036380,5.102,2.514,0.152
1593904804537793,4.988,2.361,0.152
1593904805039242,4.874,2.285,0.152
1593904805540718,4.874,2.285,0.152
1593904806042141,4.874,2.285,0.152
1593904806543582,4.647,2.057,0.152
1593904807045824,4.76,2.209,0.152
1593904807547339,4.836,2.285,0.152
1593904808048748,4.836,2.285,0.152
1593904808553198,4.912,2.361,0.152
1593904809064896,4.988,2.438,0.152
1593904809566359,5.064,2.514,0.152
1593904810067801,5.064,2.438,0.152
1593904810569209,4.95,2.361,0.152
1593904811070649,4.912,2.361,0.152
1593904811572647,4.836,2.285,0.152
1593904812074207,4.874,2.285,0.152
1593904812575595,4.874,2.285,0.152
1593904813077003,4.912,2.285,0.152
1593904813580595,5.026,2.438,0.152
1593904814084918,5.064,2.438,0.152
1593904814586334,5.102,2.514,0.152
1593904815087775,4.912,2.361,0.152
1593904815589572,4.874,2.285,0.152
1593904816091199,4.988,2.361,0.152
1593904816592692,4.95,2.361,0.152
1593904817094168,4.874,2.285,0.152
1593904817595588,4.874,2.285,0.152
1593904818097002,4.798,2.209,0.152
1593904818600807,4.988,2.361,0.152
1593904819102250,5.026,2.438,0.152
1593904819603792,5.102,2.514,0.152
1593904820105462,4.95,2.361,0.152
1593904820607122,5.064,2.438,0.152
1593904821108789,5.102,2.514,0.152
1593904821610424,5.102,2.514,0.152
1593904822112100,4.874,2.285,0.152
1593904822613815,4.912,2.285,0.152
1593904823115672,4.874,2.285,0.152
1593904823617319,4.874,2.285,0.152
1593904824118977,4.874,2.285,0.152
1593904824620674,4.836,2.285,0.152
1593904825122361,4.836,2.285,0.152
1593904825624055,4.798,2.209,0.152
1593904826125649,4.836,2.285,0.152
1593904826627225,4.988,2.361,0.152
1593904827129028,4.988,2.361,0.152
1593904827630682,4.874,2.285,0.152
1593904828132478,4.836,2.285,0.152
1593904828634157,4.912,2.285,0.152
1593904829135840,4.874,2.361,0.152
1593904829637550,4.836,2.285,0.152
1593904830139269,4.721,2.133,0.152
1593904830641081,4.836,2.285,0.152
1593904831142717,4.874,2.285,0.152
1593904831644404,4.836,2.285,0.152
1593904832146116,4.721,2.133,0.152
1593904832647860,4.836,2.285,0.152
1593904833149533,4.874,2.361,0.152
1593904833651194,4.988,2.438,0.152
1593904834153020,5.064,2.438,0.152
1593904834654651,4.988,2.361,0.152
1593904835156364,4.836,2.285,0.152
1593904835658099,4.874,2.285,0.152
1593904836159680,4.912,2.285,0.152
1593904836661349,4.874,2.285,0.152
1593904837163043,4.836,2.285,0.152
1593904837664777,4.76,2.209,0.152
1593904838166451,4.836,2.285,0.152
1593904838668131,4.988,2.361,0.152
1593904839169816,5.026,2.438,0.152
1593904839671606,4.95,2.361,0.152
1593904840173316,4.988,2.361,0.152
1593904840674937,5.064,2.438,0.152
1593904841176621,5.102,2.514,0.152
1593904841678252,5.102,2.438,0.152
1593904842179949,4.988,2.361,0.152
1593904842681593,4.912,2.361,0.152
1593904843183119,4.912,2.361,0.152
1593904843688587,4.798,2.209,0.152
1593904844193036,4.836,2.285,0.152
1593904844694457,4.874,2.285,0.152
1593904845195947,4.874,2.285,0.152
1593904845697328,4.798,2.209,0.152
1593904846199322,4.874,2.285,0.152
1593904846700731,4.912,2.361,0.152
1593904847202170,4.836,2.285,0.152
1593904847704632,4.76,2.209,0.152
1593904848206064,4.798,2.209,0.152
1593904848707530,4.836,2.285,0.152
1593904849211063,4.836,2.285,0.152
1593904849718720,4.76,2.133,0.152
1593904850220192,4.836,2.285,0.152
1593904850721608,4.798,2.285,0.152
1593904851223096,4.874,2.285,0.152
1593904851724558,4.798,2.209,0.152
1593904852225983,4.912,2.285,0.152
1593904852727397,5.064,2.438,0.152
1593904853228885,5.102,2.514,0.152
1593904853730293,4.912,2.285,0.152
1593904854233885,4.836,2.285,0.152
1593904854735300,4.874,2.285,0.152
1593904855236745,4.912,2.361,0.152
1593904855738200,4.836,2.209,0.152
1593904856239605,4.874,2.285,0.152
1593904856741373,4.95,2.285,0.152
1593904857242828,5.102,2.285,0.152
1593904857744251,4.874,2.209,0.152
1593904858245718,4.874,2.285,0.152
1593904858747158,4.874,2.285,0.152
1593904859251067,4.836,2.285,0.152
1593904859752523,4.798,2.209,0.152
1593904860254001,4.874,2.285,0.152
1593904860755473,5.102,2.438,0.152
1593904861257031,5.102,2.514,0.152
1593904861758643,4.988,2.361,0.152
1593904862260168,5.064,2.438,0.152
1593904862761594,4.95,2.361,0.152
1593904863263039,5.064,2.438,0.152
1593904863764957,4.874,2.285,0.152
1593904864266495,4.836,2.285,0.152
1593904864767917,4.874,2.285,0.152
1593904865269396,4.836,2.209,0.152
1593904865770830,4.721,2.133,0.152
1593904866272641,4.836,2.209,0.152
1593904866774105,4.988,2.361,0.152
1593904867275573,5.026,2.438,0.152
1593904867777009,4.988,2.361,0.152
1593904868278387,4.912,2.361,0.152
1593904868779824,4.874,2.285,0.152
1593904869281216,4.836,2.285,0.152
1593904869782607,4.836,2.209,0.152
1593904870284010,4.874,2.285,0.152
1593904870785659,4.912,2.285,0.152
1593904871290430,4.798,2.209,0.152
1593904871791820,4.836,2.209,0.152
1593904872293237,4.874,2.285,0.152
