TimeStamp,Total Power,CPU Power,GPU Power
1592953317265176,3.468,0.914,0.152
1592953317766462,3.468,0.914,0.152
1592953318267727,3.43,0.838,0.152
1592953318768969,3.468,0.914,0.152
1592953319270259,3.468,0.914,0.152
1592953319771521,3.658,0.914,0.152
1592953320272761,3.809,0.914,0.152
1592953320773995,3.885,0.914,0.152
1592953321275241,3.847,0.914,0.152
1592953321776501,3.847,0.914,0.152
