TimeStamp,Total Power,CPU Power,GPU Power
1593984602123677,4.457,1.828,0.152
1593984602624974,3.619,1.067,0.152
1593984603126236,3.238,0.686,0.152
1593984603627578,4.152,1.6,0.152
1593984604130974,4.647,1.98,0.152
1593984604632272,4.721,2.057,0.152
1593984605133903,4.874,2.133,0.152
1593984605635887,5.14,2.132,0.152
1593984606137334,5.178,2.132,0.152
1593984606641788,5.14,2.132,0.152
1593984607143186,4.76,2.057,0.152
1593984607644881,4.607,1.904,0.152
1593984608146300,4.495,1.904,0.152
1593984608650580,4.495,1.904,0.152
1593984609151993,4.569,1.904,0.152
1593984609653304,4.495,1.904,0.152
1593984610154573,4.457,1.904,0.152
1593984610655892,4.457,1.904,0.152
1593984611157135,4.495,1.904,0.152
1593984611658393,4.419,1.828,0.152
1593984612159717,4.457,1.828,0.152
1593984612661292,4.533,1.904,0.152
1593984613162566,4.495,1.904,0.152
1593984613664000,4.419,1.828,0.152
1593984614165245,4.533,1.904,0.152
1593984614666493,4.533,1.904,0.152
1593984615167792,4.495,1.904,0.152
1593984615669089,4.457,1.828,0.152
1593984616170317,4.495,1.904,0.152
1593984616671585,4.457,1.904,0.152
1593984617172866,4.419,1.828,0.152
1593984617674186,4.457,1.828,0.152
1593984618175475,4.495,1.904,0.152
1593984618676724,4.419,1.828,0.152
1593984619178016,4.419,1.828,0.152
1593984619679364,4.607,1.98,0.152
1593984620180647,4.457,1.828,0.152
1593984620681918,4.381,1.828,0.152
1593984621183185,4.571,1.904,0.152
1593984621684515,4.495,1.904,0.152
1593984622185751,4.419,1.828,0.152
1593984622687038,4.419,1.828,0.152
1593984623188289,4.495,1.904,0.152
1593984623690876,4.381,1.828,0.152
1593984624192152,4.419,1.828,0.152
1593984624693393,4.457,1.828,0.152
1593984625194638,4.419,1.828,0.152
1593984625695944,4.457,1.828,0.152
1593984626197188,4.457,1.904,0.152
1593984626698473,4.495,1.904,0.152
1593984627199849,4.457,1.828,0.152
1593984627701147,4.419,1.828,0.152
1593984628202394,4.571,1.904,0.152
1593984628703753,4.419,1.828,0.152
1593984629204994,4.381,1.828,0.152
1593984629708643,4.419,1.828,0.152
1593984630209967,4.419,1.828,0.152
1593984630711232,4.419,1.828,0.152
1593984631212495,4.419,1.828,0.152
1593984631713790,4.533,1.904,0.152
1593984632215103,4.495,1.904,0.152
1593984632716444,4.419,1.828,0.152
1593984633217722,4.495,1.904,0.152
1593984633718977,4.457,1.828,0.152
1593984634220357,4.419,1.828,0.152
1593984634723661,4.419,1.828,0.152
1593984635224908,4.533,1.904,0.152
1593984635726155,4.457,1.828,0.152
1593984636227477,4.419,1.828,0.152
1593984636728801,4.495,1.904,0.152
1593984637230067,4.495,1.904,0.152
1593984637731439,4.381,1.828,0.152
1593984638232697,4.533,1.904,0.152
1593984638733976,4.607,1.98,0.152
1593984639235254,4.457,1.828,0.152
1593984639736555,4.419,1.828,0.152
1593984640237862,4.419,1.828,0.152
1593984640739123,4.419,1.828,0.152
1593984641240418,4.419,1.828,0.152
1593984641741703,4.419,1.828,0.152
1593984642242991,4.457,1.904,0.152
1593984642744296,4.419,1.828,0.152
1593984643253374,4.419,1.828,0.152
1593984643755607,4.607,1.98,0.152
1593984644256899,4.569,1.98,0.152
1593984644758197,4.495,1.904,0.152
1593984645259586,4.381,1.828,0.152
1593984645760869,4.419,1.828,0.152
1593984646262169,4.495,1.904,0.152
1593984646763432,4.419,1.828,0.152
1593984647264718,4.533,1.904,0.152
1593984647765963,4.457,1.828,0.152
1593984648267216,4.419,1.828,0.152
1593984648768456,4.419,1.828,0.152
1593984649269831,4.495,1.904,0.152
1593984649771102,4.419,1.828,0.152
1593984650272396,4.381,1.828,0.152
1593984650773735,4.495,1.904,0.152
1593984651275011,4.457,1.828,0.152
1593984651777156,4.419,1.828,0.152
1593984652279617,4.457,1.828,0.152
1593984652781165,4.419,1.828,0.152
1593984653282413,4.419,1.828,0.152
1593984653783672,4.457,1.828,0.152
1593984654284914,4.457,1.828,0.152
1593984654786200,4.419,1.828,0.152
1593984655287512,4.381,1.828,0.152
1593984655788778,4.533,1.904,0.152
1593984656290021,4.457,1.904,0.152
1593984656791292,4.419,1.828,0.152
1593984657292605,4.457,1.828,0.152
1593984657794295,4.533,1.904,0.152
1593984658295563,4.419,1.828,0.152
1593984658796866,4.419,1.828,0.152
1593984659298108,4.495,1.828,0.152
1593984659799429,4.419,1.828,0.152
1593984660300688,4.457,1.828,0.152
1593984660802021,4.457,1.828,0.152
1593984661303297,4.419,1.828,0.152
1593984661804592,4.419,1.828,0.152
1593984662305878,4.419,1.828,0.152
1593984662807161,4.495,1.904,0.152
1593984663308421,4.457,1.828,0.152
1593984663809688,4.457,1.828,0.152
1593984664310936,4.457,1.828,0.152
1593984664812201,4.495,1.904,0.152
1593984665313531,4.457,1.828,0.152
1593984665814811,4.381,1.828,0.152
1593984666316081,4.533,1.904,0.152
1593984666817426,4.457,1.828,0.152
1593984667318691,4.419,1.828,0.152
1593984667819927,4.457,1.828,0.152
1593984668321193,4.683,1.828,0.152
1593984668822471,4.912,1.904,0.152
1593984669323743,5.064,2.057,0.152
1593984669824988,5.064,2.133,0.152
1593984670326264,4.836,2.133,0.152
1593984670827591,4.798,2.133,0.152
1593984671328886,4.798,2.133,0.152
1593984671830154,4.721,2.133,0.152
1593984672331435,4.721,2.133,0.152
1593984672832688,4.76,2.133,0.152
1593984673333965,4.76,2.133,0.152
1593984673835333,4.683,2.057,0.152
1593984674336603,4.645,2.057,0.152
1593984674837855,4.76,2.133,0.152
1593984675339111,4.76,2.133,0.152
1593984675840889,4.683,2.057,0.152
1593984676342155,4.645,2.057,0.152
1593984676843418,4.76,2.133,0.152
1593984677344671,4.721,2.133,0.152
1593984677846015,4.645,2.057,0.152
1593984678347436,4.683,2.057,0.152
1593984678848745,4.798,2.133,0.152
1593984679349994,4.721,2.133,0.152
1593984679851261,4.683,2.057,0.152
1593984680352668,4.721,2.057,0.152
1593984680855961,4.645,1.98,0.152
1593984681357241,4.569,1.98,0.152
1593984681858499,4.607,1.98,0.152
1593984682359768,4.569,1.98,0.152
1593984682861061,4.533,1.904,0.152
1593984683362320,4.533,1.904,0.152
1593984683863655,4.683,2.057,0.152
1593984684364890,4.533,1.904,0.152
1593984684866153,4.533,1.904,0.152
1593984685367447,4.607,1.98,0.152
1593984685870792,4.645,2.057,0.152
1593984686372102,4.607,1.98,0.152
1593984686873387,4.721,2.133,0.152
1593984687374657,4.874,2.209,0.152
1593984687875942,4.798,2.209,0.152
1593984688377234,4.721,2.133,0.152
1593984688878531,4.76,2.133,0.152
1593984689379818,4.76,2.133,0.152
1593984689881069,4.798,2.133,0.152
1593984690382361,4.683,2.057,0.152
1593984690885576,4.836,2.133,0.152
1593984691386890,4.76,2.133,0.152
1593984691888252,4.76,2.133,0.152
1593984692389495,4.683,2.133,0.152
1593984692890766,4.76,2.133,0.152
1593984693392064,4.76,2.133,0.152
1593984693893305,4.721,2.133,0.152
1593984694394612,4.836,2.209,0.152
1593984694895868,4.76,2.133,0.152
1593984695397111,4.76,2.133,0.152
1593984695898406,4.76,2.133,0.152
1593984696399719,4.76,2.133,0.152
1593984696901041,4.721,2.133,0.152
1593984697402394,4.683,2.133,0.152
1593984697903702,4.836,2.209,0.152
1593984698404950,4.76,2.133,0.152
1593984698906232,4.683,2.057,0.152
1593984699407533,4.76,2.133,0.152
1593984699908797,4.76,2.133,0.152
1593984700410082,4.721,2.133,0.152
1593984700911358,4.798,2.209,0.152
1593984701412631,4.836,2.209,0.152
1593984701913924,4.76,2.133,0.152
1593984702415261,4.798,2.133,0.152
1593984702916513,4.76,2.133,0.152
1593984703417797,4.798,2.133,0.152
1593984703919083,4.76,2.133,0.152
1593984704420342,4.721,2.057,0.152
1593984704921590,4.798,2.133,0.152
1593984705423182,4.76,2.133,0.152
1593984705924432,4.721,2.133,0.152
1593984706425689,4.683,2.133,0.152
1593984706926998,4.836,2.209,0.152
1593984707428370,4.721,2.133,0.152
1593984707929679,4.76,2.133,0.152
1593984708430993,4.798,2.133,0.152
1593984708932248,4.76,2.133,0.152
1593984709433522,4.76,2.133,0.152
1593984709935182,4.683,2.057,0.152
1593984710436517,4.836,2.209,0.152
1593984710937787,4.721,2.133,0.152
1593984711439078,4.721,2.133,0.152
1593984711940327,4.836,2.209,0.152
1593984712441597,4.721,2.133,0.152
1593984712943527,4.798,2.133,0.152
1593984713444788,4.721,2.133,0.152
1593984713946057,4.798,2.209,0.152
1593984714447376,4.721,2.133,0.152
1593984714948648,4.721,2.057,0.152
1593984715449990,4.798,2.209,0.152
1593984715951341,4.798,2.133,0.152
1593984716452599,4.721,2.133,0.152
1593984716953858,4.76,2.133,0.152
1593984717455144,4.798,2.209,0.152
1593984717957595,4.721,2.133,0.152
1593984718458886,4.683,2.133,0.152
1593984718960136,4.76,2.133,0.152
1593984719461376,4.76,2.133,0.152
1593984719962651,4.798,2.209,0.152
1593984720463938,4.76,2.133,0.152
1593984720965180,4.836,2.133,0.152
1593984721468647,4.76,2.133,0.152
1593984721969921,4.721,2.057,0.152
1593984722471178,4.721,2.133,0.152
1593984722972503,4.798,2.209,0.152
1593984723473778,4.76,2.133,0.152
1593984723975064,4.721,2.133,0.152
1593984724476352,4.836,2.209,0.152
1593984724977623,4.76,2.133,0.152
1593984725478897,4.683,2.057,0.152
1593984725980147,4.721,2.133,0.152
1593984726481400,4.76,2.133,0.152
1593984726982647,4.76,2.133,0.152
1593984727483931,4.76,2.133,0.152
1593984727985219,4.836,2.209,0.152
1593984728486562,4.76,2.133,0.152
1593984728987835,4.683,2.057,0.152
1593984729489108,4.76,2.133,0.152
1593984729990369,4.76,2.133,0.152
1593984730491647,4.76,2.133,0.152
1593984730992944,4.76,2.057,0.152
1593984731494314,5.102,2.133,0.152
1593984731995580,5.178,2.208,0.152
1593984732496848,5.178,2.132,0.152
1593984732998119,5.026,2.209,0.152
1593984733499412,4.836,2.133,0.152
1593984734000764,4.836,2.209,0.152
1593984734502068,4.76,2.133,0.152
1593984735003380,4.798,2.209,0.152
1593984735504654,4.798,2.133,0.152
1593984736005908,4.76,2.133,0.152
1593984736509053,4.798,2.133,0.152
1593984737010432,4.76,2.133,0.152
1593984737511730,4.721,2.133,0.152
1593984738013046,4.683,2.133,0.152
1593984738514323,4.874,2.209,0.152
1593984739015610,4.76,2.133,0.152
1593984739516917,4.721,2.133,0.152
1593984740018361,4.798,2.133,0.152
1593984740519639,4.798,2.133,0.152
1593984741020936,4.76,2.133,0.152
1593984741523382,4.76,2.133,0.152
1593984742024644,4.912,2.209,0.152
1593984742525930,4.76,2.133,0.152
1593984743027597,4.721,2.133,0.152
1593984743528865,4.76,2.133,0.152
1593984744030149,4.874,2.209,0.152
1593984744531421,4.798,2.209,0.152
1593984745032697,4.798,2.133,0.152
1593984745533992,4.798,2.133,0.152
1593984746035257,4.798,2.209,0.152
1593984746536578,4.798,2.209,0.152
1593984747037884,4.721,2.133,0.152
1593984747539200,4.721,2.133,0.152
1593984748040501,4.76,2.133,0.152
1593984748541774,4.683,2.057,0.152
1593984749043074,4.798,2.133,0.152
1593984749544322,4.76,2.133,0.152
1593984750045590,4.721,2.133,0.152
1593984750546813,4.721,2.133,0.152
1593984751048095,4.76,2.133,0.152
1593984751551367,4.721,2.133,0.152
1593984752052703,4.683,2.133,0.152
1593984752553923,4.798,2.133,0.152
1593984753055212,4.798,2.133,0.152
1593984753556459,4.721,2.057,0.152
1593984754057777,4.683,2.057,0.152
1593984754559084,4.76,2.133,0.152
1593984755060368,4.721,2.133,0.152
1593984755561622,4.721,2.133,0.152
1593984756062924,4.874,2.209,0.152
1593984756566229,4.76,2.133,0.152
1593984757067518,4.683,2.057,0.152
1593984757568766,4.683,2.057,0.152
1593984758070074,4.76,2.133,0.152
1593984758571373,4.721,2.057,0.152
1593984759072632,4.721,2.133,0.152
1593984759573891,4.836,2.133,0.152
1593984760075141,4.683,2.057,0.152
1593984760576451,4.798,2.133,0.152
1593984761077674,4.721,2.133,0.152
1593984761578928,4.76,2.133,0.152
1593984762080201,4.76,2.133,0.152
1593984762581465,4.721,2.057,0.152
1593984763082770,4.76,2.133,0.152
1593984763584051,4.721,2.133,0.152
1593984764085345,4.76,2.133,0.152
1593984764586613,4.76,2.133,0.152
1593984765087924,4.76,2.133,0.152
1593984765589187,4.76,2.133,0.152
1593984766090456,4.683,2.057,0.152
1593984766593965,4.836,2.209,0.152
1593984767095243,4.798,2.209,0.152
1593984767596525,4.721,2.133,0.152
1593984768097829,4.76,2.133,0.152
1593984768599075,4.721,2.133,0.152
1593984769100371,4.683,2.057,0.152
1593984769601639,4.721,2.133,0.152
1593984770102963,4.798,2.133,0.152
1593984770604261,4.721,2.133,0.152
1593984771105522,4.645,2.057,0.152
1593984771606800,4.76,2.133,0.152
1593984772108084,4.76,2.133,0.152
1593984772609366,4.76,2.133,0.152
1593984773110661,4.76,2.133,0.152
1593984773612813,4.798,2.209,0.152
1593984774114040,4.76,2.133,0.152
1593984774615409,4.76,2.133,0.152
1593984775116664,4.645,2.057,0.152
1593984775617923,4.683,2.057,0.152
1593984776119185,4.645,2.057,0.152
1593984776620455,4.721,2.133,0.152
1593984777121746,4.798,2.133,0.152
1593984777623079,4.721,2.133,0.152
1593984778124361,4.683,2.057,0.152
1593984778625603,4.683,2.133,0.152
1593984779126869,4.721,2.133,0.152
1593984779628148,4.798,2.133,0.152
1593984780129426,4.683,2.057,0.152
1593984780630701,4.836,2.133,0.152
1593984781131983,4.721,2.057,0.152
1593984781633247,4.683,2.057,0.152
1593984782134515,4.721,2.057,0.152
1593984782636594,4.76,2.133,0.152
1593984783137879,4.645,2.057,0.152
1593984783639154,4.683,2.057,0.152
1593984784140502,4.836,2.209,0.152
1593984784641786,4.798,2.133,0.152
1593984785143162,4.721,2.133,0.152
1593984785644424,4.683,2.057,0.152
1593984786145673,4.76,2.133,0.152
1593984786646910,4.721,2.133,0.152
1593984787148250,4.683,2.057,0.152
1593984787649566,4.76,2.133,0.152
1593984788150855,4.76,2.133,0.152
1593984788652114,4.76,2.133,0.152
1593984789153380,4.683,2.057,0.152
1593984789654649,4.76,2.133,0.152
1593984790155907,4.683,2.057,0.152
1593984790657189,4.721,2.133,0.152
1593984791158483,4.836,2.209,0.152
1593984791659759,4.798,2.209,0.152
1593984792163039,4.76,2.133,0.152
1593984792664391,4.721,2.133,0.152
1593984793172337,4.798,2.133,0.152
1593984793673604,4.721,2.133,0.152
1593984794174885,4.95,2.133,0.152
1593984794676106,5.14,2.133,0.152
1593984795177472,5.178,2.132,0.152
1593984795678764,5.064,2.133,0.152
1593984796180046,4.798,2.057,0.152
1593984796681334,4.836,2.209,0.152
1593984797184780,4.76,2.133,0.152
1593984797686059,4.76,2.133,0.152
1593984798187379,4.76,2.133,0.152
1593984798688625,4.76,2.133,0.152
1593984799189933,4.607,1.98,0.152
1593984799691202,4.569,1.98,0.152
1593984800192493,4.533,1.904,0.152
1593984800693760,4.457,1.828,0.152
1593984801195064,4.419,1.828,0.152
1593984801696344,4.533,1.904,0.152
1593984802199819,4.419,1.828,0.152
1593984802701097,4.419,1.828,0.152
