timestamp	VIRTUAL_SCALING	CPU0_F	CPU1_F	CPU2_F	CPU3_F	CPU4_F	CPU5_F	GPU_FREQ	CPU_GOVERNOR	EMC_F	TEMP0	TEMP1	TEMP2	TEMP3	TEMP4	TEMP5	TEMP6	TEMP7
1592952254264242924	1	652	806	806	652	652	652	114750000	performance	665	27	27	26	27	25	23	100	26
1592952254375225441 	0	652	806	806	653	652	652	114750000	performance	665	27	27	26	27	25	23	100	26
1592952255987243394	1	652	806	806	652	652	652	114750000	performance	665	28	28	26	28	25	23	100	26
1592952256074368078 	0	652	806	806	653	652	652	114750000	performance	665	27	27	26	27	25	23	100	26
1592952257684411112	1	652	806	806	652	652	652	114750000	performance	665	27	27	26	27	25	23	100	26
1592952257772598199 	0	652	805	806	652	652	653	114750000	performance	665	27	27	26	27	25	23	100	26
1592952259383011571	1	652	806	806	652	652	652	114750000	performance	665	27	27	26	27	25	23	100	26
1592952259472194341 	0	652	806	805	653	653	652	114750000	performance	665	27	27	26	27	25	23	100	26
1592952261083644836	1	652	806	806	652	652	652	114750000	performance	665	27	28	26	28	25	23	100	26
1592952261171202801 	0	652	806	806	652	653	652	114750000	performance	665	27	28	26	28	25	23	100	26
1592952262782790896	1	652	806	806	652	652	652	114750000	performance	665	27	27	26	27	25	23	100	26
1592952262870715487 	0	653	806	806	653	653	653	114750000	performance	665	27	27	26	27	25	23	100	26
1592952264482746399	1	652	806	806	652	652	652	114750000	performance	665	27	27	26	27	25	23	100	26
1592952264571240591 	0	652	806	807	652	652	652	114750000	performance	665	27	27	26	27	25	23	100	26
1592952266183585649	1	652	806	806	652	652	652	114750000	performance	665	27	27	25	27	25	23	100	26
1592952266271959073 	0	653	806	806	652	653	652	114750000	performance	665	27	27	26	27	25	23	100	26
1592952267938197256	1	652	806	806	652	652	652	114750000	performance	665	27	27	26	27	25	23	100	26
1592952268055464721 	0	652	806	806	653	653	652	114750000	performance	665	27	27	26	27	25	23	100	26
1592952269666926543	1	652	806	806	652	652	652	114750000	performance	665	28	28	26	28	25	23	100	26
1592952269755127999 	0	652	806	805	652	653	653	114750000	performance	665	27	27	26	27	25	23	100	26
1592952271366029179	1	652	806	806	652	652	652	114750000	performance	665	27	27	26	27	25	23	100	26
1592952271454585228 	0	652	806	806	653	652	652	114750000	performance	665	27	27	26	27	25	23	100	26
1592952273068989620	1	652	806	806	652	652	652	114750000	performance	665	27	27	26	27	25	23	100	26
1592952273156967554 	0	652	805	806	653	652	652	114750000	performance	665	27	27	26	27	25	23	100	26
1592952274767419422	1	652	806	806	652	652	652	114750000	performance	665	28	28	26	28	25	23	100	27
1592952274854851947 	0	652	806	806	652	653	652	114750000	performance	665	28	28	26	28	25	23	100	27
1592952276466140489	1	652	806	806	652	652	652	114750000	performance	665	27	27	26	27	25	23	100	27
1592952276555227547 	0	652	806	806	652	652	652	114750000	performance	665	28	28	26	28	25	23	100	27
1592952278168104446	1	652	806	806	652	652	652	114750000	performance	665	27	27	26	27	25	23	100	26
1592952278256662318 	0	653	806	806	653	652	652	114750000	performance	665	27	27	26	27	25	23	100	26
1592952279868278125	1	652	806	806	652	652	652	114750000	performance	665	28	28	26	28	25	23	100	27
1592952279956539645 	0	652	806	806	652	652	653	114750000	performance	665	27	27	26	27	25	23	100	27
1592952281569128255	1	652	806	806	652	652	652	114750000	performance	665	27	27	26	27	25	23	100	26
1592952281657561391 	0	652	806	806	652	652	652	114750000	performance	665	27	27	26	27	25	23	100	26
1592952283268552364	1	652	806	806	652	652	652	114750000	performance	665	27	27	26	27	25	23	100	26
1592952283451931009 	0	652	806	806	652	652	652	114750000	performance	665	27	27	26	27	25	23	100	26
1592952285174453305	1	652	806	806	652	652	652	114750000	performance	665	27	27	26	27	25	23	100	26
1592952285374864963 	0	652	806	806	653	652	652	114750000	performance	665	27	27	26	27	25	23	100	26
1592952287058070948	1	652	806	806	652	652	652	114750000	performance	665	27	27	26	27	25	23	100	26
1592952287145792435 	0	652	806	806	652	652	652	114750000	performance	665	27	27	26	27	25	23	100	26
1592952288756494805	1	652	806	806	652	652	652	114750000	performance	665	27	27	26	27	25	23	100	26
1592952288843852290 	0	652	806	806	653	652	652	114750000	performance	665	27	27	26	27	25	23	100	26
1592952290454266019	1	652	806	806	652	652	652	114750000	performance	665	27	27	26	27	25	23	100	26
1592952290542226610 	0	653	806	806	652	652	653	114750000	performance	665	27	27	26	27	25	23	100	26
1592952292153309686	1	652	806	806	652	652	652	114750000	performance	665	27	27	26	27	25	23	100	26
1592952292241760454 	0	652	806	806	653	653	653	114750000	performance	665	27	27	26	27	25	23	100	26
1592952293851168997	1	652	806	806	652	652	652	114750000	performance	665	27	27	26	27	25	23	100	26
1592952293945677032 	0	652	806	807	653	652	653	114750000	performance	665	27	27	26	27	25	23	100	26
1592952295556385802	1	652	806	806	652	652	652	114750000	performance	665	27	27	26	27	25	23	100	26
1592952295644787002 	0	652	806	806	652	652	652	114750000	performance	665	27	27	26	27	25	23	100	26
1592952297257967396	1	652	806	806	652	652	652	114750000	performance	665	27	27	26	27	25	23	100	26
1592952297346364629 	0	652	806	805	652	653	652	114750000	performance	665	27	27	26	27	25	23	100	26
1592952298956566165	1	652	806	806	652	652	652	114750000	performance	665	27	27	26	27	25	23	100	26
1592952299043066592 	0	653	807	806	652	652	652	114750000	performance	665	27	27	26	27	25	23	100	26
1592952300654861478	1	652	806	806	652	652	652	114750000	performance	665	27	27	26	27	25	23	100	26
1592952300741143183 	0	653	806	805	653	652	652	114750000	performance	665	27	27	26	27	25	23	100	26
1592952302350583822	1	652	806	806	652	652	652	114750000	performance	665	27	27	26	27	25	23	100	26
1592952302438309532 	0	653	806	806	653	652	652	114750000	performance	665	27	27	26	27	25	23	100	26
1592952304048685341	1	652	806	806	652	652	652	114750000	performance	665	27	27	26	27	25	23	100	26
1592952304136672524 	0	652	806	806	652	652	652	114750000	performance	665	27	27	26	27	25	23	100	26
1592952305746756717	1	652	806	806	652	652	652	114750000	performance	665	27	27	26	27	25	23	100	26
1592952305833578840 	0	652	806	806	652	653	653	114750000	performance	665	27	27	26	27	25	23	100	26
1592952307442748342	1	652	806	806	652	652	652	114750000	performance	665	27	27	26	27	25	23	100	26
1592952307611159645 	0	652	806	807	652	652	652	114750000	performance	665	27	27	26	27	25	23	100	26
1592952309269826227	1	652	806	806	652	652	652	114750000	performance	665	27	27	26	27	25	23	100	26
1592952309357096607 	0	653	806	806	653	652	653	114750000	performance	665	27	27	26	27	25	23	100	26
1592952310967809666	1	652	806	806	652	652	652	114750000	performance	665	27	27	26	27	25	23	100	26
1592952311055078735 	0	652	806	806	653	653	653	114750000	performance	665	27	27	26	27	25	23	100	26
1592952312667300821	1	652	806	806	652	652	652	114750000	performance	665	27	27	26	27	25	23	100	26
1592952312754901443 	0	652	807	806	652	652	652	114750000	performance	665	27	27	26	27	25	23	100	26
1592952314368623951	1	652	806	806	652	652	652	114750000	performance	665	27	27	26	27	25	23	100	26
1592952314455912572 	0	652	806	806	652	653	652	114750000	performance	665	28	28	26	28	25	23	100	26
1592952316066578142	1	652	806	806	652	652	652	114750000	performance	665	27	27	26	27	25	23	100	26
1592952316154889390 	0	653	806	806	652	652	652	114750000	performance	665	27	27	26	27	25	23	100	26
1592952317768812794	1	652	806	806	652	652	652	114750000	performance	665	27	27	26	27	25	23	100	26
1592952317856504680 	0	653	806	805	652	653	652	114750000	performance	665	27	27	26	27	25	23	100	26
1592952319468659823	1	652	806	806	652	652	652	114750000	performance	665	27	27	26	27	25	23	100	26
1592952319644180844 	0	652	806	806	652	652	652	114750000	performance	665	27	27	26	27	25	23	100	26
1592952321371969884	1	652	806	806	652	652	652	114750000	performance	665	27	27	26	27	25	23	100	26
1592952321491532013 	0	652	806	806	652	652	653	114750000	performance	665	27	27	26	27	25	23	100	26
1592952323157064126	1	652	806	806	652	652	652	114750000	performance	665	27	27	26	27	25	23	100	26
1592952323246758227 	0	652	806	806	652	653	653	114750000	performance	665	27	27	26	27	25	23	100	26
1592952324885801459	1	652	806	806	652	652	652	114750000	performance	665	27	27	26	27	25	23	100	26
1592952325025444161 	0	653	806	807	652	653	653	114750000	performance	665	27	27	26	27	25	23	100	26
1592952326649369586	1	652	806	806	652	652	652	114750000	performance	665	27	27	26	27	25	23	100	26
1592952326739578953 	0	652	806	807	653	652	653	114750000	performance	665	27	27	26	27	25	23	100	26
1592952328350312785	1	652	806	806	652	652	652	114750000	performance	665	28	28	26	27	25	23	100	26
1592952328438642817 	0	653	806	806	653	652	652	114750000	performance	665	28	28	26	27	25	23	100	26
1592952330051831985	1	652	806	806	652	652	652	114750000	performance	665	27	27	25	27	25	23	100	26
1592952330139112767 	0	652	806	805	653	652	652	114750000	performance	665	28	28	26	27	25	23	100	26
1592952331765922200	1	652	806	806	652	652	652	114750000	performance	665	27	27	26	27	25	23	100	26
1592952331853883176 	0	652	806	806	652	652	653	114750000	performance	665	27	27	26	27	25	23	100	26
1592952333463867694	1	652	806	806	652	652	652	114750000	performance	665	27	27	26	27	25	23	100	26
1592952333552433119 	0	652	806	806	653	652	652	114750000	performance	665	27	27	26	27	25	23	100	26
1592952335163184455	1	652	806	806	652	652	652	114750000	performance	665	27	27	26	27	25	23	100	26
1592952335251931129 	0	652	806	805	652	652	652	114750000	performance	665	27	27	26	27	25	23	100	26
1592952336862819042	1	652	806	806	652	652	652	114750000	performance	665	27	27	26	27	25	23	100	26
1592952336950772913 	0	653	807	806	652	653	653	114750000	performance	665	27	27	26	27	25	23	100	26
1592952338561835003	1	652	806	806	652	652	652	114750000	performance	665	27	27	26	27	25	23	100	26
1592952338650125323 	0	652	806	805	652	652	652	114750000	performance	665	27	27	26	27	25	23	100	26
1592952340261710582	1	652	806	806	652	652	652	114750000	performance	665	27	27	26	27	25	23	100	26
1592952340350016710 	0	652	806	806	652	652	652	114750000	performance	665	27	27	26	27	25	23	100	26
1592952341967254019	1	652	806	806	652	652	652	114750000	performance	665	27	27	26	27	25	23	100	26
1592952342057213496 	0	652	806	806	653	653	652	114750000	performance	665	27	27	26	27	25	23	100	26
1592952343667646368	1	652	806	806	652	652	652	114750000	performance	665	27	27	26	27	25	23	100	26
1592952343756652882 	0	653	806	806	652	652	652	114750000	performance	665	28	27	26	27	25	23	100	26
1592952345368371646	1	652	806	806	652	652	652	114750000	performance	665	28	27	26	27	25	23	100	26
1592952345455942412 	0	652	806	806	653	652	652	114750000	performance	665	27	27	26	27	25	23	100	26
1592952347066992501	1	652	806	806	652	652	652	114750000	performance	665	27	27	26	27	25	23	100	26
1592952347235715646 	0	652	806	806	652	652	653	114750000	performance	665	27	27	26	27	25	23	100	26
1592952348885822047	1	652	806	806	652	652	652	114750000	performance	665	27	27	26	27	25	23	100	26
1592952348973731406 	0	652	806	806	653	652	652	114750000	performance	665	27	27	26	27	25	23	100	26
1592952350585968891	1	652	806	806	652	652	652	114750000	performance	665	27	27	26	27	25	23	100	26
1592952350673569354 	0	652	806	806	652	653	652	114750000	performance	665	27	27	26	27	25	23	100	26
1592952352285340245	1	652	806	806	652	652	652	114750000	performance	665	27	27	26	27	25	23	100	26
1592952352374403752 	0	652	806	806	651	651	652	114750000	performance	665	27	27	26	27	25	23	100	26
1592952353995522704	1	652	806	806	652	652	652	114750000	performance	665	27	27	26	27	25	23	100	26
1592952354139881550 	0	652	806	806	653	652	652	114750000	performance	665	27	27	26	27	25	23	100	26
1592952355816174912	1	652	806	806	652	652	652	114750000	performance	665	27	27	26	27	25	23	100	26
1592952355989577239 	0	652	806	805	652	652	652	114750000	performance	665	27	27	26	27	25	23	100	26
1592952357696328200	1	652	806	806	652	652	652	114750000	performance	665	27	27	26	27	25	23	100	26
1592952357787265568 	0	652	806	807	652	652	652	114750000	performance	665	27	27	25	27	25	23	100	26
