TimeStamp,Total Power,CPU Power,GPU Power
1592953545518015,3.695,0.914,0.152
1592953546019362,4.038,1.295,0.152
1592953546520658,4.228,1.524,0.152
1592953547025847,4.19,1.6,0.152
1592953547527617,4.266,1.6,0.152
1592953548029343,4.381,1.6,0.152
1592953548530828,4.304,1.6,0.152
1592953549032511,4.228,1.6,0.152
