TimeStamp,Total Power,CPU Power,GPU Power
1592835488330232,1.563,0.534,0.152
1592835488833213,1.639,0.61,0.152
1592835489335833,1.677,0.686,0.152
1592835489838513,1.677,0.686,0.152
1592835490341153,1.715,0.686,0.152
1592835490843790,1.753,0.686,0.152
1592835491346654,1.677,0.686,0.152
1592835491849268,1.677,0.686,0.152
1592835492351740,1.677,0.686,0.152
1592835492854391,1.677,0.686,0.152
1592835493356992,1.677,0.686,0.152
1592835493859580,1.677,0.686,0.152
1592835494362302,1.677,0.686,0.152
1592835494865049,1.677,0.686,0.152
1592835495367542,1.677,0.686,0.152
1592835495870032,1.792,0.686,0.152
1592835496372600,1.715,0.686,0.152
1592835496875110,1.715,0.686,0.152
1592835497377940,1.715,0.686,0.152
1592835497880841,1.715,0.686,0.152
1592835498383388,1.715,0.686,0.152
1592835498886466,1.715,0.686,0.152
1592835499389083,1.677,0.686,0.152
1592835499891640,1.677,0.686,0.152
1592835500394211,1.677,0.686,0.152
1592835500897647,1.677,0.686,0.152
1592835501400763,1.677,0.686,0.152
1592835501903672,1.677,0.686,0.152
1592835502406307,1.677,0.686,0.152
1592835502909451,1.715,0.686,0.152
1592835503411975,1.677,0.686,0.152
1592835503914542,1.677,0.686,0.152
1592835504417143,1.677,0.686,0.152
1592835504919824,1.677,0.686,0.152
1592835505422479,1.677,0.686,0.152
1592835505927219,1.677,0.686,0.152
1592835506429854,1.677,0.686,0.152
1592835506932591,1.715,0.686,0.152
1592835507435454,1.715,0.686,0.152
1592835507938134,1.677,0.686,0.152
1592835508440559,1.677,0.686,0.152
1592835508943088,1.677,0.686,0.152
1592835509445925,1.677,0.686,0.152
1592835509948803,1.677,0.686,0.152
1592835510451332,1.715,0.686,0.152
1592835510956157,1.715,0.686,0.152
1592835511458965,1.677,0.686,0.152
1592835511961682,1.677,0.686,0.152
1592835512464091,1.677,0.686,0.152
1592835512966532,1.677,0.686,0.152
1592835513469185,1.677,0.686,0.152
1592835513971815,1.677,0.686,0.152
1592835514474642,1.715,0.686,0.152
1592835514981544,1.677,0.686,0.152
1592835515484263,1.677,0.686,0.152
1592835515989484,1.677,0.686,0.152
1592835516491943,1.677,0.686,0.152
1592835516994585,1.677,0.686,0.152
1592835517497046,1.677,0.686,0.152
1592835517999734,1.677,0.686,0.152
1592835518502404,1.677,0.686,0.152
1592835519005186,1.677,0.686,0.152
1592835519507841,1.715,0.686,0.152
1592835520010444,1.677,0.686,0.152
1592835520513013,1.677,0.686,0.152
1592835521017905,1.677,0.686,0.152
1592835521520906,1.677,0.686,0.152
1592835522023631,1.677,0.686,0.152
1592835522526468,1.715,0.686,0.152
1592835523029297,1.677,0.686,0.152
1592835523532032,1.677,0.686,0.152
1592835524034818,1.715,0.686,0.152
1592835524537828,1.677,0.686,0.152
1592835525040257,1.677,0.686,0.152
1592835525542854,1.677,0.686,0.152
1592835526047303,1.677,0.686,0.152
1592835526550352,1.677,0.686,0.152
1592835527053191,1.715,0.686,0.152
1592835527556564,1.677,0.686,0.152
1592835528059159,1.715,0.686,0.152
1592835528561835,1.715,0.686,0.152
1592835529064256,1.677,0.686,0.152
1592835529566658,1.677,0.686,0.152
1592835530069313,1.677,0.686,0.152
1592835530571935,1.677,0.686,0.152
1592835531076796,1.715,0.686,0.152
1592835531579327,1.677,0.686,0.152
1592835532082645,1.715,0.686,0.152
1592835532585345,1.677,0.686,0.152
1592835533087734,1.677,0.686,0.152
1592835533590111,1.639,0.686,0.152
1592835534092852,1.677,0.686,0.152
1592835534595441,1.715,0.686,0.152
1592835535098156,1.715,0.686,0.152
1592835535600790,1.677,0.686,0.152
1592835536105400,1.715,0.686,0.152
1592835536608397,1.715,0.686,0.152
1592835537110798,1.677,0.686,0.152
1592835537613190,1.677,0.686,0.152
1592835538115576,1.677,0.686,0.152
1592835538618215,1.677,0.686,0.152
1592835539120945,1.715,0.686,0.152
1592835539623696,1.715,0.686,0.152
1592835540126364,1.715,0.686,0.152
1592835540629316,1.715,0.686,0.152
1592835541134044,1.715,0.686,0.152
1592835541636537,1.677,0.686,0.152
1592835542138808,1.677,0.686,0.152
1592835542641507,1.677,0.686,0.152
1592835543144117,1.677,0.686,0.152
1592835543646807,1.715,0.686,0.152
1592835544149613,1.677,0.686,0.152
1592835544652508,1.677,0.686,0.152
1592835545155215,1.677,0.686,0.152
1592835545658110,1.677,0.686,0.152
1592835546162695,1.677,0.686,0.152
1592835546666158,1.677,0.686,0.152
1592835547168760,1.715,0.686,0.152
1592835547671439,1.715,0.686,0.152
1592835548174143,1.677,0.686,0.152
