TimeStamp,A7 Voltage(V),A7 Current(A),A7 Power(W),A15 Voltage(V),A15 Current(A),A15 Power(W),GPU Power(W)
1606671743782096556,0.900000,0.060000,0.054000,1.200000,3.626000,4.369000,0.066000
1606671744661411114,0.900000,0.059000,0.053000,1.000000,2.153000,2.282000,0.068000
1606671745358047061,0.900000,0.052000,0.047000,1.000000,1.920000,2.031000,0.068000
1606671745962554701,0.900000,0.135000,0.125000,1.000000,1.609000,1.700000,0.068000
1606671746562140629,0.900000,0.177000,0.167000,1.000000,1.929000,2.040000,0.069000
1606671747713157182,0.900000,0.177000,0.167000,1.000000,1.930000,2.041000,0.069000
1606671748835783497,0.900000,0.027000,0.024000,1.100000,3.181000,3.737000,0.069000
1606671750010662325,0.900000,0.039000,0.035000,1.200000,3.715000,4.480000,0.072000
1606671751180117772,0.900000,0.040000,0.036000,1.200000,3.730000,4.498000,0.073000
1606671752318970020,0.900000,0.028000,0.025000,0.900000,0.654000,0.629000,0.073000
1606671753482511044,0.900000,0.030000,0.027000,0.900000,0.595000,0.572000,0.071000
1606671754648019861,0.900000,0.026000,0.023000,0.900000,0.558000,0.537000,0.069000
1606671755779831642,0.900000,0.027000,0.024000,1.000000,1.293000,1.347000,0.069000
1606671756756050550,0.900000,0.033000,0.030000,1.000000,1.497000,1.561000,0.069000
1606671757541452715,0.900000,0.054000,0.049000,1.000000,1.903000,2.011000,0.069000
1606671758324851044,0.900000,0.057000,0.051000,1.000000,2.094000,2.215000,0.069000
1606671759040609218,0.900000,0.054000,0.049000,1.000000,1.928000,2.039000,0.069000
1606671759745956589,0.900000,0.094000,0.085000,1.100000,2.370000,2.661000,0.070000
1606671760467789519,0.900000,0.094000,0.085000,1.100000,2.376000,2.668000,0.071000
1606671761071661074,0.900000,0.147000,0.137000,1.100000,2.823000,3.232000,0.071000
1606671761660617280,0.900000,0.178000,0.168000,1.100000,3.331000,3.883000,0.072000
1606671762294649576,0.900000,0.179000,0.169000,1.100000,3.371000,3.930000,0.073000
1606671762986317432,0.900000,0.071000,0.066000,1.100000,2.659000,2.978000,0.074000
1606671763699578186,0.900000,0.072000,0.065000,1.000000,2.387000,2.592000,0.073000
1606671764391748501,0.900000,0.072000,0.065000,1.000000,2.078000,2.254000,0.073000
1606671765012316448,0.900000,0.144000,0.130000,1.100000,3.353000,3.909000,0.073000
1606671765624327595,0.900000,0.144000,0.130000,1.100000,3.349000,3.904000,0.074000
1606671766291510633,0.900000,0.145000,0.131000,1.100000,3.380000,3.941000,0.075000
1606671766941554320,0.900000,0.126000,0.114000,1.100000,3.382000,3.943000,0.075000
1606671767601286809,0.900000,0.121000,0.109000,1.100000,3.406000,3.971000,0.075000
1606671768258820170,0.900000,0.129000,0.117000,1.100000,3.398000,3.962000,0.075000
1606671768916702448,0.900000,0.117000,0.106000,1.100000,2.662000,3.021000,0.075000
1606671769565227091,0.900000,0.116000,0.105000,1.100000,2.404000,2.699000,0.075000
1606671770220494158,0.900000,0.117000,0.106000,1.100000,2.426000,2.724000,0.075000
1606671770886389570,0.900000,0.143000,0.129000,1.100000,3.393000,3.956000,0.075000
1606671771579733802,0.900000,0.117000,0.106000,1.100000,3.403000,3.967000,0.075000
1606671772289780426,0.900000,0.114000,0.103000,1.100000,3.342000,3.896000,0.076000
1606671772970034894,0.900000,0.089000,0.080000,1.100000,3.410000,3.976000,0.078000
1606671773720125978,0.900000,0.072000,0.065000,1.100000,3.348000,3.903000,0.077000
1606671774444641076,0.900000,0.104000,0.094000,1.100000,3.413000,3.982000,0.078000
1606671775145346023,0.900000,0.096000,0.087000,1.100000,3.399000,3.966000,0.078000
1606671775879503631,0.900000,0.096000,0.087000,1.100000,3.420000,3.991000,0.078000
1606671776547566419,0.900000,0.099000,0.089000,1.100000,3.422000,3.993000,0.078000
1606671777203930653,0.900000,0.121000,0.109000,1.100000,3.419000,3.986000,0.078000
1606671777851100294,0.900000,0.117000,0.106000,1.100000,3.424000,3.992000,0.078000
1606671778451599261,0.900000,0.136000,0.125000,1.100000,3.409000,3.978000,0.079000
1606671779054018313,0.900000,0.181000,0.171000,1.100000,3.387000,3.952000,0.079000
1606671779651691151,0.900000,0.181000,0.171000,1.100000,3.426000,3.998000,0.079000
1606671780251075741,0.900000,0.181000,0.170000,1.100000,3.427000,3.995000,0.079000
1606671780851650000,0.900000,0.181000,0.171000,1.200000,3.776000,4.553000,0.080000
1606671781445043500,0.900000,0.181000,0.171000,1.200000,3.778000,4.556000,0.080000
1606671782097354688,0.900000,0.181000,0.171000,1.200000,3.809000,4.593000,0.080000
1606671782762867972,0.900000,0.118000,0.107000,1.100000,3.441000,4.015000,0.080000
1606671783418235496,0.900000,0.131000,0.118000,1.100000,3.430000,3.999000,0.080000
1606671784041288903,0.900000,0.134000,0.121000,1.100000,3.434000,4.007000,0.081000
1606671784652989297,0.900000,0.147000,0.133000,1.200000,3.806000,4.590000,0.081000
1606671785286888298,0.900000,0.147000,0.133000,1.200000,3.811000,4.596000,0.081000
1606671785945469784,0.900000,0.141000,0.127000,1.200000,3.800000,4.586000,0.082000
1606671786603501060,0.900000,0.118000,0.107000,1.200000,3.820000,4.606000,0.082000
1606671787242799692,0.900000,0.118000,0.107000,1.200000,3.785000,4.564000,0.082000
1606671787845776910,0.900000,0.183000,0.172000,1.100000,3.530000,4.158000,0.083000
1606671788440087494,0.900000,0.182000,0.171000,1.100000,3.414000,3.980000,0.082000
1606671789037732123,0.900000,0.182000,0.171000,1.100000,3.447000,4.019000,0.082000
1606671789632890958,0.900000,0.181000,0.171000,1.200000,3.803000,4.586000,0.082000
1606671790234331091,0.900000,0.182000,0.171000,1.200000,3.789000,4.569000,0.082000
1606671790850151948,0.900000,0.180000,0.169000,1.200000,3.824000,4.611000,0.083000
1606671791463654802,0.900000,0.148000,0.134000,1.200000,3.802000,4.585000,0.083000
1606671792088970252,0.900000,0.147000,0.133000,1.200000,3.825000,4.616000,0.083000
1606671792687865299,0.900000,0.169000,0.157000,1.200000,3.809000,4.593000,0.083000
1606671793286664470,0.900000,0.183000,0.172000,1.200000,3.805000,4.588000,0.084000
1606671793886630518,0.900000,0.183000,0.172000,1.200000,3.831000,4.620000,0.084000
1606671794489522527,0.900000,0.182000,0.171000,1.200000,3.806000,4.590000,0.084000
1606671795092272995,0.900000,0.183000,0.172000,1.200000,3.788000,4.568000,0.084000
1606671795699947301,0.900000,0.183000,0.172000,1.200000,3.838000,4.632000,0.084000
1606671796330071047,0.900000,0.182000,0.171000,1.200000,3.838000,4.632000,0.085000
1606671796960506168,0.900000,0.183000,0.172000,1.200000,3.776000,4.553000,0.085000
1606671797566985222,0.900000,0.183000,0.172000,1.200000,3.836000,4.630000,0.085000
1606671798162728807,0.900000,0.183000,0.172000,1.200000,3.840000,4.634000,0.085000
1606671798765426024,0.900000,0.183000,0.172000,1.200000,3.810000,4.594000,0.085000
1606671799354136184,0.900000,0.183000,0.172000,1.200000,3.814000,4.603000,0.085000
1606671799952912605,0.900000,0.183000,0.172000,1.200000,3.843000,4.638000,0.085000
1606671800556067531,0.900000,0.183000,0.172000,1.200000,3.808000,4.592000,0.086000
1606671801165430421,0.900000,0.183000,0.172000,1.200000,3.748000,4.523000,0.086000
1606671801759410295,0.900000,0.183000,0.172000,1.200000,3.844000,4.639000,0.086000
1606671802356917132,0.900000,0.183000,0.172000,1.200000,3.805000,4.592000,0.086000
1606671802979965370,0.900000,0.183000,0.172000,1.200000,3.846000,4.642000,0.086000
1606671803589287926,0.900000,0.183000,0.172000,1.200000,3.836000,4.626000,0.086000
1606671804234885813,0.900000,0.183000,0.172000,1.200000,3.826000,4.617000,0.086000
1606671804845381704,0.900000,0.183000,0.172000,1.200000,3.846000,4.642000,0.086000
1606671805437207451,0.900000,0.184000,0.173000,1.200000,3.802000,4.585000,0.086000
1606671806036172038,0.900000,0.183000,0.172000,1.200000,3.816000,4.605000,0.086000
1606671806662282654,0.900000,0.183000,0.172000,1.200000,3.851000,4.648000,0.087000
1606671807261154782,0.900000,0.183000,0.172000,1.200000,3.815000,4.604000,0.086000
1606671807854340572,0.900000,0.184000,0.173000,1.200000,3.802000,4.585000,0.086000
1606671808456431662,0.900000,0.183000,0.172000,1.200000,3.851000,4.648000,0.086000
1606671809070033515,0.900000,0.183000,0.172000,1.200000,3.840000,4.634000,0.087000
1606671809665972557,0.900000,0.183000,0.172000,1.200000,3.782000,4.564000,0.087000
1606671810262035599,0.900000,0.183000,0.172000,1.200000,3.853000,4.650000,0.087000
1606671810887923797,0.900000,0.183000,0.172000,1.200000,3.857000,4.655000,0.087000
1606671811527360760,0.900000,0.184000,0.173000,1.200000,3.786000,4.569000,0.087000
1606671812133289979,0.900000,0.184000,0.173000,1.200000,3.842000,4.637000,0.087000
1606671812739041656,0.900000,0.183000,0.172000,1.200000,3.858000,4.656000,0.087000
1606671813388530379,0.900000,0.184000,0.173000,1.200000,3.812000,4.601000,0.087000
1606671813999493187,0.900000,0.184000,0.173000,1.200000,3.845000,4.640000,0.087000
1606671814607120657,0.900000,0.184000,0.173000,1.200000,3.860000,4.659000,0.087000
1606671815215747545,0.900000,0.184000,0.173000,1.200000,3.854000,4.651000,0.087000
1606671815818743928,0.900000,0.184000,0.173000,1.200000,3.822000,4.613000,0.088000
1606671816449840006,0.900000,0.184000,0.173000,1.200000,3.858000,4.656000,0.088000
1606671817084976172,0.900000,0.184000,0.173000,1.200000,3.859000,4.657000,0.087000
1606671817664566946,0.900000,0.184000,0.173000,1.200000,3.776000,4.557000,0.088000
1606671818278253840,0.900000,0.183000,0.172000,1.200000,3.860000,4.659000,0.088000
1606671818862856911,0.900000,0.184000,0.173000,1.200000,3.860000,4.659000,0.088000
1606671819437351388,0.900000,0.184000,0.173000,1.200000,3.827000,4.619000,0.088000
1606671820032701845,0.900000,0.184000,0.173000,1.200000,3.863000,4.662000,0.088000
1606671820609103782,0.900000,0.184000,0.173000,1.200000,3.853000,4.650000,0.088000
1606671821197560816,0.900000,0.184000,0.173000,1.200000,3.830000,4.622000,0.088000
1606671821790119145,0.900000,0.184000,0.173000,1.200000,3.854000,4.651000,0.088000
1606671822359782700,0.900000,0.184000,0.173000,1.200000,3.860000,4.659000,0.088000
1606671822963112707,0.900000,0.184000,0.173000,1.200000,3.854000,4.651000,0.089000
1606671823555080285,0.900000,0.184000,0.173000,1.200000,3.831000,4.624000,0.089000
1606671824127883093,0.900000,0.184000,0.173000,1.200000,3.864000,4.663000,0.089000
1606671824735232688,0.900000,0.184000,0.173000,1.200000,3.866000,4.666000,0.089000
1606671825319817925,0.900000,0.184000,0.173000,1.200000,3.831000,4.620000,0.089000
1606671825891097731,0.900000,0.184000,0.173000,1.200000,3.837000,4.631000,0.089000
1606671826475678927,0.900000,0.184000,0.173000,1.200000,3.868000,4.668000,0.089000
1606671827066933462,0.900000,0.184000,0.173000,1.200000,3.868000,4.668000,0.089000
1606671827642430731,0.900000,0.184000,0.173000,1.200000,3.817000,4.607000,0.089000
1606671828220034503,0.900000,0.184000,0.173000,1.200000,3.866000,4.666000,0.089000
1606671828791927393,0.900000,0.184000,0.173000,1.200000,3.857000,4.655000,0.089000
1606671829366046244,0.900000,0.184000,0.173000,1.200000,3.837000,4.631000,0.089000
1606671829936917383,0.900000,0.185000,0.174000,1.200000,3.846000,4.642000,0.089000
1606671830532676339,0.900000,0.184000,0.173000,1.200000,3.871000,4.672000,0.089000
1606671831113195239,0.900000,0.185000,0.174000,1.200000,3.852000,4.649000,0.089000
1606671831687086131,0.900000,0.185000,0.174000,1.200000,3.845000,4.640000,0.089000
1606671832293901640,0.900000,0.185000,0.174000,1.200000,3.870000,4.671000,0.089000
1606671832861529067,0.900000,0.185000,0.174000,1.200000,3.852000,4.649000,0.090000
1606671833434528625,0.900000,0.185000,0.174000,1.200000,3.871000,4.672000,0.090000
1606671834016663526,0.900000,0.185000,0.174000,1.200000,3.840000,4.634000,0.090000
1606671834586619538,0.900000,0.181000,0.171000,1.200000,3.692000,4.452000,0.089000
1606671835163631850,0.900000,0.184000,0.173000,1.200000,3.874000,4.675000,0.090000
1606671835747638586,0.900000,0.184000,0.173000,1.200000,3.870000,4.671000,0.089000
1606671836327571067,0.900000,0.185000,0.174000,1.200000,3.820000,4.610000,0.090000
1606671836899148998,0.900000,0.185000,0.174000,1.200000,3.873000,4.674000,0.090000
1606671837478672562,0.900000,0.184000,0.173000,1.200000,3.873000,4.674000,0.090000
1606671838051458744,0.900000,0.185000,0.174000,1.200000,3.827000,4.619000,0.090000
1606671838624974343,0.900000,0.185000,0.174000,1.200000,3.834000,4.627000,0.090000
1606671839204808283,0.900000,0.185000,0.174000,1.200000,3.868000,4.668000,0.089000
1606671839797090818,0.900000,0.184000,0.173000,1.200000,3.874000,4.675000,0.090000
1606671840375142505,0.900000,0.184000,0.173000,1.200000,3.864000,4.663000,0.090000
1606671840948203187,0.900000,0.185000,0.174000,1.200000,3.831000,4.624000,0.090000
1606671841521221286,0.900000,0.185000,0.174000,1.200000,3.863000,4.662000,0.090000
1606671842092362549,0.900000,0.185000,0.174000,1.200000,3.871000,4.672000,0.090000
1606671842663065104,0.900000,0.185000,0.174000,1.200000,3.874000,4.675000,0.090000
1606671843257765892,0.900000,0.185000,0.174000,1.200000,3.846000,4.642000,0.091000
1606671843831055157,0.900000,0.184000,0.173000,1.200000,3.845000,4.640000,0.090000
1606671844403880755,0.900000,0.184000,0.173000,1.200000,3.876000,4.678000,0.090000
1606671844982201901,0.900000,0.185000,0.174000,1.200000,3.863000,4.662000,0.091000
1606671845552486246,0.900000,0.185000,0.174000,1.200000,3.810000,4.598000,0.091000
1606671846121597924,0.900000,0.184000,0.173000,1.200000,3.870000,4.667000,0.090000
1606671846695472773,0.900000,0.184000,0.173000,1.200000,3.873000,4.674000,0.090000
1606671847295314066,0.900000,0.185000,0.174000,1.200000,3.841000,4.636000,0.091000
1606671847868902164,0.900000,0.185000,0.174000,1.200000,3.851000,4.648000,0.091000
1606671848447207310,0.900000,0.185000,0.174000,1.200000,3.874000,4.675000,0.091000
1606671849015346736,0.900000,0.185000,0.174000,1.200000,3.846000,4.642000,0.090000
1606671849591079545,0.900000,0.185000,0.174000,1.200000,3.868000,4.668000,0.091000
1606671850164578102,0.900000,0.185000,0.174000,1.200000,3.850000,4.646000,0.091000
1606671850750487338,0.900000,0.185000,0.174000,1.200000,3.856000,4.654000,0.091000
1606671851331564653,0.900000,0.184000,0.173000,1.200000,3.875000,4.677000,0.091000
1606671851910407548,0.900000,0.185000,0.174000,1.200000,3.843000,4.638000,0.091000
1606671852487797192,0.900000,0.185000,0.174000,1.200000,3.813000,4.602000,0.091000
1606671853059948039,0.900000,0.185000,0.174000,1.200000,3.877000,4.679000,0.091000
1606671853637278808,0.900000,0.185000,0.174000,1.200000,3.879000,4.681000,0.091000
1606671854228543466,0.900000,0.185000,0.174000,1.200000,3.810000,4.598000,0.091000
1606671854817744789,0.900000,0.185000,0.174000,1.200000,3.870000,4.671000,0.091000
1606671855389815385,0.900000,0.185000,0.174000,1.200000,3.879000,4.681000,0.091000
1606671855966732070,0.900000,0.185000,0.174000,1.200000,3.861000,4.660000,0.091000
1606671856536648664,0.900000,0.185000,0.174000,1.200000,3.836000,4.630000,0.091000
1606671857112410973,0.900000,0.185000,0.174000,1.200000,3.878000,4.680000,0.091000
1606671857682666734,0.900000,0.185000,0.174000,1.200000,3.847000,4.643000,0.091000
1606671858289710200,0.900000,0.185000,0.174000,1.200000,3.877000,4.679000,0.091000
1606671858863855632,0.900000,0.185000,0.174000,1.200000,3.844000,4.639000,0.091000
1606671859438172147,0.900000,0.185000,0.174000,1.200000,3.833000,4.626000,0.091000
1606671860013413163,0.900000,0.185000,0.174000,1.200000,3.880000,4.683000,0.091000
1606671860586568218,0.900000,0.185000,0.174000,1.200000,3.860000,4.659000,0.091000
1606671861156640187,0.900000,0.185000,0.174000,1.200000,3.834000,4.627000,0.091000
1606671861694400289,0.900000,0.185000,0.174000,1.200000,3.880000,4.683000,0.091000
