TimeStamp,Total Power,CPU Power,GPU Power
1592835608710942,4.19,1.753,0.152
1592835609212258,3.43,0.99,0.152
1592835609713535,3.353,0.991,0.152
1592835610214797,3.353,0.991,0.152
1592835610716039,3.353,0.915,0.152
1592835611217253,3.353,0.915,0.152
1592835611720870,3.353,0.915,0.152
1592835612222124,3.315,0.915,0.152
1592835612723368,3.353,0.915,0.152
1592835613224585,3.353,0.915,0.152
1592835613725771,3.353,0.991,0.152
1592835614227478,3.353,0.915,0.152
1592835614728719,3.315,0.915,0.152
1592835615229939,3.353,0.915,0.152
1592835615731177,3.353,0.915,0.152
1592835616232430,3.315,0.915,0.152
1592835616735636,3.315,0.915,0.152
1592835617236856,3.353,0.915,0.152
1592835617738081,3.353,0.915,0.152
1592835618239325,3.315,0.915,0.152
1592835618740546,3.353,0.915,0.152
1592835619241808,3.353,0.915,0.152
1592835619743068,3.353,0.915,0.152
1592835620244314,3.353,0.915,0.152
1592835620745527,3.353,0.991,0.152
1592835621246767,3.353,0.915,0.152
1592835621750011,3.353,0.915,0.152
1592835622251224,3.315,0.915,0.152
1592835622752424,3.315,0.991,0.152
1592835623253661,3.353,0.915,0.152
1592835623754901,3.315,0.914,0.152
1592835624256116,3.315,0.915,0.152
1592835624757379,3.353,0.914,0.152
1592835625258668,3.353,0.915,0.152
1592835625759906,3.353,0.915,0.152
1592835626261120,3.315,0.991,0.152
1592835626764260,3.353,0.915,0.152
1592835627265521,3.353,0.915,0.152
1592835627766744,3.315,0.915,0.152
1592835628267986,3.353,0.914,0.152
1592835628769323,3.353,0.915,0.152
1592835629270567,3.315,0.915,0.152
1592835629771778,3.353,0.99,0.152
1592835630272999,3.353,0.915,0.152
1592835630774291,3.353,0.915,0.152
1592835631275521,3.353,0.915,0.152
1592835631778711,3.353,0.915,0.152
1592835632279950,3.353,0.915,0.152
1592835632781188,3.353,0.915,0.152
1592835633282401,3.353,0.914,0.152
1592835633783598,3.315,0.914,0.152
1592835634285250,3.353,0.914,0.152
1592835634786496,3.315,0.915,0.152
1592835635287712,3.315,0.915,0.152
1592835635788971,3.353,0.915,0.152
1592835636290232,3.353,0.914,0.152
1592835636791459,3.353,0.915,0.152
1592835637292678,3.353,0.914,0.152
1592835637793989,3.353,0.914,0.152
1592835638295227,3.315,0.915,0.152
1592835638796443,3.315,0.914,0.152
1592835639297636,3.315,0.99,0.152
1592835639798895,3.353,0.915,0.152
1592835640300143,3.353,0.915,0.152
1592835640801359,3.353,0.915,0.152
1592835641302615,3.353,0.915,0.152
1592835641806041,3.353,0.915,0.152
1592835642307282,3.353,0.914,0.152
1592835642808520,3.353,0.915,0.152
1592835643309794,3.353,0.991,0.152
1592835643811050,3.353,0.915,0.152
1592835644312275,3.315,0.915,0.152
1592835644813583,3.315,0.914,0.152
1592835645314860,3.315,0.915,0.152
1592835645816101,3.315,0.915,0.152
1592835646317352,3.315,0.915,0.152
1592835646820567,3.353,0.991,0.152
1592835647322220,3.353,0.915,0.152
1592835647823473,3.353,0.915,0.152
1592835648324707,3.353,0.915,0.152
1592835648825914,3.353,0.99,0.152
1592835649327208,3.353,0.915,0.152
1592835649828457,3.315,0.915,0.152
1592835650329675,3.353,0.915,0.152
1592835650830856,3.315,0.915,0.152
1592835651332074,3.315,0.915,0.152
1592835651835221,3.315,0.915,0.152
1592835652336418,3.315,0.991,0.152
1592835652838296,3.315,0.915,0.152
1592835653339551,3.315,0.915,0.152
1592835653840799,3.315,0.915,0.152
1592835654342019,3.315,0.915,0.152
1592835654843235,3.315,0.915,0.152
1592835655344494,3.353,0.915,0.152
1592835655845719,3.353,0.915,0.152
1592835656346910,3.353,0.991,0.152
1592835656850401,3.353,0.915,0.152
1592835657351654,3.353,0.915,0.152
1592835657852886,3.353,0.915,0.152
1592835658354075,3.315,0.991,0.152
1592835658855851,3.353,0.915,0.152
1592835659357155,3.315,0.915,0.152
1592835659858379,3.353,0.991,0.152
1592835660360822,3.353,0.99,0.152
1592835660862052,3.391,0.914,0.152
1592835661363298,3.353,0.914,0.152
1592835661866465,3.353,0.914,0.152
1592835662367729,3.353,0.915,0.152
1592835662868999,3.353,0.915,0.152
1592835663370236,3.353,0.915,0.152
1592835663871446,3.353,0.991,0.152
1592835664373253,3.353,0.915,0.152
1592835664874498,3.353,0.915,0.152
1592835665375718,3.353,0.915,0.152
1592835665876921,3.315,0.991,0.152
1592835666378188,3.353,0.915,0.152
1592835666881697,3.353,0.915,0.152
1592835667382962,3.353,0.914,0.152
1592835667884185,3.315,0.99,0.152
1592835668385460,3.353,0.914,0.152
1592835668886707,3.315,0.915,0.152
