TimeStamp,Total Power,CPU Power,GPU Power
1593986558392913,4.607,1.752,0.152
1593986558894310,3.885,0.914,0.152
1593986559395639,3.542,0.609,0.152
1593986559897011,4.038,1.219,0.152
1593986560398417,4.495,1.828,0.152
1593986560899832,4.533,1.904,0.152
1593986561401121,4.533,1.904,0.152
1593986561902405,4.645,2.057,0.152
1593986562403784,4.607,2.057,0.152
1593986562905086,4.495,1.904,0.152
1593986563406365,4.571,1.98,0.152
1593986563907690,4.645,1.98,0.152
1593986564408992,4.495,1.904,0.152
1593986564910360,4.495,1.904,0.152
1593986565411782,4.607,1.98,0.152
1593986565913148,4.607,1.98,0.152
1593986566414499,4.533,1.904,0.152
1593986566918288,4.495,1.904,0.152
1593986567419714,4.607,1.98,0.152
1593986567921006,4.645,1.98,0.152
1593986568422306,4.683,2.057,0.152
1593986568923669,4.721,2.133,0.152
1593986569424977,4.721,2.133,0.152
1593986569926286,4.607,2.057,0.152
1593986570427571,4.645,2.057,0.152
1593986570931262,4.76,2.133,0.152
1593986571432600,4.645,2.057,0.152
1593986571933907,4.683,2.057,0.152
1593986572435184,4.798,2.133,0.152
1593986572936537,4.76,2.133,0.152
1593986573437820,4.683,2.133,0.152
1593986573939110,4.683,2.133,0.152
1593986574440398,4.721,2.133,0.152
1593986574941751,4.645,2.057,0.152
1593986575443042,4.683,2.057,0.152
1593986575946271,4.836,2.209,0.152
1593986576447555,4.76,2.133,0.152
1593986576948865,4.721,2.133,0.152
1593986577450140,4.721,2.133,0.152
1593986577951439,4.721,2.057,0.152
1593986578452714,4.721,2.057,0.152
1593986578954435,4.683,2.057,0.152
1593986579455831,4.721,2.057,0.152
1593986579957134,4.721,2.057,0.152
1593986580458515,4.645,2.057,0.152
1593986580962157,4.683,2.133,0.152
1593986581463449,4.76,2.133,0.152
1593986581964723,4.721,2.133,0.152
1593986582465991,4.683,2.133,0.152
1593986582967333,4.721,2.057,0.152
1593986583474944,4.645,2.057,0.152
1593986583976270,4.607,1.98,0.152
1593986584477554,4.721,2.133,0.152
1593986584978834,4.607,2.057,0.152
1593986585480119,4.683,2.133,0.152
1593986585983514,4.607,1.98,0.152
1593986586484813,4.645,2.057,0.152
1593986586986124,4.798,2.209,0.152
1593986587487415,4.683,2.057,0.152
1593986587993518,4.798,2.133,0.152
1593986588494792,4.798,2.209,0.152
1593986588996160,4.721,2.133,0.152
1593986589497462,4.76,2.133,0.152
1593986589998788,4.721,2.133,0.152
1593986590500116,4.721,2.057,0.152
1593986591004459,4.721,2.133,0.152
1593986591505865,4.721,2.133,0.152
1593986592007166,4.683,2.133,0.152
1593986592508493,4.645,2.057,0.152
1593986593009772,4.721,2.057,0.152
1593986593511038,4.721,2.133,0.152
1593986594012375,4.607,1.98,0.152
1593986594513644,4.607,2.057,0.152
1593986595014927,4.798,2.133,0.152
1593986595516315,4.683,2.057,0.152
1593986596019583,4.683,2.057,0.152
1593986596520929,4.683,2.057,0.152
1593986597022230,4.836,2.209,0.152
1593986597523576,4.721,2.133,0.152
1593986598024866,4.721,2.057,0.152
1593986598526158,4.721,2.133,0.152
1593986599027441,4.645,2.057,0.152
1593986599528724,4.645,2.057,0.152
1593986600029987,4.607,1.98,0.152
1593986600531448,4.645,2.057,0.152
1593986601033475,4.683,2.057,0.152
1593986601535555,4.645,2.057,0.152
1593986602043158,4.645,2.057,0.152
1593986602544483,4.645,2.057,0.152
1593986603045784,4.683,2.057,0.152
1593986603547076,4.76,2.133,0.152
1593986604048372,4.76,2.133,0.152
1593986604549651,4.645,2.057,0.152
1593986605050939,4.721,2.133,0.152
1593986605552290,4.721,2.057,0.152
1593986606055651,4.645,1.98,0.152
1593986606556957,4.645,1.98,0.152
1593986607058294,4.721,2.133,0.152
1593986607559592,4.721,2.133,0.152
1593986608060904,4.683,2.057,0.152
1593986608562175,4.683,2.057,0.152
1593986609063473,4.721,2.133,0.152
1593986609564839,4.683,2.133,0.152
1593986610066108,4.721,2.133,0.152
1593986610567393,4.798,2.133,0.152
1593986611070635,4.721,2.133,0.152
1593986611571930,4.645,2.057,0.152
1593986612073261,4.645,2.057,0.152
1593986612574548,4.721,2.133,0.152
1593986613075835,4.683,2.057,0.152
1593986613577121,4.683,2.057,0.152
1593986614078409,4.798,2.133,0.152
1593986614579761,4.721,2.133,0.152
1593986615081080,4.645,2.057,0.152
1593986615582397,4.76,2.133,0.152
1593986616085763,4.721,2.133,0.152
1593986616587122,4.645,2.057,0.152
1593986617088482,4.76,2.133,0.152
1593986617589770,4.798,2.133,0.152
1593986618091065,4.721,2.133,0.152
1593986618592337,4.76,2.133,0.152
1593986619093634,4.798,2.133,0.152
1593986619594923,4.721,2.133,0.152
1593986620096286,4.721,2.133,0.152
1593986620597577,4.683,2.057,0.152
1593986621100802,4.912,2.133,0.152
1593986621602083,5.064,2.133,0.152
1593986622103387,5.102,2.132,0.152
1593986622604735,5.178,2.208,0.152
1593986623106017,4.912,2.209,0.152
1593986623607325,4.76,2.133,0.152
1593986624108671,4.721,2.133,0.152
1593986624609970,4.76,2.133,0.152
1593986625111262,4.607,2.057,0.152
1593986625612544,4.645,2.057,0.152
1593986626115932,4.645,1.98,0.152
1593986626617207,4.683,2.057,0.152
1593986627118481,4.607,1.98,0.152
1593986627619780,4.721,2.057,0.152
1593986628121086,4.836,2.209,0.152
1593986628622471,4.683,2.057,0.152
1593986629123777,4.683,2.133,0.152
1593986629625070,4.683,2.133,0.152
1593986630126372,4.645,2.057,0.152
1593986630627691,4.645,2.057,0.152
1593986631131095,4.645,2.057,0.152
1593986631632396,4.569,1.98,0.152
1593986632133694,4.645,2.057,0.152
1593986632635000,4.721,2.057,0.152
1593986633136288,4.798,2.133,0.152
1593986633637548,4.645,2.057,0.152
1593986634138824,4.569,1.98,0.152
1593986634640109,4.607,1.98,0.152
1593986635141450,4.721,2.057,0.152
1593986635642755,4.607,2.057,0.152
1593986636146025,4.645,2.057,0.152
1593986636647334,4.721,2.133,0.152
1593986637148623,4.607,2.057,0.152
1593986637649886,4.76,2.133,0.152
1593986638151184,4.531,1.904,0.152
1593986638658960,4.607,1.98,0.152
1593986639160359,4.645,2.057,0.152
1593986639661750,4.419,1.828,0.152
1593986640163075,4.721,2.057,0.152
1593986640664952,4.683,2.057,0.152
1593986641168375,4.683,2.057,0.152
1593986641669663,4.76,2.209,0.152
1593986642170958,4.76,2.133,0.152
1593986642672355,4.607,1.98,0.152
1593986643173639,4.607,1.98,0.152
1593986643674932,4.798,2.133,0.152
1593986644176294,4.683,2.133,0.152
1593986644677592,4.721,2.133,0.152
1593986645178911,4.645,2.057,0.152
1593986645680264,4.645,1.98,0.152
1593986646183533,4.607,1.98,0.152
1593986646684835,4.569,1.98,0.152
1593986647186121,4.836,2.209,0.152
1593986647687578,4.721,2.133,0.152
1593986648189013,4.683,2.057,0.152
1593986648690403,4.683,2.057,0.152
1593986649191735,4.798,2.209,0.152
1593986649693059,4.683,2.133,0.152
1593986650194344,4.683,2.133,0.152
1593986650695752,4.683,2.057,0.152
1593986651197041,4.683,2.057,0.152
1593986651698863,4.76,2.133,0.152
1593986652200175,4.721,2.057,0.152
1593986652701460,4.721,2.057,0.152
1593986653202759,4.645,2.057,0.152
1593986653704080,4.76,2.133,0.152
1593986654205380,4.721,2.133,0.152
1593986654706726,4.76,2.133,0.152
1593986655208015,4.721,2.133,0.152
1593986655709348,4.76,2.133,0.152
1593986656210642,4.683,2.057,0.152
1593986656711945,4.721,2.133,0.152
1593986657213220,4.683,2.057,0.152
1593986657714509,4.683,2.057,0.152
1593986658215805,4.645,2.057,0.152
1593986658717078,4.607,2.057,0.152
1593986659218458,4.721,2.133,0.152
1593986659719825,4.721,2.057,0.152
1593986660221106,4.721,2.057,0.152
1593986660722376,4.683,2.133,0.152
1593986661225618,4.721,2.133,0.152
1593986661726917,4.645,2.057,0.152
1593986662228205,4.683,2.057,0.152
1593986662729500,4.836,2.209,0.152
1593986663230788,4.721,2.057,0.152
1593986663732107,4.683,2.057,0.152
1593986664233414,4.607,2.057,0.152
1593986664734694,4.721,2.133,0.152
1593986665236000,4.607,1.98,0.152
1593986665737302,4.683,2.057,0.152
1593986666238590,4.836,2.209,0.152
1593986666739870,4.721,2.133,0.152
1593986667241153,4.721,2.133,0.152
1593986667743090,4.721,2.057,0.152
1593986668244382,4.76,2.133,0.152
1593986668745660,4.607,1.98,0.152
1593986669246960,4.607,1.98,0.152
1593986669748261,4.683,2.057,0.152
1593986670249573,4.683,2.057,0.152
1593986670750848,4.645,2.057,0.152
1593986671252131,4.76,2.133,0.152
1593986671753429,4.76,2.133,0.152
1593986672254723,4.683,2.057,0.152
1593986672756065,4.645,2.057,0.152
1593986673257359,4.76,2.133,0.152
1593986673758655,4.645,2.057,0.152
1593986674259960,4.645,1.98,0.152
1593986674761247,4.721,2.057,0.152
1593986675262524,4.683,2.057,0.152
1593986675763825,4.645,2.057,0.152
1593986676265141,4.645,2.057,0.152
1593986676766469,4.721,2.057,0.152
1593986677267801,4.645,2.057,0.152
1593986677769097,4.645,2.057,0.152
1593986678270995,4.683,2.057,0.152
1593986678772305,4.645,1.98,0.152
1593986679273594,4.607,1.98,0.152
1593986679774922,4.495,1.904,0.152
1593986680276218,4.683,2.057,0.152
1593986680777516,4.683,2.133,0.152
1593986681278844,4.645,2.057,0.152
1593986681780184,4.76,2.133,0.152
1593986682281481,4.683,2.133,0.152
1593986682782785,4.721,2.133,0.152
1593986683284114,4.683,2.057,0.152
1593986683785416,4.798,2.133,0.152
1593986684286714,4.95,2.133,0.152
1593986684788042,5.102,2.057,0.152
1593986685289321,5.255,2.208,0.152
1593986685796653,5.102,2.133,0.152
1593986686297951,4.874,2.133,0.152
1593986686799258,4.683,2.057,0.152
1593986687300556,4.721,2.133,0.152
1593986687801820,4.683,2.057,0.152
1593986688303117,4.721,2.133,0.152
1593986688804423,4.798,2.133,0.152
1593986689305739,4.683,2.133,0.152
1593986689807039,4.683,2.057,0.152
1593986690308337,4.683,2.133,0.152
1593986690809636,4.721,2.133,0.152
1593986691310959,4.721,2.133,0.152
1593986691812290,4.683,2.057,0.152
1593986692313598,4.76,2.133,0.152
1593986692814886,4.645,2.057,0.152
1593986693316172,4.569,1.98,0.152
1593986693817476,4.683,2.057,0.152
1593986694318768,4.607,1.98,0.152
1593986694820108,4.645,2.057,0.152
1593986695321406,4.683,2.057,0.152
1593986695822759,4.76,2.133,0.152
1593986696324099,4.683,2.057,0.152
1593986696827412,4.683,2.057,0.152
1593986697328716,4.76,2.133,0.152
1593986697830008,4.798,2.133,0.152
1593986698331283,4.76,2.133,0.152
1593986698832620,4.683,2.057,0.152
1593986699333897,4.76,2.133,0.152
1593986699835196,4.721,2.057,0.152
1593986700336512,4.533,1.904,0.152
1593986700837864,4.569,1.98,0.152
1593986701339225,4.569,1.98,0.152
1593986701842564,4.495,1.904,0.152
1593986702343927,4.419,1.828,0.152
1593986702845282,4.493,1.904,0.152
1593986703346588,4.381,1.752,0.152
1593986703847892,4.381,1.828,0.152
1593986704349294,4.533,1.904,0.152
1593986704850621,4.607,1.98,0.152
1593986705352019,4.607,2.057,0.152
1593986705853289,4.645,1.98,0.152
1593986706354590,4.798,2.133,0.152
1593986706857872,4.721,2.133,0.152
1593986707359151,4.683,2.057,0.152
1593986707860491,4.721,2.133,0.152
1593986708361796,4.645,2.057,0.152
1593986708863116,4.645,2.057,0.152
1593986709364513,4.683,2.133,0.152
1593986709865800,4.721,2.133,0.152
1593986710367097,4.76,2.133,0.152
1593986710868386,4.721,2.133,0.152
1593986711369662,4.798,2.133,0.152
1593986711873040,4.683,2.133,0.152
1593986712374334,4.569,1.98,0.152
1593986712875651,4.569,1.98,0.152
1593986713377014,4.569,1.98,0.152
1593986713878316,4.683,2.057,0.152
1593986714379702,4.645,2.057,0.152
1593986714880994,4.798,2.209,0.152
1593986715382297,4.683,2.057,0.152
1593986715883622,4.683,2.133,0.152
1593986716384907,4.569,1.98,0.152
1593986716888194,4.645,2.057,0.152
1593986717389475,4.645,2.057,0.152
1593986717890787,4.721,2.133,0.152
1593986718392181,4.836,2.209,0.152
1593986718893499,4.76,2.209,0.152
1593986719394820,4.721,2.133,0.152
1593986719896206,4.76,2.133,0.152
1593986720397490,4.76,2.133,0.152
1593986720898799,4.683,2.057,0.152
1593986721400128,4.721,2.057,0.152
1593986721903351,4.874,2.209,0.152
1593986722404631,4.683,2.133,0.152
1593986722905898,4.683,2.057,0.152
1593986723407215,4.683,2.057,0.152
1593986723908509,4.798,2.133,0.152
1593986724409894,4.645,2.057,0.152
1593986724911173,4.721,2.057,0.152
1593986725412502,4.76,2.133,0.152
1593986725913833,4.645,2.057,0.152
1593986726415770,4.683,2.133,0.152
1593986726919408,4.76,2.133,0.152
1593986727420699,4.683,2.057,0.152
1593986727921994,4.721,2.057,0.152
1593986728423375,4.645,2.057,0.152
1593986728924697,4.76,2.133,0.152
1593986729425984,4.721,2.133,0.152
1593986729927352,4.531,1.904,0.152
1593986730428633,4.569,1.98,0.152
1593986730929934,4.645,2.057,0.152
1593986731431300,4.645,2.057,0.152
1593986731934867,4.607,1.98,0.152
1593986732436162,4.76,2.133,0.152
1593986732937499,4.645,2.057,0.152
1593986733438807,4.645,2.057,0.152
1593986733940139,4.76,2.133,0.152
1593986734441429,4.798,2.209,0.152
1593986734942734,4.683,2.133,0.152
1593986735444108,4.645,2.057,0.152
1593986735945379,4.76,2.133,0.152
1593986736446748,4.683,2.133,0.152
1593986736950065,4.721,2.133,0.152
1593986737451383,4.721,2.057,0.152
1593986737952682,4.683,2.057,0.152
1593986738454017,4.683,2.133,0.152
1593986738955380,4.721,2.133,0.152
1593986739456655,4.798,2.209,0.152
1593986739957985,4.683,2.133,0.152
1593986740459300,4.721,2.057,0.152
1593986740960689,4.683,2.057,0.152
1593986741462116,4.683,2.057,0.152
1593986741965522,4.721,2.057,0.152
1593986742466955,4.76,2.133,0.152
1593986742968305,4.721,2.057,0.152
1593986743469632,4.76,2.133,0.152
1593986743970906,4.76,2.133,0.152
1593986744472208,4.76,2.133,0.152
1593986744973489,4.721,2.057,0.152
1593986745474755,4.721,2.133,0.152
1593986745977729,4.798,2.209,0.152
1593986746479044,4.683,2.057,0.152
1593986746982389,4.683,2.057,0.152
1593986747484007,4.95,2.057,0.152
1593986747985304,5.14,2.132,0.152
1593986748486604,5.14,2.133,0.152
1593986748987916,4.836,2.057,0.152
1593986749489216,4.798,2.133,0.152
1593986749990557,4.683,2.057,0.152
1593986750491839,4.645,2.057,0.152
1593986750993120,4.607,2.057,0.152
1593986751494413,4.721,2.057,0.152
1593986751997727,4.683,2.057,0.152
1593986752499084,4.683,2.133,0.152
1593986753000359,4.76,2.133,0.152
1593986753501642,4.683,2.057,0.152
1593986754002955,4.683,2.057,0.152
1593986754504317,4.645,2.057,0.152
1593986755005673,4.683,2.057,0.152
1593986755507039,4.683,2.057,0.152
1593986756008378,4.721,2.133,0.152
1593986756509670,4.798,2.209,0.152
1593986757015270,4.721,2.133,0.152
1593986757516634,4.645,2.057,0.152
1593986758017916,4.721,2.057,0.152
1593986758519207,4.721,2.057,0.152
1593986759020538,4.645,1.98,0.152
1593986759521996,4.645,2.057,0.152
1593986760023492,4.76,2.133,0.152
1593986760524832,4.607,2.057,0.152
1593986761026194,4.798,2.209,0.152
1593986761527557,4.721,2.133,0.152
1593986762030916,4.76,2.133,0.152
1593986762532237,4.721,2.133,0.152
1593986763033596,4.76,2.133,0.152
1593986763534895,4.836,2.209,0.152
1593986764036203,4.683,2.057,0.152
1593986764537517,4.645,2.057,0.152
1593986765038817,4.683,2.133,0.152
1593986765540122,4.683,2.133,0.152
1593986766041396,4.76,2.133,0.152
1593986766542741,4.683,2.057,0.152
1593986767044357,4.721,2.133,0.152
1593986767545668,4.76,2.133,0.152
1593986768047040,4.683,2.057,0.152
1593986768548379,4.683,2.057,0.152
1593986769049643,4.721,2.057,0.152
1593986769550923,4.683,2.057,0.152
1593986770052249,4.683,2.133,0.152
1593986770553586,4.836,2.209,0.152
1593986771054905,4.721,2.057,0.152
1593986771556203,4.683,2.057,0.152
1593986772059711,4.76,2.133,0.152
1593986772560996,4.76,2.133,0.152
1593986773062300,4.721,2.133,0.152
1593986773563584,4.683,2.133,0.152
1593986774064848,4.76,2.133,0.152
1593986774566144,4.645,2.057,0.152
1593986775067491,4.683,2.057,0.152
1593986775568771,4.76,2.133,0.152
1593986776070145,4.645,2.057,0.152
1593986776571456,4.683,2.057,0.152
1593986777074855,4.645,2.057,0.152
1593986777576193,4.76,2.133,0.152
1593986778077491,4.721,2.057,0.152
1593986778578805,4.76,2.133,0.152
1593986779080136,4.76,2.057,0.152
1593986779581422,4.721,2.133,0.152
1593986780082713,4.76,2.133,0.152
1593986780584019,4.683,2.133,0.152
