TimeStamp,Total Power,CPU Power,GPU Power
1592953142396101,3.734,1.143,0.152
1592953142898085,3.01,0.533,0.152
1592953143399910,3.43,0.914,0.152
1592953143901660,3.923,1.448,0.152
1592953144403642,4.114,1.6,0.152
1592953144905595,4.19,1.676,0.152
1592953145407392,4.19,1.676,0.152
1592953145909113,4.19,1.676,0.152
1592953146410856,4.19,1.6,0.152
1592953146914316,4.228,1.676,0.152
1592953147416102,4.19,1.676,0.152
1592953147918048,4.19,1.676,0.152
1592953148420026,4.19,1.676,0.152
1592953148921818,4.228,1.676,0.152
1592953149423635,4.19,1.676,0.152
1592953149925508,4.228,1.676,0.152
1592953150427523,4.19,1.676,0.152
1592953150929374,4.19,1.676,0.152
1592953151433912,4.19,1.676,0.152
1592953151935808,4.19,1.6,0.152
1592953152439179,4.19,1.676,0.152
1592953152941274,4.19,1.6,0.152
1592953153443069,4.19,1.676,0.152
1592953153944869,4.152,1.676,0.152
1592953154456594,4.304,1.676,0.152
1592953154958521,4.457,1.676,0.152
1592953155460388,4.342,1.676,0.152
1592953155962239,4.228,1.676,0.152
1592953156467157,4.228,1.676,0.152
1592953156968961,4.228,1.676,0.152
1592953157470708,4.152,1.6,0.152
1592953157972701,4.19,1.6,0.152
1592953158474619,4.228,1.676,0.152
1592953158976385,4.381,1.676,0.152
1592953159478340,4.457,1.676,0.152
1592953159982693,4.609,1.676,0.152
1592953160484979,4.647,1.676,0.152
1592953160986744,4.609,1.676,0.152
1592953161491194,4.495,1.6,0.152
1592953161993307,4.304,1.676,0.152
1592953162495102,4.228,1.676,0.152
1592953162996898,4.19,1.676,0.152
1592953163498657,4.152,1.6,0.152
1592953164000598,4.19,1.6,0.152
1592953164502404,4.228,1.676,0.152
1592953165004176,4.19,1.676,0.152
1592953165505918,4.152,1.6,0.152
1592953166007914,4.228,1.676,0.152
1592953166512367,4.228,1.676,0.152
1592953167014121,4.19,1.676,0.152
1592953167516126,4.19,1.6,0.152
1592953168018058,4.19,1.6,0.152
1592953168519916,4.19,1.676,0.152
1592953169021650,4.152,1.6,0.152
1592953169523418,4.304,1.676,0.152
1592953170026041,4.304,1.676,0.152
1592953170527950,4.19,1.676,0.152
1592953171029878,4.228,1.676,0.152
1592953171534185,4.19,1.676,0.152
1592953172036016,4.228,1.676,0.152
1592953172537942,4.19,1.676,0.152
1592953173039731,4.19,1.676,0.152
1592953173543007,4.304,1.676,0.152
1592953174044995,4.457,1.676,0.152
1592953174546860,4.342,1.676,0.152
1592953175048619,4.19,1.6,0.152
1592953175550528,4.19,1.6,0.152
1592953176052462,4.152,1.6,0.152
1592953176556839,4.19,1.6,0.152
1592953177058598,4.152,1.6,0.152
1592953177560409,4.19,1.676,0.152
1592953178062332,4.228,1.676,0.152
1592953178564132,4.19,1.6,0.152
