TimeStamp,Total Power,CPU Power,GPU Power
1592835362275403,1.143,0.305,0.152
1592835362783130,1.106,0.228,0.152
1592835363288166,1.106,0.228,0.152
1592835363793438,1.106,0.228,0.152
1592835364296443,1.106,0.228,0.152
1592835364799919,1.068,0.305,0.152
1592835365315265,1.068,0.305,0.152
1592835365819819,1.105,0.305,0.152
1592835366324573,1.067,0.305,0.152
1592835366828560,1.067,0.305,0.152
1592835367331910,1.029,0.305,0.152
1592835367835698,1.029,0.305,0.152
1592835368340088,1.068,0.305,0.152
1592835368844597,1.068,0.305,0.152
1592835369349421,1.068,0.305,0.152
1592835369863914,1.068,0.305,0.152
1592835370367520,1.068,0.305,0.152
1592835370870510,1.106,0.305,0.152
1592835371375379,1.068,0.305,0.152
1592835371880264,1.068,0.305,0.152
1592835372385367,1.068,0.305,0.152
1592835372890074,1.068,0.305,0.152
1592835373394003,1.029,0.305,0.152
1592835373897391,1.029,0.305,0.152
1592835374400579,1.029,0.305,0.152
1592835374915536,1.068,0.305,0.152
1592835375420263,1.144,0.305,0.152
1592835375924935,1.334,0.305,0.152
1592835376429228,1.105,0.305,0.152
1592835376932738,1.067,0.305,0.152
1592835377435557,1.029,0.305,0.152
1592835377939409,1.067,0.305,0.152
1592835378443880,1.106,0.305,0.152
1592835378948718,1.068,0.305,0.152
1592835379453860,1.067,0.305,0.152
1592835379968264,1.029,0.305,0.152
1592835380471150,1.029,0.305,0.152
1592835380974901,1.029,0.305,0.152
1592835381479170,1.029,0.305,0.152
1592835381983680,1.068,0.305,0.152
1592835382488778,1.068,0.305,0.152
1592835382991670,1.029,0.305,0.152
1592835383494560,1.029,0.305,0.152
1592835383997390,1.029,0.305,0.152
1592835384499623,1.068,0.305,0.152
1592835385006310,1.105,0.305,0.152
1592835385510557,1.067,0.305,0.152
1592835386015041,1.029,0.305,0.152
1592835386518693,1.029,0.305,0.152
1592835387022801,1.029,0.305,0.152
1592835387527451,1.068,0.305,0.152
1592835388031766,1.068,0.305,0.152
1592835388536803,1.029,0.305,0.152
1592835389040137,1.029,0.305,0.152
1592835389542991,1.029,0.305,0.152
1592835390055793,1.068,0.305,0.152
1592835390559447,1.105,0.305,0.152
1592835391064842,1.106,0.305,0.152
1592835391569012,1.029,0.305,0.152
1592835392072428,0.991,0.305,0.152
1592835392575177,1.029,0.305,0.152
1592835393078964,1.029,0.305,0.152
1592835393583464,1.029,0.305,0.152
1592835394087909,1.029,0.305,0.152
1592835394592634,1.067,0.305,0.152
1592835395106548,1.029,0.305,0.152
1592835395609491,1.029,0.305,0.152
1592835396112859,1.029,0.305,0.152
1592835396617126,1.106,0.305,0.152
1592835397121841,1.068,0.305,0.152
1592835397627322,1.068,0.305,0.152
1592835398131636,1.029,0.305,0.152
1592835398635178,1.029,0.305,0.152
1592835399138105,1.029,0.305,0.152
1592835399641986,1.029,0.305,0.152
1592835400157988,1.068,0.305,0.152
1592835400663157,1.068,0.305,0.152
1592835401166828,1.029,0.305,0.152
1592835401670115,1.029,0.305,0.152
1592835402172803,0.991,0.305,0.152
1592835402678918,1.068,0.305,0.152
1592835403183326,1.068,0.305,0.152
1592835403688921,1.068,0.305,0.152
1592835404192714,1.029,0.305,0.152
1592835404695813,1.029,0.305,0.152
1592835405209126,1.106,0.305,0.152
1592835405712848,1.181,0.305,0.152
1592835406218305,1.106,0.305,0.152
1592835406722743,1.068,0.305,0.152
1592835407227193,1.068,0.305,0.152
1592835407731395,1.029,0.305,0.152
1592835408234858,1.029,0.305,0.152
1592835408738164,1.029,0.305,0.152
1592835409242721,1.029,0.305,0.152
1592835409747709,1.068,0.305,0.152
1592835410263367,1.068,0.305,0.152
1592835410767803,1.068,0.305,0.152
1592835411271465,1.029,0.305,0.152
1592835411774251,1.029,0.305,0.152
1592835412278104,1.029,0.305,0.152
1592835412785787,1.068,0.305,0.152
1592835413290220,1.068,0.305,0.152
1592835413794603,1.029,0.305,0.152
1592835414298225,1.029,0.305,0.152
1592835414801408,1.029,0.305,0.152
1592835415315516,1.068,0.305,0.152
1592835415820570,1.068,0.305,0.152
1592835416325131,1.068,0.305,0.152
1592835416828720,1.029,0.305,0.152
1592835417331456,1.029,0.305,0.152
1592835417834727,1.029,0.305,0.152
1592835418338745,1.068,0.305,0.152
1592835418845367,1.068,0.305,0.152
1592835419349589,1.029,0.305,0.152
1592835419853698,1.182,0.305,0.152
1592835420367938,1.106,0.305,0.152
1592835420872142,1.334,0.305,0.152
1592835421376901,1.22,0.305,0.152
1592835421881324,1.106,0.305,0.152
1592835422388503,1.106,0.305,0.152
1592835422892603,1.029,0.305,0.152
1592835423396064,1.029,0.305,0.152
1592835423899006,0.991,0.305,0.152
