TimeStamp,Total Power,CPU Power,GPU Power
1592837319967578,1.944,0.839,0.152
1592837320468847,3.773,1.753,0.152
1592837320970059,4.342,2.058,0.152
1592837321471237,4.495,2.133,0.152
1592837321972452,4.571,2.209,0.152
1592837322473677,4.609,2.209,0.152
1592837322974865,4.571,2.209,0.152
1592837323476080,4.609,2.209,0.152
1592837323977319,4.609,2.209,0.152
1592837324480874,4.571,2.209,0.152
1592837324982072,4.571,2.209,0.152
1592837325483281,4.609,2.209,0.152
1592837325984522,4.609,2.209,0.152
1592837326485712,4.571,2.209,0.152
1592837326986895,4.571,2.209,0.152
1592837327488091,4.647,2.209,0.152
1592837327989302,4.609,2.209,0.152
1592837328490503,4.609,2.209,0.152
1592837328991712,4.609,2.209,0.152
1592837329494921,4.609,2.209,0.152
1592837329996131,4.571,2.209,0.152
1592837330497312,4.571,2.209,0.152
1592837330998528,4.609,2.209,0.152
1592837331499767,4.609,2.209,0.152
1592837332000988,4.609,2.209,0.152
1592837332502208,4.609,2.209,0.152
1592837333003453,4.609,2.209,0.152
1592837333504690,4.609,2.209,0.152
1592837334005898,4.571,2.209,0.152
1592837334509589,4.647,2.209,0.152
1592837335010852,4.647,2.209,0.152
1592837335512068,4.609,2.209,0.152
1592837336013262,4.609,2.209,0.152
1592837336514458,4.609,2.209,0.152
1592837337015679,4.609,2.209,0.152
1592837337516894,4.609,2.209,0.152
1592837338018084,4.609,2.209,0.152
1592837338519307,4.609,2.209,0.152
1592837339020535,4.609,2.209,0.152
1592837339523650,4.571,2.209,0.152
1592837340024860,4.571,2.209,0.152
1592837340526070,4.647,2.209,0.152
1592837341027305,4.609,2.209,0.152
1592837341528511,4.571,2.209,0.152
1592837342029692,4.571,2.209,0.152
1592837342530916,4.609,2.209,0.152
1592837343032121,4.609,2.209,0.152
1592837343533308,4.609,2.209,0.152
1592837344034513,4.609,2.209,0.152
1592837344537677,4.609,2.209,0.152
1592837345038891,4.609,2.209,0.152
1592837345540094,4.571,2.209,0.152
1592837346041303,4.609,2.209,0.152
1592837346542530,4.609,2.209,0.152
1592837347043743,4.723,2.209,0.152
1592837347544933,4.609,2.209,0.152
1592837348046148,4.647,2.209,0.152
1592837348547374,4.609,2.209,0.152
1592837349048571,4.571,2.209,0.152
1592837349551790,4.609,2.209,0.152
1592837350053008,4.647,2.209,0.152
1592837350554216,4.571,2.209,0.152
1592837351055386,4.571,2.209,0.152
1592837351556612,4.571,2.209,0.152
1592837352057850,4.609,2.209,0.152
1592837352559084,4.609,2.209,0.152
1592837353060330,4.571,2.209,0.152
1592837353561549,4.609,2.209,0.152
1592837354062782,4.609,2.209,0.152
1592837354566028,4.571,2.209,0.152
1592837355067221,4.571,2.209,0.152
1592837355568440,4.647,2.209,0.152
1592837356069666,4.609,2.209,0.152
1592837356570869,4.571,2.209,0.152
1592837357072043,4.571,2.209,0.152
1592837357573242,4.647,2.209,0.152
1592837358074442,4.609,2.209,0.152
1592837358575657,4.609,2.209,0.152
1592837359076930,4.609,2.209,0.152
1592837359580093,4.609,2.209,0.152
1592837360081308,4.609,2.209,0.152
1592837360582503,4.571,2.209,0.152
1592837361083710,4.609,2.209,0.152
1592837361584952,4.609,2.209,0.152
1592837362086159,4.609,2.209,0.152
1592837362587349,4.571,2.209,0.152
1592837363088613,4.609,2.209,0.152
1592837363589855,4.609,2.209,0.152
1592837364091066,4.571,2.209,0.152
1592837364594632,4.609,2.209,0.152
1592837365095857,4.609,2.209,0.152
1592837365597066,4.571,2.209,0.152
1592837366098249,4.571,2.209,0.152
1592837366599459,4.571,2.209,0.152
1592837367100698,4.609,2.209,0.152
1592837367601901,4.609,2.209,0.152
1592837368103085,4.571,2.209,0.152
1592837368604311,4.609,2.209,0.152
1592837369105555,4.609,2.209,0.152
1592837369608828,4.609,2.209,0.152
1592837370110009,4.571,2.209,0.152
1592837370611224,4.647,2.209,0.152
1592837371112466,4.609,2.209,0.152
1592837371613690,4.571,2.209,0.152
1592837372114904,4.571,2.209,0.152
1592837372616140,4.647,2.209,0.152
1592837373117350,4.609,2.209,0.152
1592837373618537,4.571,2.209,0.152
1592837374119766,4.571,2.209,0.152
1592837374622955,4.609,2.209,0.152
1592837375124166,4.609,2.209,0.152
1592837375625376,4.571,2.209,0.152
1592837376126624,4.609,2.209,0.152
1592837376627855,4.609,2.209,0.152
1592837377129085,4.609,2.209,0.152
1592837377630273,4.571,2.209,0.152
1592837378131506,4.609,2.209,0.152
1592837378632733,4.609,2.209,0.152
1592837379133949,4.571,2.209,0.152
1592837379637068,4.609,2.209,0.152
