timestamp	VIRTUAL_SCALING	CPU0_F	CPU1_F	CPU2_F	CPU3_F	CPU4_F	CPU5_F	GPU_FREQ	CPU_GOVERNOR	EMC_F	TEMP0	TEMP1	TEMP2	TEMP3	TEMP4	TEMP5	TEMP6	TEMP7
1593903421050413708	1	499	1728	1728	499	499	499	114750000	performance	1866	26	26	24	26	23	21	100	24
1593903421187608001 	0	499	1727	1729	499	499	499	114750000	performance	1866	26	26	24	26	23	21	100	24
1593903422873170916	1	499	1728	1728	499	499	499	114750000	performance	1866	26	26	24	26	23	22	100	25
1593903423014203974 	0	499	1700	1727	499	499	498	114750000	performance	1866	26	26	24	26	23	22	100	25
1593903424816248661	1	499	1728	1728	499	499	499	114750000	performance	1866	27	27	25	27	23	22	100	25
1593903425021367857 	0	499	1727	1684	499	498	498	114750000	performance	1866	27	27	25	26	23	22	100	26
1593903426739120245	1	499	1728	1728	499	499	499	114750000	performance	1866	27	27	25	27	23	22	100	26
1593903426875784964 	0	498	1727	1725	499	499	499	114750000	performance	1866	27	27	25	27	23	22	100	26
1593903428540428128	1	499	1728	1728	499	499	499	114750000	performance	1866	27	27	25	27	23	22	100	26
1593903428721285188 	0	499	1700	1704	499	499	499	114750000	performance	1866	27	27	25	27	23	22	100	26
1593903430398075955	1	499	1728	1728	499	499	499	114750000	performance	1866	27	27	25	27	23	22	100	26
1593903430516523391 	0	499	1728	1728	498	499	499	114750000	performance	1866	27	27	25	27	23	22	100	26
1593903432177209869	1	499	1728	1728	499	499	499	114750000	performance	1866	27	27	25	27	23	22	100	26
1593903432291746036 	0	499	1727	1699	499	498	499	114750000	performance	1866	27	27	25	27	23	22	100	26
1593903433982236079	1	499	1728	1728	499	499	499	114750000	performance	1866	27	27	25	27	23	22	100	26
1593903434174391697 	0	499	1702	1701	499	498	499	114750000	performance	1866	27	27	25	27	23	23	100	26
1593903436037540514	1	499	1728	1728	499	499	499	114750000	performance	1866	27	27	25	27	23	23	100	26
1593903436246832757 	0	499	1728	1728	499	499	498	114750000	performance	1866	27	27	25	27	23	23	100	26
1593903438061332926	1	499	1728	1728	499	499	499	114750000	performance	1866	27	27	25	27	23	23	100	26
1593903438238659221 	0	499	1728	1727	499	499	499	114750000	performance	1866	27	27	25	27	23	23	100	26
1593903440025981242	1	499	1728	1728	499	499	499	114750000	performance	1866	28	27	25	27	23	23	100	26
1593903440240556298 	0	499	1728	1728	499	499	499	114750000	performance	1866	27	27	25	27	23	23	100	26
1593903442013474866	1	499	1728	1728	499	499	499	114750000	performance	1866	27	27	25	28	23	23	100	27
1593903442252781999 	0	499	1700	1728	499	499	499	114750000	performance	1866	28	28	25	28	23	23	100	27
1593903443990433183	1	499	1728	1728	499	499	499	114750000	performance	1866	27	27	25	27	23	23	100	26
1593903444252867663 	0	499	1728	1728	499	498	499	114750000	performance	1866	27	27	25	27	23	23	100	26
1593903446019036217	1	499	1728	1728	499	499	499	114750000	performance	1866	27	27	25	27	23	23	100	26
1593903446136230343 	0	499	1726	1727	498	499	499	114750000	performance	1866	28	28	25	28	23	23	100	27
1593903447835919033	1	499	1728	1728	499	499	499	114750000	performance	1866	27	27	25	27	23	23	100	27
1593903447985844578 	0	499	1673	1723	499	499	499	114750000	performance	1866	27	27	25	28	23	23	100	27
1593903449649594367	1	499	1728	1728	499	499	499	114750000	performance	1866	27	27	25	27	24	23	100	26
1593903449766276255 	0	499	1727	1668	499	498	499	114750000	performance	1866	28	28	25	28	24	23	100	26
1593903451525977019	1	499	1728	1728	499	499	499	114750000	performance	1866	28	28	25	28	24	23	100	26
1593903451806616678 	0	498	1709	1727	498	499	499	114750000	performance	1866	27	27	25	28	24	23	100	26
1593903453679583132	1	499	1728	1728	499	499	499	114750000	performance	1866	28	28	25	28	24	23	100	26
1593903453925066153 	0	499	1712	1712	499	499	499	114750000	performance	1866	27	27	25	28	24	23	100	26
1593903455726354134	1	499	1728	1728	499	499	499	114750000	performance	1866	28	28	25	28	24	23	100	26
1593903455874651963 	0	499	1696	1700	499	499	498	114750000	performance	1866	28	28	25	28	24	23	100	26
1593903457555139603	1	499	1728	1728	499	499	499	114750000	performance	1866	28	28	25	28	24	23	100	27
1593903457732506509 	0	498	1728	1727	499	498	499	114750000	performance	1866	28	28	25	27	24	23	100	27
1593903459503440812	1	499	1728	1728	499	499	499	114750000	performance	1866	28	28	25	28	24	23	100	27
1593903459739190599 	0	498	1700	1702	499	498	499	114750000	performance	1866	28	27	25	27	24	23	100	27
1593903461453774819	1	499	1728	1728	499	499	499	114750000	performance	1866	28	28	25	28	24	23	100	26
1593903461658135592 	0	499	1727	1727	499	499	498	114750000	performance	1866	28	28	25	28	24	23	100	26
1593903463549819512	1	499	1728	1728	499	499	499	114750000	performance	1866	28	28	25	28	24	23	100	27
1593903463769999474 	0	499	1728	1727	499	498	499	114750000	performance	1866	28	28	26	28	24	23	100	27
1593903465504672872	1	499	1728	1728	499	499	499	114750000	performance	1866	28	28	26	28	24	23	100	27
1593903465672257550 	0	499	1727	1728	498	499	499	114750000	performance	1866	28	28	26	28	24	23	100	27
1593903467423691422	1	499	1728	1728	499	499	499	114750000	performance	1866	28	28	25	28	24	23	100	27
1593903467656628153 	0	499	1727	1727	499	499	499	114750000	performance	1866	28	28	26	28	24	23	100	27
1593903469483828448	1	499	1728	1728	499	499	499	114750000	performance	1866	28	28	26	28	24	23	100	27
1593903469801391645 	0	499	1728	1728	499	499	498	114750000	performance	1866	28	28	25	28	24	23	100	27
1593903471607200950	1	499	1728	1728	499	499	499	114750000	performance	1866	28	28	26	28	24	23	100	27
1593903471776781380 	0	498	1727	1713	498	499	499	114750000	performance	1866	28	28	26	28	24	23	100	27
1593903473540852886	1	499	1728	1728	499	499	499	114750000	performance	1866	28	28	26	28	24	23	100	27
1593903473762089733 	0	499	1704	1700	499	499	499	114750000	performance	1866	28	28	26	28	24	23	100	27
1593903475556200094	1	499	1728	1728	499	499	499	114750000	performance	1866	28	28	26	28	24	23	100	27
1593903475736208509 	0	499	1675	1701	498	499	498	114750000	performance	1866	28	28	26	28	24	23	100	27
1593903477520025778	1	499	1728	1728	499	499	499	114750000	performance	1866	28	28	26	28	24	23	100	27
1593903477721218104 	0	499	1727	1728	498	499	499	114750000	performance	1866	28	28	26	28	24	23	100	27
1593903479510873942	1	499	1728	1728	499	499	499	114750000	performance	1866	28	28	26	28	24	23	100	27
1593903479784109781 	0	499	1727	1728	498	499	498	114750000	performance	1866	28	28	26	28	24	23	100	27
1593903481566507152	1	499	1728	1728	499	499	499	114750000	performance	1866	28	28	26	28	24	23	100	27
1593903481732136626 	0	498	1728	1727	499	499	498	114750000	performance	1866	28	28	26	28	24	23	100	27
1593903483484613604	1	499	1728	1728	499	499	499	114750000	performance	1866	28	28	26	28	24	23	100	27
1593903483647005936 	0	499	1727	1727	498	499	499	114750000	performance	1866	28	28	26	28	24	24	100	27
1593903485339694981	1	499	1728	1728	499	499	499	114750000	performance	1866	28	28	26	28	24	23	100	27
1593903485670814181 	0	499	1702	1727	499	499	499	114750000	performance	1866	28	28	26	28	24	23	100	27
1593903487528046949	1	499	1728	1728	499	499	499	114750000	performance	1866	28	28	26	28	24	24	100	27
1593903487711433094 	0	499	1700	1727	499	498	498	114750000	performance	1866	28	28	26	28	24	23	100	27
1593903489407003071	1	499	1728	1728	499	499	499	114750000	performance	1866	28	28	26	28	24	24	100	27
1593903489653459393 	0	499	1727	1727	499	499	499	114750000	performance	1866	28	28	26	28	24	24	100	27
1593903491387919243	1	499	1728	1728	499	499	499	114750000	performance	1866	28	28	26	28	24	23	100	27
1593903491542978729 	0	499	1727	1727	499	499	499	114750000	performance	1866	28	28	26	28	24	23	100	27
1593903493238308574	1	499	1728	1728	499	499	499	114750000	performance	1866	28	28	26	28	24	23	100	27
1593903493371486440 	0	499	1698	1702	499	499	498	114750000	performance	1866	28	28	26	28	24	24	100	27
1593903495073896514	1	499	1728	1728	499	499	499	114750000	performance	1866	28	28	26	28	24	24	100	27
1593903495277530777 	0	499	1727	1727	499	499	499	114750000	performance	1866	28	28	26	28	24	24	100	27
1593903497071134697	1	499	1728	1728	499	499	499	114750000	performance	1866	28	28	26	28	24	24	100	27
1593903497205814526 	0	499	1727	1670	499	499	499	114750000	performance	1866	28	28	26	28	24	24	100	27
1593903499027940446	1	499	1728	1728	499	499	499	114750000	performance	1866	28	28	26	28	24	24	100	27
1593903499348506478 	0	498	1727	1728	499	499	499	114750000	performance	1866	28	28	26	28	24	24	100	27
1593903501182467296	1	499	1728	1728	499	499	499	114750000	performance	1866	28	28	26	28	24	24	100	27
1593903501376046973 	0	498	1727	1727	498	499	498	114750000	performance	1866	28	28	26	28	24	24	100	27
1593903503094660383	1	499	1728	1728	499	499	499	114750000	performance	1866	28	28	26	28	24	24	100	27
1593903503331648419 	0	499	1727	1728	499	499	499	114750000	performance	1866	28	28	26	28	24	24	100	27
1593903505120268607	1	499	1728	1728	499	499	499	114750000	performance	1866	28	28	26	28	24	24	100	27
1593903505396335142 	0	499	1728	1708	499	498	499	114750000	performance	1866	28	28	26	28	24	24	100	27
1593903507107223812	1	499	1728	1728	499	499	499	114750000	performance	1866	28	28	26	28	24	24	100	27
1593903507317176101 	0	499	1726	1727	499	499	498	114750000	performance	1866	28	28	26	28	24	24	100	27
1593903509209348690	1	499	1728	1728	499	499	499	114750000	performance	1866	28	28	26	28	24	24	100	27
1593903509395670976 	0	499	1728	1728	499	498	498	114750000	performance	1866	28	28	26	28	24	24	100	27
1593903511072148184	1	499	1728	1728	499	499	499	114750000	performance	1866	28	28	26	28	24	24	100	27
1593903511251924723 	0	498	1728	1727	499	499	499	114750000	performance	1866	28	28	26	28	24	24	100	27
1593903513022146211	1	499	1728	1728	499	499	499	114750000	performance	1866	28	28	26	28	24	24	100	27
1593903513210242810 	0	499	1727	1728	499	499	499	114750000	performance	1866	28	28	26	28	24	24	100	27
1593903514900768229	1	499	1728	1728	499	499	499	114750000	performance	1866	28	28	26	28	24	24	100	27
1593903515091128499 	0	499	1727	1727	499	499	499	114750000	performance	1866	28	28	26	28	24	24	100	27
1593903516833435286	1	499	1728	1728	499	499	499	114750000	performance	1866	28	28	26	28	24	24	100	27
1593903517044172745 	0	499	1728	1728	499	498	498	114750000	performance	1866	28	28	26	28	24	24	100	27
1593903518814688267	1	499	1728	1728	499	499	499	114750000	performance	1866	28	28	26	28	24	24	100	27
1593903518980223421 	0	499	1702	1700	499	498	498	114750000	performance	1866	28	28	26	28	25	24	100	27
1593903520708435735	1	499	1728	1728	499	499	499	114750000	performance	1866	28	28	26	28	25	24	100	27
1593903521022556450 	0	499	1725	1736	499	498	499	114750000	performance	1866	29	28	26	29	25	24	100	27
1593903522916107387	1	499	1728	1728	499	499	499	114750000	performance	1866	28	28	26	28	25	24	100	28
1593903523197594058 	0	499	1727	1670	498	498	499	114750000	performance	1866	28	28	26	28	25	24	100	28
1593903525070267760	1	499	1728	1728	499	499	499	114750000	performance	1866	28	28	26	28	25	24	100	27
1593903525238683357 	0	499	1699	1702	499	498	499	114750000	performance	1866	28	28	26	28	25	24	100	27
1593903526956908377	1	499	1728	1728	499	499	499	114750000	performance	1866	28	28	26	28	25	24	100	27
1593903527064402554 	0	499	1727	1727	499	499	499	114750000	performance	1866	28	28	26	28	25	24	100	27
1593903528751571682	1	499	1728	1728	499	499	499	114750000	performance	1866	28	28	26	28	25	24	100	27
1593903528978317309 	0	499	1728	1726	499	499	499	114750000	performance	1866	28	28	26	28	25	24	100	27
1593903530727546776	1	499	1728	1728	499	499	499	114750000	performance	1866	28	28	26	28	25	24	100	27
1593903530844058730 	0	498	1728	1728	499	499	499	114750000	performance	1866	28	28	26	28	25	24	100	27
1593903532518310498	1	499	1728	1728	499	499	499	114750000	performance	1866	28	28	26	28	25	24	100	27
1593903532633147770 	0	499	1727	1727	498	499	499	114750000	performance	1866	28	28	26	28	25	24	100	27
1593903534303654223	1	499	1728	1728	499	499	499	114750000	performance	1866	29	29	26	29	25	24	100	28
1593903534587130733 	0	499	1728	1703	499	499	499	114750000	performance	1866	28	28	26	28	25	24	100	27
1593903536498227900	1	499	1728	1728	499	499	499	114750000	performance	1866	28	28	26	28	25	24	100	27
1593903536735213640 	0	499	1727	1728	499	498	499	114750000	performance	1866	28	28	26	29	25	24	100	27
1593903538416926577	1	499	1728	1728	499	499	499	114750000	performance	1866	29	29	26	29	25	24	100	28
1593903538612316231 	0	499	1726	1727	499	499	499	114750000	performance	1866	28	28	26	28	25	24	100	28
1593903540379281979	1	499	1728	1728	499	499	499	114750000	performance	1866	29	29	26	29	25	24	100	28
1593903540530959393 	0	499	1727	1727	499	499	499	114750000	performance	1866	29	29	26	29	25	24	100	28
1593903542308233472	1	499	1728	1728	499	499	499	114750000	performance	1866	29	29	26	29	25	24	100	27
1593903542538301550 	0	499	1712	1727	499	499	499	114750000	performance	1866	29	29	26	29	25	24	100	28
1593903544373700481	1	499	1728	1728	499	499	499	114750000	performance	1866	29	29	26	29	25	24	100	28
1593903544558530236 	0	499	1727	1727	499	499	499	114750000	performance	1866	28	28	26	28	25	24	100	28
1593903546450678756	1	499	1728	1728	499	499	499	114750000	performance	1866	28	29	26	28	25	24	100	28
1593903546619954555 	0	498	1728	1727	498	499	499	114750000	performance	1866	28	28	26	28	25	24	100	28
1593903548317607771	1	499	1728	1728	499	499	499	114750000	performance	1866	28	28	26	28	25	24	100	28
1593903548432756971 	0	498	1727	1727	499	499	499	114750000	performance	1866	29	29	26	29	25	24	100	28
1593903550204171878	1	499	1728	1728	499	499	499	114750000	performance	1866	29	29	26	29	25	24	100	27
1593903550344370761 	0	499	1728	1728	499	499	499	114750000	performance	1866	28	29	26	29	25	24	100	27
1593903552164849039	1	499	1728	1728	499	499	499	114750000	performance	1866	29	29	26	28	25	24	100	28
1593903552402223410 	0	499	1714	1727	499	499	499	114750000	performance	1866	29	29	26	29	25	24	100	28
1593903554200672362	1	499	1728	1728	499	499	499	114750000	performance	1866	28	28	26	28	25	24	100	28
1593903554352761451 	0	499	1728	1727	499	499	499	114750000	performance	1866	29	29	26	29	25	24	100	28
1593903556024953015	1	499	1728	1728	499	499	499	114750000	performance	1866	29	29	26	29	25	24	100	28
1593903556245525557 	0	499	1727	1728	499	499	498	114750000	performance	1866	28	28	26	29	25	24	100	28
1593903558042863986	1	499	1728	1728	499	499	499	114750000	performance	1866	28	28	26	28	25	24	100	28
1593903558339823766 	0	498	1729	1727	499	499	499	114750000	performance	1866	29	29	26	28	25	24	100	28
1593903560098181359	1	499	1728	1728	499	499	499	114750000	performance	1866	28	28	26	28	25	24	100	28
1593903560281961104 	0	498	1727	1727	499	499	499	114750000	performance	1866	29	29	26	29	25	24	100	28
1593903561967280218	1	499	1728	1728	499	499	499	114750000	performance	1866	29	29	26	29	25	24	100	28
1593903562158859975 	0	499	1727	1728	499	499	499	114750000	performance	1866	29	29	26	29	25	24	100	28
1593903563873509638	1	499	1728	1728	499	499	499	114750000	performance	1866	29	29	26	29	25	24	100	28
1593903563998109593 	0	499	1727	1727	499	499	499	114750000	performance	1866	29	29	26	29	25	24	100	28
1593903565737787041	1	499	1728	1728	499	499	499	114750000	performance	1866	29	29	26	29	25	24	100	28
1593903566003505515 	0	499	1727	1727	498	499	499	114750000	performance	1866	29	29	26	29	25	24	100	28
1593903567749420625	1	499	1728	1728	499	499	499	114750000	performance	1866	29	29	27	29	25	24	100	28
1593903567963649298 	0	498	1728	1728	498	499	499	114750000	performance	1866	29	29	27	29	25	24	100	28
1593903569696050455	1	499	1728	1728	499	499	499	114750000	performance	1866	29	29	26	29	25	24	100	28
1593903570026038698 	0	498	1710	1728	499	499	499	114750000	performance	1866	29	29	26	29	25	24	100	28
1593903571969017757	1	499	1728	1728	499	499	499	114750000	performance	1866	29	29	26	29	25	24	100	28
1593903572139026284 	0	498	1727	1728	499	498	499	114750000	performance	1866	28	28	26	28	25	24	100	28
1593903573848094535	1	499	1728	1728	499	499	499	114750000	performance	1866	29	29	26	29	25	24	100	28
1593903574045234186 	0	499	1727	1672	498	499	499	114750000	performance	1866	29	29	26	28	25	24	100	28
1593903575815520915	1	499	1728	1728	499	499	499	114750000	performance	1866	29	29	26	29	25	24	100	28
1593903575980951523 	0	498	1727	1727	499	499	498	114750000	performance	1866	29	29	26	29	25	24	100	28
1593903577745405428	1	499	1728	1728	499	499	499	114750000	performance	1866	29	29	27	29	25	24	100	28
1593903577948382961 	0	499	1727	1726	499	499	499	114750000	performance	1866	29	29	26	29	25	24	100	28
1593903579849854744	1	499	1728	1728	499	499	499	114750000	performance	1866	29	29	26	29	25	24	100	28
1593903580040699527 	0	499	1728	1727	499	498	499	114750000	performance	1866	29	29	26	29	25	24	100	28
1593903581850550776	1	499	1728	1728	499	499	499	114750000	performance	1866	29	29	26	29	25	24	100	28
1593903582045351073 	0	498	1726	1726	498	499	499	114750000	performance	1866	29	29	27	29	25	24	100	28
1593903583815401066	1	499	1728	1728	499	499	499	114750000	performance	1866	29	29	27	29	25	24	100	28
1593903583982123702 	0	499	1727	1727	499	499	499	114750000	performance	1866	29	29	27	29	25	24	100	28
1593903585705604950	1	499	1728	1728	499	499	499	114750000	performance	1866	29	29	26	29	25	24	100	28
1593903585856451770 	0	499	1725	1725	499	499	499	114750000	performance	1866	29	29	27	29	25	24	100	28
1593903587734369902	1	499	1728	1728	499	499	499	114750000	performance	1866	29	29	27	29	25	24	100	28
1593903588058541102 	0	498	1706	1727	498	499	499	114750000	performance	1866	29	29	27	29	25	24	100	28
1593903589808684376	1	499	1728	1728	499	499	499	114750000	performance	1866	29	29	27	29	25	24	100	28
1593903590030514737 	0	498	1724	1727	499	498	498	114750000	performance	1866	29	29	27	29	25	24	100	28
1593903591768203455	1	499	1728	1728	499	499	499	114750000	performance	1866	29	29	27	29	25	24	100	28
1593903592055062271 	0	499	1728	1728	498	498	499	114750000	performance	1866	29	29	27	29	25	24	100	28
1593903593905460434	1	499	1728	1728	499	499	499	114750000	performance	1866	29	29	26	29	25	24	100	28
1593903594078185350 	0	499	1727	1728	499	499	498	114750000	performance	1866	29	29	27	29	25	24	100	28
1593903595790557794	1	499	1728	1728	499	499	499	114750000	performance	1866	29	29	27	29	25	24	100	28
1593903595966531067 	0	499	1714	1713	499	499	499	114750000	performance	1866	29	29	27	29	25	24	100	28
1593903597690939394	1	499	1728	1728	499	499	499	114750000	performance	1866	29	29	26	29	25	24	100	28
1593903597805340953 	0	499	1727	1726	499	498	499	114750000	performance	1866	29	29	26	29	25	24	100	28
1593903599480883731	1	499	1728	1728	499	499	499	114750000	performance	1866	29	29	26	29	25	24	100	28
1593903599641768503 	0	499	1725	1727	499	499	498	114750000	performance	1866	29	29	26	29	25	24	100	28
1593903601353741640	1	499	1728	1728	499	499	499	114750000	performance	1866	29	29	26	29	25	24	100	28
1593903601461910812 	0	499	1726	1727	499	499	499	114750000	performance	1866	29	29	26	29	25	24	100	28
1593903603108357209	1	499	1728	1728	499	499	499	114750000	performance	1866	29	29	27	29	25	24	100	28
1593903603221797836 	0	499	1726	1728	499	499	499	114750000	performance	1866	29	29	27	29	25	24	100	28
1593903604902069682	1	499	1728	1728	499	499	499	114750000	performance	1866	29	29	27	29	25	24	100	28
1593903605079958655 	0	499	1728	1727	498	499	499	114750000	performance	1866	29	29	27	29	25	24	100	28
1593903606759229831	1	499	1728	1728	499	499	499	114750000	performance	1866	29	29	27	29	25	24	100	28
1593903606911940247 	0	499	1670	1670	499	499	499	114750000	performance	1866	29	29	27	29	25	24	100	28
1593903608670476335	1	499	1728	1728	499	499	499	114750000	performance	1866	29	29	26	29	25	24	100	28
1593903608784388098 	0	498	1727	1700	499	499	498	114750000	performance	1866	29	29	27	29	25	24	100	28
1593903610540592150	1	499	1728	1728	499	499	499	114750000	performance	1866	29	29	27	29	25	24	100	28
1593903610865469111 	0	499	1728	1728	499	498	499	114750000	performance	1866	29	29	27	29	25	24	100	28
1593903612703365818	1	499	1728	1728	499	499	499	114750000	performance	1866	29	29	27	29	25	24	100	28
1593903612837012319 	0	499	1726	1727	499	499	499	114750000	performance	1866	29	29	27	29	25	24	100	28
1593903614549804460	1	499	1728	1728	499	499	499	114750000	performance	1866	29	29	27	29	25	24	100	28
1593903614664952370 	0	499	1699	1703	499	499	498	114750000	performance	1866	29	29	26	29	25	24	100	28
1593903616416323734	1	499	1728	1728	499	499	499	114750000	performance	1866	29	29	26	29	25	24	100	28
1593903616750065165 	0	498	1697	1726	499	499	498	114750000	performance	1866	29	29	27	29	25	24	100	28
1593903618668541634	1	499	1728	1728	499	499	499	114750000	performance	1866	29	29	27	29	25	24	100	28
1593903618937228968 	0	498	1728	1727	499	499	499	114750000	performance	1866	29	29	27	29	25	25	100	28
1593903620643769634	1	499	1728	1728	499	499	499	114750000	performance	1866	29	29	27	29	25	25	100	28
1593903620773619902 	0	499	1728	1702	499	499	499	114750000	performance	1866	29	29	27	29	25	24	100	28
1593903622479367411	1	499	1728	1728	499	499	499	114750000	performance	1866	29	29	27	29	25	25	100	28
1593903622872044918 	0	499	1727	1710	499	498	499	114750000	performance	1866	29	29	27	29	25	24	100	28
1593903624520227539	1	499	1728	1728	499	499	499	114750000	performance	1866	29	29	27	29	25	24	100	28
1593903624630913660 	0	499	1727	1725	499	499	499	114750000	performance	1866	29	29	27	29	25	24	100	28
1593903626441622021	1	499	1728	1728	499	499	499	114750000	performance	1866	29	29	27	29	25	24	100	28
1593903626609155564 	0	498	1714	1712	499	499	499	114750000	performance	1866	29	29	27	29	25	25	100	28
1593903628350181851	1	499	1728	1728	499	499	499	114750000	performance	1866	29	29	27	29	25	25	100	28
1593903628564809496 	0	499	1727	1727	499	499	499	114750000	performance	1866	29	29	27	29	25	24	100	28
1593903630272830750	1	499	1728	1728	499	499	499	114750000	performance	1866	29	29	26	29	25	25	100	28
1593903630387897887 	0	499	1728	1727	499	499	499	114750000	performance	1866	29	29	27	29	25	25	100	28
1593903632063638056	1	499	1728	1728	499	499	499	114750000	performance	1866	29	29	27	29	25	24	100	28
1593903632190622063 	0	499	1727	1727	498	499	498	114750000	performance	1866	29	29	27	29	25	24	100	28
1593903633891059193	1	499	1728	1728	499	499	499	114750000	performance	1866	29	29	27	29	25	25	100	28
1593903634109710907 	0	499	1726	1727	498	499	498	114750000	performance	1866	29	29	27	29	25	24	100	28
1593903635840201093	1	499	1728	1728	499	499	499	114750000	performance	1866	29	29	27	29	25	24	100	28
1593903636043223119 	0	498	1695	1698	499	498	499	114750000	performance	1866	29	29	27	29	25	24	100	28
1593903637689490688	1	499	1728	1728	499	499	499	114750000	performance	1866	29	29	27	29	25	25	100	28
1593903637797093271 	0	499	1726	1726	499	499	498	114750000	performance	1866	29	29	27	29	25	25	100	28
1593903639518090249	1	499	1728	1728	499	499	499	114750000	performance	1866	29	29	26	29	25	24	100	28
1593903639816657366 	0	499	1699	1727	499	499	499	114750000	performance	1866	29	29	27	29	25	25	100	28
1593903641688621908	1	499	1728	1728	499	499	499	114750000	performance	1866	29	29	27	29	25	25	100	28
1593903641924986886 	0	499	1728	1728	499	499	498	114750000	performance	1866	29	29	27	29	25	25	100	28
1593903643647086534	1	499	1728	1728	499	499	499	114750000	performance	1866	29	29	27	29	25	25	100	28
1593903643798785433 	0	498	1726	1728	499	499	498	114750000	performance	1866	29	29	27	29	25	25	100	28
1593903645610587408	1	499	1728	1728	499	499	499	114750000	performance	1866	29	29	27	29	25	25	100	28
1593903645824743528 	0	499	1727	1728	499	499	499	114750000	performance	1866	29	29	27	29	25	25	100	28
1593903647512408765	1	499	1728	1728	499	499	499	114750000	performance	1866	29	29	27	29	25	25	100	28
1593903647706515147 	0	499	1728	1727	499	498	499	114750000	performance	1866	29	29	27	29	25	25	100	28
1593903649508892528	1	499	1728	1728	499	499	499	114750000	performance	1866	29	29	27	29	25	24	100	28
1593903649648854246 	0	498	1728	1728	499	499	498	114750000	performance	1866	29	29	27	29	25	25	100	28
1593903651386269441	1	499	1728	1728	499	499	499	114750000	performance	1866	29	29	27	29	25	24	100	28
1593903651526983885 	0	499	1726	1728	498	498	499	114750000	performance	1866	29	29	27	29	25	25	100	28
1593903653205361356	1	499	1728	1728	499	499	499	114750000	performance	1866	29	29	27	29	25	25	100	28
1593903653405490428 	0	499	1699	1727	499	498	498	114750000	performance	1866	29	29	26	29	25	25	100	28
1593903655297132650	1	499	1728	1728	499	499	499	114750000	performance	1866	29	29	27	29	25	25	100	28
1593903655487526801 	0	499	1703	1703	499	499	499	114750000	performance	1866	29	29	27	29	25	25	100	28
1593903657323939108	1	499	1728	1728	499	499	499	114750000	performance	1866	29	29	27	29	25	25	100	28
1593903657588958559 	0	499	1728	1728	498	498	499	114750000	performance	1866	29	29	27	29	25	25	100	28
1593903659346148297	1	499	1728	1728	499	499	499	114750000	performance	1866	29	29	27	29	25	25	100	28
1593903659578029062 	0	499	1728	1728	498	499	499	114750000	performance	1866	29	29	27	29	25	25	100	28
1593903661264339017	1	499	1728	1728	499	499	499	114750000	performance	1866	29	29	27	29	25	25	100	28
1593903661385067668 	0	499	1726	1727	499	499	498	114750000	performance	1866	29	29	27	29	25	25	100	28
1593903663088875360	1	499	1728	1728	499	499	499	114750000	performance	1866	29	29	27	29	25	25	100	28
1593903663373638920 	0	499	1727	1727	499	499	499	114750000	performance	1866	29	29	27	29	25	25	100	28
1593903665136556752	1	499	1728	1728	499	499	499	114750000	performance	1866	29	29	27	29	25	25	100	28
1593903665428900950 	0	498	1728	1727	499	499	499	114750000	performance	1866	29	29	27	29	25	25	100	28
1593903667318601908	1	499	1728	1728	499	499	499	114750000	performance	1866	29	29	27	29	25	25	100	28
1593903667587602185 	0	499	1728	1727	498	499	499	114750000	performance	1866	29	29	27	29	25	25	100	28
1593903669249583893	1	499	1728	1728	499	499	499	114750000	performance	1866	29	29	27	29	25	25	100	28
1593903669385700054 	0	499	1700	1698	499	499	499	114750000	performance	1866	29	29	27	29	25	25	100	28
1593903671124953588	1	499	1728	1728	499	499	499	114750000	performance	1866	29	29	27	29	25	25	100	28
1593903671336568612 	0	498	1728	1727	499	499	499	114750000	performance	1866	29	29	27	29	25	25	100	28
1593903673112601302	1	499	1728	1728	499	499	499	114750000	performance	1866	29	29	27	29	25	25	100	28
1593903673242712810 	0	498	1726	1726	499	499	498	114750000	performance	1866	29	29	27	29	25	25	100	28
1593903674953877817	1	499	1728	1728	499	499	499	114750000	performance	1866	29	29	27	29	25	25	100	28
1593903675107046928 	0	499	1696	1696	499	499	498	114750000	performance	1866	29	29	27	29	25	25	100	28
1593903676878900260	1	499	1728	1728	499	499	499	114750000	performance	1866	29	29	27	29	25	25	100	28
1593903677080459640 	0	499	1727	1711	498	499	498	114750000	performance	1866	29	29	27	29	25	25	100	28
1593903678788522676	1	499	1728	1728	499	499	499	114750000	performance	1866	29	29	27	29	25	25	100	28
1593903679047730208 	0	499	1727	1728	498	499	499	114750000	performance	1866	29	29	27	29	25	25	100	28
1593903680860374993	1	499	1728	1728	499	499	499	114750000	performance	1866	29	29	27	29	25	25	100	28
1593903681057371297 	0	499	1728	1727	498	499	499	114750000	performance	1866	29	29	27	29	25	25	100	28
1593903682717350226	1	499	1728	1728	499	499	499	114750000	performance	1866	29	29	27	29	25	25	100	28
1593903682857760668 	0	499	1726	1726	499	499	499	114750000	performance	1866	29	29	27	29	25	25	100	28
1593903684666058483	1	499	1728	1728	499	499	499	114750000	performance	1866	29	29	27	29	25	25	100	28
1593903684872100266 	0	499	1677	1727	499	499	498	114750000	performance	1866	29	29	27	29	25	25	100	28
1593903686665300541	1	499	1728	1728	499	499	499	114750000	performance	1866	29	29	27	29	25	25	100	28
1593903686860143745 	0	499	1727	1728	498	499	499	114750000	performance	1866	29	29	27	29	25	25	100	28
1593903688573451795	1	499	1728	1728	499	499	499	114750000	performance	1866	29	29	27	29	25	25	100	28
1593903688847277626 	0	498	1727	1727	499	498	499	114750000	performance	1866	29	29	27	29	25	25	100	28
1593903690593435181	1	499	1728	1728	499	499	499	114750000	performance	1866	29	29	27	29	25	25	100	28
1593903690726638246 	0	499	1727	1728	498	499	499	114750000	performance	1866	29	29	27	29	25	25	100	28
1593903692478724440	1	499	1728	1728	499	499	499	114750000	performance	1866	29	29	27	29	25	25	100	28
1593903692834301629 	0	499	1712	1729	499	499	498	114750000	performance	1866	29	29	27	29	25	25	100	28
1593903694578959201	1	499	1728	1728	499	499	499	114750000	performance	1866	29	29	27	29	25	25	100	28
1593903694720158515 	0	498	1727	1727	498	498	498	114750000	performance	1866	29	29	27	29	25	25	100	28
1593903696479032770	1	499	1728	1728	499	499	499	114750000	performance	1866	29	29	27	29	25	25	100	28
1593903696662677190 	0	498	1707	1727	499	499	498	114750000	performance	1866	29	29	27	29	25	25	100	28
1593903698342929586	1	499	1728	1728	499	499	499	114750000	performance	1866	29	29	27	29	25	25	100	28
1593903698508143712 	0	499	1727	1725	498	499	498	114750000	performance	1866	29	29	27	29	25	25	100	28
1593903700273734315	1	499	1728	1728	499	499	499	114750000	performance	1866	29	29	27	29	25	25	100	28
1593903700407986018 	0	498	1727	1727	499	499	499	114750000	performance	1866	29	29	27	29	25	25	100	28
1593903702186156182	1	499	1728	1728	499	499	499	114750000	performance	1866	29	29	27	29	25	25	100	28
1593903702358590477 	0	499	1727	1727	499	499	499	114750000	performance	1866	29	29	27	29	25	25	100	28
1593903704156516431	1	499	1728	1728	499	499	499	114750000	performance	1866	29	29	27	29	25	25	100	28
1593903704347279015 	0	499	1728	1700	498	499	499	114750000	performance	1866	29	29	27	29	25	25	100	28
1593903706025764590	1	499	1728	1728	499	499	499	114750000	performance	1866	29	29	27	29	25	25	100	28
1593903706317306073 	0	499	1727	1707	499	499	498	114750000	performance	1866	29	29	27	29	25	25	100	28
