TimeStamp,Total Power,CPU Power,GPU Power
1592951597302574,1.677,0.457,0.152
1592951597804251,1.868,0.457,0.152
1592951598305813,1.906,0.457,0.152
1592951598807400,1.83,0.457,0.152
1592951599308982,1.715,0.457,0.152
1592951599810540,1.639,0.457,0.152
1592951600312184,1.677,0.457,0.152
1592951600816510,1.715,0.457,0.152
1592951601318089,1.677,0.457,0.152
1592951601819652,1.639,0.457,0.152
1592951602321240,1.639,0.457,0.152
1592951602822827,1.677,0.457,0.152
1592951603324506,1.639,0.457,0.152
1592951603826071,1.639,0.457,0.152
1592951604327618,1.677,0.457,0.152
1592951604829177,1.677,0.457,0.152
1592951605331080,1.677,0.457,0.152
