TimeStamp,Total Power,CPU Power,GPU Power
1592952483501045,3.923,1.295,0.152
1592952484002595,4.228,1.295,0.152
1592952484506920,4.228,1.372,0.152
1592952485008507,4.228,1.372,0.152
1592952485510058,4.228,1.295,0.152
1592952486011689,4.038,1.295,0.152
1592952486513249,3.961,1.295,0.152
1592952487014936,3.923,1.295,0.152
1592952487516538,3.923,1.295,0.152
1592952488018060,3.885,1.372,0.152
1592952488519614,3.923,1.372,0.152
1592952489021518,3.923,1.372,0.152
1592952489526102,3.885,1.295,0.152
1592952490028198,3.885,1.372,0.152
1592952490529783,3.885,1.295,0.152
1592952491031791,3.923,1.372,0.152
1592952491533478,3.885,1.372,0.152
1592952492035471,3.923,1.295,0.152
1592952492537133,3.885,1.295,0.152
1592952493038696,3.885,1.295,0.152
1592952493540298,3.847,1.219,0.152
