timestamp	VIRTUAL_SCALING	CPU0_F	CPU1_F	CPU2_F	CPU3_F	CPU4_F	CPU5_F	GPU_FREQ	CPU_GOVERNOR	EMC_F	TEMP0	TEMP1	TEMP2	TEMP3	TEMP4	TEMP5	TEMP6	TEMP7
1592952483683110752	1	345	1574	1574	345	345	345	114750000	performance	1866	29	29	27	29	25	24	100	28
1592952484065080575 	0	345	1584	1583	346	345	345	114750000	performance	1866	29	29	27	29	25	24	100	28
1592952486137258318	1	345	1574	1574	345	345	345	114750000	performance	1866	29	29	27	29	25	24	100	28
1592952486573111155 	0	345	1583	1580	345	345	345	114750000	performance	1866	29	29	27	29	26	25	100	28
1592952488653178938	1	345	1574	1574	345	345	345	114750000	performance	1866	29	29	27	29	26	24	100	28
1592952489077108603 	0	346	1571	1564	345	345	345	114750000	performance	1866	29	29	27	29	26	25	100	28
1592952491161044654	1	345	1574	1574	345	345	345	114750000	performance	1866	29	29	27	29	26	24	100	28
1592952491597394421 	0	345	1573	1574	345	345	345	114750000	performance	1866	29	29	27	29	26	25	100	28
1592952493394272047	1	345	1574	1574	345	345	345	114750000	performance	1866	29	29	27	29	26	25	100	28
1592952493544404736 	0	345	1583	1582	345	345	345	114750000	performance	1866	29	29	27	29	26	25	100	28
