cset: --> last message, executed args into cpuset "/user", new pid is: 32108
stress-ng: info:  [32108] dispatching hogs: 3 cpu
stress-ng: info:  [32108] successful run completed in 60.04s (1 min, 0.04 secs)
