TimeStamp,Total Power,CPU Power,GPU Power
1592953844520387,1.944,0.534,0.152
1592953845021942,1.906,0.534,0.152
1592953845523492,2.058,0.533,0.152
1592953846027594,2.02,0.61,0.152
1592953846529116,1.906,0.61,0.152
1592953847030641,1.982,0.61,0.152
1592953847532192,2.058,0.61,0.152
1592953848033726,1.944,0.61,0.152
1592953848535255,1.944,0.61,0.152
1592953849036794,1.868,0.61,0.152
1592953849538299,1.83,0.61,0.152
1592953850039798,1.83,0.61,0.152
1592953850541308,1.792,0.534,0.152
