TimeStamp,Total Power,CPU Power,GPU Power
1592951221256841,1.41,0.305,0.152
1592951221760491,1.715,0.381,0.152
1592951222263070,1.753,0.381,0.152
1592951222765989,1.639,0.381,0.152
1592951223268863,1.525,0.457,0.152
1592951223771767,1.525,0.457,0.152
1592951224274473,1.486,0.457,0.152
1592951224783590,1.486,0.457,0.152
1592951225286299,1.486,0.457,0.152
1592951225789215,1.486,0.457,0.152
1592951226292046,1.525,0.457,0.152
1592951226794889,1.486,0.457,0.152
1592951227298105,1.486,0.457,0.152
1592951227800889,1.486,0.457,0.152
1592951228303720,1.448,0.457,0.152
1592951228806513,1.486,0.457,0.152
1592951229309336,1.486,0.457,0.152
1592951229815134,1.486,0.457,0.152
1592951230317898,1.486,0.457,0.152
1592951230820868,1.486,0.457,0.152
1592951231323807,1.486,0.457,0.152
1592951231826576,1.486,0.457,0.152
1592951232329289,1.525,0.457,0.152
1592951232832229,1.486,0.457,0.152
1592951233334979,1.448,0.457,0.152
1592951233837860,1.448,0.457,0.152
1592951234340783,1.486,0.457,0.152
1592951234846869,1.486,0.457,0.152
1592951235349770,1.486,0.457,0.152
1592951235853007,1.486,0.457,0.152
1592951236355805,1.486,0.457,0.152
1592951236858885,1.486,0.457,0.152
1592951237361685,1.486,0.457,0.152
1592951237864530,1.448,0.381,0.152
1592951238367228,1.296,0.305,0.152
