timestamp	VIRTUAL_SCALING	CPU0_F	CPU1_F	CPU2_F	CPU3_F	CPU4_F	CPU5_F	GPU_FREQ	CPU_GOVERNOR	EMC_F	TEMP0	TEMP1	TEMP2	TEMP3	TEMP4	TEMP5	TEMP6	TEMP7
1592953501209864236	1	652	1267	1267	652	652	652	114750000	performance	665	29	29	27	29	26	25	100	28
1592953501614588822 	0	653	1245	1252	653	653	653	114750000	performance	665	29	29	27	29	26	25	100	28
1592953503634582522	1	652	1267	1267	652	652	652	114750000	performance	665	29	29	27	29	26	25	100	28
1592953504138749496 	0	652	1267	1267	652	653	652	114750000	performance	665	29	29	27	29	26	25	100	28
1592953506154317678	1	652	1267	1267	652	652	652	114750000	performance	665	29	29	27	29	26	25	100	28
1592953506671154548 	0	652	1245	1237	652	652	653	114750000	performance	665	29	29	27	29	26	25	100	28
