TimeStamp,Total Power,CPU Power,GPU Power
1593981181256164,1.639,0.533,0.152
1593981181757905,1.677,0.533,0.152
1593981182259743,1.448,0.381,0.152
1593981182761515,1.563,0.533,0.152
1593981183263355,1.639,0.533,0.152
1593981183765097,1.639,0.533,0.152
1593981184266788,1.41,0.305,0.152
1593981184771854,1.601,0.457,0.152
1593981185273543,1.677,0.533,0.152
1593981185775254,1.677,0.61,0.152
1593981186277042,1.677,0.61,0.152
1593981186778768,1.677,0.61,0.152
1593981187280465,1.677,0.61,0.152
1593981187782010,1.639,0.61,0.152
1593981188283631,1.677,0.61,0.152
1593981188786467,1.715,0.61,0.152
1593981189288156,1.676,0.61,0.152
1593981189793176,1.715,0.61,0.152
1593981190294951,1.715,0.61,0.152
1593981190796757,1.791,0.61,0.152
1593981191298529,1.715,0.61,0.152
1593981191800639,1.791,0.61,0.152
1593981192302401,1.677,0.61,0.152
1593981192804156,1.677,0.61,0.152
1593981193305852,1.715,0.61,0.152
1593981193807612,1.677,0.61,0.152
1593981194309296,1.677,0.61,0.152
1593981194813650,1.677,0.61,0.152
1593981195315343,1.677,0.61,0.152
1593981195821228,1.677,0.61,0.152
1593981196322881,1.677,0.61,0.152
1593981196824605,1.753,0.61,0.152
1593981197326290,1.677,0.61,0.152
1593981197827964,1.715,0.61,0.152
1593981198329665,1.715,0.61,0.152
1593981198831405,1.677,0.61,0.152
1593981199333160,1.715,0.61,0.152
1593981199837751,1.715,0.61,0.152
1593981200343231,1.677,0.61,0.152
1593981200845037,1.715,0.61,0.152
1593981201346765,1.676,0.61,0.152
1593981201848465,1.677,0.61,0.152
1593981202350170,1.715,0.61,0.152
1593981202851917,1.677,0.61,0.152
1593981203353794,1.943,0.61,0.152
1593981203855647,2.058,0.61,0.152
1593981204357366,2.134,0.61,0.152
1593981204861714,1.905,0.61,0.152
1593981205363454,1.753,0.61,0.152
1593981205865218,1.753,0.61,0.152
1593981206366899,1.715,0.61,0.152
1593981206868530,1.677,0.61,0.152
1593981207370149,1.715,0.61,0.152
1593981207871935,1.677,0.61,0.152
1593981208373678,1.677,0.61,0.152
1593981208875414,1.791,0.61,0.152
1593981209377210,1.715,0.61,0.152
1593981209881950,1.715,0.61,0.152
1593981210383665,1.676,0.61,0.152
1593981210885406,1.677,0.61,0.152
1593981211387405,1.791,0.61,0.152
1593981211889164,1.715,0.61,0.152
1593981212390917,1.677,0.61,0.152
1593981212892587,1.677,0.61,0.152
1593981213394329,1.677,0.61,0.152
1593981213896162,1.677,0.61,0.152
1593981214397901,1.715,0.61,0.152
1593981214902658,1.753,0.61,0.152
1593981215404399,1.715,0.61,0.152
1593981215906206,1.753,0.61,0.152
1593981216407981,1.715,0.61,0.152
1593981216909671,1.677,0.61,0.152
1593981217411436,1.639,0.61,0.152
1593981217913152,1.676,0.61,0.152
1593981218414865,1.677,0.61,0.152
1593981218916597,1.753,0.61,0.152
1593981219418317,1.715,0.61,0.152
1593981219922723,1.677,0.61,0.152
1593981220424488,1.715,0.61,0.152
1593981220926184,1.677,0.61,0.152
1593981221427926,1.753,0.61,0.152
1593981221929635,1.715,0.61,0.152
1593981222431367,1.677,0.61,0.152
1593981222933045,1.677,0.61,0.152
1593981223434747,1.677,0.61,0.152
1593981223936573,1.677,0.61,0.152
1593981224438440,1.677,0.61,0.152
1593981224942803,1.753,0.61,0.152
1593981225444626,1.677,0.61,0.152
1593981225946340,1.715,0.61,0.152
1593981226449647,1.677,0.61,0.152
1593981226951386,1.753,0.61,0.152
1593981227453101,1.715,0.61,0.152
1593981227954858,1.677,0.61,0.152
1593981228456611,1.677,0.61,0.152
1593981228958312,1.677,0.61,0.152
1593981229460080,1.677,0.61,0.152
1593981229964386,1.753,0.61,0.152
1593981230466087,1.677,0.61,0.152
1593981230968027,1.715,0.61,0.152
1593981231469707,1.715,0.61,0.152
1593981231971412,1.677,0.61,0.152
1593981232473031,1.639,0.61,0.152
1593981232974671,1.677,0.61,0.152
1593981233476526,1.677,0.61,0.152
1593981233978274,1.677,0.61,0.152
1593981234480057,1.791,0.61,0.152
1593981234984419,1.676,0.61,0.152
1593981235486158,1.753,0.61,0.152
1593981235987928,1.715,0.61,0.152
1593981236489658,1.676,0.61,0.152
1593981236991373,1.677,0.61,0.152
1593981237493088,1.639,0.61,0.152
1593981237994762,1.677,0.61,0.152
1593981238498905,1.715,0.61,0.152
1593981239000662,1.715,0.61,0.152
1593981239502357,1.715,0.61,0.152
1593981240007425,1.715,0.61,0.152
1593981240509407,1.715,0.61,0.152
1593981241011210,1.715,0.61,0.152
1593981241514426,1.677,0.61,0.152
1593981242016379,1.753,0.61,0.152
1593981242518093,1.677,0.61,0.152
1593981243019864,1.715,0.61,0.152
1593981243521605,1.676,0.61,0.152
1593981244023435,1.676,0.61,0.152
1593981244525155,1.677,0.61,0.152
1593981245029431,1.715,0.61,0.152
1593981245531057,1.639,0.61,0.152
1593981246032774,1.676,0.61,0.152
1593981246534553,1.677,0.61,0.152
1593981247036239,1.715,0.61,0.152
1593981247537871,1.677,0.61,0.152
1593981248039573,1.639,0.61,0.152
1593981248541642,1.715,0.61,0.152
1593981249045774,1.677,0.61,0.152
1593981249547687,1.753,0.61,0.152
1593981250050739,1.715,0.61,0.152
1593981250552511,1.677,0.61,0.152
1593981251054124,1.639,0.61,0.152
1593981251555838,1.715,0.61,0.152
1593981252057643,1.715,0.61,0.152
1593981252559394,1.677,0.61,0.152
1593981253061082,1.715,0.61,0.152
1593981253562806,1.676,0.61,0.152
1593981254064713,1.677,0.61,0.152
1593981254569014,1.753,0.61,0.152
1593981255071712,1.715,0.61,0.152
1593981255573422,1.677,0.61,0.152
1593981256075118,1.715,0.61,0.152
1593981256576814,1.677,0.61,0.152
1593981257078552,1.715,0.61,0.152
1593981257580383,1.715,0.61,0.152
1593981258082143,1.715,0.61,0.152
1593981258583853,1.677,0.61,0.152
1593981259085595,1.677,0.61,0.152
1593981259587688,1.715,0.61,0.152
1593981260091941,1.715,0.61,0.152
1593981260593659,1.677,0.61,0.152
1593981261095498,1.677,0.61,0.152
1593981261597195,1.715,0.61,0.152
1593981262098890,1.677,0.61,0.152
1593981262600773,1.715,0.61,0.152
1593981263102478,1.676,0.61,0.152
1593981263604385,1.715,0.61,0.152
1593981264106158,1.715,0.61,0.152
1593981264607947,1.753,0.61,0.152
1593981265112497,1.677,0.61,0.152
1593981265614064,1.677,0.61,0.152
1593981266115904,1.791,0.61,0.152
1593981266617670,2.096,0.61,0.152
1593981267119384,2.096,0.61,0.152
1593981267621081,2.058,0.61,0.152
1593981268122826,1.867,0.533,0.152
1593981268624594,1.753,0.61,0.152
1593981269126371,1.715,0.61,0.152
1593981269628056,1.715,0.61,0.152
1593981270132512,1.677,0.61,0.152
1593981270634262,1.753,0.61,0.152
1593981271136295,1.715,0.61,0.152
1593981271638028,1.715,0.61,0.152
1593981272139859,1.715,0.61,0.152
1593981272641598,1.715,0.61,0.152
1593981273143240,1.677,0.61,0.152
1593981273644887,1.677,0.61,0.152
1593981274146616,1.715,0.61,0.152
1593981274648357,1.753,0.61,0.152
1593981275153003,1.677,0.61,0.152
1593981275654728,1.639,0.61,0.152
1593981276156559,1.715,0.61,0.152
1593981276658313,1.676,0.61,0.152
1593981277160393,1.715,0.61,0.152
1593981277662097,1.715,0.61,0.152
1593981278163838,1.677,0.61,0.152
1593981278665569,1.753,0.61,0.152
1593981279167267,1.677,0.61,0.152
1593981279669244,1.715,0.61,0.152
1593981280173849,1.753,0.61,0.152
1593981280675620,1.677,0.61,0.152
1593981281177346,1.677,0.61,0.152
1593981281679066,1.715,0.61,0.152
1593981282181020,1.677,0.61,0.152
1593981282682692,1.677,0.61,0.152
1593981283184386,1.677,0.61,0.152
1593981283686020,1.677,0.61,0.152
1593981284187638,1.676,0.61,0.152
1593981284689398,1.677,0.61,0.152
1593981285193684,1.715,0.61,0.152
1593981285695296,1.677,0.61,0.152
1593981286196969,1.639,0.61,0.152
1593981286698694,1.715,0.61,0.152
1593981287200388,1.715,0.61,0.152
1593981287702080,1.677,0.61,0.152
1593981288203672,1.639,0.61,0.152
1593981288705291,1.715,0.61,0.152
1593981289207061,1.677,0.61,0.152
1593981289708920,1.677,0.61,0.152
1593981290213218,1.715,0.61,0.152
1593981290714925,1.715,0.61,0.152
1593981291216590,1.677,0.61,0.152
1593981291718275,1.715,0.61,0.152
1593981292220055,1.677,0.61,0.152
1593981292721701,1.677,0.61,0.152
1593981293223429,1.677,0.61,0.152
1593981293725027,1.677,0.61,0.152
1593981294226652,1.677,0.61,0.152
1593981294728700,1.677,0.61,0.152
1593981295233152,1.677,0.61,0.152
1593981295734762,1.676,0.61,0.152
1593981296236519,1.677,0.61,0.152
1593981296738783,1.676,0.61,0.152
1593981297241385,1.753,0.61,0.152
1593981297743138,1.676,0.61,0.152
1593981298244911,1.753,0.61,0.152
1593981298746663,1.677,0.61,0.152
1593981299248522,1.715,0.61,0.152
1593981299750232,1.715,0.61,0.152
1593981300254512,1.677,0.61,0.152
1593981300756249,1.638,0.61,0.152
1593981301258003,1.715,0.61,0.152
1593981301759889,1.677,0.61,0.152
1593981302261603,1.676,0.61,0.152
1593981302763300,1.715,0.61,0.152
1593981303265031,1.677,0.61,0.152
1593981303766626,1.639,0.61,0.152
1593981304270509,1.753,0.61,0.152
1593981304772395,1.715,0.61,0.152
1593981305276792,1.792,0.61,0.152
1593981305778491,1.715,0.61,0.152
1593981306280340,1.677,0.61,0.152
1593981306782094,1.715,0.61,0.152
1593981307283877,1.677,0.61,0.152
1593981307785753,1.753,0.61,0.152
1593981308287471,1.677,0.61,0.152
1593981308789201,1.677,0.61,0.152
1593981309290914,1.715,0.61,0.152
1593981309792628,1.715,0.61,0.152
1593981310297096,1.715,0.61,0.152
1593981310798772,1.676,0.61,0.152
1593981311300497,1.715,0.61,0.152
1593981311802215,1.677,0.61,0.152
1593981312303946,1.676,0.61,0.152
1593981312805663,1.753,0.61,0.152
1593981313307381,1.677,0.61,0.152
1593981313808976,1.677,0.61,0.152
1593981314310574,1.677,0.61,0.152
1593981314812401,1.715,0.61,0.152
1593981315316787,1.677,0.61,0.152
1593981315818439,1.677,0.61,0.152
1593981316320320,1.677,0.61,0.152
1593981316822036,1.715,0.61,0.152
1593981317323836,1.676,0.61,0.152
1593981317825527,1.676,0.61,0.152
1593981318327273,1.715,0.61,0.152
1593981318828936,1.677,0.61,0.152
1593981319330588,1.677,0.61,0.152
1593981319832377,1.677,0.61,0.152
1593981320336619,1.753,0.61,0.152
1593981320838304,1.676,0.61,0.152
1593981321340145,1.676,0.61,0.152
1593981321841884,1.715,0.61,0.152
1593981322343661,1.715,0.61,0.152
1593981322848401,1.753,0.61,0.152
1593981323350118,1.715,0.61,0.152
1593981323851832,1.677,0.61,0.152
1593981324353652,1.639,0.61,0.152
1593981324855419,1.715,0.61,0.152
1593981325359930,1.715,0.61,0.152
1593981325861608,1.677,0.61,0.152
1593981326363415,1.638,0.61,0.152
1593981326865033,1.676,0.61,0.152
1593981327366632,1.677,0.61,0.152
1593981327868494,1.677,0.61,0.152
1593981328370288,1.677,0.61,0.152
1593981328871997,1.677,0.61,0.152
1593981329373558,1.905,0.61,0.152
1593981329877448,2.058,0.61,0.152
1593981330382013,2.134,0.61,0.152
1593981330888978,1.943,0.61,0.152
1593981331390682,1.753,0.61,0.152
1593981331892454,1.715,0.61,0.152
1593981332394274,1.753,0.61,0.152
1593981332896050,1.715,0.61,0.152
1593981333397787,1.677,0.61,0.152
1593981333899546,1.677,0.61,0.152
1593981334401226,1.715,0.61,0.152
1593981334902942,1.677,0.61,0.152
1593981335407289,1.677,0.61,0.152
1593981335909071,1.753,0.61,0.152
1593981336410797,1.677,0.61,0.152
1593981336912479,1.676,0.61,0.152
1593981337414185,1.639,0.61,0.152
1593981337915949,1.753,0.61,0.152
1593981338418871,1.677,0.61,0.152
1593981338921033,1.676,0.61,0.152
1593981339422749,1.715,0.61,0.152
1593981339924369,1.677,0.61,0.152
1593981340428826,1.676,0.61,0.152
1593981340930519,1.677,0.61,0.152
1593981341432283,1.715,0.61,0.152
1593981341934133,1.677,0.61,0.152
1593981342435837,1.677,0.61,0.152
1593981342937548,1.715,0.61,0.152
1593981343439273,1.715,0.61,0.152
1593981343941044,1.677,0.61,0.152
1593981344442804,1.677,0.61,0.152
1593981344944532,1.715,0.61,0.152
1593981345448784,1.677,0.61,0.152
1593981345950462,1.676,0.61,0.152
1593981346452295,1.753,0.61,0.152
1593981346953990,1.676,0.61,0.152
1593981347455783,1.715,0.61,0.152
1593981347957503,1.715,0.61,0.152
1593981348459277,1.715,0.61,0.152
1593981348961079,1.715,0.61,0.152
1593981349462778,1.677,0.61,0.152
1593981349964451,1.677,0.61,0.152
1593981350468894,1.676,0.61,0.152
1593981350970631,1.676,0.61,0.152
1593981351472325,1.715,0.61,0.152
1593981351973904,1.677,0.61,0.152
1593981352475576,1.677,0.61,0.152
1593981352977251,1.677,0.61,0.152
1593981353478919,1.677,0.61,0.152
1593981353980606,1.677,0.61,0.152
1593981354482302,1.676,0.61,0.152
1593981354984031,1.676,0.61,0.152
1593981355488503,1.677,0.61,0.152
1593981355990239,1.677,0.61,0.152
1593981356492087,1.715,0.61,0.152
1593981356993794,1.677,0.61,0.152
1593981357495448,1.638,0.61,0.152
1593981357997120,1.639,0.61,0.152
1593981358498835,1.715,0.61,0.152
1593981359000675,1.676,0.61,0.152
1593981359502321,1.677,0.61,0.152
1593981360004206,1.715,0.61,0.152
1593981360508557,1.677,0.61,0.152
1593981361010252,1.677,0.61,0.152
1593981361512234,1.676,0.61,0.152
1593981362013982,1.715,0.61,0.152
1593981362515636,1.677,0.61,0.152
1593981363017244,1.677,0.61,0.152
1593981363519100,1.715,0.61,0.152
1593981364020847,1.676,0.61,0.152
1593981364522549,1.677,0.61,0.152
1593981365024419,1.677,0.61,0.152
1593981365528740,1.715,0.61,0.152
1593981366030455,1.677,0.61,0.152
1593981366532101,1.677,0.61,0.152
1593981367033856,1.715,0.61,0.152
1593981367535622,1.677,0.61,0.152
1593981368037226,1.677,0.61,0.152
1593981368538883,1.677,0.61,0.152
1593981369040629,1.715,0.61,0.152
1593981369542308,1.677,0.61,0.152
1593981370043988,1.676,0.61,0.152
1593981370548477,1.715,0.61,0.152
1593981371050092,1.677,0.61,0.152
1593981371551797,1.677,0.61,0.152
1593981372053546,1.677,0.61,0.152
1593981372555241,1.715,0.61,0.152
1593981373057002,1.677,0.61,0.152
1593981373558746,1.677,0.61,0.152
1593981374060535,1.715,0.61,0.152
1593981374562247,1.676,0.61,0.152
1593981375064855,1.753,0.61,0.152
1593981375569253,1.715,0.61,0.152
1593981376070916,1.677,0.61,0.152
1593981376572605,1.715,0.61,0.152
1593981377074307,1.676,0.61,0.152
1593981377576136,1.677,0.61,0.152
1593981378077890,1.753,0.61,0.152
1593981378579608,1.715,0.61,0.152
1593981379081323,1.677,0.61,0.152
1593981379583259,1.715,0.61,0.152
1593981380085045,1.676,0.61,0.152
1593981380591465,1.715,0.61,0.152
1593981381093206,1.715,0.61,0.152
1593981381594946,1.715,0.61,0.152
1593981382096764,1.677,0.61,0.152
1593981382598855,1.676,0.61,0.152
1593981383100694,1.753,0.61,0.152
1593981383602399,1.677,0.61,0.152
1593981384104037,1.677,0.61,0.152
1593981384605714,1.676,0.61,0.152
1593981385107452,1.715,0.61,0.152
1593981385609148,1.677,0.61,0.152
1593981386110837,1.677,0.61,0.152
1593981386612606,1.715,0.61,0.152
1593981387116089,1.677,0.61,0.152
1593981387617819,1.676,0.61,0.152
1593981388119579,1.677,0.61,0.152
1593981388621273,1.677,0.61,0.152
1593981389122960,1.639,0.61,0.152
1593981389624733,1.676,0.61,0.152
1593981390126434,1.791,0.61,0.152
1593981390628275,1.715,0.61,0.152
1593981391129977,1.753,0.61,0.152
1593981391631777,1.677,0.61,0.152
1593981392133431,1.829,0.61,0.152
1593981392635100,2.058,0.61,0.152
1593981393136885,2.096,0.61,0.152
1593981393638619,2.058,0.61,0.152
1593981394141719,1.791,0.533,0.152
1593981394643450,1.753,0.61,0.152
1593981395145151,1.677,0.61,0.152
1593981395649362,1.676,0.61,0.152
1593981396151125,1.753,0.61,0.152
1593981396652696,1.677,0.61,0.152
1593981397154284,1.639,0.61,0.152
1593981397655908,1.677,0.61,0.152
1593981398159815,1.715,0.61,0.152
1593981398661515,1.677,0.61,0.152
1593981399163272,1.677,0.61,0.152
1593981399664931,1.677,0.61,0.152
1593981400166600,1.639,0.61,0.152
1593981400670955,1.677,0.61,0.152
1593981401172841,1.753,0.61,0.152
1593981401674574,1.715,0.61,0.152
1593981402176352,1.753,0.61,0.152
1593981402678103,1.715,0.61,0.152
1593981403179913,1.753,0.61,0.152
1593981403681599,1.715,0.61,0.152
1593981404183376,1.677,0.61,0.152
1593981404685065,1.715,0.61,0.152
1593981405186788,1.677,0.61,0.152
1593981405691103,1.676,0.61,0.152
1593981406192861,1.677,0.61,0.152
1593981406694625,1.715,0.61,0.152
1593981407196248,1.676,0.61,0.152
1593981407697929,1.638,0.61,0.152
1593981408199714,1.715,0.61,0.152
1593981408701483,1.715,0.61,0.152
1593981409203210,1.677,0.61,0.152
1593981409704950,1.715,0.61,0.152
1593981410206758,1.677,0.61,0.152
1593981410711156,1.677,0.61,0.152
1593981411212936,1.676,0.61,0.152
1593981411714653,1.715,0.61,0.152
1593981412216405,1.677,0.61,0.152
1593981412718084,1.677,0.61,0.152
1593981413219867,1.677,0.61,0.152
1593981413721557,1.715,0.61,0.152
1593981414223162,1.676,0.61,0.152
1593981414724826,1.677,0.61,0.152
1593981415226528,1.715,0.61,0.152
1593981415730907,1.677,0.61,0.152
1593981416232642,1.677,0.61,0.152
1593981416734398,1.676,0.61,0.152
1593981417236149,1.715,0.61,0.152
1593981417737911,1.791,0.61,0.152
1593981418239658,1.715,0.61,0.152
1593981418741412,1.677,0.61,0.152
1593981419243172,1.753,0.61,0.152
1593981419744963,1.677,0.61,0.152
1593981420248936,1.676,0.61,0.152
1593981420754053,1.715,0.61,0.152
1593981421255921,1.677,0.61,0.152
1593981421757611,1.677,0.61,0.152
1593981422259344,1.715,0.61,0.152
1593981422761099,1.677,0.61,0.152
1593981423262912,1.677,0.61,0.152
1593981423764770,1.715,0.61,0.152
1593981424266501,1.715,0.61,0.152
1593981424768125,1.677,0.61,0.152
1593981425269750,1.715,0.61,0.152
1593981425774369,1.715,0.61,0.152
1593981426276136,1.677,0.61,0.152
1593981426777940,1.715,0.61,0.152
1593981427279706,1.677,0.61,0.152
1593981427781454,1.677,0.61,0.152
1593981428283214,1.753,0.61,0.152
1593981428785024,1.715,0.61,0.152
1593981429286854,1.677,0.61,0.152
1593981429788646,1.715,0.61,0.152
1593981430290401,1.792,0.686,0.152
1593981430794888,1.715,0.61,0.152
1593981431296633,1.676,0.61,0.152
1593981431798303,1.715,0.61,0.152
1593981432299923,1.677,0.61,0.152
1593981432801572,1.677,0.61,0.152
1593981433303287,1.715,0.61,0.152
1593981433805098,1.715,0.61,0.152
1593981434306791,1.677,0.61,0.152
1593981434808499,1.677,0.61,0.152
1593981435310271,1.715,0.61,0.152
1593981435814599,1.715,0.61,0.152
1593981436319870,1.677,0.61,0.152
1593981436821620,1.753,0.61,0.152
1593981437323346,1.676,0.61,0.152
1593981437828816,1.715,0.61,0.152
1593981438330621,1.753,0.61,0.152
1593981438832347,1.715,0.61,0.152
1593981439334034,1.677,0.61,0.152
1593981439835823,1.715,0.61,0.152
1593981440337445,1.677,0.61,0.152
1593981440841667,1.715,0.61,0.152
1593981441343429,1.715,0.61,0.152
1593981441845246,1.677,0.61,0.152
1593981442346984,1.753,0.61,0.152
1593981442848797,1.715,0.61,0.152
1593981443350505,1.715,0.61,0.152
1593981443852291,1.715,0.61,0.152
1593981444353952,1.677,0.61,0.152
1593981444855645,1.677,0.61,0.152
1593981445357365,1.715,0.61,0.152
1593981445861805,1.677,0.61,0.152
1593981446363703,1.677,0.61,0.152
1593981446865379,1.753,0.61,0.152
1593981447367025,1.715,0.61,0.152
1593981447868775,1.677,0.61,0.152
1593981448370547,1.677,0.61,0.152
1593981448872463,1.677,0.61,0.152
1593981449374208,1.676,0.61,0.152
1593981449875923,1.715,0.61,0.152
1593981450377522,1.677,0.61,0.152
1593981450882006,1.639,0.61,0.152
1593981451384605,1.715,0.61,0.152
1593981451886310,1.715,0.61,0.152
1593981452388019,1.677,0.61,0.152
1593981452889616,1.677,0.61,0.152
1593981453391237,1.715,0.61,0.152
1593981453892998,1.715,0.61,0.152
1593981454394650,1.677,0.61,0.152
1593981454896673,1.715,0.61,0.152
1593981455398400,1.981,0.61,0.152
1593981455902696,2.172,0.61,0.152
1593981456404435,2.134,0.61,0.152
1593981456906227,1.981,0.61,0.152
1593981457407940,1.791,0.61,0.152
1593981457909678,1.715,0.61,0.152
1593981458411257,1.639,0.61,0.152
1593981458913396,1.753,0.61,0.152
1593981459415124,1.676,0.61,0.152
1593981459916825,1.753,0.61,0.152
1593981460418626,1.715,0.61,0.152
1593981460920448,1.715,0.61,0.152
1593981461422184,1.791,0.61,0.152
1593981461923892,1.715,0.61,0.152
1593981462425622,1.753,0.686,0.152
1593981462927512,1.791,0.686,0.152
1593981463429229,1.715,0.61,0.152
1593981463931005,1.753,0.61,0.152
1593981464432922,1.677,0.61,0.152
1593981464934758,1.715,0.61,0.152
1593981465437159,1.791,0.61,0.152
1593981465938875,1.715,0.61,0.152
1593981466440641,1.753,0.61,0.152
1593981466942382,1.715,0.61,0.152
1593981467444118,1.715,0.61,0.152
1593981467945898,1.715,0.61,0.152
1593981468447600,1.676,0.61,0.152
1593981468949319,1.715,0.61,0.152
1593981469450992,1.677,0.61,0.152
1593981469952728,1.677,0.61,0.152
1593981470454659,1.753,0.61,0.152
1593981470959591,1.753,0.61,0.152
1593981471461271,1.677,0.61,0.152
1593981471962972,1.715,0.61,0.152
1593981472464713,1.677,0.61,0.152
1593981472966426,1.715,0.61,0.152
1593981473468083,1.715,0.61,0.152
1593981473969843,1.677,0.61,0.152
1593981474471623,1.677,0.61,0.152
1593981474973414,1.753,0.61,0.152
1593981475475147,1.715,0.61,0.152
1593981475981777,1.715,0.61,0.152
1593981476483442,1.715,0.61,0.152
1593981476989219,1.676,0.61,0.152
1593981477490924,1.753,0.61,0.152
1593981477992617,1.715,0.61,0.152
1593981478494401,1.715,0.61,0.152
1593981478996233,1.753,0.686,0.152
1593981479498009,1.715,0.61,0.152
1593981479999849,1.753,0.61,0.152
1593981480501585,1.715,0.61,0.152
1593981481005737,1.677,0.61,0.152
1593981481507796,1.753,0.61,0.152
1593981482009560,1.715,0.61,0.152
1593981482511249,1.677,0.61,0.152
1593981483013053,1.715,0.61,0.152
1593981483514693,1.677,0.61,0.152
1593981484016536,1.676,0.61,0.152
1593981484518237,1.753,0.61,0.152
1593981485019998,1.715,0.61,0.152
1593981485521692,1.715,0.61,0.152
1593981486026277,1.715,0.61,0.152
1593981486528144,1.753,0.61,0.152
1593981487029888,1.753,0.61,0.152
1593981487531656,1.677,0.61,0.152
1593981488033361,1.715,0.61,0.152
1593981488535088,1.676,0.61,0.152
1593981489036781,1.715,0.61,0.152
1593981489538563,1.753,0.61,0.152
1593981490040288,1.715,0.61,0.152
1593981490541986,1.677,0.61,0.152
1593981491046347,1.715,0.61,0.152
1593981491548077,1.715,0.61,0.152
1593981492049732,1.715,0.61,0.152
1593981492551405,1.677,0.61,0.152
1593981493052931,1.677,0.61,0.152
1593981493554715,1.753,0.61,0.152
1593981494056442,1.715,0.61,0.152
1593981494558261,1.753,0.61,0.152
1593981495060090,1.715,0.61,0.152
1593981495561871,1.715,0.61,0.152
1593981496066341,1.791,0.61,0.152
1593981496568064,1.715,0.61,0.152
1593981497069803,1.715,0.61,0.152
1593981497571739,1.676,0.61,0.152
1593981498073468,1.753,0.61,0.152
1593981498575190,1.715,0.61,0.152
1593981499077035,1.792,0.686,0.152
1593981499578799,1.715,0.61,0.152
1593981500081406,1.715,0.61,0.152
1593981500583269,1.753,0.61,0.152
1593981501088125,1.753,0.61,0.152
1593981501589854,1.677,0.61,0.152
1593981502091614,1.715,0.61,0.152
1593981502593381,1.791,0.686,0.152
1593981503095131,1.715,0.61,0.152
1593981503597019,1.753,0.61,0.152
1593981504098769,1.677,0.61,0.152
1593981504600685,1.753,0.61,0.152
1593981505102598,1.753,0.61,0.152
1593981505604603,1.715,0.61,0.152
1593981506109167,1.753,0.686,0.152
1593981506610856,1.677,0.61,0.152
1593981507112632,1.753,0.61,0.152
1593981507614411,1.715,0.61,0.152
1593981508116123,1.677,0.61,0.152
1593981508617848,1.676,0.61,0.152
1593981509119596,1.676,0.61,0.152
1593981509621272,1.677,0.61,0.152
1593981510123041,1.753,0.61,0.152
1593981510624770,1.677,0.61,0.152
1593981511129041,1.715,0.61,0.152
1593981511630788,1.715,0.61,0.152
1593981512132487,1.677,0.61,0.152
1593981512634169,1.676,0.61,0.152
1593981513135812,1.676,0.61,0.152
1593981513637453,1.677,0.61,0.152
1593981514141332,1.677,0.61,0.152
1593981514643094,1.753,0.61,0.152
1593981515144871,1.715,0.61,0.152
1593981515646678,1.715,0.61,0.152
1593981516150874,1.677,0.61,0.152
1593981516652621,1.677,0.61,0.152
1593981517154388,1.753,0.61,0.152
1593981517656178,1.715,0.61,0.152
1593981518157902,1.867,0.61,0.152
1593981518659702,2.019,0.61,0.152
1593981519161412,2.096,0.61,0.152
1593981519664225,2.019,0.61,0.152
1593981520166434,1.791,0.61,0.152
1593981520668132,1.677,0.61,0.152
1593981521172656,1.715,0.61,0.152
1593981521674360,1.715,0.61,0.152
1593981522176115,1.676,0.61,0.152
1593981522677846,1.753,0.61,0.152
1593981523179706,1.791,0.686,0.152
1593981523681842,1.715,0.61,0.152
1593981524183730,1.715,0.61,0.152
1593981524685436,1.677,0.61,0.152
1593981525187175,1.715,0.61,0.152
1593981525689053,1.715,0.61,0.152
1593981526193391,1.677,0.61,0.152
1593981526695110,1.715,0.61,0.152
1593981527196695,1.677,0.61,0.152
1593981527698299,1.676,0.61,0.152
1593981528200209,1.753,0.61,0.152
1593981528701940,1.677,0.61,0.152
1593981529203661,1.677,0.61,0.152
1593981529705339,1.677,0.61,0.152
1593981530207016,1.677,0.61,0.152
1593981530709039,1.715,0.61,0.152
1593981531213415,1.715,0.61,0.152
1593981531715110,1.677,0.61,0.152
1593981532216956,1.715,0.61,0.152
1593981532718688,1.715,0.61,0.152
1593981533220497,1.791,0.686,0.152
1593981533722221,1.715,0.61,0.152
1593981534224063,1.753,0.61,0.152
1593981534725749,1.715,0.61,0.152
1593981535227477,1.753,0.61,0.152
1593981535729149,1.677,0.61,0.152
1593981536233314,1.715,0.61,0.152
1593981536735000,1.639,0.61,0.152
1593981537236805,1.676,0.61,0.152
1593981537738515,1.715,0.61,0.152
1593981538240389,1.753,0.61,0.152
1593981538742074,1.715,0.61,0.152
1593981539243850,1.677,0.61,0.152
1593981539745599,1.753,0.61,0.152
1593981540247472,1.715,0.61,0.152
1593981540749348,1.753,0.61,0.152
1593981541251052,1.677,0.61,0.152
1593981541752888,1.715,0.61,0.152
1593981542254583,1.753,0.61,0.152
1593981542756362,1.677,0.61,0.152
1593981543258133,1.753,0.61,0.152
1593981543760150,1.677,0.61,0.152
1593981544261856,1.753,0.61,0.152
1593981544763646,1.677,0.61,0.152
1593981545265338,1.676,0.61,0.152
1593981545766980,1.677,0.61,0.152
1593981546271106,1.677,0.61,0.152
1593981546776879,1.791,0.61,0.152
1593981547278625,1.715,0.61,0.152
1593981547780404,1.677,0.61,0.152
1593981548282165,1.715,0.61,0.152
1593981548784100,1.677,0.61,0.152
1593981549285793,1.791,0.61,0.152
1593981549787507,1.715,0.61,0.152
1593981550289206,1.715,0.61,0.152
1593981550790871,1.715,0.61,0.152
1593981551295475,1.715,0.61,0.152
1593981551797197,1.753,0.61,0.152
1593981552298920,1.715,0.61,0.152
1593981552800729,1.753,0.61,0.152
1593981553302520,1.715,0.61,0.152
1593981553804330,1.791,0.686,0.152
1593981554306142,1.791,0.61,0.152
1593981554807866,1.715,0.61,0.152
1593981555309671,1.791,0.686,0.152
1593981555811606,1.715,0.61,0.152
1593981556316136,1.715,0.61,0.152
1593981556817903,1.791,0.61,0.152
1593981557319673,1.677,0.61,0.152
1593981557821433,1.715,0.61,0.152
1593981558323181,1.753,0.61,0.152
1593981558825098,1.677,0.61,0.152
1593981559326787,1.677,0.61,0.152
1593981559828509,1.677,0.61,0.152
1593981560330212,1.677,0.61,0.152
1593981560832064,1.677,0.61,0.152
1593981561333804,1.715,0.61,0.152
1593981561835485,1.677,0.61,0.152
1593981562337362,1.753,0.61,0.152
1593981562840935,1.677,0.61,0.152
1593981563342660,1.753,0.686,0.152
1593981563844340,1.677,0.61,0.152
1593981564346084,1.715,0.61,0.152
1593981564847942,1.715,0.61,0.152
1593981565349676,1.715,0.61,0.152
1593981565851425,1.677,0.61,0.152
1593981566355835,1.676,0.61,0.152
1593981566857733,1.677,0.61,0.152
1593981567359474,1.753,0.61,0.152
1593981567861170,1.715,0.61,0.152
1593981568362882,1.753,0.61,0.152
1593981568864599,1.715,0.61,0.152
1593981569367143,1.791,0.686,0.152
1593981569869014,1.715,0.61,0.152
1593981570376837,1.715,0.61,0.152
1593981570878533,1.715,0.61,0.152
1593981571384880,1.715,0.61,0.152
1593981571886643,1.791,0.61,0.152
1593981572388451,1.715,0.61,0.152
1593981572890174,1.677,0.61,0.152
1593981573391906,1.715,0.61,0.152
1593981573893676,1.677,0.61,0.152
1593981574395451,1.715,0.61,0.152
1593981574897204,1.753,0.61,0.152
1593981575398906,1.677,0.61,0.152
1593981575900641,1.677,0.61,0.152
1593981576408355,1.715,0.61,0.152
1593981576910079,1.677,0.61,0.152
1593981577411812,1.677,0.61,0.152
1593981577913441,1.677,0.61,0.152
1593981578415050,1.676,0.61,0.152
1593981578916824,1.677,0.61,0.152
1593981579418549,1.753,0.61,0.152
1593981579920327,1.715,0.61,0.152
1593981580422112,1.715,0.61,0.152
1593981580923880,1.791,0.686,0.152
1593981581428205,2.019,0.61,0.152
1593981581929931,2.134,0.61,0.152
1593981582431714,2.096,0.61,0.152
1593981582933538,1.905,0.61,0.152
1593981583435282,1.829,0.61,0.152
1593981583937113,1.753,0.61,0.152
1593981584438906,1.715,0.61,0.152
1593981584940651,1.715,0.61,0.152
1593981585442382,1.791,0.686,0.152
1593981585944428,1.715,0.61,0.152
1593981586449159,1.905,0.61,0.152
1593981586955497,1.715,0.61,0.152
1593981587457190,1.715,0.61,0.152
1593981587958943,1.677,0.61,0.152
1593981588460870,1.677,0.61,0.152
1593981588962597,1.753,0.61,0.152
1593981589464334,1.677,0.61,0.152
1593981589965999,1.677,0.61,0.152
1593981590467810,1.715,0.61,0.152
1593981590969507,1.715,0.61,0.152
1593981591471208,1.715,0.61,0.152
1593981591972957,1.676,0.61,0.152
1593981592474706,1.677,0.61,0.152
1593981592976397,1.677,0.61,0.152
1593981593478179,1.715,0.61,0.152
1593981593979911,1.715,0.61,0.152
1593981594481682,1.715,0.61,0.152
1593981594983363,1.677,0.61,0.152
1593981595485099,1.677,0.61,0.152
1593981595986856,1.791,0.61,0.152
1593981596491457,1.715,0.61,0.152
1593981596993206,1.791,0.686,0.152
1593981597495161,1.753,0.61,0.152
1593981597997023,1.715,0.61,0.152
1593981598498761,1.753,0.61,0.152
1593981599000493,1.715,0.61,0.152
1593981599502271,1.791,0.686,0.152
1593981600004179,1.715,0.61,0.152
1593981600505905,1.791,0.61,0.152
1593981601007709,1.676,0.61,0.152
1593981601511991,1.639,0.61,0.152
1593981602013713,1.677,0.61,0.152
1593981602515468,1.715,0.61,0.152
1593981603017207,1.677,0.61,0.152
1593981603518925,1.715,0.61,0.152
1593981604020723,1.677,0.61,0.152
1593981604522469,1.677,0.61,0.152
1593981605024360,1.791,0.61,0.152
1593981605526053,1.715,0.61,0.152
1593981606027786,1.677,0.61,0.152
1593981606532046,1.677,0.61,0.152
1593981607033746,1.677,0.61,0.152
1593981607535432,1.715,0.61,0.152
1593981608037028,1.676,0.61,0.152
1593981608538826,1.639,0.61,0.152
1593981609040602,1.715,0.61,0.152
1593981609542323,1.715,0.61,0.152
1593981610044739,1.791,0.686,0.152
1593981610546471,1.715,0.61,0.152
1593981611048334,1.715,0.61,0.152
1593981611553090,1.791,0.61,0.152
1593981612054863,1.715,0.61,0.152
1593981612556604,1.715,0.61,0.152
1593981613058313,1.677,0.61,0.152
1593981613560063,1.753,0.61,0.152
1593981614061771,1.677,0.61,0.152
1593981614564868,1.753,0.61,0.152
1593981615066608,1.677,0.61,0.152
1593981615568513,1.753,0.61,0.152
1593981616070249,1.677,0.61,0.152
1593981616574966,1.753,0.61,0.152
1593981617076700,1.677,0.61,0.152
1593981617578420,1.639,0.61,0.152
1593981618080374,1.753,0.61,0.152
1593981618582192,1.677,0.61,0.152
1593981619084056,1.715,0.61,0.152
1593981619585760,1.677,0.61,0.152
1593981620087503,1.715,0.61,0.152
1593981620589236,1.715,0.61,0.152
1593981621090942,1.677,0.61,0.152
1593981621595248,1.715,0.61,0.152
1593981622096878,1.639,0.61,0.152
1593981622598611,1.677,0.61,0.152
1593981623100412,1.715,0.61,0.152
1593981623602161,1.715,0.61,0.152
1593981624103821,1.677,0.61,0.152
1593981624605438,1.715,0.61,0.152
1593981625107161,1.715,0.61,0.152
1593981625608912,1.677,0.61,0.152
1593981626110611,1.677,0.61,0.152
1593981626615070,1.676,0.61,0.152
1593981627116812,1.676,0.61,0.152
1593981627618577,1.753,0.61,0.152
1593981628120343,1.753,0.61,0.152
1593981628622075,1.676,0.61,0.152
1593981629123688,1.639,0.61,0.152
1593981629625335,1.715,0.61,0.152
1593981630127116,1.715,0.61,0.152
1593981630628819,1.677,0.61,0.152
1593981631132903,1.639,0.61,0.152
1593981631634584,1.676,0.61,0.152
1593981632136336,1.677,0.61,0.152
1593981632638076,1.677,0.61,0.152
1593981633139910,1.676,0.61,0.152
1593981633641538,1.639,0.61,0.152
1593981634143132,1.677,0.61,0.152
1593981634645126,1.753,0.61,0.152
1593981635146875,1.715,0.61,0.152
1593981635648615,1.677,0.61,0.152
1593981636150230,1.677,0.61,0.152
1593981636654520,1.677,0.61,0.152
1593981637156381,1.715,0.61,0.152
1593981637658102,1.715,0.61,0.152
1593981638159854,1.753,0.686,0.152
1593981638661645,1.791,0.686,0.152
1593981639163444,1.715,0.61,0.152
1593981639665193,1.792,0.686,0.152
1593981640166892,1.677,0.61,0.152
1593981640668623,1.715,0.61,0.152
1593981641170394,1.715,0.61,0.152
1593981641674909,1.753,0.61,0.152
1593981642176622,1.677,0.61,0.152
1593981642678311,1.715,0.61,0.152
1593981643180101,1.677,0.61,0.152
1593981643681931,1.676,0.61,0.152
1593981644183682,1.905,0.61,0.152
1593981644685493,2.134,0.61,0.152
1593981645187297,2.096,0.61,0.152
1593981645689292,2.134,0.61,0.152
1593981646191071,1.867,0.61,0.152
1593981646696086,1.715,0.61,0.152
1593981647197838,1.715,0.61,0.152
1593981647699625,1.677,0.61,0.152
1593981648201386,1.677,0.61,0.152
1593981648703106,1.791,0.686,0.152
1593981649204867,1.677,0.61,0.152
1593981649706591,1.715,0.61,0.152
1593981650208534,1.715,0.61,0.152
1593981650711514,1.791,0.61,0.152
1593981651213214,1.715,0.61,0.152
1593981651717899,1.677,0.61,0.152
1593981652219674,1.676,0.61,0.152
1593981652721596,1.676,0.61,0.152
1593981653223385,1.753,0.61,0.152
1593981653725115,1.715,0.61,0.152
1593981654226997,1.715,0.61,0.152
1593981654728705,1.677,0.61,0.152
1593981655230396,1.753,0.61,0.152
1593981655732110,1.677,0.61,0.152
1593981656233880,1.677,0.61,0.152
1593981656738165,1.715,0.61,0.152
1593981657244904,1.677,0.61,0.152
1593981657746824,1.715,0.61,0.152
1593981658251625,1.715,0.61,0.152
1593981658753355,1.753,0.61,0.152
1593981659255139,1.677,0.61,0.152
1593981659757006,1.753,0.61,0.152
1593981660258699,1.715,0.61,0.152
1593981660760399,1.677,0.61,0.152
1593981661262138,1.677,0.61,0.152
1593981661766524,1.676,0.61,0.152
1593981662268426,1.753,0.61,0.152
1593981662770175,1.715,0.61,0.152
1593981663271946,1.677,0.61,0.152
1593981663773699,1.676,0.61,0.152
1593981664275629,1.677,0.61,0.152
1593981664777330,1.791,0.61,0.152
1593981665283348,1.715,0.61,0.152
1593981665785033,1.715,0.61,0.152
1593981666286758,1.715,0.61,0.152
1593981666788657,1.791,0.61,0.152
1593981667290399,1.715,0.61,0.152
1593981667792205,1.753,0.686,0.152
1593981668294072,1.715,0.61,0.152
1593981668795897,1.677,0.61,0.152
1593981669297635,1.753,0.61,0.152
1593981669799447,1.791,0.686,0.152
1593981670301229,1.715,0.61,0.152
1593981670803015,1.753,0.686,0.152
1593981671304972,1.791,0.61,0.152
1593981671809580,1.715,0.61,0.152
1593981672311279,1.753,0.61,0.152
1593981672813068,1.715,0.61,0.152
1593981673314747,1.676,0.61,0.152
1593981673816468,1.753,0.61,0.152
1593981674318239,1.715,0.61,0.152
1593981674820100,1.753,0.61,0.152
1593981675321865,1.715,0.61,0.152
1593981675823862,1.753,0.61,0.152
1593981676325611,1.715,0.61,0.152
1593981676829809,1.677,0.61,0.152
1593981677331666,1.677,0.61,0.152
1593981677833288,1.639,0.61,0.152
1593981678334960,1.677,0.61,0.152
1593981678836780,1.753,0.61,0.152
1593981679338658,1.715,0.61,0.152
1593981679840419,1.715,0.61,0.152
1593981680342176,1.676,0.61,0.152
1593981680843928,1.753,0.61,0.152
1593981681345692,1.715,0.61,0.152
1593981681850192,1.753,0.61,0.152
1593981682352070,1.715,0.61,0.152
1593981682853808,1.715,0.61,0.152
1593981683355637,1.791,0.61,0.152
1593981683857375,1.715,0.61,0.152
1593981684363626,1.753,0.686,0.152
1593981684865389,1.715,0.61,0.152
1593981685367156,1.753,0.61,0.152
1593981685869027,1.715,0.61,0.152
1593981686371000,1.677,0.61,0.152
1593981686880544,1.753,0.61,0.152
1593981687382333,1.715,0.61,0.152
1593981687884125,1.753,0.61,0.152
1593981688385803,1.677,0.61,0.152
1593981688887551,1.677,0.61,0.152
1593981689389134,1.677,0.61,0.152
1593981689890733,1.677,0.61,0.152
1593981690392494,1.715,0.61,0.152
1593981690894218,1.715,0.61,0.152
1593981691395951,1.677,0.61,0.152
1593981691900137,1.715,0.61,0.152
1593981692401847,1.715,0.61,0.152
1593981692903673,1.715,0.61,0.152
1593981693405406,1.715,0.61,0.152
1593981693907140,1.753,0.686,0.152
1593981694408913,1.715,0.61,0.152
1593981694910606,1.753,0.61,0.152
1593981695412391,1.715,0.61,0.152
1593981695914061,1.677,0.61,0.152
1593981696415867,1.677,0.61,0.152
1593981696920406,1.791,0.61,0.152
1593981697422115,1.715,0.61,0.152
1593981697923858,1.677,0.61,0.152
1593981698425601,1.677,0.61,0.152
1593981698927431,1.676,0.61,0.152
1593981699429235,1.753,0.61,0.152
1593981699930992,1.677,0.61,0.152
1593981700432832,1.753,0.686,0.152
1593981700934726,1.753,0.61,0.152
1593981701436527,1.753,0.61,0.152
1593981701940922,1.677,0.61,0.152
1593981702442644,1.715,0.61,0.152
1593981702944334,1.676,0.61,0.152
1593981703446087,1.677,0.61,0.152
1593981703947820,1.715,0.61,0.152
1593981704449435,1.677,0.61,0.152
1593981704951034,1.677,0.61,0.152
1593981705452930,1.639,0.61,0.152
1593981705954676,1.753,0.61,0.152
1593981706456422,1.715,0.61,0.152
1593981706960858,1.753,0.61,0.152
1593981707462520,1.981,0.61,0.152
1593981707964556,2.058,0.61,0.152
1593981708466252,2.172,0.61,0.152
1593981708968081,1.905,0.61,0.152
1593981709469761,1.715,0.61,0.152
1593981709971472,1.677,0.61,0.152
1593981710473244,1.753,0.61,0.152
1593981710975009,1.715,0.61,0.152
1593981711476863,1.715,0.61,0.152
1593981711981098,1.677,0.61,0.152
1593981712482741,1.677,0.61,0.152
1593981712984752,1.753,0.61,0.152
1593981713486474,1.715,0.61,0.152
1593981713988095,1.677,0.61,0.152
1593981714489801,1.677,0.61,0.152
1593981714991616,1.676,0.61,0.152
1593981715493342,1.677,0.61,0.152
1593981715995176,1.715,0.61,0.152
1593981716500814,1.715,0.61,0.152
1593981717005299,1.753,0.686,0.152
1593981717507033,1.715,0.61,0.152
1593981718009014,1.791,0.61,0.152
1593981718510733,1.715,0.61,0.152
1593981719012566,1.753,0.61,0.152
1593981719514388,1.715,0.61,0.152
1593981720016327,1.753,0.61,0.152
1593981720518029,1.715,0.61,0.152
1593981721019931,1.715,0.61,0.152
1593981721521716,1.753,0.61,0.152
1593981722026069,1.677,0.61,0.152
1593981722527874,1.753,0.61,0.152
1593981723029618,1.753,0.61,0.152
1593981723531377,1.677,0.61,0.152
1593981724033070,1.677,0.61,0.152
1593981724534824,1.677,0.61,0.152
1593981725036690,1.677,0.61,0.152
1593981725538452,1.715,0.61,0.152
1593981726040071,1.677,0.61,0.152
1593981726541706,1.639,0.61,0.152
1593981727045944,1.676,0.61,0.152
1593981727547688,1.715,0.61,0.152
1593981728049328,1.676,0.61,0.152
1593981728550949,1.639,0.61,0.152
1593981729052632,1.677,0.61,0.152
1593981729554366,1.715,0.61,0.152
1593981730056165,1.715,0.61,0.152
1593981730558020,1.715,0.61,0.152
1593981731059776,1.677,0.61,0.152
1593981731561503,1.715,0.61,0.152
1593981732066106,1.715,0.61,0.152
1593981732567871,1.715,0.61,0.152
1593981733069683,1.677,0.61,0.152
1593981733571416,1.677,0.61,0.152
1593981734073079,1.677,0.61,0.152
1593981734574797,1.753,0.61,0.152
1593981735076576,1.715,0.61,0.152
1593981735578291,1.639,0.61,0.152
1593981736080045,1.677,0.61,0.152
1593981736581812,1.677,0.61,0.152
1593981737086031,1.753,0.61,0.152
1593981737588025,1.715,0.61,0.152
1593981738089756,1.753,0.686,0.152
1593981738591692,1.753,0.61,0.152
1593981739093394,1.753,0.61,0.152
1593981739595092,1.676,0.61,0.152
1593981740096821,1.715,0.61,0.152
1593981740598431,1.677,0.61,0.152
1593981741100189,1.791,0.686,0.152
1593981741601985,1.677,0.61,0.152
1593981742106173,1.715,0.61,0.152
1593981742607829,1.677,0.61,0.152
1593981743109444,1.677,0.61,0.152
1593981743611147,1.715,0.61,0.152
1593981744113079,1.715,0.61,0.152
1593981744614805,1.753,0.686,0.152
1593981745116569,1.677,0.61,0.152
1593981745618331,1.715,0.61,0.152
1593981746120102,1.753,0.61,0.152
1593981746622114,1.791,0.61,0.152
1593981747126997,1.715,0.61,0.152
1593981747628783,1.715,0.61,0.152
1593981748130563,1.715,0.61,0.152
1593981748632593,1.753,0.61,0.152
1593981749134413,1.715,0.61,0.152
1593981749636131,1.715,0.61,0.152
1593981750137802,1.715,0.61,0.152
1593981750639528,1.677,0.61,0.152
1593981751141267,1.715,0.61,0.152
1593981751642956,1.677,0.61,0.152
1593981752147292,1.639,0.61,0.152
1593981752649072,1.715,0.61,0.152
1593981753154172,1.715,0.61,0.152
1593981753655960,1.677,0.61,0.152
1593981754157648,1.677,0.61,0.152
1593981754659294,1.677,0.61,0.152
1593981755161047,1.676,0.61,0.152
1593981755662796,1.753,0.61,0.152
1593981756164529,1.677,0.61,0.152
1593981756666229,1.677,0.61,0.152
1593981757171071,1.676,0.61,0.152
1593981757672879,1.753,0.61,0.152
1593981758174612,1.676,0.61,0.152
1593981758676378,1.677,0.61,0.152
1593981759178010,1.677,0.61,0.152
1593981759679797,1.676,0.61,0.152
1593981760181599,1.715,0.61,0.152
1593981760683463,1.715,0.61,0.152
1593981761185205,1.677,0.61,0.152
1593981761686914,1.677,0.61,0.152
1593981762191516,1.715,0.61,0.152
1593981762693339,1.753,0.61,0.152
1593981763195142,1.715,0.61,0.152
1593981763697014,1.753,0.686,0.152
1593981764198784,1.677,0.61,0.152
1593981764700661,1.753,0.686,0.152
1593981765202397,1.677,0.61,0.152
1593981765704090,1.715,0.61,0.152
1593981766205755,1.677,0.61,0.152
1593981766707505,1.677,0.61,0.152
1593981767212104,1.753,0.61,0.152
1593981767713844,1.715,0.61,0.152
1593981768215606,1.753,0.61,0.152
1593981768717309,1.677,0.61,0.152
1593981769219269,1.715,0.61,0.152
1593981769721162,1.715,0.61,0.152
1593981770222989,1.981,0.61,0.152
1593981770724779,2.096,0.61,0.152
1593981771226543,2.172,0.61,0.152
1593981771731853,2.096,0.61,0.152
1593981772236531,1.867,0.61,0.152
1593981772738308,1.753,0.61,0.152
1593981773240199,1.791,0.61,0.152
1593981773741920,1.715,0.61,0.152
1593981774243738,1.677,0.61,0.152
1593981774745385,1.715,0.61,0.152
1593981775246996,1.677,0.61,0.152
1593981775748627,1.677,0.61,0.152
1593981776250361,1.753,0.61,0.152
1593981776752092,1.715,0.61,0.152
1593981777257212,1.791,0.686,0.152
1593981777758896,1.715,0.61,0.152
1593981778260639,1.753,0.61,0.152
1593981778762386,1.715,0.61,0.152
1593981779269455,1.677,0.61,0.152
1593981779771116,1.677,0.61,0.152
1593981780272882,1.676,0.61,0.152
1593981780774632,1.677,0.61,0.152
1593981781276373,1.753,0.61,0.152
1593981781778091,1.676,0.61,0.152
1593981782282401,1.677,0.61,0.152
1593981782784106,1.715,0.61,0.152
1593981783285820,1.677,0.61,0.152
1593981783787551,1.677,0.61,0.152
1593981784289218,1.715,0.61,0.152
1593981784790975,1.715,0.61,0.152
1593981785292938,1.677,0.61,0.152
1593981785794733,1.753,0.61,0.152
1593981786296604,1.715,0.61,0.152
1593981786798359,1.677,0.61,0.152
1593981787300039,1.677,0.61,0.152
1593981787801658,1.677,0.61,0.152
1593981788303723,1.753,0.61,0.152
1593981788805446,1.753,0.61,0.152
1593981789307110,1.677,0.61,0.152
1593981789808761,1.677,0.61,0.152
1593981790310559,1.715,0.61,0.152
1593981790812283,1.677,0.61,0.152
1593981791313959,1.677,0.61,0.152
1593981791815613,1.639,0.61,0.152
1593981792320402,1.677,0.61,0.152
1593981792822157,1.753,0.61,0.152
1593981793323922,1.715,0.61,0.152
1593981793825565,1.677,0.61,0.152
1593981794327154,1.677,0.61,0.152
1593981794829031,1.676,0.61,0.152
1593981795330727,1.677,0.61,0.152
1593981795832554,1.715,0.61,0.152
1593981796334239,1.676,0.61,0.152
1593981796836033,1.753,0.61,0.152
1593981797340521,1.715,0.61,0.152
1593981797846063,1.792,0.61,0.152
1593981798347897,1.715,0.61,0.152
1593981798849574,1.715,0.61,0.152
1593981799351197,1.677,0.61,0.152
1593981799852906,1.677,0.61,0.152
1593981800354671,1.792,0.61,0.152
1593981800856434,1.715,0.61,0.152
1593981801358202,1.753,0.686,0.152
1593981801860085,1.677,0.61,0.152
1593981802364654,1.753,0.61,0.152
1593981802866384,1.677,0.61,0.152
1593981803368105,1.715,0.61,0.152
1593981803869767,1.677,0.61,0.152
1593981804371469,1.753,0.61,0.152
1593981804873180,1.715,0.61,0.152
1593981805374977,1.753,0.61,0.152
1593981805876802,1.791,0.686,0.152
1593981806378636,1.753,0.61,0.152
1593981806880534,1.753,0.61,0.152
1593981807384705,1.715,0.61,0.152
1593981807886430,1.715,0.61,0.152
1593981808390898,1.753,0.686,0.152
1593981808892681,1.715,0.61,0.152
1593981809394350,1.715,0.61,0.152
1593981809895990,1.677,0.61,0.152
1593981810397504,1.639,0.61,0.152
1593981810902272,1.753,0.61,0.152
1593981811404012,1.715,0.61,0.152
1593981811905716,1.753,0.686,0.152
1593981812409897,1.677,0.61,0.152
1593981812911835,1.715,0.61,0.152
1593981813413749,1.715,0.61,0.152
1593981813915753,1.715,0.61,0.152
1593981814417502,1.677,0.61,0.152
1593981814919255,1.753,0.61,0.152
1593981815421115,1.715,0.61,0.152
1593981815922923,1.753,0.61,0.152
1593981816424678,1.753,0.61,0.152
1593981816926501,1.715,0.61,0.152
1593981817430778,1.753,0.61,0.152
1593981817932648,1.715,0.61,0.152
1593981818434373,1.753,0.61,0.152
1593981818936083,1.715,0.61,0.152
1593981819437781,1.715,0.61,0.152
1593981819939506,1.715,0.61,0.152
1593981820441324,1.677,0.61,0.152
1593981820943034,1.715,0.61,0.152
1593981821444720,1.677,0.61,0.152
1593981821946249,1.639,0.61,0.152
1593981822450905,1.753,0.61,0.152
1593981822952673,1.753,0.61,0.152
1593981823454453,1.677,0.61,0.152
1593981823956155,1.677,0.61,0.152
1593981824459455,1.677,0.61,0.152
1593981824961236,1.715,0.61,0.152
1593981825462995,1.753,0.61,0.152
1593981825964952,1.715,0.61,0.152
1593981826466675,1.753,0.61,0.152
1593981826968580,1.677,0.61,0.152
1593981827472876,1.753,0.61,0.152
1593981827980893,1.753,0.61,0.152
1593981828482834,1.715,0.61,0.152
1593981828984576,1.677,0.61,0.152
1593981829486337,1.753,0.61,0.152
1593981829988086,1.715,0.61,0.152
1593981830489774,1.715,0.61,0.152
1593981830991449,1.677,0.61,0.152
1593981831493190,1.677,0.61,0.152
1593981831994959,1.753,0.61,0.152
1593981832499456,1.715,0.61,0.152
1593981833001271,1.753,0.61,0.152
1593981833503009,2.019,0.61,0.152
1593981834004887,2.096,0.61,0.152
1593981834506639,2.172,0.61,0.152
1593981835008582,1.867,0.61,0.152
1593981835510339,1.753,0.61,0.152
1593981836012121,1.715,0.61,0.152
1593981836513864,1.753,0.61,0.152
1593981837015611,1.715,0.61,0.152
1593981837520373,1.677,0.61,0.152
1593981838022027,1.639,0.61,0.152
1593981838523684,1.677,0.61,0.152
1593981839029239,1.753,0.61,0.152
1593981839530968,1.677,0.61,0.152
1593981840032680,1.715,0.61,0.152
1593981840534418,1.677,0.61,0.152
1593981841036124,1.677,0.61,0.152
1593981841537813,1.677,0.61,0.152
1593981842047385,1.715,0.61,0.152
1593981842551672,1.676,0.61,0.152
1593981843053350,1.715,0.61,0.152
1593981843555062,1.715,0.61,0.152
1593981844056953,1.676,0.61,0.152
1593981844558704,1.753,0.686,0.152
1593981845060537,1.715,0.61,0.152
1593981845562405,1.753,0.61,0.152
1593981846064165,1.715,0.61,0.152
1593981846565932,1.753,0.61,0.152
1593981847067882,1.753,0.61,0.152
1593981847572424,1.715,0.61,0.152
1593981848074200,1.791,0.686,0.152
1593981848580272,1.677,0.61,0.152
1593981849084825,1.753,0.61,0.152
1593981849586548,1.677,0.61,0.152
1593981850088383,1.715,0.61,0.152
1593981850590121,1.715,0.61,0.152
1593981851091955,1.677,0.61,0.152
1593981851593760,1.677,0.61,0.152
1593981852095469,1.715,0.61,0.152
1593981852599854,1.677,0.61,0.152
1593981853101448,1.677,0.61,0.152
1593981853603154,1.677,0.61,0.152
1593981854106922,1.715,0.61,0.152
1593981854608641,1.677,0.61,0.152
1593981855110346,1.677,0.61,0.152
1593981855612095,1.677,0.61,0.152
1593981856113777,1.677,0.61,0.152
1593981856615493,1.677,0.61,0.152
1593981857117240,1.753,0.61,0.152
1593981857621560,1.715,0.61,0.152
1593981858123350,1.677,0.61,0.152
1593981858625066,1.715,0.61,0.152
1593981859126775,1.677,0.61,0.152
1593981859628523,1.677,0.61,0.152
1593981860130266,1.677,0.61,0.152
1593981860631906,1.677,0.61,0.152
1593981861136224,1.676,0.61,0.152
1593981861637998,1.677,0.61,0.152
1593981862139863,1.715,0.61,0.152
1593981862644436,1.677,0.61,0.152
1593981863145985,1.639,0.61,0.152
1593981863649929,1.715,0.61,0.152
1593981864152138,1.715,0.61,0.152
1593981864653950,1.677,0.61,0.152
1593981865155690,1.715,0.61,0.152
1593981865657532,1.715,0.61,0.152
1593981866159427,1.715,0.61,0.152
1593981866661152,1.753,0.61,0.152
1593981867162886,1.715,0.61,0.152
1593981867667651,1.676,0.61,0.152
1593981868169354,1.676,0.61,0.152
1593981868671034,1.677,0.61,0.152
1593981869172829,1.677,0.61,0.152
1593981869674628,1.753,0.61,0.152
1593981870180381,1.677,0.61,0.152
1593981870682163,1.715,0.61,0.152
1593981871183891,1.677,0.61,0.152
1593981871685584,1.753,0.61,0.152
1593981872187438,1.715,0.61,0.152
1593981872691709,1.676,0.61,0.152
1593981873193462,1.715,0.61,0.152
1593981873695365,1.676,0.61,0.152
1593981874197101,1.677,0.61,0.152
1593981874698906,1.676,0.61,0.152
1593981875200560,1.715,0.61,0.152
1593981875702257,1.677,0.61,0.152
1593981876204045,1.791,0.686,0.152
1593981876705728,1.715,0.61,0.152
1593981877207552,1.753,0.61,0.152
1593981877711897,1.715,0.61,0.152
1593981878213661,1.676,0.61,0.152
1593981878715439,1.753,0.61,0.152
1593981879217135,1.677,0.61,0.152
1593981879718863,1.715,0.61,0.152
1593981880220683,1.715,0.61,0.152
1593981880722517,1.677,0.61,0.152
1593981881224209,1.677,0.61,0.152
1593981881725807,1.677,0.61,0.152
1593981882227504,1.677,0.61,0.152
1593981882736855,1.715,0.61,0.152
1593981883238553,1.715,0.61,0.152
1593981883740331,1.677,0.61,0.152
1593981884244563,1.715,0.61,0.152
1593981884746365,1.677,0.61,0.152
1593981885248183,1.677,0.61,0.152
1593981885756793,1.753,0.61,0.152
1593981886258525,1.715,0.61,0.152
1593981886760292,1.715,0.61,0.152
1593981887262033,1.677,0.61,0.152
1593981887766345,1.677,0.61,0.152
1593981888268119,1.791,0.686,0.152
1593981888769801,1.677,0.61,0.152
1593981889271617,1.715,0.61,0.152
1593981889773357,1.676,0.61,0.152
1593981890275122,1.676,0.61,0.152
1593981890776822,1.715,0.61,0.152
1593981891278584,1.677,0.61,0.152
1593981891780405,1.677,0.61,0.152
1593981892282149,1.715,0.61,0.152
1593981892786779,1.715,0.61,0.152
1593981893288459,1.677,0.61,0.152
1593981893790145,1.715,0.61,0.152
1593981894293059,1.715,0.61,0.152
1593981894794826,1.677,0.61,0.152
1593981895296604,1.753,0.61,0.152
1593981895798317,1.715,0.61,0.152
1593981896300021,1.905,0.61,0.152
1593981896801738,2.096,0.61,0.152
1593981897303486,2.096,0.61,0.152
1593981897810821,1.981,0.61,0.152
1593981898312659,1.753,0.61,0.152
1593981898814306,1.753,0.61,0.152
1593981899315919,1.677,0.61,0.152
1593981899817545,1.677,0.61,0.152
1593981900319294,1.715,0.61,0.152
1593981900821151,1.715,0.61,0.152
1593981901322889,1.753,0.61,0.152
1593981901824699,1.677,0.61,0.152
1593981902326515,1.753,0.61,0.152
1593981902831713,1.715,0.61,0.152
1593981903333465,1.753,0.61,0.152
1593981903835153,1.715,0.61,0.152
1593981904337035,1.715,0.61,0.152
1593981904838741,1.715,0.61,0.152
1593981905340558,1.715,0.61,0.152
1593981905842353,1.715,0.61,0.152
1593981906344165,1.715,0.61,0.152
1593981906845891,1.677,0.61,0.152
1593981907347650,1.715,0.61,0.152
1593981907852348,1.715,0.61,0.152
1593981908354048,1.791,0.61,0.152
1593981908855911,1.715,0.61,0.152
1593981909357667,1.715,0.61,0.152
1593981909859454,1.715,0.61,0.152
1593981910361222,1.753,0.61,0.152
1593981910862967,1.677,0.61,0.152
1593981911364615,1.676,0.61,0.152
1593981911866284,1.677,0.61,0.152
1593981912368039,1.677,0.61,0.152
1593981912872967,1.677,0.61,0.152
1593981913375645,1.753,0.61,0.152
1593981913877388,1.677,0.61,0.152
1593981914379148,1.753,0.686,0.152
1593981914880933,1.715,0.61,0.152
1593981915383087,1.753,0.61,0.152
1593981915884826,1.715,0.61,0.152
1593981916386567,1.715,0.61,0.152
1593981916888320,1.677,0.61,0.152
1593981917390059,1.753,0.686,0.152
1593981917894474,1.715,0.61,0.152
1593981918396354,1.715,0.61,0.152
1593981918898102,1.715,0.61,0.152
1593981919399867,1.677,0.61,0.152
1593981919901508,1.677,0.61,0.152
1593981920403256,1.677,0.61,0.152
1593981920905112,1.676,0.61,0.152
1593981921406899,1.753,0.61,0.152
1593981921908916,1.753,0.61,0.152
1593981922410663,1.715,0.61,0.152
1593981922915496,1.677,0.61,0.152
1593981923419285,1.715,0.61,0.152
1593981923921086,1.677,0.61,0.152
1593981924422773,1.677,0.61,0.152
1593981924924527,1.677,0.61,0.152
1593981925426267,1.677,0.61,0.152
1593981925928061,1.677,0.61,0.152
1593981926429819,1.753,0.61,0.152
1593981926931579,1.715,0.61,0.152
1593981927433332,1.676,0.61,0.152
1593981927937698,1.715,0.61,0.152
1593981928439497,1.677,0.61,0.152
1593981928941358,1.715,0.61,0.152
1593981929443138,1.677,0.61,0.152
1593981929944908,1.753,0.61,0.152
1593981930446672,1.677,0.61,0.152
1593981930948465,1.677,0.61,0.152
1593981931450479,1.715,0.61,0.152
1593981931952233,1.676,0.61,0.152
1593981932454058,1.677,0.61,0.152
1593981932958799,1.676,0.61,0.152
1593981933460652,1.677,0.61,0.152
1593981933962374,1.715,0.61,0.152
1593981934464142,1.677,0.61,0.152
1593981934965907,1.715,0.61,0.152
1593981935467946,1.677,0.61,0.152
1593981935969731,1.715,0.61,0.152
1593981936471441,1.677,0.61,0.152
1593981936973140,1.639,0.61,0.152
1593981937474833,1.677,0.61,0.152
1593981937979191,1.677,0.61,0.152
1593981938480997,1.676,0.61,0.152
1593981938982755,1.753,0.61,0.152
1593981939484595,1.677,0.61,0.152
1593981939986427,1.753,0.61,0.152
1593981940488366,1.677,0.61,0.152
1593981940990150,1.677,0.61,0.152
1593981941491856,1.715,0.61,0.152
1593981941993512,1.677,0.61,0.152
1593981942495144,1.677,0.61,0.152
1593981942999462,1.715,0.61,0.152
1593981943501218,1.715,0.61,0.152
1593981944002921,1.676,0.61,0.152
1593981944504630,1.677,0.61,0.152
1593981945006348,1.715,0.61,0.152
1593981945508354,1.677,0.61,0.152
1593981946012126,1.677,0.61,0.152
1593981946513876,1.753,0.61,0.152
1593981947015618,1.715,0.61,0.152
1593981947517397,1.677,0.61,0.152
1593981948021858,1.715,0.61,0.152
1593981948523639,1.677,0.61,0.152
1593981949025366,1.677,0.61,0.152
1593981949527111,1.715,0.61,0.152
1593981950028800,1.677,0.61,0.152
1593981950530477,1.677,0.61,0.152
1593981951032333,1.677,0.61,0.152
1593981951534119,1.715,0.61,0.152
1593981952035856,1.677,0.61,0.152
1593981952537609,1.676,0.61,0.152
1593981953042056,1.715,0.61,0.152
1593981953543923,1.715,0.61,0.152
1593981954045697,1.753,0.61,0.152
1593981954547512,1.677,0.61,0.152
1593981955049227,1.677,0.61,0.152
1593981955550957,1.677,0.61,0.152
1593981956052745,1.677,0.61,0.152
1593981956554453,1.677,0.61,0.152
1593981957056151,1.715,0.61,0.152
1593981957557748,1.676,0.61,0.152
1593981958062295,1.677,0.61,0.152
1593981958564154,1.677,0.61,0.152
1593981959065908,1.791,0.61,0.152
1593981959567615,1.981,0.61,0.152
1593981960069253,2.058,0.61,0.152
1593981960570908,2.058,0.61,0.152
1593981961072706,1.867,0.533,0.152
1593981961574515,1.753,0.533,0.152
1593981962076292,1.715,0.61,0.152
1593981962578035,1.676,0.61,0.152
1593981963082528,1.677,0.61,0.152
1593981963584312,1.677,0.61,0.152
1593981964086031,1.677,0.61,0.152
1593981964587743,1.715,0.61,0.152
1593981965089427,1.639,0.61,0.152
1593981965591166,1.676,0.61,0.152
1593981966092984,1.715,0.61,0.152
1593981966594783,1.715,0.61,0.152
1593981967096524,1.715,0.61,0.152
1593981967598230,1.677,0.61,0.152
1593981968102661,1.677,0.61,0.152
1593981968604303,1.677,0.61,0.152
1593981969105923,1.677,0.61,0.152
1593981969607696,1.677,0.61,0.152
1593981970109427,1.791,0.686,0.152
1593981970612929,1.791,0.686,0.152
1593981971114703,1.715,0.61,0.152
1593981971616479,1.715,0.61,0.152
1593981972118420,1.715,0.61,0.152
1593981972620167,1.676,0.61,0.152
1593981973124776,1.677,0.61,0.152
1593981973626475,1.715,0.61,0.152
1593981974128222,1.677,0.61,0.152
1593981974629958,1.677,0.61,0.152
1593981975131725,1.715,0.61,0.152
1593981975633455,1.677,0.61,0.152
1593981976135082,1.639,0.61,0.152
1593981976636960,1.715,0.61,0.152
1593981977140711,1.676,0.61,0.152
1593981977642553,1.639,0.61,0.152
1593981978146921,1.715,0.61,0.152
1593981978648645,1.753,0.61,0.152
1593981979150532,1.677,0.61,0.152
1593981979655667,1.791,0.61,0.152
1593981980160844,1.715,0.61,0.152
1593981980662725,1.753,0.61,0.152
1593981981166642,1.715,0.61,0.152
1593981981668531,1.676,0.61,0.152
1593981982170356,1.753,0.61,0.152
1593981982672089,1.715,0.61,0.152
1593981983176533,1.677,0.61,0.152
1593981983678262,1.715,0.61,0.152
1593981984180685,1.677,0.61,0.152
1593981984682591,1.677,0.61,0.152
1593981985184365,1.676,0.61,0.152
1593981985686173,1.715,0.61,0.152
1593981986188933,1.715,0.61,0.152
1593981986690674,1.715,0.61,0.152
1593981987192480,1.715,0.61,0.152
1593981987694310,1.677,0.61,0.152
1593981988198692,1.715,0.61,0.152
1593981988700530,1.677,0.61,0.152
1593981989202333,1.676,0.61,0.152
1593981989704112,1.715,0.61,0.152
1593981990205971,1.753,0.61,0.152
1593981990707850,1.677,0.61,0.152
1593981991209641,1.715,0.61,0.152
1593981991711450,1.677,0.61,0.152
1593981992213337,1.715,0.61,0.152
1593981992715102,1.715,0.61,0.152
1593981993219760,1.715,0.61,0.152
1593981993721459,1.715,0.61,0.152
1593981994223113,1.677,0.61,0.152
1593981994725020,1.677,0.61,0.152
1593981995226772,1.715,0.61,0.152
1593981995728550,1.715,0.61,0.152
1593981996230219,1.677,0.61,0.152
1593981996731861,1.639,0.61,0.152
1593981997233543,1.715,0.61,0.152
1593981997735279,1.677,0.61,0.152
1593981998239684,1.677,0.61,0.152
1593981998741430,1.677,0.61,0.152
1593981999243058,1.677,0.61,0.152
1593981999744812,1.677,0.61,0.152
1593982000246527,1.677,0.61,0.152
1593982000748267,1.715,0.61,0.152
1593982001249910,1.677,0.61,0.152
1593982001751481,1.639,0.61,0.152
1593982002255712,1.677,0.61,0.152
1593982002757472,1.715,0.61,0.152
1593982003262017,1.676,0.61,0.152
1593982003763824,1.715,0.61,0.152
1593982004265521,1.677,0.61,0.152
1593982004767156,1.639,0.61,0.152
1593982005276793,1.753,0.61,0.152
1593982005778658,1.715,0.61,0.152
1593982006280366,1.677,0.61,0.152
1593982006782074,1.753,0.61,0.152
1593982007283818,1.677,0.61,0.152
1593982007785571,1.715,0.61,0.152
1593982008290129,1.715,0.61,0.152
1593982008791869,1.715,0.61,0.152
1593982009293610,1.715,0.61,0.152
1593982009795723,1.753,0.61,0.152
1593982010297504,1.715,0.61,0.152
1593982010799248,1.676,0.61,0.152
1593982011301040,1.715,0.61,0.152
1593982011802776,1.677,0.61,0.152
1593982012304538,1.639,0.61,0.152
1593982012806258,1.715,0.61,0.152
1593982013311241,1.676,0.61,0.152
1593982013813011,1.677,0.61,0.152
1593982014314753,1.677,0.61,0.152
1593982014816407,1.676,0.61,0.152
1593982015318094,1.677,0.61,0.152
1593982015819921,1.715,0.61,0.152
1593982016321799,1.677,0.61,0.152
1593982016823463,1.639,0.61,0.152
1593982017325076,1.677,0.61,0.152
1593982017826863,1.676,0.61,0.152
1593982018331199,1.677,0.61,0.152
1593982018832919,1.677,0.61,0.152
1593982019334629,1.677,0.61,0.152
1593982019836398,1.677,0.61,0.152
1593982020338128,1.639,0.61,0.152
1593982020840095,1.753,0.61,0.152
1593982021341863,1.715,0.61,0.152
1593982021843676,1.715,0.61,0.152
1593982022345352,1.943,0.61,0.152
1593982022847001,2.019,0.61,0.152
1593982023351299,2.172,0.61,0.152
1593982023854147,1.981,0.61,0.152
1593982024357297,1.791,0.61,0.152
1593982024859134,1.677,0.61,0.152
1593982025360924,1.677,0.61,0.152
1593982025862715,1.677,0.61,0.152
1593982026364617,1.676,0.61,0.152
1593982026866462,1.753,0.61,0.152
1593982027368335,1.715,0.61,0.152
1593982027870062,1.715,0.61,0.152
1593982028374796,1.753,0.61,0.152
1593982028876630,1.677,0.61,0.152
1593982029378562,1.715,0.61,0.152
1593982029880384,1.677,0.61,0.152
1593982030382196,1.753,0.686,0.152
1593982030884178,1.677,0.61,0.152
1593982031386007,1.715,0.61,0.152
1593982031887906,1.715,0.61,0.152
1593982032389654,1.639,0.61,0.152
1593982032891366,1.639,0.61,0.152
1593982033397698,1.677,0.61,0.152
1593982033899540,1.676,0.61,0.152
1593982034401274,1.677,0.61,0.152
1593982034903117,1.677,0.61,0.152
1593982035404892,1.639,0.61,0.152
1593982035906739,1.677,0.61,0.152
1593982036408553,1.715,0.61,0.152
1593982036910272,1.677,0.61,0.152
1593982037412106,1.676,0.61,0.152
1593982037913833,1.639,0.61,0.152
1593982038415664,1.677,0.61,0.152
1593982038920069,1.677,0.61,0.152
1593982039421805,1.677,0.61,0.152
1593982039923656,1.677,0.61,0.152
1593982040425348,1.677,0.61,0.152
1593982040927059,1.677,0.61,0.152
1593982041429149,1.677,0.61,0.152
1593982041930926,1.753,0.61,0.152
1593982042432761,1.715,0.61,0.152
1593982042934644,1.753,0.61,0.152
1593982043439101,1.791,0.686,0.152
1593982043941033,1.715,0.61,0.152
1593982044442817,1.715,0.61,0.152
1593982044944492,1.677,0.61,0.152
1593982045446132,1.639,0.61,0.152
1593982045947964,1.677,0.61,0.152
1593982046449791,1.715,0.61,0.152
1593982046951664,1.677,0.61,0.152
1593982047453488,1.753,0.61,0.152
1593982047958213,1.715,0.61,0.152
1593982048460072,1.715,0.61,0.152
1593982048963922,1.753,0.61,0.152
1593982049465703,1.715,0.61,0.152
1593982049967515,1.677,0.61,0.152
1593982050469312,1.753,0.61,0.152
1593982050971121,1.677,0.61,0.152
1593982051472974,1.715,0.61,0.152
1593982051974774,1.677,0.61,0.152
1593982052476690,1.753,0.61,0.152
1593982052978468,1.715,0.61,0.152
1593982053482863,1.677,0.61,0.152
1593982053984691,1.715,0.61,0.152
1593982054488700,1.676,0.61,0.152
1593982054993412,1.753,0.61,0.152
1593982055495124,1.715,0.61,0.152
1593982055997129,1.715,0.61,0.152
1593982056498891,1.715,0.61,0.152
1593982057002515,1.677,0.61,0.152
1593982057504341,1.676,0.61,0.152
1593982058006110,1.677,0.61,0.152
1593982058510963,1.638,0.61,0.152
1593982059012754,1.676,0.61,0.152
1593982059514494,1.753,0.61,0.152
1593982060016290,1.677,0.61,0.152
1593982060518120,1.791,0.686,0.152
1593982061019916,1.715,0.61,0.152
1593982061521685,1.715,0.61,0.152
1593982062023482,1.715,0.61,0.152
1593982062525203,1.676,0.61,0.152
1593982063026964,1.677,0.61,0.152
1593982063531440,1.677,0.61,0.152
1593982064033385,1.677,0.61,0.152
1593982064535146,1.676,0.61,0.152
1593982065037003,1.715,0.61,0.152
1593982065538793,1.677,0.61,0.152
1593982066040634,1.715,0.61,0.152
1593982066542342,1.677,0.61,0.152
1593982067044828,1.677,0.61,0.152
1593982067546558,1.677,0.61,0.152
1593982068048360,1.715,0.61,0.152
1593982068552978,1.676,0.61,0.152
1593982069054725,1.715,0.61,0.152
1593982069556630,1.677,0.61,0.152
1593982070058358,1.677,0.61,0.152
1593982070560184,1.715,0.61,0.152
1593982071061847,1.677,0.61,0.152
1593982071563424,1.639,0.61,0.152
1593982072065147,1.676,0.61,0.152
1593982072566874,1.715,0.61,0.152
1593982073068610,1.676,0.61,0.152
1593982073572901,1.639,0.61,0.152
1593982074074565,1.677,0.61,0.152
1593982074576335,1.677,0.61,0.152
1593982075079216,1.677,0.61,0.152
1593982075581091,1.676,0.61,0.152
1593982076082844,1.677,0.61,0.152
1593982076584603,1.676,0.61,0.152
1593982077088120,1.677,0.61,0.152
1593982077589886,1.677,0.61,0.152
1593982078095909,1.677,0.61,0.152
1593982078597701,1.715,0.61,0.152
1593982079099426,1.639,0.61,0.152
1593982079601148,1.677,0.61,0.152
1593982080102998,1.715,0.61,0.152
1593982080604857,1.715,0.61,0.152
1593982081106597,1.677,0.61,0.152
1593982081608334,1.677,0.61,0.152
1593982082110157,1.676,0.61,0.152
1593982082611957,1.677,0.61,0.152
1593982083113704,1.715,0.61,0.152
1593982083618010,1.677,0.61,0.152
1593982084119833,1.677,0.61,0.152
1593982084621464,1.677,0.61,0.152
1593982085123186,1.791,0.61,0.152
1593982085625062,2.019,0.61,0.152
1593982086126775,2.134,0.61,0.152
1593982086628527,2.058,0.61,0.152
1593982087130237,1.791,0.61,0.152
1593982087632107,1.715,0.61,0.152
1593982088133856,1.753,0.61,0.152
1593982088638496,1.677,0.61,0.152
1593982089140132,1.639,0.61,0.152
1593982089641791,1.676,0.61,0.152
1593982090143772,1.715,0.61,0.152
1593982090645578,1.677,0.61,0.152
1593982091147423,1.753,0.61,0.152
1593982091649280,1.677,0.61,0.152
1593982092151019,1.715,0.61,0.152
1593982092652937,1.676,0.61,0.152
1593982093154694,1.677,0.61,0.152
1593982093659235,1.677,0.61,0.152
1593982094161066,1.715,0.61,0.152
1593982094662733,1.639,0.61,0.152
1593982095164396,1.677,0.61,0.152
1593982095666205,1.715,0.61,0.152
1593982096167999,1.677,0.61,0.152
1593982096669760,1.677,0.61,0.152
1593982097171612,1.715,0.61,0.152
1593982097673439,1.715,0.61,0.152
1593982098175273,1.677,0.61,0.152
1593982098679721,1.715,0.61,0.152
1593982099181374,1.677,0.61,0.152
1593982099682931,1.639,0.61,0.152
1593982100184767,1.677,0.61,0.152
1593982100686492,1.715,0.61,0.152
1593982101188276,1.677,0.61,0.152
1593982101689908,1.639,0.61,0.152
1593982102191680,1.676,0.61,0.152
1593982102693415,1.677,0.61,0.152
1593982103195198,1.676,0.61,0.152
1593982103699510,1.677,0.61,0.152
1593982104201267,1.677,0.61,0.152
1593982104702989,1.677,0.61,0.152
1593982105204809,1.677,0.61,0.152
1593982105706596,1.715,0.61,0.152
1593982106208341,1.677,0.61,0.152
1593982106710122,1.677,0.61,0.152
1593982107211902,1.715,0.61,0.152
1593982107713730,1.676,0.61,0.152
1593982108215666,1.676,0.61,0.152
1593982108719937,1.715,0.61,0.152
1593982109221756,1.715,0.61,0.152
1593982109723611,1.753,0.61,0.152
1593982110225398,1.715,0.61,0.152
1593982110727478,1.715,0.61,0.152
1593982111229291,1.715,0.61,0.152
1593982111731108,1.715,0.61,0.152
1593982112232795,1.677,0.61,0.152
1593982112734578,1.639,0.61,0.152
1593982113236362,1.639,0.61,0.152
1593982113740614,1.715,0.61,0.152
1593982114242373,1.677,0.61,0.152
1593982114744162,1.638,0.61,0.152
1593982115245940,1.677,0.61,0.152
1593982115747745,1.677,0.61,0.152
1593982116249557,1.677,0.61,0.152
1593982116751492,1.715,0.61,0.152
1593982117253301,1.677,0.61,0.152
1593982117755220,1.753,0.686,0.152
1593982118257110,1.677,0.61,0.152
1593982118761679,1.715,0.61,0.152
1593982119263471,1.715,0.61,0.152
1593982119765174,1.677,0.61,0.152
1593982120266826,1.639,0.61,0.152
1593982120768551,1.715,0.61,0.152
1593982121270323,1.677,0.61,0.152
1593982121774978,1.677,0.61,0.152
1593982122276742,1.715,0.61,0.152
1593982122778496,1.677,0.61,0.152
1593982123280289,1.677,0.61,0.152
1593982123784970,1.677,0.61,0.152
1593982124286831,1.715,0.61,0.152
1593982124788686,1.715,0.61,0.152
1593982125290456,1.753,0.61,0.152
1593982125792348,1.677,0.61,0.152
1593982126294120,1.715,0.61,0.152
1593982126795954,1.715,0.61,0.152
1593982127297684,1.677,0.61,0.152
1593982127799466,1.715,0.61,0.152
1593982128301157,1.677,0.61,0.152
1593982128805523,1.677,0.61,0.152
1593982129307390,1.753,0.61,0.152
1593982129809292,1.715,0.61,0.152
1593982130311119,1.677,0.61,0.152
1593982130812926,1.715,0.61,0.152
1593982131314785,1.639,0.61,0.152
1593982131816620,1.677,0.61,0.152
1593982132318570,1.677,0.61,0.152
1593982132820404,1.715,0.61,0.152
1593982133322184,1.677,0.61,0.152
1593982133826396,1.639,0.61,0.152
1593982134328119,1.715,0.61,0.152
1593982134829886,1.677,0.61,0.152
1593982135331621,1.677,0.61,0.152
1593982135833370,1.715,0.61,0.152
1593982136334993,1.677,0.61,0.152
1593982136836785,1.677,0.61,0.152
1593982137338571,1.676,0.61,0.152
1593982137840349,1.677,0.61,0.152
1593982138342061,1.676,0.61,0.152
1593982138849222,1.639,0.61,0.152
1593982139351025,1.715,0.61,0.152
1593982139852900,1.715,0.61,0.152
1593982140354824,1.791,0.61,0.152
1593982140856681,1.677,0.61,0.152
1593982141358498,1.715,0.61,0.152
1593982141862499,1.639,0.61,0.152
1593982142364613,1.715,0.61,0.152
1593982142866450,1.676,0.61,0.152
1593982143368695,1.715,0.61,0.152
1593982143872514,1.715,0.61,0.152
1593982144374330,1.677,0.61,0.152
1593982144878113,1.715,0.61,0.152
1593982145380013,1.677,0.61,0.152
1593982145881832,1.677,0.61,0.152
1593982146383499,1.677,0.61,0.152
1593982146885149,1.677,0.61,0.152
1593982147387016,1.677,0.61,0.152
1593982147888967,1.715,0.61,0.152
1593982148390692,1.943,0.61,0.152
1593982148894571,2.058,0.61,0.152
1593982149396334,2.058,0.61,0.152
1593982149898124,1.943,0.61,0.152
1593982150399932,1.753,0.61,0.152
1593982150901741,1.715,0.61,0.152
1593982151403489,1.638,0.61,0.152
1593982151905225,1.677,0.61,0.152
1593982152407031,1.677,0.61,0.152
1593982152910874,1.677,0.61,0.152
1593982153412714,1.715,0.61,0.152
1593982153917340,1.677,0.61,0.152
1593982154419108,1.676,0.61,0.152
1593982154920973,1.677,0.61,0.152
1593982155424183,1.677,0.61,0.152
1593982155928056,1.677,0.61,0.152
1593982156430002,1.677,0.61,0.152
1593982156932140,1.753,0.61,0.152
1593982157434257,1.676,0.61,0.152
1593982157936318,1.677,0.61,0.152
1593982158438324,1.715,0.61,0.152
1593982158940429,1.677,0.61,0.152
1593982159442438,1.677,0.61,0.152
1593982159944591,1.715,0.61,0.152
1593982160446569,1.676,0.61,0.152
1593982160948637,1.715,0.61,0.152
1593982161450795,1.715,0.61,0.152
1593982161952849,1.677,0.61,0.152
1593982162454839,1.677,0.61,0.152
1593982162957279,1.676,0.61,0.152
1593982163459190,1.639,0.533,0.152
1593982163961316,1.753,0.61,0.152
1593982164463412,1.715,0.61,0.152
1593982164965480,1.715,0.61,0.152
1593982165467594,1.676,0.61,0.152
1593982165969599,1.715,0.61,0.152
1593982166471781,1.677,0.61,0.152
1593982166973946,1.676,0.61,0.152
1593982167476066,1.715,0.61,0.152
1593982167978068,1.677,0.61,0.152
1593982168480034,1.676,0.61,0.152
1593982168982009,1.753,0.61,0.152
1593982169484165,1.715,0.61,0.152
1593982169986302,1.753,0.61,0.152
1593982170488326,1.715,0.61,0.152
1593982170991658,1.715,0.61,0.152
1593982171493593,1.677,0.61,0.152
1593982171995661,1.677,0.61,0.152
1593982172497733,1.715,0.61,0.152
1593982172999786,1.753,0.61,0.152
1593982173501751,1.677,0.61,0.152
1593982174003780,1.715,0.61,0.152
1593982174505749,1.715,0.61,0.152
1593982175007711,1.791,0.686,0.152
1593982175509714,1.715,0.61,0.152
1593982176011793,1.715,0.61,0.152
1593982176513820,1.715,0.61,0.152
1593982177015958,1.676,0.61,0.152
1593982177517980,1.639,0.61,0.152
1593982178020015,1.676,0.61,0.152
1593982178522021,1.677,0.61,0.152
1593982179024087,1.715,0.61,0.152
1593982179526165,1.715,0.61,0.152
1593982180028260,1.677,0.61,0.152
1593982180530228,1.753,0.686,0.152
1593982181032294,1.677,0.61,0.152
1593982181534404,1.715,0.61,0.152
1593982182036552,1.677,0.61,0.152
1593982182538515,1.677,0.61,0.152
1593982183040673,1.639,0.61,0.152
1593982183542674,1.677,0.61,0.152
1593982184044768,1.677,0.61,0.152
1593982184546724,1.676,0.61,0.152
1593982185048813,1.753,0.61,0.152
1593982185550786,1.677,0.61,0.152
1593982186052971,1.677,0.61,0.152
1593982186555008,1.677,0.61,0.152
1593982187057228,1.677,0.61,0.152
1593982187559253,1.676,0.61,0.152
1593982188061365,1.715,0.61,0.152
1593982188563420,1.677,0.61,0.152
1593982189065402,1.639,0.61,0.152
1593982189567486,1.677,0.61,0.152
1593982190069575,1.715,0.61,0.152
1593982190571530,1.677,0.61,0.152
1593982191073522,1.715,0.61,0.152
1593982191575558,1.676,0.61,0.152
1593982192077490,1.677,0.61,0.152
1593982192579653,1.753,0.61,0.152
1593982193081670,1.677,0.61,0.152
1593982193583729,1.639,0.61,0.152
1593982194085754,1.677,0.61,0.152
1593982194587767,1.676,0.61,0.152
1593982195089811,1.676,0.61,0.152
1593982195591878,1.715,0.61,0.152
1593982196093934,1.677,0.61,0.152
1593982196596083,1.639,0.61,0.152
1593982197098162,1.677,0.61,0.152
1593982197600314,1.753,0.61,0.152
1593982198102382,1.677,0.61,0.152
1593982198604306,1.753,0.61,0.152
1593982199106357,1.715,0.61,0.152
1593982199608420,1.677,0.61,0.152
1593982200110384,1.677,0.61,0.152
1593982200612478,1.677,0.61,0.152
1593982201114534,1.715,0.61,0.152
1593982201616567,1.677,0.61,0.152
1593982202118608,1.677,0.61,0.152
1593982202620632,1.715,0.61,0.152
1593982203122617,1.677,0.61,0.152
1593982203624619,1.639,0.61,0.152
1593982204126621,1.676,0.61,0.152
1593982204628848,1.638,0.61,0.152
1593982205130867,1.677,0.61,0.152
1593982205632803,1.753,0.61,0.152
1593982206134731,1.677,0.61,0.152
1593982206636863,1.753,0.686,0.152
1593982207138850,1.715,0.61,0.152
1593982207640876,1.753,0.61,0.152
1593982208142956,1.677,0.61,0.152
1593982208645146,1.677,0.61,0.152
1593982209147076,1.715,0.61,0.152
1593982209649102,1.677,0.61,0.152
1593982210153338,1.753,0.61,0.152
1593982210655464,1.715,0.61,0.152
1593982211162191,1.829,0.61,0.152
1593982211664749,2.096,0.61,0.152
1593982212166754,2.096,0.61,0.152
1593982212677248,2.096,0.61,0.152
1593982213179460,1.829,0.533,0.152
1593982213681463,1.715,0.61,0.152
1593982214183526,1.677,0.61,0.152
1593982214685598,1.676,0.61,0.152
1593982215187722,1.677,0.61,0.152
1593982215689844,1.677,0.61,0.152
1593982216191950,1.677,0.61,0.152
1593982216694110,1.715,0.61,0.152
1593982217196479,1.753,0.61,0.152
1593982217698527,1.715,0.61,0.152
1593982218200615,1.676,0.61,0.152
1593982218702685,1.715,0.61,0.152
1593982219204899,1.677,0.61,0.152
1593982219707050,1.753,0.61,0.152
1593982220209130,1.715,0.61,0.152
1593982220711130,1.715,0.61,0.152
1593982221213365,1.715,0.61,0.152
1593982221715405,1.677,0.61,0.152
1593982222217404,1.715,0.61,0.152
1593982222719449,1.639,0.61,0.152
1593982223221437,1.676,0.61,0.152
1593982223723660,1.677,0.61,0.152
1593982224225654,1.715,0.61,0.152
1593982224727731,1.639,0.61,0.152
1593982225229784,1.639,0.61,0.152
1593982225732008,1.715,0.61,0.152
1593982226233992,1.715,0.61,0.152
1593982226736230,1.677,0.61,0.152
1593982227238226,1.639,0.61,0.152
1593982227740419,1.715,0.61,0.152
1593982228242430,1.677,0.61,0.152
1593982228744586,1.677,0.61,0.152
1593982229246594,1.715,0.61,0.152
1593982229748687,1.677,0.61,0.152
1593982230250771,1.639,0.61,0.152
1593982230752865,1.677,0.61,0.152
1593982231254859,1.676,0.61,0.152
1593982231756837,1.677,0.61,0.152
1593982232258935,1.792,0.61,0.152
1593982232761104,1.715,0.61,0.152
1593982233263220,1.715,0.61,0.152
1593982233765402,1.715,0.61,0.152
1593982234267490,1.676,0.61,0.152
1593982234769469,1.676,0.61,0.152
1593982235271535,1.677,0.61,0.152
1593982235773490,1.639,0.61,0.152
1593982236275643,1.639,0.61,0.152
1593982236777738,1.677,0.61,0.152
1593982237279766,1.715,0.61,0.152
1593982237781773,1.677,0.61,0.152
1593982238283902,1.677,0.61,0.152
1593982238785900,1.676,0.61,0.152
1593982239287975,1.676,0.61,0.152
1593982239790073,1.677,0.533,0.152
1593982240292097,1.753,0.61,0.152
1593982240794214,1.677,0.61,0.152
1593982241296283,1.715,0.61,0.152
1593982241798341,1.715,0.61,0.152
1593982242300349,1.715,0.61,0.152
1593982242802540,1.715,0.61,0.152
1593982243304583,1.677,0.61,0.152
1593982243806505,1.677,0.61,0.152
1593982244308708,1.677,0.61,0.152
1593982244810691,1.677,0.61,0.152
1593982245312764,1.715,0.61,0.152
1593982245814947,1.677,0.61,0.152
1593982246317023,1.715,0.61,0.152
1593982246819113,1.715,0.61,0.152
1593982247321106,1.677,0.61,0.152
1593982247823184,1.753,0.61,0.152
1593982248325274,1.753,0.61,0.152
1593982248827273,1.715,0.61,0.152
1593982249329423,1.677,0.61,0.152
1593982249831492,1.715,0.61,0.152
1593982250333570,1.677,0.61,0.152
1593982250835688,1.639,0.61,0.152
1593982251337678,1.639,0.61,0.152
1593982251839769,1.715,0.61,0.152
1593982252341715,1.677,0.61,0.152
1593982252843691,1.791,0.686,0.152
1593982253345984,1.715,0.61,0.152
1593982253847970,1.676,0.61,0.152
1593982254350037,1.753,0.61,0.152
1593982254852052,1.715,0.61,0.152
1593982255354070,1.753,0.61,0.152
1593982255856089,1.677,0.61,0.152
1593982256358128,1.753,0.61,0.152
1593982256860263,1.677,0.61,0.152
1593982257362331,1.791,0.61,0.152
1593982257864373,1.715,0.61,0.152
1593982258366491,1.753,0.61,0.152
1593982258868635,1.677,0.61,0.152
1593982259370650,1.677,0.61,0.152
1593982259872762,1.677,0.61,0.152
1593982260374684,1.715,0.61,0.152
1593982260876610,1.677,0.61,0.152
1593982261378588,1.753,0.686,0.152
1593982261880570,1.676,0.61,0.152
1593982262382516,1.715,0.61,0.152
1593982262884549,1.715,0.61,0.152
1593982263386573,1.753,0.61,0.152
1593982263888554,1.677,0.61,0.152
1593982264390464,1.753,0.61,0.152
1593982264892665,1.677,0.61,0.152
1593982265394666,1.753,0.61,0.152
1593982265896748,1.715,0.61,0.152
1593982266398751,1.753,0.61,0.152
1593982266900802,1.677,0.61,0.152
1593982267403122,1.715,0.61,0.152
1593982267905143,1.677,0.61,0.152
1593982268407147,1.677,0.61,0.152
1593982268909297,1.639,0.61,0.152
1593982269411279,1.677,0.61,0.152
1593982269913319,1.677,0.61,0.152
1593982270415407,1.677,0.61,0.152
1593982270917457,1.715,0.61,0.152
1593982271419471,1.677,0.61,0.152
1593982271921467,1.639,0.61,0.152
1593982272423515,1.677,0.61,0.152
1593982272925589,1.715,0.61,0.152
1593982273427668,1.677,0.61,0.152
1593982273929659,1.715,0.61,0.152
1593982274433575,1.943,0.61,0.152
1593982274935521,2.172,0.686,0.152
1593982275437461,2.096,0.61,0.152
1593982275939548,1.981,0.61,0.152
1593982276441502,1.791,0.61,0.152
1593982276943537,1.715,0.61,0.152
1593982277445484,1.715,0.61,0.152
1593982277947565,1.753,0.61,0.152
1593982278449532,1.677,0.61,0.152
1593982278951569,1.753,0.61,0.152
1593982279453561,1.715,0.61,0.152
1593982279955466,1.753,0.686,0.152
1593982280457411,1.715,0.61,0.152
1593982280959467,1.753,0.61,0.152
1593982281461447,1.677,0.61,0.152
1593982281963545,1.753,0.61,0.152
1593982282465586,1.753,0.61,0.152
1593982282967763,1.715,0.61,0.152
1593982283469833,1.753,0.61,0.152
1593982283972043,1.753,0.61,0.152
1593982284474016,1.676,0.61,0.152
1593982284976046,1.676,0.61,0.152
1593982285478076,1.677,0.61,0.152
1593982285980320,1.677,0.61,0.152
1593982286482444,1.677,0.61,0.152
1593982286984502,1.715,0.61,0.152
1593982287486451,1.791,0.61,0.152
1593982287989050,1.715,0.61,0.152
1593982288491005,1.753,0.61,0.152
1593982288993014,1.677,0.61,0.152
1593982289495170,1.753,0.61,0.152
1593982289997391,1.677,0.61,0.152
1593982290499674,1.715,0.61,0.152
1593982291001673,1.715,0.61,0.152
1593982291503721,1.753,0.61,0.152
1593982292005775,1.715,0.61,0.152
1593982292508331,1.677,0.61,0.152
1593982293010307,1.753,0.61,0.152
1593982293512405,1.715,0.61,0.152
1593982294014435,1.715,0.61,0.152
1593982294516501,1.677,0.61,0.152
1593982295018565,1.753,0.61,0.152
1593982295520742,1.677,0.61,0.152
1593982296022758,1.715,0.61,0.152
1593982296525017,1.715,0.61,0.152
1593982297027079,1.677,0.61,0.152
1593982297529097,1.639,0.61,0.152
1593982298031070,1.715,0.61,0.152
1593982298533113,1.677,0.61,0.152
1593982299035106,1.677,0.61,0.152
1593982299537044,1.753,0.61,0.152
1593982300039059,1.677,0.61,0.152
1593982300541158,1.715,0.61,0.152
1593982301043171,1.715,0.61,0.152
1593982301545357,1.753,0.61,0.152
1593982302047421,1.715,0.61,0.152
1593982302549567,1.677,0.61,0.152
1593982303051727,1.715,0.61,0.152
1593982303553832,1.677,0.61,0.152
1593982304055950,1.677,0.61,0.152
1593982304557984,1.753,0.61,0.152
1593982305060021,1.715,0.61,0.152
1593982305562096,1.715,0.61,0.152
1593982306064089,1.677,0.61,0.152
1593982306566087,1.677,0.61,0.152
1593982307068082,1.715,0.61,0.152
1593982307570086,1.715,0.61,0.152
1593982308072151,1.677,0.61,0.152
1593982308574122,1.715,0.61,0.152
1593982309076246,1.715,0.61,0.152
1593982309578373,1.677,0.61,0.152
1593982310080405,1.676,0.61,0.152
1593982310582401,1.677,0.61,0.152
1593982311084880,1.715,0.61,0.152
1593982311586852,1.677,0.61,0.152
1593982312088816,1.677,0.61,0.152
1593982312590785,1.715,0.61,0.152
1593982313093073,1.677,0.61,0.152
1593982313595064,1.715,0.61,0.152
1593982314097271,1.676,0.61,0.152
1593982314599368,1.677,0.61,0.152
1593982315101401,1.753,0.61,0.152
1593982315603556,1.677,0.61,0.152
1593982316105601,1.715,0.61,0.152
1593982316607664,1.715,0.61,0.152
1593982317109760,1.753,0.61,0.152
1593982317611837,1.677,0.61,0.152
1593982318113832,1.715,0.61,0.152
1593982318615968,1.677,0.61,0.152
1593982319117900,1.753,0.61,0.152
1593982319620019,1.715,0.61,0.152
1593982320122163,1.715,0.61,0.152
1593982320624196,1.677,0.61,0.152
1593982321126249,1.677,0.61,0.152
1593982321628286,1.715,0.61,0.152
1593982322130298,1.715,0.61,0.152
1593982322632311,1.677,0.61,0.152
1593982323134318,1.639,0.61,0.152
1593982323636302,1.715,0.61,0.152
1593982324138362,1.677,0.61,0.152
1593982324640515,1.677,0.61,0.152
1593982325142568,1.676,0.61,0.152
1593982325644579,1.677,0.61,0.152
1593982326146559,1.677,0.61,0.152
1593982326648656,1.677,0.61,0.152
1593982327150645,1.715,0.61,0.152
1593982327652799,1.677,0.61,0.152
1593982328154833,1.677,0.61,0.152
1593982328656861,1.677,0.61,0.152
1593982329159020,1.676,0.61,0.152
1593982329661186,1.677,0.61,0.152
1593982330163226,1.791,0.61,0.152
1593982330665345,1.715,0.61,0.152
1593982331167592,1.753,0.61,0.152
1593982331669712,1.753,0.61,0.152
1593982332171779,1.753,0.61,0.152
1593982332673838,1.677,0.61,0.152
1593982333175949,1.677,0.61,0.152
1593982333677956,1.676,0.61,0.152
1593982334180151,1.677,0.61,0.152
1593982334682058,1.753,0.61,0.152
1593982335184496,1.715,0.61,0.152
1593982335686538,1.676,0.61,0.152
1593982336188631,1.715,0.61,0.152
1593982336690685,1.715,0.61,0.152
1593982337192875,1.829,0.61,0.152
1593982337695024,2.058,0.61,0.152
1593982338197164,2.096,0.61,0.152
1593982338699182,2.134,0.61,0.152
1593982339201181,1.867,0.61,0.152
1593982339703127,1.791,0.61,0.152
1593982340205203,1.715,0.61,0.152
1593982340707406,1.677,0.61,0.152
1593982341209428,1.753,0.61,0.152
1593982341711521,1.715,0.61,0.152
1593982342213569,1.753,0.61,0.152
1593982342715693,1.677,0.61,0.152
1593982343218604,1.753,0.61,0.152
1593982343720708,1.715,0.61,0.152
1593982344222769,1.715,0.61,0.152
1593982344724781,1.715,0.61,0.152
1593982345226788,1.753,0.61,0.152
1593982345729024,1.715,0.61,0.152
1593982346231025,1.715,0.61,0.152
1593982346733044,1.715,0.61,0.152
1593982347235095,1.677,0.61,0.152
1593982347737326,1.715,0.61,0.152
1593982348239387,1.715,0.61,0.152
1593982348741584,1.753,0.61,0.152
1593982349243631,1.677,0.61,0.152
1593982349745728,1.676,0.61,0.152
1593982350248764,1.715,0.61,0.152
1593982350750793,1.715,0.61,0.152
1593982351252819,1.715,0.61,0.152
1593982351754816,1.715,0.61,0.152
1593982352256842,1.677,0.61,0.152
1593982352758900,1.676,0.61,0.152
1593982353261000,1.753,0.61,0.152
1593982353762983,1.677,0.61,0.152
1593982354265100,1.715,0.61,0.152
1593982354767264,1.677,0.61,0.152
1593982355269528,1.677,0.61,0.152
1593982355771592,1.677,0.61,0.152
1593982356273613,1.753,0.61,0.152
1593982356775656,1.791,0.686,0.152
1593982357277650,1.715,0.61,0.152
1593982357779693,1.791,0.686,0.152
1593982358281639,1.829,0.686,0.152
1593982358783694,1.753,0.61,0.152
1593982359285862,1.715,0.61,0.152
1593982359787992,1.715,0.61,0.152
1593982360290185,1.715,0.61,0.152
1593982360792242,1.753,0.61,0.152
1593982361294282,1.676,0.61,0.152
1593982361796403,1.753,0.61,0.152
1593982362298472,1.753,0.61,0.152
1593982362800539,1.753,0.61,0.152
1593982363302553,1.715,0.61,0.152
1593982363804565,1.753,0.61,0.152
1593982364306707,1.791,0.61,0.152
1593982364808727,1.753,0.61,0.152
1593982365310734,1.677,0.61,0.152
1593982365812926,1.715,0.61,0.152
1593982366314986,1.677,0.61,0.152
1593982366817103,1.676,0.61,0.152
1593982367319273,1.715,0.61,0.152
1593982367821429,1.715,0.61,0.152
1593982368323463,1.677,0.61,0.152
1593982368825553,1.715,0.61,0.152
1593982369327677,1.715,0.61,0.152
1593982369829700,1.715,0.61,0.152
1593982370331888,1.715,0.61,0.152
1593982370833900,1.753,0.61,0.152
1593982371335963,1.715,0.61,0.152
1593982371837993,1.677,0.61,0.152
1593982372340021,1.715,0.61,0.152
1593982372842025,1.677,0.61,0.152
1593982373344064,1.677,0.61,0.152
1593982373846042,1.753,0.686,0.152
1593982374347993,1.791,0.61,0.152
1593982374849954,1.715,0.61,0.152
1593982375352050,1.753,0.61,0.152
1593982375854059,1.715,0.61,0.152
1593982376356012,1.715,0.61,0.152
1593982376858019,1.791,0.61,0.152
1593982377360086,1.715,0.61,0.152
1593982377862184,1.677,0.61,0.152
1593982378364297,1.715,0.61,0.152
1593982378866333,1.791,0.61,0.152
1593982379368277,1.715,0.61,0.152
1593982379870237,1.753,0.61,0.152
1593982380372364,1.753,0.61,0.152
1593982380877443,1.753,0.61,0.152
1593982381379470,1.676,0.61,0.152
1593982381881607,1.639,0.61,0.152
1593982382383662,1.676,0.61,0.152
1593982382885716,1.677,0.61,0.152
1593982383389623,1.677,0.61,0.152
1593982383891623,1.753,0.61,0.152
1593982384393766,1.676,0.61,0.152
1593982384895762,1.715,0.61,0.152
1593982385397776,1.715,0.61,0.152
1593982385899770,1.791,0.61,0.152
1593982386401726,1.753,0.61,0.152
1593982386903738,1.829,0.686,0.152
1593982387405864,1.905,0.762,0.152
1593982387907967,1.905,0.762,0.152
1593982388410080,1.829,0.686,0.152
1593982388912101,1.867,0.686,0.152
1593982389414188,1.791,0.686,0.152
1593982389916368,1.753,0.686,0.152
1593982390418414,1.791,0.61,0.152
1593982390920610,1.753,0.686,0.152
1593982391422586,1.753,0.686,0.152
1593982391924627,1.676,0.61,0.152
1593982392426708,1.753,0.61,0.152
1593982392928796,1.753,0.61,0.152
1593982393430811,1.677,0.61,0.152
1593982393932857,1.677,0.61,0.152
1593982394434858,1.677,0.61,0.152
1593982394936918,1.715,0.61,0.152
1593982395439208,1.753,0.686,0.152
1593982395941249,1.676,0.61,0.152
1593982396443370,1.677,0.61,0.152
1593982396945355,1.715,0.61,0.152
1593982397447293,1.753,0.61,0.152
1593982397949271,1.829,0.686,0.152
1593982398451459,1.753,0.686,0.152
1593982398953585,1.715,0.61,0.152
1593982399455533,1.715,0.61,0.152
1593982399957514,1.829,0.686,0.152
1593982400459524,2.058,0.61,0.152
1593982400961632,2.134,0.61,0.152
1593982401463771,2.096,0.61,0.152
1593982401965919,1.905,0.61,0.152
1593982402467977,1.867,0.686,0.152
1593982402970075,1.715,0.61,0.152
1593982403472063,1.676,0.61,0.152
1593982403974140,1.677,0.61,0.152
1593982404476344,1.715,0.61,0.152
1593982404978389,1.753,0.61,0.152
1593982405480559,1.677,0.61,0.152
1593982405982543,1.753,0.686,0.152
1593982406484534,1.829,0.686,0.152
1593982406988783,1.753,0.61,0.152
1593982407490825,1.753,0.61,0.152
1593982407992865,1.677,0.61,0.152
1593982408494831,1.639,0.61,0.152
1593982408996982,1.715,0.61,0.152
1593982409499173,1.753,0.61,0.152
1593982410001324,1.715,0.61,0.152
1593982410503448,1.715,0.61,0.152
1593982411005396,1.715,0.61,0.152
1593982411507980,1.715,0.61,0.152
1593982412009980,1.753,0.61,0.152
1593982412512029,1.715,0.61,0.152
1593982413013988,1.715,0.61,0.152
1593982413516321,1.753,0.61,0.152
1593982414018347,1.715,0.61,0.152
1593982414520294,1.791,0.686,0.152
1593982415022462,1.715,0.61,0.152
1593982415524583,1.715,0.61,0.152
1593982416026636,1.715,0.61,0.152
1593982416528717,1.753,0.61,0.152
1593982417030701,1.677,0.61,0.152
1593982417532925,1.677,0.61,0.152
1593982418034973,1.715,0.61,0.152
1593982418537178,1.715,0.61,0.152
1593982419039107,1.791,0.61,0.152
1593982419541163,1.715,0.61,0.152
1593982420043204,1.677,0.61,0.152
1593982420545255,1.753,0.61,0.152
1593982421047438,1.715,0.61,0.152
1593982421549445,1.791,0.686,0.152
1593982422051477,1.715,0.61,0.152
1593982422553509,1.715,0.61,0.152
1593982423055544,1.753,0.61,0.152
1593982423557565,1.715,0.61,0.152
1593982424059556,1.715,0.61,0.152
1593982424561491,1.677,0.61,0.152
1593982425064897,1.639,0.61,0.152
1593982425566935,1.753,0.61,0.152
1593982426069011,1.715,0.61,0.152
1593982426571016,1.677,0.61,0.152
1593982427073104,1.676,0.61,0.152
1593982427575182,1.676,0.61,0.152
1593982428077325,1.677,0.61,0.152
1593982428579435,1.715,0.61,0.152
1593982429081452,1.677,0.61,0.152
1593982429583712,1.638,0.61,0.152
1593982430085676,1.753,0.61,0.152
1593982430587706,1.715,0.61,0.152
1593982431089764,1.677,0.61,0.152
1593982431591779,1.638,0.61,0.152
1593982432093945,1.639,0.61,0.152
1593982432596204,1.715,0.61,0.152
1593982433098157,1.753,0.61,0.152
1593982433600238,1.677,0.61,0.152
1593982434102284,1.677,0.61,0.152
1593982434604341,1.677,0.61,0.152
1593982435106349,1.677,0.61,0.152
1593982435608345,1.753,0.61,0.152
1593982436110339,1.791,0.686,0.152
1593982436612279,1.715,0.61,0.152
1593982437114270,1.791,0.61,0.152
1593982437616519,1.715,0.61,0.152
1593982438118449,1.753,0.61,0.152
1593982438620576,1.753,0.61,0.152
1593982439122555,1.715,0.61,0.152
1593982439624520,1.753,0.686,0.152
1593982440126556,1.791,0.61,0.152
1593982440628638,1.715,0.61,0.152
1593982441130716,1.677,0.61,0.152
1593982441632959,1.753,0.61,0.152
1593982442135067,1.715,0.61,0.152
1593982442637070,1.753,0.61,0.152
1593982443139043,1.715,0.61,0.152
1593982443641204,1.753,0.61,0.152
1593982444143592,1.715,0.61,0.152
1593982444645610,1.677,0.61,0.152
1593982445148081,1.715,0.61,0.152
1593982445650196,1.715,0.61,0.152
1593982446152302,1.715,0.61,0.152
1593982446654291,1.753,0.61,0.152
1593982447156262,1.715,0.61,0.152
1593982447658263,1.753,0.686,0.152
1593982448160444,1.715,0.61,0.152
1593982448662464,1.753,0.61,0.152
1593982449164982,1.677,0.61,0.152
1593982449667098,1.677,0.61,0.152
1593982450169252,1.753,0.61,0.152
1593982450671268,1.715,0.61,0.152
1593982451173404,1.676,0.61,0.152
1593982451675448,1.791,0.61,0.152
1593982452177398,1.715,0.61,0.152
1593982452679524,1.715,0.61,0.152
1593982453181652,1.715,0.61,0.152
1593982453683806,1.677,0.61,0.152
1593982454185780,1.715,0.61,0.152
1593982454687933,1.677,0.61,0.152
1593982455189982,1.677,0.61,0.152
1593982455692018,1.715,0.61,0.152
1593982456194017,1.753,0.61,0.152
1593982456696047,1.715,0.61,0.152
1593982457197978,1.791,0.686,0.152
1593982457700143,1.715,0.61,0.152
1593982458202290,1.753,0.61,0.152
1593982458704965,1.715,0.61,0.152
1593982459206933,1.677,0.61,0.152
1593982459708956,1.677,0.61,0.152
1593982460211023,1.676,0.61,0.152
1593982460713249,1.676,0.61,0.152
1593982461215272,1.715,0.61,0.152
1593982461717293,1.791,0.61,0.152
1593982462219469,1.677,0.61,0.152
1593982462721471,1.715,0.61,0.152
1593982463223478,1.943,0.61,0.152
1593982463725539,2.058,0.61,0.152
1593982464227564,2.096,0.61,0.152
1593982464729673,2.019,0.61,0.152
1593982465231776,1.791,0.61,0.152
1593982465733839,1.715,0.61,0.152
1593982466235796,1.715,0.61,0.152
1593982466737736,1.753,0.686,0.152
1593982467240185,1.715,0.61,0.152
1593982467743857,1.753,0.61,0.152
1593982468245912,1.753,0.61,0.152
1593982468747960,1.715,0.61,0.152
1593982469249956,1.677,0.61,0.152
1593982469752061,1.715,0.61,0.152
1593982470254045,1.677,0.61,0.152
1593982470756067,1.715,0.61,0.152
1593982471258096,1.639,0.61,0.152
1593982471760292,1.639,0.61,0.152
1593982472262674,1.676,0.61,0.152
1593982472764685,1.715,0.61,0.152
1593982473266792,1.676,0.61,0.152
1593982473768926,1.715,0.61,0.152
1593982474271012,1.677,0.61,0.152
1593982474773183,1.753,0.61,0.152
1593982475275191,1.715,0.61,0.152
1593982475777279,1.676,0.61,0.152
1593982476279265,1.677,0.61,0.152
1593982476781445,1.677,0.61,0.152
1593982477283500,1.715,0.61,0.152
1593982477785493,1.753,0.61,0.152
1593982478287481,1.677,0.61,0.152
1593982478789556,1.677,0.61,0.152
1593982479292305,1.715,0.61,0.152
1593982479794379,1.677,0.61,0.152
1593982480296321,1.753,0.61,0.152
1593982480798331,1.753,0.61,0.152
1593982481300350,1.677,0.61,0.152
1593982481802409,1.677,0.61,0.152
1593982482304490,1.753,0.61,0.152
1593982482806504,1.677,0.61,0.152
1593982483308603,1.715,0.61,0.152
1593982483810673,1.715,0.61,0.152
1593982484312810,1.677,0.61,0.152
1593982484814751,1.753,0.686,0.152
1593982485316752,1.715,0.61,0.152
1593982485818732,1.715,0.61,0.152
1593982486320855,1.753,0.61,0.152
1593982486822844,1.753,0.61,0.152
1593982487324838,1.677,0.61,0.152
1593982487832973,1.677,0.61,0.152
1593982488335104,1.677,0.61,0.152
1593982488837161,1.677,0.61,0.152
1593982489339219,1.677,0.61,0.152
1593982489841267,1.715,0.61,0.152
1593982490343249,1.639,0.61,0.152
1593982490845309,1.638,0.61,0.152
1593982491347510,1.753,0.61,0.152
1593982491849509,1.715,0.61,0.152
1593982492351555,1.677,0.61,0.152
1593982492853635,1.715,0.61,0.152
1593982493355706,1.677,0.61,0.152
1593982493857656,1.677,0.61,0.152
1593982494359630,1.715,0.61,0.152
1593982494861627,1.715,0.61,0.152
1593982495363831,1.677,0.61,0.152
1593982495867517,1.677,0.61,0.152
1593982496369517,1.791,0.686,0.152
1593982496871497,1.791,0.61,0.152
1593982497373507,1.677,0.61,0.152
1593982497875643,1.676,0.61,0.152
1593982498377604,1.753,0.61,0.152
1593982498879672,1.715,0.61,0.152
1593982499381674,1.715,0.61,0.152
1593982499883742,1.677,0.61,0.152
1593982500385753,1.715,0.61,0.152
1593982500887745,1.715,0.61,0.152
1593982501389751,1.715,0.61,0.152
1593982501891786,1.639,0.61,0.152
1593982502393813,1.639,0.61,0.152
1593982502895941,1.791,0.61,0.152
1593982503397966,1.715,0.61,0.152
1593982503900022,1.677,0.61,0.152
1593982504402034,1.677,0.61,0.152
1593982504904099,1.676,0.61,0.152
1593982505406160,1.677,0.61,0.152
1593982505908232,1.753,0.61,0.152
1593982506410232,1.677,0.61,0.152
1593982506912321,1.715,0.61,0.152
1593982507414331,1.676,0.61,0.152
1593982507916458,1.677,0.61,0.152
1593982508418448,1.753,0.61,0.152
1593982508920461,1.791,0.686,0.152
1593982509422529,1.715,0.61,0.152
1593982509924649,1.792,0.686,0.152
1593982510426730,1.715,0.61,0.152
1593982510928713,1.715,0.61,0.152
1593982511430853,1.753,0.61,0.152
1593982511933012,1.715,0.61,0.152
1593982512435092,1.715,0.61,0.152
1593982512937134,1.715,0.61,0.152
1593982513439215,1.715,0.61,0.152
1593982513941292,1.753,0.61,0.152
1593982514443252,1.715,0.61,0.152
1593982514945339,1.715,0.61,0.152
1593982515447483,1.715,0.61,0.152
1593982515949499,1.715,0.61,0.152
1593982516451536,1.677,0.61,0.152
1593982516953450,1.753,0.61,0.152
1593982517455469,1.715,0.61,0.152
1593982517957483,1.753,0.61,0.152
1593982518459463,1.791,0.686,0.152
1593982518961386,1.715,0.61,0.152
1593982519463375,1.753,0.61,0.152
1593982519965366,1.677,0.61,0.152
1593982520467435,1.715,0.61,0.152
1593982520969461,1.791,0.686,0.152
1593982521471496,1.715,0.61,0.152
1593982521973436,1.753,0.686,0.152
1593982522480370,1.677,0.61,0.152
1593982522982366,1.676,0.61,0.152
1593982523484516,1.676,0.61,0.152
1593982523986588,1.677,0.61,0.152
1593982524488690,1.715,0.61,0.152
1593982524990723,1.677,0.61,0.152
1593982525492918,1.677,0.61,0.152
1593982525995089,1.791,0.61,0.152
1593982526497072,2.019,0.61,0.152
1593982526999079,2.134,0.61,0.152
1593982527501073,2.096,0.61,0.152
1593982528003438,1.905,0.61,0.152
1593982528505491,1.829,0.61,0.152
1593982529007539,1.715,0.61,0.152
1593982529509525,1.753,0.686,0.152
1593982530011706,1.753,0.61,0.152
1593982530513846,1.753,0.61,0.152
