TimeStamp,Total Power,CPU Power,GPU Power
1592831100177183,1.601,0.457,0.152
1592831100678577,1.982,0.839,0.152
1592831101179927,2.02,0.915,0.152
1592831101681262,2.02,0.991,0.152
1592831102182576,2.135,0.991,0.152
1592831102683853,2.173,0.991,0.152
1592831103185151,2.058,0.991,0.152
1592831103686844,2.097,0.991,0.152
1592831104189135,2.058,0.991,0.152
1592831104690434,2.058,0.991,0.152
1592831105191724,2.058,0.991,0.152
1592831105693011,2.02,0.991,0.152
1592831106194280,2.02,0.991,0.152
1592831106695555,2.058,0.991,0.152
1592831107196827,2.02,0.991,0.152
1592831107698100,2.02,0.991,0.152
1592831108199398,2.02,0.991,0.152
1592831108701514,2.02,0.991,0.152
1592831109203672,2.02,0.991,0.152
1592831109706368,2.02,0.991,0.152
1592831110208489,2.02,0.991,0.152
1592831110710730,2.02,0.991,0.152
1592831111212968,2.02,0.991,0.152
1592831111717721,2.02,0.991,0.152
1592831112219848,2.02,0.991,0.152
1592831112722260,2.02,0.991,0.152
1592831113224494,2.02,0.991,0.152
1592831113726533,2.02,0.991,0.152
1592831114228652,2.02,0.991,0.152
1592831114731467,2.058,0.991,0.152
1592831115233579,2.058,0.991,0.152
1592831115735792,2.135,0.991,0.152
1592831116238081,2.058,0.991,0.152
1592831116740158,2.058,0.991,0.152
1592831117242445,2.02,0.991,0.152
1592831117744522,2.02,0.991,0.152
1592831118246628,2.02,0.991,0.152
1592831118750854,2.058,0.991,0.152
1592831119252190,2.058,0.991,0.152
1592831119753509,2.02,0.991,0.152
1592831120254784,2.058,0.991,0.152
1592831120756061,2.02,0.991,0.152
1592831121257329,2.02,0.991,0.152
1592831121758606,2.02,0.991,0.152
1592831122259906,2.02,0.991,0.152
1592831122761201,2.058,0.991,0.152
1592831123262495,2.058,0.991,0.152
1592831123763789,2.02,0.991,0.152
1592831124265092,2.02,0.991,0.152
1592831124766365,2.02,0.991,0.152
1592831125267621,2.02,0.991,0.152
1592831125768890,2.02,0.991,0.152
1592831126270168,2.02,0.991,0.152
1592831126771456,2.058,0.991,0.152
1592831127272733,2.02,0.991,0.152
1592831127774004,2.02,0.991,0.152
1592831128275282,2.02,0.991,0.152
1592831128776539,2.02,0.991,0.152
1592831129277801,2.02,0.991,0.152
1592831129779090,2.058,0.991,0.152
1592831130280392,2.058,0.991,0.152
1592831130781713,2.058,0.991,0.152
1592831131283073,2.058,0.991,0.152
1592831131784364,2.058,0.991,0.152
1592831132285657,2.02,0.991,0.152
1592831132786916,2.02,0.991,0.152
1592831133288188,2.02,0.991,0.152
1592831133789491,2.058,0.991,0.152
1592831134290799,2.058,0.991,0.152
1592831134792100,2.02,0.991,0.152
1592831135293392,2.058,0.991,0.152
1592831135796257,2.249,0.991,0.152
1592831136297587,2.325,0.991,0.152
1592831136798870,2.173,0.991,0.152
1592831137300160,2.097,0.991,0.152
1592831137801477,2.058,0.991,0.152
1592831138302789,2.058,0.991,0.152
1592831138804077,2.02,0.991,0.152
1592831139305376,2.058,0.991,0.152
1592831139806675,2.02,0.991,0.152
1592831140307947,2.02,0.991,0.152
1592831140809208,2.058,0.991,0.152
1592831141310486,2.058,0.991,0.152
1592831141811761,2.058,0.991,0.152
1592831142313075,2.02,0.991,0.152
1592831142814367,2.173,0.991,0.152
1592831143315653,2.249,0.991,0.152
1592831143817900,2.248,0.991,0.152
1592831144319165,2.248,0.991,0.152
1592831144820431,2.135,0.991,0.152
1592831145321707,2.058,0.991,0.152
1592831145822996,2.02,0.991,0.152
1592831146324318,2.058,0.991,0.152
1592831146825594,2.02,0.991,0.152
1592831147326857,2.02,0.991,0.152
1592831147828131,2.058,0.991,0.152
1592831148329371,2.058,0.991,0.152
1592831148830633,2.058,0.991,0.152
1592831149331918,2.02,0.991,0.152
1592831149833194,2.058,0.991,0.152
1592831150334496,2.02,0.991,0.152
1592831150835801,2.058,0.991,0.152
1592831151337130,2.058,0.991,0.152
1592831151838421,2.058,0.991,0.152
1592831152339668,2.02,0.991,0.152
1592831152840936,2.058,0.991,0.152
1592831153342201,2.058,0.991,0.152
1592831153843494,2.058,0.991,0.152
1592831154344788,2.058,0.991,0.152
1592831154846062,2.058,0.991,0.152
1592831155347346,2.02,0.991,0.152
1592831155848637,2.058,0.991,0.152
1592831156349909,2.02,0.991,0.152
1592831156851162,2.058,0.991,0.152
1592831157352423,2.211,0.991,0.152
1592831157853707,2.324,0.991,0.152
1592831158355006,2.211,0.991,0.152
1592831158856325,2.097,0.991,0.152
1592831159357691,2.248,0.991,0.152
1592831159859007,2.097,0.991,0.152
