TimeStamp,Total Power,CPU Power,GPU Power
1592953326992219,3.468,0.914,0.152
1592953327493485,3.43,0.838,0.152
1592953327994732,3.468,0.914,0.152
1592953328496029,3.43,0.914,0.152
1592953328997282,3.468,0.914,0.152
1592953329498541,3.468,0.914,0.152
1592953329999823,3.43,0.914,0.152
1592953330501072,3.468,0.914,0.152
1592953331002307,3.468,0.914,0.152
1592953331503556,3.43,0.914,0.152
