timestamp	VIRTUAL_SCALING	CPU0_F	CPU1_F	CPU2_F	CPU3_F	CPU4_F	CPU5_F	GPU_FREQ	CPU_GOVERNOR	EMC_F	TEMP0	TEMP1	TEMP2	TEMP3	TEMP4	TEMP5	TEMP6	TEMP7
1593926463226124660	1	345	1574	1574	345	345	345	114750000	performance	1866	28	28	26	28	24	23	100	27
1593926463364854583 	0	346	1566	1562	345	345	345	114750000	performance	1866	28	28	26	28	24	23	100	27
1593926465082631783	1	345	1574	1574	345	345	345	114750000	performance	1866	28	28	26	28	24	23	100	26
1593926465317449173 	0	345	1568	1568	345	345	346	114750000	performance	1866	28	28	26	28	24	23	100	26
1593926467083072475	1	345	1574	1574	345	345	345	114750000	performance	1866	28	28	26	28	24	23	100	27
1593926467289055042 	0	345	1571	1574	345	345	345	114750000	performance	1866	28	28	26	28	24	23	100	27
1593926469111098926	1	345	1574	1574	345	345	345	114750000	performance	1866	28	28	26	28	24	23	100	27
1593926469357098845 	0	345	1576	1567	345	345	345	114750000	performance	1866	28	28	26	28	24	23	100	27
1593926471122372608	1	345	1574	1574	345	345	345	114750000	performance	1866	28	28	26	28	24	23	100	27
1593926471317691306 	0	345	1570	1571	345	345	345	114750000	performance	1866	28	28	26	28	24	23	100	27
1593926473069286814	1	345	1574	1574	345	345	345	114750000	performance	1866	28	28	26	28	24	23	100	27
1593926473273613372 	0	345	1567	1565	345	345	345	114750000	performance	1866	28	28	25	28	24	23	100	27
1593926475096327244	1	345	1574	1574	345	345	345	114750000	performance	1866	28	28	26	28	24	23	100	27
1593926475323434190 	0	345	1254	1574	345	345	345	114750000	performance	1866	28	28	26	28	24	23	100	27
1593926477110161869	1	345	1574	1574	345	345	345	114750000	performance	1866	28	28	26	28	24	23	100	27
1593926477319288519 	0	345	1563	1574	345	345	345	114750000	performance	1866	28	28	26	28	24	23	100	27
1593926479062556075	1	345	1574	1574	345	345	345	114750000	performance	1866	28	28	26	28	24	23	100	27
1593926479277942345 	0	346	1573	1538	345	345	345	114750000	performance	1866	28	28	26	28	24	23	100	27
1593926481050465238	1	345	1574	1574	345	345	345	114750000	performance	1866	28	28	26	28	24	23	100	27
1593926481235251299 	0	345	1585	1569	345	345	345	114750000	performance	1866	28	28	26	28	24	23	100	27
1593926483007533199	1	345	1574	1574	345	345	345	114750000	performance	1866	28	28	26	28	24	23	100	27
1593926483193500546 	0	345	1563	1565	345	345	345	114750000	performance	1866	28	28	26	28	24	23	100	27
1593926484920812746	1	345	1574	1574	345	345	345	114750000	performance	1866	28	28	26	28	24	23	100	27
1593926485181484942 	0	345	1564	1574	345	345	345	114750000	performance	1866	28	28	26	28	24	23	100	27
1593926486933801030	1	345	1574	1574	345	345	345	114750000	performance	1866	28	28	26	28	24	23	100	27
1593926487128946639 	0	345	1562	1564	345	345	345	114750000	performance	1866	28	28	26	28	24	23	100	27
1593926488864256773	1	345	1574	1574	345	345	345	114750000	performance	1866	28	28	26	28	24	23	100	27
1593926489071059858 	0	345	1569	1578	345	345	345	114750000	performance	1866	28	28	26	28	24	23	100	27
1593926490837619516	1	345	1574	1574	345	345	345	114750000	performance	1866	28	28	26	28	24	23	100	27
1593926491041763865 	0	345	1573	1535	345	345	345	114750000	performance	1866	28	28	26	28	24	23	100	27
1593926492816766069	1	345	1574	1574	345	345	345	114750000	performance	1866	28	28	26	28	24	23	100	27
1593926492995556287 	0	345	1567	1566	345	346	345	114750000	performance	1866	28	28	26	28	24	23	100	27
1593926494794647078	1	345	1574	1574	345	345	345	114750000	performance	1866	28	28	26	28	24	23	100	27
1593926495004683845 	0	345	1567	1573	345	345	345	114750000	performance	1866	28	28	26	28	24	23	100	27
1593926496738833780	1	345	1574	1574	345	345	345	114750000	performance	1866	28	28	26	28	24	23	100	27
1593926496992231758 	0	345	1533	1574	345	345	345	114750000	performance	1866	28	28	26	28	24	23	100	27
1593926498735283889	1	345	1574	1574	345	345	345	114750000	performance	1866	28	28	26	28	24	23	100	27
1593926498942577728 	0	345	1563	1566	345	345	345	114750000	performance	1866	28	28	26	28	24	23	100	27
1593926500680969416	1	345	1574	1574	345	345	345	114750000	performance	1866	28	28	26	28	24	23	100	27
1593926500893474741 	0	345	1569	1568	345	345	345	114750000	performance	1866	28	28	26	28	24	23	100	27
1593926502658554327	1	345	1574	1574	345	345	345	114750000	performance	1866	28	28	26	28	24	23	100	27
1593926502859167424 	0	345	1569	1569	345	345	345	114750000	performance	1866	28	28	26	28	24	23	100	27
1593926504599926165	1	345	1574	1574	345	345	345	114750000	performance	1866	28	28	26	28	24	23	100	27
1593926504808563884 	0	345	1569	1565	345	345	345	114750000	performance	1866	28	28	26	28	24	23	100	27
1593926506593917220	1	345	1574	1574	345	345	345	114750000	performance	1866	28	28	26	28	24	23	100	27
1593926506767180174 	0	345	1568	1570	345	345	345	114750000	performance	1866	28	28	26	28	24	23	100	27
1593926508550951900	1	345	1574	1574	345	345	345	114750000	performance	1866	28	28	26	28	24	23	100	27
1593926508810898652 	0	345	1577	1585	345	345	345	114750000	performance	1866	28	28	26	28	24	23	100	27
1593926510571706629	1	345	1574	1574	345	345	345	114750000	performance	1866	28	28	26	28	24	23	100	27
1593926510801668600 	0	345	1569	1570	345	346	345	114750000	performance	1866	28	28	26	28	24	23	100	27
1593926512580813291	1	345	1574	1574	345	345	345	114750000	performance	1866	28	28	26	28	24	23	100	27
1593926512772904610 	0	345	1567	1567	345	345	345	114750000	performance	1866	28	28	26	28	24	23	100	27
1593926514546173876	1	345	1574	1574	345	345	345	114750000	performance	1866	28	28	26	28	24	23	100	27
1593926514781767591 	0	345	1563	1563	345	345	345	114750000	performance	1866	28	28	26	28	24	23	100	27
1593926516513918826	1	345	1574	1574	345	345	345	114750000	performance	1866	28	28	26	28	24	23	100	27
1593926516686254255 	0	345	1570	1572	345	345	345	114750000	performance	1866	28	28	26	28	24	23	100	27
1593926518423684626	1	345	1574	1574	345	345	345	114750000	performance	1866	28	28	26	28	24	23	100	27
1593926518693913005 	0	345	1568	1568	345	345	345	114750000	performance	1866	28	28	26	28	24	23	100	27
1593926520435449799	1	345	1574	1574	345	345	345	114750000	performance	1866	28	28	26	28	24	23	100	27
1593926520637992730 	0	345	1566	1565	345	345	345	114750000	performance	1866	28	28	26	28	24	23	100	27
1593926522439888689	1	345	1574	1574	345	345	345	114750000	performance	1866	28	28	26	28	24	23	100	27
1593926522634945242 	0	345	1572	1581	345	345	345	114750000	performance	1866	28	28	26	28	24	23	100	27
1593926524400614047	1	345	1574	1574	345	345	345	114750000	performance	1866	28	28	26	28	24	23	100	27
1593926524636659957 	0	345	1568	1570	345	345	345	114750000	performance	1866	28	28	26	28	24	23	100	27
1593926526383935984	1	345	1574	1574	345	345	345	114750000	performance	1866	28	28	26	28	24	23	100	27
1593926526601179993 	0	345	1570	1569	345	345	345	114750000	performance	1866	28	28	26	28	24	23	100	27
1593926528318191461	1	345	1574	1574	345	345	345	114750000	performance	1866	28	28	26	28	24	23	100	27
1593926528540607787 	0	345	1568	1567	345	345	345	114750000	performance	1866	28	28	26	28	24	23	100	27
1593926530296661049	1	345	1574	1574	345	345	345	114750000	performance	1866	28	28	26	28	24	23	100	27
1593926530469972804 	0	345	1570	1570	345	345	345	114750000	performance	1866	28	28	26	28	24	23	100	27
1593926532193063027	1	345	1574	1574	345	345	345	114750000	performance	1866	28	28	26	28	24	23	100	27
1593926532436139313 	0	345	1569	1567	345	345	345	114750000	performance	1866	28	28	26	28	24	23	100	27
1593926534181147551	1	345	1574	1574	345	345	345	114750000	performance	1866	28	28	26	28	24	23	100	27
1593926534404042345 	0	345	1570	1575	345	345	345	114750000	performance	1866	28	28	26	28	24	23	100	27
1593926536211487584	1	345	1574	1574	345	345	345	114750000	performance	1866	28	28	26	28	24	23	100	27
1593926536392761337 	0	345	1570	1575	345	345	345	114750000	performance	1866	28	28	26	28	24	23	100	27
1593926538137952072	1	345	1574	1574	345	345	345	114750000	performance	1866	28	28	26	28	24	23	100	27
1593926538308345505 	0	345	1570	1574	345	345	345	114750000	performance	1866	28	28	26	28	24	24	100	27
1593926540015547413	1	345	1574	1574	345	345	345	114750000	performance	1866	28	28	26	28	24	23	100	27
1593926540250442980 	0	345	1575	1569	345	345	345	114750000	performance	1866	28	28	26	28	24	23	100	27
1593926541982008292	1	345	1574	1574	345	345	345	114750000	performance	1866	28	28	26	28	24	23	100	27
1593926542207553949 	0	345	1571	1571	345	345	345	114750000	performance	1866	28	28	26	28	24	23	100	27
1593926543956207296	1	345	1574	1574	345	345	345	114750000	performance	1866	28	28	26	28	24	23	100	27
1593926544194223393 	0	345	1567	1570	345	345	345	114750000	performance	1866	28	28	26	28	24	23	100	27
1593926545916114089	1	345	1574	1574	345	345	345	114750000	performance	1866	28	28	26	28	24	23	100	27
1593926546127640785 	0	345	1569	1571	345	345	345	114750000	performance	1866	28	28	26	28	24	23	100	27
1593926547927065562	1	345	1574	1574	345	345	345	114750000	performance	1866	28	28	26	28	24	23	100	27
1593926548099936354 	0	345	1568	1578	346	345	345	114750000	performance	1866	28	28	26	28	24	23	100	27
1593926549842328000	1	345	1574	1574	345	345	345	114750000	performance	1866	28	28	26	28	24	23	100	27
1593926550050215795 	0	345	1571	1566	345	345	345	114750000	performance	1866	28	28	26	28	24	23	100	27
1593926551838944190	1	345	1574	1574	345	345	345	114750000	performance	1866	28	28	26	28	24	23	100	27
1593926552046416078 	0	345	1584	1571	345	345	345	114750000	performance	1866	28	28	26	28	24	23	100	27
1593926553812453846	1	345	1574	1574	345	345	345	114750000	performance	1866	28	28	26	28	24	23	100	27
1593926554018584958 	0	345	1564	1567	345	345	345	114750000	performance	1866	28	28	26	28	24	23	100	27
1593926555767231873	1	345	1574	1574	345	345	345	114750000	performance	1866	28	28	26	28	24	23	100	27
1593926555964114644 	0	345	1563	1566	345	345	345	114750000	performance	1866	28	28	26	28	24	23	100	27
1593926557700372016	1	345	1574	1574	345	345	345	114750000	performance	1866	28	28	26	28	24	23	100	27
1593926557902910595 	0	345	1568	1568	345	345	345	114750000	performance	1866	28	28	26	28	24	23	100	27
1593926559727183900	1	345	1574	1574	345	345	345	114750000	performance	1866	28	28	26	28	24	23	100	27
1593926559954439423 	0	345	1565	1565	345	345	345	114750000	performance	1866	28	28	26	28	24	23	100	27
1593926561708942596	1	345	1574	1574	345	345	345	114750000	performance	1866	28	28	26	28	24	23	100	27
1593926561862690973 	0	345	1574	1573	345	345	345	114750000	performance	1866	28	28	26	28	24	23	100	27
1593926563641269741	1	345	1574	1574	345	345	345	114750000	performance	1866	28	28	26	28	24	23	100	27
1593926563833930664 	0	345	1562	1565	345	345	365	114750000	performance	1866	28	28	26	28	24	23	100	27
1593926565625250754	1	345	1574	1574	345	345	345	114750000	performance	1866	28	28	26	28	24	23	100	27
1593926565814398952 	0	345	1567	1567	345	345	345	114750000	performance	1866	28	28	26	28	24	23	100	27
1593926567557713740	1	345	1574	1574	345	345	345	114750000	performance	1866	28	28	26	28	24	23	100	27
1593926567763697140 	0	345	1573	1565	345	345	345	114750000	performance	1866	28	28	26	28	24	23	100	27
1593926569568281306	1	345	1574	1574	345	345	345	114750000	performance	1866	28	28	26	28	24	23	100	27
1593926569788939767 	0	345	1533	1569	345	345	389	114750000	performance	1866	28	28	26	28	24	23	100	27
1593926571565342554	1	345	1574	1574	345	345	345	114750000	performance	1866	28	28	26	28	24	23	100	27
1593926571787963810 	0	345	1569	1568	345	345	345	114750000	performance	1866	28	28	26	28	24	23	100	27
1593926573573042680	1	345	1574	1574	345	345	345	114750000	performance	1866	28	28	26	28	24	23	100	27
1593926573798154478 	0	345	1574	1574	345	345	345	114750000	performance	1866	28	28	26	28	24	23	100	27
1593926575554057371	1	345	1574	1574	345	345	345	114750000	performance	1866	28	28	26	28	24	23	100	27
1593926575744126631 	0	345	1562	1563	345	345	345	114750000	performance	1866	28	28	26	28	24	23	100	27
1593926577475009347	1	345	1574	1574	345	345	345	114750000	performance	1866	28	28	26	28	24	23	100	27
1593926577668498403 	0	345	1568	1579	345	345	345	114750000	performance	1866	28	28	26	28	24	23	100	27
1593926579425009523	1	345	1574	1574	345	345	345	114750000	performance	1866	28	28	26	28	24	23	100	27
1593926579630395223 	0	345	1565	1570	345	345	345	114750000	performance	1866	28	28	26	28	24	24	100	27
1593926581428084214	1	345	1574	1574	345	345	345	114750000	performance	1866	28	28	26	28	24	23	100	27
1593926581627845658 	0	345	1566	1567	345	345	345	114750000	performance	1866	28	28	26	28	24	23	100	27
1593926583345364361	1	345	1574	1574	345	345	345	114750000	performance	1866	28	28	26	28	24	23	100	27
1593926583544111686 	0	345	1572	1570	345	345	345	114750000	performance	1866	28	28	26	28	24	23	100	27
1593926585374025056	1	345	1574	1574	345	345	345	114750000	performance	1866	28	28	26	28	24	23	100	27
1593926585566848219 	0	345	1578	1573	345	345	345	114750000	performance	1866	28	28	26	28	24	23	100	27
1593926587380312117	1	345	1574	1574	345	345	345	114750000	performance	1866	28	28	26	28	24	23	100	27
1593926587598920390 	0	345	1568	1571	345	345	345	114750000	performance	1866	28	28	26	28	24	23	100	27
1593926589401279743	1	345	1574	1574	345	345	345	114750000	performance	1866	28	28	26	28	24	23	100	27
1593926589595743972 	0	345	1540	1570	345	345	345	114750000	performance	1866	28	28	26	28	24	23	100	27
1593926591410357541	1	345	1574	1574	345	345	345	114750000	performance	1866	28	28	26	28	24	23	100	27
1593926591636925892 	0	345	1568	1564	338	345	345	114750000	performance	1866	28	28	26	28	24	23	100	27
1593926593381986738	1	345	1574	1574	345	345	345	114750000	performance	1866	28	28	26	28	24	23	100	27
1593926593595173443 	0	345	1574	1570	345	345	345	114750000	performance	1866	28	28	26	28	24	23	100	27
1593926595351274450	1	345	1574	1574	345	345	345	114750000	performance	1866	28	28	26	28	24	23	100	27
1593926595549171946 	0	345	1534	1573	345	345	345	114750000	performance	1866	28	28	26	28	24	23	100	27
1593926597357043556	1	345	1574	1574	345	345	345	114750000	performance	1866	28	28	26	28	24	23	100	27
1593926597580606417 	0	345	1564	1566	345	345	345	114750000	performance	1866	28	28	26	28	24	23	100	27
1593926599311571886	1	345	1574	1574	345	345	345	114750000	performance	1866	28	28	26	28	24	23	100	27
1593926599526735403 	0	345	1568	1573	345	345	345	114750000	performance	1866	28	28	26	28	24	23	100	27
1593926601257595655	1	345	1574	1574	345	345	345	114750000	performance	1866	28	28	26	28	24	23	100	27
1593926601491580817 	0	345	1578	1574	345	344	345	114750000	performance	1866	28	28	26	28	24	23	100	27
1593926603319196252	1	345	1574	1574	345	345	345	114750000	performance	1866	28	28	26	28	24	23	100	27
1593926603525983305 	0	345	1578	1581	345	345	345	114750000	performance	1866	28	28	26	28	24	24	100	27
1593926605267584835	1	345	1574	1574	345	345	345	114750000	performance	1866	28	28	26	28	24	23	100	27
1593926605465896094 	0	345	1564	1565	345	345	345	114750000	performance	1866	28	28	26	28	24	23	100	27
1593926607249394763	1	345	1574	1574	345	345	345	114750000	performance	1866	28	28	26	28	24	23	100	27
1593926607460763858 	0	345	1530	1573	345	345	345	114750000	performance	1866	28	28	26	28	24	23	100	27
1593926609236191856	1	345	1574	1574	345	345	345	114750000	performance	1866	28	28	26	28	24	23	100	27
1593926609402827796 	0	345	1566	1566	345	345	345	114750000	performance	1866	28	28	26	28	24	23	100	27
1593926611176377767	1	345	1574	1574	345	345	345	114750000	performance	1866	28	28	26	28	24	23	100	27
1593926611361949816 	0	345	1567	1563	345	345	345	114750000	performance	1866	28	28	26	28	24	23	100	27
1593926613150177792	1	345	1574	1574	345	345	345	114750000	performance	1866	28	28	26	28	24	23	100	27
1593926613332815841 	0	345	1575	1574	345	345	345	114750000	performance	1866	28	28	26	28	24	23	100	27
1593926615137610761	1	345	1574	1574	345	345	345	114750000	performance	1866	28	28	26	28	24	23	100	27
1593926615314854474 	0	345	1573	1566	345	345	345	114750000	performance	1866	28	28	26	28	24	23	100	27
1593926617095920585	1	345	1574	1574	345	345	345	114750000	performance	1866	28	28	26	28	24	23	100	27
1593926617289639369 	0	345	1572	1569	345	345	345	114750000	performance	1866	28	28	26	28	24	23	100	27
1593926619091772098	1	345	1574	1574	345	345	345	114750000	performance	1866	28	28	26	28	24	23	100	27
1593926619336091015 	0	345	1567	1570	345	345	345	114750000	performance	1866	28	28	26	28	24	23	100	27
1593926621122414820	1	345	1574	1574	345	345	345	114750000	performance	1866	28	28	26	28	24	23	100	27
1593926621338729096 	0	345	1565	1565	345	345	345	114750000	performance	1866	28	28	26	28	24	23	100	27
1593926623048276584	1	345	1574	1574	345	345	345	114750000	performance	1866	28	28	26	28	24	23	100	27
1593926623273570720 	0	345	1565	1566	345	345	345	114750000	performance	1866	28	28	26	28	24	23	100	27
1593926625011102723	1	345	1574	1574	345	345	345	114750000	performance	1866	28	28	26	28	24	23	100	27
1593926625188859143 	0	345	1573	1543	345	345	345	114750000	performance	1866	28	28	26	28	24	23	100	27
1593926626938551248	1	345	1574	1574	345	345	345	114750000	performance	1866	28	28	26	28	24	23	100	27
1593926627128314746 	0	345	1576	1574	345	345	345	114750000	performance	1866	28	28	26	28	24	23	100	27
1593926628913338927	1	345	1574	1574	345	345	345	114750000	performance	1866	28	28	26	28	24	23	100	27
1593926629104393376 	0	345	1568	1571	345	345	345	114750000	performance	1866	28	28	26	28	24	23	100	27
1593926630886132387	1	345	1574	1574	345	345	345	114750000	performance	1866	28	28	26	28	24	23	100	27
1593926631134385087 	0	345	1534	1573	345	345	345	114750000	performance	1866	28	28	26	28	24	23	100	27
1593926632877806308	1	345	1574	1574	345	345	345	114750000	performance	1866	28	28	26	28	24	23	100	27
1593926633119109400 	0	345	1567	1564	345	345	345	114750000	performance	1866	28	28	26	28	24	23	100	27
1593926634885857124	1	345	1574	1574	345	345	345	114750000	performance	1866	28	28	26	28	24	23	100	27
1593926635081618640 	0	345	1566	1570	345	345	345	114750000	performance	1866	28	28	26	28	24	23	100	27
1593926636800813097	1	345	1574	1574	345	345	345	114750000	performance	1866	28	28	26	28	24	23	100	27
1593926636990658707 	0	345	1564	1568	345	345	345	114750000	performance	1866	28	28	26	28	24	23	100	27
1593926638815654288	1	345	1574	1574	345	345	345	114750000	performance	1866	28	28	26	28	24	23	100	27
1593926639010710520 	0	346	1575	1563	345	345	345	114750000	performance	1866	28	28	26	28	24	23	100	27
1593926640770999935	1	345	1574	1574	345	345	345	114750000	performance	1866	28	28	26	28	24	23	100	27
1593926640965108993 	0	345	1568	1569	345	345	345	114750000	performance	1866	28	28	26	28	24	23	100	27
1593926642701999073	1	345	1574	1574	345	345	345	114750000	performance	1866	28	28	26	28	24	23	100	27
1593926642904521332 	0	345	1582	1576	345	345	345	114750000	performance	1866	28	28	26	28	24	23	100	27
1593926644739982509	1	345	1574	1574	345	345	345	114750000	performance	1866	28	28	26	28	24	23	100	27
1593926644998849447 	0	345	1570	1565	345	345	345	114750000	performance	1866	28	28	26	28	24	23	100	27
1593926646818705318	1	345	1574	1574	345	345	345	114750000	performance	1866	28	28	26	28	24	23	100	27
1593926647028241122 	0	345	1568	1567	345	345	345	114750000	performance	1866	28	28	26	28	24	23	100	27
1593926648786551933	1	345	1574	1574	345	345	345	114750000	performance	1866	28	28	26	28	24	23	100	27
1593926648969453631 	0	345	1569	1572	345	345	345	114750000	performance	1866	28	28	26	28	24	23	100	27
1593926650766269241	1	345	1574	1574	345	345	345	114750000	performance	1866	28	28	26	28	24	23	100	27
1593926650977238461 	0	345	1566	1572	345	345	345	114750000	performance	1866	28	28	26	28	24	23	100	27
1593926652712083856	1	345	1574	1574	345	345	345	114750000	performance	1866	28	28	26	28	24	23	100	27
1593926652909736808 	0	345	1566	1567	345	345	345	114750000	performance	1866	28	28	26	28	24	23	100	27
1593926654697878223	1	345	1574	1574	345	345	345	114750000	performance	1866	28	28	26	28	24	23	100	27
1593926654889336067 	0	345	1562	1574	345	345	345	114750000	performance	1866	28	28	26	28	24	23	100	27
1593926656630150937	1	345	1574	1574	345	345	345	114750000	performance	1866	28	28	26	28	24	24	100	27
1593926656876074407 	0	345	1569	1573	345	345	345	114750000	performance	1866	28	28	26	28	24	24	100	27
1593926658714433425	1	345	1574	1574	345	345	345	114750000	performance	1866	28	28	26	28	24	23	100	27
1593926658944543396 	0	345	1568	1568	345	345	345	114750000	performance	1866	28	28	26	28	24	23	100	27
1593926660763170620	1	345	1574	1574	345	345	345	114750000	performance	1866	28	28	26	28	24	23	100	27
1593926660962702207 	0	345	1570	1570	345	345	345	114750000	performance	1866	28	28	26	28	24	23	100	27
1593926662772113473	1	345	1574	1574	345	345	345	114750000	performance	1866	28	28	26	28	24	23	100	27
1593926662952292564 	0	345	1568	1570	345	345	345	114750000	performance	1866	28	28	26	28	24	23	100	27
1593926664774028669	1	345	1574	1574	345	345	345	114750000	performance	1866	28	28	26	28	24	23	100	27
1593926664970579214 	0	345	1571	1572	345	345	345	114750000	performance	1866	28	28	26	28	24	23	100	27
1593926666724656529	1	345	1574	1574	345	345	345	114750000	performance	1866	28	28	26	28	24	23	100	27
1593926666888917767 	0	343	1566	1566	345	345	345	114750000	performance	1866	28	28	26	28	24	23	100	27
1593926668630397473	1	345	1574	1574	345	345	345	114750000	performance	1866	28	28	26	28	24	23	100	27
1593926668838419124 	0	345	1573	1572	345	345	345	114750000	performance	1866	28	28	26	28	24	23	100	27
1593926670631706714	1	345	1574	1574	345	345	345	114750000	performance	1866	28	28	26	28	24	23	100	27
1593926670849654086 	0	345	1566	1564	345	345	345	114750000	performance	1866	28	28	26	28	24	23	100	27
1593926672594181298	1	345	1574	1574	345	345	345	114750000	performance	1866	28	28	26	28	24	24	100	27
1593926672762903170 	0	345	1567	1565	345	345	345	114750000	performance	1866	28	28	26	28	24	23	100	27
1593926674567986571	1	345	1574	1574	345	345	345	114750000	performance	1866	28	28	26	28	24	23	100	27
1593926674780943931 	0	345	1571	1578	345	345	345	114750000	performance	1866	28	28	26	28	24	23	100	27
1593926676541013312	1	345	1574	1574	345	345	345	114750000	performance	1866	28	28	26	28	24	23	100	27
1593926676789610910 	0	345	1567	1564	345	345	345	114750000	performance	1866	28	28	26	28	24	23	100	27
1593926678498867998	1	345	1574	1574	345	345	345	114750000	performance	1866	28	28	26	28	24	23	100	27
1593926678721847847 	0	345	1566	1568	345	345	345	114750000	performance	1866	28	28	26	28	24	23	100	27
1593926680465711823	1	345	1574	1574	345	345	345	114750000	performance	1866	28	28	26	28	24	23	100	27
1593926680716249272 	0	345	1566	1567	345	345	345	114750000	performance	1866	28	28	26	28	24	24	100	27
1593926682544172294	1	345	1574	1574	345	345	345	114750000	performance	1866	28	28	26	28	24	23	100	27
1593926682745900597 	0	345	1584	1582	345	345	345	114750000	performance	1866	28	28	26	28	24	23	100	27
1593926684508339560	1	345	1574	1574	345	345	345	114750000	performance	1866	28	28	26	28	24	23	100	27
1593926684714294639 	0	345	1577	1580	345	345	345	114750000	performance	1866	28	28	26	28	24	23	100	27
1593926686550594605	1	345	1574	1574	345	345	345	114750000	performance	1866	28	28	26	28	24	23	100	27
1593926686769252126 	0	345	1571	1576	345	345	345	114750000	performance	1866	28	28	26	28	24	23	100	27
1593926688541205864	1	345	1574	1574	345	345	345	114750000	performance	1866	28	28	26	28	24	23	100	27
1593926688748797689 	0	345	1565	1568	345	345	345	114750000	performance	1866	28	28	26	28	24	23	100	27
1593926690517341487	1	345	1574	1574	345	345	345	114750000	performance	1866	28	28	26	28	24	23	100	27
1593926690708685698 	0	345	1566	1568	345	344	345	114750000	performance	1866	28	28	26	28	24	23	100	27
1593926692496944746	1	345	1574	1574	345	345	345	114750000	performance	1866	28	28	26	28	24	24	100	27
1593926692734538505 	0	345	1567	1568	345	345	345	114750000	performance	1866	28	28	26	28	24	23	100	27
1593926694497922209	1	345	1574	1574	345	345	345	114750000	performance	1866	28	28	26	28	24	23	100	27
1593926694741908068 	0	343	1570	1569	345	345	345	114750000	performance	1866	28	28	26	28	24	23	100	27
1593926696485949421	1	345	1574	1574	345	345	345	114750000	performance	1866	28	28	26	28	24	23	100	27
1593926696702689619 	0	345	1567	1567	345	345	345	114750000	performance	1866	28	28	26	28	24	23	100	27
1593926698469305342	1	345	1574	1574	345	345	345	114750000	performance	1866	28	28	26	28	24	23	100	27
1593926698714659145 	0	345	1567	1568	346	345	345	114750000	performance	1866	28	28	26	28	24	23	100	27
1593926700557282988	1	345	1574	1574	345	345	345	114750000	performance	1866	28	28	26	28	24	23	100	27
1593926700776678689 	0	345	1572	1569	345	345	345	114750000	performance	1866	28	28	26	28	24	23	100	27
1593926702553779593	1	345	1574	1574	345	345	345	114750000	performance	1866	28	28	26	28	24	23	100	27
1593926702810014291 	0	345	1573	1566	345	345	345	114750000	performance	1866	28	28	26	28	24	23	100	27
1593926704596808499	1	345	1574	1574	345	345	345	114750000	performance	1866	28	28	26	28	24	23	100	27
1593926704820559937 	0	345	1572	1541	345	345	345	114750000	performance	1866	28	28	26	28	24	23	100	27
1593926706578966525	1	345	1574	1574	345	345	345	114750000	performance	1866	28	28	26	28	24	23	100	27
1593926706801950694 	0	345	1576	1579	345	345	345	114750000	performance	1866	28	28	26	28	24	23	100	27
1593926708530529557	1	345	1574	1574	345	345	345	114750000	performance	1866	28	28	26	28	24	23	100	27
1593926708721999625 	0	346	1569	1569	345	345	345	114750000	performance	1866	28	28	26	28	24	23	100	27
1593926710504071374	1	345	1574	1574	345	345	345	114750000	performance	1866	28	28	26	28	24	23	100	27
1593926710784857926 	0	345	1563	1567	345	345	345	114750000	performance	1866	28	28	26	28	24	23	100	27
1593926712594491498	1	345	1574	1574	345	345	345	114750000	performance	1866	28	28	26	28	24	23	100	27
1593926712798399141 	0	345	1569	1568	345	345	345	114750000	performance	1866	28	28	26	28	24	23	100	27
1593926714627167096	1	345	1574	1574	345	345	345	114750000	performance	1866	28	28	26	28	24	23	100	27
1593926714853738486 	0	345	1566	1568	345	345	345	114750000	performance	1866	28	28	26	28	24	23	100	27
1593926716633379597	1	345	1574	1574	345	345	345	114750000	performance	1866	28	28	26	28	24	23	100	27
1593926716847125921 	0	345	1567	1568	345	345	345	114750000	performance	1866	28	28	26	28	24	23	100	27
1593926718596372296	1	345	1574	1574	345	345	345	114750000	performance	1866	28	28	26	28	24	23	100	27
1593926718841074095 	0	345	1571	1569	345	345	345	114750000	performance	1866	28	28	26	28	24	23	100	27
1593926720608784001	1	345	1574	1574	345	345	345	114750000	performance	1866	28	28	26	28	24	23	100	27
1593926720838444145 	0	345	1575	1533	345	345	345	114750000	performance	1866	28	28	26	28	24	23	100	27
1593926722597587537	1	345	1574	1574	345	345	345	114750000	performance	1866	28	28	26	28	24	23	100	27
1593926722820125464 	0	345	1565	1568	345	345	345	114750000	performance	1866	28	28	26	28	24	23	100	27
1593926724596174074	1	345	1574	1574	345	345	345	114750000	performance	1866	28	28	26	28	24	24	100	27
1593926724782023213 	0	345	1572	1576	345	345	345	114750000	performance	1866	28	28	26	28	24	24	100	27
1593926726615044056	1	345	1574	1574	345	345	345	114750000	performance	1866	28	28	26	28	24	23	100	27
1593926726824860182 	0	345	1568	1568	345	345	345	114750000	performance	1866	28	28	26	28	24	23	100	27
1593926728628235574	1	345	1574	1574	345	345	345	114750000	performance	1866	28	28	26	28	24	24	100	27
1593926728884883938 	0	345	1562	1571	345	345	345	114750000	performance	1866	28	28	26	28	24	23	100	27
1593926730642507129	1	345	1574	1574	345	345	345	114750000	performance	1866	28	28	26	28	24	23	100	27
1593926730872694989 	0	345	1574	1567	345	345	345	114750000	performance	1866	28	28	26	28	24	23	100	27
1593926732658811721	1	345	1574	1574	345	345	345	114750000	performance	1866	28	28	26	28	24	23	100	27
1593926732866093400 	0	345	1568	1568	345	345	345	114750000	performance	1866	28	28	26	28	24	23	100	27
1593926734646964597	1	345	1574	1574	345	345	345	114750000	performance	1866	28	28	26	28	24	23	100	27
1593926734890650711 	0	345	1573	1570	345	345	345	114750000	performance	1866	28	28	26	28	24	23	100	27
1593926736680577577	1	345	1574	1574	345	345	345	114750000	performance	1866	28	28	26	28	24	23	100	27
1593926736908403791 	0	345	1572	1574	345	345	345	114750000	performance	1866	28	28	26	28	24	23	100	27
1593926738719613468	1	345	1574	1574	345	345	345	114750000	performance	1866	28	28	26	28	24	23	100	27
1593926738955672625 	0	345	1571	1570	345	345	345	114750000	performance	1866	28	28	26	28	24	23	100	27
1593926740832157368	1	345	1574	1574	345	345	345	114750000	performance	1866	28	28	26	28	24	24	100	27
1593926741105171683 	0	345	1567	1566	345	345	345	114750000	performance	1866	28	28	26	28	24	23	100	27
1593926742867165204	1	345	1574	1574	345	345	345	114750000	performance	1866	28	28	26	28	24	23	100	27
1593926743104153423 	0	345	1574	1531	345	345	345	114750000	performance	1866	28	28	26	28	24	24	100	27
1593926744839259619	1	345	1574	1574	345	345	345	114750000	performance	1866	28	28	26	28	24	23	100	27
1593926745085941014 	0	345	1565	1570	345	345	345	114750000	performance	1866	28	28	26	28	24	23	100	27
1593926746873644027	1	345	1574	1574	345	345	345	114750000	performance	1866	28	28	26	28	24	23	100	27
1593926747129284066 	0	345	1573	1536	345	345	345	114750000	performance	1866	28	28	26	28	24	23	100	27
1593926748886841369	1	345	1574	1574	345	345	345	114750000	performance	1866	28	28	26	28	24	23	100	27
1593926749100344748 	0	345	1566	1562	345	345	345	114750000	performance	1866	28	28	26	28	24	23	100	27
1593926750853648426	1	345	1574	1574	345	345	345	114750000	performance	1866	28	28	26	28	24	23	100	27
1593926751034112510 	0	345	1565	1561	345	345	345	114750000	performance	1866	28	28	26	28	24	23	100	27
1593926752865267678	1	345	1574	1574	345	345	345	114750000	performance	1866	28	28	26	28	24	23	100	27
1593926753047707262 	0	345	1574	1568	345	346	345	114750000	performance	1866	28	28	26	28	24	23	100	27
1593926754782659794	1	345	1574	1574	345	345	345	114750000	performance	1866	28	28	26	28	24	23	100	27
1593926754997506380 	0	345	1562	1564	345	345	345	114750000	performance	1866	28	28	26	28	24	23	100	27
1593926756770377724	1	345	1574	1574	345	345	345	114750000	performance	1866	28	28	26	28	24	23	100	27
1593926756967770705 	0	345	1574	1565	345	345	345	114750000	performance	1866	28	28	26	28	24	23	100	27
1593926758748191692	1	345	1574	1574	345	345	345	114750000	performance	1866	28	28	26	28	24	23	100	27
1593926758942074030 	0	345	1568	1577	345	345	345	114750000	performance	1866	28	28	26	28	24	23	100	27
1593926760792200060	1	345	1574	1574	345	345	345	114750000	performance	1866	28	28	26	28	24	23	100	27
1593926761069175166 	0	345	1573	1571	345	345	345	114750000	performance	1866	28	28	26	28	24	23	100	27
1593926762890473318	1	345	1574	1574	345	345	345	114750000	performance	1866	28	28	26	28	24	23	100	27
1593926763101397386 	0	345	1576	1581	345	345	345	114750000	performance	1866	28	28	26	28	24	23	100	27
1593926764909736326	1	345	1574	1574	345	345	345	114750000	performance	1866	28	28	26	28	24	23	100	27
1593926765121647280 	0	345	1564	1574	345	345	346	114750000	performance	1866	28	28	26	28	24	23	100	27
1593926766933870691	1	345	1574	1574	345	345	345	114750000	performance	1866	28	28	26	28	24	23	100	27
1593926767197905882 	0	345	1566	1570	345	345	345	114750000	performance	1866	28	28	26	28	24	24	100	27
1593926769024494656	1	345	1574	1574	345	345	345	114750000	performance	1866	28	28	26	28	24	24	100	27
1593926769204080527 	0	345	1577	1575	345	345	345	114750000	performance	1866	28	28	26	28	24	23	100	27
1593926771033080259	1	345	1574	1574	345	345	345	114750000	performance	1866	28	28	26	28	24	23	100	27
1593926771276853829 	0	345	1581	1570	345	345	345	114750000	performance	1866	28	28	26	28	24	24	100	27
1593926773140108543	1	345	1574	1574	345	345	345	114750000	performance	1866	28	28	26	28	24	23	100	27
1593926773401712841 	0	346	1574	1573	345	345	345	114750000	performance	1866	28	28	26	28	24	23	100	27
1593926775166568777	1	345	1574	1574	345	345	345	114750000	performance	1866	28	28	26	28	24	24	100	27
1593926775360950382 	0	345	1565	1574	345	345	345	114750000	performance	1866	28	28	26	28	24	23	100	27
1593926777147286635	1	345	1574	1574	345	345	345	114750000	performance	1866	28	28	26	28	24	23	100	27
1593926777343877308 	0	345	1564	1566	345	345	345	114750000	performance	1866	28	28	26	28	24	24	100	27
1593926779111187403	1	345	1574	1574	345	345	345	114750000	performance	1866	28	28	26	28	24	23	100	27
1593926779311430802 	0	345	1566	1566	345	345	345	114750000	performance	1866	28	28	26	28	24	23	100	27
1593926781054848183	1	345	1574	1574	345	345	345	114750000	performance	1866	28	28	26	28	24	23	100	27
1593926781264688564 	0	345	1574	1566	345	345	345	114750000	performance	1866	28	28	26	28	24	23	100	27
1593926783071533960	1	345	1574	1574	345	345	345	114750000	performance	1866	28	28	26	28	24	23	100	27
1593926783285037499 	0	345	1564	1574	345	345	345	114750000	performance	1866	28	28	26	28	24	23	100	27
1593926785106357187	1	345	1574	1574	345	345	345	114750000	performance	1866	28	28	26	28	24	23	100	27
1593926785345672523 	0	345	1575	1564	345	345	345	114750000	performance	1866	28	28	26	28	24	23	100	27
1593926787186308802	1	345	1574	1574	345	345	345	114750000	performance	1866	28	28	26	28	24	23	100	27
1593926787384988448 	0	345	1574	1535	345	345	345	114750000	performance	1866	28	28	26	28	24	23	100	27
1593926789165525883	1	345	1574	1574	345	345	345	114750000	performance	1866	28	28	26	28	24	23	100	27
1593926789401469296 	0	345	1579	1570	345	345	345	114750000	performance	1866	28	28	26	28	24	23	100	27
1593926791182161165	1	345	1574	1574	345	345	345	114750000	performance	1866	28	28	26	28	24	23	100	27
1593926791430898091 	0	345	1568	1564	345	345	345	114750000	performance	1866	28	28	26	28	24	23	100	27
1593926793194158211	1	345	1574	1574	345	345	345	114750000	performance	1866	28	28	26	28	24	23	100	27
1593926793445238543 	0	345	1566	1563	345	345	345	114750000	performance	1866	28	28	26	28	24	23	100	27
1593926795276744914	1	345	1574	1574	345	345	345	114750000	performance	1866	28	28	26	28	24	23	100	27
1593926795506373954 	0	345	1562	1574	345	345	345	114750000	performance	1866	28	28	26	28	24	24	100	27
1593926797371113093	1	345	1574	1574	345	345	345	114750000	performance	1866	28	28	26	28	24	23	100	27
1593926797561736500 	0	345	1564	1564	345	345	345	114750000	performance	1866	28	28	26	28	24	23	100	27
1593926799363872844	1	345	1574	1574	345	345	345	114750000	performance	1866	28	28	26	28	24	23	100	27
1593926799565714300 	0	345	1571	1572	345	345	345	114750000	performance	1866	28	28	26	28	24	23	100	27
1593926801374935741	1	345	1574	1574	345	345	345	114750000	performance	1866	28	28	26	28	24	23	100	27
1593926801621870162 	0	345	1576	1567	345	345	345	114750000	performance	1866	28	28	26	28	24	24	100	27
1593926803391562127	1	345	1574	1574	345	345	345	114750000	performance	1866	28	28	26	28	24	23	100	27
1593926803644486182 	0	345	1570	1578	345	345	345	114750000	performance	1866	28	28	26	28	24	23	100	27
1593926805495576857	1	345	1574	1574	345	345	345	114750000	performance	1866	28	28	26	28	24	23	100	27
1593926805717960608 	0	345	1566	1569	345	345	345	114750000	performance	1866	28	28	26	28	24	23	100	27
1593926807496105742	1	345	1574	1574	345	345	345	114750000	performance	1866	28	28	26	28	24	23	100	27
1593926807717629743 	0	345	1573	1569	345	345	345	114750000	performance	1866	28	28	26	28	24	23	100	27
1593926809512945344	1	345	1574	1574	345	345	345	114750000	performance	1866	28	28	26	28	24	24	100	27
1593926809737074097 	0	345	1583	1569	345	345	345	114750000	performance	1866	28	28	26	28	24	23	100	27
1593926811519199061	1	345	1574	1574	345	345	345	114750000	performance	1866	28	28	26	28	24	23	100	27
1593926811696405654 	0	345	1580	1568	345	345	345	114750000	performance	1866	28	28	26	28	24	23	100	27
1593926813502476646	1	345	1574	1574	345	345	345	114750000	performance	1866	28	28	26	28	24	23	100	27
1593926813725532400 	0	345	1535	1566	345	345	345	114750000	performance	1866	28	28	26	28	24	23	100	27
1593926815472673962	1	345	1574	1574	345	345	345	114750000	performance	1866	28	28	26	28	24	23	100	27
1593926815712025075 	0	345	1565	1564	345	345	345	114750000	performance	1866	28	28	26	28	24	23	100	27
1593926817509635921	1	345	1574	1574	345	345	345	114750000	performance	1866	28	28	26	28	24	23	100	27
1593926817757278378 	0	345	1568	1571	345	345	345	114750000	performance	1866	28	28	26	28	24	23	100	27
1593926819544614925	1	345	1574	1574	345	345	345	114750000	performance	1866	28	28	26	28	24	23	100	27
1593926819744719026 	0	345	1568	1579	345	345	345	114750000	performance	1866	28	28	26	28	24	23	100	27
