Timestamp,Voltage(V),Ampere(A),Power(W),Watt Hour
1606785683172887916,5.010,0.693,3.473,0.000
1606785683413433589,5.012,0.713,3.576,0.000
1606785683663055758,5.027,0.894,4.496,0.000
1606785683914101504,5.034,0.977,4.920,0.000
1606785684162602220,5.035,1.069,5.386,0.000
1606785684412583762,5.034,1.157,5.828,0.000
1606785684662551679,5.025,1.303,6.550,0.000
1606785684912380264,5.012,1.565,7.847,0.000
1606785685162513763,5.025,1.799,9.042,0.000
1606785685412367263,5.025,1.809,9.099,0.000
1606785685662989718,5.025,1.810,9.103,0.000
1606785685907590578,5.025,1.810,9.103,0.000
1606785686162542553,5.025,1.815,9.122,0.000
1606785686412507302,5.024,1.820,9.145,0.000
1606785686662561550,5.019,1.832,9.199,0.000
1606785686912387050,5.010,1.841,9.225,0.000
1606785687162537714,5.001,1.846,9.237,0.000
1606785687407391322,5.000,1.851,9.260,0.000
1606785687662595169,4.999,1.852,9.264,0.000
1606785687911616547,5.007,1.842,9.233,0.000
1606785688162587998,5.000,1.848,9.241,0.000
1606785688412390080,4.996,1.862,9.306,0.000
1606785688662601952,4.996,1.865,9.325,0.000
1606785688912372951,4.996,1.865,9.325,0.000
1606785689162549405,4.994,1.868,9.332,0.000
1606785689412603819,4.992,1.871,9.348,0.000
1606785689655014604,4.994,1.873,9.359,0.000
1606785689912273606,4.997,1.868,9.340,0.000
1606785690162382768,4.997,1.869,9.348,0.000
1606785690412371223,4.994,1.878,9.382,0.000
1606785690662521052,4.991,1.880,9.390,0.000
1606785690912344549,4.991,1.884,9.412,0.000
1606785691162532752,4.991,1.887,9.424,0.000
1606785691412348374,4.992,1.879,9.386,0.000
1606785691662343453,4.992,1.889,9.439,0.000
1606785691907629389,4.992,1.884,9.409,0.000
1606785692154792148,4.992,1.884,9.409,0.000
1606785692400767413,4.994,1.866,9.325,0.000
1606785692661550604,4.991,1.892,9.451,0.000
1606785692910531146,4.991,1.895,9.462,0.000
1606785693162574797,4.992,1.889,9.435,0.000
1606785693412369292,4.991,1.897,9.473,0.000
1606785693662775660,4.991,1.899,9.485,0.000
1606785693912170490,4.991,1.895,9.466,0.000
1606785694162360483,4.992,1.892,9.451,0.000
1606785694412367852,4.991,1.895,9.462,0.000
1606785694657360579,4.991,1.895,9.462,0.000
1606785694912363589,4.991,1.901,9.493,0.000
1606785695162550748,4.991,1.901,9.493,0.000
1606785695412389367,4.991,1.902,9.500,0.000
1606785695662654150,4.991,1.903,9.504,0.000
1606785695912190270,4.991,1.905,9.515,0.000
1606785696162994634,4.991,1.900,9.489,0.000
1606785696412243088,4.991,1.892,9.447,0.000
1606785696662555038,4.991,1.898,9.481,0.000
1606785696907822970,4.991,1.908,9.531,0.000
1606785697162584063,4.991,1.909,9.531,0.000
1606785697411219020,4.991,1.910,9.538,0.000
1606785697662575130,4.991,1.910,9.538,0.000
1606785697912278582,4.991,1.910,9.538,0.000
1606785698162703904,4.991,1.910,9.538,0.000
1606785698412360605,4.991,1.903,9.504,0.000
1606785698662537179,4.991,1.909,9.531,0.000
1606785698907361029,4.991,1.910,9.538,0.000
1606785699162540702,4.991,1.916,9.565,0.000
1606785699412392068,4.991,1.916,9.569,0.000
1606785699662632057,4.991,1.917,9.569,0.000
1606785699912395299,4.990,1.910,9.538,0.000
1606785700162687246,4.991,1.918,9.577,0.000
1606785700412330571,4.990,1.914,9.554,0.000
1606785700662667975,4.990,1.913,9.550,0.000
1606785700912524924,4.990,1.918,9.577,0.000
1606785701162562663,4.990,1.918,9.577,0.000
1606785701412571652,4.990,1.922,9.592,0.000
1606785701657386376,4.990,1.918,9.573,0.000
1606785701917547689,4.991,1.938,9.680,0.000
1606785702152382504,4.990,1.924,9.607,0.000
1606785702412194734,4.990,1.925,9.615,0.000
1606785702662749387,4.990,1.914,9.557,0.000
1606785702912298336,4.990,1.919,9.580,0.000
1606785703162567823,4.990,1.919,9.580,0.000
1606785703412377186,4.990,1.924,9.603,0.000
1606785703662525465,4.990,1.929,9.630,0.000
1606785703912378662,4.990,1.929,9.634,0.000
1606785704162502399,4.990,1.929,9.634,0.000
1606785704412267054,4.990,1.929,9.630,0.000
1606785704662687955,4.990,1.931,9.641,0.000
1606785704912191070,4.990,1.920,9.588,0.000
1606785705162546222,4.990,1.919,9.580,0.000
1606785705392727475,4.990,1.926,9.615,0.000
1606785705662582361,4.991,1.933,9.653,0.000
1606785705907914121,4.990,1.932,9.649,0.000
1606785706162542084,4.991,1.933,9.653,0.000
1606785706407866552,4.991,1.933,9.653,0.000
1606785706662690222,4.990,1.925,9.611,0.000
1606785706910671051,4.991,1.928,9.626,0.000
1606785707162757776,4.991,1.928,9.626,0.000
1606785707412391055,4.991,1.927,9.622,0.000
1606785707662539789,4.991,1.931,9.641,0.000
1606785707912398775,4.991,1.935,9.660,0.000
1606785708162554009,4.991,1.936,9.664,0.000
1606785708412373328,4.991,1.929,9.630,0.000
1606785708652495154,4.991,1.936,9.668,0.000
1606785708912193923,4.991,1.936,9.668,0.000
1606785709162703488,4.991,1.930,9.638,0.000
1606785709412375557,4.991,1.933,9.653,0.000
1606785709662560790,4.991,1.935,9.664,0.000
1606785709912345442,4.991,1.933,9.653,0.000
1606785710162515425,4.991,1.933,9.653,0.000
1606785710412353576,4.991,1.939,9.683,0.000
1606785710662558975,4.991,1.940,9.687,0.000
1606785710912350459,4.991,1.940,9.691,0.000
1606785711154823188,4.991,1.941,9.695,0.000
1606785711412820255,4.991,1.935,9.660,0.000
1606785711663031279,4.992,1.898,9.477,0.000
1606785711907362040,4.991,1.936,9.668,0.000
1606785712162554705,4.991,1.941,9.691,0.000
1606785712412501937,4.991,1.943,9.702,0.000
1606785712662561169,4.991,1.945,9.714,0.000
1606785712912367360,4.991,1.945,9.718,0.000
1606785713157370992,4.991,1.945,9.718,0.000
1606785713402765497,4.991,1.944,9.706,0.000
1606785713662569804,4.991,1.934,9.660,0.000
1606785713912378203,4.991,1.942,9.695,0.000
1606785714162592183,4.991,1.945,9.714,0.000
1606785714412357790,4.991,1.948,9.729,0.000
1606785714662526145,4.991,1.948,9.729,0.000
1606785714912329085,4.991,1.949,9.733,0.000
1606785715162565272,4.991,1.944,9.710,0.000
1606785715412727252,4.991,1.949,9.737,0.000
1606785715662695774,4.991,1.921,9.592,0.000
1606785715912621629,4.991,1.946,9.718,0.000
1606785716162522443,4.991,1.946,9.718,0.000
1606785716412861087,4.991,1.950,9.737,0.000
1606785716662535027,4.991,1.952,9.752,0.000
1606785716912365132,4.991,1.947,9.725,0.000
1606785717162560569,4.991,1.953,9.756,0.000
1606785717412904629,4.992,1.952,9.748,0.000
1606785717662786525,4.992,1.954,9.760,0.000
1606785717908072570,4.991,1.947,9.725,0.000
1606785718162650567,4.991,1.947,9.722,0.000
1606785718407380864,4.991,1.946,9.718,0.000
1606785718662546357,4.992,1.953,9.752,0.000
1606785718912380420,4.992,1.954,9.764,0.000
1606785719162519772,4.992,1.954,9.764,0.000
1606785719412369500,4.992,1.955,9.764,0.000
1606785719662793809,4.992,1.955,9.764,0.000
1606785719912231915,4.992,1.953,9.752,0.000
1606785720162395558,4.991,1.945,9.710,0.000
1606785720412364744,4.991,1.945,9.710,0.000
1606785720662553053,4.992,1.955,9.764,0.000
1606785720912382239,4.992,1.955,9.764,0.000
1606785721162891172,4.992,1.956,9.771,0.000
1606785721412366484,4.992,1.958,9.779,0.000
1606785721652306928,4.992,1.956,9.767,0.000
1606785721912749643,4.991,1.951,9.744,0.000
1606785722162727119,4.991,1.951,9.744,0.000
1606785722407861828,4.991,1.952,9.748,0.000
1606785722662579572,4.992,1.950,9.741,0.000
1606785722912317299,4.991,1.957,9.775,0.000
1606785723162515107,4.992,1.958,9.783,0.000
1606785723412274083,4.991,1.959,9.783,0.000
1606785723662542224,4.991,1.954,9.760,0.000
1606785723912200992,4.991,1.960,9.790,0.000
1606785724162988171,4.991,1.958,9.775,0.000
1606785724412706481,4.991,1.954,9.756,0.000
1606785724662543706,4.991,1.957,9.775,0.000
1606785724912339015,4.991,1.964,9.806,0.000
1606785725162545155,4.991,1.964,9.806,0.000
1606785725400485857,4.991,1.956,9.767,0.000
1606785725662542269,4.991,1.964,9.806,0.000
1606785725909357801,4.991,1.965,9.813,0.000
1606785726162698966,4.991,1.965,9.809,0.000
1606785726412744064,4.991,1.960,9.790,0.000
1606785726662543372,4.991,1.959,9.783,0.000
1606785726912362305,4.990,1.954,9.756,0.000
1606785727162519735,4.991,1.967,9.821,0.000
1606785727412343167,4.991,1.967,9.821,0.000
1606785727662527931,4.991,1.967,9.821,0.000
1606785727912351904,4.991,1.968,9.828,0.000
1606785728162701166,4.991,1.968,9.828,0.000
1606785728412309474,4.991,1.968,9.828,0.000
1606785728662376821,4.990,1.955,9.760,0.000
1606785728912372709,4.990,1.960,9.790,0.000
1606785729162553930,4.991,1.965,9.809,0.000
1606785729412367569,4.991,1.968,9.828,0.000
1606785729662547748,4.991,1.969,9.832,0.000
1606785729912346262,4.991,1.970,9.840,0.000
1606785730157394634,4.991,1.965,9.813,0.000
1606785730412177664,4.991,1.966,9.817,0.000
1606785730659339441,4.990,1.964,9.809,0.000
1606785730912157689,4.990,1.962,9.798,0.000
1606785731162527533,4.990,1.962,9.798,0.000
1606785731407349779,4.991,1.967,9.821,0.000
1606785731662334224,4.991,1.971,9.840,0.000
1606785731912358361,4.991,1.970,9.836,0.000
1606785732162544747,4.992,1.967,9.825,0.000
1606785732412361800,4.991,1.970,9.836,0.000
1606785732662719643,4.991,1.970,9.836,0.000
1606785732912300323,4.991,1.965,9.817,0.000
1606785733162527792,4.990,1.963,9.802,0.000
1606785733412313387,4.991,1.970,9.836,0.000
1606785733662529605,4.990,1.965,9.813,0.000
1606785733912367116,4.990,1.972,9.848,0.000
1606785734162548459,4.990,1.972,9.848,0.000
1606785734412393262,4.990,1.973,9.848,0.000
1606785734662700187,4.990,1.973,9.855,0.000
1606785734907786931,4.990,1.974,9.855,0.000
1606785735168834800,4.990,1.970,9.832,0.000
1606785735408676195,4.990,1.958,9.775,0.000
1606785735662541268,4.990,1.972,9.844,0.000
1606785735912371612,4.991,1.979,9.882,0.000
1606785736162540912,4.990,1.974,9.855,0.000
1606785736412358214,4.990,1.976,9.867,0.000
1606785736662520847,4.990,1.976,9.867,0.000
1606785736912099858,4.991,1.974,9.855,0.000
1606785737162272157,4.991,1.974,9.855,0.000
1606785737412593705,4.989,1.969,9.828,0.000
1606785737662493256,4.989,1.970,9.832,0.000
1606785737912362973,4.990,1.978,9.874,0.000
1606785738162501980,4.990,1.980,9.886,0.000
1606785738398917350,4.990,1.979,9.878,0.000
1606785738662514162,4.991,1.922,9.596,0.000
1606785738912502587,4.989,1.976,9.867,0.000
1606785739162727510,4.989,1.976,9.863,0.000
1606785739407923125,4.989,1.974,9.855,0.000
1606785739657258010,4.989,1.974,9.855,0.000
1606785739912356783,4.989,1.977,9.870,0.000
1606785740158579226,4.989,1.977,9.870,0.000
1606785740412341046,4.989,1.979,9.878,0.000
1606785740662539719,4.989,1.976,9.863,0.000
1606785740912367809,4.989,1.982,9.893,0.000
1606785741162557606,4.989,1.983,9.897,0.000
1606785741412737861,4.989,1.983,9.897,0.000
1606785741662552660,4.989,1.976,9.863,0.000
1606785741912290334,4.989,1.978,9.870,0.000
1606785742155430666,4.987,1.975,9.855,0.000
1606785742412360219,4.989,1.983,9.901,0.000
1606785742662543098,4.989,1.985,9.905,0.000
1606785742912527062,4.989,1.984,9.905,0.000
1606785743162499526,4.989,1.984,9.905,0.000
1606785743412390073,4.989,1.984,9.905,0.000
1606785743657672602,4.989,1.986,9.916,0.000
1606785743912312416,4.987,1.974,9.848,0.000
1606785744162555502,4.989,1.980,9.882,0.000
1606785744407538116,4.989,1.963,9.794,0.000
1606785744662566802,4.989,1.987,9.916,0.000
1606785744908028955,4.989,1.986,9.916,0.000
1606785745162518852,4.990,1.994,9.954,0.000
1606785745412359106,4.989,1.982,9.893,0.000
1606785745662544484,4.989,1.985,9.909,0.000
1606785745912188156,4.989,1.983,9.897,0.000
1606785746157300101,4.989,1.983,9.897,0.000
1606785746412347620,4.989,1.983,9.897,0.000
1606785746662534122,4.987,1.978,9.870,0.000
1606785746908188939,4.989,1.986,9.916,0.000
1606785747162500961,4.989,1.982,9.893,0.000
1606785747412374505,4.989,1.985,9.909,0.000
1606785747662400049,4.989,1.987,9.916,0.000
1606785747912275927,4.989,1.989,9.928,0.000
1606785748162679219,4.989,1.986,9.912,0.000
1606785748412718762,4.987,1.975,9.855,0.000
1606785748662537640,4.987,1.978,9.870,0.000
1606785748907933082,4.987,1.983,9.897,0.000
1606785749152398279,4.987,1.983,9.897,0.000
1606785749412373645,4.989,1.988,9.920,0.000
1606785749658160793,4.989,1.989,9.928,0.000
1606785749912365231,4.989,1.989,9.928,0.000
1606785750162563105,4.989,1.990,9.931,0.000
1606785750407645006,4.987,1.986,9.912,0.000
1606785750657218884,4.987,1.976,9.859,0.000
1606785750908037381,4.987,1.984,9.901,0.000
1606785751162553024,4.989,1.990,9.931,0.000
1606785751407386468,4.987,1.990,9.931,0.000
1606785751662539816,4.987,1.991,9.939,0.000
1606785751912357192,4.987,1.992,9.939,0.000
1606785752162553441,4.987,1.992,9.939,0.000
1606785752412195400,4.987,1.988,9.920,0.000
1606785752662658439,4.987,1.989,9.924,0.000
1606785752907802963,4.987,1.985,9.905,0.000
1606785753162522271,4.987,1.991,9.935,0.000
1606785753412368479,4.987,1.994,9.947,0.000
1606785753657582170,4.987,1.994,9.951,0.000
1606785753907378420,4.987,1.988,9.920,0.000
1606785754162537975,4.987,1.994,9.951,0.000
1606785754423281751,4.987,1.996,9.958,0.000
1606785754652975729,4.987,1.991,9.935,0.000
1606785754912359720,4.987,1.986,9.912,0.000
1606785755162658925,4.987,1.986,9.912,0.000
1606785755412541423,4.987,1.989,9.924,0.000
1606785755662539546,4.987,1.992,9.939,0.000
1606785755912372336,4.987,1.994,9.951,0.000
1606785756162584666,4.987,1.997,9.966,0.000
1606785756412378872,4.987,1.999,9.977,0.000
1606785756662813326,4.989,1.998,9.970,0.000
1606785756912347492,4.987,1.992,9.943,0.000
1606785757157354598,4.986,1.988,9.916,0.000
1606785757412390860,4.986,1.987,9.912,0.000
1606785757662498022,4.986,1.997,9.966,0.000
1606785757907356171,4.987,1.999,9.977,0.000
1606785758162493432,4.987,1.999,9.977,0.000
1606785758412387470,4.987,1.999,9.973,0.000
1606785758652866265,4.987,1.999,9.977,0.000
1606785758912227171,4.987,2.000,9.981,0.000
1606785759158002397,4.986,1.988,9.916,0.000
1606785759412259162,4.986,1.992,9.939,0.000
1606785759662544281,4.986,1.992,9.935,0.000
1606785759912508151,4.986,1.998,9.970,0.000
1606785760162533771,4.986,1.999,9.973,0.000
1606785760412899181,4.986,2.000,9.977,0.000
1606785760657603245,4.987,1.947,9.714,0.000
1606785760912619672,4.986,1.998,9.970,0.000
1606785761157282360,4.986,1.998,9.970,0.000
1606785761412318870,4.986,1.994,9.947,0.000
1606785761662574321,4.985,1.991,9.931,0.000
1606785761912390608,4.986,1.994,9.947,0.000
1606785762157285379,4.986,1.999,9.973,0.000
1606785762412377554,4.985,1.994,9.943,0.000
1606785762662537505,4.986,2.000,9.977,0.000
1606785762912496083,4.986,2.002,9.989,0.000
1606785763162560617,4.985,2.002,9.985,0.000
1606785763412309778,4.985,1.998,9.962,0.000
1606785763662530978,4.985,1.994,9.947,0.000
1606785763907676247,4.987,1.932,9.641,0.000
1606785764162536089,4.987,1.932,9.641,0.000
1606785764407637065,4.985,1.998,9.966,0.000
1606785764662552949,4.985,2.001,9.981,0.000
1606785764912367109,4.985,2.002,9.989,0.000
1606785765152398070,4.985,2.004,9.993,0.000
1606785765400866153,4.984,2.002,9.985,0.000
