TimeStamp,Total Power,CPU Power,GPU Power
1593964776182938,1.905,0.762,0.152
1593964776684407,1.601,0.457,0.152
1593964777185788,1.372,0.381,0.152
1593964777687107,1.296,0.305,0.152
1593964778189540,1.41,0.381,0.152
1593964778692153,1.334,0.305,0.152
1593964779193433,1.334,0.305,0.152
1593964779694795,1.448,0.381,0.152
1593964780196210,1.41,0.381,0.152
1593964780699444,1.372,0.305,0.152
1593964781202157,1.372,0.305,0.152
1593964781704818,1.334,0.305,0.152
1593964782207861,1.334,0.305,0.152
1593964782710486,1.563,0.457,0.152
1593964783213305,2.019,0.838,0.152
1593964783715883,2.21,0.991,0.152
1593964784218666,2.172,0.991,0.152
1593964784721607,2.21,0.991,0.152
1593964785224491,2.134,0.915,0.152
1593964785727533,2.134,0.915,0.152
1593964786238303,2.248,0.991,0.152
1593964786740847,2.172,0.991,0.152
1593964787242274,2.019,0.838,0.152
1593964787743844,2.019,0.838,0.152
1593964788245280,2.134,0.915,0.152
1593964788746696,2.172,0.991,0.152
1593964789248266,2.096,0.915,0.152
1593964789749738,2.058,0.915,0.152
1593964790251235,2.096,0.915,0.152
1593964790752783,2.21,0.991,0.152
1593964791254479,2.286,1.067,0.152
1593964791756028,2.286,0.991,0.152
1593964792257513,2.096,0.915,0.152
1593964792759106,2.019,0.915,0.152
1593964793260721,2.058,0.915,0.152
1593964793762188,2.21,0.991,0.152
1593964794263669,2.134,0.915,0.152
1593964794765170,2.058,0.915,0.152
1593964795266662,2.134,0.915,0.152
1593964795768204,2.248,0.991,0.152
1593964796269714,2.248,0.991,0.152
1593964796771295,2.058,0.915,0.152
1593964797272774,2.019,0.838,0.152
1593964797774214,2.096,0.915,0.152
1593964798275816,2.21,0.991,0.152
1593964798777288,2.248,0.991,0.152
1593964799278951,2.134,0.915,0.152
1593964799780506,2.248,0.991,0.152
1593964800281950,1.981,0.838,0.152
1593964800792728,2.172,0.915,0.152
1593964801294235,2.21,0.991,0.152
1593964801795901,2.21,0.991,0.152
1593964802297394,2.134,0.915,0.152
1593964802798878,2.134,0.915,0.152
1593964803300388,2.21,0.991,0.152
1593964803801905,2.21,0.991,0.152
1593964804303344,2.096,0.915,0.152
1593964804804830,2.134,0.991,0.152
1593964805306378,2.21,0.991,0.152
1593964805807952,2.286,1.067,0.152
1593964806309487,2.324,1.067,0.152
1593964806812235,2.134,0.915,0.152
1593964807313658,2.248,0.991,0.152
1593964807815103,2.096,0.915,0.152
1593964808316601,2.248,0.991,0.152
1593964808818015,2.21,0.991,0.152
1593964809319613,2.096,0.915,0.152
1593964809821126,2.134,0.915,0.152
1593964810322765,2.134,0.915,0.152
1593964810824352,2.248,0.991,0.152
1593964811325838,2.21,0.991,0.152
1593964811827358,2.172,0.991,0.152
1593964812328847,2.21,0.991,0.152
1593964812830310,2.248,0.991,0.152
1593964813331898,2.286,1.067,0.152
1593964813833314,2.172,0.991,0.152
1593964814334796,2.248,0.991,0.152
1593964814836327,2.172,0.991,0.152
1593964815337848,2.248,0.991,0.152
1593964815839374,2.248,0.991,0.152
1593964816340853,2.21,0.991,0.152
1593964816842398,2.172,0.991,0.152
1593964817343888,2.172,0.991,0.152
1593964817845401,2.21,0.991,0.152
1593964818346844,2.096,0.915,0.152
1593964818848432,2.134,0.915,0.152
1593964819349895,2.134,0.915,0.152
1593964819851413,2.172,0.915,0.152
1593964820352950,2.248,0.991,0.152
1593964820854419,2.096,0.915,0.152
1593964821358137,2.096,0.915,0.152
1593964821859705,2.172,0.991,0.152
1593964822361168,2.21,0.991,0.152
1593964822862658,2.134,0.915,0.152
1593964823364274,2.324,0.915,0.152
1593964823865783,2.439,0.915,0.152
1593964824367241,2.515,0.915,0.152
1593964824868875,2.477,0.915,0.152
1593964825370368,2.248,0.991,0.152
1593964825871828,2.096,0.915,0.152
1593964826373302,2.058,0.915,0.152
1593964826874977,2.172,0.915,0.152
1593964827376501,2.134,0.915,0.152
1593964827877981,2.058,0.915,0.152
1593964828379446,2.058,0.915,0.152
1593964828881006,2.21,0.991,0.152
1593964829382466,2.172,0.915,0.152
1593964829884040,2.172,0.991,0.152
1593964830385565,2.248,0.991,0.152
1593964830887103,2.21,0.991,0.152
1593964831388717,2.248,0.991,0.152
1593964831890154,2.134,0.915,0.152
1593964832391596,2.058,0.915,0.152
1593964832893074,2.058,0.915,0.152
1593964833394569,2.172,0.915,0.152
1593964833896077,2.21,0.991,0.152
1593964834397549,2.134,0.915,0.152
1593964834899105,2.134,0.915,0.152
1593964835400740,2.134,0.915,0.152
1593964835902230,2.21,0.991,0.152
1593964836403885,2.248,0.991,0.152
1593964836905348,2.096,0.915,0.152
1593964837406796,2.134,0.915,0.152
1593964837908240,1.943,0.838,0.152
1593964838409774,2.172,0.915,0.152
1593964838911277,2.21,0.991,0.152
1593964839412787,2.134,0.915,0.152
1593964839914335,2.134,0.915,0.152
1593964840415848,2.248,0.991,0.152
1593964840917315,2.286,0.991,0.152
1593964841418861,2.286,1.067,0.152
1593964841922662,2.134,0.991,0.152
1593964842424207,2.096,0.915,0.152
1593964842925775,2.248,0.991,0.152
1593964843427375,2.248,1.067,0.152
1593964843928899,2.286,0.991,0.152
1593964844430366,2.286,1.067,0.152
1593964844931891,2.21,0.991,0.152
1593964845433351,2.134,0.991,0.152
1593964845934781,2.096,0.915,0.152
1593964846436263,2.21,0.991,0.152
1593964846939998,2.286,0.991,0.152
1593964847442103,2.21,0.991,0.152
1593964847943593,2.21,0.991,0.152
1593964848445124,2.286,1.067,0.152
1593964848946632,2.134,0.915,0.152
1593964849448345,2.248,0.991,0.152
1593964849949890,2.286,0.991,0.152
1593964850451337,2.286,1.067,0.152
1593964850952796,2.134,0.991,0.152
1593964851454306,2.096,0.915,0.152
1593964851955863,2.21,0.991,0.152
1593964852457325,2.172,0.915,0.152
1593964852958844,2.058,0.915,0.152
1593964853460392,2.058,0.915,0.152
1593964853961864,2.096,0.838,0.152
1593964854463337,2.019,0.838,0.152
1593964854964780,1.981,0.838,0.152
1593964855466384,2.172,0.915,0.152
1593964855967964,2.21,0.991,0.152
1593964856469568,2.21,0.991,0.152
1593964856971093,2.134,0.915,0.152
1593964857472706,2.172,0.991,0.152
1593964857974178,2.21,0.991,0.152
1593964858475758,2.248,0.991,0.152
1593964858977290,2.248,0.991,0.152
1593964859478754,2.096,0.915,0.152
1593964859980280,2.096,0.915,0.152
1593964860481771,2.134,0.915,0.152
1593964860983193,2.21,0.991,0.152
1593964861484696,2.21,0.991,0.152
1593964861986184,2.096,0.915,0.152
1593964862489816,2.172,0.991,0.152
1593964862991830,2.248,0.991,0.152
1593964863493392,2.248,0.991,0.152
1593964863994853,2.134,0.915,0.152
1593964864496362,2.134,0.915,0.152
1593964864998452,2.134,0.915,0.152
1593964865499971,2.248,0.991,0.152
1593964866001406,2.172,0.991,0.152
1593964866502992,2.21,0.991,0.152
1593964867004473,2.134,0.991,0.152
1593964867508168,2.21,0.991,0.152
1593964868009668,2.248,0.991,0.152
1593964868511102,2.248,0.991,0.152
1593964869012603,2.134,0.991,0.152
1593964869514138,2.172,0.991,0.152
1593964870015634,2.21,0.991,0.152
1593964870517080,2.172,0.991,0.152
1593964871018550,2.172,0.991,0.152
1593964871520036,2.096,0.915,0.152
1593964872021513,2.21,0.991,0.152
1593964872525278,2.172,0.915,0.152
1593964873026792,2.096,0.915,0.152
1593964873528275,2.172,0.991,0.152
1593964874030364,2.21,0.991,0.152
1593964874532670,2.21,0.991,0.152
1593964875034092,2.096,0.915,0.152
1593964875535587,2.172,0.991,0.152
1593964876037146,2.134,0.915,0.152
1593964876538610,2.21,0.991,0.152
1593964877040644,2.286,1.067,0.152
1593964877546006,2.286,0.991,0.152
1593964878048923,2.172,0.991,0.152
1593964878551805,2.096,0.915,0.152
1593964879054578,2.172,0.915,0.152
1593964879557496,2.172,0.991,0.152
1593964880060165,2.096,0.915,0.152
1593964880562997,2.096,0.915,0.152
1593964881065820,2.248,0.991,0.152
1593964881568620,2.21,0.991,0.152
1593964882071420,2.096,0.915,0.152
1593964882576444,2.172,0.991,0.152
1593964883079138,2.21,0.991,0.152
1593964883583798,2.286,1.067,0.152
1593964884085371,2.286,1.067,0.152
1593964884586821,2.286,1.067,0.152
1593964885088343,2.21,0.991,0.152
1593964885589920,2.21,0.991,0.152
1593964886091452,2.362,1.067,0.152
1593964886595186,2.629,0.991,0.152
1593964887096632,2.591,0.991,0.152
1593964887598118,2.515,0.915,0.152
1593964888099596,2.286,0.915,0.152
1593964888601049,2.248,0.991,0.152
1593964889102488,2.21,0.915,0.152
1593964889603981,2.058,0.915,0.152
1593964890105383,2.058,0.915,0.152
1593964890606933,2.096,0.915,0.152
1593964891108472,2.21,0.991,0.152
1593964891609916,2.096,0.915,0.152
1593964892111405,2.172,0.991,0.152
1593964892615120,2.096,0.915,0.152
1593964893116685,2.172,0.915,0.152
1593964893618115,2.21,0.991,0.152
1593964894119596,2.134,0.915,0.152
1593964894621143,2.096,0.915,0.152
1593964895122600,2.134,0.915,0.152
1593964895624052,2.172,0.991,0.152
1593964896125504,2.172,0.915,0.152
1593964896626973,2.096,0.915,0.152
1593964897128487,2.058,0.915,0.152
1593964897630058,2.096,0.915,0.152
1593964898131663,2.134,0.915,0.152
1593964898633123,2.058,0.915,0.152
1593964899134620,2.058,0.915,0.152
1593964899636176,2.134,0.915,0.152
1593964900137731,2.21,0.991,0.152
1593964900639205,2.134,0.991,0.152
1593964901140739,2.096,0.915,0.152
1593964901642219,2.172,0.991,0.152
1593964902143776,2.248,0.991,0.152
1593964902645297,2.21,0.991,0.152
1593964903146799,2.134,0.991,0.152
1593964903648373,2.134,0.915,0.152
1593964904149863,2.172,0.991,0.152
1593964904651345,2.134,0.915,0.152
1593964905152786,2.096,0.915,0.152
1593964905654204,2.096,0.915,0.152
1593964906155773,2.21,0.991,0.152
1593964906657277,2.21,0.991,0.152
1593964907158763,2.058,0.915,0.152
1593964907660303,2.134,0.915,0.152
1593964908161791,2.096,0.915,0.152
1593964908663349,2.172,0.991,0.152
1593964909164847,2.248,0.991,0.152
1593964909666300,2.134,0.915,0.152
1593964910167772,1.981,0.838,0.152
1593964910669213,2.019,0.915,0.152
1593964911170764,2.21,0.991,0.152
1593964911672221,2.134,0.915,0.152
1593964912173779,2.134,0.915,0.152
1593964912675404,2.058,0.915,0.152
1593964913179107,2.172,0.991,0.152
1593964913680617,2.21,0.991,0.152
1593964914182084,2.134,0.915,0.152
1593964914683600,2.058,0.915,0.152
1593964915185264,2.058,0.915,0.152
1593964915686730,2.096,0.915,0.152
1593964916188280,2.172,0.991,0.152
1593964916689878,2.21,0.991,0.152
1593964917191372,2.134,0.915,0.152
1593964917692871,2.21,0.991,0.152
1593964918194327,2.248,0.991,0.152
1593964918695892,2.134,0.915,0.152
1593964919197371,2.134,0.915,0.152
1593964919698812,2.058,0.915,0.152
1593964920200329,2.172,0.915,0.152
1593964920701766,2.172,0.915,0.152
1593964921205102,2.096,0.915,0.152
1593964921706580,2.21,0.991,0.152
1593964922208002,2.21,0.991,0.152
1593964922709386,2.172,0.915,0.152
1593964923210844,2.134,0.991,0.152
1593964923713651,2.248,0.991,0.152
1593964924215149,2.172,0.991,0.152
1593964924716655,2.21,0.991,0.152
1593964925218121,2.134,0.915,0.152
1593964925719600,2.21,0.991,0.152
1593964926221072,2.248,0.991,0.152
1593964926722591,2.21,0.991,0.152
1593964927224133,2.134,0.915,0.152
1593964927725647,2.172,0.991,0.152
1593964928227178,2.096,0.915,0.152
1593964928729209,2.172,0.991,0.152
1593964929232116,2.21,0.991,0.152
1593964929734873,2.248,0.991,0.152
1593964930237678,2.172,0.991,0.152
1593964930740439,2.172,0.991,0.152
1593964931243141,2.286,0.991,0.152
1593964931745911,2.172,0.915,0.152
1593964932248784,2.21,0.991,0.152
1593964932751487,2.172,0.991,0.152
1593964933253420,2.286,1.067,0.152
1593964933757219,2.286,0.991,0.152
1593964934258692,2.286,1.067,0.152
1593964934760291,2.134,0.915,0.152
1593964935261845,2.172,0.915,0.152
1593964935763387,2.172,0.991,0.152
1593964936264833,2.248,0.991,0.152
1593964936766365,2.248,0.991,0.152
1593964937267852,2.134,0.991,0.152
1593964937769389,2.134,0.915,0.152
1593964938271110,2.248,0.991,0.152
1593964938772683,2.286,1.067,0.152
1593964939274135,2.248,0.991,0.152
1593964939775659,2.134,0.991,0.152
1593964940277205,2.134,0.915,0.152
1593964940778710,2.172,0.991,0.152
1593964941280400,2.21,0.991,0.152
1593964941781958,2.21,0.991,0.152
1593964942283449,2.134,0.915,0.152
1593964942784937,2.248,1.067,0.152
1593964943286381,2.21,0.991,0.152
1593964943787931,2.286,1.067,0.152
1593964944289387,2.286,1.067,0.152
1593964944790840,2.286,1.067,0.152
1593964945292280,2.096,0.915,0.152
1593964945793775,2.058,0.915,0.152
1593964946295563,2.134,0.915,0.152
1593964946797046,2.248,0.991,0.152
1593964947298489,2.172,0.991,0.152
1593964947800066,2.134,0.991,0.152
1593964948301465,2.21,0.991,0.152
1593964948802962,2.21,0.991,0.152
1593964949307248,2.515,0.991,0.152
1593964949808713,2.591,0.991,0.152
1593964950310150,2.629,0.991,0.152
1593964950811685,2.515,0.991,0.152
1593964951313190,2.324,0.991,0.152
1593964951814714,2.324,1.067,0.152
1593964952316221,2.172,0.991,0.152
1593964952817734,2.096,0.915,0.152
1593964953319220,2.019,0.915,0.152
1593964953820713,2.134,0.915,0.152
1593964954322232,2.134,0.915,0.152
1593964954823645,2.058,0.915,0.152
1593964955325098,2.058,0.915,0.152
1593964955826684,2.096,0.915,0.152
1593964956328167,2.134,0.915,0.152
1593964956829641,2.096,0.915,0.152
1593964957331111,1.981,0.838,0.152
1593964957832707,2.058,0.838,0.152
1593964958334242,2.058,0.838,0.152
1593964958835770,2.058,0.838,0.152
1593964959337353,2.019,0.838,0.152
1593964959838836,2.172,0.915,0.152
1593964960340391,2.172,0.915,0.152
1593964960841850,2.134,0.915,0.152
1593964961343284,2.058,0.915,0.152
1593964961844770,2.134,0.915,0.152
1593964962346197,2.134,0.915,0.152
1593964962847640,2.058,0.915,0.152
1593964963349146,2.134,0.915,0.152
1593964963850664,2.21,0.991,0.152
1593964964352118,2.21,0.991,0.152
1593964964853603,2.172,0.991,0.152
1593964965355226,2.21,0.991,0.152
1593964965856823,2.21,0.991,0.152
1593964966358361,2.248,0.991,0.152
1593964966859873,2.21,0.991,0.152
1593964967361321,2.172,0.991,0.152
1593964967862807,2.134,0.915,0.152
1593964968364304,2.134,0.915,0.152
1593964968865783,2.248,0.991,0.152
1593964969367235,2.096,0.915,0.152
1593964969870811,2.134,0.915,0.152
1593964970372867,2.134,0.915,0.152
1593964970874454,2.21,0.991,0.152
1593964971375947,2.172,0.991,0.152
1593964971877529,2.096,0.915,0.152
1593964972379032,2.248,0.991,0.152
1593964972880505,2.286,1.067,0.152
1593964973382185,2.248,0.991,0.152
1593964973883735,2.134,0.991,0.152
1593964974385286,2.21,0.991,0.152
1593964974886848,2.21,0.991,0.152
1593964975388265,2.286,1.067,0.152
1593964975889749,2.248,0.991,0.152
1593964976391241,2.134,0.915,0.152
1593964976892774,2.058,0.915,0.152
1593964977395688,2.172,0.915,0.152
1593964977897133,2.21,0.991,0.152
1593964978398614,2.172,0.991,0.152
1593964978900052,2.134,0.915,0.152
1593964979401770,2.21,0.991,0.152
1593964979903222,2.248,0.991,0.152
1593964980404759,2.134,0.915,0.152
1593964980906250,2.134,0.915,0.152
1593964981407895,2.21,0.991,0.152
1593964981909429,2.21,0.991,0.152
1593964982410911,2.096,0.915,0.152
1593964982912504,2.019,0.915,0.152
1593964983413969,2.096,0.915,0.152
1593964983919558,2.172,0.915,0.152
1593964984421013,2.134,0.915,0.152
1593964984922493,2.248,1.067,0.152
1593964985426565,2.248,0.991,0.152
1593964985931976,2.21,0.991,0.152
1593964986433438,2.248,0.991,0.152
1593964986934905,2.134,0.915,0.152
1593964987436419,2.096,0.915,0.152
1593964987937883,2.134,0.915,0.152
1593964988439386,2.096,0.915,0.152
1593964988940861,2.21,0.991,0.152
1593964989442336,2.172,0.915,0.152
1593964989943800,2.096,0.915,0.152
1593964990445325,2.058,0.838,0.152
1593964990946797,2.058,0.915,0.152
1593964991448323,2.096,0.915,0.152
1593964991949839,2.058,0.915,0.152
1593964992451374,2.058,0.915,0.152
1593964992952808,2.134,0.991,0.152
1593964993454283,2.172,0.991,0.152
1593964993955792,2.21,0.991,0.152
1593964994457223,2.134,0.915,0.152
1593964994958741,2.134,0.991,0.152
1593964995460254,2.21,0.991,0.152
1593964995961732,2.286,1.067,0.152
1593964996463166,2.21,0.991,0.152
1593964996964665,2.21,0.991,0.152
1593964997466119,2.286,1.067,0.152
1593964997967608,2.21,0.991,0.152
1593964998469140,2.286,1.067,0.152
1593964998970660,2.286,1.067,0.152
1593964999472196,2.21,0.991,0.152
1593964999973746,2.096,0.915,0.152
1593965000475260,2.096,0.915,0.152
1593965000979424,2.172,0.915,0.152
1593965001480994,2.248,0.991,0.152
1593965001982512,2.21,0.991,0.152
1593965002484137,2.096,0.915,0.152
1593965002985591,2.019,0.838,0.152
1593965003487025,2.058,0.838,0.152
1593965003988475,2.172,0.915,0.152
1593965004489966,2.172,0.915,0.152
1593965004991431,2.058,0.915,0.152
1593965005492873,2.058,0.915,0.152
1593965005994522,2.172,0.915,0.152
1593965006495969,2.172,0.991,0.152
1593965006997609,2.172,0.991,0.152
1593965007499149,2.21,0.991,0.152
1593965008000675,2.248,0.991,0.152
1593965008502180,2.286,1.067,0.152
1593965009003691,2.21,0.991,0.152
1593965009505135,2.096,0.915,0.152
1593965010006607,2.134,0.915,0.152
1593965010508107,2.172,0.991,0.152
1593965011009680,2.21,0.915,0.152
1593965011511154,2.134,0.915,0.152
1593965012012767,2.324,0.991,0.152
1593965012514212,2.515,0.991,0.152
1593965013015763,2.629,0.991,0.152
1593965013517217,2.629,0.991,0.152
1593965014018710,2.286,0.915,0.152
1593965014520209,2.172,0.915,0.152
1593965015021651,2.096,0.915,0.152
1593965015523117,2.172,0.915,0.152
1593965016024605,2.286,0.991,0.152
1593965016528473,2.248,0.991,0.152
1593965017029977,2.21,0.991,0.152
1593965017531434,2.096,0.915,0.152
1593965018032955,2.019,0.838,0.152
1593965018534500,2.21,0.991,0.152
1593965019036035,2.286,0.991,0.152
1593965019537516,2.134,0.915,0.152
1593965020038965,2.134,0.915,0.152
1593965020540475,2.172,0.991,0.152
1593965021041932,2.248,0.991,0.152
1593965021545913,2.172,0.991,0.152
1593965022047483,2.058,0.915,0.152
1593965022548984,2.172,0.991,0.152
1593965023050620,2.172,0.991,0.152
1593965023552167,2.286,1.067,0.152
1593965024057536,2.286,1.067,0.152
1593965024559094,2.286,1.067,0.152
1593965025060643,2.134,0.915,0.152
1593965025562128,2.134,0.915,0.152
1593965026063636,2.248,0.991,0.152
1593965026567381,2.286,1.067,0.152
1593965027068981,2.286,0.991,0.152
1593965027570516,2.096,0.915,0.152
1593965028072008,2.172,0.991,0.152
1593965028573559,2.096,0.915,0.152
1593965029075028,2.21,0.991,0.152
1593965029576604,2.286,1.067,0.152
1593965030078123,2.286,0.991,0.152
1593965030579589,2.172,0.991,0.152
1593965031081047,2.058,0.915,0.152
1593965031584928,2.134,0.915,0.152
1593965032086422,2.248,0.991,0.152
1593965032588007,2.286,1.067,0.152
1593965033089489,2.172,0.991,0.152
1593965033591023,2.172,0.991,0.152
1593965034092501,2.172,0.991,0.152
1593965034594053,2.096,0.915,0.152
1593965035095572,2.21,0.991,0.152
1593965035597073,2.286,0.991,0.152
1593965036098523,2.134,0.915,0.152
1593965036600075,2.134,0.915,0.152
1593965037101581,2.096,0.915,0.152
1593965037603087,2.21,0.991,0.152
1593965038104681,2.286,0.991,0.152
1593965038606229,2.134,0.915,0.152
1593965039107804,2.134,0.915,0.152
1593965039609389,2.096,0.915,0.152
1593965040110862,2.172,0.991,0.152
1593965040612330,2.248,0.991,0.152
1593965041113846,2.286,0.991,0.152
1593965041615299,2.248,0.991,0.152
1593965042116888,2.134,0.915,0.152
1593965042618450,2.172,0.915,0.152
1593965043119983,2.21,0.991,0.152
1593965043621403,2.096,0.915,0.152
1593965044122913,2.058,0.915,0.152
1593965044624478,2.058,0.915,0.152
1593965045125899,2.134,0.915,0.152
1593965045627442,2.21,0.991,0.152
1593965046128897,2.134,0.915,0.152
1593965046630379,2.21,0.991,0.152
1593965047131989,2.172,0.915,0.152
1593965047633565,2.21,0.991,0.152
1593965048135127,2.248,0.991,0.152
1593965048639735,2.248,0.991,0.152
1593965049141240,2.134,0.915,0.152
1593965049642703,2.058,0.915,0.152
1593965050144254,2.21,0.991,0.152
1593965050645776,2.248,0.991,0.152
1593965051147385,2.286,1.067,0.152
1593965051652003,2.324,1.067,0.152
1593965052153473,2.172,0.915,0.152
1593965052654967,2.058,0.915,0.152
1593965053160556,2.058,0.915,0.152
1593965053662066,2.21,0.991,0.152
1593965054163738,2.21,0.991,0.152
1593965054665223,2.134,0.991,0.152
1593965055166942,2.21,0.991,0.152
1593965055668471,2.172,0.991,0.152
1593965056169983,2.248,0.991,0.152
1593965056671541,2.21,0.991,0.152
1593965057175396,2.134,0.915,0.152
1593965057676907,2.134,0.915,0.152
1593965058178438,2.096,0.915,0.152
1593965058679980,2.248,0.991,0.152
1593965059181495,2.286,1.067,0.152
1593965059683052,2.172,0.991,0.152
1593965060184577,2.096,0.915,0.152
1593965060686038,2.172,0.991,0.152
1593965061187570,2.172,0.991,0.152
1593965061689107,2.248,0.991,0.152
1593965062190583,2.286,1.067,0.152
1593965062692049,2.286,0.991,0.152
1593965063193522,2.058,0.915,0.152
1593965063694978,2.058,0.915,0.152
1593965064196484,2.172,0.991,0.152
1593965064697980,2.286,0.991,0.152
1593965065199467,2.21,0.991,0.152
1593965065700889,2.096,0.915,0.152
1593965066202355,2.248,0.991,0.152
1593965066703804,2.21,0.991,0.152
1593965067205315,2.134,0.915,0.152
1593965067706755,2.134,0.991,0.152
1593965068208287,2.248,0.991,0.152
1593965068709732,2.248,0.991,0.152
1593965069211260,2.21,0.991,0.152
1593965069712828,2.096,0.915,0.152
1593965070214324,2.096,0.915,0.152
1593965070715866,2.096,0.915,0.152
1593965071217485,2.21,0.991,0.152
1593965071719695,2.286,0.991,0.152
1593965072223449,2.134,0.915,0.152
1593965072724891,2.058,0.915,0.152
1593965073226408,2.019,0.915,0.152
1593965073727928,2.248,0.991,0.152
1593965074229454,2.248,0.991,0.152
1593965074730959,2.172,0.991,0.152
1593965075232446,2.401,0.991,0.152
1593965075733910,2.553,0.991,0.152
1593965076235414,2.553,0.915,0.152
1593965076738566,2.553,0.991,0.152
1593965077243235,2.286,0.991,0.152
1593965077746117,2.324,1.067,0.152
1593965078248982,2.096,0.915,0.152
1593965078752073,2.172,0.915,0.152
1593965079255080,2.21,0.991,0.152
1593965079757827,2.096,0.915,0.152
1593965080260519,2.058,0.915,0.152
1593965080762497,2.019,0.838,0.152
1593965081264020,2.096,0.915,0.152
1593965081765440,2.172,0.915,0.152
1593965082266888,2.096,0.915,0.152
1593965082768371,2.172,0.991,0.152
1593965083269820,2.248,0.991,0.152
1593965083771384,2.21,0.991,0.152
1593965084272910,2.096,0.915,0.152
1593965084774333,2.019,0.838,0.152
1593965085275843,1.981,0.838,0.152
1593965085777308,2.172,0.915,0.152
1593965086278709,2.134,0.915,0.152
1593965086780187,2.058,0.915,0.152
1593965087281719,2.058,0.915,0.152
1593965087787770,2.172,0.991,0.152
1593965088289222,2.21,0.915,0.152
1593965088790706,2.096,0.915,0.152
1593965089292203,2.019,0.838,0.152
1593965089793681,2.21,0.991,0.152
1593965090295159,2.248,0.991,0.152
1593965090796665,2.172,0.991,0.152
1593965091298149,2.134,0.915,0.152
1593965091799667,2.21,0.991,0.152
1593965092303400,2.21,0.991,0.152
1593965092804854,2.248,0.991,0.152
1593965093306400,2.248,0.991,0.152
1593965093807886,2.21,0.991,0.152
1593965094309368,2.172,0.915,0.152
1593965094810882,2.248,0.991,0.152
1593965095312397,2.172,0.991,0.152
1593965095813829,2.096,0.915,0.152
1593965096315282,2.058,0.915,0.152
1593965096816777,2.172,0.991,0.152
1593965097318249,2.21,0.991,0.152
1593965097819746,2.134,0.915,0.152
1593965098321249,2.134,0.915,0.152
1593965098822662,2.096,0.915,0.152
1593965099324142,2.21,0.991,0.152
1593965099825621,2.172,0.991,0.152
1593965100327113,2.058,0.915,0.152
1593965100828753,2.058,0.915,0.152
1593965101330378,2.21,0.991,0.152
1593965101831853,2.172,0.991,0.152
1593965102333295,2.058,0.915,0.152
1593965102834807,2.096,0.915,0.152
1593965103338733,2.134,0.915,0.152
1593965103840226,2.248,0.991,0.152
1593965104341693,2.172,0.991,0.152
1593965104847203,2.058,0.915,0.152
1593965105348695,2.134,0.991,0.152
1593965105850294,2.134,0.991,0.152
1593965106351815,2.248,0.991,0.152
1593965106853263,2.248,0.991,0.152
1593965107354730,2.134,0.915,0.152
1593965107856188,2.058,0.915,0.152
1593965108357664,2.019,0.915,0.152
1593965108859154,2.172,0.991,0.152
1593965109360683,2.248,0.991,0.152
1593965109862123,2.172,0.991,0.152
1593965110363675,2.21,0.991,0.152
1593965110865191,2.21,0.991,0.152
1593965111366769,2.248,0.991,0.152
1593965111868333,2.286,1.067,0.152
1593965112369797,2.286,0.991,0.152
1593965112871245,2.134,0.915,0.152
1593965113372849,2.172,0.991,0.152
1593965113874386,2.096,0.915,0.152
1593965114375915,2.21,0.991,0.152
1593965114877414,2.172,0.991,0.152
1593965115379024,2.096,0.915,0.152
1593965115880487,2.134,0.915,0.152
1593965116381979,2.21,0.991,0.152
1593965116883578,2.286,1.067,0.152
1593965117385048,2.286,1.067,0.152
1593965117886484,2.248,0.991,0.152
1593965118387961,2.172,0.991,0.152
1593965118889501,2.172,0.991,0.152
1593965119391008,2.248,0.991,0.152
1593965119892484,2.172,0.991,0.152
1593965120393997,2.134,0.915,0.152
1593965120895540,2.172,0.991,0.152
1593965121397062,2.248,0.991,0.152
1593965121898532,2.21,0.991,0.152
1593965122400021,2.172,0.991,0.152
1593965122901459,2.134,0.915,0.152
1593965123402953,2.248,0.991,0.152
1593965123904445,2.21,0.991,0.152
1593965124405967,2.096,0.915,0.152
1593965124907457,2.096,0.915,0.152
1593965125408973,2.134,0.915,0.152
1593965125910460,2.172,0.991,0.152
1593965126411938,2.134,0.991,0.152
1593965126913438,2.248,0.991,0.152
1593965127414952,2.172,0.991,0.152
1593965127916669,2.172,0.991,0.152
1593965128418239,2.058,0.915,0.152
1593965128922111,2.134,0.915,0.152
1593965129423610,2.058,0.915,0.152
1593965129925142,2.172,0.991,0.152
1593965130426688,2.172,0.991,0.152
1593965130928316,2.286,1.067,0.152
1593965131429841,2.134,0.991,0.152
1593965131931361,2.21,0.991,0.152
1593965132432864,2.286,1.067,0.152
1593965132934428,2.286,1.067,0.152
1593965133435941,2.134,0.915,0.152
1593965133937458,2.096,0.915,0.152
1593965134438923,2.134,0.991,0.152
1593965134940450,2.248,0.991,0.152
1593965135442070,2.286,0.991,0.152
1593965135943642,2.172,0.991,0.152
1593965136445279,2.21,0.991,0.152
1593965136946755,2.134,0.915,0.152
1593965137448229,2.172,0.991,0.152
1593965137949732,2.286,0.991,0.152
1593965138451260,2.591,1.067,0.152
1593965138952830,2.591,0.991,0.152
1593965139454426,2.553,0.915,0.152
1593965139955959,2.439,0.99,0.152
1593965140457408,2.286,0.991,0.152
1593965140958870,2.172,0.991,0.152
1593965141460486,2.134,0.915,0.152
1593965141962041,2.21,0.991,0.152
1593965142463577,2.286,1.067,0.152
1593965142965039,2.21,0.991,0.152
1593965143466473,2.096,0.915,0.152
1593965143968013,2.21,0.991,0.152
1593965144469672,2.096,0.915,0.152
1593965144971204,2.21,0.991,0.152
1593965145473877,2.134,0.915,0.152
1593965145975442,2.248,0.991,0.152
1593965146477039,2.134,0.991,0.152
1593965146978532,2.172,0.991,0.152
1593965147480076,2.21,0.991,0.152
1593965147981567,2.21,0.991,0.152
1593965148482999,2.019,0.838,0.152
