cset: --> last message, executed args into cpuset "/user", new pid is: 28297
stress-ng: info:  [28297] dispatching hogs: 4 cpu
stress-ng: info:  [28297] successful run completed in 60.02s (1 min, 0.02 secs)
