timestamp	VIRTUAL_SCALING	CPU0_F	CPU1_F	CPU2_F	CPU3_F	CPU4_F	CPU5_F	GPU_FREQ	CPU_GOVERNOR	EMC_F	TEMP0	TEMP1	TEMP2	TEMP3	TEMP4	TEMP5	TEMP6	TEMP7
1592951437958701602	1	960	652	652	960	960	960	114750000	performance	665	29	29	28	29	27	25	100	28
1592951438350475672 	0	960	652	652	960	959	959	114750000	performance	665	29	29	28	29	27	25	100	28
1592951440911228367	1	960	652	652	960	960	960	114750000	performance	665	29	29	28	29	27	25	100	28
1592951441766550186 	0	960	652	652	959	960	959	114750000	performance	665	29	29	28	29	27	25	100	28
1592951444406574775	1	960	652	652	960	960	960	114750000	performance	665	29	29	28	29	27	25	100	28
1592951445300692311 	0	960	652	653	960	960	961	114750000	performance	665	29	29	28	29	27	26	100	28
1592951447978641335	1	960	652	652	960	960	960	114750000	performance	665	29	29	28	29	27	25	100	28
1592951448902897992 	0	960	651	652	960	960	959	114750000	performance	665	29	29	28	29	27	25	100	28
1592951450800803843	1	960	652	652	960	960	960	114750000	performance	665	29	29	28	29	27	25	100	28
