Timestamp,Voltage(V),Ampere(A),Power(W),Watt Hour
1610475530177466300,5.044,0.741,3.741,0.000
1610475530458320392,5.050,0.808,4.080,0.000
1610475530703260940,5.050,0.808,4.080,0.000
1610475530963301689,5.055,0.850,4.302,0.000
1610475531213322930,5.056,0.856,4.328,0.000
1610475531458215980,5.057,0.860,4.347,0.000
1610475531698728622,5.056,0.862,4.359,0.000
1610475531953668307,5.055,0.853,4.317,0.000
1610475532204316792,5.056,0.857,4.336,0.000
1610475532469097782,5.056,0.865,4.374,0.000
1610475532718412033,5.056,0.863,4.366,0.000
1610475532963276002,5.057,0.858,4.340,0.000
1610475533213305037,5.059,0.863,4.370,0.000
1610475533488435951,5.059,0.863,4.370,0.000
1610475533708195169,5.060,0.861,4.363,0.000
1610475533958302330,5.057,0.871,4.408,0.000
1610475534213196769,5.056,0.856,4.328,0.000
1610475534448318021,5.056,0.859,4.347,0.000
1610475534713387635,5.055,0.861,4.355,0.000
1610475534964504244,5.055,0.842,4.256,0.000
1610475535218396780,5.056,0.855,4.325,0.000
1610475535458287312,5.052,0.831,4.199,0.000
1610475535704449562,5.051,0.821,4.145,0.000
1610475535954212272,5.051,0.811,4.096,0.000
1610475536208182600,5.051,0.811,4.096,0.000
1610475536453261907,5.051,0.807,4.076,0.000
1610475536708356265,5.050,0.805,4.065,0.000
1610475536963216084,5.052,0.825,4.168,0.000
1610475537213378458,5.051,0.831,4.202,0.000
1610475537458380934,5.054,0.846,4.279,0.000
1610475537704087068,5.055,0.847,4.286,0.000
1610475537963383088,5.056,0.858,4.340,0.000
1610475538248375397,5.057,0.863,4.366,0.000
1610475538463293137,5.056,0.853,4.317,0.000
1610475538713271307,5.056,0.855,4.325,0.000
1610475538963193144,5.056,0.855,4.325,0.000
1610475539213231982,5.056,0.861,4.355,0.000
1610475539463174654,5.055,0.846,4.279,0.000
1610475539718856760,5.051,0.815,4.118,0.000
1610475539944193507,5.050,0.817,4.130,0.000
1610475540213330752,5.052,0.831,4.199,0.000
1610475540456970665,5.050,0.816,4.122,0.000
1610475540708305906,5.049,0.808,4.084,0.000
1610475540959067695,5.051,0.814,4.115,0.000
1610475541213217739,5.050,0.820,4.145,0.000
1610475541454439973,5.050,0.809,4.088,0.000
1610475541703224120,5.050,0.809,4.088,0.000
1610475541958365778,5.054,0.835,4.221,0.000
1610475542213210857,5.050,0.809,4.088,0.000
1610475542468395099,5.052,0.824,4.164,0.000
1610475542723602507,5.050,0.809,4.088,0.000
1610475543018356838,5.050,0.811,4.099,0.000
1610475543223453072,5.051,0.830,4.195,0.000
1610475543453380397,5.051,0.803,4.061,0.000
1610475543713394669,5.049,0.816,4.126,0.000
1610475543958222989,5.050,0.809,4.088,0.000
1610475544209010660,5.051,0.821,4.149,0.000
1610475544458190224,5.051,0.821,4.149,0.000
1610475544713359303,5.049,0.813,4.107,0.000
1610475544958667120,5.051,0.811,4.096,0.000
1610475545218397857,5.052,0.821,4.153,0.000
1610475545454506697,5.056,0.815,4.122,0.000
1610475545708312377,5.051,0.808,4.080,0.000
1610475545963270335,5.049,0.806,4.069,0.000
1610475546213304017,5.051,0.816,4.126,0.000
1610475546458333507,5.051,0.826,4.176,0.000
1610475546713326133,5.050,0.815,4.118,0.000
1610475546959072407,5.051,0.825,4.168,0.000
1610475547213313168,5.051,0.821,4.149,0.000
1610475547454322539,5.051,0.821,4.149,0.000
1610475547723451588,5.050,0.815,4.118,0.000
1610475547963402346,5.050,0.808,4.080,0.000
1610475548198438287,5.052,0.834,4.218,0.000
1610475548468372079,5.050,0.815,4.118,0.000
1610475548713322615,5.052,0.820,4.145,0.000
1610475548963275010,5.050,0.814,4.115,0.000
1610475549198460617,5.050,0.802,4.050,0.000
1610475549463211637,5.051,0.820,4.145,0.000
1610475549708918999,5.050,0.826,4.172,0.000
1610475549953281418,5.050,0.816,4.126,0.000
1610475550203622187,5.050,0.816,4.126,0.000
1610475550427407301,5.050,0.812,4.107,0.000
