timestamp	VIRTUAL_SCALING	CPU0_F	CPU1_F	CPU2_F	CPU3_F	CPU4_F	CPU5_F	GPU_FREQ	CPU_GOVERNOR	EMC_F	TEMP0	TEMP1	TEMP2	TEMP3	TEMP4	TEMP5	TEMP6	TEMP7
1593892915289304103	1	1267	499	499	1267	1267	1267	114750000	performance	665	26	26	25	26	24	22	100	25
1593892915419853231 	0	1230	499	498	1230	1232	1266	114750000	performance	665	26	26	25	26	24	22	100	25
1593892917067014106	1	1267	499	499	1267	1267	1267	114750000	performance	665	26	26	25	26	24	22	100	25
1593892917136673989 	0	1230	499	499	1267	1266	1267	114750000	performance	665	26	26	24	26	24	22	100	25
1593892918721111163	1	1267	499	499	1267	1267	1267	114750000	performance	665	26	26	24	26	24	22	100	25
1593892918781936985 	0	1232	499	498	1266	1267	1266	114750000	performance	665	26	26	24	26	24	22	100	25
1593892921279494442	1	1267	499	499	1267	1267	1267	114750000	performance	665	26	26	24	26	24	22	100	25
1593892922009339921 	0	1267	499	499	1266	1268	1231	114750000	performance	665	26	26	24	26	24	22	100	25
1593892924532370062	1	1267	499	499	1267	1267	1267	114750000	performance	665	26	26	24	26	24	22	100	25
1593892925162606200 	0	1266	499	499	1238	1266	1267	114750000	performance	665	26	26	24	26	24	22	100	25
1593892927557340443	1	1267	499	499	1267	1267	1267	114750000	performance	665	26	26	25	26	24	22	100	25
1593892928214898820 	0	1267	499	499	1236	1232	1267	114750000	performance	665	26	26	24	26	24	22	100	25
1593892930665970267	1	1267	499	499	1267	1267	1267	114750000	performance	665	26	26	24	26	24	22	100	25
1593892931363799097 	0	1267	499	499	1267	1268	1229	114750000	performance	665	26	26	24	26	24	22	100	25
1593892933534389650	1	1267	499	499	1267	1267	1267	114750000	performance	665	26	26	24	26	24	22	100	25
1593892934423478262 	0	1231	499	499	1266	1268	1267	114750000	performance	665	26	26	25	26	24	22	100	25
1593892936907118991	1	1267	499	499	1267	1267	1267	114750000	performance	665	26	26	25	26	24	22	100	25
1593892937740310230 	0	1267	499	499	1268	1231	1268	114750000	performance	665	26	26	24	26	24	22	100	25
1593892940304800047	1	1267	499	499	1267	1267	1267	114750000	performance	665	26	26	25	26	24	22	100	25
1593892941143577941 	0	1235	499	499	1231	1267	1266	114750000	performance	665	26	26	24	26	24	22	100	25
1593892943502930297	1	1267	499	499	1267	1267	1267	114750000	performance	665	26	26	24	26	24	22	100	25
1593892944220810848 	0	1267	499	499	1268	1245	1267	114750000	performance	665	26	26	24	26	24	22	100	25
1593892946701369378	1	1267	499	499	1267	1267	1267	114750000	performance	665	26	26	24	26	24	22	100	25
1593892947265094060 	0	1268	499	499	1274	1267	1267	114750000	performance	665	26	26	24	26	24	22	100	25
1593892949439574081	1	1267	499	499	1267	1267	1267	114750000	performance	665	26	26	24	26	24	22	100	25
1593892950283780068 	0	1267	499	498	1241	1267	1267	114750000	performance	665	26	26	24	26	24	22	100	25
1593892952395089671	1	1267	499	499	1267	1267	1267	114750000	performance	665	26	26	25	26	24	22	100	25
1593892953020147976 	0	1267	499	499	1267	1267	1267	114750000	performance	665	26	26	24	26	24	22	100	25
1593892955656510228	1	1267	499	499	1267	1267	1267	114750000	performance	665	26	26	24	26	24	22	100	25
1593892956556606577 	0	1267	499	499	1269	1266	1229	114750000	performance	665	26	26	24	26	24	22	100	25
1593892958842954935	1	1267	499	499	1267	1267	1267	114750000	performance	665	26	26	25	26	24	22	100	25
1593892959683434445 	0	1267	499	499	1267	1266	1268	114750000	performance	665	26	26	25	26	24	22	100	25
1593892962256567296	1	1267	499	499	1267	1267	1267	114750000	performance	665	26	26	24	26	24	22	100	25
1593892962962151306 	0	1268	499	499	1267	1233	1233	114750000	performance	665	26	26	25	26	24	22	100	25
1593892965514854452	1	1267	499	499	1267	1267	1267	114750000	performance	665	26	26	24	26	24	22	100	25
1593892965992673519 	0	1267	499	499	1243	1233	1267	114750000	performance	665	26	26	24	26	24	22	100	25
1593892968202747977	1	1267	499	499	1267	1267	1267	114750000	performance	665	26	26	24	26	24	22	100	25
1593892968871414250 	0	1266	499	498	1231	1266	1266	114750000	performance	665	26	26	24	26	24	22	100	25
1593892971422001435	1	1267	499	499	1267	1267	1267	114750000	performance	665	26	26	24	26	24	22	100	25
1593892972240957100 	0	1230	499	499	1267	1267	1267	114750000	performance	665	26	26	24	26	24	22	100	25
1593892974932310243	1	1267	499	499	1267	1267	1267	114750000	performance	665	26	26	24	26	24	22	100	25
1593892975569718743 	0	1267	499	499	1266	1266	1267	114750000	performance	665	26	26	25	26	24	22	100	25
1593892978064223692	1	1267	499	499	1267	1267	1267	114750000	performance	665	26	26	24	26	24	22	100	25
1593892978871013859 	0	1266	499	499	1268	1194	1268	114750000	performance	665	26	26	24	26	24	22	100	25
1593892981397878202	1	1267	499	499	1267	1267	1267	114750000	performance	665	26	26	24	26	24	22	100	25
1593892982150609898 	0	1267	498	499	1267	1267	1268	114750000	performance	665	26	26	25	26	24	22	100	25
1593892984416702701	1	1267	499	499	1267	1267	1267	114750000	performance	665	26	26	24	26	24	22	100	25
1593892985197213531 	0	1229	499	499	1268	1246	1266	114750000	performance	665	26	26	24	26	24	22	100	25
1593892987221311556	1	1267	499	499	1267	1267	1267	114750000	performance	665	26	26	24	26	24	22	100	25
1593892987932466727 	0	1265	499	499	1266	1267	1230	114750000	performance	665	26	26	24	26	24	22	100	25
1593892990239823961	1	1267	499	499	1267	1267	1267	114750000	performance	665	26	26	24	26	24	22	100	25
1593892990960917378 	0	1230	499	499	1266	1268	1239	114750000	performance	665	26	26	24	26	24	22	100	25
1593892993662711951	1	1267	499	499	1267	1267	1267	114750000	performance	665	26	26	25	26	24	22	100	25
1593892994150055629 	0	1267	499	499	1268	1267	1267	114750000	performance	665	26	26	24	26	24	22	100	25
1593892996501073686	1	1267	499	499	1267	1267	1267	114750000	performance	665	26	26	24	26	24	22	100	25
1593892997307527114 	0	1265	499	499	1267	1266	1230	114750000	performance	665	26	26	24	26	24	22	100	25
1593892999736379980	1	1267	499	499	1267	1267	1267	114750000	performance	665	26	26	25	26	24	22	100	25
1593893000528357972 	0	1268	499	498	1231	1266	1266	114750000	performance	665	26	26	24	26	24	22	100	25
1593893002786339070	1	1267	499	499	1267	1267	1267	114750000	performance	665	26	26	24	26	24	22	100	25
1593893003451742442 	0	1267	499	499	1267	1267	1267	114750000	performance	665	26	26	25	26	24	22	100	25
1593893005872857078	1	1267	499	499	1267	1267	1267	114750000	performance	665	26	26	24	26	24	22	100	25
1593893006497030929 	0	1229	499	499	1267	1268	1266	114750000	performance	665	26	26	24	26	24	22	100	25
1593893008602885901	1	1267	499	499	1267	1267	1267	114750000	performance	665	26	26	25	26	24	22	100	25
1593893009419774976 	0	1266	498	499	1266	1268	1265	114750000	performance	665	26	26	24	26	24	22	100	25
1593893011831040544	1	1267	499	499	1267	1267	1267	114750000	performance	665	26	26	24	26	24	22	100	25
1593893012466508057 	0	1266	499	499	1240	1266	1267	114750000	performance	665	26	26	24	26	24	22	100	25
1593893015269429317	1	1267	499	499	1267	1267	1267	114750000	performance	665	26	26	24	26	24	22	100	25
1593893015997903518 	0	1266	499	499	1266	1266	1231	114750000	performance	665	26	26	25	26	24	22	100	25
1593893018610471553	1	1267	499	499	1267	1267	1267	114750000	performance	665	26	26	24	26	24	22	100	25
1593893019345153555 	0	1267	499	498	1267	1267	1193	114750000	performance	665	26	26	24	26	24	22	100	25
1593893021819598584	1	1267	499	499	1267	1267	1267	114750000	performance	665	26	26	24	26	24	22	100	25
1593893022654606366 	0	1267	498	499	1268	1267	1267	114750000	performance	665	26	26	24	26	24	22	100	25
1593893025074003526	1	1267	499	499	1267	1267	1267	114750000	performance	665	26	26	24	26	24	22	100	25
1593893025965731168 	0	1265	499	499	1267	1268	1268	114750000	performance	665	26	26	24	26	24	22	100	25
1593893028357531305	1	1267	499	499	1267	1267	1267	114750000	performance	665	26	26	24	26	24	22	100	25
1593893029114411864 	0	1268	499	499	1246	1266	1268	114750000	performance	665	26	26	24	26	24	22	100	25
1593893031481246990	1	1267	499	499	1267	1267	1267	114750000	performance	665	26	26	24	26	24	22	100	25
1593893032068394430 	0	1266	499	499	1266	1267	1267	114750000	performance	665	26	26	24	26	24	22	100	25
1593893034668525177	1	1267	499	499	1267	1267	1267	114750000	performance	665	26	26	24	26	24	22	100	25
1593893035517561418 	0	1267	498	499	1231	1267	1266	114750000	performance	665	26	26	24	26	24	22	100	25
1593893038031205280	1	1267	499	499	1267	1267	1267	114750000	performance	665	26	26	24	26	24	22	100	25
1593893038761977190 	0	1267	499	499	1268	1267	1191	114750000	performance	665	26	26	24	26	24	22	100	25
1593893041274538946	1	1267	499	499	1267	1267	1267	114750000	performance	665	26	26	24	26	24	22	100	25
1593893042124688908 	0	1230	499	499	1233	1267	1233	114750000	performance	665	26	26	24	26	24	22	100	25
1593893044712431338	1	1267	499	499	1267	1267	1267	114750000	performance	665	26	26	24	26	24	22	100	25
1593893045580851206 	0	1266	499	499	1266	1266	1267	114750000	performance	665	26	26	24	26	24	22	100	25
1593893048220348369	1	1267	499	499	1267	1267	1267	114750000	performance	665	26	26	24	26	24	22	100	25
1593893049001847595 	0	1230	499	499	1229	1267	1268	114750000	performance	665	26	26	24	26	24	22	100	25
1593893051788828437	1	1267	499	499	1267	1267	1267	114750000	performance	665	26	26	25	26	24	22	100	25
1593893052729847751 	0	1265	499	498	1267	1267	1266	114750000	performance	665	26	26	24	26	24	22	100	25
1593893055433841496	1	1267	499	499	1267	1267	1267	114750000	performance	665	26	26	25	26	24	22	100	25
1593893056202660316 	0	1269	499	499	1247	1267	1266	114750000	performance	665	26	26	24	26	24	22	100	25
1593893058408058387	1	1267	499	499	1267	1267	1267	114750000	performance	665	26	26	24	26	24	22	100	25
1593893059162627783 	0	1267	499	499	1267	1267	1243	114750000	performance	665	26	26	24	26	24	22	100	25
1593893061464447910	1	1267	499	499	1267	1267	1267	114750000	performance	665	26	26	25	26	24	22	100	25
1593893062288312900 	0	1267	499	499	1267	1267	1233	114750000	performance	665	26	26	24	26	24	22	100	25
1593893064835959168	1	1267	499	499	1267	1267	1267	114750000	performance	665	26	26	24	26	24	22	100	25
1593893065531639086 	0	1267	499	498	1267	1267	1245	114750000	performance	665	26	26	24	26	24	22	100	25
1593893067990521043	1	1267	499	499	1267	1267	1267	114750000	performance	665	26	26	24	26	24	22	100	25
1593893068683685936 	0	1266	499	498	1266	1268	1245	114750000	performance	665	26	26	24	26	24	22	100	25
1593893071315714236	1	1267	499	499	1267	1267	1267	114750000	performance	665	26	26	24	26	24	22	100	25
1593893072135028913 	0	1267	499	499	1266	1267	1267	114750000	performance	665	26	26	24	26	24	22	100	25
1593893074723541588	1	1267	499	499	1267	1267	1267	114750000	performance	665	26	26	24	26	24	22	100	25
1593893075322726134 	0	1246	499	499	1267	1248	1242	114750000	performance	665	26	26	24	26	24	22	100	25
1593893077780468376	1	1267	499	499	1267	1267	1267	114750000	performance	665	26	26	24	26	24	22	100	25
1593893078548132733 	0	1266	499	499	1267	1266	1267	114750000	performance	665	26	26	24	26	24	22	100	25
1593893081027424129	1	1267	499	499	1267	1267	1267	114750000	performance	665	26	26	24	26	24	22	100	25
1593893081677341625 	0	1231	499	499	1266	1231	1266	114750000	performance	665	26	26	25	26	24	22	100	25
1593893083779040678	1	1267	499	499	1267	1267	1267	114750000	performance	665	26	26	24	26	24	22	100	25
1593893084319749184 	0	1267	499	499	1267	1231	1267	114750000	performance	665	26	26	24	26	24	22	100	25
1593893086703061009	1	1267	499	499	1267	1267	1267	114750000	performance	665	26	26	24	26	24	22	100	25
1593893087355495032 	0	1266	499	499	1267	1243	1267	114750000	performance	665	26	26	24	26	24	22	100	25
1593893089533076991	1	1267	499	499	1267	1267	1267	114750000	performance	665	26	26	25	26	24	22	100	25
1593893090286284374 	0	1231	498	499	1267	1267	1266	114750000	performance	665	26	26	24	26	24	22	100	25
1593893092594792412	1	1267	499	499	1267	1267	1267	114750000	performance	665	26	26	24	26	24	22	100	25
1593893093143014631 	0	1229	499	498	1267	1267	1233	114750000	performance	665	26	26	24	26	24	22	100	25
1593893095385081939	1	1267	499	499	1267	1267	1267	114750000	performance	665	26	26	24	26	24	22	100	25
1593893096216903389 	0	1266	499	498	1267	1268	1267	114750000	performance	665	26	26	24	26	24	22	100	25
1593893098493603037	1	1267	499	499	1267	1267	1267	114750000	performance	665	26	26	24	26	24	22	100	25
1593893099193946154 	0	1267	499	499	1267	1230	1267	114750000	performance	665	26	26	24	26	24	22	100	25
1593893101883077098	1	1267	499	499	1267	1267	1267	114750000	performance	665	26	26	24	26	24	22	100	25
1593893102608422466 	0	1267	499	499	1268	1203	1266	114750000	performance	665	26	26	24	26	24	22	100	25
1593893104907188793	1	1267	499	499	1267	1267	1267	114750000	performance	665	26	26	24	26	24	22	100	25
1593893105679193599 	0	1267	499	499	1268	1266	1267	114750000	performance	665	26	26	24	26	24	22	100	25
1593893107770512217	1	1267	499	499	1267	1267	1267	114750000	performance	665	26	26	24	26	24	22	100	25
1593893108374467770 	0	1267	498	499	1266	1267	1267	114750000	performance	665	26	26	24	26	24	22	100	25
1593893111035552287	1	1267	499	499	1267	1267	1267	114750000	performance	665	26	26	24	26	24	22	100	25
1593893111840143589 	0	1266	499	498	1266	1231	1267	114750000	performance	665	26	26	24	26	24	22	100	25
1593893113760271502	1	1267	499	499	1267	1267	1267	114750000	performance	665	26	26	24	26	24	22	100	25
1593893114265752177 	0	1267	499	499	1267	1267	1266	114750000	performance	665	26	26	24	26	24	22	100	25
1593893116950305922	1	1267	499	499	1267	1267	1267	114750000	performance	665	26	26	24	26	24	22	100	25
1593893117678386919 	0	1266	499	499	1267	1232	1266	114750000	performance	665	26	26	24	26	24	22	100	25
1593893120198116769	1	1267	499	499	1267	1267	1267	114750000	performance	665	26	26	25	26	24	22	100	25
1593893120705389561 	0	1265	499	499	1266	1266	1266	114750000	performance	665	26	26	24	26	24	22	100	25
1593893123272212095	1	1267	499	499	1267	1267	1267	114750000	performance	665	26	26	24	26	24	22	100	25
1593893123937441174 	0	1266	499	499	1232	1242	1267	114750000	performance	665	26	26	24	26	24	22	100	25
1593893126265152921	1	1267	499	499	1267	1267	1267	114750000	performance	665	26	26	24	26	24	22	100	25
1593893126932809506 	0	1228	499	499	1244	1267	1267	114750000	performance	665	26	26	24	26	24	22	100	25
1593893129585265997	1	1267	499	499	1267	1267	1267	114750000	performance	665	26	26	24	26	24	22	100	25
1593893130285795602 	0	1234	499	499	1267	1267	1230	114750000	performance	665	26	26	24	26	24	22	100	25
1593893132781251122	1	1267	499	499	1267	1267	1267	114750000	performance	665	26	26	24	26	24	22	100	25
1593893133593342822 	0	1267	499	499	1267	1267	1235	114750000	performance	665	26	26	24	26	24	22	100	25
1593893135830245208	1	1267	499	499	1267	1267	1267	114750000	performance	665	26	26	24	26	24	22	100	25
1593893136553915764 	0	1267	499	499	1266	1266	1267	114750000	performance	665	26	26	25	26	24	22	100	25
1593893138850037257	1	1267	499	499	1267	1267	1267	114750000	performance	665	26	26	24	26	24	22	100	25
1593893139744547928 	0	1268	499	499	1229	1238	1267	114750000	performance	665	26	26	24	26	24	22	100	25
1593893142347555711	1	1267	499	499	1267	1267	1267	114750000	performance	665	26	26	24	26	24	22	100	25
1593893143092842236 	0	1267	499	499	1267	1267	1267	114750000	performance	665	26	26	24	26	24	22	100	25
1593893145411140749	1	1267	499	499	1267	1267	1267	114750000	performance	665	26	26	24	26	24	22	100	25
1593893145953192596 	0	1266	499	499	1267	1266	1267	114750000	performance	665	26	26	25	26	24	22	100	25
1593893148260360352	1	1267	499	499	1267	1267	1267	114750000	performance	665	26	26	25	26	24	22	100	25
1593893148990282933 	0	1266	499	499	1267	1267	1267	114750000	performance	665	26	26	24	26	24	22	100	25
1593893151408973455	1	1267	499	499	1267	1267	1267	114750000	performance	665	26	26	24	26	24	22	100	25
1593893152071065172 	0	1267	499	498	1245	1267	1267	114750000	performance	665	26	26	24	26	24	22	100	25
1593893154577197067	1	1267	499	499	1267	1267	1267	114750000	performance	665	26	26	24	26	24	22	100	25
1593893155293549648 	0	1268	498	499	1267	1267	1240	114750000	performance	665	26	26	24	26	24	22	100	25
1593893157703652765	1	1267	499	499	1267	1267	1267	114750000	performance	665	26	26	25	26	24	22	100	25
1593893158388343453 	0	1267	499	499	1266	1268	1266	114750000	performance	665	26	26	24	26	24	22	100	25
1593893160425289984	1	1267	499	499	1267	1267	1267	114750000	performance	665	26	26	24	26	24	22	100	25
1593893160962455460 	0	1266	499	499	1266	1240	1241	114750000	performance	665	26	26	24	26	24	22	100	25
1593893163148759155	1	1267	499	499	1267	1267	1267	114750000	performance	665	26	26	25	26	24	22	100	25
1593893163877398701 	0	1267	499	499	1267	1193	1266	114750000	performance	665	26	26	24	26	24	22	100	25
1593893166340629752	1	1267	499	499	1267	1267	1267	114750000	performance	665	26	26	24	26	24	22	100	25
1593893167069051283 	0	1200	498	499	1268	1266	1267	114750000	performance	665	26	26	25	26	24	22	100	25
1593893169722652252	1	1267	499	499	1267	1267	1267	114750000	performance	665	26	26	24	26	24	22	100	25
1593893170604567567 	0	1267	499	499	1192	1231	1268	114750000	performance	665	26	26	24	26	24	22	100	25
1593893173354226498	1	1267	499	499	1267	1267	1267	114750000	performance	665	26	26	24	26	24	22	100	25
1593893174016329956 	0	1268	499	499	1267	1266	1266	114750000	performance	665	26	26	24	26	24	22	100	25
1593893176604062353	1	1267	499	499	1267	1267	1267	114750000	performance	665	26	26	24	26	24	22	100	25
1593893177103699856 	0	1267	499	499	1267	1237	1266	114750000	performance	665	26	26	24	26	24	22	100	25
1593893179589529520	1	1267	499	499	1267	1267	1267	114750000	performance	665	26	26	24	26	24	22	100	25
1593893180329101447 	0	1231	499	499	1267	1268	1267	114750000	performance	665	26	26	24	26	24	22	100	25
1593893182662821413	1	1267	499	499	1267	1267	1267	114750000	performance	665	26	26	25	26	24	22	100	25
1593893183543626874 	0	1231	499	499	1232	1233	1268	114750000	performance	665	26	26	25	26	24	22	100	25
1593893185885982437	1	1267	499	499	1267	1267	1267	114750000	performance	665	26	26	24	26	24	22	100	25
1593893186569335431 	0	1244	499	499	1267	1267	1267	114750000	performance	665	26	26	24	26	24	22	100	25
1593893189179605222	1	1267	499	499	1267	1267	1267	114750000	performance	665	26	26	24	26	24	22	100	25
1593893189861519121 	0	1265	498	499	1236	1266	1268	114750000	performance	665	26	26	24	26	24	22	100	25
1593893192082832517	1	1267	499	499	1267	1267	1267	114750000	performance	665	26	26	25	26	24	22	100	25
1593893192960440910 	0	1268	499	498	1268	1266	1230	114750000	performance	665	26	26	24	26	24	22	100	25
1593893195274637407	1	1267	499	499	1267	1267	1267	114750000	performance	665	26	26	25	26	24	22	100	25
1593893195902092778 	0	1267	498	499	1268	1266	1233	114750000	performance	665	26	26	25	26	24	22	100	25
1593893198025866199	1	1267	499	499	1267	1267	1267	114750000	performance	665	26	26	25	26	24	22	100	25
1593893198605273852 	0	1267	499	499	1267	1268	1267	114750000	performance	665	26	26	25	26	24	22	100	25
1593893201123185778	1	1267	499	499	1267	1267	1267	114750000	performance	665	26	26	25	26	24	22	100	25
1593893201554820767 	0	1267	499	499	1266	1267	1267	114750000	performance	665	26	26	25	26	24	22	100	25
1593893204294739575	1	1267	499	499	1267	1267	1267	114750000	performance	665	26	26	24	26	24	22	100	25
1593893205010717398 	0	1268	499	499	1194	1267	1267	114750000	performance	665	26	26	24	26	24	22	100	25
1593893207448961378	1	1267	499	499	1267	1267	1267	114750000	performance	665	26	26	24	26	24	22	100	25
1593893208273785855 	0	1266	499	499	1266	1266	1233	114750000	performance	665	26	26	24	26	24	22	100	25
1593893210658151081	1	1267	499	499	1267	1267	1267	114750000	performance	665	26	26	24	26	24	22	100	25
1593893211318482640 	0	1236	499	499	1232	1267	1268	114750000	performance	665	26	26	24	26	24	22	100	25
1593893213523691164	1	1267	499	499	1267	1267	1267	114750000	performance	665	26	26	24	26	24	22	100	25
1593893214195570846 	0	1268	499	499	1267	1267	1266	114750000	performance	665	26	26	24	26	24	22	100	25
1593893216628542848	1	1267	499	499	1267	1267	1267	114750000	performance	665	26	26	24	26	24	22	100	25
1593893217391031274 	0	1266	499	498	1265	1267	1269	114750000	performance	665	26	26	24	26	24	22	100	25
1593893220077859506	1	1267	499	499	1267	1267	1267	114750000	performance	665	26	26	24	26	24	22	100	25
1593893220572279242 	0	1266	499	499	1265	1267	1267	114750000	performance	665	26	26	24	26	24	22	100	25
1593893222895696723	1	1267	499	499	1267	1267	1267	114750000	performance	665	26	26	25	26	24	22	100	25
1593893223654576402 	0	1230	499	499	1268	1267	1267	114750000	performance	665	26	26	24	26	24	22	100	25
1593893225796829385	1	1267	499	499	1267	1267	1267	114750000	performance	665	26	26	24	26	24	22	100	25
1593893226674751433 	0	1266	499	499	1269	1230	1269	114750000	performance	665	26	26	24	26	24	22	100	25
1593893229160561012	1	1267	499	499	1267	1267	1267	114750000	performance	665	26	26	24	26	24	22	100	25
1593893229660157646 	0	1266	499	499	1267	1268	1267	114750000	performance	665	26	26	24	26	24	22	100	25
1593893232204232864	1	1267	499	499	1267	1267	1267	114750000	performance	665	26	26	24	26	24	22	100	25
1593893232923633000 	0	1267	499	498	1266	1232	1267	114750000	performance	665	26	26	24	26	24	22	100	25
1593893235367288354	1	1267	499	499	1267	1267	1267	114750000	performance	665	26	26	24	26	24	22	100	25
1593893236137818618 	0	1268	499	498	1267	1266	1267	114750000	performance	665	26	26	24	26	24	22	100	25
1593893238613436791	1	1267	499	499	1267	1267	1267	114750000	performance	665	26	26	24	26	24	22	100	25
1593893239454388526 	0	1267	499	499	1268	1265	1192	114750000	performance	665	26	26	25	26	24	22	100	25
1593893241801429155	1	1267	499	499	1267	1267	1267	114750000	performance	665	26	26	24	26	24	22	100	25
1593893242639096014 	0	1267	499	498	1266	1267	1230	114750000	performance	665	26	26	24	26	24	22	100	25
1593893245235110340	1	1267	499	499	1267	1267	1267	114750000	performance	665	26	26	24	26	24	22	100	25
1593893246114623064 	0	1230	499	499	1267	1266	1266	114750000	performance	665	26	26	24	26	24	22	100	25
1593893248649879988	1	1267	499	499	1267	1267	1267	114750000	performance	665	26	26	24	26	24	22	100	25
1593893249245141015 	0	1266	499	499	1266	1234	1267	114750000	performance	665	26	26	24	26	24	22	100	25
1593893251462401643	1	1267	499	499	1267	1267	1267	114750000	performance	665	26	26	24	26	24	22	100	25
1593893252462841170 	0	1268	499	499	1267	1229	1266	114750000	performance	665	26	26	24	26	24	22	100	25
1593893254851052811	1	1267	499	499	1267	1267	1267	114750000	performance	665	26	26	24	26	24	22	100	25
1593893255866594263 	0	1267	499	499	1267	1266	1268	114750000	performance	665	26	26	24	26	24	22	100	25
1593893258353314953	1	1267	499	499	1267	1267	1267	114750000	performance	665	26	26	24	26	24	22	100	25
1593893259094465612 	0	1267	498	499	1268	1268	1266	114750000	performance	665	26	26	24	26	24	22	100	25
1593893261655722149	1	1267	499	499	1267	1267	1267	114750000	performance	665	26	26	25	26	24	22	100	25
1593893262324818130 	0	1266	499	498	1228	1265	1267	114750000	performance	665	26	26	24	26	24	22	100	25
1593893264857202358	1	1267	499	499	1267	1267	1267	114750000	performance	665	26	26	24	26	24	22	100	25
1593893265824520319 	0	1266	499	499	1267	1267	1229	114750000	performance	665	26	26	24	26	24	22	100	25
1593893268228076445	1	1267	499	499	1267	1267	1267	114750000	performance	665	26	26	24	26	24	22	100	25
1593893269091765931 	0	1231	499	499	1266	1265	1231	114750000	performance	665	26	26	24	26	24	22	100	25
1593893271718538337	1	1267	499	499	1267	1267	1267	114750000	performance	665	26	26	24	26	24	22	100	25
1593893272394540259 	0	1231	499	499	1267	1230	1266	114750000	performance	665	26	26	25	26	24	22	100	25
1593893274819436826	1	1267	499	499	1267	1267	1267	114750000	performance	665	26	26	24	26	24	22	100	25
1593893275454530189 	0	1267	499	499	1267	1267	1267	114750000	performance	665	26	26	24	26	24	22	100	25
1593893278131264914	1	1267	499	499	1267	1267	1267	114750000	performance	665	26	26	24	26	23	22	100	25
1593893279100224366 	0	1267	499	499	1267	1266	1237	114750000	performance	665	26	26	24	26	24	22	100	25
1593893281466558623	1	1267	499	499	1267	1267	1267	114750000	performance	665	26	26	24	26	23	22	100	25
1593893282041080792 	0	1230	498	499	1268	1266	1266	114750000	performance	665	26	26	24	26	24	22	100	25
1593893284485814554	1	1267	499	499	1267	1267	1267	114750000	performance	665	26	26	24	26	23	22	100	25
1593893285305820071 	0	1236	499	499	1242	1267	1266	114750000	performance	665	26	26	24	26	23	22	100	25
1593893287175866544	1	1267	499	499	1267	1267	1267	114750000	performance	665	26	26	24	26	23	22	100	25
1593893287966346060 	0	1267	499	499	1267	1267	1267	114750000	performance	665	26	26	24	26	24	22	100	25
1593893290496027863	1	1267	499	499	1267	1267	1267	114750000	performance	665	26	26	24	26	24	22	100	25
1593893291277723974 	0	1265	498	498	1231	1229	1267	114750000	performance	665	26	26	24	26	24	22	100	25
1593893293622393557	1	1267	499	499	1267	1267	1267	114750000	performance	665	26	26	24	26	24	22	100	25
1593893294229307245 	0	1240	498	498	1266	1243	1266	114750000	performance	665	26	26	24	26	24	22	100	25
1593893296643057692	1	1267	499	499	1267	1267	1267	114750000	performance	665	26	26	24	26	24	22	100	25
1593893297407457776 	0	1240	498	499	1266	1267	1266	114750000	performance	665	26	26	24	26	24	22	100	25
1593893299988428577	1	1267	499	499	1267	1267	1267	114750000	performance	665	26	26	24	26	24	22	100	25
1593893300631107781 	0	1267	499	499	1268	1239	1229	114750000	performance	665	26	26	24	26	24	22	100	25
1593893302855564853	1	1267	499	499	1267	1267	1267	114750000	performance	665	26	26	24	26	24	22	100	25
1593893303490962948 	0	1267	499	499	1239	1229	1266	114750000	performance	665	26	26	24	26	24	22	100	25
1593893305973290334	1	1267	499	499	1267	1267	1267	114750000	performance	665	26	26	24	26	23	22	100	25
1593893306823288118 	0	1267	499	499	1266	1267	1266	114750000	performance	665	26	26	25	26	24	22	100	25
1593893308983291140	1	1267	499	499	1267	1267	1267	114750000	performance	665	26	26	25	26	23	22	100	25
1593893309773977820 	0	1266	499	499	1268	1265	1191	114750000	performance	665	26	26	24	26	23	22	100	25
1593893312372757988	1	1267	499	499	1267	1267	1267	114750000	performance	665	26	26	24	26	23	22	100	25
1593893313142764854 	0	1267	499	499	1266	1229	1230	114750000	performance	665	26	26	24	26	24	22	100	25
1593893315523820197	1	1267	499	499	1267	1267	1267	114750000	performance	665	26	26	24	26	23	22	100	25
1593893316516846540 	0	1267	499	499	1268	1267	1267	114750000	performance	665	26	26	24	26	23	22	100	25
1593893318824524839	1	1267	499	499	1267	1267	1267	114750000	performance	665	26	26	24	26	23	22	100	25
1593893319772704278 	0	1268	499	499	1267	1267	1267	114750000	performance	665	26	26	24	26	23	22	100	25
1593893322174674851	1	1267	499	499	1267	1267	1267	114750000	performance	665	26	26	24	26	23	22	100	25
1593893322817738946 	0	1268	499	499	1267	1267	1268	114750000	performance	665	26	26	24	26	23	22	100	25
1593893325217024222	1	1267	499	499	1267	1267	1267	114750000	performance	665	26	26	24	26	23	22	100	25
1593893325660960953 	0	1267	499	499	1266	1267	1266	114750000	performance	665	26	26	24	26	23	22	100	25
1593893328069096929	1	1267	499	499	1267	1267	1267	114750000	performance	665	26	26	24	26	23	22	100	25
1593893328616137240 	0	1267	499	499	1269	1267	1267	114750000	performance	665	26	26	24	26	23	22	100	25
1593893331239500486	1	1267	499	499	1267	1267	1267	114750000	performance	665	26	26	24	26	23	22	100	25
1593893332076634983 	0	1265	499	499	1268	1230	1231	114750000	performance	665	26	26	24	26	23	22	100	25
1593893334816817664	1	1267	499	499	1267	1267	1267	114750000	performance	665	26	26	24	26	23	22	100	25
1593893335401601400 	0	1268	499	499	1267	1267	1267	114750000	performance	665	26	26	24	26	23	22	100	25
1593893338156444698	1	1267	499	499	1267	1267	1267	114750000	performance	665	26	26	24	26	23	22	100	25
1593893338940697010 	0	1267	499	499	1266	1244	1267	114750000	performance	665	26	26	24	26	23	22	100	25
1593893341079072912	1	1267	499	499	1267	1267	1267	114750000	performance	665	26	26	24	26	23	22	100	25
1593893341945303298 	0	1231	499	499	1267	1267	1268	114750000	performance	665	26	26	24	26	23	22	100	25
1593893344326205026	1	1267	499	499	1267	1267	1267	114750000	performance	665	26	26	24	26	23	22	100	25
1593893345198370097 	0	1266	499	499	1268	1267	1267	114750000	performance	665	26	26	24	26	23	22	100	25
1593893347625250913	1	1267	499	499	1267	1267	1267	114750000	performance	665	26	26	24	26	23	22	100	25
1593893348630792025 	0	1266	499	499	1266	1232	1241	114750000	performance	665	26	26	24	26	23	22	100	25
1593893350676434749	1	1267	499	499	1267	1267	1267	114750000	performance	665	26	26	24	26	23	22	100	25
1593893351379300951 	0	1267	499	499	1267	1268	1248	114750000	performance	665	26	26	25	26	23	22	100	25
1593893353777753839	1	1267	499	499	1267	1267	1267	114750000	performance	665	26	26	24	26	23	22	100	25
1593893354479827022 	0	1266	499	499	1266	1266	1245	114750000	performance	665	26	26	24	26	23	22	100	25
1593893357011003572	1	1267	499	499	1267	1267	1267	114750000	performance	665	26	26	24	26	23	22	100	25
1593893357774593830 	0	1266	499	499	1266	1237	1268	114750000	performance	665	26	26	24	26	23	22	100	25
1593893360288940592	1	1267	499	499	1267	1267	1267	114750000	performance	665	26	26	24	26	23	22	100	25
1593893360989621239 	0	1266	499	498	1267	1267	1267	114750000	performance	665	26	26	24	26	23	22	100	25
1593893363314991547	1	1267	499	499	1267	1267	1267	114750000	performance	665	26	26	24	26	23	22	100	25
1593893363905400750 	0	1266	499	499	1231	1267	1267	114750000	performance	665	26	26	24	26	23	22	100	25
1593893366210471367	1	1267	499	499	1267	1267	1267	114750000	performance	665	26	26	24	26	23	22	100	25
1593893366807936272 	0	1268	499	499	1266	1265	1266	114750000	performance	665	26	26	24	26	23	22	100	25
1593893369425606795	1	1267	499	499	1267	1267	1267	114750000	performance	665	26	26	24	26	23	22	100	25
1593893370131566064 	0	1269	499	498	1267	1232	1267	114750000	performance	665	26	26	25	26	23	22	100	25
1593893372521019189	1	1267	499	499	1267	1267	1267	114750000	performance	665	26	26	24	26	23	22	100	25
1593893373254251033 	0	1230	499	499	1267	1246	1267	114750000	performance	665	26	26	24	26	23	22	100	25
1593893375716559213	1	1267	499	499	1267	1267	1267	114750000	performance	665	26	26	24	26	23	22	100	25
1593893376280219071 	0	1266	499	498	1266	1267	1267	114750000	performance	665	26	26	24	26	23	22	100	25
1593893378790599542	1	1267	499	499	1267	1267	1267	114750000	performance	665	26	26	24	26	23	22	100	25
1593893379541375474 	0	1266	499	499	1266	1232	1266	114750000	performance	665	26	26	24	26	23	22	100	25
1593893382135891862	1	1267	499	499	1267	1267	1267	114750000	performance	665	26	26	24	26	23	22	100	25
1593893382924996590 	0	1266	499	499	1266	1266	1267	114750000	performance	665	26	26	24	26	23	22	100	25
1593893385505242344	1	1267	499	499	1267	1267	1267	114750000	performance	665	26	26	24	26	23	22	100	25
1593893386276555081 	0	1267	499	499	1267	1266	1267	114750000	performance	665	26	26	24	26	23	22	100	25
1593893388771878388	1	1267	499	499	1267	1267	1267	114750000	performance	665	26	26	24	26	23	22	100	25
1593893389427886751 	0	1268	499	499	1230	1229	1229	114750000	performance	665	26	26	24	26	23	22	100	25
1593893391782895719	1	1267	499	499	1267	1267	1267	114750000	performance	665	26	26	24	26	23	22	100	25
1593893392862149826 	0	1232	499	499	1266	1233	1267	114750000	performance	665	26	26	25	26	23	22	100	25
1593893395374405318	1	1267	499	499	1267	1267	1267	114750000	performance	665	26	26	24	26	23	22	100	25
1593893396149793836 	0	1266	498	499	1267	1268	1268	114750000	performance	665	26	26	24	26	23	22	100	25
1593893398161844456	1	1267	499	499	1267	1267	1267	114750000	performance	665	26	26	24	26	23	22	100	25
1593893398955840000 	0	1267	498	499	1267	1267	1267	114750000	performance	665	26	26	24	26	23	22	100	25
1593893401298010708	1	1267	499	499	1267	1267	1267	114750000	performance	665	26	26	24	26	23	22	100	25
1593893401941354218 	0	1193	499	499	1267	1266	1267	114750000	performance	665	26	26	24	26	23	22	100	25
1593893404348713148	1	1267	499	499	1267	1267	1267	114750000	performance	665	26	26	24	26	23	22	100	25
1593893404792161461 	0	1239	499	498	1267	1266	1266	114750000	performance	665	26	26	24	26	23	22	100	25
1593893407234311608	1	1267	499	499	1267	1267	1267	114750000	performance	665	26	26	24	26	23	22	100	25
1593893407685544578 	0	1269	499	499	1266	1267	1268	114750000	performance	665	26	26	24	26	23	22	100	25
1593893409775904557	1	1267	499	499	1267	1267	1267	114750000	performance	665	26	26	24	26	23	22	100	25
1593893410406261488 	0	1232	499	499	1267	1266	1268	114750000	performance	665	26	26	24	26	23	22	100	25
1593893413096420692	1	1267	499	499	1267	1267	1267	114750000	performance	665	26	26	25	26	23	22	100	25
1593893413881024739 	0	1266	499	499	1268	1196	1267	114750000	performance	665	26	26	24	26	23	22	100	25
1593893416573595407	1	1267	499	499	1267	1267	1267	114750000	performance	665	26	26	24	26	23	22	100	25
1593893417406892187 	0	1267	499	499	1266	1267	1231	114750000	performance	665	26	26	24	26	23	22	100	25
1593893419609811362	1	1267	499	499	1267	1267	1267	114750000	performance	665	26	26	24	26	23	22	100	25
1593893420561294607 	0	1233	499	499	1231	1267	1267	114750000	performance	665	26	26	24	26	23	22	100	25
1593893423012457428	1	1267	499	499	1267	1267	1267	114750000	performance	665	26	26	24	26	23	22	100	25
1593893423587238783 	0	1267	499	499	1266	1266	1236	114750000	performance	665	26	26	24	26	23	22	100	25
1593893425896055441	1	1267	499	499	1267	1267	1267	114750000	performance	665	26	26	24	26	23	22	100	25
1593893426738262600 	0	1266	499	499	1268	1266	1238	114750000	performance	665	26	26	24	26	23	22	100	25
1593893429181255901	1	1267	499	499	1267	1267	1267	114750000	performance	665	26	26	24	26	23	22	100	25
1593893429855089052 	0	1236	499	499	1267	1267	1267	114750000	performance	665	26	26	25	26	23	22	100	25
1593893432412959271	1	1267	499	499	1267	1267	1267	114750000	performance	665	26	26	24	26	23	22	100	25
1593893433002794488 	0	1230	499	499	1267	1266	1241	114750000	performance	665	26	26	24	26	23	22	100	25
1593893435714560273	1	1267	499	499	1267	1267	1267	114750000	performance	665	26	26	24	26	23	22	100	25
1593893436732355989 	0	1266	499	499	1267	1267	1267	114750000	performance	665	26	26	24	26	23	22	100	25
1593893439192544868	1	1267	499	499	1267	1267	1267	114750000	performance	665	26	26	24	26	23	22	100	25
1593893440102640552 	0	1267	499	499	1266	1267	1267	114750000	performance	665	26	26	24	26	23	22	100	25
1593893442568181557	1	1267	499	499	1267	1267	1267	114750000	performance	665	26	26	24	26	23	22	100	25
1593893443372169420 	0	1266	499	499	1266	1265	1234	114750000	performance	665	26	26	24	26	23	22	100	25
1593893445864336084	1	1267	499	499	1267	1267	1267	114750000	performance	665	26	26	24	26	23	22	100	25
1593893446840183886 	0	1265	498	499	1230	1265	1266	114750000	performance	665	26	26	24	26	23	22	100	25
1593893448970484508	1	1267	499	499	1267	1267	1267	114750000	performance	665	26	26	24	26	23	22	100	25
1593893449690062984 	0	1267	499	499	1268	1267	1267	114750000	performance	665	26	26	24	26	23	22	100	25
1593893452104490462	1	1267	499	499	1267	1267	1267	114750000	performance	665	26	26	25	26	23	22	100	25
1593893452644766355 	0	1266	499	499	1229	1268	1267	114750000	performance	665	26	26	24	26	23	22	100	25
1593893455011867618	1	1267	499	499	1267	1267	1267	114750000	performance	665	26	26	25	26	23	22	100	25
1593893455733337892 	0	1234	499	499	1245	1267	1267	114750000	performance	665	26	26	24	26	23	22	100	25
1593893457915881595	1	1267	499	499	1267	1267	1267	114750000	performance	665	26	26	24	26	23	22	100	25
1593893458748318729 	0	1266	498	499	1266	1267	1267	114750000	performance	665	26	26	25	26	23	22	100	25
1593893461423167443	1	1267	499	499	1267	1267	1267	114750000	performance	665	26	26	25	26	23	22	100	25
1593893462259094348 	0	1266	499	498	1267	1234	1268	114750000	performance	665	26	26	24	26	23	22	100	25
1593893464689927905	1	1267	499	499	1267	1267	1267	114750000	performance	665	26	26	24	26	23	22	100	25
1593893465392661905 	0	1267	499	499	1269	1267	1266	114750000	performance	665	26	26	24	26	23	22	100	25
1593893467615615001	1	1267	499	499	1267	1267	1267	114750000	performance	665	26	26	25	26	23	22	100	25
1593893468365378610 	0	1267	499	499	1267	1267	1266	114750000	performance	665	26	26	24	26	23	22	100	25
1593893470932296765	1	1267	499	499	1267	1267	1267	114750000	performance	665	26	26	24	26	23	22	100	25
1593893471680420989 	0	1266	498	499	1268	1234	1235	114750000	performance	665	26	26	24	26	23	22	100	25
1593893474211213622	1	1267	499	499	1267	1267	1267	114750000	performance	665	26	26	24	26	23	22	100	25
1593893474953451481 	0	1267	498	499	1271	1267	1268	114750000	performance	665	26	26	24	26	23	22	100	25
1593893477417658366	1	1267	499	499	1267	1267	1267	114750000	performance	665	26	26	24	26	23	22	100	25
1593893478152487053 	0	1230	498	499	1267	1266	1266	114750000	performance	665	26	26	24	26	23	22	100	25
1593893480886669293	1	1267	499	499	1267	1267	1267	114750000	performance	665	26	26	24	26	23	22	100	25
1593893481736052627 	0	1267	499	499	1268	1267	1230	114750000	performance	665	26	26	24	26	23	22	100	25
1593893484068849509	1	1267	499	499	1267	1267	1267	114750000	performance	665	26	26	24	26	23	22	100	25
1593893484766938286 	0	1267	498	499	1267	1266	1230	114750000	performance	665	26	26	25	26	23	22	100	25
1593893486866219309	1	1267	499	499	1267	1267	1267	114750000	performance	665	26	26	24	26	23	22	100	25
1593893487359450424 	0	1266	499	498	1229	1267	1267	114750000	performance	665	26	26	24	26	23	22	100	25
1593893489700900951	1	1267	499	499	1267	1267	1267	114750000	performance	665	26	26	24	26	23	22	100	25
1593893490441640163 	0	1266	499	498	1266	1266	1239	114750000	performance	665	26	26	25	26	23	22	100	25
1593893492801461620	1	1267	499	499	1267	1267	1267	114750000	performance	665	26	26	24	26	23	22	100	25
1593893493721535830 	0	1231	499	499	1268	1266	1244	114750000	performance	665	26	26	24	26	23	22	100	25
1593893496370484368	1	1267	499	499	1267	1267	1267	114750000	performance	665	26	26	24	26	23	22	100	25
1593893497112811603 	0	1265	499	499	1267	1267	1266	114750000	performance	665	26	26	24	26	23	22	100	25
1593893499656200321	1	1267	499	499	1267	1267	1267	114750000	performance	665	26	26	24	26	23	22	100	25
1593893500371745410 	0	1267	499	499	1238	1267	1266	114750000	performance	665	26	26	24	26	23	22	100	25
1593893502684862409	1	1267	499	499	1267	1267	1267	114750000	performance	665	26	26	24	26	23	22	100	25
1593893503378224590 	0	1267	498	499	1191	1234	1265	114750000	performance	665	26	26	24	26	23	22	100	25
1593893505521143617	1	1267	499	499	1267	1267	1267	114750000	performance	665	26	26	24	26	23	22	100	25
1593893506309067281 	0	1267	499	499	1268	1231	1267	114750000	performance	665	26	26	24	26	23	22	100	25
1593893508768737992	1	1267	499	499	1267	1267	1267	114750000	performance	665	26	26	24	26	23	22	100	25
1593893509234938770 	0	1231	499	499	1268	1228	1267	114750000	performance	665	26	26	24	26	23	22	100	25
1593893511732029770	1	1267	499	499	1267	1267	1267	114750000	performance	665	26	26	24	26	23	22	100	25
1593893512401522203 	0	1267	499	499	1267	1266	1265	114750000	performance	665	26	26	24	26	23	22	100	25
1593893514548677749	1	1267	499	499	1267	1267	1267	114750000	performance	665	26	26	24	26	23	22	100	25
1593893515284476379 	0	1242	498	499	1268	1266	1268	114750000	performance	665	26	26	24	26	23	22	100	25
1593893517605366636	1	1267	499	499	1267	1267	1267	114750000	performance	665	26	26	24	26	23	22	100	25
1593893518165320456 	0	1267	499	499	1267	1267	1267	114750000	performance	665	26	26	24	26	23	22	100	25
1593893520374298514	1	1267	499	499	1267	1267	1267	114750000	performance	665	26	26	24	26	23	22	100	25
1593893521007400508 	0	1230	499	499	1266	1228	1264	114750000	performance	665	26	26	24	26	23	22	100	25
1593893523410344228	1	1267	499	499	1267	1267	1267	114750000	performance	665	26	26	24	26	23	22	100	25
1593893524326130364 	0	1230	498	499	1231	1228	1267	114750000	performance	665	26	26	24	26	23	22	100	25
1593893526872772557	1	1267	499	499	1267	1267	1267	114750000	performance	665	26	26	24	26	23	22	100	25
1593893527533937871 	0	1267	499	499	1266	1230	1266	114750000	performance	665	26	26	24	26	23	22	100	25
1593893529852211727	1	1267	499	499	1267	1267	1267	114750000	performance	665	26	26	24	26	23	22	100	25
1593893530508911436 	0	1231	499	499	1265	1265	1230	114750000	performance	665	26	26	24	26	23	22	100	25
1593893533013112346	1	1267	499	499	1267	1267	1267	114750000	performance	665	26	26	24	26	23	22	100	25
1593893533688878022 	0	1267	499	499	1230	1267	1266	114750000	performance	665	26	26	24	26	23	22	100	25
1593893536341942173	1	1267	499	499	1267	1267	1267	114750000	performance	665	26	26	24	26	23	22	100	25
1593893537059878475 	0	1232	499	499	1267	1267	1192	114750000	performance	665	26	26	24	26	23	22	100	25
1593893539723625753	1	1267	499	499	1267	1267	1267	114750000	performance	665	26	26	24	26	23	22	100	25
1593893540386949836 	0	1267	499	499	1234	1229	1267	114750000	performance	665	26	26	24	26	23	22	100	25
1593893542904655904	1	1267	499	499	1267	1267	1267	114750000	performance	665	26	26	24	26	23	22	100	25
1593893543643932495 	0	1243	499	499	1269	1267	1267	114750000	performance	665	26	26	24	26	23	22	100	25
1593893546030793774	1	1267	499	499	1267	1267	1267	114750000	performance	665	26	26	24	26	23	22	100	25
1593893546836655537 	0	1269	498	499	1267	1267	1267	114750000	performance	665	26	26	24	26	23	22	100	25
1593893549112432165	1	1267	499	499	1267	1267	1267	114750000	performance	665	26	26	24	26	23	22	100	25
1593893549957729885 	0	1242	499	499	1267	1266	1267	114750000	performance	665	26	26	24	26	23	22	100	25
1593893552276498097	1	1267	499	499	1267	1267	1267	114750000	performance	665	26	26	24	26	23	22	100	25
1593893553040918379 	0	1267	499	499	1242	1267	1266	114750000	performance	665	26	26	24	26	23	22	100	25
1593893555503077353	1	1267	499	499	1267	1267	1267	114750000	performance	665	26	26	24	26	23	22	100	25
1593893556320063594 	0	1244	499	499	1268	1267	1267	114750000	performance	665	26	26	24	26	23	22	100	25
1593893558777812387	1	1267	499	499	1267	1267	1267	114750000	performance	665	26	26	24	26	23	22	100	25
1593893559693587447 	0	1267	499	499	1267	1266	1266	114750000	performance	665	26	26	24	26	23	22	100	25
1593893561949914847	1	1267	499	499	1267	1267	1267	114750000	performance	665	26	26	24	26	23	22	100	25
1593893562673753578 	0	1228	499	499	1267	1266	1267	114750000	performance	665	26	26	24	26	23	22	100	25
1593893565167028591	1	1267	499	499	1267	1267	1267	114750000	performance	665	26	26	24	26	23	22	100	25
1593893565686259644 	0	1267	499	499	1265	1267	1267	114750000	performance	665	26	26	24	26	23	22	100	25
1593893568101726513	1	1267	499	499	1267	1267	1267	114750000	performance	665	26	26	24	26	23	22	100	25
1593893569030841750 	0	1231	499	499	1267	1266	1267	114750000	performance	665	26	26	24	26	23	22	100	25
1593893571486827641	1	1267	499	499	1267	1267	1267	114750000	performance	665	26	26	24	26	23	22	100	25
1593893572147769274 	0	1266	499	499	1228	1266	1267	114750000	performance	665	26	26	24	26	23	22	100	25
1593893574534896431	1	1267	499	499	1267	1267	1267	114750000	performance	665	26	26	24	26	23	22	100	25
1593893575019716263 	0	1267	499	499	1267	1267	1267	114750000	performance	665	26	26	24	26	23	22	100	25
1593893577649546741	1	1267	499	499	1267	1267	1267	114750000	performance	665	26	26	24	26	23	22	100	25
1593893578321943248 	0	1266	499	499	1267	1267	1267	114750000	performance	665	26	26	24	26	23	22	100	25
1593893580879700364	1	1267	499	499	1267	1267	1267	114750000	performance	665	26	26	24	26	23	22	100	25
1593893581939061958 	0	1229	499	499	1268	1268	1237	114750000	performance	665	26	26	24	26	23	22	100	25
1593893584668837825	1	1267	499	499	1267	1267	1267	114750000	performance	665	26	26	24	26	23	22	100	25
1593893585289953069 	0	1231	499	499	1267	1268	1229	114750000	performance	665	26	26	24	26	23	22	100	25
1593893587942078487	1	1267	499	499	1267	1267	1267	114750000	performance	665	26	26	24	26	23	22	100	25
1593893588934687550 	0	1266	499	499	1246	1267	1268	114750000	performance	665	26	26	24	26	23	22	100	25
1593893590873234627	1	1267	499	499	1267	1267	1267	114750000	performance	665	26	26	24	26	23	22	100	25
1593893591133639732 	0	1266	498	499	1268	1229	1229	114750000	performance	665	26	26	24	26	23	22	100	25
