timestamp	VIRTUAL_SCALING	CPU0_F	CPU1_F	CPU2_F	CPU3_F	CPU4_F	CPU5_F	GPU_FREQ	CPU_GOVERNOR	EMC_F	TEMP0	TEMP1	TEMP2	TEMP3	TEMP4	TEMP5	TEMP6	TEMP7
1593985884641249516	1	1420	1881	1881	1420	1420	1420	114750000	performance	1866	28	28	26	28	25	24	100	27
1593985884724525230 	0	1141	1233	1403	1232	1421	1131	114750000	performance	1866	28	28	26	28	25	24	100	27
1593985886353261499	1	1420	1881	1881	1420	1420	1420	114750000	performance	1866	29	29	26	29	25	24	100	27
1593985886498075009 	0	1419	1739	1880	1421	1420	1420	114750000	performance	1866	29	29	26	29	25	24	100	27
1593985888139709689	1	1420	1881	1881	1420	1420	1420	114750000	performance	1866	29	29	26	29	25	24	100	28
1593985888225654922 	0	1420	1850	1570	1420	1421	1420	114750000	performance	1866	29	29	26	29	25	24	100	28
1593985889881255443	1	1420	1881	1881	1420	1420	1420	114750000	performance	1866	29	29	27	29	25	24	100	28
1593985889988969186 	0	1420	1847	1810	1421	1420	1420	114750000	performance	1866	29	29	27	29	25	24	100	28
1593985891616125095	1	1420	1881	1881	1420	1420	1420	114750000	performance	1866	29	29	27	29	25	24	100	28
1593985891727758956 	0	1420	1807	1806	1421	1420	1421	114750000	performance	1866	29	29	27	29	25	24	100	28
1593985893357236862	1	1420	1881	1881	1420	1420	1420	114750000	performance	1866	29	29	27	29	25	24	100	28
1593985893446887973 	0	1421	1881	1804	1419	1419	1420	114750000	performance	1866	29	29	27	29	25	24	100	28
1593985895052277195	1	1420	1881	1881	1420	1420	1420	114750000	performance	1866	29	29	27	29	25	24	100	28
1593985895148218454 	0	1448	1522	1808	1416	1420	1419	114750000	performance	1866	29	29	27	29	25	24	100	28
1593985896756032555	1	1420	1881	1881	1420	1420	1420	114750000	performance	1866	29	29	27	29	25	24	100	28
1593985896837253376 	0	1421	1881	1881	1420	1420	1420	114750000	performance	1866	29	29	27	29	25	24	100	28
1593985898430420320	1	1420	1881	1881	1420	1420	1420	114750000	performance	1866	29	29	27	29	25	24	100	28
1593985898533501140 	0	1420	1767	1420	1420	1272	1421	114750000	performance	1866	29	29	27	29	25	24	100	28
1593985900160128726	1	1420	1881	1881	1420	1420	1420	114750000	performance	1866	29	29	27	29	25	24	100	28
1593985900276955162 	0	1420	1535	1882	1420	1420	1420	114750000	performance	1866	29	29	27	29	25	24	100	28
1593985901892015736	1	1420	1881	1881	1420	1420	1420	114750000	performance	1866	29	29	27	29	25	24	100	28
1593985901995922449 	0	1193	1806	1854	1421	1419	1421	114750000	performance	1866	29	29	27	29	25	24	100	28
1593985903644916212	1	1420	1881	1881	1420	1420	1420	114750000	performance	1866	29	29	27	29	25	24	100	28
1593985903758079106 	0	1421	1746	1852	1421	1421	1421	114750000	performance	1866	29	29	27	29	25	24	100	28
1593985905363187655	1	1420	1881	1881	1420	1420	1420	114750000	performance	1866	29	29	27	29	25	24	100	28
1593985905469645679 	0	1420	1881	1881	1420	1421	1420	114750000	performance	1866	29	29	27	29	25	24	100	28
1593985907125596794	1	1420	1881	1881	1420	1420	1420	114750000	performance	1866	29	29	27	29	25	24	100	28
1593985907228351308 	0	1420	1881	1710	1382	1141	1198	114750000	performance	1866	29	29	27	29	25	25	100	28
1593985908865426282	1	1420	1881	1881	1420	1420	1420	114750000	performance	1866	29	29	27	29	25	25	100	28
1593985908994562965 	0	1420	1848	1881	1260	1143	1419	114750000	performance	1866	29	29	27	29	25	24	100	28
1593985910641562316	1	1420	1881	1881	1420	1420	1420	114750000	performance	1866	29	29	27	29	25	24	100	28
1593985910740307431 	0	1420	1882	1807	1420	1420	1421	114750000	performance	1866	29	29	27	29	25	24	100	28
1593985912367156426	1	1420	1881	1881	1420	1420	1420	114750000	performance	1866	29	29	27	29	25	24	100	28
1593985912480392409 	0	1343	1804	1881	1420	1419	1420	114750000	performance	1866	29	29	27	29	25	24	100	28
1593985914099903313	1	1420	1881	1881	1420	1420	1420	114750000	performance	1866	29	29	27	29	25	25	100	28
1593985914196957123 	0	1421	1881	1881	1399	1420	1419	114750000	performance	1866	29	29	27	29	25	25	100	28
1593985915822176956	1	1420	1881	1881	1420	1420	1420	114750000	performance	1866	29	29	27	29	25	25	100	28
1593985915940461512 	0	1421	1570	1455	1420	1420	1420	114750000	performance	1866	29	29	27	29	25	24	100	28
1593985917575015095	1	1420	1881	1881	1420	1420	1420	114750000	performance	1866	29	29	27	29	25	25	100	28
1593985917697864670 	0	1188	1882	1231	1420	1420	1420	114750000	performance	1866	29	29	27	29	25	25	100	28
1593985919327994643	1	1420	1881	1881	1420	1420	1420	114750000	performance	1866	29	29	26	29	25	24	100	28
1593985919448705582 	0	1421	1881	1849	1421	1280	1420	114750000	performance	1866	29	29	27	29	25	24	100	28
1593985921093887130	1	1420	1881	1881	1420	1420	1420	114750000	performance	1866	29	29	27	29	25	25	100	28
1593985921209719160 	0	1421	1809	1880	1419	1418	1412	114750000	performance	1866	29	29	27	29	25	25	100	28
1593985922822768139	1	1420	1881	1881	1420	1420	1420	114750000	performance	1866	29	29	27	29	25	24	100	28
1593985922954899239 	0	1420	1881	1535	1421	1420	1421	114750000	performance	1866	29	29	27	29	25	25	100	28
1593985924577079887	1	1420	1881	1881	1420	1420	1420	114750000	performance	1866	29	29	27	29	25	25	100	28
1593985924686880586 	0	1419	1881	1717	1421	1420	1419	114750000	performance	1866	29	29	27	29	25	24	100	28
1593985926323017955	1	1420	1881	1881	1420	1420	1420	114750000	performance	1866	29	29	27	29	25	24	100	28
1593985926422530306 	0	1420	1881	1882	1419	1420	1421	114750000	performance	1866	29	29	27	29	25	24	100	28
1593985928043753508	1	1420	1881	1881	1420	1420	1420	114750000	performance	1866	29	29	27	29	25	24	100	28
1593985928166288585 	0	1420	1881	1781	1231	1419	1421	114750000	performance	1866	29	29	27	29	25	25	100	28
1593985929822318900	1	1420	1881	1881	1420	1420	1420	114750000	performance	1866	29	29	27	29	25	25	100	28
1593985929941737607 	0	1343	1805	1805	1420	1420	1421	114750000	performance	1866	29	29	27	29	25	24	100	28
1593985931549186522	1	1420	1881	1881	1420	1420	1420	114750000	performance	1866	29	29	27	29	25	25	100	28
1593985931661689188 	0	1419	1809	1854	1421	1420	1420	114750000	performance	1866	29	29	27	29	25	24	100	28
1593985933329548180	1	1420	1881	1881	1420	1420	1420	114750000	performance	1866	29	29	27	29	25	25	100	28
1593985933447119004 	0	1420	1804	1811	1421	1420	1420	114750000	performance	1866	29	29	27	29	25	24	100	28
1593985935075133094	1	1420	1881	1881	1420	1420	1420	114750000	performance	1866	29	29	27	29	25	24	100	28
1593985935200527451 	0	1420	1852	1882	1421	1420	1422	114750000	performance	1866	29	29	27	29	25	25	100	28
1593985936851126471	1	1420	1881	1881	1420	1420	1420	114750000	performance	1866	29	29	27	29	25	25	100	28
1593985936961187684 	0	1421	1880	1476	1420	1146	1420	114750000	performance	1866	29	29	27	29	25	25	100	28
1593985938613951164	1	1420	1881	1881	1420	1420	1420	114750000	performance	1866	29	29	27	29	25	25	100	28
1593985938707802363 	0	1420	1894	1881	1420	1421	1380	114750000	performance	1866	29	29	27	29	25	25	100	28
1593985940331295082	1	1420	1881	1881	1420	1420	1420	114750000	performance	1866	29	29	27	29	25	25	100	28
1593985940446730566 	0	1420	1802	1881	1420	1420	1420	114750000	performance	1866	29	29	27	29	25	24	100	28
1593985942081687415	1	1420	1881	1881	1420	1420	1420	114750000	performance	1866	29	29	27	29	25	25	100	28
1593985942182916801 	0	1420	1417	1704	1419	1343	1420	114750000	performance	1866	29	29	27	29	25	24	100	28
1593985943816727628	1	1420	1881	1881	1420	1420	1420	114750000	performance	1866	29	29	27	29	25	25	100	28
1593985943904270438 	0	1383	1806	1881	1345	1420	1419	114750000	performance	1866	29	29	27	29	25	25	100	28
1593985945500096213	1	1420	1881	1881	1420	1420	1420	114750000	performance	1866	29	29	27	29	25	25	100	28
1593985945612075389 	0	1419	1881	1563	1418	1421	1420	114750000	performance	1866	29	29	27	29	25	25	100	28
1593985947214420658	1	1420	1881	1881	1420	1420	1420	114750000	performance	1866	29	29	27	29	25	25	100	28
1593985947321508157 	0	1420	1812	1734	1344	1420	1420	114750000	performance	1866	29	29	27	29	25	25	100	28
1593985948931645279	1	1420	1881	1881	1420	1420	1420	114750000	performance	1866	29	29	27	29	25	25	100	28
1593985949065490982 	0	1421	1882	1882	1420	1421	1419	114750000	performance	1866	29	29	27	29	25	25	100	28
1593985950699107087	1	1420	1881	1881	1420	1420	1420	114750000	performance	1866	29	29	27	29	25	25	100	28
1593985950804911411 	0	1419	1420	1805	1419	1423	1339	114750000	performance	1866	29	29	27	29	25	25	100	28
1593985952433958915	1	1420	1881	1881	1420	1420	1420	114750000	performance	1866	29	29	27	29	25	24	100	28
1593985952562230825 	0	1420	1421	1811	1419	1420	1421	114750000	performance	1866	29	29	27	29	25	24	100	28
1593985954193063618	1	1420	1881	1881	1420	1420	1420	114750000	performance	1866	29	29	27	29	25	24	100	28
1593985954254133348 	0	1420	1880	1881	1421	1419	1420	114750000	performance	1866	29	29	27	29	25	24	100	28
1593985955885585313	1	1420	1881	1881	1420	1420	1420	114750000	performance	1866	29	29	27	29	25	25	100	28
1593985956015982899 	0	1420	1881	1561	1419	1420	1420	114750000	performance	1866	29	29	27	29	25	25	100	28
1593985957659185012	1	1420	1881	1881	1420	1420	1420	114750000	performance	1866	29	29	27	29	25	25	100	28
1593985957764490134 	0	1419	1807	1881	1368	1420	1421	114750000	performance	1866	29	29	27	29	25	25	100	28
1593985959407387317	1	1420	1881	1881	1420	1420	1420	114750000	performance	1866	29	29	27	29	25	25	100	28
1593985959501636118 	0	1421	1808	1881	1343	1380	1420	114750000	performance	1866	29	29	27	29	25	25	100	28
1593985961080867429	1	1420	1881	1881	1420	1420	1420	114750000	performance	1866	29	29	27	29	25	25	100	28
1593985961180187268 	0	1420	1882	1810	1421	1420	1420	114750000	performance	1866	29	29	27	29	25	25	100	28
1593985962772133533	1	1420	1881	1881	1420	1420	1420	114750000	performance	1866	29	29	27	29	25	25	100	28
1593985962884016484 	0	1420	1910	1556	1420	1420	1321	114750000	performance	1866	29	29	27	29	25	25	100	28
1593985964518670707	1	1420	1881	1881	1420	1420	1420	114750000	performance	1866	29	29	27	29	25	25	100	28
1593985964601300401 	0	1421	1806	1856	1420	1421	1420	114750000	performance	1866	29	29	27	29	25	25	100	28
1593985966256269463	1	1420	1881	1881	1420	1420	1420	114750000	performance	1866	29	29	27	29	25	25	100	28
1593985966364460745 	0	1420	1681	1771	1419	1420	1421	114750000	performance	1866	29	29	27	29	25	25	100	28
1593985967993030037	1	1420	1881	1881	1420	1420	1420	114750000	performance	1866	29	29	27	29	25	25	100	28
1593985968088873792 	0	1421	1881	1798	1421	1419	1420	114750000	performance	1866	29	29	27	29	25	25	100	28
1593985969726292479	1	1420	1881	1881	1420	1420	1420	114750000	performance	1866	29	29	27	29	25	25	100	28
1593985969821965577 	0	1366	1808	1880	1421	1420	1420	114750000	performance	1866	29	29	27	29	25	25	100	28
1593985971460091021	1	1420	1881	1881	1420	1420	1420	114750000	performance	1866	29	29	27	29	25	25	100	28
1593985971577836726 	0	1421	1881	1882	1420	1421	1420	114750000	performance	1866	29	29	27	30	25	25	100	28
1593985973214603314	1	1420	1881	1881	1420	1420	1420	114750000	performance	1866	29	29	27	29	25	24	100	28
1593985973348001173 	0	1419	1851	1850	1419	1421	1420	114750000	performance	1866	29	29	27	29	25	25	100	28
1593985974998102782	1	1420	1881	1881	1420	1420	1420	114750000	performance	1866	29	29	27	29	25	25	100	28
1593985975084630451 	0	1420	1310	1566	1271	1420	1420	114750000	performance	1866	29	29	27	29	25	25	100	28
1593985976705588947	1	1420	1881	1881	1420	1420	1420	114750000	performance	1866	29	29	27	29	25	25	100	28
1593985976824675460 	0	1422	1881	1881	1419	1421	1420	114750000	performance	1866	29	29	27	29	25	25	100	28
1593985978452875951	1	1420	1881	1881	1420	1420	1420	114750000	performance	1866	29	29	27	29	25	25	100	28
1593985978546981455 	0	1420	1805	1880	1420	1419	1420	114750000	performance	1866	29	29	27	29	25	25	100	28
1593985980171094274	1	1420	1881	1881	1420	1420	1420	114750000	performance	1866	29	29	27	29	25	25	100	28
1593985980269260218 	0	1420	1881	1803	1421	1419	1420	114750000	performance	1866	29	29	27	29	25	25	100	28
1593985981884752571	1	1420	1881	1881	1420	1420	1420	114750000	performance	1866	29	29	27	29	25	25	100	28
1593985981983957048 	0	1420	1850	1850	1420	1420	1419	114750000	performance	1866	29	29	27	29	25	25	100	28
1593985983607898922	1	1420	1881	1881	1420	1420	1420	114750000	performance	1866	29	29	27	29	25	25	100	28
1593985983695761478 	0	1421	1493	1856	1421	1420	1420	114750000	performance	1866	29	29	27	29	25	25	100	28
1593985985331605597	1	1420	1881	1881	1420	1420	1420	114750000	performance	1866	29	29	27	29	25	25	100	28
1593985985432007874 	0	1420	1862	1770	1421	1419	1420	114750000	performance	1866	29	29	27	29	25	25	100	28
1593985987056196341	1	1420	1881	1881	1420	1420	1420	114750000	performance	1866	29	29	27	29	25	25	100	28
1593985987145165720 	0	1242	1802	1904	1420	1420	1232	114750000	performance	1866	29	29	27	29	25	25	100	28
1593985988784912837	1	1420	1881	1881	1420	1420	1420	114750000	performance	1866	29	29	27	29	25	25	100	28
1593985988890267846 	0	1421	1880	1804	1420	1419	1420	114750000	performance	1866	29	29	27	29	25	25	100	28
1593985990518756914	1	1420	1881	1881	1420	1420	1420	114750000	performance	1866	29	29	27	29	25	25	100	28
1593985990628485293 	0	1420	1880	1804	1421	1419	1419	114750000	performance	1866	29	29	27	29	25	25	100	28
1593985992222534802	1	1420	1881	1881	1420	1420	1420	114750000	performance	1866	29	29	27	29	25	25	100	28
1593985992313631937 	0	1372	1807	1880	1476	1270	1420	114750000	performance	1866	29	29	27	29	25	25	100	28
1593985993938471608	1	1420	1881	1881	1420	1420	1420	114750000	performance	1866	29	29	27	29	25	25	100	28
1593985994032836346 	0	1269	1875	1881	1264	1420	1419	114750000	performance	1866	29	29	27	29	25	25	100	28
1593985995664798842	1	1420	1881	1881	1420	1420	1420	114750000	performance	1866	29	29	27	29	25	25	100	28
1593985995772148679 	0	1420	1880	1881	1421	1419	1408	114750000	performance	1866	29	29	27	29	25	25	100	28
1593985997418417370	1	1420	1881	1881	1420	1420	1420	114750000	performance	1866	29	29	27	29	25	25	100	28
1593985997504760141 	0	1420	1511	1705	1421	1419	1421	114750000	performance	1866	29	29	27	29	25	25	100	28
1593985999150279868	1	1420	1881	1881	1420	1420	1420	114750000	performance	1866	29	29	27	29	25	25	100	28
1593985999276354997 	0	1139	1882	1809	1420	1419	1420	114750000	performance	1866	29	29	27	29	25	25	100	28
1593986000934539725	1	1420	1881	1881	1420	1420	1420	114750000	performance	1866	29	29	27	29	25	25	100	28
1593986001028856815 	0	1421	1880	1881	1424	1267	1420	114750000	performance	1866	29	29	27	29	25	25	100	28
1593986002667292532	1	1420	1881	1881	1420	1420	1420	114750000	performance	1866	29	29	27	29	25	25	100	28
1593986002781085351 	0	1421	1567	1806	1420	1420	1420	114750000	performance	1866	29	29	27	29	25	25	100	28
1593986004421294838	1	1420	1881	1881	1420	1420	1420	114750000	performance	1866	29	29	27	29	25	25	100	28
1593986004518499881 	0	1419	1661	1850	1421	1420	1420	114750000	performance	1866	29	29	27	29	25	25	100	28
1593986006122268294	1	1420	1881	1881	1420	1420	1420	114750000	performance	1866	29	29	27	29	25	25	100	28
1593986006234862353 	0	1420	1807	1879	1420	1420	1420	114750000	performance	1866	29	29	27	29	25	25	100	28
1593986007884325495	1	1420	1881	1881	1420	1420	1420	114750000	performance	1866	29	29	27	29	25	25	100	28
1593986007973761372 	0	1420	1853	1857	1420	1421	1421	114750000	performance	1866	29	29	27	29	25	25	100	28
1593986009652832493	1	1420	1881	1881	1420	1420	1420	114750000	performance	1866	29	29	27	29	25	25	100	28
1593986009750987844 	0	1420	1762	1706	1420	1422	1421	114750000	performance	1866	29	29	27	29	25	25	100	28
1593986011376409151	1	1420	1881	1881	1420	1420	1420	114750000	performance	1866	29	29	27	29	25	25	100	28
1593986011492006779 	0	1385	1369	1811	1420	1420	1420	114750000	performance	1866	29	29	27	29	25	25	100	28
1593986013114328836	1	1420	1881	1881	1420	1420	1420	114750000	performance	1866	29	29	27	29	25	25	100	28
1593986013206410104 	0	1421	1880	1880	1421	1421	1419	114750000	performance	1866	29	29	27	29	25	25	100	28
1593986014841444458	1	1420	1881	1881	1420	1420	1420	114750000	performance	1866	29	29	27	29	25	25	100	28
1593986014938372251 	0	1420	1881	1882	1419	1420	1420	114750000	performance	1866	29	29	27	29	25	25	100	28
1593986016562071724	1	1420	1881	1881	1420	1420	1420	114750000	performance	1866	29	29	27	29	25	25	100	28
1593986016646891606 	0	1420	1850	1853	1420	1419	1343	114750000	performance	1866	29	29	27	29	25	25	100	28
1593986018308063775	1	1420	1881	1881	1420	1420	1420	114750000	performance	1866	29	29	27	29	25	25	100	28
1593986018437085674 	0	1419	1852	1853	1420	1421	1420	114750000	performance	1866	29	29	27	29	25	25	100	28
1593986020118529064	1	1420	1881	1881	1420	1420	1420	114750000	performance	1866	29	29	27	29	25	25	100	28
1593986020166676127 	0	1420	1881	1805	1422	1420	1420	114750000	performance	1866	29	29	27	29	25	25	100	28
1593986021816877672	1	1420	1881	1881	1420	1420	1420	114750000	performance	1866	29	29	27	29	25	25	100	28
1593986021930244440 	0	1421	1803	1880	1420	1419	1420	114750000	performance	1866	29	29	27	29	25	25	100	28
1593986023571640975	1	1420	1881	1881	1420	1420	1420	114750000	performance	1866	29	29	27	29	25	25	100	28
1593986023703004679 	0	1419	1807	1804	1419	1420	1420	114750000	performance	1866	29	29	27	29	25	25	100	28
1593986025364969364	1	1420	1881	1881	1420	1420	1420	114750000	performance	1866	29	29	27	29	25	25	100	28
1593986025491692209 	0	1421	1806	1882	1419	1419	1420	114750000	performance	1866	29	29	27	29	25	25	100	28
1593986027131164605	1	1420	1881	1881	1420	1420	1420	114750000	performance	1866	29	29	27	29	25	25	100	28
1593986027239483664 	0	1421	1540	1806	1420	1420	1420	114750000	performance	1866	29	29	27	29	25	25	100	28
1593986028859767020	1	1420	1881	1881	1420	1420	1420	114750000	performance	1866	29	29	27	29	25	25	100	28
1593986028994842426 	0	1420	1803	1881	1420	1421	1420	114750000	performance	1866	29	29	27	29	25	25	100	28
1593986030617670789	1	1420	1881	1881	1420	1420	1420	114750000	performance	1866	29	29	27	29	25	25	100	28
1593986030741589522 	0	1345	1881	1806	1420	1345	1420	114750000	performance	1866	29	29	27	29	25	25	100	28
1593986032400371661	1	1420	1881	1881	1420	1420	1420	114750000	performance	1866	29	29	27	29	25	25	100	28
1593986032537168644 	0	1420	1855	1881	1420	1420	1420	114750000	performance	1866	29	29	27	29	25	25	100	28
1593986034151053500	1	1420	1881	1881	1420	1420	1420	114750000	performance	1866	29	29	27	29	25	25	100	28
1593986034265387985 	0	1161	1804	1881	1421	1420	1419	114750000	performance	1866	29	29	27	29	25	25	100	28
1593986035883610274	1	1420	1881	1881	1420	1420	1420	114750000	performance	1866	29	29	27	29	25	25	100	28
1593986036002381233 	0	1421	1805	1881	1421	1420	1420	114750000	performance	1866	29	29	27	29	25	25	100	28
1593986037665125539	1	1420	1881	1881	1420	1420	1420	114750000	performance	1866	29	29	27	30	25	25	100	28
1593986037800533619 	0	1420	1808	1880	1420	1419	1419	114750000	performance	1866	29	29	27	29	25	25	100	28
1593986039418928196	1	1420	1881	1881	1420	1420	1420	114750000	performance	1866	29	29	27	29	25	25	100	28
1593986039544873757 	0	1420	1855	1853	1421	1420	1420	114750000	performance	1866	29	29	27	29	25	25	100	28
1593986041165660092	1	1420	1881	1881	1420	1420	1420	114750000	performance	1866	29	29	27	29	25	25	100	28
1593986041242601497 	0	1421	1805	1810	1420	1420	1419	114750000	performance	1866	29	29	27	29	25	25	100	28
1593986042884017328	1	1420	1881	1881	1420	1420	1420	114750000	performance	1866	29	29	27	29	25	25	100	28
1593986043008264895 	0	1420	1804	1804	1420	1420	1420	114750000	performance	1866	29	29	27	29	25	25	100	28
1593986044631459884	1	1420	1881	1881	1420	1420	1420	114750000	performance	1866	29	29	27	29	25	25	100	28
1593986044718748901 	0	1272	1540	1808	1420	1419	1420	114750000	performance	1866	29	29	27	29	25	25	100	28
1593986046337790203	1	1420	1881	1881	1420	1420	1420	114750000	performance	1866	29	29	27	29	25	25	100	28
1593986046452605267 	0	1421	1881	1881	1420	1420	1421	114750000	performance	1866	29	29	27	29	25	25	100	28
1593986048085756666	1	1420	1881	1881	1420	1420	1420	114750000	performance	1866	29	29	27	29	25	25	100	28
1593986048181511620 	0	1421	1315	1880	1419	1421	1420	114750000	performance	1866	29	29	27	29	25	25	100	28
1593986049771429393	1	1420	1881	1881	1420	1420	1420	114750000	performance	1866	29	29	27	29	25	25	100	28
1593986049888448854 	0	1420	1805	1805	1420	1421	1419	114750000	performance	1866	29	29	27	29	25	25	100	28
1593986051531520086	1	1420	1881	1881	1420	1420	1420	114750000	performance	1866	29	29	27	29	25	25	100	28
1593986051646097037 	0	1421	1556	1318	1422	1380	1421	114750000	performance	1866	29	29	27	29	25	25	100	28
1593986053270858084	1	1420	1881	1881	1420	1420	1420	114750000	performance	1866	29	29	27	29	25	25	100	28
1593986053384987160 	0	1420	1881	1808	1420	1420	1420	114750000	performance	1866	29	29	27	29	25	25	100	28
1593986055016474101	1	1420	1881	1881	1420	1420	1420	114750000	performance	1866	29	29	27	29	25	25	100	28
1593986055163734889 	0	1419	1280	1809	1420	1420	1420	114750000	performance	1866	29	29	27	29	25	25	100	28
1593986056809567353	1	1420	1881	1881	1420	1420	1420	114750000	performance	1866	29	29	27	29	25	25	100	28
1593986056937389597 	0	1420	1880	1804	1421	1421	1420	114750000	performance	1866	29	29	27	29	25	25	100	28
1593986058590900090	1	1420	1881	1881	1420	1420	1420	114750000	performance	1866	29	29	27	29	25	25	100	28
1593986058674809087 	0	1420	1568	1361	1420	1420	1421	114750000	performance	1866	29	29	27	29	25	25	100	28
1593986060313082756	1	1420	1881	1881	1420	1420	1420	114750000	performance	1866	29	29	27	29	25	25	100	28
1593986060405820092 	0	1420	1854	1854	1421	1343	1462	114750000	performance	1866	29	29	27	29	25	25	100	28
1593986062027461953	1	1420	1881	1881	1420	1420	1420	114750000	performance	1866	29	29	27	29	25	25	100	28
1593986062116546244 	0	1420	1849	1855	1420	1421	1419	114750000	performance	1866	29	29	27	29	25	25	100	28
1593986063757124278	1	1420	1881	1881	1420	1420	1420	114750000	performance	1866	29	29	27	29	25	25	100	28
1593986063868312537 	0	1421	1880	1850	1420	1419	1420	114750000	performance	1866	29	29	27	29	25	25	100	28
1593986065508646890	1	1420	1881	1881	1420	1420	1420	114750000	performance	1866	29	29	27	29	25	25	100	28
1593986065586058986 	0	1421	1881	1812	1419	1421	1420	114750000	performance	1866	29	29	27	29	25	25	100	28
1593986067191131758	1	1420	1881	1881	1420	1420	1420	114750000	performance	1866	29	29	27	29	25	25	100	28
1593986067313679411 	0	1420	1882	1810	1421	1421	1421	114750000	performance	1866	29	29	27	29	25	25	100	28
1593986068969789983	1	1420	1881	1881	1420	1420	1420	114750000	performance	1866	29	29	27	29	25	25	100	28
1593986069074203771 	0	1420	1880	1808	1419	1421	1421	114750000	performance	1866	29	29	27	29	25	25	100	28
1593986070685720325	1	1420	1881	1881	1420	1420	1420	114750000	performance	1866	29	29	27	29	25	25	100	28
1593986070815567508 	0	1420	1808	1810	1420	1420	1421	114750000	performance	1866	29	29	27	29	25	25	100	28
1593986072435580047	1	1420	1881	1881	1420	1420	1420	114750000	performance	1866	29	29	27	29	25	25	100	28
1593986072553735930 	0	1421	1882	1857	1421	1420	1420	114750000	performance	1866	29	29	27	29	25	25	100	28
1593986074183654223	1	1420	1881	1881	1420	1420	1420	114750000	performance	1866	29	29	27	29	25	25	100	28
1593986074289234418 	0	1421	1450	1574	1420	1345	1420	114750000	performance	1866	29	29	27	29	25	25	100	28
1593986075900987069	1	1420	1881	1881	1420	1420	1420	114750000	performance	1866	29	29	27	29	25	25	100	28
1593986075989372380 	0	1419	1881	1880	1421	1420	1420	114750000	performance	1866	29	29	27	29	25	25	100	28
1593986077607049450	1	1420	1881	1881	1420	1420	1420	114750000	performance	1866	29	29	27	29	25	25	100	28
1593986077729942705 	0	1419	1803	1881	1420	1421	1421	114750000	performance	1866	29	29	27	29	25	25	100	28
1593986079337732965	1	1420	1881	1881	1420	1420	1420	114750000	performance	1866	29	29	27	29	25	25	100	28
1593986079404304646 	0	1420	1855	1882	1421	1420	1420	114750000	performance	1866	29	29	27	29	25	25	100	28
1593986081044775031	1	1420	1881	1881	1420	1420	1420	114750000	performance	1866	29	29	27	29	25	25	100	28
1593986081165136496 	0	1421	1882	1880	1346	1420	1420	114750000	performance	1866	29	29	27	29	25	25	100	28
1593986082797713139	1	1420	1881	1881	1420	1420	1420	114750000	performance	1866	29	29	27	29	25	24	100	28
1593986082902615346 	0	1421	1880	1853	1151	1421	1419	114750000	performance	1866	29	29	27	29	25	24	100	28
1593986084538301704	1	1420	1881	1881	1420	1420	1420	114750000	performance	1866	29	29	27	29	25	25	100	28
1593986084631635812 	0	1420	1881	1813	1421	1420	1419	114750000	performance	1866	29	29	27	29	25	25	100	28
1593986086225612616	1	1420	1881	1881	1420	1420	1420	114750000	performance	1866	29	29	27	29	25	25	100	28
1593986086304594097 	0	1420	1881	1881	1419	1420	1421	114750000	performance	1866	29	29	27	29	25	25	100	28
1593986087941146764	1	1420	1881	1881	1420	1420	1420	114750000	performance	1866	29	29	27	29	25	25	100	28
1593986088051034536 	0	1153	1882	1801	1421	1420	1421	114750000	performance	1866	29	29	27	29	25	25	100	28
1593986089681626144	1	1420	1881	1881	1420	1420	1420	114750000	performance	1866	29	29	27	29	25	25	100	28
1593986089783071659 	0	1421	1882	1881	1419	1421	1420	114750000	performance	1866	29	29	27	29	25	25	100	28
1593986091434785021	1	1420	1881	1881	1420	1420	1420	114750000	performance	1866	29	29	27	29	25	25	100	28
1593986091532087184 	0	1267	1806	1506	1421	1420	1420	114750000	performance	1866	29	29	27	29	25	25	100	28
1593986093150119711	1	1420	1881	1881	1420	1420	1420	114750000	performance	1866	29	29	27	29	25	25	100	28
1593986093261747813 	0	1421	1433	1806	1420	1421	1421	114750000	performance	1866	29	29	27	29	25	25	100	28
1593986094885331541	1	1420	1881	1881	1420	1420	1420	114750000	performance	1866	29	29	27	29	25	25	100	28
1593986094980959678 	0	1420	1821	1806	1420	1420	1419	114750000	performance	1866	29	29	27	29	25	25	100	28
1593986096595777339	1	1420	1881	1881	1420	1420	1420	114750000	performance	1866	29	29	27	29	25	25	100	28
1593986096712980033 	0	1142	1613	1804	1422	1352	1344	114750000	performance	1866	29	29	27	29	25	25	100	28
1593986098376194582	1	1420	1881	1881	1420	1420	1420	114750000	performance	1866	29	29	27	29	25	25	100	28
1593986098484770282 	0	1420	1853	1882	1420	1349	1421	114750000	performance	1866	29	29	27	29	25	25	100	28
1593986100138225255	1	1420	1881	1881	1420	1420	1420	114750000	performance	1866	29	29	27	29	25	25	100	28
1593986100237778758 	0	1421	1232	1898	1421	1420	1420	114750000	performance	1866	29	29	27	29	25	25	100	28
