TimeStamp,A7 Voltage(V),A7 Current(A),A7 Power(W),A15 Voltage(V),A15 Current(A),A15 Power(W),GPU Power(W)
1606676481819235076,1.000000,0.305000,0.316000,1.100000,2.906000,3.240000,0.064000
1606676482429320886,0.900000,0.141000,0.127000,0.900000,1.194000,1.093000,0.064000
1606676483018270274,0.900000,0.141000,0.127000,0.900000,1.193000,1.092000,0.064000
1606676483600693600,1.000000,0.298000,0.312000,0.900000,1.055000,0.966000,0.064000
1606676484167606200,1.000000,0.298000,0.312000,0.900000,1.049000,0.959000,0.065000
1606676485325933890,1.000000,0.299000,0.313000,0.900000,0.941000,0.861000,0.065000
1606676486469284948,0.900000,0.029000,0.026000,0.900000,1.018000,0.931000,0.065000
1606676487590226011,0.900000,0.025000,0.022000,0.900000,0.986000,0.902000,0.064000
1606676488242469168,0.900000,0.066000,0.059000,0.900000,0.973000,0.892000,0.064000
1606676488905850060,0.900000,0.125000,0.113000,1.000000,2.003000,2.045000,0.065000
1606676489623291016,0.900000,0.117000,0.106000,1.000000,2.015000,2.057000,0.066000
1606676490299259048,0.900000,0.117000,0.106000,0.900000,0.265000,0.241000,0.066000
1606676490963801890,0.900000,0.112000,0.101000,0.900000,0.351000,0.318000,0.065000
1606676491647284858,0.900000,0.112000,0.101000,0.900000,0.225000,0.204000,0.065000
1606676492322162265,0.900000,0.112000,0.101000,0.900000,0.588000,0.529000,0.065000
1606676492975924344,0.900000,0.114000,0.103000,0.900000,0.761000,0.685000,0.064000
1606676493635295762,0.900000,0.114000,0.103000,0.900000,0.716000,0.645000,0.064000
1606676494291124519,0.900000,0.112000,0.101000,0.900000,0.938000,0.858000,0.064000
1606676494984920499,0.900000,0.112000,0.101000,0.900000,0.939000,0.859000,0.065000
1606676495678644921,0.900000,0.111000,0.100000,0.900000,1.042000,0.954000,0.064000
1606676496371379634,0.900000,0.068000,0.061000,0.900000,1.088000,0.996000,0.065000
1606676497133424011,0.900000,0.067000,0.060000,0.900000,0.938000,0.858000,0.065000
1606676497788516492,0.900000,0.114000,0.103000,0.900000,1.185000,1.113000,0.065000
1606676498450697394,0.900000,0.112000,0.101000,0.900000,1.086000,1.020000,0.065000
1606676499094079384,0.900000,0.113000,0.102000,0.900000,1.202000,1.131000,0.065000
1606676499683157629,0.900000,0.189000,0.182000,0.900000,1.780000,1.771000,0.065000
1606676500266929105,0.900000,0.213000,0.208000,0.900000,1.793000,1.784000,0.065000
1606676500932499505,0.900000,0.213000,0.208000,0.900000,1.797000,1.788000,0.066000
1606676501565027992,0.900000,0.144000,0.136000,0.900000,1.302000,1.226000,0.066000
1606676502205645001,0.900000,0.140000,0.132000,0.900000,1.091000,1.026000,0.066000
1606676502893463095,0.900000,0.139000,0.131000,0.900000,1.126000,1.059000,0.066000
1606676503489088412,0.900000,0.187000,0.181000,0.900000,1.556000,1.517000,0.066000
1606676504071659131,0.900000,0.213000,0.208000,0.900000,1.798000,1.789000,0.066000
1606676504721719545,0.900000,0.213000,0.208000,0.900000,1.790000,1.777000,0.067000
1606676505362374794,0.900000,0.189000,0.181000,0.900000,1.400000,1.355000,0.067000
1606676505984603516,0.900000,0.141000,0.133000,0.900000,1.247000,1.205000,0.066000
1606676506571942103,0.900000,0.139000,0.131000,0.900000,1.246000,1.203000,0.066000
1606676507152165808,1.000000,0.250000,0.254000,0.900000,1.394000,1.327000,0.066000
1606676507735531498,1.000000,0.251000,0.255000,0.900000,1.091000,1.026000,0.067000
1606676508362799028,1.000000,0.221000,0.221000,0.900000,1.089000,1.024000,0.066000
1606676508994190845,0.900000,0.164000,0.154000,0.900000,1.581000,1.530000,0.067000
1606676509649462765,0.900000,0.151000,0.142000,0.900000,1.586000,1.535000,0.066000
1606676510276826021,0.900000,0.139000,0.131000,0.900000,1.572000,1.521000,0.067000
1606676510915833442,0.900000,0.157000,0.148000,0.900000,1.799000,1.790000,0.066000
1606676511526100761,0.900000,0.152000,0.143000,0.900000,1.794000,1.785000,0.067000
1606676512112002795,0.900000,0.200000,0.195000,0.900000,1.798000,1.789000,0.068000
1606676512698049371,0.900000,0.213000,0.208000,0.900000,1.785000,1.776000,0.068000
1606676513281978033,0.900000,0.213000,0.208000,0.900000,1.795000,1.786000,0.068000
1606676513866811064,0.900000,0.213000,0.208000,0.900000,1.583000,1.532000,0.068000
1606676514449646894,0.900000,0.213000,0.208000,0.900000,1.580000,1.529000,0.068000
1606676515077610379,0.900000,0.213000,0.208000,0.900000,1.592000,1.541000,0.068000
1606676515715805199,0.900000,0.151000,0.142000,0.900000,1.801000,1.791000,0.068000
1606676516342759206,0.900000,0.169000,0.159000,0.900000,1.794000,1.785000,0.068000
1606676516929530952,0.900000,0.160000,0.152000,0.900000,1.802000,1.792000,0.068000
1606676517515552365,0.900000,0.213000,0.208000,0.900000,1.595000,1.543000,0.068000
1606676518133073556,0.900000,0.214000,0.209000,0.900000,1.575000,1.524000,0.068000
1606676518759532586,0.900000,0.193000,0.187000,0.900000,1.593000,1.542000,0.068000
1606676519397024672,0.900000,0.140000,0.132000,0.900000,1.803000,1.793000,0.068000
1606676520067347765,0.900000,0.152000,0.143000,0.900000,1.796000,1.787000,0.068000
1606676520708885551,0.900000,0.160000,0.151000,0.900000,1.791000,1.782000,0.068000
1606676521341776976,0.900000,0.140000,0.132000,0.900000,1.594000,1.542000,0.068000
1606676521977192367,0.900000,0.143000,0.135000,0.900000,1.594000,1.542000,0.068000
1606676522591890198,0.900000,0.177000,0.173000,0.900000,1.795000,1.786000,0.068000
1606676523208904552,0.900000,0.169000,0.165000,0.900000,1.804000,1.794000,0.068000
1606676523829522522,0.900000,0.170000,0.166000,0.900000,1.804000,1.794000,0.068000
1606676524440678368,0.900000,0.180000,0.176000,0.900000,1.593000,1.542000,0.068000
1606676525054292001,0.900000,0.182000,0.178000,0.900000,1.589000,1.538000,0.068000
1606676525678031258,0.900000,0.169000,0.165000,0.900000,1.594000,1.542000,0.068000
1606676526292781514,0.900000,0.169000,0.165000,0.900000,1.805000,1.795000,0.068000
1606676526929620965,0.900000,0.185000,0.181000,0.900000,1.801000,1.791000,0.068000
1606676527513242392,0.900000,0.200000,0.196000,0.900000,1.799000,1.790000,0.068000
1606676528100223866,0.900000,0.213000,0.208000,0.900000,1.804000,1.794000,0.069000
1606676528728105854,0.900000,0.214000,0.209000,0.900000,1.803000,1.793000,0.069000
1606676529351210814,0.900000,0.185000,0.181000,0.900000,1.802000,1.792000,0.069000
1606676529971243662,0.900000,0.170000,0.166000,0.900000,1.803000,1.793000,0.069000
1606676530551256665,0.900000,0.170000,0.166000,0.900000,1.804000,1.794000,0.069000
1606676531138728311,0.900000,0.213000,0.208000,0.900000,1.806000,1.796000,0.069000
1606676531724672505,0.900000,0.213000,0.208000,0.900000,1.773000,1.764000,0.069000
1606676532341198636,0.900000,0.200000,0.196000,0.900000,1.805000,1.795000,0.069000
1606676532946966887,0.900000,0.169000,0.165000,0.900000,1.792000,1.783000,0.069000
1606676533579592636,0.900000,0.201000,0.197000,0.900000,1.796000,1.787000,0.069000
1606676534199191232,0.900000,0.180000,0.176000,0.900000,1.804000,1.794000,0.069000
1606676534815215165,0.900000,0.170000,0.166000,0.900000,1.806000,1.796000,0.069000
1606676535405791815,0.900000,0.213000,0.208000,0.900000,1.792000,1.783000,0.069000
1606676535988738454,0.900000,0.213000,0.208000,0.900000,1.786000,1.777000,0.069000
1606676536576372503,0.900000,0.214000,0.209000,0.900000,1.807000,1.797000,0.069000
1606676537179045627,0.900000,0.213000,0.208000,0.900000,1.801000,1.791000,0.069000
1606676537795663219,0.900000,0.171000,0.167000,0.900000,1.782000,1.773000,0.069000
1606676538408919847,0.900000,0.184000,0.180000,0.900000,1.800000,1.791000,0.069000
1606676539033631555,0.900000,0.186000,0.182000,0.900000,1.802000,1.792000,0.069000
1606676539649101015,0.900000,0.170000,0.166000,0.900000,1.806000,1.796000,0.070000
1606676540258612651,0.900000,0.183000,0.179000,0.900000,1.799000,1.790000,0.069000
1606676540871772803,0.900000,0.185000,0.181000,0.900000,1.738000,1.729000,0.069000
1606676541490439376,0.900000,0.169000,0.165000,0.900000,1.807000,1.797000,0.069000
1606676542116105162,0.900000,0.170000,0.166000,0.900000,1.808000,1.798000,0.069000
1606676542716419267,0.900000,0.206000,0.202000,0.900000,1.793000,1.784000,0.069000
1606676543310698781,0.900000,0.198000,0.194000,0.900000,1.808000,1.798000,0.070000
1606676543917405149,0.900000,0.170000,0.166000,0.900000,1.809000,1.799000,0.070000
1606676544515232855,0.900000,0.170000,0.166000,0.900000,1.808000,1.798000,0.070000
1606676545121073063,0.900000,0.194000,0.190000,0.900000,1.788000,1.779000,0.070000
1606676545715270066,0.900000,0.170000,0.166000,0.900000,1.804000,1.794000,0.070000
1606676546314621121,0.900000,0.170000,0.166000,0.900000,1.804000,1.794000,0.069000
1606676546928401651,0.900000,0.193000,0.189000,0.900000,1.804000,1.794000,0.070000
1606676547527499931,0.900000,0.183000,0.179000,0.900000,1.775000,1.766000,0.070000
1606676548159448022,0.900000,0.170000,0.166000,0.900000,1.809000,1.799000,0.070000
1606676548753825626,0.900000,0.172000,0.168000,0.900000,1.808000,1.798000,0.070000
1606676549378560094,0.900000,0.178000,0.174000,0.900000,1.802000,1.792000,0.070000
1606676549976030699,0.900000,0.178000,0.174000,0.900000,1.805000,1.795000,0.070000
1606676550598137064,0.900000,0.195000,0.191000,0.900000,1.804000,1.794000,0.070000
1606676551202427335,0.900000,0.170000,0.166000,0.900000,1.808000,1.798000,0.070000
1606676551797081812,0.900000,0.181000,0.177000,0.900000,1.805000,1.795000,0.070000
1606676552413721268,0.900000,0.195000,0.191000,0.900000,1.806000,1.796000,0.070000
1606676553009054466,0.900000,0.170000,0.166000,0.900000,1.808000,1.798000,0.070000
1606676553643730129,0.900000,0.170000,0.166000,0.900000,1.810000,1.800000,0.070000
1606676554244325085,0.900000,0.191000,0.187000,0.900000,1.787000,1.778000,0.070000
1606676554874666345,0.900000,0.170000,0.166000,0.900000,1.809000,1.799000,0.070000
1606676555473478775,0.900000,0.170000,0.166000,0.900000,1.787000,1.778000,0.070000
1606676556092189887,0.900000,0.194000,0.190000,0.900000,1.788000,1.779000,0.070000
1606676556700464549,0.900000,0.176000,0.172000,0.900000,1.806000,1.796000,0.070000
1606676557290429108,0.900000,0.170000,0.166000,0.900000,1.810000,1.800000,0.070000
1606676557922312770,0.900000,0.203000,0.199000,0.900000,1.807000,1.797000,0.070000
1606676558515627601,0.900000,0.180000,0.176000,0.900000,1.803000,1.793000,0.070000
1606676559127444385,0.900000,0.170000,0.166000,0.900000,1.807000,1.797000,0.070000
1606676559722780419,0.900000,0.178000,0.174000,0.900000,1.808000,1.798000,0.070000
1606676560325389241,0.900000,0.174000,0.170000,0.900000,1.808000,1.798000,0.071000
1606676560929001520,0.900000,0.183000,0.179000,0.900000,1.806000,1.796000,0.070000
1606676561524993382,0.900000,0.183000,0.179000,0.900000,1.810000,1.800000,0.070000
1606676562159448727,0.900000,0.171000,0.167000,0.900000,1.808000,1.798000,0.070000
1606676562758170966,0.900000,0.175000,0.171000,0.900000,1.808000,1.798000,0.070000
1606676563360720847,0.900000,0.181000,0.177000,0.900000,1.802000,1.792000,0.070000
1606676563969400635,0.900000,0.170000,0.166000,0.900000,1.810000,1.800000,0.070000
1606676564575678026,0.900000,0.170000,0.166000,0.900000,1.811000,1.801000,0.070000
1606676565199551936,0.900000,0.180000,0.176000,0.900000,1.807000,1.797000,0.071000
1606676565800249552,0.900000,0.195000,0.191000,0.900000,1.799000,1.790000,0.071000
1606676566418235305,0.900000,0.170000,0.166000,0.900000,1.809000,1.799000,0.071000
1606676567016539309,0.900000,0.170000,0.166000,0.900000,1.811000,1.801000,0.070000
1606676567653756280,0.900000,0.193000,0.189000,0.900000,1.801000,1.791000,0.071000
1606676568250924293,0.900000,0.169000,0.165000,0.900000,1.808000,1.798000,0.070000
1606676568885280121,0.900000,0.170000,0.166000,0.900000,1.809000,1.799000,0.071000
1606676569480626361,0.900000,0.203000,0.199000,0.900000,1.807000,1.797000,0.070000
1606676570094923760,0.900000,0.181000,0.177000,0.900000,1.806000,1.796000,0.071000
1606676570708391846,0.900000,0.170000,0.166000,0.900000,1.810000,1.800000,0.071000
1606676571328576626,0.900000,0.198000,0.194000,0.900000,1.777000,1.768000,0.071000
1606676571938203278,0.900000,0.183000,0.179000,0.900000,1.805000,1.795000,0.071000
1606676572537884046,0.900000,0.173000,0.169000,0.900000,1.809000,1.799000,0.071000
1606676573165029939,0.900000,0.197000,0.192000,0.900000,1.807000,1.797000,0.071000
1606676573780134653,0.900000,0.145000,0.137000,0.900000,1.808000,1.798000,0.071000
1606676574393997372,0.900000,0.153000,0.144000,0.900000,1.778000,1.769000,0.071000
1606676575004423904,0.900000,0.165000,0.155000,0.900000,1.805000,1.795000,0.070000
1606676575619004715,0.900000,0.142000,0.134000,0.900000,1.810000,1.800000,0.071000
1606676576237958986,0.900000,0.142000,0.134000,0.900000,1.811000,1.801000,0.071000
1606676576860321864,0.900000,0.164000,0.154000,0.900000,1.795000,1.786000,0.071000
1606676577477549004,0.900000,0.140000,0.132000,0.900000,1.811000,1.801000,0.070000
1606676578098556318,0.900000,0.141000,0.133000,0.900000,1.808000,1.798000,0.070000
1606676578731483955,0.900000,0.159000,0.150000,0.900000,1.799000,1.790000,0.071000
1606676579348990290,0.900000,0.144000,0.136000,0.900000,1.808000,1.798000,0.071000
1606676579955364174,0.900000,0.140000,0.132000,0.900000,1.809000,1.799000,0.071000
1606676580573378099,0.900000,0.155000,0.146000,0.900000,1.809000,1.799000,0.071000
1606676581211686887,0.900000,0.152000,0.143000,0.900000,1.788000,1.779000,0.071000
1606676581849665269,0.900000,0.146000,0.137000,0.900000,1.802000,1.792000,0.071000
1606676582492268332,0.900000,0.127000,0.115000,0.900000,1.809000,1.799000,0.071000
1606676583122993997,0.900000,0.114000,0.103000,0.900000,1.808000,1.798000,0.071000
1606676583748946871,0.900000,0.126000,0.114000,0.900000,1.803000,1.793000,0.071000
1606676584397552007,0.900000,0.122000,0.110000,0.900000,1.808000,1.798000,0.070000
1606676585035144297,0.900000,0.119000,0.108000,0.900000,1.807000,1.797000,0.071000
1606676585687663986,0.900000,0.123000,0.111000,0.900000,1.592000,1.541000,0.071000
1606676586324174682,0.900000,0.124000,0.112000,0.900000,1.597000,1.545000,0.070000
1606676586947248737,0.900000,0.113000,0.102000,0.900000,1.598000,1.546000,0.070000
1606676587582518510,0.900000,0.114000,0.103000,0.900000,1.597000,1.545000,0.071000
1606676588232337046,0.900000,0.124000,0.112000,0.900000,1.582000,1.531000,0.070000
1606676588871712449,0.900000,0.129000,0.117000,0.900000,1.593000,1.542000,0.070000
1606676589539653811,0.900000,0.114000,0.103000,0.900000,1.597000,1.545000,0.070000
1606676590258750592,0.900000,0.101000,0.091000,0.900000,1.595000,1.543000,0.070000
1606676590920478269,0.900000,0.115000,0.104000,0.900000,1.586000,1.535000,0.070000
1606676591577139846,0.900000,0.093000,0.084000,0.900000,1.597000,1.545000,0.069000
1606676592269283479,0.900000,0.093000,0.084000,0.900000,1.596000,1.544000,0.069000
1606676592960593486,0.900000,0.117000,0.106000,0.900000,1.587000,1.536000,0.070000
1606676593652857186,0.900000,0.093000,0.084000,0.900000,1.594000,1.542000,0.070000
1606676594343039002,0.900000,0.093000,0.084000,0.900000,1.596000,1.544000,0.070000
1606676595093239933,0.900000,0.115000,0.104000,0.900000,1.582000,1.531000,0.070000
1606676595740915065,0.900000,0.071000,0.064000,0.900000,1.251000,1.209000,0.070000
1606676596434195074,0.900000,0.069000,0.062000,0.900000,1.251000,1.209000,0.070000
1606676597095421422,0.900000,0.073000,0.066000,0.900000,1.320000,1.276000,0.069000
1606676597744520090,0.900000,0.069000,0.062000,0.900000,1.251000,1.208000,0.069000
1606676598456894983,0.900000,0.072000,0.065000,0.900000,1.366000,1.320000,0.069000
1606676599095034903,0.900000,0.122000,0.110000,0.900000,1.798000,1.789000,0.069000
1606676599722083334,0.900000,0.113000,0.102000,0.900000,1.804000,1.794000,0.069000
1606676600366127999,0.900000,0.127000,0.115000,0.900000,1.801000,1.791000,0.070000
1606676601006676208,0.900000,0.118000,0.107000,0.900000,1.803000,1.793000,0.070000
1606676601673835618,0.900000,0.125000,0.113000,0.900000,1.804000,1.794000,0.070000
1606676602350659361,0.900000,0.138000,0.125000,0.900000,1.804000,1.794000,0.070000
1606676603033333331,0.900000,0.093000,0.084000,0.900000,1.596000,1.544000,0.070000
1606676603698192937,0.900000,0.106000,0.096000,0.900000,1.590000,1.539000,0.070000
1606676604372266803,0.900000,0.114000,0.103000,0.900000,1.588000,1.537000,0.070000
1606676605063418096,0.900000,0.093000,0.084000,0.900000,1.596000,1.544000,0.070000
1606676605773898973,0.900000,0.106000,0.096000,0.900000,1.577000,1.526000,0.070000
1606676606458417413,0.900000,0.113000,0.102000,0.900000,1.580000,1.529000,0.070000
1606676607159480368,0.900000,0.094000,0.085000,0.900000,1.596000,1.544000,0.069000
1606676607805182912,0.900000,0.114000,0.103000,0.900000,1.804000,1.794000,0.070000
1606676608432387018,0.900000,0.141000,0.127000,0.900000,1.791000,1.782000,0.070000
1606676609059150330,0.900000,0.119000,0.108000,0.900000,1.807000,1.797000,0.070000
1606676609711287674,0.900000,0.114000,0.103000,0.900000,1.808000,1.798000,0.070000
1606676610377464699,0.900000,0.134000,0.121000,0.900000,1.799000,1.790000,0.070000
1606676611011692048,0.900000,0.116000,0.105000,0.900000,1.804000,1.794000,0.071000
1606676611655434924,0.900000,0.113000,0.102000,0.900000,1.807000,1.797000,0.070000
1606676612290165523,0.900000,0.139000,0.126000,0.900000,1.804000,1.794000,0.070000
1606676612965419053,0.900000,0.130000,0.118000,0.900000,1.801000,1.791000,0.070000
1606676613599539721,0.900000,0.124000,0.112000,0.900000,1.808000,1.798000,0.071000
1606676614202092271,0.900000,0.142000,0.134000,0.900000,1.808000,1.798000,0.070000
1606676614815532380,0.900000,0.155000,0.146000,0.900000,1.805000,1.792000,0.071000
1606676615443810094,0.900000,0.149000,0.140000,0.900000,1.807000,1.794000,0.071000
1606676616054247822,0.900000,0.141000,0.133000,0.900000,1.802000,1.792000,0.071000
1606676616685741022,0.900000,0.154000,0.145000,0.900000,1.808000,1.798000,0.071000
1606676617258592788,0.900000,0.214000,0.209000,0.900000,1.790000,1.781000,0.071000
1606676617826849815,0.900000,0.214000,0.209000,0.900000,1.804000,1.794000,0.071000
1606676618393624015,0.900000,0.214000,0.209000,0.900000,1.809000,1.799000,0.071000
1606676618960367505,0.900000,0.215000,0.210000,0.900000,1.811000,1.801000,0.071000
1606676619531469813,0.900000,0.215000,0.210000,0.900000,1.807000,1.797000,0.071000
1606676620159629959,0.900000,0.214000,0.209000,0.900000,1.791000,1.782000,0.071000
1606676620773156437,0.900000,0.142000,0.134000,0.900000,1.809000,1.799000,0.071000
1606676621398011402,0.900000,0.140000,0.132000,0.900000,1.808000,1.798000,0.071000
1606676622008301720,0.900000,0.163000,0.153000,0.900000,1.802000,1.792000,0.071000
1606676622616352174,0.900000,0.141000,0.133000,0.900000,1.794000,1.785000,0.071000
1606676623221474994,0.900000,0.142000,0.134000,0.900000,1.811000,1.801000,0.071000
1606676623870151517,0.900000,0.157000,0.148000,0.900000,1.812000,1.802000,0.071000
1606676624507844535,0.900000,0.121000,0.110000,0.900000,1.804000,1.794000,0.071000
1606676625144476279,0.900000,0.113000,0.102000,0.900000,1.810000,1.800000,0.071000
1606676625765913221,0.900000,0.119000,0.107000,0.900000,1.805000,1.795000,0.071000
1606676626415644651,0.900000,0.129000,0.117000,0.900000,1.798000,1.789000,0.071000
1606676627037153490,0.900000,0.122000,0.110000,0.900000,1.807000,1.797000,0.071000
1606676627666209642,0.900000,0.118000,0.107000,0.900000,1.802000,1.792000,0.071000
1606676628282553237,0.900000,0.149000,0.140000,0.900000,1.809000,1.799000,0.071000
1606676628909108519,0.900000,0.153000,0.144000,0.900000,1.808000,1.798000,0.071000
1606676629521773939,0.900000,0.145000,0.137000,0.900000,1.811000,1.801000,0.071000
1606676630134634608,0.900000,0.145000,0.137000,0.900000,1.808000,1.798000,0.071000
1606676630772709678,0.900000,0.153000,0.144000,0.900000,1.806000,1.796000,0.071000
1606676631403704034,0.900000,0.155000,0.146000,0.900000,1.803000,1.793000,0.071000
1606676632056128338,0.900000,0.172000,0.162000,0.900000,1.808000,1.798000,0.071000
1606676632685277391,0.900000,0.114000,0.103000,0.900000,1.810000,1.800000,0.071000
1606676633311309918,0.900000,0.124000,0.112000,0.900000,1.804000,1.794000,0.071000
1606676633963189432,0.900000,0.117000,0.106000,0.900000,1.810000,1.800000,0.071000
1606676634590498027,0.900000,0.115000,0.104000,0.900000,1.810000,1.800000,0.071000
1606676635255703268,0.900000,0.114000,0.103000,0.900000,1.808000,1.798000,0.071000
1606676636028716903,0.900000,0.071000,0.064000,0.900000,1.731000,1.722000,0.071000
1606676636741346285,0.900000,0.054000,0.049000,0.900000,1.806000,1.796000,0.071000
1606676637517199231,0.900000,0.084000,0.076000,0.900000,1.801000,1.791000,0.071000
1606676638287845231,0.900000,0.073000,0.066000,0.900000,1.804000,1.794000,0.071000
1606676639138547250,0.900000,0.055000,0.050000,0.900000,1.807000,1.797000,0.071000
1606676639833229901,0.900000,0.101000,0.091000,0.900000,1.806000,1.796000,0.071000
1606676640481081683,0.900000,0.107000,0.097000,0.900000,1.805000,1.795000,0.071000
1606676641154529576,0.900000,0.093000,0.084000,0.900000,1.808000,1.798000,0.071000
1606676641832293493,0.900000,0.106000,0.096000,0.900000,1.808000,1.798000,0.071000
1606676642531707362,0.900000,0.106000,0.096000,0.900000,1.804000,1.794000,0.071000
1606676643311476105,0.900000,0.059000,0.053000,0.900000,1.774000,1.765000,0.071000
1606676644040608908,0.900000,0.058000,0.052000,0.900000,1.263000,1.221000,0.071000
1606676644820639291,0.900000,0.054000,0.049000,0.900000,1.251000,1.209000,0.070000
1606676645604437787,0.900000,0.054000,0.049000,0.900000,1.311000,1.267000,0.070000
1606676646478971102,0.900000,0.055000,0.050000,0.900000,1.251000,1.209000,0.070000
1606676647173839937,0.900000,0.097000,0.088000,0.900000,1.595000,1.564000,0.069000
1606676647839547770,0.900000,0.094000,0.085000,0.900000,1.806000,1.796000,0.070000
1606676648521980933,0.900000,0.105000,0.095000,0.900000,1.806000,1.796000,0.070000
1606676649187910031,0.900000,0.111000,0.100000,0.900000,1.801000,1.791000,0.070000
1606676649859080360,0.900000,0.092000,0.083000,0.900000,1.790000,1.781000,0.070000
1606676650571937363,0.900000,0.093000,0.084000,0.900000,1.809000,1.799000,0.071000
1606676651305790070,0.900000,0.105000,0.095000,0.900000,1.784000,1.775000,0.071000
1606676651927259880,0.900000,0.114000,0.103000,0.900000,1.808000,1.798000,0.071000
1606676652558524495,0.900000,0.114000,0.103000,0.900000,1.810000,1.800000,0.071000
1606676653217424833,0.900000,0.132000,0.119000,0.900000,1.770000,1.761000,0.071000
1606676653846782665,0.900000,0.124000,0.112000,0.900000,1.807000,1.797000,0.071000
1606676654505031141,0.900000,0.114000,0.103000,0.900000,1.810000,1.800000,0.071000
1606676655315802931,0.900000,0.105000,0.095000,0.900000,1.807000,1.797000,0.071000
1606676656063351100,0.900000,0.067000,0.060000,0.900000,1.801000,1.791000,0.071000
1606676656838634864,0.900000,0.064000,0.058000,0.900000,1.805000,1.795000,0.071000
1606676657555046638,0.900000,0.069000,0.062000,0.900000,1.806000,1.796000,0.071000
1606676658389255958,0.900000,0.066000,0.060000,0.900000,1.807000,1.797000,0.071000
1606676659251096777,0.900000,0.068000,0.061000,0.900000,1.805000,1.795000,0.071000
1606676659950801007,0.900000,0.101000,0.091000,0.900000,1.807000,1.797000,0.071000
1606676660505197185,0.900000,0.059000,0.053000,0.900000,1.525000,1.517000,0.071000
