TimeStamp,Total Power,CPU Power,GPU Power
1592834507082787,4.114,1.829,0.152
1592834507585062,2.705,1.067,0.152
1592834508087266,2.173,0.915,0.152
1592834508592920,2.135,0.915,0.152
1592834509095018,1.982,0.915,0.152
1592834509597236,1.944,0.839,0.152
1592834510099290,1.944,0.839,0.152
1592834510601572,1.944,0.839,0.152
1592834511103693,1.906,0.915,0.152
1592834511605832,1.906,0.915,0.152
1592834512107982,1.906,0.839,0.152
1592834512609841,1.944,0.839,0.152
1592834513112040,1.906,0.839,0.152
1592834513617031,1.906,0.839,0.152
1592834514119073,1.906,0.915,0.152
1592834514620851,1.906,0.915,0.152
1592834515123689,1.906,0.839,0.152
1592834515625946,1.944,0.839,0.152
1592834516128053,1.906,0.839,0.152
1592834516629812,1.906,0.839,0.152
1592834517131844,1.906,0.915,0.152
1592834517633945,1.906,0.839,0.152
1592834518137263,1.906,0.839,0.152
1592834518642677,1.906,0.839,0.152
1592834519144759,2.097,0.839,0.152
1592834519646826,1.982,0.839,0.152
1592834520149069,2.02,0.839,0.152
1592834520651197,2.173,0.839,0.152
1592834521153361,2.135,0.915,0.152
1592834521655424,1.982,0.839,0.152
1592834522157598,1.944,0.839,0.152
1592834522659786,1.944,0.839,0.152
1592834523161994,1.906,0.839,0.152
1592834523667038,1.906,0.839,0.152
1592834524169087,1.906,0.915,0.152
1592834524671149,1.906,0.839,0.152
1592834525173349,1.906,0.839,0.152
1592834525675506,1.906,0.839,0.152
1592834526177676,1.906,0.839,0.152
1592834526679827,1.906,0.915,0.152
1592834527181914,1.906,0.915,0.152
1592834527683960,1.906,0.839,0.152
1592834528188448,1.906,0.839,0.152
1592834528690548,1.906,0.839,0.152
1592834529192800,1.906,0.839,0.152
1592834529694872,1.868,0.915,0.152
1592834530197037,2.058,0.915,0.152
1592834530699189,1.982,0.839,0.152
1592834531201395,1.982,0.839,0.152
1592834531703577,1.906,0.839,0.152
1592834532205688,1.906,0.839,0.152
1592834532707796,1.944,0.915,0.152
1592834533209892,1.906,0.915,0.152
1592834533716241,1.906,0.839,0.152
1592834534218543,1.944,0.839,0.152
1592834534720825,1.906,0.839,0.152
1592834535222874,1.906,0.839,0.152
1592834535724945,1.868,0.915,0.152
1592834536226981,1.906,0.915,0.152
1592834536729098,1.906,0.839,0.152
1592834537231304,1.944,0.839,0.152
1592834537733528,1.906,0.839,0.152
1592834538235668,1.906,0.839,0.152
1592834538740717,1.906,0.915,0.152
1592834539242783,1.906,0.839,0.152
1592834539745014,1.906,0.839,0.152
1592834540247225,1.906,0.839,0.152
1592834540749326,1.944,0.839,0.152
1592834541251436,1.906,0.839,0.152
1592834541753598,2.135,0.839,0.152
1592834542255741,1.982,0.839,0.152
1592834542757921,1.944,0.839,0.152
1592834543260005,1.906,0.839,0.152
1592834543765348,1.906,0.839,0.152
1592834544267474,1.906,0.839,0.152
1592834544769634,1.906,0.839,0.152
1592834545271768,1.906,0.839,0.152
1592834545773927,1.906,0.839,0.152
1592834546276026,1.906,0.839,0.152
1592834546778242,1.982,0.839,0.152
1592834547280441,1.944,0.839,0.152
1592834547782520,1.906,0.839,0.152
1592834548284700,1.868,0.915,0.152
1592834548789738,1.906,0.915,0.152
1592834549291829,1.906,0.839,0.152
1592834549796058,1.906,0.839,0.152
1592834550298196,1.944,0.839,0.152
1592834550800358,1.906,0.915,0.152
1592834551302381,1.868,0.915,0.152
1592834551804522,1.868,0.915,0.152
1592834552306620,1.906,0.839,0.152
1592834552808883,2.058,0.839,0.152
1592834553311054,2.02,0.839,0.152
1592834553816067,2.173,0.839,0.152
1592834554318077,2.097,0.915,0.152
1592834554820130,2.097,0.839,0.152
1592834555322363,1.982,0.839,0.152
1592834555824507,1.944,0.839,0.152
1592834556326600,1.906,0.839,0.152
1592834556828722,1.906,0.915,0.152
1592834557330859,1.906,0.839,0.152
1592834557833130,1.906,0.839,0.152
1592834558335212,1.906,0.839,0.152
1592834558840222,1.906,0.839,0.152
1592834559342391,1.906,0.839,0.152
1592834559844619,1.906,0.839,0.152
1592834560346727,1.906,0.839,0.152
1592834560848872,1.906,0.839,0.152
1592834561350972,1.906,0.839,0.152
1592834561853099,1.906,0.839,0.152
1592834562355171,1.906,0.839,0.152
1592834562857355,1.944,0.839,0.152
1592834563359553,2.097,0.839,0.152
1592834563864759,1.982,0.915,0.152
1592834564366946,1.944,0.915,0.152
1592834564869099,2.02,0.839,0.152
1592834565371407,1.982,0.839,0.152
1592834565873567,1.944,0.839,0.152
1592834566375670,1.906,0.839,0.152
1592834566877719,1.906,0.915,0.152
1592834567379780,1.906,0.915,0.152
