timestamp	VIRTUAL_SCALING	CPU0_F	CPU1_F	CPU2_F	CPU3_F	CPU4_F	CPU5_F	GPU_FREQ	CPU_GOVERNOR	EMC_F	TEMP0	TEMP1	TEMP2	TEMP3	TEMP4	TEMP5	TEMP6	TEMP7
1592834145707774230	1	652	1113	1113	652	652	652	114750000	performance	665	32	32	30	32	29	28	100	31
1592834145798985065 	0	653	1114	1113	653	652	653	114750000	performance	665	31	31	30	31	29	28	100	31
1592834147763902532	1	652	1113	1113	652	652	652	114750000	performance	665	32	32	30	31	29	28	100	31
1592834148144625808 	0	652	1113	1113	652	652	652	114750000	performance	665	32	32	30	32	29	28	100	31
1592834150188996643	1	652	1113	1113	652	652	652	114750000	performance	665	32	32	30	32	29	28	100	31
1592834150575841042 	0	653	1113	1113	652	652	652	114750000	performance	665	31	31	30	32	29	28	100	31
1592834152552618453	1	652	1113	1113	652	652	652	114750000	performance	665	32	31	30	32	29	28	100	30
1592834152963908216 	0	653	1114	1113	652	653	652	114750000	performance	665	32	32	30	32	29	28	100	31
1592834154964572958	1	652	1113	1113	652	652	652	114750000	performance	665	32	32	30	32	29	28	100	31
1592834155400677673 	0	653	1113	1113	653	652	653	114750000	performance	665	32	32	30	32	29	28	100	31
1592834157408596505	1	652	1113	1113	652	652	652	114750000	performance	665	32	32	30	32	29	28	100	31
1592834157820936170 	0	652	1113	1112	652	652	652	114750000	performance	665	32	32	30	32	29	28	100	31
1592834159844073562	1	652	1113	1113	652	652	652	114750000	performance	665	32	32	30	32	29	28	100	30
1592834160236876167 	0	652	1112	1113	652	653	652	114750000	performance	665	32	32	30	32	29	28	100	30
1592834162257910026	1	652	1113	1113	652	652	652	114750000	performance	665	32	32	30	32	29	28	100	31
1592834162628705517 	0	652	1113	1113	652	652	652	114750000	performance	665	32	31	30	31	29	28	100	31
1592834164627860814	1	652	1113	1113	652	652	652	114750000	performance	665	32	32	30	32	29	28	100	30
1592834165035958343 	0	652	1113	1113	653	652	653	114750000	performance	665	32	32	30	32	29	28	100	30
1592834167011937546	1	652	1113	1113	652	652	652	114750000	performance	665	32	32	30	32	29	28	100	31
1592834167403790180 	0	652	1113	1113	652	652	653	114750000	performance	665	32	32	30	32	29	28	100	31
1592834169400919158	1	652	1113	1113	652	652	652	114750000	performance	665	31	31	30	32	29	28	100	31
1592834169832600049 	0	653	1114	1114	652	653	653	114750000	performance	665	32	31	30	31	29	28	100	30
1592834171832579904	1	652	1113	1113	652	652	652	114750000	performance	665	32	32	30	31	29	28	100	30
1592834172256489218 	0	652	1115	1112	652	653	653	114750000	performance	665	31	31	30	32	29	28	100	30
1592834174268530671	1	652	1113	1113	652	652	652	114750000	performance	665	32	32	30	31	29	28	100	31
1592834174688506774 	0	652	1114	1113	652	652	652	114750000	performance	665	31	31	30	31	29	28	100	31
1592834176689076212	1	652	1113	1113	652	652	652	114750000	performance	665	32	32	30	31	29	28	100	30
1592834177092535731 	0	653	1112	1114	652	652	653	114750000	performance	665	31	31	30	31	29	28	100	30
1592834179076595661	1	652	1113	1113	652	652	652	114750000	performance	665	31	31	30	32	29	28	100	31
1592834179476715285 	0	652	1113	1113	652	652	652	114750000	performance	665	32	31	30	31	29	28	100	31
1592834181504105654	1	652	1113	1113	652	652	652	114750000	performance	665	32	32	30	32	29	28	100	31
1592834181932205855 	0	653	1113	1112	652	653	652	114750000	performance	665	32	32	30	32	29	28	100	31
1592834183875697465	1	652	1113	1113	652	652	652	114750000	performance	665	32	32	30	32	29	28	100	31
1592834184264620281 	0	652	1112	1114	653	652	652	114750000	performance	665	31	32	30	32	29	28	100	31
1592834186308571991	1	652	1113	1113	652	652	652	114750000	performance	665	32	31	30	31	29	28	100	31
1592834186663790934 	0	652	1113	1113	653	653	653	114750000	performance	665	31	31	30	31	29	28	100	30
1592834188688560939	1	652	1113	1113	652	652	652	114750000	performance	665	31	31	30	31	29	28	100	30
1592834189104682242 	0	653	1113	1113	652	652	652	114750000	performance	665	31	31	30	32	29	28	100	30
1592834191116520909	1	652	1113	1113	652	652	652	114750000	performance	665	31	31	30	31	29	28	100	31
1592834191564572384 	0	652	1113	1112	653	653	653	114750000	performance	665	31	31	30	31	29	28	100	31
1592834193528570614	1	652	1113	1113	652	652	652	114750000	performance	665	32	32	30	32	29	28	100	31
1592834193972490999 	0	653	1114	1112	652	652	653	114750000	performance	665	32	31	30	32	29	28	100	31
1592834195956583423	1	652	1113	1113	652	652	652	114750000	performance	665	32	32	30	32	29	28	100	31
1592834196416638555 	0	653	1113	1114	652	653	653	114750000	performance	665	32	31	30	31	29	28	100	30
1592834198420141746	1	652	1113	1113	652	652	652	114750000	performance	665	32	32	30	32	29	28	100	31
1592834198856490377 	0	653	1113	1113	653	652	652	114750000	performance	665	31	31	30	32	29	28	100	31
1592834200832108472	1	652	1113	1113	652	652	652	114750000	performance	665	31	31	30	31	29	28	100	31
1592834201247876005 	0	652	1113	1113	652	653	652	114750000	performance	665	31	31	30	31	29	28	100	30
1592834203323876547	1	652	1113	1113	652	652	652	114750000	performance	665	32	32	30	32	29	28	100	31
1592834203712695908 	0	652	1114	1113	652	652	653	114750000	performance	665	31	31	30	31	29	28	100	31
1592834205784717716	1	652	1113	1113	652	652	652	114750000	performance	665	31	31	30	31	29	28	100	30
