TimeStamp,Total Power,CPU Power,GPU Power
1592952517102519,1.753,0.381,0.152
1592952517604516,1.601,0.305,0.152
1592952518106381,1.448,0.228,0.152
1592952518608368,1.296,0.228,0.152
1592952519110226,1.258,0.228,0.152
1592952519612284,1.258,0.228,0.152
1592952520114112,1.296,0.228,0.152
1592952520616503,1.448,0.228,0.152
1592952521118312,1.563,0.228,0.152
1592952521620186,1.448,0.228,0.152
1592952522122034,1.334,0.228,0.152
1592952522624024,1.258,0.228,0.152
1592952523125874,1.258,0.228,0.152
1592952523627708,1.258,0.228,0.152
1592952524129556,1.258,0.228,0.152
1592952524631497,1.258,0.228,0.152
1592952525133347,1.258,0.228,0.152
1592952525635189,1.525,0.228,0.152
1592952526137150,1.601,0.228,0.152
1592952526641856,1.41,0.228,0.152
1592952527143725,1.525,0.228,0.152
1592952527645548,1.41,0.228,0.152
1592952528147490,1.296,0.228,0.152
1592952528649336,1.334,0.228,0.152
1592952529151183,1.258,0.228,0.152
1592952529653143,1.258,0.228,0.152
1592952530155005,1.258,0.228,0.152
1592952530656933,1.22,0.228,0.152
1592952531158774,1.258,0.228,0.152
1592952531663638,1.258,0.228,0.152
1592952532165485,1.258,0.228,0.152
1592952532667574,1.258,0.228,0.152
1592952533169427,1.258,0.228,0.152
1592952533671276,1.258,0.228,0.152
1592952534173298,1.258,0.228,0.152
1592952534675154,1.258,0.228,0.152
1592952535178061,1.258,0.228,0.152
1592952535684505,1.258,0.228,0.152
1592952536186364,1.258,0.228,0.152
1592952536691464,1.258,0.228,0.152
1592952537193314,1.258,0.228,0.152
1592952537695167,1.258,0.228,0.152
1592952538197151,1.22,0.228,0.152
1592952538699018,1.258,0.228,0.152
1592952539200969,1.258,0.228,0.152
1592952539702832,1.258,0.228,0.152
1592952540204723,1.258,0.228,0.152
1592952540706572,1.258,0.228,0.152
1592952541208473,1.258,0.228,0.152
1592952541713494,1.258,0.228,0.152
1592952542215445,1.258,0.228,0.152
1592952542717454,1.258,0.228,0.152
1592952543219431,1.258,0.228,0.152
1592952543721304,1.22,0.228,0.152
1592952544223118,1.22,0.228,0.152
1592952544725030,1.22,0.228,0.152
1592952545226908,1.258,0.228,0.152
1592952545728918,1.258,0.228,0.152
1592952546230794,1.258,0.228,0.152
1592952546735705,1.258,0.228,0.152
1592952547237543,1.258,0.228,0.152
1592952547739573,1.22,0.228,0.152
1592952548241391,1.258,0.228,0.152
1592952548743222,1.258,0.228,0.152
1592952549245157,1.258,0.228,0.152
1592952549747026,1.258,0.228,0.152
1592952550248952,1.258,0.228,0.152
1592952550750837,1.258,0.228,0.152
1592952551252725,1.22,0.228,0.152
