Timestamp,Voltage(V),Ampere(A),Power(W),Watt Hour
1606698236802169251,5.020,0.852,4.279,0.000
1606698236902594734,5.020,0.852,4.279,0.000
1606698236979429689,5.020,0.849,4.267,0.000
1606698237035818925,5.012,0.776,3.893,0.000
1606698237090902379,5.007,0.713,3.573,0.000
1606698237149031226,5.017,0.921,4.626,0.000
1606698237208994477,5.007,0.707,3.542,0.000
1606698237265681835,5.006,0.697,3.492,0.000
1606698237322748607,5.006,0.695,3.481,0.000
1606698237377948102,5.006,0.697,3.492,0.000
1606698237439510507,5.020,0.893,4.489,0.000
1606698237500686248,5.010,0.745,3.733,0.000
1606698237556577237,5.006,0.702,3.515,0.000
1606698237611037071,5.006,0.700,3.504,0.000
1606698237664361205,5.006,0.701,3.512,0.000
1606698237723537295,5.006,0.701,3.512,0.000
1606698237776651222,5.007,0.718,3.599,0.000
1606698237832617419,5.005,0.693,3.470,0.000
1606698237889134779,5.005,0.693,3.470,0.000
1606698237946362217,5.006,0.696,3.489,0.000
1606698238015227982,5.006,0.699,3.504,0.000
1606698238071873424,5.011,0.776,3.893,0.000
1606698238127712580,5.014,0.843,4.229,0.000
1606698238182925200,5.006,0.695,3.481,0.000
1606698238240671883,5.005,0.691,3.462,0.000
1606698238289284345,5.005,0.691,3.458,0.000
1606698238344656754,5.006,0.701,3.508,0.000
1606698238400451744,5.020,0.942,4.733,0.000
1606698238456584440,5.006,0.692,3.466,0.000
1606698238648967427,5.005,0.690,3.454,0.000
1606698238759869121,5.006,0.690,3.458,0.000
1606698238882330767,5.006,0.690,3.458,0.000
1606698239004359626,5.017,0.923,4.637,0.000
1606698239133333014,5.006,0.700,3.504,0.000
1606698239269232932,5.005,0.688,3.443,0.000
1606698239398643817,5.005,0.689,3.450,0.000
1606698239522687742,5.016,0.894,4.489,0.000
1606698239650310807,5.009,0.727,3.645,0.000
1606698239767092080,5.006,0.692,3.470,0.000
1606698239897932203,5.006,0.692,3.470,0.000
1606698240024956023,5.005,0.685,3.431,0.000
1606698240164375997,5.012,0.791,3.970,0.000
1606698240233912422,5.006,0.687,3.439,0.000
1606698240291429440,5.006,0.685,3.431,0.000
1606698240350010866,5.006,0.686,3.431,0.000
1606698240405665857,5.006,0.685,3.431,0.000
1606698240473574837,5.007,0.696,3.489,0.000
1606698240526753721,5.006,0.687,3.439,0.000
1606698240584137948,5.006,0.687,3.439,0.000
1606698240640782723,5.006,0.685,3.431,0.000
1606698240697179582,5.006,0.685,3.428,0.000
1606698240755409386,5.006,0.684,3.424,0.000
1606698240811702205,5.017,0.922,4.634,0.000
1606698240868613936,5.006,0.689,3.447,0.000
1606698240923209059,5.006,0.686,3.439,0.000
1606698240985036877,5.006,0.683,3.424,0.000
1606698241046341991,5.006,0.686,3.435,0.000
1606698241104091715,5.019,0.922,4.630,0.000
1606698241160413825,5.019,0.922,4.630,0.000
1606698241216879267,5.009,0.727,3.641,0.000
1606698241271400682,5.006,0.691,3.462,0.000
1606698241327700292,5.006,0.691,3.462,0.000
1606698241383955403,5.006,0.690,3.454,0.000
1606698241438311653,5.014,0.828,4.153,0.000
1606698241495054093,5.011,0.775,3.886,0.000
1606698241545474581,5.006,0.685,3.435,0.000
1606698241604799835,5.005,0.684,3.428,0.000
1606698241658628589,5.006,0.683,3.424,0.000
1606698241705750103,5.006,0.683,3.424,0.000
1606698241793585721,5.007,0.720,3.607,0.000
1606698241850162704,5.006,0.685,3.431,0.000
1606698241911388985,5.006,0.684,3.428,0.000
1606698241969903578,5.006,0.684,3.428,0.000
1606698242031626605,5.006,0.683,3.420,0.000
1606698242096453482,5.021,0.961,4.832,0.000
1606698242156222190,5.006,0.694,3.477,0.000
1606698242213222753,5.006,0.684,3.428,0.000
1606698242271644555,5.006,0.685,3.428,0.000
1606698242328264871,5.005,0.683,3.420,0.000
1606698242384916811,5.006,0.683,3.424,0.000
1606698242442073623,5.017,0.896,4.500,0.000
1606698242498995769,5.006,0.696,3.485,0.000
1606698242560927752,5.006,0.684,3.428,0.000
1606698242618037731,5.006,0.682,3.420,0.000
1606698242682660527,5.006,0.681,3.408,0.000
1606698242738366891,5.015,0.860,4.321,0.000
1606698242796498279,5.014,0.785,3.939,0.000
1606698242852047977,5.006,0.682,3.412,0.000
1606698242908424212,5.006,0.681,3.412,0.000
1606698242964855195,5.006,0.681,3.408,0.000
1606698243024369405,5.006,0.680,3.408,0.000
1606698243081365676,5.016,0.875,4.393,0.000
1606698243138065199,5.010,0.740,3.710,0.000
1606698243200406096,5.006,0.682,3.412,0.000
1606698243259685890,5.006,0.679,3.401,0.000
1606698243364970332,5.007,0.687,3.443,0.000
1606698243445191425,5.019,0.919,4.615,0.000
1606698243528102246,5.019,0.919,4.615,0.000
1606698243608824793,5.006,0.681,3.412,0.000
1606698243689081594,5.006,0.679,3.401,0.000
1606698243775256432,5.006,0.679,3.401,0.000
1606698243860149281,5.006,0.680,3.408,0.000
1606698243938199265,5.006,0.692,3.466,0.000
1606698244016728745,5.006,0.683,3.420,0.000
1606698244095807929,5.006,0.679,3.401,0.000
1606698244175115695,5.006,0.678,3.397,0.000
1606698244254898332,5.006,0.678,3.397,0.000
1606698244339549306,5.016,0.878,4.408,0.000
1606698244421621967,5.015,0.803,4.031,0.000
1606698244500421529,5.006,0.682,3.412,0.000
1606698244580855702,5.006,0.681,3.412,0.000
1606698244663103070,5.006,0.680,3.408,0.000
1606698244742073172,5.014,0.822,4.122,0.000
1606698244820521236,5.006,0.683,3.424,0.000
1606698244924720935,5.006,0.681,3.412,0.000
1606698244989453771,5.006,0.681,3.408,0.000
1606698245044262267,5.006,0.680,3.405,0.000
1606698245098737348,5.011,0.727,3.641,0.000
1606698245156372571,5.019,0.848,4.260,0.000
1606698245215248910,5.006,0.682,3.412,0.000
1606698245273226048,5.006,0.680,3.405,0.000
1606698245329964778,5.006,0.680,3.405,0.000
1606698245388237955,5.007,0.685,3.431,0.000
1606698245448414242,5.020,0.886,4.450,0.000
1606698245516124305,5.006,0.685,3.428,0.000
1606698245572639871,5.006,0.685,3.428,0.000
1606698245629805639,5.006,0.679,3.401,0.000
1606698245688446105,5.006,0.680,3.405,0.000
1606698245745289793,5.020,0.896,4.504,0.000
1606698245802898392,5.006,0.688,3.447,0.000
1606698245860989820,5.006,0.682,3.416,0.000
1606698245919465954,5.006,0.678,3.393,0.000
1606698245979009079,5.006,0.677,3.393,0.000
1606698246040336399,5.019,0.911,4.576,0.000
1606698246097702499,5.007,0.692,3.470,0.000
1606698246152746909,5.007,0.692,3.470,0.000
1606698246208511147,5.006,0.677,3.393,0.000
1606698246263852387,5.006,0.677,3.389,0.000
1606698246320556409,5.006,0.676,3.389,0.000
1606698246377444638,5.016,0.870,4.370,0.000
1606698246436314394,5.010,0.723,3.622,0.000
1606698246521800111,5.006,0.676,3.386,0.000
1606698246585152207,5.006,0.676,3.386,0.000
1606698246643743339,5.006,0.676,3.389,0.000
1606698246700622652,5.011,0.752,3.771,0.000
1606698246759350241,5.011,0.752,3.771,0.000
1606698246816208012,5.006,0.676,3.386,0.000
1606698246872787160,5.006,0.676,3.386,0.000
1606698246930055511,5.006,0.677,3.389,0.000
1606698246991379289,5.006,0.677,3.393,0.000
1606698247047633689,5.019,0.916,4.603,0.000
1606698247101305818,5.006,0.681,3.412,0.000
1606698247163411339,5.006,0.677,3.393,0.000
1606698247218299458,5.006,0.679,3.401,0.000
1606698247272555416,5.006,0.678,3.393,0.000
1606698247329817850,5.007,0.688,3.443,0.000
1606698247386764203,5.019,0.913,4.584,0.000
1606698247444029053,5.006,0.687,3.443,0.000
1606698247504713253,5.006,0.679,3.401,0.000
1606698247561750022,5.006,0.684,3.428,0.000
1606698247618814624,5.006,0.678,3.393,0.000
1606698247680263859,5.017,0.890,4.470,0.000
1606698247743274916,5.009,0.734,3.679,0.000
1606698247800566266,5.006,0.677,3.393,0.000
1606698247857788325,5.006,0.677,3.393,0.000
1606698247914701304,5.006,0.677,3.393,0.000
1606698247971103453,5.006,0.678,3.393,0.000
1606698248070312855,5.010,0.744,3.729,0.000
1606698248147230637,5.006,0.679,3.401,0.000
1606698248226488235,5.006,0.677,3.389,0.000
1606698248310005258,5.006,0.677,3.389,0.000
1606698248388866108,5.007,0.689,3.454,0.000
1606698248469407946,5.019,0.896,4.500,0.000
1606698248548034507,5.006,0.680,3.405,0.000
1606698248626514735,5.006,0.676,3.382,0.000
1606698248704355302,5.006,0.674,3.378,0.000
1606698248784469518,5.006,0.675,3.378,0.000
1606698248875068236,5.021,0.946,4.752,0.000
1606698248954329376,5.006,0.675,3.382,0.000
1606698249031313699,5.006,0.676,3.386,0.000
1606698249105977081,5.006,0.675,3.382,0.000
1606698249182884446,5.006,0.674,3.374,0.000
1606698249261006969,5.019,0.892,4.481,0.000
1606698249342453632,5.019,0.892,4.481,0.000
1606698249429291046,5.006,0.679,3.405,0.000
1606698249508778683,5.006,0.674,3.378,0.000
1606698249609886070,5.006,0.674,3.378,0.000
1606698249673123915,5.014,0.816,4.096,0.000
1606698249730187100,5.012,0.777,3.897,0.000
1606698249785640631,5.006,0.675,3.378,0.000
1606698249844172805,5.006,0.674,3.378,0.000
1606698249901947484,5.006,0.676,3.386,0.000
1606698249962858931,5.006,0.676,3.386,0.000
1606698250022521387,5.010,0.730,3.660,0.000
1606698250076960884,5.015,0.849,4.263,0.000
1606698250138520950,5.006,0.676,3.386,0.000
1606698250195019431,5.006,0.676,3.389,0.000
1606698250250717209,5.006,0.675,3.382,0.000
1606698250307777227,5.006,0.686,3.435,0.000
1606698250367761889,5.019,0.898,4.508,0.000
1606698250424808949,5.006,0.676,3.389,0.000
1606698250481736509,5.006,0.682,3.416,0.000
1606698250549046948,5.006,0.682,3.416,0.000
1606698250608093576,5.006,0.676,3.382,0.000
1606698250665509216,5.021,0.852,4.279,0.000
1606698250722233320,5.011,0.755,3.786,0.000
1606698250778873091,5.007,0.691,3.458,0.000
1606698250835648611,5.006,0.676,3.382,0.000
1606698250894036619,5.006,0.676,3.386,0.000
1606698250950280101,5.016,0.854,4.286,0.000
1606698250998805644,5.009,0.722,3.615,0.000
1606698251050037873,5.006,0.679,3.401,0.000
1606698251129947339,5.006,0.679,3.401,0.000
1606698251204548221,5.006,0.674,3.378,0.000
1606698251261391740,5.006,0.673,3.370,0.000
1606698251317833304,5.010,0.739,3.706,0.000
1606698251374473033,5.016,0.857,4.302,0.000
1606698251434281822,5.006,0.674,3.378,0.000
1606698251491323506,5.006,0.673,3.370,0.000
1606698251547781403,5.006,0.673,3.370,0.000
1606698251603872428,5.007,0.682,3.412,0.000
1606698251668889093,5.019,0.905,4.546,0.000
1606698251723303547,5.006,0.678,3.397,0.000
1606698251776559844,5.006,0.674,3.374,0.000
1606698251832406663,5.006,0.671,3.363,0.000
1606698251886174456,5.006,0.674,3.374,0.000
1606698251944275174,5.006,0.673,3.370,0.000
1606698252001149276,5.007,0.686,3.435,0.000
1606698252056948012,5.006,0.674,3.378,0.000
1606698252114215319,5.006,0.675,3.382,0.000
1606698252179075193,5.006,0.672,3.363,0.000
1606698252240837465,5.006,0.673,3.370,0.000
1606698252297597610,5.017,0.865,4.340,0.000
1606698252353402137,5.009,0.716,3.592,0.000
1606698252411303189,5.006,0.679,3.401,0.000
1606698252468286332,5.006,0.675,3.382,0.000
1606698252523095575,5.006,0.674,3.374,0.000
1606698252580743963,5.011,0.775,3.886,0.000
1606698252636143743,5.015,0.827,4.149,0.000
1606698252700940200,5.006,0.676,3.386,0.000
1606698252764510667,5.006,0.675,3.382,0.000
1606698252821162104,5.006,0.675,3.382,0.000
1606698252877578085,5.006,0.674,3.374,0.000
1606698252933151572,5.007,0.684,3.428,0.000
1606698252994890511,5.007,0.680,3.405,0.000
1606698253051874904,5.006,0.681,3.408,0.000
1606698253108531091,5.006,0.675,3.382,0.000
1606698253164804822,5.006,0.674,3.378,0.000
1606698253233167210,5.006,0.676,3.386,0.000
1606698253293451410,5.016,0.809,4.057,0.000
1606698253351362837,5.012,0.749,3.752,0.000
1606698253400782705,5.012,0.749,3.752,0.000
1606698253456300567,5.006,0.676,3.382,0.000
1606698253520786943,5.006,0.674,3.378,0.000
1606698253574462361,5.017,0.879,4.416,0.000
1606698253628830524,5.007,0.702,3.519,0.000
1606698253684337011,5.006,0.676,3.386,0.000
1606698253738671091,5.006,0.671,3.363,0.000
1606698253802215016,5.006,0.672,3.363,0.000
1606698253865046238,5.014,0.816,4.099,0.000
1606698253921032180,5.011,0.758,3.798,0.000
1606698253977791533,5.011,0.758,3.798,0.000
1606698254056193926,5.006,0.673,3.370,0.000
1606698254128988487,5.006,0.672,3.366,0.000
1606698254187470785,5.006,0.672,3.363,0.000
1606698254246538077,5.012,0.772,3.874,0.000
1606698254303860134,5.014,0.825,4.137,0.000
1606698254362076600,5.007,0.682,3.416,0.000
1606698254425975313,5.006,0.672,3.363,0.000
1606698254482708916,5.006,0.672,3.363,0.000
1606698254537769698,5.011,0.724,3.630,0.000
1606698254597699859,5.011,0.724,3.630,0.000
1606698254653744258,5.007,0.677,3.393,0.000
1606698254710876441,5.006,0.672,3.366,0.000
1606698254769300072,5.006,0.672,3.363,0.000
1606698254826163257,5.006,0.675,3.382,0.000
1606698254884475639,5.020,0.880,4.424,0.000
1606698254945554458,5.006,0.684,3.428,0.000
1606698255012084859,5.006,0.678,3.393,0.000
1606698255069418582,5.006,0.674,3.374,0.000
1606698255129027495,5.006,0.674,3.378,0.000
1606698255186992462,5.006,0.674,3.374,0.000
1606698255242483907,5.019,0.886,4.450,0.000
1606698255298770263,5.007,0.698,3.496,0.000
1606698255356232734,5.006,0.673,3.370,0.000
1606698255411043685,5.006,0.674,3.374,0.000
1606698255467637455,5.007,0.682,3.416,0.000
1606698255530245428,5.017,0.865,4.344,0.000
1606698255590241922,5.010,0.732,3.668,0.000
1606698255672915114,5.006,0.674,3.378,0.000
1606698255729725133,5.006,0.674,3.378,0.000
1606698255785297994,5.006,0.673,3.374,0.000
1606698255841803306,5.006,0.673,3.370,0.000
1606698255899452651,5.012,0.777,3.901,0.000
1606698255956286669,5.006,0.673,3.370,0.000
1606698256012707648,5.006,0.673,3.370,0.000
1606698256072527435,5.006,0.671,3.363,0.000
1606698256130687234,5.006,0.671,3.363,0.000
1606698256186191345,5.020,0.902,4.531,0.000
1606698256238356149,5.011,0.730,3.660,0.000
1606698256293348389,5.011,0.730,3.660,0.000
1606698256346030939,5.007,0.674,3.378,0.000
1606698256401841881,5.006,0.671,3.363,0.000
1606698256459132562,5.007,0.678,3.393,0.000
1606698256515762373,5.019,0.900,4.519,0.000
1606698256571398150,5.007,0.681,3.412,0.000
1606698256635903275,5.006,0.671,3.363,0.000
1606698256692073756,5.006,0.671,3.359,0.000
1606698256748815983,5.006,0.670,3.359,0.000
1606698256803619016,5.017,0.889,4.466,0.000
1606698256861468235,5.017,0.889,4.466,0.000
1606698256919665117,5.011,0.744,3.733,0.000
1606698256976628383,5.006,0.671,3.363,0.000
1606698257032556158,5.006,0.671,3.363,0.000
1606698257085773620,5.006,0.671,3.359,0.000
1606698257132945129,5.014,0.807,4.050,0.000
1606698257201078600,5.006,0.674,3.374,0.000
1606698257259183025,5.006,0.673,3.374,0.000
1606698257316064458,5.006,0.671,3.363,0.000
1606698257372650061,5.006,0.673,3.370,0.000
1606698257439217919,5.006,0.673,3.370,0.000
1606698257495959771,5.020,0.922,4.630,0.000
1606698257552661831,5.011,0.753,3.775,0.000
1606698257608458231,5.006,0.674,3.374,0.000
1606698257665856161,5.006,0.673,3.370,0.000
1606698257722763511,5.006,0.678,3.397,0.000
1606698257783197834,5.021,0.942,4.733,0.000
1606698257838226323,5.006,0.683,3.420,0.000
1606698257892946149,5.006,0.673,3.374,0.000
1606698257955629704,5.006,0.673,3.370,0.000
1606698258008183755,5.006,0.674,3.374,0.000
1606698258061356425,5.006,0.673,3.374,0.000
1606698258114385972,5.019,0.899,4.515,0.000
1606698258171462362,5.007,0.692,3.466,0.000
1606698258230016574,5.006,0.674,3.378,0.000
1606698258292024842,5.006,0.677,3.389,0.000
1606698258349098024,5.006,0.672,3.366,0.000
1606698258404082264,5.015,0.838,4.206,0.000
1606698258459031087,5.012,0.772,3.874,0.000
1606698258516617015,5.006,0.672,3.366,0.000
1606698258573949112,5.006,0.672,3.370,0.000
1606698258629923469,5.006,0.671,3.359,0.000
1606698258682970807,5.006,0.670,3.359,0.000
1606698258738344335,5.010,0.722,3.622,0.000
1606698258798129496,5.006,0.676,3.386,0.000
1606698258863935193,5.006,0.672,3.366,0.000
1606698258916304995,5.006,0.671,3.359,0.000
1606698258969813538,5.006,0.670,3.355,0.000
1606698259031089645,5.007,0.677,3.389,0.000
1606698259086877545,5.019,0.900,4.523,0.000
1606698259142740445,5.006,0.673,3.370,0.000
1606698259197667976,5.006,0.670,3.359,0.000
1606698259252144636,5.006,0.670,3.359,0.000
1606698259316520844,5.006,0.670,3.359,0.000
1606698259373285111,5.019,0.895,4.500,0.000
1606698259436805618,5.007,0.685,3.431,0.000
1606698259488863005,5.006,0.675,3.382,0.000
1606698259541815219,5.006,0.673,3.370,0.000
1606698259598754651,5.006,0.672,3.366,0.000
1606698259654075763,5.006,0.672,3.366,0.000
1606698259709973454,5.016,0.857,4.305,0.000
1606698259762036757,5.009,0.715,3.584,0.000
1606698259828605532,5.006,0.674,3.374,0.000
1606698259881363205,5.006,0.673,3.370,0.000
1606698259941661153,5.006,0.672,3.366,0.000
1606698260004168793,5.011,0.758,3.802,0.000
1606698260060497730,5.014,0.816,4.096,0.000
1606698260126539174,5.006,0.674,3.378,0.000
1606698260182729779,5.006,0.673,3.366,0.000
1606698260235827699,5.006,0.673,3.366,0.000
1606698260293184337,5.006,0.669,3.351,0.000
1606698260348127326,5.010,0.709,3.557,0.000
1606698260401246038,5.010,0.731,3.664,0.000
1606698260457586975,5.007,0.688,3.443,0.000
1606698260522014557,5.006,0.671,3.363,0.000
1606698260579772692,5.006,0.676,3.386,0.000
1606698260648008911,5.007,0.676,3.386,0.000
1606698260701249622,5.009,0.700,3.508,0.000
1606698260756077654,5.006,0.671,3.359,0.000
1606698260809643571,5.006,0.671,3.359,0.000
1606698260866118882,5.006,0.670,3.355,0.000
1606698260929305432,5.006,0.669,3.355,0.000
1606698260981889148,5.019,0.917,4.607,0.000
1606698261034555655,5.007,0.685,3.431,0.000
1606698261092846535,5.006,0.671,3.359,0.000
1606698261150202755,5.006,0.671,3.363,0.000
1606698261214988043,5.006,0.671,3.359,0.000
1606698261270113280,5.019,0.810,4.069,0.000
1606698261322848662,5.010,0.720,3.607,0.000
1606698261377761276,5.010,0.696,3.607,0.000
1606698261434479126,5.009,0.696,3.489,0.000
1606698261490362650,5.006,0.672,3.366,0.000
1606698261543697110,5.006,0.674,3.378,0.000
1606698261603045439,5.015,0.761,3.817,0.000
1606698261658605299,5.023,1.348,6.771,0.000
1606698261719495700,5.024,1.797,9.031,0.000
1606698261776547923,5.014,1.828,9.168,0.000
1606698261828107146,4.996,1.855,9.275,0.000
1606698261880649988,4.994,1.862,9.306,0.000
1606698261936641010,4.994,1.679,8.412,0.000
1606698261994281520,5.010,1.679,8.412,0.000
1606698262046849861,5.016,1.721,8.638,0.000
1606698262099576700,5.016,1.727,8.668,0.000
1606698262161699091,5.016,1.730,8.683,0.000
1606698262217886570,5.017,1.689,8.477,0.000
1606698262277415815,5.017,1.638,8.222,0.000
1606698262331244688,5.031,0.993,5.000,0.000
1606698262385327016,5.031,0.991,4.989,0.000
1606698262438546894,5.031,0.989,4.981,0.000
1606698262494275710,5.031,0.987,4.966,0.000
1606698262552416924,5.020,1.220,6.126,0.000
1606698262609241523,5.015,1.425,7.149,0.000
1606698262661597448,5.020,1.369,6.874,0.000
1606698262726629650,5.019,1.372,6.889,0.000
1606698262789664993,5.019,1.373,6.893,0.000
1606698262840429639,5.021,1.611,8.092,0.000
1606698262897135031,5.021,1.783,8.954,0.000
1606698262948463506,5.021,1.776,8.920,0.000
1606698263003346662,5.020,1.786,8.970,0.000
1606698263064539852,5.019,1.788,8.981,0.000
1606698263121454158,5.017,1.793,9.004,0.000
1606698263178552213,5.011,1.547,7.756,0.000
1606698263233039164,5.015,1.566,7.855,0.000
1606698263293280944,5.016,1.490,7.477,0.000
1606698263350529081,5.014,1.565,7.851,0.000
1606698263401548850,5.015,1.519,7.626,0.000
1606698263451839792,5.015,1.705,8.557,0.000
1606698263501824735,5.015,1.701,8.535,0.000
1606698263558027881,5.015,1.710,8.584,0.000
1606698263615569891,5.015,1.708,8.569,0.000
1606698263671662704,5.015,1.708,8.573,0.000
1606698263724163961,5.006,1.762,8.825,0.000
1606698263780225191,4.991,1.827,9.122,0.000
1606698263841640587,4.987,1.863,9.298,0.000
1606698263903823561,4.990,1.844,9.206,0.000
1606698263959613251,4.986,1.864,9.298,0.000
1606698264015549940,4.989,1.890,9.435,0.000
1606698264071867626,4.989,1.882,9.390,0.000
1606698264134635886,4.989,1.893,9.451,0.000
1606698264187843638,4.987,1.892,9.443,0.000
1606698264243601870,4.989,1.903,9.496,0.000
1606698264294653430,4.989,1.911,9.538,0.000
1606698264355380165,4.991,1.938,9.680,0.000
1606698264425857615,4.991,1.939,9.683,0.000
1606698264481873553,4.991,1.929,9.634,0.000
1606698264537427162,4.991,1.925,9.611,0.000
1606698264594034887,4.991,1.943,9.702,0.000
1606698264665644579,4.991,1.945,9.714,0.000
1606698264718168044,4.991,1.948,9.729,0.000
1606698264774286106,4.991,1.948,9.729,0.000
1606698264830335752,4.991,1.950,9.741,0.000
1606698264887490723,4.990,1.927,9.619,0.000
1606698264955211445,4.989,1.914,9.554,0.000
1606698265008854819,4.989,1.926,9.615,0.000
1606698265060738455,4.989,1.926,9.615,0.000
1606698265113697917,4.989,1.929,9.626,0.000
1606698265165207098,4.990,1.945,9.710,0.000
1606698265231942536,4.991,1.948,9.729,0.000
1606698265287890974,4.990,1.951,9.741,0.000
1606698265342021802,4.990,1.951,9.741,0.000
1606698265398515569,4.991,1.953,9.752,0.000
1606698265456181327,4.991,1.958,9.783,0.000
1606698265520078537,4.991,1.960,9.790,0.000
1606698265571482636,4.991,1.965,9.813,0.000
1606698265627468074,4.992,1.963,9.802,0.000
1606698265684226714,4.991,1.954,9.756,0.000
1606698265737205342,4.991,1.954,9.760,0.000
1606698265793245780,4.991,1.961,9.790,0.000
1606698265847966561,4.991,1.956,9.771,0.000
1606698265900699358,4.991,1.956,9.771,0.000
1606698265955599388,4.991,1.964,9.809,0.000
1606698266016071416,4.991,1.967,9.825,0.000
1606698266074953373,4.990,1.960,9.783,0.000
1606698266131407765,4.990,1.939,9.680,0.000
1606698266184248811,4.990,1.955,9.760,0.000
1606698266236290738,4.990,1.966,9.817,0.000
1606698266297330678,4.991,1.970,9.840,0.000
1606698266354251525,4.991,1.972,9.848,0.000
1606698266410276545,4.990,1.972,9.844,0.000
1606698266464082375,4.990,1.972,9.844,0.000
1606698266515891387,4.990,1.961,9.790,0.000
1606698266585655134,4.989,1.953,9.752,0.000
1606698266646047579,4.990,1.976,9.867,0.000
1606698266701864018,4.990,1.977,9.870,0.000
1606698266756040095,4.990,1.978,9.874,0.000
1606698266810372962,4.990,1.979,9.878,0.000
1606698266872071147,4.989,1.966,9.813,0.000
1606698266925226065,4.989,1.971,9.836,0.000
1606698266978681814,4.989,1.980,9.882,0.000
1606698267033650510,4.989,1.980,9.882,0.000
1606698267088547539,4.989,1.980,9.882,0.000
1606698267156626090,4.989,1.978,9.870,0.000
1606698267215892211,4.989,1.974,9.851,0.000
1606698267271852690,4.989,1.980,9.878,0.000
1606698267436127573,4.989,1.976,9.863,0.000
1606698267938641937,4.989,1.986,9.912,0.000
1606698268439326771,4.987,1.978,9.874,0.000
1606698268941224054,4.989,1.986,9.912,0.000
1606698269438438871,4.987,1.980,9.882,0.000
1606698269940684356,4.989,1.982,9.890,0.000
1606698270443084880,4.987,1.980,9.882,0.000
1606698270936480099,4.989,1.990,9.928,0.000
1606698271439123159,4.987,1.982,9.890,0.000
1606698271939902567,4.987,1.982,9.890,0.000
1606698272439958354,4.987,1.984,9.901,0.000
1606698272937095412,4.987,1.991,9.935,0.000
1606698273438572560,4.987,1.991,9.939,0.000
1606698273937850682,4.986,1.976,9.855,0.000
1606698274438564125,4.987,1.993,9.947,0.000
1606698274939787854,4.987,1.994,9.951,0.000
1606698275439486593,4.987,1.997,9.966,0.000
1606698275947137061,4.986,1.978,9.870,0.000
1606698276443141535,4.987,1.995,9.954,0.000
1606698276939437964,4.986,1.997,9.966,0.000
1606698277438760909,4.984,1.988,9.916,0.000
1606698277940004130,4.985,1.989,9.924,0.000
1606698278440828019,4.983,1.993,9.935,0.000
1606698278941045120,4.983,2.002,9.981,0.000
1606698279439978729,4.981,1.998,9.958,0.000
1606698279938840297,4.980,2.000,9.966,0.000
1606698280441058211,4.981,1.999,9.962,0.000
1606698280940264815,4.981,2.006,9.996,0.000
1606698281440749114,4.981,2.004,9.989,0.000
1606698281945762920,4.980,2.008,10.004,0.000
1606698282438490778,4.977,2.000,9.962,0.000
1606698282940852518,4.976,2.001,9.962,0.000
1606698283437719633,4.975,2.014,10.027,0.000
1606698283940385451,4.975,2.014,10.023,0.000
1606698284439016090,4.972,2.004,9.970,0.000
1606698284940639081,4.970,2.009,9.989,0.000
1606698285437028777,4.970,2.016,10.019,0.000
1606698285938949221,4.967,2.018,10.027,0.000
1606698286440164668,4.966,2.002,9.947,0.000
1606698286938274139,4.965,2.008,9.977,0.000
1606698287438615173,4.966,2.017,10.019,0.000
1606698287952708848,4.966,2.017,10.023,0.000
1606698288436940508,4.965,2.015,10.008,0.000
1606698288938912026,4.963,2.014,9.996,0.000
1606698289437843817,4.961,2.023,10.042,0.000
1606698289940145830,4.964,1.981,9.840,0.000
1606698290438615913,4.960,2.022,10.035,0.000
1606698290939195395,4.960,2.012,9.989,0.000
1606698291440544369,4.960,2.020,10.027,0.000
1606698291941334347,4.959,2.025,10.046,0.000
1606698292439203846,4.959,2.026,10.054,0.000
1606698292938786623,4.959,2.025,10.046,0.000
1606698293435315755,4.959,2.009,9.970,0.000
1606698293948551962,4.957,2.026,10.054,0.000
1606698294440554627,4.957,2.028,10.057,0.000
1606698294943797578,4.957,2.028,10.061,0.000
1606698295439271504,4.957,2.023,10.035,0.000
1606698295939668516,4.957,2.029,10.061,0.000
1606698296438051626,4.956,2.031,10.073,0.000
1606698296939809833,4.957,2.025,10.042,0.000
1606698297437821901,4.957,2.021,10.023,0.000
1606698297940718721,4.957,2.036,10.099,0.000
1606698298438220915,4.956,2.034,10.084,0.000
1606698298939037791,4.957,2.020,10.019,0.000
1606698299439130837,4.957,2.030,10.065,0.000
1606698299946099661,4.957,2.027,10.054,0.000
1606698300439979337,4.956,2.028,10.057,0.000
1606698300941110788,4.956,2.035,10.092,0.000
1606698301439558967,4.956,2.033,10.084,0.000
1606698301938627307,4.956,2.025,10.046,0.000
1606698302437873852,4.957,2.024,10.042,0.000
1606698302939413378,4.956,2.039,10.111,0.000
1606698303438640004,4.957,2.038,10.107,0.000
1606698303940239110,4.957,2.018,10.012,0.000
1606698304440493975,4.957,2.044,10.138,0.000
1606698304939753264,4.957,2.038,10.107,0.000
1606698305446645448,4.957,2.039,10.111,0.000
1606698305941705769,4.957,2.017,10.004,0.000
1606698306440785638,4.957,2.032,10.077,0.000
1606698306937989855,4.956,2.040,10.119,0.000
1606698307439943281,4.957,2.033,10.084,0.000
1606698307938594359,4.957,2.034,10.084,0.000
1606698308440977113,4.957,2.033,10.080,0.000
1606698308938788528,4.956,2.039,10.111,0.000
1606698309439136004,4.957,2.027,10.054,0.000
1606698309938548946,4.956,2.039,10.115,0.000
1606698310438474839,4.957,2.034,10.088,0.000
1606698310941493666,4.956,2.042,10.126,0.000
1606698311444225576,4.957,2.042,10.130,0.000
1606698311942062442,4.956,2.045,10.141,0.000
1606698312438045403,4.956,2.034,10.084,0.000
1606698312937933708,4.956,2.032,10.077,0.000
1606698313441349858,4.956,2.047,10.149,0.000
1606698313941028370,4.956,2.046,10.145,0.000
1606698314441906662,4.956,2.040,10.115,0.000
1606698314938585863,4.956,2.033,10.080,0.000
1606698315434526401,4.956,2.046,10.145,0.000
1606698315940197818,4.956,2.050,10.164,0.000
1606698316440197195,4.956,2.030,10.069,0.000
1606698316939011165,4.956,2.030,10.065,0.000
1606698317442799551,4.956,2.050,10.164,0.000
1606698317939438453,4.956,2.056,10.199,0.000
1606698318440779940,4.956,2.037,10.099,0.000
1606698318938123708,4.956,2.041,10.119,0.000
1606698319436579840,4.956,2.049,10.161,0.000
1606698319936595210,4.956,2.051,10.168,0.000
1606698320439091682,4.956,2.042,10.126,0.000
1606698320939875667,4.956,2.042,10.130,0.000
1606698321439040455,4.956,2.050,10.168,0.000
1606698321936712880,4.957,2.040,10.119,0.000
1606698322439230764,4.956,2.050,10.168,0.000
1606698322941470607,4.956,2.046,10.145,0.000
1606698323446963256,4.956,2.046,10.145,0.000
1606698323940613917,4.956,2.046,10.145,0.000
1606698324440795647,4.956,2.051,10.172,0.000
1606698324939399724,4.957,2.043,10.130,0.000
1606698325439950282,4.956,2.037,10.103,0.000
1606698325938076902,4.956,2.050,10.168,0.000
1606698326438807373,4.956,2.053,10.180,0.000
1606698326910044625,4.959,2.059,10.218,0.000
