TimeStamp,Total Power,CPU Power,GPU Power
1592836040198494,5.257,2.819,0.152
1592836040699742,5.635,3.2,0.152
1592836041200977,5.864,3.427,0.152
1592836041702166,5.94,3.503,0.152
1592836042203373,5.978,3.503,0.152
1592836042704607,5.978,3.503,0.152
1592836043205833,5.978,3.503,0.152
1592836043707049,5.94,3.503,0.152
1592836044208400,5.978,3.503,0.152
1592836044709632,5.978,3.503,0.152
1592836045211111,5.978,3.503,0.152
1592836045712492,5.978,3.503,0.152
1592836046213703,5.978,3.503,0.152
1592836046714905,5.94,3.503,0.152
1592836047216174,5.978,3.503,0.152
1592836047717414,5.978,3.503,0.152
1592836048218645,5.978,3.503,0.152
1592836048719870,5.978,3.579,0.152
1592836049221092,5.978,3.503,0.152
1592836049724780,5.978,3.503,0.152
1592836050226148,5.94,3.503,0.152
1592836050727447,5.978,3.503,0.152
1592836051228703,6.016,3.503,0.152
1592836051730317,5.978,3.503,0.152
1592836052231864,6.016,3.503,0.152
1592836052733220,5.978,3.503,0.152
1592836053234482,5.978,3.503,0.152
1592836053735920,5.978,3.503,0.152
1592836054237542,5.94,3.503,0.152
1592836054741359,5.94,3.503,0.152
1592836055242802,5.978,3.503,0.152
1592836055744473,5.978,3.503,0.152
1592836056246045,5.978,3.503,0.152
1592836056747608,5.978,3.503,0.152
1592836057249017,5.94,3.503,0.152
1592836057750265,5.978,3.503,0.152
1592836058251492,5.978,3.503,0.152
1592836058752725,5.978,3.503,0.152
1592836059253957,5.978,3.503,0.152
1592836059755207,5.978,3.503,0.152
1592836060256456,5.978,3.503,0.152
1592836060757666,5.978,3.503,0.152
1592836061258889,5.978,3.503,0.152
1592836061760132,5.978,3.503,0.152
1592836062261375,5.978,3.503,0.152
1592836062762631,5.978,3.579,0.152
1592836063263878,5.978,3.503,0.152
1592836063765133,5.978,3.503,0.152
1592836064266364,5.978,3.503,0.152
1592836064767575,5.978,3.579,0.152
1592836065268802,5.978,3.503,0.152
1592836065770048,5.978,3.503,0.152
1592836066271286,5.978,3.503,0.152
1592836066772526,5.978,3.503,0.152
1592836067273751,5.978,3.503,0.152
1592836067775025,5.978,3.503,0.152
1592836068276270,5.978,3.503,0.152
1592836068777512,5.978,3.503,0.152
1592836069278727,5.978,3.579,0.152
1592836069779937,5.978,3.503,0.152
1592836070281182,5.978,3.503,0.152
1592836070784367,5.978,3.503,0.152
1592836071285594,5.978,3.579,0.152
1592836071786799,5.978,3.579,0.152
1592836072288045,5.978,3.503,0.152
1592836072789279,5.94,3.503,0.152
1592836073290514,5.978,3.503,0.152
1592836073791737,5.94,3.503,0.152
1592836074293370,5.978,3.503,0.152
1592836074794608,5.978,3.503,0.152
1592836075295848,5.978,3.503,0.152
1592836075799109,5.978,3.503,0.152
1592836076300345,5.94,3.503,0.152
1592836076801546,5.978,3.503,0.152
1592836077302780,5.978,3.503,0.152
1592836077803996,5.978,3.503,0.152
1592836078305252,5.978,3.503,0.152
1592836078806479,5.978,3.503,0.152
1592836079307708,5.978,3.503,0.152
1592836079808952,5.978,3.503,0.152
1592836080310185,5.94,3.503,0.152
1592836080813631,5.978,3.503,0.152
1592836081314864,5.978,3.503,0.152
1592836081816059,5.978,3.503,0.152
1592836082317334,6.016,3.503,0.152
1592836082818599,5.978,3.503,0.152
1592836083319837,5.978,3.503,0.152
1592836083821063,5.978,3.503,0.152
1592836084322321,5.978,3.503,0.152
1592836084823540,5.978,3.579,0.152
1592836085324772,5.978,3.503,0.152
1592836085827948,5.978,3.503,0.152
1592836086329177,5.94,3.503,0.152
1592836086830380,5.978,3.503,0.152
1592836087331619,5.978,3.503,0.152
1592836087832861,5.94,3.503,0.152
1592836088334090,5.94,3.503,0.152
1592836088835332,5.978,3.503,0.152
1592836089336586,5.978,3.503,0.152
1592836089837823,5.978,3.503,0.152
1592836090339044,5.94,3.503,0.152
1592836090842252,5.978,3.503,0.152
1592836091343488,5.978,3.503,0.152
1592836091844721,5.978,3.503,0.152
1592836092345944,5.978,3.503,0.152
1592836092847184,5.978,3.503,0.152
1592836093348424,5.978,3.503,0.152
1592836093849640,5.978,3.503,0.152
1592836094350861,5.978,3.503,0.152
1592836094852067,5.978,3.503,0.152
1592836095353312,6.016,3.503,0.152
1592836095856511,5.978,3.579,0.152
1592836096357729,5.978,3.503,0.152
1592836096858968,5.978,3.503,0.152
1592836097360212,6.016,3.503,0.152
1592836097861421,5.978,3.579,0.152
1592836098362652,5.978,3.579,0.152
1592836098863908,5.978,3.503,0.152
1592836099365168,6.016,3.503,0.152
1592836099866405,5.978,3.503,0.152
