timestamp	VIRTUAL_SCALING	CPU0_F	CPU1_F	CPU2_F	CPU3_F	CPU4_F	CPU5_F	GPU_FREQ	CPU_GOVERNOR	EMC_F	TEMP0	TEMP1	TEMP2	TEMP3	TEMP4	TEMP5	TEMP6	TEMP7
1592953583738297378	1	1881	1574	1574	1881	1881	1881	114750000	performance	1866	31	31	28	31	27	26	100	30
1592953583778910689 	0	1878	1574	1574	1877	1881	1879	114750000	performance	1866	31	31	29	30	27	26	100	30
1592953585533394603	1	1881	1574	1574	1881	1881	1881	114750000	performance	1866	31	31	29	31	27	26	100	30
1592953585749410699 	0	1884	1574	1574	1882	1882	1879	114750000	performance	1866	31	31	29	31	27	26	100	30
1592953587329888665	1	1881	1574	1574	1881	1881	1881	114750000	performance	1866	31	31	29	31	27	26	100	30
