TimeStamp,Total Power,CPU Power,GPU Power
1592953622907771,3.01,0.686,0.152
1592953623409407,2.439,0.838,0.152
1592953623911238,2.516,0.915,0.152
1592953624413013,2.515,0.915,0.152
1592953624914641,2.591,0.915,0.152
1592953625416330,2.591,0.915,0.152
1592953625918176,2.439,0.915,0.152
1592953626419789,2.248,0.915,0.152
1592953626921246,2.173,0.915,0.152
1592953627422714,2.135,0.915,0.152
1592953627924181,2.173,0.915,0.152
1592953628425599,2.211,0.991,0.152
1592953628927525,2.135,0.915,0.152
1592953629429185,2.097,0.915,0.152
1592953629930867,2.135,0.915,0.152
1592953630432389,2.058,0.838,0.152
1592953630933681,1.792,0.686,0.152
