timestamp	VIRTUAL_SCALING	CPU0_F	CPU1_F	CPU2_F	CPU3_F	CPU4_F	CPU5_F	GPU_FREQ	CPU_GOVERNOR	EMC_F	TEMP0	TEMP1	TEMP2	TEMP3	TEMP4	TEMP5	TEMP6	TEMP7
1592952358468088180	1	652	806	806	652	652	652	114750000	performance	665	27	27	26	27	25	23	100	26
1592952358574029467 	0	652	806	806	652	652	653	114750000	performance	665	27	27	26	27	25	23	100	26
1592952360183422847	1	652	806	806	652	652	652	114750000	performance	665	27	27	26	27	25	23	100	26
1592952360270277899 	0	653	806	805	653	652	652	114750000	performance	665	27	27	26	27	25	23	100	26
1592952361880417778	1	652	806	806	652	652	652	114750000	performance	665	27	27	26	27	25	23	100	27
1592952361967646879 	0	653	806	806	653	652	652	114750000	performance	665	27	27	26	27	25	23	100	27
1592952363578134440	1	652	806	806	652	652	652	114750000	performance	665	27	27	26	27	25	23	100	26
1592952363666469849 	0	652	806	806	653	652	653	114750000	performance	665	27	27	26	27	25	23	100	26
1592952365276325221	1	652	806	806	652	652	652	114750000	performance	665	27	27	26	27	25	23	100	26
1592952365364779990 	0	652	806	805	652	652	653	114750000	performance	665	27	27	26	27	25	23	100	26
1592952366974407521	1	652	806	806	652	652	652	114750000	performance	665	27	27	26	27	25	23	100	26
1592952367061915663 	0	652	805	806	652	652	653	114750000	performance	665	27	27	26	27	25	23	100	26
1592952368673087807	1	652	806	806	652	652	652	114750000	performance	665	27	27	26	27	25	23	100	26
1592952368760198668 	0	652	806	806	652	652	652	114750000	performance	665	27	27	26	27	25	23	100	26
1592952370370878714	1	652	806	806	652	652	652	114750000	performance	665	27	27	26	27	25	23	100	26
1592952370457985159 	0	652	806	806	652	652	653	114750000	performance	665	27	27	26	27	25	23	100	26
1592952372069949017	1	652	806	806	652	652	652	114750000	performance	665	27	27	26	27	25	23	100	26
1592952372158404650 	0	652	806	806	653	652	652	114750000	performance	665	27	27	25	27	25	23	100	26
1592952373768337078	1	652	806	806	652	652	652	114750000	performance	665	27	27	26	27	25	23	100	26
1592952373856457382 	0	653	806	806	652	652	652	114750000	performance	665	27	27	26	27	25	23	100	26
1592952375466353714	1	652	806	806	652	652	652	114750000	performance	665	27	27	26	27	25	23	100	26
1592952375554428866 	0	652	806	806	652	653	653	114750000	performance	665	27	27	26	27	25	23	100	26
1592952377166044371	1	652	806	806	652	652	652	114750000	performance	665	27	27	26	27	25	23	100	26
1592952377253592002 	0	652	806	806	652	653	653	114750000	performance	665	27	27	26	27	25	23	100	26
1592952378863793710	1	652	806	806	652	652	652	114750000	performance	665	27	27	26	27	25	23	100	26
1592952379028648011 	0	652	806	806	653	653	653	114750000	performance	665	27	27	26	27	25	23	100	26
1592952380702792606	1	652	806	806	652	652	652	114750000	performance	665	27	27	26	27	25	23	100	26
1592952380790270796 	0	652	807	805	653	652	653	114750000	performance	665	27	27	26	27	25	23	100	26
1592952382401465596	1	652	806	806	652	652	652	114750000	performance	665	27	27	26	27	25	23	100	26
1592952382489542220 	0	652	806	805	652	653	653	114750000	performance	665	27	27	26	27	25	23	100	26
1592952384102417825	1	652	806	806	652	652	652	114750000	performance	665	27	27	26	27	25	23	100	26
1592952384191276979 	0	652	806	806	652	652	652	114750000	performance	665	27	27	26	27	25	23	100	26
1592952385802556227	1	652	806	806	652	652	652	114750000	performance	665	27	27	26	27	25	23	100	26
1592952385889899793 	0	652	806	806	652	652	652	114750000	performance	665	27	27	26	27	25	23	100	26
1592952387501504514	1	652	806	806	652	652	652	114750000	performance	665	27	27	26	27	25	23	100	26
1592952387590205652 	0	652	805	806	653	653	653	114750000	performance	665	27	27	26	27	25	23	100	26
1592952389202124294	1	652	806	806	652	652	652	114750000	performance	665	27	27	26	27	25	23	100	26
1592952389352404054 	0	652	806	806	653	652	653	114750000	performance	665	27	27	26	27	25	23	100	26
1592952391026824841	1	652	806	806	652	652	652	114750000	performance	665	27	27	26	27	25	23	100	26
1592952391195942355 	0	652	806	806	653	653	653	114750000	performance	665	27	27	26	27	25	23	100	26
1592952392900328995	1	652	806	806	652	652	652	114750000	performance	665	27	27	26	27	25	23	100	26
1592952392988044114 	0	652	806	806	652	652	652	114750000	performance	665	27	27	26	27	25	23	100	26
1592952394599003617	1	652	806	806	652	652	652	114750000	performance	665	27	27	26	27	25	23	100	26
1592952394688347349 	0	653	806	806	652	652	653	114750000	performance	665	27	27	26	27	25	23	100	26
1592952396320035844	1	652	806	806	652	652	652	114750000	performance	665	27	27	26	27	25	23	100	26
1592952396466116871 	0	652	806	805	654	652	652	114750000	performance	665	27	27	26	27	25	23	100	26
1592952398086463507	1	652	806	806	652	652	652	114750000	performance	665	27	27	26	27	25	23	100	26
1592952398174127810 	0	652	807	806	652	652	653	114750000	performance	665	27	27	26	27	25	23	100	26
1592952399786242292	1	652	806	806	652	652	652	114750000	performance	665	27	27	26	27	25	23	100	26
1592952399874119588 	0	652	806	806	653	653	652	114750000	performance	665	27	27	26	27	25	23	100	26
1592952401484301264	1	652	806	806	652	652	652	114750000	performance	665	27	27	26	27	25	23	100	26
1592952401571617374 	0	652	807	807	652	652	652	114750000	performance	665	27	27	26	27	25	23	100	26
1592952403182219404	1	652	806	806	652	652	652	114750000	performance	665	27	27	26	27	25	23	100	26
1592952403271110206 	0	652	806	806	652	652	652	114750000	performance	665	27	27	26	27	25	23	100	26
1592952404881675020	1	652	806	806	652	652	652	114750000	performance	665	27	27	26	27	25	23	100	26
1592952404969386779 	0	653	806	806	652	653	652	114750000	performance	665	27	27	26	27	25	23	100	26
1592952406580627499	1	652	806	806	652	652	652	114750000	performance	665	27	27	26	27	25	23	100	26
1592952406668704315 	0	652	806	806	653	652	652	114750000	performance	665	27	27	26	27	25	23	100	26
1592952408281142479	1	652	806	806	652	652	652	114750000	performance	665	27	27	26	27	25	23	100	26
1592952408368877822 	0	653	806	806	652	652	652	114750000	performance	665	27	27	26	27	25	23	100	26
1592952409979524524	1	652	806	806	652	652	652	114750000	performance	665	27	27	26	27	25	23	100	26
1592952410067969629 	0	652	806	806	652	652	652	114750000	performance	665	27	27	26	27	25	23	100	26
1592952411677877577	1	652	806	806	652	652	652	114750000	performance	665	27	27	26	27	25	23	100	26
1592952411788996928 	0	652	806	806	652	652	652	114750000	performance	665	27	27	26	27	25	23	100	26
1592952413400649361	1	652	806	806	652	652	652	114750000	performance	665	27	27	26	27	25	23	100	26
1592952413488226655 	0	652	806	806	652	652	653	114750000	performance	665	27	27	26	27	25	23	100	26
1592952415097531438	1	652	806	806	652	652	652	114750000	performance	665	27	27	26	27	25	23	100	26
1592952415184419738 	0	652	806	806	652	653	652	114750000	performance	665	27	27	26	27	25	23	100	26
1592952416795986545	1	652	806	806	652	652	652	114750000	performance	665	27	27	26	27	25	23	100	26
1592952416885747175 	0	652	806	806	652	652	653	114750000	performance	665	27	27	26	27	25	23	100	26
1592952418529351489	1	652	806	806	652	652	652	114750000	performance	665	27	27	26	27	25	23	100	26
1592952418663850209 	0	653	805	806	652	653	652	114750000	performance	665	27	27	26	27	25	23	100	26
1592952420277955615	1	652	806	806	652	652	652	114750000	performance	665	27	27	26	27	25	23	100	26
1592952420366496785 	0	652	806	806	652	653	652	114750000	performance	665	27	27	26	27	25	23	100	26
1592952421976752292	1	652	806	806	652	652	652	114750000	performance	665	27	27	25	27	25	23	100	26
1592952422065431286 	0	652	806	806	652	652	653	114750000	performance	665	27	27	26	27	25	23	100	26
1592952423675737257	1	652	806	806	652	652	652	114750000	performance	665	27	27	26	27	25	23	100	26
1592952423763141239 	0	652	806	805	652	652	652	114750000	performance	665	27	27	26	27	25	23	100	26
1592952425375187856	1	652	806	806	652	652	652	114750000	performance	665	27	27	25	27	25	23	100	26
1592952425520550577 	0	652	806	806	652	653	652	114750000	performance	665	27	27	26	27	25	23	100	26
1592952427194881098	1	652	806	806	652	652	652	114750000	performance	665	27	27	26	27	25	23	100	26
1592952427362400432 	0	652	806	806	653	652	652	114750000	performance	665	27	27	26	27	25	23	100	26
1592952429065490306	1	652	806	806	652	652	652	114750000	performance	665	27	27	26	27	25	23	100	26
1592952429153051057 	0	652	806	806	652	652	652	114750000	performance	665	27	27	26	27	25	23	100	26
1592952430762506241	1	652	806	806	652	652	652	114750000	performance	665	27	27	26	27	25	23	100	26
1592952430851788021 	0	654	806	806	651	652	651	114750000	performance	665	27	27	26	27	25	23	100	26
1592952432461839688	1	652	806	806	652	652	652	114750000	performance	665	27	27	25	27	25	23	100	26
1592952432549551479 	0	652	806	806	652	653	652	114750000	performance	665	27	27	26	27	25	23	100	26
1592952434160286827	1	652	806	806	652	652	652	114750000	performance	665	27	27	26	27	25	23	100	26
1592952434247784346 	0	652	806	806	652	652	652	114750000	performance	665	27	27	26	27	25	23	100	26
1592952435939943530	1	652	806	806	652	652	652	114750000	performance	665	27	27	26	27	25	23	100	26
1592952436033455755 	0	652	806	806	652	653	653	114750000	performance	665	27	27	26	27	25	23	100	26
1592952437644121791	1	652	806	806	652	652	652	114750000	performance	665	27	27	26	27	25	23	100	26
1592952437731686702 	0	653	806	806	652	653	652	114750000	performance	665	27	27	26	27	25	23	100	26
1592952439344151688	1	652	806	806	652	652	652	114750000	performance	665	27	27	26	27	25	23	100	26
1592952439431047540 	0	652	806	806	652	653	652	114750000	performance	665	27	27	26	27	25	23	100	26
1592952441042263466	1	652	806	806	652	652	652	114750000	performance	665	27	27	26	27	25	23	100	26
1592952441129768665 	0	652	805	806	652	652	652	114750000	performance	665	27	27	26	27	25	23	100	26
1592952442739985579	1	652	806	806	652	652	652	114750000	performance	665	27	27	26	27	25	23	100	26
1592952442827184921 	0	653	806	806	652	652	652	114750000	performance	665	27	27	26	27	25	23	100	26
1592952444439292914	1	652	806	806	652	652	652	114750000	performance	665	27	27	26	27	25	23	100	26
1592952444528484037 	0	653	806	806	652	652	652	114750000	performance	665	27	27	26	27	25	23	100	26
1592952446137702325	1	652	806	806	652	652	652	114750000	performance	665	27	27	26	27	25	23	100	26
1592952446224551362 	0	653	806	806	652	652	652	114750000	performance	665	27	27	26	27	25	23	100	26
1592952447834797813	1	652	806	806	652	652	652	114750000	performance	665	27	27	26	27	25	23	100	26
1592952447923088966 	0	652	805	806	653	652	652	114750000	performance	665	27	27	26	27	25	23	100	26
1592952449534535100	1	652	806	806	652	652	652	114750000	performance	665	27	27	26	27	25	23	100	26
1592952449621695018 	0	652	806	806	653	652	652	114750000	performance	665	27	27	26	27	25	23	100	26
1592952451232098237	1	652	806	806	652	652	652	114750000	performance	665	27	27	26	27	25	23	100	26
1592952451319123210 	0	653	807	806	652	652	652	114750000	performance	665	27	27	26	27	25	23	100	26
1592952452930894306	1	652	806	806	652	652	652	114750000	performance	665	27	27	26	27	25	23	100	26
1592952453018927282 	0	653	805	807	653	653	652	114750000	performance	665	27	27	26	27	25	23	100	26
1592952454629134213	1	652	806	806	652	652	652	114750000	performance	665	27	27	26	27	25	23	100	26
1592952454716703603 	0	652	806	806	652	652	653	114750000	performance	665	27	27	26	27	25	23	100	26
1592952456327487624	1	652	806	806	652	652	652	114750000	performance	665	27	27	26	27	25	23	100	26
1592952456416305530 	0	652	806	806	652	652	653	114750000	performance	665	27	27	26	27	25	23	100	26
1592952458025821291	1	652	806	806	652	652	652	114750000	performance	665	27	27	25	27	25	23	100	26
1592952458192858351 	0	652	806	806	652	652	652	114750000	performance	665	27	27	25	27	25	23	100	26
1592952459847704012	1	652	806	806	652	652	652	114750000	performance	665	27	27	26	27	25	23	100	26
1592952459937264257 	0	652	806	806	652	652	653	114750000	performance	665	27	27	26	27	25	23	100	26
1592952461547708949	1	652	806	806	652	652	652	114750000	performance	665	27	27	26	27	25	23	100	26
1592952461695842271 	0	652	806	806	652	652	652	114750000	performance	665	27	27	26	27	25	23	100	26
