
libgomp: Invalid value for environment variable OMP_PLACES
PARSEC Benchmark Suite Version 3.0-beta-20150206
[HOOKS] PARSEC Hooks Version 1.2
iperfect_roi_init
Num of Options: 10000000
Num of Runs: 100
Size of data: 400000000
iperfect_roi_begin
[HOOKS] Entering ROI
roi.time|97.5267
roi.joules|PLUG|400.13
[HOOKS] Leaving ROI
iperfect_roi_end
riff.time|97271
riff.iterations|1000000000
iperfect_roi_init
[HOOKS] Total time spent in ROI: 97.527s
[HOOKS] Terminating
