TimestampMillisecs	[VirtualCores]	Workers	HT	Frequency	ClockModulation	PForChunk	CurrentThroughput	SmoothedThroughput	CoeffVarThroughput	SmoothedLatency	SmoothedUtilization	CurrentWatts	SmoothedWatts	
558.356	[0,1,2,3,|4,5,6,7,|]	4|4|	1|1|	1400000|1400000|	100|100|	1|1|	9.4464e+06	9.4464e+06	0	0	0	3.53392	3.53392	
808.191	[0,1,2,3,|4,5,6,7,|]	4|4|	1|1|	1400000|1400000|	100|100|	1|1|	9.30171e+06	9.37405e+06	0.771743	0	0	4.09623	3.81507	
1062.47	[0,1,2,3,|4,5,6,7,|]	4|4|	1|1|	1400000|1400000|	100|100|	1|1|	7.7802e+06	8.57713e+06	9.31042	0	0	3.48867	3.65187	
1308.51	[0,1,2,3,|4,5,6,7,|]	4|4|	1|1|	1400000|1400000|	100|100|	1|1|	9.27817e+06	8.92765e+06	7.4445	0	0	3.42778	3.53982	
1558.47	[0,1,2,3,|4,5,6,7,|]	4|4|	1|1|	1400000|1400000|	100|100|	1|1|	9.45508e+06	9.19136e+06	5.86303	0	0	3.42384	3.48183	
2203.3	[0,|4,5,6,7,|]	1|4|	1|1|	1000000|1400000|	100|100|	1|1|	6.94646e+06	6.94646e+06	0	0	0	3.42863	3.42863	
2453.45	[0,|4,5,6,7,|]	1|4|	1|1|	1000000|1400000|	100|100|	1|1|	6.65318e+06	6.79982e+06	2.15649	0	0	4.10585	3.76724	
2704.11	[0,|4,5,6,7,|]	1|4|	1|1|	1000000|1400000|	100|100|	1|1|	6.92422e+06	6.86202e+06	1.76207	1766.67	22.2608	3.43892	3.60308	
2953.58	[0,|4,5,6,7,|]	1|4|	1|1|	1000000|1400000|	100|100|	1|1|	6.91303e+06	6.88753e+06	1.29542	883.336	11.1304	3.40139	3.50224	
3204	[0,|4,5,6,7,|]	1|4|	1|1|	1000000|1400000|	100|100|	1|1|	6.87315e+06	6.88034e+06	0.922887	441.668	5.56519	3.43904	3.47064	
3763.24	[0,1,2,3,|4,5,6,7,|]	4|4|	1|1|	1400000|1800000|	100|100|	1|1|	1.13496e+07	1.13496e+07	0	0	0	3.40031	3.40031	
4013.36	[0,1,2,3,|4,5,6,7,|]	4|4|	1|1|	1400000|1800000|	100|100|	1|1|	1.17162e+07	1.15329e+07	1.58921	0	0	3.39615	3.39823	
4263.46	[0,1,2,3,|4,5,6,7,|]	4|4|	1|1|	1400000|1800000|	100|100|	1|1|	1.16688e+07	1.16008e+07	1.26139	0	0	3.41	3.40411	
4523.55	[0,1,2,3,|4,5,6,7,|]	4|4|	1|1|	1400000|1800000|	100|100|	1|1|	1.11883e+07	1.13946e+07	2.02511	0	0	3.40784	3.40598	
4763.56	[0,1,2,3,|4,5,6,7,|]	4|4|	1|1|	1400000|1800000|	100|100|	1|1|	1.12077e+07	1.13011e+07	1.66376	0	0	3.45272	3.42935	
5331.01	[0,1,2,3,|4,|]	4|1|	1|1|	1400000|1000000|	100|100|	1|1|	4.37468e+06	4.37468e+06	0	0	0	3.39693	3.39693	
5580.49	[0,1,2,3,|4,|]	4|1|	1|1|	1400000|1000000|	100|100|	1|1|	4.50546e+06	4.44007e+06	1.47273	0	0	3.39293	3.39493	
5830.61	[0,1,2,3,|4,|]	4|1|	1|1|	1400000|1000000|	100|100|	1|1|	4.53887e+06	4.48947e+06	1.50715	0	0	3.39313	3.39403	
6080.78	[0,1,2,3,|4,|]	4|1|	1|1|	1400000|1000000|	100|100|	1|1|	4.5959e+06	4.54268e+06	1.5753	0	0	3.4287	3.41136	
6331.77	[0,1,2,3,|4,|]	4|1|	1|1|	1400000|1000000|	100|100|	1|1|	4.41794e+06	4.48031e+06	1.79261	0	0	3.38216	3.39676	
6900.87	[0,1,2,3,|4,5,6,|]	4|3|	1|1|	1300000|1300000|	100|100|	1|1|	7.61916e+06	7.61916e+06	0	0	0	3.39137	3.39137	
7144.53	[0,1,2,3,|4,5,6,|]	4|3|	1|1|	1300000|1300000|	100|100|	1|1|	7.27189e+06	7.44553e+06	2.33204	0	0	4.13178	3.76157	
7402.16	[0,1,2,3,|4,5,6,|]	4|3|	1|1|	1300000|1300000|	100|100|	1|1|	7.65787e+06	7.5517e+06	2.1494	0	0	3.45508	3.60833	
7644.82	[0,1,2,3,|4,5,6,|]	4|3|	1|1|	1300000|1300000|	100|100|	1|1|	7.6227e+06	7.5872e+06	1.58345	0	0	3.37966	3.49399	
7900.59	[0,1,2,3,|4,5,6,|]	4|3|	1|1|	1300000|1300000|	100|100|	1|1|	7.44043e+06	7.51381e+06	1.49403	0	0	3.38727	3.44063	
8477.88	[0,1,|4,5,6,7,|]	2|4|	1|1|	1200000|1400000|	100|100|	1|1|	7.8393e+06	7.8393e+06	0	0	0	3.37979	3.37979	
8731.27	[0,1,|4,5,6,7,|]	2|4|	1|1|	1200000|1400000|	100|100|	1|1|	7.71961e+06	7.77946e+06	0.769263	0	0	3.4151	3.39745	
8986	[0,1,|4,5,6,7,|]	2|4|	1|1|	1200000|1400000|	100|100|	1|1|	7.65463e+06	7.71704e+06	0.977149	0	0	3.5308	3.46412	
9230.64	[0,1,|4,5,6,7,|]	2|4|	1|1|	1200000|1400000|	100|100|	1|1|	7.7398e+06	7.72842e+06	0.705463	0	0	3.38968	3.4269	
9480.58	[0,1,|4,5,6,7,|]	2|4|	1|1|	1200000|1400000|	100|100|	1|1|	7.82572e+06	7.77707e+06	0.798189	0	0	3.40805	3.41748	
10058.4	[0,1,2,3,|4,5,6,|]	4|3|	1|1|	1300000|1400000|	100|100|	1|1|	7.99535e+06	7.99535e+06	0	0	0	3.38293	3.38293	
10309.6	[0,1,2,3,|4,5,6,|]	4|3|	1|1|	1300000|1400000|	100|100|	1|1|	7.93483e+06	7.96509e+06	0.379877	0	0	3.37406	3.37849	
10559.4	[0,1,2,3,|4,5,6,|]	4|3|	1|1|	1300000|1400000|	100|100|	1|1|	8.02706e+06	7.99608e+06	0.470942	0	0	3.37975	3.37912	
10808.3	[0,1,2,3,|4,5,6,|]	4|3|	1|1|	1300000|1400000|	100|100|	1|1|	7.91095e+06	7.95351e+06	0.631258	0	0	3.39236	3.38574	
11056.7	[0,1,2,3,|4,5,6,|]	4|3|	1|1|	1300000|1400000|	100|100|	1|1|	7.52421e+06	7.73886e+06	2.81133	0	0	3.37204	3.37889	
11627.5	[0,1,2,|4,5,6,7,|]	3|4|	1|1|	1300000|1500000|	100|100|	1|1|	9.09199e+06	9.09199e+06	0	0	0	3.55861	3.55861	
11877.5	[0,1,2,|4,5,6,7,|]	3|4|	1|1|	1300000|1500000|	100|100|	1|1|	9.30796e+06	9.19997e+06	1.17377	0	0	3.38132	3.46997	
12127.6	[0,1,2,|4,5,6,7,|]	3|4|	1|1|	1300000|1500000|	100|100|	1|1|	9.24443e+06	9.2222e+06	0.862347	0	0	3.38507	3.42752	
12377.8	[0,1,2,|4,5,6,7,|]	3|4|	1|1|	1300000|1500000|	100|100|	1|1|	9.27451e+06	9.24836e+06	0.670594	0	0	3.42237	3.42494	
12628.1	[0,1,2,|4,5,6,7,|]	3|4|	1|1|	1300000|1500000|	100|100|	1|1|	9.00683e+06	9.12759e+06	1.40759	0	0	3.39119	3.40807	
13197.2	[0,1,2,3,|4,5,6,7,|]	4|4|	1|1|	1400000|1400000|	100|100|	1|1|	8.80519e+06	8.80519e+06	0	0	0	3.52888	3.52888	
13447.3	[0,1,2,3,|4,5,6,7,|]	4|4|	1|1|	1400000|1400000|	100|100|	1|1|	9.72786e+06	9.26652e+06	4.97855	0	0	3.98707	3.75797	
13697.4	[0,1,2,3,|4,5,6,7,|]	4|4|	1|1|	1400000|1400000|	100|100|	1|1|	9.82281e+06	9.54467e+06	4.49148	0	0	3.35732	3.55765	
13947.5	[0,1,2,3,|4,5,6,7,|]	4|4|	1|1|	1400000|1400000|	100|100|	1|1|	9.84813e+06	9.6964e+06	3.49601	0	0	3.36454	3.4611	
14197.7	[0,1,2,3,|4,5,6,7,|]	4|4|	1|1|	1400000|1400000|	100|100|	1|1|	9.87507e+06	9.78573e+06	2.61408	0	0	3.40902	3.43506	
14788.7	[0,1,2,|4,5,6,7,|]	3|4|	1|1|	1300000|1700000|	100|100|	1|1|	1.00052e+07	1.00052e+07	0	0	0	3.3782	3.3782	
15039.7	[0,1,2,|4,5,6,7,|]	3|4|	1|1|	1300000|1700000|	100|100|	1|1|	9.71365e+06	9.85942e+06	1.47854	0	0	3.43855	3.40837	
15288.9	[0,1,2,|4,5,6,7,|]	3|4|	1|1|	1300000|1700000|	100|100|	1|1|	9.98232e+06	9.92087e+06	1.20962	0	0	4.24819	3.82828	
15539	[0,1,2,|4,5,6,7,|]	3|4|	1|1|	1300000|1700000|	100|100|	1|1|	1.00691e+07	9.99501e+06	1.12736	0	0	3.37018	3.59923	
15791	[0,1,2,|4,5,6,7,|]	3|4|	1|1|	1300000|1700000|	100|100|	1|1|	1.00579e+07	1.00265e+07	0.854361	0	0	4.07987	3.83955	
16361.7	[0,1,2,|4,5,6,7,|]	3|4|	1|1|	1300000|1800000|	100|100|	1|1|	1.0633e+07	1.0633e+07	0	0	0	3.36601	3.36601	
16611.9	[0,1,2,|4,5,6,7,|]	3|4|	1|1|	1300000|1800000|	100|100|	1|1|	1.0198e+07	1.04155e+07	2.08851	0	0	4.63699	4.0015	
16862	[0,1,2,|4,5,6,7,|]	3|4|	1|1|	1300000|1800000|	100|100|	1|1|	1.05831e+07	1.04993e+07	1.66823	0	0	3.36576	3.68363	
17112.3	[0,1,2,|4,5,6,7,|]	3|4|	1|1|	1300000|1800000|	100|100|	1|1|	1.05107e+07	1.0505e+07	1.18022	0	0	3.37883	3.53123	
17362.3	[0,1,2,|4,5,6,7,|]	3|4|	1|1|	1300000|1800000|	100|100|	1|1|	1.04279e+07	1.04664e+07	0.914992	0	0	3.36736	3.44929	
17977.6	[0,1,2,|4,5,6,7,|]	3|4|	1|1|	1300000|1600000|	100|100|	1|1|	9.68795e+06	9.68795e+06	0	0	0	4.35828	4.35828	
18227.7	[0,1,2,|4,5,6,7,|]	3|4|	1|1|	1300000|1600000|	100|100|	1|1|	9.71028e+06	9.69912e+06	0.115102	0	0	3.37686	3.86757	
18478.6	[0,1,2,|4,5,6,7,|]	3|4|	1|1|	1300000|1600000|	100|100|	1|1|	9.5649e+06	9.63201e+06	0.701528	0	0	3.37921	3.62339	
18728	[0,1,2,|4,5,6,7,|]	3|4|	1|1|	1300000|1600000|	100|100|	1|1|	9.65523e+06	9.64362e+06	0.50988	0	0	4.43068	4.02703	
18978.1	[0,1,2,|4,5,6,7,|]	3|4|	1|1|	1300000|1600000|	100|100|	1|1|	9.66303e+06	9.65333e+06	0.373949	0	0	3.3647	3.69587	
19526	[0,1,2,3,|4,5,6,7,|]	4|4|	1|1|	1400000|1600000|	100|100|	1|1|	1.02362e+07	1.02362e+07	0	0	0	3.36261	3.36261	
19776.3	[0,1,2,3,|4,5,6,7,|]	4|4|	1|1|	1400000|1600000|	100|100|	1|1|	1.04126e+07	1.03244e+07	0.854106	0	0	4.20956	3.78608	
20030.4	[0,1,2,3,|4,5,6,7,|]	4|4|	1|1|	1400000|1600000|	100|100|	1|1|	1.05878e+07	1.04561e+07	1.39363	0	0	3.39094	3.58851	
20276.4	[0,1,2,3,|4,5,6,7,|]	4|4|	1|1|	1400000|1600000|	100|100|	1|1|	1.00264e+07	1.02412e+07	2.32665	0	0	3.37027	3.47939	
20526.5	[0,1,2,3,|4,5,6,7,|]	4|4|	1|1|	1400000|1600000|	100|100|	1|1|	1.07942e+07	1.05177e+07	3.07831	0	0	3.36851	3.42395	
20792.3	[0,1,2,3,|4,5,6,7,|]	4|4|	1|1|	1400000|1600000|	100|100|	1|1|	1.07594e+07	1.06385e+07	2.43332	0	0	3.63109	3.52752	
21344.3	[0,1,2,3,|4,5,6,7,|]	4|4|	1|1|	1400000|1800000|	100|100|	1|1|	1.14402e+07	1.14402e+07	0	0	0	3.67241	3.67241	
21594.3	[0,1,2,3,|4,5,6,7,|]	4|4|	1|1|	1400000|1800000|	100|100|	1|1|	1.11179e+07	1.1279e+07	1.42869	0	0	3.40518	3.53879	
21848.8	[0,1,2,3,|4,5,6,7,|]	4|4|	1|1|	1400000|1800000|	100|100|	1|1|	1.08466e+07	1.10628e+07	2.20904	0	0	3.35613	3.44746	
22094.3	[0,1,2,3,|4,5,6,7,|]	4|4|	1|1|	1400000|1800000|	100|100|	1|1|	1.08864e+07	1.09746e+07	1.76789	0	0	3.37336	3.41041	
22343.9	[0,1,2,3,|4,5,6,7,|]	4|4|	1|1|	1400000|1800000|	100|100|	1|1|	1.16402e+07	1.13074e+07	3.18354	0	0	4.20937	3.80989	
22904.8	[0,1,2,3,|4,5,6,7,|]	4|4|	1|1|	1400000|1600000|	100|100|	1|1|	1.07237e+07	1.07237e+07	0	0	0	3.37113	3.37113	
23154.8	[0,1,2,3,|4,5,6,7,|]	4|4|	1|1|	1400000|1600000|	100|100|	1|1|	1.07403e+07	1.0732e+07	0.077508	0	0	3.37396	3.37255	
23404.9	[0,1,2,3,|4,5,6,7,|]	4|4|	1|1|	1400000|1600000|	100|100|	1|1|	1.067e+07	1.0701e+07	0.294708	0	0	3.36223	3.36739	
23655.4	[0,1,2,3,|4,5,6,7,|]	4|4|	1|1|	1400000|1600000|	100|100|	1|1|	1.0026e+07	1.03635e+07	3.26398	0	0	3.36882	3.3681	
23914.1	[0,1,2,3,|4,5,6,7,|]	4|4|	1|1|	1400000|1600000|	100|100|	1|1|	9.54543e+06	9.95445e+06	4.75994	0	0	3.78996	3.57903	
24501.5	[0,1,2,|4,5,6,|]	3|3|	1|1|	1300000|1600000|	100|100|	1|1|	7.79042e+06	7.79042e+06	0	0	0	3.36213	3.36213	
24742.8	[0,1,2,|4,5,6,|]	3|3|	1|1|	1300000|1600000|	100|100|	1|1|	7.91544e+06	7.85293e+06	0.795958	0	0	4.51313	3.93763	
25000.5	[0,1,2,|4,5,6,|]	3|3|	1|1|	1300000|1600000|	100|100|	1|1|	7.89816e+06	7.87554e+06	0.630402	0	0	3.36247	3.65005	
25242.9	[0,1,2,|4,5,6,|]	3|3|	1|1|	1300000|1600000|	100|100|	1|1|	7.87846e+06	7.877e+06	0.446064	0	0	3.36102	3.50554	
25502.7	[0,1,2,|4,5,6,|]	3|3|	1|1|	1300000|1600000|	100|100|	1|1|	7.85155e+06	7.86428e+06	0.35495	0	0	3.37614	3.44084	
26069	[0,1,2,3,|4,5,6,7,|]	4|4|	1|1|	1400000|1700000|	100|100|	1|1|	1.08934e+07	1.08934e+07	0	0	0	7.02604	7.02604	
26319.2	[0,1,2,3,|4,5,6,7,|]	4|4|	1|1|	1400000|1700000|	100|100|	1|1|	1.11861e+07	1.10398e+07	1.32551	0	0	6.09834	6.56219	
26569.4	[0,1,2,3,|4,5,6,7,|]	4|4|	1|1|	1400000|1700000|	100|100|	1|1|	1.12156e+07	1.11277e+07	1.22014	0	0	6.20155	6.38187	
26819.3	[0,1,2,3,|4,5,6,7,|]	4|4|	1|1|	1400000|1700000|	100|100|	1|1|	1.11917e+07	1.11597e+07	0.906886	0	0	9.37701	7.87944	
27073.8	[0,1,2,3,|4,5,6,7,|]	4|4|	1|1|	1400000|1700000|	100|100|	1|1|	1.10161e+07	1.10879e+07	0.914143	0	0	4.5668	6.22312	
27613.3	[0,1,2,3,|4,5,6,7,|]	4|4|	1|1|	1400000|1600000|	100|100|	1|1|	1.06335e+07	1.06335e+07	0	0	0	6.454	6.454	
27866.4	[0,1,2,3,|4,5,6,7,|]	4|4|	1|1|	1400000|1600000|	100|100|	1|1|	1.02735e+07	1.04535e+07	1.72216	0	0	6.28827	6.37113	
28113.8	[0,1,2,3,|4,5,6,7,|]	4|4|	1|1|	1400000|1600000|	100|100|	1|1|	1.03573e+07	1.04054e+07	1.30775	0	0	7.06674	6.71894	
28364.1	[0,1,2,3,|4,5,6,7,|]	4|4|	1|1|	1400000|1600000|	100|100|	1|1|	1.0588e+07	1.04967e+07	1.26368	0	0	7.11217	6.91555	
28614	[0,1,2,3,|4,5,6,7,|]	4|4|	1|1|	1400000|1600000|	100|100|	1|1|	1.07745e+07	1.06356e+07	1.57567	0	0	6.93327	6.92441	
29151.6	[0,1,2,3,|4,5,6,7,|]	4|4|	1|1|	1400000|1700000|	100|100|	1|1|	1.06944e+07	1.06944e+07	0	0	0	9.26452	9.26452	
29401.9	[0,1,2,3,|4,5,6,7,|]	4|4|	1|1|	1400000|1700000|	100|100|	1|1|	1.12261e+07	1.09602e+07	2.4256	0	0	7.80006	8.53229	
29652	[0,1,2,3,|4,5,6,7,|]	4|4|	1|1|	1400000|1700000|	100|100|	1|1|	1.11894e+07	1.10748e+07	1.98794	0	0	8.0638	8.29804	
29902.1	[0,1,2,3,|4,5,6,7,|]	4|4|	1|1|	1400000|1700000|	100|100|	1|1|	1.08591e+07	1.0967e+07	1.72688	0	0	8.06955	8.18379	
30152.2	[0,1,2,3,|4,5,6,7,|]	4|4|	1|1|	1400000|1700000|	100|100|	1|1|	1.06911e+07	1.0829e+07	1.77522	0	0	9.59349	8.88864	
30716.8	[0,1,2,|4,5,6,7,|]	3|4|	1|1|	1300000|1700000|	100|100|	1|1|	1.01435e+07	1.01435e+07	0	0	0	6.8902	6.8902	
30966.8	[0,1,2,|4,5,6,7,|]	3|4|	1|1|	1300000|1700000|	100|100|	1|1|	1.01603e+07	1.01519e+07	0.0828155	0	0	7.89973	7.39497	
31222.5	[0,1,2,|4,5,6,7,|]	3|4|	1|1|	1300000|1700000|	100|100|	1|1|	1.00067e+07	1.00793e+07	0.722352	0	0	8.81798	8.10647	
31467.1	[0,1,2,|4,5,6,7,|]	3|4|	1|1|	1300000|1700000|	100|100|	1|1|	1.01762e+07	1.01277e+07	0.697938	0	0	8.12003	8.11325	
31717.3	[0,1,2,|4,5,6,7,|]	3|4|	1|1|	1300000|1700000|	100|100|	1|1|	1.0172e+07	1.01499e+07	0.538457	0	0	8.11779	8.11552	
32283.9	[0,1,2,3,|4,5,6,7,|]	4|4|	1|1|	1400000|1700000|	100|100|	1|1|	1.05312e+07	1.05312e+07	0	0	0	8.60043	8.60043	
32791.6	[0,1,2,3,|4,5,6,7,|]	4|4|	1|1|	1400000|1700000|	100|100|	1|1|	1.01985e+07	1.03649e+07	1.60485	0	0	8.84049	8.72046	
33291.6	[0,1,2,3,|4,5,6,7,|]	4|4|	1|1|	1400000|1700000|	100|100|	1|1|	1.12576e+07	1.08112e+07	4.26971	0	0	8.88118	8.80082	
33791.6	[0,1,2,3,|4,5,6,7,|]	4|4|	1|1|	1400000|1700000|	100|100|	1|1|	1.14439e+07	1.11275e+07	4.08468	0	0	8.88696	8.84389	
34291.6	[0,1,2,3,|4,5,6,7,|]	4|4|	1|1|	1400000|1700000|	100|100|	1|1|	1.14395e+07	1.12835e+07	3.16608	0	0	8.87348	8.85869	
35291.5	[0,1,2,|4,5,6,7,|]	3|4|	1|1|	1300000|1600000|	100|100|	1|1|	9.81255e+06	9.81255e+06	0	0	0	7.87426	7.87426	
35791.5	[0,1,2,|4,5,6,7,|]	3|4|	1|1|	1300000|1600000|	100|100|	1|1|	9.8059e+06	9.80922e+06	0.0338964	0	0	7.86709	7.87067	
36291.6	[0,1,2,|4,5,6,7,|]	3|4|	1|1|	1300000|1600000|	100|100|	1|1|	9.87759e+06	9.84341e+06	0.348106	0	0	7.9146	7.89264	
36791.5	[0,1,2,|4,5,6,7,|]	3|4|	1|1|	1300000|1600000|	100|100|	1|1|	9.76549e+06	9.80445e+06	0.467924	0	0	7.90267	7.89765	
37291.5	[0,1,2,|4,5,6,7,|]	3|4|	1|1|	1300000|1600000|	100|100|	1|1|	9.71902e+06	9.76173e+06	0.549466	0	0	7.85432	7.87599	
38291.5	[0,1,2,3,|4,5,6,7,|]	4|4|	1|1|	1400000|1600000|	100|100|	1|1|	1.05009e+07	1.05009e+07	0	0	0	8.13118	8.13118	
38791.5	[0,1,2,3,|4,5,6,7,|]	4|4|	1|1|	1400000|1600000|	100|100|	1|1|	1.09885e+07	1.07447e+07	2.26909	0	0	8.11489	8.12304	
39291.5	[0,1,2,3,|4,5,6,7,|]	4|4|	1|1|	1400000|1600000|	100|100|	1|1|	1.06334e+07	1.0689e+07	1.69486	0	0	8.10305	8.11304	
39791.6	[0,1,2,3,|4,5,6,7,|]	4|4|	1|1|	1400000|1600000|	100|100|	1|1|	1.07439e+07	1.07165e+07	1.22246	0	0	8.11479	8.11392	
40291.6	[0,1,2,3,|4,5,6,7,|]	4|4|	1|1|	1400000|1600000|	100|100|	1|1|	1.05464e+07	1.06314e+07	1.18274	0	0	8.12999	8.12195	
41291.5	[0,1,2,3,|4,5,6,7,|]	4|4|	1|1|	1300000|1500000|	100|100|	1|1|	9.86806e+06	9.86806e+06	0	0	0	7.36283	7.36283	
41791.5	[0,1,2,3,|4,5,6,7,|]	4|4|	1|1|	1300000|1500000|	100|100|	1|1|	9.62421e+06	9.74613e+06	1.25102	0	0	7.3754	7.36912	
42291.4	[0,1,2,3,|4,5,6,7,|]	4|4|	1|1|	1300000|1500000|	100|100|	1|1|	9.9478e+06	9.84697e+06	1.34729	0	0	7.37029	7.3697	
42791.7	[0,1,2,3,|4,5,6,7,|]	4|4|	1|1|	1300000|1500000|	100|100|	1|1|	1.03015e+07	1.00742e+07	2.44053	0	0	7.37045	7.37008	
43291.5	[0,1,2,3,|4,5,6,7,|]	4|4|	1|1|	1300000|1500000|	100|100|	1|1|	1.02109e+07	1.01426e+07	1.84173	0	0	7.33839	7.35423	
44291.6	[0,1,2,3,|4,5,6,7,|]	4|4|	1|1|	1400000|1600000|	100|100|	1|1|	1.09967e+07	1.09967e+07	0	0	0	8.12033	8.12033	
44791.5	[0,1,2,3,|4,5,6,7,|]	4|4|	1|1|	1400000|1600000|	100|100|	1|1|	1.10066e+07	1.10017e+07	0.0449339	0	0	8.1323	8.12631	
45291.5	[0,1,2,3,|4,5,6,7,|]	4|4|	1|1|	1400000|1600000|	100|100|	1|1|	1.0973e+07	1.09873e+07	0.134134	0	0	8.10315	8.11473	
45791.5	[0,1,2,3,|4,5,6,7,|]	4|4|	1|1|	1400000|1600000|	100|100|	1|1|	1.01759e+07	1.05816e+07	3.83529	0	0	8.11061	8.11267	
46291.3	[0,1,2,3,|4,5,6,7,|]	4|4|	1|1|	1400000|1600000|	100|100|	1|1|	1.07317e+07	1.06567e+07	2.78337	0	0	8.14013	8.1264	
47291.5	[0,1,2,3,|4,5,6,7,|]	4|4|	1|1|	1400000|1500000|	100|100|	1|1|	1.00892e+07	1.00892e+07	0	0	0	7.50207	7.50207	
47791.4	[0,1,2,3,|4,5,6,7,|]	4|4|	1|1|	1400000|1500000|	100|100|	1|1|	1.01109e+07	1.01e+07	0.107022	0	0	7.50556	7.50382	
48291.6	[0,1,2,3,|4,5,6,7,|]	4|4|	1|1|	1400000|1500000|	100|100|	1|1|	1.01133e+07	1.01067e+07	0.10005	0	0	7.49708	7.50045	
48791.3	[0,1,2,3,|4,5,6,7,|]	4|4|	1|1|	1400000|1500000|	100|100|	1|1|	1.05802e+07	1.03434e+07	2.29012	0	0	7.50362	7.50204	
49291.3	[0,1,2,3,|4,5,6,7,|]	4|4|	1|1|	1400000|1500000|	100|100|	1|1|	1.00998e+07	1.02216e+07	2.02631	0	0	7.50811	7.50507	
50291.3	[0,1,2,3,|4,5,6,7,|]	4|4|	1|1|	1400000|1600000|	100|100|	1|1|	1.06496e+07	1.06496e+07	0	0	0	8.1285	8.1285	
50791.3	[0,1,2,3,|4,5,6,7,|]	4|4|	1|1|	1400000|1600000|	100|100|	1|1|	1.10013e+07	1.08254e+07	1.62428	0	0	8.11105	8.11977	
51291.4	[0,1,2,3,|4,5,6,7,|]	4|4|	1|1|	1400000|1600000|	100|100|	1|1|	1.03551e+07	1.05903e+07	2.5119	0	0	8.1514	8.13559	
51791.4	[0,1,2,3,|4,5,6,7,|]	4|4|	1|1|	1400000|1600000|	100|100|	1|1|	1.10177e+07	1.0804e+07	2.63527	0	0	8.12115	8.12837	
52291.4	[0,1,2,3,|4,5,6,7,|]	4|4|	1|1|	1400000|1600000|	100|100|	1|1|	1.06342e+07	1.07191e+07	2.03835	0	0	8.10391	8.11614	
52791.3	[0,1,2,3,|4,5,6,7,|]	4|4|	1|1|	1400000|1600000|	100|100|	1|1|	1.04178e+07	1.05684e+07	2.04193	0	0	8.132	8.12407	
53791.4	[0,1,2,|4,5,6,7,|]	3|4|	1|1|	1300000|1600000|	100|100|	1|1|	9.84132e+06	9.84132e+06	0	0	0	7.87092	7.87092	
54291.2	[0,1,2,|4,5,6,7,|]	3|4|	1|1|	1300000|1600000|	100|100|	1|1|	9.64797e+06	9.74464e+06	0.992079	0	0	7.93045	7.90068	
54791.2	[0,1,2,|4,5,6,7,|]	3|4|	1|1|	1300000|1600000|	100|100|	1|1|	9.57182e+06	9.65823e+06	1.14079	0	0	7.85102	7.87585	
55291.2	[0,1,2,|4,5,6,7,|]	3|4|	1|1|	1300000|1600000|	100|100|	1|1|	9.85114e+06	9.75469e+06	1.27107	0	0	7.85518	7.86552	
55791.2	[0,1,2,|4,5,6,7,|]	3|4|	1|1|	1300000|1600000|	100|100|	1|1|	9.84754e+06	9.80111e+06	1.0122	0	0	7.87011	7.86782	
56291.2	[0,1,2,|4,5,6,7,|]	3|4|	1|1|	1300000|1600000|	100|100|	1|1|	9.71261e+06	9.75686e+06	0.850064	0	0	7.88604	7.87693	
56791.4	[0,1,2,|4,5,6,7,|]	3|4|	1|1|	1300000|1600000|	100|100|	1|1|	9.67097e+06	9.71392e+06	0.748315	0	0	7.84845	7.86269	
57791.2	[0,1,2,|4,5,6,7,|]	3|4|	1|1|	1300000|1700000|	100|100|	1|1|	1.02314e+07	1.02314e+07	0	0	0	8.68345	8.68345	
58291.2	[0,1,2,|4,5,6,7,|]	3|4|	1|1|	1300000|1700000|	100|100|	1|1|	1.02469e+07	1.02392e+07	0.075671	0	0	8.62605	8.65475	
58791.2	[0,1,2,|4,5,6,7,|]	3|4|	1|1|	1300000|1700000|	100|100|	1|1|	1.02093e+07	1.02243e+07	0.15536	0	0	8.62996	8.64236	
59291.2	[0,1,2,|4,5,6,7,|]	3|4|	1|1|	1300000|1700000|	100|100|	1|1|	1.01627e+07	1.01935e+07	0.321222	0	0	8.6573	8.64983	
59791.3	[0,1,2,|4,5,6,7,|]	3|4|	1|1|	1300000|1700000|	100|100|	1|1|	1.0222e+07	1.02078e+07	0.26637	0	0	8.62375	8.63679	
60291.2	[0,1,2,|4,5,6,7,|]	3|4|	1|1|	1300000|1700000|	100|100|	1|1|	1.0236e+07	1.02219e+07	0.233297	0	0	8.62057	8.62868	
61291.3	[0,1,2,3,|4,5,6,7,|]	4|4|	1|1|	1300000|1700000|	100|100|	1|1|	1.07275e+07	1.07275e+07	0	0	0	8.74165	8.74165	
61791.3	[0,1,2,3,|4,5,6,7,|]	4|4|	1|1|	1300000|1700000|	100|100|	1|1|	1.07871e+07	1.07573e+07	0.276692	0	0	8.79474	8.7682	
62291.3	[0,1,2,3,|4,5,6,7,|]	4|4|	1|1|	1300000|1700000|	100|100|	1|1|	1.12322e+07	1.09947e+07	2.1682	0	0	8.82537	8.79678	
62791.2	[0,1,2,3,|4,5,6,7,|]	4|4|	1|1|	1300000|1700000|	100|100|	1|1|	1.11108e+07	1.10528e+07	1.61293	0	0	8.74979	8.77329	
63291.2	[0,1,2,3,|4,5,6,7,|]	4|4|	1|1|	1300000|1700000|	100|100|	1|1|	1.05153e+07	1.0784e+07	2.75242	0	0	8.76259	8.76794	
64291.3	[0,1,2,3,|4,5,6,7,|]	4|4|	1|1|	1300000|1800000|	100|100|	1|1|	1.16492e+07	1.16492e+07	0	0	0	9.68619	9.68619	
64791.3	[0,1,2,3,|4,5,6,7,|]	4|4|	1|1|	1300000|1800000|	100|100|	1|1|	1.16132e+07	1.16312e+07	0.15481	0	0	9.57733	9.63176	
65291.2	[0,1,2,3,|4,5,6,7,|]	4|4|	1|1|	1300000|1800000|	100|100|	1|1|	1.06645e+07	1.11478e+07	4.33744	0	0	9.68379	9.65777	
65791.2	[0,1,2,3,|4,5,6,7,|]	4|4|	1|1|	1300000|1800000|	100|100|	1|1|	1.14708e+07	1.13093e+07	3.34353	0	0	9.71406	9.68592	
66291.2	[0,1,2,3,|4,5,6,7,|]	4|4|	1|1|	1300000|1800000|	100|100|	1|1|	1.16071e+07	1.14582e+07	2.67081	0	0	9.7017	9.69381	
67291.2	[0,1,2,3,|4,5,6,7,|]	4|4|	1|1|	1400000|1700000|	100|100|	1|1|	1.09563e+07	1.09563e+07	0	0	0	8.98272	8.98272	
67791.2	[0,1,2,3,|4,5,6,7,|]	4|4|	1|1|	1400000|1700000|	100|100|	1|1|	1.13988e+07	1.11776e+07	1.97955	0	0	8.99949	8.99111	
68291.3	[0,1,2,3,|4,5,6,7,|]	4|4|	1|1|	1400000|1700000|	100|100|	1|1|	1.14167e+07	1.12971e+07	1.74316	0	0	8.94977	8.97044	
68791.3	[0,1,2,3,|4,5,6,7,|]	4|4|	1|1|	1400000|1700000|	100|100|	1|1|	1.09573e+07	1.11272e+07	1.97442	0	0	8.96239	8.96641	
69291.1	[0,1,2,3,|4,5,6,7,|]	4|4|	1|1|	1400000|1700000|	100|100|	1|1|	1.11956e+07	1.11614e+07	1.42513	0	0	8.95644	8.96143	
69791.2	[0,1,2,3,|4,5,6,7,|]	4|4|	1|1|	1400000|1700000|	100|100|	1|1|	1.10314e+07	1.10964e+07	1.17077	0	0	8.97651	8.96897	
70291.2	[0,1,2,3,|4,5,6,7,|]	4|4|	1|1|	1400000|1700000|	100|100|	1|1|	1.09881e+07	1.10423e+07	0.965541	0	0	8.95407	8.96152	
70791.1	[0,1,2,3,|4,5,6,7,|]	4|4|	1|1|	1400000|1700000|	100|100|	1|1|	1.13781e+07	1.12102e+07	1.64215	0	0	8.9814	8.97146	
71791.2	[0,1,2,3,|4,5,6,7,|]	4|4|	1|1|	1400000|1800000|	100|100|	1|1|	1.17984e+07	1.17984e+07	0	0	0	9.81209	9.81209	
72291.1	[0,1,2,3,|4,5,6,7,|]	4|4|	1|1|	1400000|1800000|	100|100|	1|1|	1.10138e+07	1.14061e+07	3.43957	0	0	9.85616	9.83413	
72791.3	[0,1,2,3,|4,5,6,7,|]	4|4|	1|1|	1400000|1800000|	100|100|	1|1|	1.18301e+07	1.16181e+07	3.00521	0	0	9.89439	9.86426	
73291.1	[0,1,2,3,|4,5,6,7,|]	4|4|	1|1|	1400000|1800000|	100|100|	1|1|	1.17515e+07	1.16848e+07	2.18857	0	0	9.85077	9.85752	
73791.1	[0,1,2,3,|4,5,6,7,|]	4|4|	1|1|	1400000|1800000|	100|100|	1|1|	1.13635e+07	1.15242e+07	2.09891	0	0	9.87813	9.86782	
74791.2	[0,1,2,3,|4,5,6,7,|]	4|4|	1|1|	1400000|1700000|	100|100|	1|1|	1.14946e+07	1.14946e+07	0	0	0	9.05784	9.05784	
75291.1	[0,1,2,3,|4,5,6,7,|]	4|4|	1|1|	1400000|1700000|	100|100|	1|1|	1.1401e+07	1.14478e+07	0.408866	0	0	9.02082	9.03933	
75791.2	[0,1,2,3,|4,5,6,7,|]	4|4|	1|1|	1400000|1700000|	100|100|	1|1|	1.06183e+07	1.10331e+07	3.7712	0	0	9.02415	9.03174	
76291.2	[0,1,2,3,|4,5,6,7,|]	4|4|	1|1|	1400000|1700000|	100|100|	1|1|	1.1206e+07	1.11195e+07	2.75777	0	0	9.04718	9.03946	
76791.1	[0,1,2,3,|4,5,6,7,|]	4|4|	1|1|	1400000|1700000|	100|100|	1|1|	1.14578e+07	1.12887e+07	2.43608	0	0	9.03997	9.03972	
77291.2	[0,1,2,3,|4,5,6,7,|]	4|4|	1|1|	1400000|1700000|	100|100|	1|1|	1.11941e+07	1.12414e+07	1.78025	0	0	8.97093	9.00532	
77791	[0,1,2,3,|4,5,6,7,|]	4|4|	1|1|	1400000|1700000|	100|100|	1|1|	1.06776e+07	1.09595e+07	2.8781	0	0	9.02955	9.01744	
78791	[0,1,2,3,|4,5,6,7,|]	4|4|	1|1|	1400000|1800000|	100|100|	1|1|	1.18848e+07	1.18848e+07	0	0	0	9.89925	9.89925	
79291	[0,1,2,3,|4,5,6,7,|]	4|4|	1|1|	1400000|1800000|	100|100|	1|1|	1.15462e+07	1.17155e+07	1.44527	0	0	9.87431	9.88678	
79791	[0,1,2,3,|4,5,6,7,|]	4|4|	1|1|	1400000|1800000|	100|100|	1|1|	1.12429e+07	1.14792e+07	2.30763	0	0	9.88576	9.88627	
80291.1	[0,1,2,3,|4,5,6,7,|]	4|4|	1|1|	1400000|1800000|	100|100|	1|1|	1.15658e+07	1.15225e+07	1.66841	0	0	9.94139	9.91383	
80791	[0,1,2,3,|4,5,6,7,|]	4|4|	1|1|	1400000|1800000|	100|100|	1|1|	1.19097e+07	1.17161e+07	2.01911	0	0	9.89937	9.9066	
82041.2	[0,1,2,3,|4,5,6,7,|]	4|4|	1|1|	1400000|1700000|	100|100|	1|1|	1.10146e+07	1.10146e+07	0	0	0	9.05939	9.05939	
82541.2	[0,1,2,3,|4,5,6,7,|]	4|4|	1|1|	1400000|1700000|	100|100|	1|1|	1.13789e+07	1.11968e+07	1.62694	0	0	9.03217	9.04578	
83041	[0,1,2,3,|4,5,6,7,|]	4|4|	1|1|	1400000|1700000|	100|100|	1|1|	1.09368e+07	1.10668e+07	1.65369	0	0	9.04866	9.04722	
83541.1	[0,1,2,3,|4,5,6,7,|]	4|4|	1|1|	1400000|1700000|	100|100|	1|1|	1.14678e+07	1.12673e+07	2.118	0	0	8.89092	8.96907	
84041	[0,1,2,3,|4,5,6,7,|]	4|4|	1|1|	1400000|1700000|	100|100|	1|1|	1.09648e+07	1.1116e+07	2.0384	0	0	9.02066	8.99487	
84541	[0,1,2,3,|4,5,6,7,|]	4|4|	1|1|	1400000|1700000|	100|100|	1|1|	1.09863e+07	1.10512e+07	1.56419	0	0	9.00488	8.99987	
85541	[0,1,2,3,|4,5,6,7,|]	4|4|	1|1|	1300000|1700000|	100|100|	1|1|	1.1184e+07	1.1184e+07	0	0	0	8.88996	8.88996	
86041	[0,1,2,3,|4,5,6,7,|]	4|4|	1|1|	1300000|1700000|	100|100|	1|1|	1.07477e+07	1.09658e+07	1.989	0	0	8.85488	8.87242	
86541.1	[0,1,2,3,|4,5,6,7,|]	4|4|	1|1|	1300000|1700000|	100|100|	1|1|	1.04498e+07	1.07078e+07	2.80716	0	0	8.89549	8.88395	
87041	[0,1,2,3,|4,5,6,7,|]	4|4|	1|1|	1300000|1700000|	100|100|	1|1|	1.10343e+07	1.08711e+07	2.46515	0	0	8.90122	8.89259	
87541.2	[0,1,2,3,|4,5,6,7,|]	4|4|	1|1|	1300000|1700000|	100|100|	1|1|	1.11676e+07	1.10193e+07	2.18349	0	0	8.89817	8.89538	
88541.1	[0,1,2,3,|4,5,6,7,|]	4|4|	1|1|	1400000|1700000|	100|100|	1|1|	1.09389e+07	1.09389e+07	0	0	0	9.0252	9.0252	
89041	[0,1,2,3,|4,5,6,7,|]	4|4|	1|1|	1400000|1700000|	100|100|	1|1|	1.14163e+07	1.11776e+07	2.13527	0	0	9.04271	9.03395	
89541	[0,1,2,3,|4,5,6,7,|]	4|4|	1|1|	1400000|1700000|	100|100|	1|1|	1.1484e+07	1.13308e+07	2.01153	0	0	9.02398	9.02897	
90040.9	[0,1,2,3,|4,5,6,7,|]	4|4|	1|1|	1400000|1700000|	100|100|	1|1|	1.11824e+07	1.12566e+07	1.57613	0	0	8.99521	9.01209	
90541.2	[0,1,2,3,|4,5,6,7,|]	4|4|	1|1|	1400000|1700000|	100|100|	1|1|	1.08893e+07	1.10729e+07	2.00875	0	0	9.02873	9.02041	
91041.1	[0,1,2,3,|4,5,6,7,|]	4|4|	1|1|	1400000|1700000|	100|100|	1|1|	1.12482e+07	1.11606e+07	1.61322	0	0	9.05489	9.03765	
92041	[0,1,2,3,|4,5,6,7,|]	4|4|	1|1|	1300000|1700000|	100|100|	1|1|	1.10643e+07	1.10643e+07	0	0	0	8.88837	8.88837	
92540.9	[0,1,2,3,|4,5,6,7,|]	4|4|	1|1|	1300000|1700000|	100|100|	1|1|	1.08234e+07	1.09438e+07	1.10062	0	0	8.88629	8.88733	
93041.1	[0,1,2,3,|4,5,6,7,|]	4|4|	1|1|	1300000|1700000|	100|100|	1|1|	1.0757e+07	1.08504e+07	1.16508	0	0	8.90685	8.89709	
93541.1	[0,1,2,3,|4,5,6,7,|]	4|4|	1|1|	1300000|1700000|	100|100|	1|1|	1.10295e+07	1.09399e+07	1.15659	0	0	8.88592	8.8915	
94041	[0,1,2,3,|4,5,6,7,|]	4|4|	1|1|	1300000|1700000|	100|100|	1|1|	1.0886e+07	1.0913e+07	0.856261	0	0	8.9141	8.9028	
95041.1	[0,1,2,|4,5,6,7,|]	3|4|	1|1|	1300000|1800000|	100|100|	1|1|	1.05883e+07	1.05883e+07	0	0	0	9.72214	9.72214	
95541	[0,1,2,|4,5,6,7,|]	3|4|	1|1|	1300000|1800000|	100|100|	1|1|	1.07326e+07	1.06604e+07	0.676733	0	0	9.63278	9.67746	
96041.1	[0,1,2,|4,5,6,7,|]	3|4|	1|1|	1300000|1800000|	100|100|	1|1|	1.07271e+07	1.06938e+07	0.569768	0	0	9.64204	9.65975	
96541.1	[0,1,2,|4,5,6,7,|]	3|4|	1|1|	1300000|1800000|	100|100|	1|1|	1.07372e+07	1.07155e+07	0.450264	0	0	9.66516	9.66245	
97041	[0,1,2,|4,5,6,7,|]	3|4|	1|1|	1300000|1800000|	100|100|	1|1|	1.04867e+07	1.06011e+07	1.12587	0	0	9.7387	9.70058	
