Timestamp,Voltage(V),Ampere(A),Power(W),Watt Hour
1606700185798883840,5.019,0.845,4.244,0.000
1606700185886852492,5.019,0.839,4.210,0.000
1606700185963386203,5.016,0.801,4.019,0.000
1606700186020203536,5.006,0.699,3.504,0.000
1606700186076544291,5.019,0.908,4.561,0.000
1606700186133460873,5.007,0.701,3.512,0.000
1606700186193387750,5.006,0.696,3.485,0.000
1606700186249849920,5.006,0.688,3.443,0.000
1606700186306898250,5.006,0.690,3.454,0.000
1606700186364135536,5.006,0.690,3.454,0.000
1606700186421182741,5.017,0.917,4.603,0.000
1606700186488523192,5.006,0.697,3.492,0.000
1606700186545331733,5.006,0.692,3.470,0.000
1606700186602497228,5.006,0.692,3.470,0.000
1606700186659900887,5.006,0.691,3.462,0.000
1606700186714142585,5.015,0.815,4.088,0.000
1606700186771062292,5.005,0.688,3.443,0.000
1606700186828078663,5.005,0.688,3.443,0.000
1606700186885634237,5.006,0.691,3.462,0.000
1606700186944162923,5.006,0.691,3.462,0.000
1606700187005615031,5.009,0.736,3.687,0.000
1606700187063262062,5.017,0.907,4.557,0.000
1606700187119807732,5.006,0.697,3.492,0.000
1606700187177015518,5.005,0.688,3.447,0.000
1606700187233901017,5.005,0.685,3.428,0.000
1606700187291043887,5.007,0.698,3.496,0.000
1606700187349129121,5.019,0.915,4.596,0.000
1606700187407171022,5.007,0.725,3.634,0.000
1606700187614968679,5.005,0.685,3.431,0.000
1606700187737930728,5.005,0.685,3.431,0.000
1606700187859969914,5.005,0.683,3.424,0.000
1606700187987904485,5.019,0.909,4.565,0.000
1606700188113352461,5.006,0.700,3.504,0.000
1606700188248285278,5.005,0.688,3.447,0.000
1606700188376009060,5.006,0.689,3.450,0.000
1606700188497851290,5.015,0.880,4.420,0.000
1606700188623132352,5.019,0.848,4.260,0.000
1606700188749340611,5.009,0.735,3.683,0.000
1606700188890884679,5.006,0.688,3.447,0.000
1606700189018264299,5.006,0.680,3.408,0.000
1606700189139096375,5.011,0.761,3.817,0.000
1606700189202053798,5.006,0.680,3.405,0.000
1606700189260190906,5.006,0.680,3.408,0.000
1606700189317376943,5.005,0.679,3.397,0.000
1606700189374858518,5.006,0.680,3.405,0.000
1606700189439409171,5.006,0.688,3.443,0.000
1606700189496086881,5.017,0.905,4.542,0.000
1606700189552908714,5.006,0.684,3.428,0.000
1606700189608025318,5.006,0.682,3.412,0.000
1606700189666589796,5.005,0.679,3.401,0.000
1606700189723039717,5.006,0.679,3.401,0.000
1606700189779781009,5.017,0.900,4.519,0.000
1606700189827381832,5.006,0.692,3.470,0.000
1606700189884130083,5.006,0.679,3.405,0.000
1606700189934253708,5.006,0.679,3.401,0.000
1606700190002419899,5.006,0.679,3.401,0.000
1606700190058462201,5.006,0.678,3.397,0.000
1606700190116282480,5.016,0.880,4.420,0.000
1606700190174667168,5.007,0.714,3.580,0.000
1606700190231523001,5.006,0.681,3.412,0.000
1606700190288420583,5.006,0.678,3.397,0.000
1606700190344465384,5.006,0.679,3.401,0.000
1606700190402671492,5.012,0.792,3.973,0.000
1606700190458801625,5.006,0.680,3.408,0.000
1606700190518613629,5.006,0.681,3.412,0.000
1606700190576546240,5.006,0.681,3.412,0.000
1606700190634167563,5.005,0.679,3.397,0.000
1606700190713619614,5.006,0.692,3.466,0.000
1606700190769046256,5.020,0.931,4.679,0.000
1606700190826873160,5.006,0.686,3.435,0.000
1606700190884178862,5.005,0.680,3.405,0.000
1606700190944766149,5.005,0.680,3.405,0.000
1606700190998847058,5.006,0.684,3.428,0.000
1606700191054050869,5.017,0.909,4.565,0.000
1606700191120251836,5.006,0.683,3.424,0.000
1606700191176438927,5.006,0.683,3.424,0.000
1606700191236181515,5.006,0.680,3.405,0.000
1606700191294641620,5.006,0.679,3.401,0.000
1606700191351101291,5.006,0.679,3.401,0.000
1606700191408398785,5.017,0.895,4.492,0.000
1606700191468910239,5.007,0.709,3.554,0.000
1606700191525362535,5.006,0.679,3.401,0.000
1606700191579117448,5.006,0.678,3.397,0.000
1606700191638148295,5.006,0.680,3.405,0.000
1606700191700178730,5.014,0.817,4.099,0.000
1606700191757603806,5.015,0.822,4.126,0.000
1606700191814037311,5.006,0.678,3.393,0.000
1606700191870107737,5.006,0.676,3.386,0.000
1606700191925615045,5.006,0.676,3.389,0.000
1606700191982426378,5.006,0.676,3.386,0.000
1606700192039052255,5.016,0.878,4.408,0.000
1606700192095636383,5.006,0.678,3.397,0.000
1606700192152431592,5.006,0.676,3.386,0.000
1606700192233610372,5.006,0.677,3.389,0.000
1606700192304545404,5.006,0.675,3.382,0.000
1606700192361481945,5.006,0.680,3.405,0.000
1606700192418206862,5.019,0.912,4.580,0.000
1606700192475112778,5.006,0.681,3.412,0.000
1606700192534966782,5.006,0.677,3.393,0.000
1606700192592114945,5.006,0.675,3.382,0.000
1606700192649111901,5.006,0.676,3.382,0.000
1606700192705624030,5.019,0.892,4.481,0.000
1606700192771436376,5.007,0.693,3.473,0.000
1606700192834546839,5.006,0.675,3.382,0.000
1606700192892516325,5.006,0.675,3.382,0.000
1606700192949813486,5.007,0.679,3.405,0.000
1606700193010100151,5.006,0.675,3.378,0.000
1606700193068701879,5.011,0.762,3.821,0.000
1606700193127676352,5.007,0.693,3.473,0.000
1606700193184677142,5.006,0.676,3.386,0.000
1606700193242438380,5.006,0.677,3.389,0.000
1606700193301923722,5.006,0.677,3.393,0.000
1606700193367041369,5.014,0.828,4.157,0.000
1606700193423984867,5.006,0.679,3.401,0.000
1606700193481963728,5.006,0.679,3.401,0.000
1606700193540742037,5.006,0.676,3.386,0.000
1606700193598909479,5.006,0.676,3.386,0.000
1606700193656339180,5.007,0.689,3.454,0.000
1606700193712403481,5.017,0.898,4.512,0.000
1606700193785981856,5.007,0.691,3.462,0.000
1606700193884975705,5.006,0.677,3.393,0.000
1606700193970027145,5.006,0.677,3.389,0.000
1606700194049257950,5.006,0.677,3.389,0.000
1606700194129816071,5.017,0.890,4.470,0.000
1606700194211357430,5.006,0.686,3.439,0.000
1606700194292475585,5.006,0.676,3.386,0.000
1606700194375858255,5.006,0.683,3.420,0.000
1606700194457210116,5.006,0.675,3.382,0.000
1606700194537872736,5.016,0.866,4.347,0.000
1606700194618898976,5.009,0.710,3.554,0.000
1606700194701461739,5.006,0.674,3.378,0.000
1606700194779850304,5.006,0.674,3.374,0.000
1606700194865458029,5.006,0.673,3.366,0.000
1606700194944235672,5.011,0.775,3.886,0.000
1606700195027694965,5.014,0.818,4.103,0.000
1606700195116714523,5.006,0.676,3.382,0.000
1606700195195959411,5.006,0.674,3.374,0.000
1606700195275902956,5.006,0.674,3.378,0.000
1606700195372646043,5.007,0.683,3.420,0.000
1606700195467664775,5.006,0.675,3.382,0.000
1606700195544864189,5.006,0.674,3.374,0.000
1606700195627876988,5.006,0.673,3.370,0.000
1606700195711237824,5.006,0.673,3.370,0.000
1606700195789813137,5.006,0.674,3.378,0.000
1606700195866755720,5.019,0.896,4.500,0.000
1606700195949079277,5.006,0.682,3.412,0.000
1606700196003685764,5.006,0.673,3.370,0.000
1606700196100220728,5.006,0.672,3.363,0.000
1606700196179322784,5.006,0.673,3.374,0.000
1606700196267182648,5.009,0.716,3.588,0.000
1606700196345552463,5.006,0.679,3.401,0.000
1606700196423609533,5.006,0.679,3.401,0.000
1606700196501173358,5.006,0.675,3.382,0.000
1606700196578217732,5.006,0.675,3.382,0.000
1606700196655427770,5.012,0.808,4.054,0.000
1606700196736193222,5.014,0.808,4.054,0.000
1606700196821718615,5.006,0.675,3.382,0.000
1606700196903699636,5.006,0.675,3.382,0.000
1606700197001249670,5.006,0.674,3.378,0.000
1606700197063864807,5.017,0.897,4.504,0.000
1606700197120223814,5.017,0.897,4.504,0.000
1606700197177245895,5.006,0.681,3.408,0.000
1606700197233935272,5.006,0.677,3.389,0.000
1606700197292494460,5.006,0.681,3.408,0.000
1606700197355296927,5.006,0.677,3.393,0.000
1606700197415900548,5.020,0.911,4.580,0.000
1606700197474021074,5.007,0.680,3.408,0.000
1606700197533263044,5.006,0.674,3.374,0.000
1606700197591390987,5.006,0.674,3.378,0.000
1606700197648746106,5.006,0.673,3.374,0.000
1606700197705566440,5.006,0.673,3.374,0.000
1606700197762127360,5.019,0.891,4.473,0.000
1606700197819785809,5.006,0.672,3.366,0.000
1606700197876253147,5.006,0.672,3.366,0.000
1606700197941679999,5.006,0.672,3.366,0.000
1606700197999073326,5.006,0.672,3.366,0.000
1606700198057935385,5.015,0.836,4.199,0.000
1606700198114421639,5.006,0.672,3.366,0.000
1606700198171512845,5.006,0.672,3.366,0.000
1606700198228431720,5.006,0.672,3.366,0.000
1606700198288642512,5.006,0.672,3.366,0.000
1606700198345413930,5.010,0.715,3.584,0.000
1606700198401449648,5.017,0.893,4.485,0.000
1606700198463493459,5.006,0.673,3.370,0.000
1606700198537029585,5.006,0.672,3.366,0.000
1606700198606645176,5.006,0.671,3.359,0.000
1606700198662894893,5.009,0.685,3.431,0.000
1606700198719093360,5.020,0.884,4.439,0.000
1606700198775719113,5.009,0.700,3.512,0.000
1606700198834503422,5.006,0.672,3.366,0.000
1606700198891839792,5.006,0.673,3.366,0.000
1606700198948867415,5.006,0.673,3.370,0.000
1606700199010091986,5.006,0.674,3.374,0.000
1606700199071754426,5.021,0.885,4.447,0.000
1606700199128485720,5.006,0.674,3.378,0.000
1606700199184493856,5.006,0.674,3.374,0.000
1606700199240594949,5.006,0.674,3.378,0.000
1606700199297674488,5.006,0.674,3.378,0.000
1606700199355404811,5.021,0.883,4.439,0.000
1606700199414651865,5.006,0.683,3.420,0.000
1606700199471698322,5.006,0.678,3.397,0.000
1606700199528342825,5.006,0.674,3.378,0.000
1606700199597744961,5.006,0.673,3.370,0.000
1606700199654442838,5.019,0.870,4.370,0.000
1606700199711663626,5.007,0.708,3.546,0.000
1606700199769272825,5.007,0.676,3.386,0.000
1606700199826280740,5.006,0.676,3.386,0.000
1606700199883982980,5.007,0.684,3.428,0.000
1606700199941952217,5.014,0.811,4.069,0.000
1606700199999059714,5.014,0.811,4.069,0.000
1606700200056075213,5.015,0.803,4.031,0.000
1606700200166413672,5.006,0.673,3.374,0.000
1606700200246850254,5.006,0.671,3.359,0.000
1606700200324032919,5.006,0.671,3.363,0.000
1606700200405046910,5.009,0.699,3.500,0.000
1606700200481992660,5.006,0.674,3.374,0.000
1606700200562083872,5.006,0.670,3.359,0.000
1606700200638373880,5.006,0.672,3.363,0.000
1606700200724557808,5.006,0.670,3.355,0.000
1606700200806122500,5.007,0.675,3.382,0.000
1606700200886275336,5.020,0.846,4.248,0.000
1606700200954141991,5.006,0.672,3.363,0.000
1606700201031506028,5.006,0.671,3.359,0.000
1606700201110150716,5.006,0.670,3.359,0.000
1606700201192456150,5.006,0.669,3.355,0.000
1606700201275587823,5.009,0.711,3.561,0.000
1606700201361353006,5.006,0.671,3.359,0.000
1606700201441926836,5.006,0.671,3.363,0.000
1606700201520358860,5.006,0.670,3.359,0.000
1606700201598353056,5.006,0.670,3.359,0.000
1606700201702880422,5.016,0.844,4.237,0.000
1606700201788099569,5.006,0.671,3.363,0.000
1606700201858930896,5.006,0.672,3.363,0.000
1606700201944038337,5.006,0.672,3.366,0.000
1606700202021257626,5.006,0.672,3.363,0.000
1606700202099532610,5.017,0.873,4.382,0.000
1606700202177502265,5.006,0.672,3.363,0.000
1606700202256683154,5.006,0.672,3.363,0.000
1606700202334718767,5.006,0.673,3.370,0.000
1606700202414136278,5.006,0.672,3.366,0.000
1606700202502198224,5.006,0.680,3.405,0.000
1606700202580450209,5.011,0.737,3.699,0.000
1606700202657733788,5.007,0.687,3.439,0.000
1606700202735703735,5.006,0.672,3.366,0.000
1606700202813478767,5.006,0.673,3.370,0.000
1606700202893893933,5.017,0.892,4.477,0.000
1606700202974032144,5.017,0.892,4.477,0.000
1606700203061187684,5.006,0.673,3.374,0.000
1606700203141918680,5.006,0.673,3.370,0.000
1606700203223955618,5.006,0.671,3.359,0.000
1606700203329799301,5.017,0.861,4.325,0.000
1606700203410131093,5.009,0.705,3.531,0.000
1606700203488366411,5.009,0.685,3.435,0.000
1606700203565868447,5.006,0.669,3.355,0.000
1606700203650993054,5.006,0.669,3.351,0.000
1606700203729247831,5.006,0.669,3.351,0.000
1606700203808330097,5.016,0.846,4.248,0.000
1606700203886063088,5.012,0.764,3.832,0.000
1606700203969345385,5.006,0.671,3.359,0.000
1606700204047129209,5.006,0.671,3.363,0.000
1606700204127686540,5.006,0.669,3.355,0.000
1606700204217108969,5.015,0.785,3.939,0.000
1606700204295396204,5.006,0.670,3.359,0.000
1606700204376510986,5.006,0.670,3.355,0.000
1606700204454732638,5.006,0.670,3.355,0.000
1606700204534177650,5.006,0.669,3.351,0.000
1606700204616527000,5.007,0.682,3.416,0.000
1606700204695670474,5.009,0.704,3.527,0.000
1606700204783832461,5.006,0.670,3.359,0.000
1606700204883807383,5.006,0.670,3.355,0.000
1606700204973948804,5.006,0.671,3.359,0.000
1606700205052534701,5.019,0.876,4.397,0.000
1606700205131110015,5.007,0.701,3.512,0.000
1606700205214727017,5.006,0.673,3.370,0.000
1606700205294990185,5.006,0.670,3.359,0.000
1606700205379481468,5.006,0.672,3.363,0.000
1606700205462555560,5.006,0.673,3.370,0.000
1606700205540712629,5.017,0.843,4.233,0.000
1606700205619932310,5.006,0.673,3.374,0.000
1606700205701309340,5.006,0.671,3.363,0.000
1606700205778140509,5.006,0.672,3.366,0.000
1606700205854695557,5.011,0.717,3.595,0.000
1606700205944635938,5.016,0.862,4.328,0.000
1606700206022700676,5.009,0.713,3.573,0.000
1606700206102009231,5.006,0.672,3.366,0.000
1606700206185686607,5.006,0.672,3.366,0.000
1606700206266020316,5.007,0.677,3.389,0.000
1606700206345760825,5.019,0.891,4.477,0.000
1606700206424349847,5.006,0.680,3.408,0.000
1606700206517107527,5.007,0.674,3.378,0.000
1606700206577713648,5.006,0.669,3.351,0.000
1606700206633554579,5.006,0.669,3.351,0.000
1606700206689993169,5.006,0.886,4.450,0.000
1606700206745743434,5.019,0.886,4.450,0.000
1606700206802934014,5.007,0.695,3.485,0.000
1606700206859533102,5.006,0.669,3.355,0.000
1606700206908398369,5.006,0.670,3.355,0.000
1606700206965182663,5.006,0.669,3.355,0.000
1606700207022828446,5.015,0.823,4.134,0.000
1606700207089338619,5.006,0.671,3.359,0.000
1606700207145135009,5.006,0.670,3.355,0.000
1606700207200731484,5.006,0.670,3.355,0.000
1606700207257515653,5.006,0.668,3.344,0.000
1606700207313726371,5.010,0.719,3.603,0.000
1606700207369294305,5.019,0.887,4.454,0.000
1606700207424516077,5.009,0.712,3.565,0.000
1606700207481100581,5.006,0.669,3.351,0.000
1606700207540875421,5.006,0.669,3.351,0.000
1606700207604558171,5.007,0.674,3.378,0.000
1606700207662071831,5.023,0.938,4.714,0.000
1606700207717856304,5.009,0.704,3.527,0.000
1606700207776677073,5.006,0.672,3.363,0.000
1606700207833591782,5.006,0.671,3.363,0.000
1606700207890623406,5.006,0.671,3.363,0.000
1606700207945198019,5.006,0.672,3.366,0.000
1606700208000114878,5.020,0.893,4.485,0.000
1606700208061821069,5.014,0.772,3.874,0.000
1606700208119529601,5.006,0.670,3.355,0.000
1606700208185516656,5.006,0.672,3.366,0.000
1606700208241364462,5.006,0.671,3.363,0.000
1606700208315127211,5.016,0.856,4.298,0.000
1606700208390126487,5.006,0.672,3.366,0.000
1606700208447149320,5.006,0.672,3.366,0.000
1606700208504344692,5.006,0.670,3.359,0.000
1606700208562446887,5.006,0.672,3.366,0.000
1606700208621988813,5.006,0.672,3.366,0.000
1606700208680044175,5.021,0.920,4.622,0.000
1606700208746480682,5.014,0.767,3.851,0.000
1606700208804448253,5.006,0.671,3.363,0.000
1606700208864174052,5.006,0.671,3.363,0.000
1606700208919570864,5.007,0.676,3.386,0.000
1606700208972229542,5.019,0.895,4.496,0.000
1606700209024962803,5.019,0.895,4.496,0.000
1606700209077670857,5.007,0.674,3.378,0.000
1606700209135655719,5.007,0.676,3.389,0.000
1606700209189876587,5.006,0.668,3.347,0.000
1606700209247482746,5.006,0.672,3.363,0.000
1606700209306451346,5.020,0.882,4.431,0.000
1606700209361390122,5.011,0.723,3.622,0.000
1606700209418680743,5.006,0.670,3.355,0.000
1606700209476290443,5.006,0.668,3.347,0.000
1606700209529332326,5.006,0.670,3.359,0.000
1606700209582170586,5.006,0.670,3.359,0.000
1606700209636825823,5.017,0.868,4.359,0.000
1606700209693364745,5.006,0.669,3.355,0.000
1606700209745488097,5.006,0.669,3.351,0.000
1606700209802710344,5.006,0.669,3.351,0.000
1606700209882146273,5.006,0.668,3.347,0.000
1606700209950406592,5.011,0.742,3.721,0.000
1606700210007012388,5.006,0.671,3.363,0.000
1606700210063099774,5.006,0.672,3.366,0.000
1606700210115616705,5.006,0.671,3.359,0.000
1606700210174221393,5.006,0.671,3.359,0.000
1606700210228185514,5.015,0.760,3.813,0.000
1606700210284246693,5.014,0.767,3.847,0.000
1606700210336906621,5.007,0.685,3.431,0.000
1606700210396838918,5.006,0.671,3.359,0.000
1606700210454447452,5.006,0.671,3.359,0.000
1606700210507064340,5.010,0.704,3.531,0.000
1606700210563471014,5.017,0.854,4.286,0.000
1606700210619370944,5.006,0.674,3.374,0.000
1606700210674712340,5.006,0.671,3.363,0.000
1606700210730040819,5.006,0.671,3.363,0.000
1606700210785126009,5.006,0.670,3.359,0.000
1606700210840054535,5.006,0.676,3.386,0.000
1606700210891011318,5.020,0.879,4.416,0.000
1606700210953307169,5.010,0.728,3.649,0.000
1606700211010529000,5.006,0.672,3.366,0.000
1606700211066736426,5.006,0.669,3.351,0.000
1606700211123171350,5.006,0.671,3.359,0.000
1606700211180239849,5.019,0.877,4.405,0.000
1606700211235081209,5.007,0.682,3.420,0.000
1606700211290053985,5.006,0.668,3.347,0.000
1606700211345847166,5.006,0.669,3.351,0.000
1606700211401482392,5.006,0.669,3.351,0.000
1606700211484819564,5.006,0.668,3.347,0.000
1606700211550952201,5.010,0.709,3.554,0.000
1606700211607730704,5.006,0.670,3.355,0.000
1606700211664203627,5.006,0.669,3.351,0.000
1606700211720176473,5.006,0.669,3.347,0.000
1606700211774834586,5.006,0.668,3.347,0.000
1606700211827422599,5.011,0.742,3.721,0.000
1606700211883151948,5.015,0.834,4.183,0.000
1606700211937993225,5.007,0.683,3.424,0.000
1606700211994298192,5.006,0.670,3.355,0.000
1606700212049607588,5.006,0.669,3.351,0.000
1606700212109398720,5.007,0.679,3.405,0.000
1606700212161646696,5.024,0.942,4.733,0.000
1606700212217400920,5.026,1.309,6.584,0.000
1606700212272125324,5.026,1.342,6.748,0.000
1606700212328431874,5.025,1.349,6.783,0.000
1606700212385378542,5.025,1.349,6.783,0.000
1606700212441422595,5.024,1.355,6.813,0.000
1606700212493620863,5.024,1.354,6.805,0.000
1606700212548187435,5.030,1.219,6.134,0.000
1606700212603039587,5.030,1.193,6.000,0.000
1606700212663463295,5.030,1.222,6.149,0.000
1606700212720149799,5.030,1.221,6.145,0.000
1606700212774025921,5.029,1.236,6.218,0.000
1606700212826730433,5.005,1.838,9.206,0.000
1606700212884395633,4.997,1.856,9.279,0.000
1606700212936922022,4.997,1.856,9.279,0.000
1606700212993919231,4.994,1.866,9.321,0.000
1606700213073614741,4.990,1.878,9.374,0.000
1606700213130938071,5.030,0.972,4.889,0.000
1606700213196566464,5.027,0.918,4.618,0.000
1606700213254206539,5.029,0.953,4.798,0.000
1606700213309020775,5.026,0.906,4.557,0.000
1606700213361592122,5.027,0.948,4.767,0.000
1606700213416806811,5.027,1.208,6.076,0.000
1606700213469120286,5.030,1.169,5.882,0.000
1606700213525448253,5.030,1.169,5.882,0.000
1606700213579371750,5.026,1.200,6.034,0.000
1606700213631117191,5.030,1.163,5.855,0.000
1606700213688229523,5.027,1.179,5.931,0.000
1606700213750544082,5.024,1.278,6.424,0.000
1606700213807612957,5.024,1.281,6.435,0.000
1606700213862735522,5.024,1.279,6.431,0.000
1606700213915435367,5.023,1.279,6.428,0.000
1606700213970997219,5.025,1.309,6.580,0.000
1606700214023755147,5.025,1.315,6.611,0.000
1606700214080229529,5.025,1.315,6.611,0.000
1606700214134661019,5.025,1.315,6.611,0.000
1606700214191621770,5.025,1.315,6.611,0.000
1606700214244221159,5.025,1.320,6.634,0.000
1606700214310251505,5.025,1.303,6.550,0.000
1606700214366753262,5.025,1.294,6.504,0.000
1606700214420535469,5.029,1.239,6.237,0.000
1606700214475085166,5.029,1.239,6.233,0.000
1606700214530392438,5.027,1.246,6.267,0.000
1606700214618152806,5.019,1.372,6.889,0.000
1606700214674874727,5.017,1.372,6.886,0.000
1606700214726514627,5.019,1.368,6.867,0.000
1606700214779541802,5.017,1.374,6.897,0.000
1606700214841475699,5.015,1.378,6.916,0.000
1606700214899228232,5.004,1.526,7.641,0.000
1606700214951713122,5.004,1.528,7.653,0.000
1606700215005222707,5.004,1.534,7.680,0.000
1606700215059644781,5.005,1.548,7.752,0.000
1606700215117347190,5.005,1.539,7.706,0.000
1606700215173698615,5.005,1.540,7.710,0.000
1606700215230045457,5.006,1.572,7.874,0.000
1606700215285233813,5.006,1.571,7.870,0.000
1606700215342588851,5.006,1.572,7.874,0.000
1606700215409151858,5.012,1.648,8.267,0.000
1606700215463944261,5.005,1.577,7.901,0.000
1606700215516482900,5.004,1.542,7.722,0.000
1606700215572545370,5.004,1.537,7.695,0.000
1606700215628653632,5.005,1.554,7.779,0.000
1606700215683819364,5.005,1.551,7.764,0.000
1606700215735383307,5.005,1.551,7.764,0.000
1606700215791890605,5.011,1.633,8.191,0.000
1606700215845080903,5.014,1.684,8.447,0.000
1606700215901373620,5.012,1.679,8.420,0.000
1606700215965534615,5.014,1.686,8.454,0.000
1606700216020249061,5.014,1.702,8.538,0.000
1606700216074709676,5.009,1.622,8.126,0.000
1606700216153556114,5.007,1.598,8.008,0.000
1606700216208486724,5.007,1.597,8.004,0.000
1606700216264530153,5.007,1.603,8.031,0.000
1606700216318309777,5.007,1.603,8.031,0.000
1606700216375621982,5.007,1.597,8.000,0.000
1606700216431653745,5.006,1.577,7.901,0.000
1606700216491350253,5.006,1.578,7.905,0.000
1606700216548093674,5.006,1.576,7.889,0.000
1606700216604464557,5.006,1.575,7.886,0.000
1606700216658274306,5.006,1.571,7.870,0.000
1606700216714336443,5.007,1.604,8.038,0.000
1606700216765554349,5.007,1.605,8.042,0.000
1606700216821955649,5.009,1.606,8.042,0.000
1606700216880858626,5.009,1.606,8.042,0.000
1606700216935782402,5.007,1.604,8.038,0.000
1606700216991898664,5.014,1.683,8.443,0.000
1606700217055348168,5.016,1.731,8.687,0.000
1606700217107780142,5.017,1.745,8.760,0.000
1606700217164594978,5.017,1.750,8.786,0.000
1606700217221269858,5.017,1.750,8.786,0.000
1606700217277523118,5.009,1.625,8.145,0.000
1606700217333435632,5.007,1.603,8.031,0.000
1606700217386986176,5.007,1.609,8.065,0.000
1606700217443724971,5.007,1.609,8.057,0.000
1606700217499750401,5.007,1.613,8.080,0.000
1606700217554004186,5.011,1.651,8.275,0.000
1606700217623622280,5.017,1.748,8.775,0.000
1606700217703472872,5.016,1.746,8.760,0.000
1606700217756202509,5.017,1.749,8.779,0.000
1606700217809174560,5.017,1.749,8.779,0.000
1606700217864458623,5.011,1.662,8.336,0.000
1606700217922117408,5.009,1.618,8.111,0.000
1606700217979821566,5.009,1.618,8.107,0.000
1606700218032782909,5.007,1.611,8.069,0.000
1606700218086863696,5.007,1.613,8.084,0.000
1606700218149236547,5.007,1.612,8.076,0.000
1606700218428844701,5.006,1.585,7.935,0.000
1606700218927641594,5.006,1.585,7.939,0.000
1606700219425142711,5.006,1.586,7.947,0.000
1606700219923636734,5.006,1.587,7.951,0.000
1606700220426854615,5.006,1.581,7.920,0.000
1606700220931223981,5.007,1.607,8.054,0.000
1606700221430872158,5.007,1.613,8.084,0.000
1606700221924974028,5.009,1.614,8.084,0.000
1606700222425844107,5.007,1.606,8.050,0.000
1606700222924971249,5.007,1.613,8.080,0.000
1606700223428685877,5.007,1.613,8.080,0.000
1606700223926162457,5.017,1.754,8.802,0.000
1606700224423950910,5.016,1.749,8.779,0.000
1606700224927239960,5.017,1.754,8.802,0.000
1606700225426790392,5.017,1.763,8.851,0.000
1606700225923039240,5.017,1.766,8.863,0.000
1606700226429846582,5.017,1.756,8.813,0.000
1606700226933301925,5.012,1.499,7.519,0.000
1606700227432159658,5.012,1.498,7.515,0.000
1606700227925350837,5.014,1.494,7.496,0.000
1606700228426097049,5.014,1.495,7.500,0.000
1606700228926656263,5.015,1.490,7.477,0.000
1606700229428043342,5.015,1.490,7.477,0.000
1606700229929086967,5.015,1.490,7.481,0.000
1606700230426599387,5.007,1.615,8.092,0.000
1606700230926553319,5.007,1.613,8.080,0.000
1606700231423371290,5.007,1.616,8.096,0.000
1606700231924968202,5.007,1.616,8.099,0.000
1606700232424982385,5.007,1.617,8.099,0.000
1606700232934840196,5.007,1.618,8.107,0.000
1606700233433826934,5.014,1.488,7.470,0.000
1606700233924770313,5.014,1.492,7.485,0.000
1606700234422988103,5.014,1.493,7.489,0.000
1606700234925398175,5.014,1.492,7.485,0.000
1606700235423482510,5.015,1.489,7.470,0.000
1606700235927225107,5.014,1.492,7.489,0.000
1606700236427843078,5.007,1.615,8.092,0.000
1606700236924818094,5.007,1.617,8.099,0.000
1606700237425251401,5.007,1.613,8.084,0.000
1606700237923167032,5.007,1.618,8.103,0.000
1606700238423812296,5.007,1.619,8.111,0.000
1606700238934728516,5.007,1.618,8.107,0.000
1606700239433527721,5.009,1.603,8.035,0.000
1606700239927346737,5.016,1.465,7.355,0.000
1606700240427052223,5.016,1.470,7.374,0.000
1606700240925090896,5.016,1.468,7.370,0.000
1606700241427477516,5.017,1.469,7.370,0.000
1606700241923499591,5.016,1.465,7.351,0.000
1606700242428196475,5.016,1.470,7.378,0.000
1606700242923313478,5.007,1.616,8.096,0.000
1606700243427346038,5.007,1.620,8.115,0.000
1606700243923056910,5.007,1.615,8.092,0.000
1606700244427516299,5.007,1.611,8.069,0.000
1606700244928438774,5.007,1.621,8.122,0.000
1606700245428297513,5.007,1.622,8.130,0.000
1606700245925935404,5.007,1.619,8.115,0.000
1606700246427705829,5.012,1.673,8.389,0.000
1606700246928216810,5.016,1.763,8.848,0.000
1606700247424585303,5.017,1.764,8.855,0.000
1606700247924995620,5.016,1.764,8.855,0.000
1606700248426698922,5.016,1.762,8.844,0.000
1606700248924218651,5.017,1.772,8.897,0.000
1606700249425728957,5.012,1.720,8.626,0.000
1606700249928335540,5.009,1.627,8.153,0.000
1606700250428980024,5.009,1.625,8.141,0.000
1606700250931232863,5.009,1.625,8.145,0.000
1606700251424072944,5.009,1.628,8.160,0.000
1606700251926677322,5.009,1.627,8.157,0.000
1606700252427031645,5.012,1.684,8.447,0.000
1606700252924298714,5.017,1.766,8.863,0.000
1606700253426275059,5.017,1.764,8.855,0.000
1606700253925441064,5.017,1.774,8.909,0.000
1606700254427191955,5.019,1.778,8.928,0.000
1606700254926642249,5.017,1.771,8.893,0.000
1606700255427034824,5.019,1.778,8.928,0.000
1606700255926898364,5.012,1.704,8.546,0.000
1606700256432950911,5.009,1.639,8.214,0.000
1606700256930094694,5.007,1.629,8.160,0.000
1606700257423026030,5.009,1.633,8.180,0.000
1606700257924063515,5.009,1.633,8.183,0.000
1606700258426661858,5.009,1.635,8.191,0.000
1606700258926302195,5.007,1.628,8.157,0.000
1606700259175523579,5.007,1.628,8.157,0.000
1606700259682624867,5.009,1.632,8.180,0.000
1606700260177571430,5.009,1.633,8.183,0.000
1606700260678149174,5.007,1.625,8.145,0.000
1606700261179380244,5.009,1.587,7.954,0.000
1606700261679364955,5.010,1.508,7.561,0.000
1606700262177689103,5.010,1.504,7.538,0.000
1606700262676980990,5.011,1.500,7.519,0.000
1606700263174007113,5.011,1.500,7.523,0.000
1606700263676497253,5.012,1.499,7.519,0.000
1606700264177221332,5.012,1.460,7.325,0.000
1606700264675953853,5.014,1.412,7.084,0.000
1606700265176061732,5.014,1.411,7.080,0.000
1606700265679529653,5.014,1.403,7.038,0.000
1606700266172984490,5.014,1.404,7.042,0.000
1606700266676302498,5.014,1.408,7.061,0.000
1606700267176418087,5.014,1.437,7.206,0.000
1606700267678909980,5.014,1.492,7.485,0.000
1606700268176545434,5.014,1.493,7.489,0.000
1606700268675903367,5.012,1.498,7.512,0.000
1606700269172711041,5.012,1.499,7.515,0.000
1606700269676941706,5.014,1.488,7.470,0.000
1606700270177761623,5.015,1.483,7.443,0.000
1606700270676943893,5.016,1.472,7.389,0.000
1606700271182741708,5.016,1.472,7.386,0.000
1606700271680408456,5.016,1.467,7.363,0.000
1606700272176669639,5.016,1.466,7.359,0.000
1606700272675100087,5.016,1.471,7.386,0.000
1606700273175046142,5.015,1.454,7.298,0.000
1606700273674276915,5.014,1.411,7.076,0.000
1606700274172776363,5.014,1.408,7.061,0.000
1606700274675905047,5.014,1.407,7.057,0.000
1606700275174017710,5.012,1.405,7.046,0.000
1606700275672987237,5.014,1.407,7.057,0.000
1606700276175480764,5.017,1.369,6.874,0.000
1606700276678778864,5.024,1.314,6.607,0.000
1606700277180715481,5.024,1.313,6.599,0.000
1606700277677908866,5.024,1.315,6.611,0.000
1606700278174910670,5.024,1.314,6.603,0.000
1606700278674434402,5.024,1.310,6.584,0.000
1606700279177985501,5.025,1.271,6.393,0.000
1606700279676943407,5.027,1.192,5.996,0.000
1606700280175105865,5.027,1.191,5.989,0.000
1606700280675215967,5.024,1.268,6.374,0.000
1606700281176945715,5.026,1.190,5.985,0.000
1606700281677166650,5.026,1.189,5.981,0.000
1606700282201140084,5.026,1.207,6.069,0.000
1606700282702908167,5.031,1.053,5.298,0.000
1606700283194608332,5.031,1.053,5.298,0.000
1606700283695610425,5.031,1.052,5.294,0.000
1606700284197449633,5.030,1.097,5.523,0.000
1606700284691928349,5.031,1.050,5.286,0.000
1606700285200624891,5.031,1.050,5.283,0.000
1606700285703807167,5.030,1.048,5.275,0.000
1606700286196028120,5.029,0.988,4.970,0.000
1606700286700872002,5.029,0.959,4.825,0.000
1606700287199826707,5.029,0.979,4.924,0.000
1606700287696411649,5.030,0.992,4.992,0.000
1606700288196380551,5.029,0.955,4.805,0.000
1606700288696431743,5.029,0.980,4.931,0.000
1606700289206758602,5.030,1.050,5.283,0.000
1606700289645925709,5.030,1.042,5.244,0.000
