TimestampMillisecs	[VirtualCores]	Workers	HT	Frequency	ClockModulation	PForChunk	CurrentThroughput	SmoothedThroughput	CoeffVarThroughput	SmoothedLatency	SmoothedUtilization	CurrentWatts	SmoothedWatts	
573.08	[0,1,2,3,|4,5,6,7,|]	4|4|	1|1|	1400000|1400000|	100|100|	1|1|	9.05311e+06	9.05311e+06	0	0	0	3.60617	3.60617	
819.002	[0,1,2,3,|4,5,6,7,|]	4|4|	1|1|	1400000|1400000|	100|100|	1|1|	9.00375e+06	9.02843e+06	0.273324	0	0	4.30664	3.9564	
1070.83	[0,1,2,3,|4,5,6,7,|]	4|4|	1|1|	1400000|1400000|	100|100|	1|1|	9.09449e+06	9.06146e+06	0.412274	0	0	3.47611	3.71626	
1317.79	[0,1,2,3,|4,5,6,7,|]	4|4|	1|1|	1400000|1400000|	100|100|	1|1|	9.77556e+06	9.41851e+06	3.80129	0	0	3.43565	3.57596	
1567.92	[0,1,2,3,|4,5,6,7,|]	4|4|	1|1|	1400000|1400000|	100|100|	1|1|	8.87937e+06	9.14894e+06	4.04209	0	0	3.4292	3.50258	
2233.06	[0,|4,5,6,7,|]	1|4|	1|1|	1000000|1400000|	100|100|	1|1|	6.94557e+06	6.94557e+06	0	0	0	3.42246	3.42246	
2483.12	[0,|4,5,6,7,|]	1|4|	1|1|	1000000|1400000|	100|100|	1|1|	6.60583e+06	6.7757e+06	2.50705	0	0	3.45329	3.43787	
2733.4	[0,|4,5,6,7,|]	1|4|	1|1|	1000000|1400000|	100|100|	1|1|	6.92895e+06	6.85232e+06	2.07921	0	0	4.25657	3.84722	
2983.41	[0,|4,5,6,7,|]	1|4|	1|1|	1000000|1400000|	100|100|	1|1|	6.90674e+06	6.87953e+06	1.51687	0	0	3.41877	3.63299	
3234.14	[0,|4,5,6,7,|]	1|4|	1|1|	1000000|1400000|	100|100|	1|1|	6.88021e+06	6.87987e+06	1.07255	0	0	4.30284	3.96791	
3786.79	[0,1,2,3,|4,5,6,7,|]	4|4|	1|1|	1400000|1800000|	100|100|	1|1|	1.11568e+07	1.11568e+07	0	0	0	3.40769	3.40769	
4036.82	[0,1,2,3,|4,5,6,7,|]	4|4|	1|1|	1400000|1800000|	100|100|	1|1|	1.15184e+07	1.13376e+07	1.59458	0	0	3.38923	3.39846	
4286.91	[0,1,2,3,|4,5,6,7,|]	4|4|	1|1|	1400000|1800000|	100|100|	1|1|	1.16507e+07	1.14942e+07	1.75848	0	0	3.40723	3.40285	
4536.9	[0,1,2,3,|4,5,6,7,|]	4|4|	1|1|	1400000|1800000|	100|100|	1|1|	1.16012e+07	1.15477e+07	1.32155	0	0	4.08013	3.74149	
4787.48	[0,1,2,3,|4,5,6,7,|]	4|4|	1|1|	1400000|1800000|	100|100|	1|1|	1.15998e+07	1.15738e+07	0.959212	0	0	3.38905	3.56527	
5350.25	[0,1,2,3,|4,|]	4|1|	1|1|	1400000|1000000|	100|100|	1|1|	4.50368e+06	4.50368e+06	0	0	0	3.40148	3.40148	
5599.18	[0,1,2,3,|4,|]	4|1|	1|1|	1400000|1000000|	100|100|	1|1|	4.34732e+06	4.4255e+06	1.76653	0	0	3.40607	3.40377	
5849.87	[0,1,2,3,|4,|]	4|1|	1|1|	1400000|1000000|	100|100|	1|1|	4.55258e+06	4.48904e+06	1.87614	0	0	4.10586	3.75482	
6099.37	[0,1,2,3,|4,|]	4|1|	1|1|	1400000|1000000|	100|100|	1|1|	4.58423e+06	4.53664e+06	1.68047	0	0	3.54281	3.64882	
6348.93	[0,1,2,3,|4,|]	4|1|	1|1|	1400000|1000000|	100|100|	1|1|	4.45198e+06	4.49431e+06	1.52503	0	0	3.38893	3.51887	
6908.8	[0,1,2,3,|4,5,6,|]	4|3|	1|1|	1300000|1300000|	100|100|	1|1|	7.58908e+06	7.58908e+06	0	0	0	3.39678	3.39678	
7153.86	[0,1,2,3,|4,5,6,|]	4|3|	1|1|	1300000|1300000|	100|100|	1|1|	7.44174e+06	7.51541e+06	0.980262	0	0	4.08226	3.73952	
7412.32	[0,1,2,3,|4,5,6,|]	4|3|	1|1|	1300000|1300000|	100|100|	1|1|	7.36328e+06	7.43934e+06	1.23928	0	0	3.77995	3.75974	
7653.67	[0,1,2,3,|4,5,6,|]	4|3|	1|1|	1300000|1300000|	100|100|	1|1|	7.59657e+06	7.51796e+06	1.35846	0	0	3.38333	3.57153	
7913.54	[0,1,2,3,|4,5,6,|]	4|3|	1|1|	1300000|1300000|	100|100|	1|1|	7.64701e+06	7.58248e+06	1.27721	0	0	3.39069	3.48111	
8495.53	[0,1,|4,5,6,7,|]	2|4|	1|1|	1200000|1400000|	100|100|	1|1|	7.76891e+06	7.76891e+06	0	0	0	3.38299	3.38299	
8740.27	[0,1,|4,5,6,7,|]	2|4|	1|1|	1200000|1400000|	100|100|	1|1|	7.7725e+06	7.7707e+06	0.0231334	0	0	3.38496	3.38398	
8995.87	[0,1,|4,5,6,7,|]	2|4|	1|1|	1200000|1400000|	100|100|	1|1|	7.63393e+06	7.70232e+06	0.888053	0	0	3.37128	3.37763	
9240.69	[0,1,|4,5,6,7,|]	2|4|	1|1|	1200000|1400000|	100|100|	1|1|	7.73491e+06	7.71861e+06	0.661233	0	0	3.35991	3.36877	
9497.15	[0,1,|4,5,6,7,|]	2|4|	1|1|	1200000|1400000|	100|100|	1|1|	7.72145e+06	7.72003e+06	0.467838	0	0	4.78743	4.0781	
10080	[0,1,2,|4,5,6,7,|]	3|4|	1|1|	1300000|1400000|	100|100|	1|1|	8.77128e+06	8.77128e+06	0	0	0	3.42274	3.42274	
10330.1	[0,1,2,|4,5,6,7,|]	3|4|	1|1|	1300000|1400000|	100|100|	1|1|	8.30103e+06	8.53615e+06	2.75446	0	0	4.45285	3.93779	
10580.3	[0,1,2,|4,5,6,7,|]	3|4|	1|1|	1300000|1400000|	100|100|	1|1|	8.79081e+06	8.66348e+06	2.41722	0	0	3.38393	3.66086	
10830.3	[0,1,2,|4,5,6,7,|]	3|4|	1|1|	1300000|1400000|	100|100|	1|1|	8.83947e+06	8.75148e+06	1.96825	0	0	3.40807	3.53447	
11080.8	[0,1,2,|4,5,6,7,|]	3|4|	1|1|	1300000|1400000|	100|100|	1|1|	8.66683e+06	8.70915e+06	1.48056	0	0	3.44402	3.48924	
11668.6	[0,1,2,3,|4,5,6,|]	4|3|	1|1|	1400000|1400000|	100|100|	1|1|	8.20461e+06	8.20461e+06	0	0	0	3.37592	3.37592	
11911.3	[0,1,2,3,|4,5,6,|]	4|3|	1|1|	1400000|1400000|	100|100|	1|1|	8.13929e+06	8.17195e+06	0.399667	0	0	3.46348	3.4197	
12168.8	[0,1,2,3,|4,5,6,|]	4|3|	1|1|	1400000|1400000|	100|100|	1|1|	8.18669e+06	8.17932e+06	0.296379	0	0	4.02034	3.72002	
12413.6	[0,1,2,3,|4,5,6,|]	4|3|	1|1|	1400000|1400000|	100|100|	1|1|	8.28794e+06	8.23363e+06	0.691692	0	0	3.35605	3.53803	
12659.4	[0,1,2,3,|4,5,6,|]	4|3|	1|1|	1400000|1400000|	100|100|	1|1|	8.17336e+06	8.2035e+06	0.613134	0	0	3.36762	3.45283	
13209.1	[0,1,2,3,|4,5,6,7,|]	4|4|	1|1|	1400000|1400000|	100|100|	1|1|	9.38085e+06	9.38085e+06	0	0	0	3.52904	3.52904	
13460.3	[0,1,2,3,|4,5,6,7,|]	4|4|	1|1|	1400000|1400000|	100|100|	1|1|	9.22409e+06	9.30247e+06	0.842585	0	0	3.41723	3.47313	
13710.5	[0,1,2,3,|4,5,6,7,|]	4|4|	1|1|	1400000|1400000|	100|100|	1|1|	9.03038e+06	9.16643e+06	1.60261	0	0	3.37112	3.42213	
13958.7	[0,1,2,3,|4,5,6,7,|]	4|4|	1|1|	1400000|1400000|	100|100|	1|1|	9.85022e+06	9.50832e+06	3.75805	0	0	3.41874	3.42043	
14208.7	[0,1,2,3,|4,5,6,7,|]	4|4|	1|1|	1400000|1400000|	100|100|	1|1|	9.84031e+06	9.67432e+06	3.12495	0	0	3.3824	3.40141	
14794.7	[0,1,2,|4,5,6,7,|]	3|4|	1|1|	1300000|1600000|	100|100|	1|1|	9.55866e+06	9.55866e+06	0	0	0	3.34366	3.34366	
15045.2	[0,1,2,|4,5,6,7,|]	3|4|	1|1|	1300000|1600000|	100|100|	1|1|	9.6637e+06	9.61118e+06	0.546477	0	0	3.39505	3.36935	
15294.9	[0,1,2,|4,5,6,7,|]	3|4|	1|1|	1300000|1600000|	100|100|	1|1|	9.33271e+06	9.47194e+06	1.52139	0	0	4.52509	3.94722	
15544.9	[0,1,2,|4,5,6,7,|]	3|4|	1|1|	1300000|1600000|	100|100|	1|1|	9.34661e+06	9.40928e+06	1.27136	0	0	3.36281	3.65502	
15795.1	[0,1,2,|4,5,6,7,|]	3|4|	1|1|	1300000|1600000|	100|100|	1|1|	9.46929e+06	9.43929e+06	0.950851	0	0	3.66937	3.66219	
16373	[0,1,2,|4,5,6,|]	3|3|	1|1|	1300000|1800000|	100|100|	1|1|	8.59572e+06	8.59572e+06	0	0	0	3.37602	3.37602	
16627.6	[0,1,2,|4,5,6,|]	3|3|	1|1|	1300000|1800000|	100|100|	1|1|	8.52245e+06	8.55908e+06	0.428013	0	0	4.58663	3.98133	
16875.3	[0,1,2,|4,5,6,|]	3|3|	1|1|	1300000|1800000|	100|100|	1|1|	8.54888e+06	8.55398e+06	0.308649	0	0	3.36927	3.6753	
17124.3	[0,1,2,|4,5,6,|]	3|3|	1|1|	1300000|1800000|	100|100|	1|1|	8.30109e+06	8.42754e+06	1.51666	0	0	3.41807	3.54669	
17378.8	[0,1,2,|4,5,6,|]	3|3|	1|1|	1300000|1800000|	100|100|	1|1|	8.26214e+06	8.34484e+06	1.46805	0	0	3.39286	3.46977	
17973.9	[0,1,2,|4,5,6,7,|]	3|4|	1|1|	1300000|1600000|	100|100|	1|1|	9.69912e+06	9.69912e+06	0	0	0	3.54209	3.54209	
18224	[0,1,2,|4,5,6,7,|]	3|4|	1|1|	1300000|1600000|	100|100|	1|1|	9.65574e+06	9.67743e+06	0.224107	0	0	3.6472	3.59465	
18474.2	[0,1,2,|4,5,6,7,|]	3|4|	1|1|	1300000|1600000|	100|100|	1|1|	9.67855e+06	9.67799e+06	0.158564	0	0	3.35473	3.47469	
18724.4	[0,1,2,|4,5,6,7,|]	3|4|	1|1|	1300000|1600000|	100|100|	1|1|	9.68694e+06	9.68247e+06	0.121234	0	0	4.37964	3.92716	
18974.5	[0,1,2,|4,5,6,7,|]	3|4|	1|1|	1300000|1600000|	100|100|	1|1|	9.58135e+06	9.63191e+06	0.531926	0	0	3.37614	3.65165	
19573.1	[0,1,2,|4,5,6,7,|]	3|4|	1|1|	1300000|1700000|	100|100|	1|1|	1.00172e+07	1.00172e+07	0	0	0	3.97874	3.97874	
19823.3	[0,1,2,|4,5,6,7,|]	3|4|	1|1|	1300000|1700000|	100|100|	1|1|	1.01511e+07	1.00842e+07	0.664072	0	0	3.36135	3.67004	
20073.4	[0,1,2,|4,5,6,7,|]	3|4|	1|1|	1300000|1700000|	100|100|	1|1|	1.00143e+07	1.00492e+07	0.585628	0	0	4.32625	3.99814	
20324.4	[0,1,2,|4,5,6,7,|]	3|4|	1|1|	1300000|1700000|	100|100|	1|1|	1.01389e+07	1.00941e+07	0.606015	0	0	3.36545	3.6818	
20573.7	[0,1,2,|4,5,6,7,|]	3|4|	1|1|	1300000|1700000|	100|100|	1|1|	9.99687e+06	1.00455e+07	0.647653	0	0	3.35561	3.51871	
21158.6	[0,1,2,3,|4,5,6,7,|]	4|4|	1|1|	1400000|1600000|	100|100|	1|1|	1.06031e+07	1.06031e+07	0	0	0	3.74917	3.74917	
21408.7	[0,1,2,3,|4,5,6,7,|]	4|4|	1|1|	1400000|1600000|	100|100|	1|1|	1.02438e+07	1.04234e+07	1.72372	0	0	3.34268	3.54592	
21660.7	[0,1,2,3,|4,5,6,7,|]	4|4|	1|1|	1400000|1600000|	100|100|	1|1|	1.0321e+07	1.03722e+07	1.32071	0	0	3.35007	3.448	
21908.9	[0,1,2,3,|4,5,6,7,|]	4|4|	1|1|	1400000|1600000|	100|100|	1|1|	1.05808e+07	1.04765e+07	1.35853	0	0	3.3608	3.4044	
22168.7	[0,1,2,3,|4,5,6,7,|]	4|4|	1|1|	1400000|1600000|	100|100|	1|1|	1.05242e+07	1.05004e+07	0.98505	0	0	3.39529	3.39984	
22434.5	[0,1,2,3,|4,5,6,7,|]	4|4|	1|1|	1400000|1600000|	100|100|	1|1|	1.01357e+07	1.0318e+07	1.90409	0	0	3.68625	3.54305	
22997.8	[0,1,2,3,|4,5,6,7,|]	4|4|	1|1|	1300000|1600000|	100|100|	1|1|	1.04891e+07	1.04891e+07	0	0	0	3.37075	3.37075	
23247.9	[0,1,2,3,|4,5,6,7,|]	4|4|	1|1|	1300000|1600000|	100|100|	1|1|	1.05161e+07	1.05026e+07	0.12846	0	0	3.35035	3.36055	
23498.1	[0,1,2,3,|4,5,6,7,|]	4|4|	1|1|	1300000|1600000|	100|100|	1|1|	1.00003e+07	1.02515e+07	2.45195	0	0	3.46297	3.41176	
23748.1	[0,1,2,3,|4,5,6,7,|]	4|4|	1|1|	1300000|1600000|	100|100|	1|1|	1.01177e+07	1.01846e+07	1.86455	0	0	3.489	3.45038	
24001.3	[0,1,2,3,|4,5,6,7,|]	4|4|	1|1|	1300000|1600000|	100|100|	1|1|	9.75645e+06	9.97052e+06	2.53447	0	0	4.244	3.84719	
24564.1	[0,1,2,3,|4,5,6,7,|]	4|4|	1|1|	1400000|1600000|	100|100|	1|1|	1.0745e+07	1.0745e+07	0	0	0	3.36041	3.36041	
24814.3	[0,1,2,3,|4,5,6,7,|]	4|4|	1|1|	1400000|1600000|	100|100|	1|1|	1.07802e+07	1.07626e+07	0.163508	0	0	3.36125	3.36083	
25065.1	[0,1,2,3,|4,5,6,7,|]	4|4|	1|1|	1400000|1600000|	100|100|	1|1|	1.0753e+07	1.07578e+07	0.124009	0	0	3.50995	3.43539	
25314.5	[0,1,2,3,|4,5,6,7,|]	4|4|	1|1|	1400000|1600000|	100|100|	1|1|	1.07116e+07	1.07347e+07	0.232751	0	0	3.41508	3.42523	
25564.6	[0,1,2,3,|4,5,6,7,|]	4|4|	1|1|	1400000|1600000|	100|100|	1|1|	1.04208e+07	1.05778e+07	1.493	0	0	4.30731	3.86627	
26145.5	[0,1,2,3,|4,5,6,7,|]	4|4|	1|1|	1400000|1700000|	100|100|	1|1|	1.07772e+07	1.07772e+07	0	0	0	3.3432	3.3432	
26395.5	[0,1,2,3,|4,5,6,7,|]	4|4|	1|1|	1400000|1700000|	100|100|	1|1|	1.12174e+07	1.09973e+07	2.00157	0	0	6.76358	5.05339	
26645.7	[0,1,2,3,|4,5,6,7,|]	4|4|	1|1|	1400000|1700000|	100|100|	1|1|	1.12448e+07	1.11211e+07	1.78797	0	0	5.8733	5.46335	
26895.7	[0,1,2,3,|4,5,6,7,|]	4|4|	1|1|	1400000|1700000|	100|100|	1|1|	1.11737e+07	1.11474e+07	1.28323	0	0	7.98759	6.72547	
27145.8	[0,1,2,3,|4,5,6,7,|]	4|4|	1|1|	1400000|1700000|	100|100|	1|1|	1.12305e+07	1.11889e+07	0.977268	0	0	9.34019	8.03283	
27688.6	[0,1,2,3,|4,5,6,7,|]	4|4|	1|1|	1400000|1600000|	100|100|	1|1|	9.81261e+06	9.81261e+06	0	0	0	5.86661	5.86661	
27938.7	[0,1,2,3,|4,5,6,7,|]	4|4|	1|1|	1400000|1600000|	100|100|	1|1|	9.92057e+06	9.86659e+06	0.547111	0	0	6.37166	6.11914	
28188.8	[0,1,2,3,|4,5,6,7,|]	4|4|	1|1|	1400000|1600000|	100|100|	1|1|	1.03982e+07	1.01324e+07	2.65014	0	0	6.59667	6.35791	
28439.1	[0,1,2,3,|4,5,6,7,|]	4|4|	1|1|	1400000|1600000|	100|100|	1|1|	1.07568e+07	1.04446e+07	3.49856	0	0	6.22505	6.29148	
28689.1	[0,1,2,3,|4,5,6,7,|]	4|4|	1|1|	1400000|1600000|	100|100|	1|1|	1.07583e+07	1.06014e+07	2.85119	0	0	6.8886	6.59004	
29229	[0,1,2,3,|4,5,6,7,|]	4|4|	1|1|	1400000|1700000|	100|100|	1|1|	1.11873e+07	1.11873e+07	0	0	0	7.72837	7.72837	
29479.1	[0,1,2,3,|4,5,6,7,|]	4|4|	1|1|	1400000|1700000|	100|100|	1|1|	1.06287e+07	1.0908e+07	2.56068	0	0	8.26401	7.99619	
29729.1	[0,1,2,3,|4,5,6,7,|]	4|4|	1|1|	1400000|1700000|	100|100|	1|1|	1.07631e+07	1.08355e+07	1.94158	0	0	7.71989	7.85804	
29979.2	[0,1,2,3,|4,5,6,7,|]	4|4|	1|1|	1400000|1700000|	100|100|	1|1|	1.07664e+07	1.0801e+07	1.41394	0	0	8.41995	8.139	
30229.4	[0,1,2,3,|4,5,6,7,|]	4|4|	1|1|	1400000|1700000|	100|100|	1|1|	1.06541e+07	1.07275e+07	1.21743	0	0	8.01952	8.07926	
30763.9	[0,1,2,3,|4,5,6,7,|]	4|4|	1|1|	1400000|1600000|	100|100|	1|1|	1.07315e+07	1.07315e+07	0	0	0	7.94202	7.94202	
31014.1	[0,1,2,3,|4,5,6,7,|]	4|4|	1|1|	1400000|1600000|	100|100|	1|1|	1.07703e+07	1.07509e+07	0.180524	0	0	8.0486	7.99531	
31264.2	[0,1,2,3,|4,5,6,7,|]	4|4|	1|1|	1400000|1600000|	100|100|	1|1|	1.01311e+07	1.0441e+07	2.97092	0	0	8.76883	8.38207	
31514.1	[0,1,2,3,|4,5,6,7,|]	4|4|	1|1|	1400000|1600000|	100|100|	1|1|	1.0439e+07	1.044e+07	2.10098	0	0	8.06796	8.22501	
31769.7	[0,1,2,3,|4,5,6,7,|]	4|4|	1|1|	1400000|1600000|	100|100|	1|1|	1.07574e+07	1.05987e+07	2.09374	0	0	8.79399	8.5095	
32305.8	[0,1,2,3,|4,5,6,7,|]	4|4|	1|1|	1300000|1600000|	100|100|	1|1|	9.98977e+06	9.98977e+06	0	0	0	7.95649	7.95649	
32778.6	[0,1,2,3,|4,5,6,7,|]	4|4|	1|1|	1300000|1600000|	100|100|	1|1|	1.03702e+07	1.018e+07	1.86826	0	0	7.92699	7.94174	
33278.6	[0,1,2,3,|4,5,6,7,|]	4|4|	1|1|	1300000|1600000|	100|100|	1|1|	1.07601e+07	1.047e+07	3.05373	0	0	7.91614	7.92894	
33778.6	[0,1,2,3,|4,5,6,7,|]	4|4|	1|1|	1300000|1600000|	100|100|	1|1|	1.02614e+07	1.03657e+07	2.40209	0	0	7.94309	7.93601	
34278.5	[0,1,2,3,|4,5,6,7,|]	4|4|	1|1|	1300000|1600000|	100|100|	1|1|	1.0711e+07	1.05384e+07	2.33997	0	0	7.95256	7.94429	
35278.4	[0,1,2,3,|4,5,6,7,|]	4|4|	1|1|	1400000|1600000|	100|100|	1|1|	1.04429e+07	1.04429e+07	0	0	0	8.065	8.065	
35778.6	[0,1,2,3,|4,5,6,7,|]	4|4|	1|1|	1400000|1600000|	100|100|	1|1|	1.09621e+07	1.07025e+07	2.42576	0	0	8.07771	8.07135	
36278.6	[0,1,2,3,|4,5,6,7,|]	4|4|	1|1|	1400000|1600000|	100|100|	1|1|	1.09828e+07	1.08427e+07	2.13024	0	0	8.10767	8.08951	
36778.5	[0,1,2,3,|4,5,6,7,|]	4|4|	1|1|	1400000|1600000|	100|100|	1|1|	1.07731e+07	1.08079e+07	1.545	0	0	8.01964	8.05458	
37278.5	[0,1,2,3,|4,5,6,7,|]	4|4|	1|1|	1400000|1600000|	100|100|	1|1|	1.00785e+07	1.04432e+07	3.67078	0	0	8.08095	8.06777	
38278.4	[0,1,2,3,|4,5,6,7,|]	4|4|	1|1|	1400000|1700000|	100|100|	1|1|	1.14373e+07	1.14373e+07	0	0	0	8.80827	8.80827	
38778.5	[0,1,2,3,|4,5,6,7,|]	4|4|	1|1|	1400000|1700000|	100|100|	1|1|	1.1271e+07	1.13541e+07	0.732372	0	0	8.77352	8.7909	
39278.4	[0,1,2,3,|4,5,6,7,|]	4|4|	1|1|	1400000|1700000|	100|100|	1|1|	1.05007e+07	1.09274e+07	3.94207	0	0	8.8505	8.8207	
39778.4	[0,1,2,3,|4,5,6,7,|]	4|4|	1|1|	1400000|1700000|	100|100|	1|1|	1.13394e+07	1.11334e+07	3.30279	0	0	8.85113	8.83592	
40278.5	[0,1,2,3,|4,5,6,7,|]	4|4|	1|1|	1400000|1700000|	100|100|	1|1|	1.14047e+07	1.12691e+07	2.60255	0	0	8.86083	8.84837	
41278.4	[0,1,2,3,|4,5,6,7,|]	4|4|	1|1|	1400000|1500000|	100|100|	1|1|	1.0104e+07	1.0104e+07	0	0	0	7.51054	7.51054	
41778.4	[0,1,2,3,|4,5,6,7,|]	4|4|	1|1|	1400000|1500000|	100|100|	1|1|	1.05229e+07	1.03135e+07	2.03067	0	0	7.50777	7.50916	
42278.5	[0,1,2,3,|4,5,6,7,|]	4|4|	1|1|	1400000|1500000|	100|100|	1|1|	1.05371e+07	1.04253e+07	1.77998	0	0	7.48001	7.49458	
42778.5	[0,1,2,3,|4,5,6,7,|]	4|4|	1|1|	1400000|1500000|	100|100|	1|1|	1.00648e+07	1.02451e+07	2.17601	0	0	7.51161	7.5031	
43278.4	[0,1,2,3,|4,5,6,7,|]	4|4|	1|1|	1400000|1500000|	100|100|	1|1|	1.02844e+07	1.02647e+07	1.54764	0	0	7.47865	7.49087	
43778.5	[0,1,2,3,|4,5,6,7,|]	4|4|	1|1|	1400000|1500000|	100|100|	1|1|	1.03037e+07	1.02842e+07	1.10859	0	0	7.48764	7.48926	
44778.4	[0,1,2,3,|4,5,6,7,|]	4|4|	1|1|	1400000|1600000|	100|100|	1|1|	1.10038e+07	1.10038e+07	0	0	0	8.0982	8.0982	
45278.5	[0,1,2,3,|4,5,6,7,|]	4|4|	1|1|	1400000|1600000|	100|100|	1|1|	1.07884e+07	1.08961e+07	0.988388	0	0	8.07109	8.08464	
45778.3	[0,1,2,3,|4,5,6,7,|]	4|4|	1|1|	1400000|1600000|	100|100|	1|1|	1.0493e+07	1.06946e+07	2.01475	0	0	8.05283	8.06874	
46278.3	[0,1,2,3,|4,5,6,7,|]	4|4|	1|1|	1400000|1600000|	100|100|	1|1|	1.04641e+07	1.05793e+07	1.80575	0	0	8.09909	8.08392	
46778.3	[0,1,2,3,|4,5,6,7,|]	4|4|	1|1|	1400000|1600000|	100|100|	1|1|	1.09922e+07	1.07857e+07	2.28724	0	0	8.10692	8.09542	
47778.3	[0,1,2,3,|4,5,6,7,|]	4|4|	1|1|	1400000|1500000|	100|100|	1|1|	9.71055e+06	9.71055e+06	0	0	0	7.46411	7.46411	
48278.3	[0,1,2,3,|4,5,6,7,|]	4|4|	1|1|	1400000|1500000|	100|100|	1|1|	1.03601e+07	1.00353e+07	3.23653	0	0	7.48906	7.47659	
48778.4	[0,1,2,3,|4,5,6,7,|]	4|4|	1|1|	1400000|1500000|	100|100|	1|1|	1.0506e+07	1.02707e+07	3.20174	0	0	7.48768	7.48213	
49278.4	[0,1,2,3,|4,5,6,7,|]	4|4|	1|1|	1400000|1500000|	100|100|	1|1|	1.04982e+07	1.03845e+07	2.49279	0	0	7.48438	7.48326	
49779.2	[0,1,2,3,|4,5,6,7,|]	4|4|	1|1|	1400000|1500000|	100|100|	1|1|	9.95042e+06	1.01674e+07	2.7923	0	0	7.477	7.48013	
50778.2	[0,1,2,3,|4,5,6,7,|]	4|4|	1|1|	1400000|1600000|	100|100|	1|1|	1.09529e+07	1.09529e+07	0	0	0	8.09617	8.09617	
51278.7	[0,1,2,3,|4,5,6,7,|]	4|4|	1|1|	1400000|1600000|	100|100|	1|1|	1.09403e+07	1.09466e+07	0.0573739	0	0	8.0626	8.07939	
51778.3	[0,1,2,3,|4,5,6,7,|]	4|4|	1|1|	1400000|1600000|	100|100|	1|1|	1.03604e+07	1.06535e+07	2.75172	0	0	8.07461	8.077	
52278.4	[0,1,2,3,|4,5,6,7,|]	4|4|	1|1|	1400000|1600000|	100|100|	1|1|	1.05109e+07	1.05822e+07	2.07149	0	0	8.10198	8.08949	
52778.3	[0,1,2,3,|4,5,6,7,|]	4|4|	1|1|	1400000|1600000|	100|100|	1|1|	1.09808e+07	1.07815e+07	2.34165	0	0	8.12261	8.10605	
53278.3	[0,1,2,3,|4,5,6,7,|]	4|4|	1|1|	1400000|1600000|	100|100|	1|1|	1.06467e+07	1.07141e+07	1.78095	0	0	8.10262	8.10433	
54278.4	[0,1,2,3,|4,5,6,7,|]	4|4|	1|1|	1300000|1500000|	100|100|	1|1|	9.93066e+06	9.93066e+06	0	0	0	7.37271	7.37271	
54778.3	[0,1,2,3,|4,5,6,7,|]	4|4|	1|1|	1300000|1500000|	100|100|	1|1|	1.02506e+07	1.00906e+07	1.58543	0	0	7.34163	7.35717	
55278.3	[0,1,2,3,|4,5,6,7,|]	4|4|	1|1|	1300000|1500000|	100|100|	1|1|	9.85218e+06	9.97141e+06	1.64827	0	0	7.36981	7.36349	
55778.4	[0,1,2,3,|4,5,6,7,|]	4|4|	1|1|	1300000|1500000|	100|100|	1|1|	1.02598e+07	1.01156e+07	1.83066	0	0	7.35757	7.36053	
56278.3	[0,1,2,3,|4,5,6,7,|]	4|4|	1|1|	1300000|1500000|	100|100|	1|1|	1.00013e+07	1.00584e+07	1.42046	0	0	7.34561	7.35307	
57278.3	[0,1,2,3,|4,5,6,7,|]	4|4|	1|1|	1400000|1600000|	100|100|	1|1|	1.09934e+07	1.09934e+07	0	0	0	8.09723	8.09723	
57778.4	[0,1,2,3,|4,5,6,7,|]	4|4|	1|1|	1400000|1600000|	100|100|	1|1|	1.09705e+07	1.0982e+07	0.103884	0	0	8.10558	8.1014	
58278.3	[0,1,2,3,|4,5,6,7,|]	4|4|	1|1|	1400000|1600000|	100|100|	1|1|	1.08561e+07	1.0919e+07	0.581026	0	0	8.09421	8.09781	
58778.3	[0,1,2,3,|4,5,6,7,|]	4|4|	1|1|	1400000|1600000|	100|100|	1|1|	1.02568e+07	1.05879e+07	3.15565	0	0	8.09879	8.0983	
59278.4	[0,1,2,3,|4,5,6,7,|]	4|4|	1|1|	1400000|1600000|	100|100|	1|1|	1.07364e+07	1.06622e+07	2.32266	0	0	8.12858	8.11344	
59778.3	[0,1,2,3,|4,5,6,7,|]	4|4|	1|1|	1400000|1600000|	100|100|	1|1|	1.09704e+07	1.08163e+07	2.15674	0	0	8.13169	8.12256	
60278.4	[0,1,2,3,|4,5,6,7,|]	4|4|	1|1|	1400000|1600000|	100|100|	1|1|	1.05651e+07	1.06907e+07	1.93934	0	0	8.05871	8.09064	
61278.3	[0,1,2,3,|4,5,6,7,|]	4|4|	1|1|	1400000|1700000|	100|100|	1|1|	1.14363e+07	1.14363e+07	0	0	0	8.84915	8.84915	
61778.4	[0,1,2,3,|4,5,6,7,|]	4|4|	1|1|	1400000|1700000|	100|100|	1|1|	1.136e+07	1.13981e+07	0.334542	0	0	8.86262	8.85588	
62278.3	[0,1,2,3,|4,5,6,7,|]	4|4|	1|1|	1400000|1700000|	100|100|	1|1|	1.14214e+07	1.14098e+07	0.25739	0	0	8.81494	8.83541	
62778.4	[0,1,2,3,|4,5,6,7,|]	4|4|	1|1|	1400000|1700000|	100|100|	1|1|	1.06438e+07	1.10268e+07	3.47824	0	0	8.84606	8.84074	
63278.4	[0,1,2,3,|4,5,6,7,|]	4|4|	1|1|	1400000|1700000|	100|100|	1|1|	1.1153e+07	1.10899e+07	2.51079	0	0	8.9092	8.87497	
64278.3	[0,1,2,3,|4,5,6,7,|]	4|4|	1|1|	1400000|1600000|	100|100|	1|1|	1.05289e+07	1.05289e+07	0	0	0	8.15195	8.15195	
64778.2	[0,1,2,3,|4,5,6,7,|]	4|4|	1|1|	1400000|1600000|	100|100|	1|1|	1.05954e+07	1.05622e+07	0.314564	0	0	8.13507	8.14351	
65278.2	[0,1,2,3,|4,5,6,7,|]	4|4|	1|1|	1400000|1600000|	100|100|	1|1|	1.05682e+07	1.05652e+07	0.224209	0	0	8.15709	8.1503	
65778.3	[0,1,2,3,|4,5,6,7,|]	4|4|	1|1|	1400000|1600000|	100|100|	1|1|	1.09964e+07	1.07808e+07	2.00614	0	0	8.12456	8.13743	
66278.2	[0,1,2,3,|4,5,6,7,|]	4|4|	1|1|	1400000|1600000|	100|100|	1|1|	1.04971e+07	1.0639e+07	1.96063	0	0	8.16887	8.15315	
67278.2	[0,1,2,3,|4,5,6,7,|]	4|4|	1|1|	1400000|1700000|	100|100|	1|1|	1.10956e+07	1.10956e+07	0	0	0	8.86369	8.86369	
67778.2	[0,1,2,3,|4,5,6,7,|]	4|4|	1|1|	1400000|1700000|	100|100|	1|1|	1.07616e+07	1.09286e+07	1.52824	0	0	8.88472	8.87421	
68278.2	[0,1,2,3,|4,5,6,7,|]	4|4|	1|1|	1400000|1700000|	100|100|	1|1|	1.12636e+07	1.10961e+07	1.84722	0	0	8.92512	8.89966	
68778.2	[0,1,2,3,|4,5,6,7,|]	4|4|	1|1|	1400000|1700000|	100|100|	1|1|	1.14101e+07	1.12531e+07	1.89868	0	0	8.89725	8.89845	
69278.2	[0,1,2,3,|4,5,6,7,|]	4|4|	1|1|	1400000|1700000|	100|100|	1|1|	1.10659e+07	1.11595e+07	1.59251	0	0	8.88233	8.89039	
69778.1	[0,1,2,3,|4,5,6,7,|]	4|4|	1|1|	1400000|1700000|	100|100|	1|1|	1.09226e+07	1.1041e+07	1.56423	0	0	8.93907	8.91473	
70778.2	[0,1,2,3,|4,5,6,7,|]	4|4|	1|1|	1400000|1600000|	100|100|	1|1|	1.09925e+07	1.09925e+07	0	0	0	8.21012	8.21012	
71278.1	[0,1,2,3,|4,5,6,7,|]	4|4|	1|1|	1400000|1600000|	100|100|	1|1|	1.02553e+07	1.06239e+07	3.46927	0	0	8.14267	8.1764	
71778.1	[0,1,2,3,|4,5,6,7,|]	4|4|	1|1|	1400000|1600000|	100|100|	1|1|	1.0244e+07	1.04339e+07	3.09091	0	0	8.19096	8.18368	
72278.1	[0,1,2,3,|4,5,6,7,|]	4|4|	1|1|	1400000|1600000|	100|100|	1|1|	1.09999e+07	1.07169e+07	3.39114	0	0	8.19542	8.18955	
72778.1	[0,1,2,3,|4,5,6,7,|]	4|4|	1|1|	1400000|1600000|	100|100|	1|1|	1.09687e+07	1.08428e+07	2.63909	0	0	8.06873	8.12914	
73528.2	[0,1,2,3,|4,5,6,7,|]	4|4|	1|1|	1400000|1600000|	100|100|	1|1|	1.03471e+07	1.0595e+07	3.01978	0	0	8.15635	8.14274	
74028.2	[0,1,2,3,|4,5,6,7,|]	4|4|	1|1|	1400000|1600000|	100|100|	1|1|	1.08018e+07	1.06984e+07	2.32523	0	0	8.18026	8.1615	
74528.1	[0,1,2,3,|4,5,6,7,|]	4|4|	1|1|	1400000|1600000|	100|100|	1|1|	1.09523e+07	1.08254e+07	2.0039	0	0	8.18168	8.17159	
75028.3	[0,1,2,3,|4,5,6,7,|]	4|4|	1|1|	1400000|1600000|	100|100|	1|1|	1.04926e+07	1.0659e+07	2.12322	0	0	8.15694	8.16427	
76028.2	[0,1,2,3,|4,5,6,7,|]	4|4|	1|1|	1400000|1500000|	100|100|	1|1|	1.03552e+07	1.03552e+07	0	0	0	7.53811	7.53811	
76528.1	[0,1,2,3,|4,5,6,7,|]	4|4|	1|1|	1400000|1500000|	100|100|	1|1|	1.04479e+07	1.04015e+07	0.445394	0	0	7.52461	7.53136	
77028	[0,1,2,3,|4,5,6,7,|]	4|4|	1|1|	1400000|1500000|	100|100|	1|1|	1.00875e+07	1.02445e+07	1.56592	0	0	7.53127	7.53132	
77528.2	[0,1,2,3,|4,5,6,7,|]	4|4|	1|1|	1400000|1500000|	100|100|	1|1|	1.0484e+07	1.03643e+07	1.59157	0	0	7.50898	7.52015	
78028	[0,1,2,3,|4,5,6,7,|]	4|4|	1|1|	1400000|1500000|	100|100|	1|1|	1.00672e+07	1.02157e+07	1.84866	0	0	7.52203	7.52109	
79028.1	[0,1,2,3,|4,5,6,7,|]	4|4|	1|1|	1400000|1400000|	100|100|	1|1|	1.00624e+07	1.00624e+07	0	0	0	7.08008	7.08008	
79528	[0,1,2,3,|4,5,6,7,|]	4|4|	1|1|	1400000|1400000|	100|100|	1|1|	1.00515e+07	1.00569e+07	0.0542767	0	0	7.06659	7.07334	
80028	[0,1,2,3,|4,5,6,7,|]	4|4|	1|1|	1400000|1400000|	100|100|	1|1|	9.64209e+06	9.84952e+06	2.10628	0	0	7.05396	7.06365	
80528.1	[0,1,2,3,|4,5,6,7,|]	4|4|	1|1|	1400000|1400000|	100|100|	1|1|	9.42449e+06	9.63701e+06	2.67952	0	0	7.06767	7.06566	
81028	[0,1,2,3,|4,5,6,7,|]	4|4|	1|1|	1400000|1400000|	100|100|	1|1|	1.00653e+07	9.85115e+06	2.85672	0	0	7.06249	7.06407	
82028.1	[0,1,2,3,|4,5,6,7,|]	4|4|	1|1|	1400000|1500000|	100|100|	1|1|	9.68855e+06	9.68855e+06	0	0	0	7.48975	7.48975	
82528	[0,1,2,3,|4,5,6,7,|]	4|4|	1|1|	1400000|1500000|	100|100|	1|1|	1.00284e+07	9.85845e+06	1.72349	0	0	7.53941	7.51458	
83028	[0,1,2,3,|4,5,6,7,|]	4|4|	1|1|	1400000|1500000|	100|100|	1|1|	1.05552e+07	1.02068e+07	3.61034	0	0	7.51511	7.51485	
83528.1	[0,1,2,3,|4,5,6,7,|]	4|4|	1|1|	1400000|1500000|	100|100|	1|1|	1.05507e+07	1.03787e+07	3.00786	0	0	7.51373	7.51429	
84028	[0,1,2,3,|4,5,6,7,|]	4|4|	1|1|	1400000|1500000|	100|100|	1|1|	1.02038e+07	1.02912e+07	2.30732	0	0	7.49333	7.50381	
85028.1	[0,1,2,3,|4,5,6,7,|]	4|4|	1|1|	1300000|1500000|	100|100|	1|1|	1.03032e+07	1.03032e+07	0	0	0	7.38768	7.38768	
85528.1	[0,1,2,3,|4,5,6,7,|]	4|4|	1|1|	1300000|1500000|	100|100|	1|1|	1.03159e+07	1.03096e+07	0.0614794	0	0	7.37408	7.38088	
86027.9	[0,1,2,3,|4,5,6,7,|]	4|4|	1|1|	1300000|1500000|	100|100|	1|1|	9.83079e+06	1.00702e+07	2.37762	0	0	7.37598	7.37843	
86528	[0,1,2,3,|4,5,6,7,|]	4|4|	1|1|	1300000|1500000|	100|100|	1|1|	9.87574e+06	9.97296e+06	1.9576	0	0	7.36829	7.37336	
87028.2	[0,1,2,3,|4,5,6,7,|]	4|4|	1|1|	1300000|1500000|	100|100|	1|1|	1.00895e+07	1.00312e+07	1.49384	0	0	7.38437	7.37887	
88028.2	[0,1,2,3,|4,5,6,7,|]	4|4|	1|1|	1400000|1400000|	100|100|	1|1|	1.00611e+07	1.00611e+07	0	0	0	7.06049	7.06049	
88528.1	[0,1,2,3,|4,5,6,7,|]	4|4|	1|1|	1400000|1400000|	100|100|	1|1|	9.56046e+06	9.81077e+06	2.55147	0	0	7.04665	7.05357	
89028.1	[0,1,2,3,|4,5,6,7,|]	4|4|	1|1|	1400000|1400000|	100|100|	1|1|	9.73042e+06	9.7706e+06	1.85766	0	0	7.05705	7.05531	
89528	[0,1,2,3,|4,5,6,7,|]	4|4|	1|1|	1400000|1400000|	100|100|	1|1|	9.78754e+06	9.77907e+06	1.31528	0	0	7.0581	7.05671	
90028.1	[0,1,2,3,|4,5,6,7,|]	4|4|	1|1|	1400000|1400000|	100|100|	1|1|	9.91354e+06	9.8463e+06	1.14867	0	0	7.05311	7.05491	
91028	[0,1,2,3,|4,5,6,7,|]	4|4|	1|1|	1300000|1300000|	100|100|	1|1|	8.91804e+06	8.91804e+06	0	0	0	6.60068	6.60068	
91528.1	[0,1,2,3,|4,5,6,7,|]	4|4|	1|1|	1300000|1300000|	100|100|	1|1|	8.83113e+06	8.87459e+06	0.489678	0	0	6.60936	6.60502	
92028.1	[0,1,2,3,|4,5,6,7,|]	4|4|	1|1|	1300000|1300000|	100|100|	1|1|	9.37537e+06	9.12498e+06	2.76461	0	0	6.60736	6.60619	
92528.3	[0,1,2,3,|4,5,6,7,|]	4|4|	1|1|	1300000|1300000|	100|100|	1|1|	9.36165e+06	9.24332e+06	2.31589	0	0	6.59408	6.60013	
93028.1	[0,1,2,3,|4,5,6,7,|]	4|4|	1|1|	1300000|1300000|	100|100|	1|1|	8.92346e+06	9.08339e+06	2.42422	0	0	6.57831	6.58922	
94028.2	[0,1,2,3,|4,5,6,|]	4|3|	1|1|	1300000|1300000|	100|100|	1|1|	7.91166e+06	7.91166e+06	0	0	0	5.9874	5.9874	
94528	[0,1,2,3,|4,5,6,|]	4|3|	1|1|	1300000|1300000|	100|100|	1|1|	7.77266e+06	7.84216e+06	0.886258	0	0	5.99206	5.98973	
95028	[0,1,2,3,|4,5,6,|]	4|3|	1|1|	1300000|1300000|	100|100|	1|1|	7.6663e+06	7.75423e+06	1.29905	0	0	6.04988	6.01981	
95527.9	[0,1,2,3,|4,5,6,|]	4|3|	1|1|	1300000|1300000|	100|100|	1|1|	7.77629e+06	7.76526e+06	0.928192	0	0	6.00013	6.00997	
96028	[0,1,2,3,|4,5,6,|]	4|3|	1|1|	1300000|1300000|	100|100|	1|1|	7.84671e+06	7.80599e+06	0.835735	0	0	5.98897	5.99947	
97028	[0,1,2,|4,5,6,|]	3|3|	1|1|	1300000|1100000|	100|100|	1|1|	6.27122e+06	6.27122e+06	0	0	0	5.29805	5.29805	
97528	[0,1,2,|4,5,6,|]	3|3|	1|1|	1300000|1100000|	100|100|	1|1|	6.30381e+06	6.28751e+06	0.259207	0	0	5.29813	5.29809	
98027.9	[0,1,2,|4,5,6,|]	3|3|	1|1|	1300000|1100000|	100|100|	1|1|	6.31928e+06	6.3034e+06	0.311295	0	0	5.52812	5.4131	
98527.9	[0,1,2,|4,5,6,|]	3|3|	1|1|	1300000|1100000|	100|100|	1|1|	6.17201e+06	6.2377e+06	1.07636	0	0	5.28304	5.34807	
99028	[0,1,2,|4,5,6,|]	3|3|	1|1|	1300000|1100000|	100|100|	1|1|	6.2375e+06	6.2376e+06	0.761116	0	0	5.28506	5.31656	
99527.9	[0,1,2,|4,5,6,|]	3|3|	1|1|	1300000|1100000|	100|100|	1|1|	6.28749e+06	6.26254e+06	0.667793	0	0	5.4631	5.38983	
100528	[0,1,2,|4,5,6,|]	3|3|	1|1|	1300000|800000|	100|100|	1|1|	5.21862e+06	5.21862e+06	0	0	0	4.82528	4.82528	
101028	[0,1,2,|4,5,6,|]	3|3|	1|1|	1300000|800000|	100|100|	1|1|	5.28767e+06	5.25315e+06	0.657212	0	0	4.92011	4.87269	
101528	[0,1,2,|4,5,6,|]	3|3|	1|1|	1300000|800000|	100|100|	1|1|	5.25604e+06	5.2546e+06	0.465407	0	0	4.91201	4.89235	
102028	[0,1,2,|4,5,6,|]	3|3|	1|1|	1300000|800000|	100|100|	1|1|	5.15105e+06	5.20282e+06	1.04917	0	0	4.88461	4.88848	
102528	[0,1,2,|4,5,6,|]	3|3|	1|1|	1300000|800000|	100|100|	1|1|	5.16207e+06	5.18245e+06	0.842178	0	0	4.82561	4.85705	
103528	[0,1,2,|4,5,6,|]	3|3|	1|1|	1300000|1000000|	100|100|	1|1|	5.91551e+06	5.91551e+06	0	0	0	5.12112	5.12112	
104028	[0,1,2,|4,5,6,|]	3|3|	1|1|	1300000|1000000|	100|100|	1|1|	5.83422e+06	5.87487e+06	0.691855	0	0	4.32227	4.72169	
