Governor,bi,li,Run,RoiTime(S),ParsecRoi(S),ParsecEnergy(J)
performance,4,4,2,82.3081,81.9283,769.67
performance,4,4,5,82.3461,81.8323,569.618
performance,4,4,4,82.1192,81.7656,837.969
performance,4,4,3,82.1502,81.7749,814.516
performance,4,4,1,82.2719,81.7417,497.093
powersave,4,4,2,772.4474,771.433,2669.94
powersave,4,4,5,773.0752,772.025,2654.25
powersave,4,4,4,804.6987,803.613,2548.91
powersave,4,4,3,772.9415,771.83,2629.96
powersave,4,4,1,773.3053,772.304,2666.78
conservative,4,4,2,82.8715,82.2995,559.842
conservative,4,4,5,82.8717,82.4883,705.7
conservative,4,4,4,83.1705,82.6349,381.533
conservative,4,4,3,83.0374,82.5775,818.85
conservative,4,4,1,82.7908,82.3095,577.908
interactive,4,4,2,82.8985,82.3111,534.124
interactive,4,4,5,82.5246,81.9235,485.214
interactive,4,4,4,82.5312,82.0162,299.809
interactive,4,4,3,82.7228,82.1024,314.273
interactive,4,4,1,82.6899,82.3388,689.247
ondemand,4,4,2,82.514,81.9657,391.063
ondemand,4,4,5,82.5212,81.9929,658.178
ondemand,4,4,4,82.6201,82.0208,330.936
ondemand,4,4,3,82.5265,82.1517,658.633
ondemand,4,4,1,82.4932,81.9257,514.59
