Governor,Power(W),Run Time (s),Energy(J)
ondemand,9.788,81.889312615,801.8934
interactive,9.6595,82.051031819,793.4699
powersave,3.4559,771.366873933,2665.3008
performance,9.9734,81.683007444,814.3314
conservative,9.6281,82.227978237,791.3514
