Scenario,Fl,Fb,Run,li,bi,Power(W),Run Time (s),energy(J)
pare_fast,1400,1800,2,4,4,8.1861,90.000685409,736.7568
pare_fast,1400,1800,5,4,4,7.9713,93.802085374,747.7205
pare_fast,1400,1800,4,4,4,8.2046,90.107875374,739.2953
pare_fast,1400,1800,3,4,4,8.1525,90.700804668,739.4405
pare_fast,1400,1800,1,4,4,8.1825,91.070464056,745.1796
pare_ener,1400,1400,2,4,4,7.2262,97.075952092,701.4861
pare_ener,1400,1400,5,4,4,6.5009,103.847041869,675.0982
pare_ener,1400,1400,4,4,4,7.2574,97.406863332,706.9164
pare_ener,1400,1400,3,4,4,7.1572,104.36753007,746.9784
pare_ener,1400,1400,1,4,4,6.9721,106.488329953,742.4436
rand_fast,200,1400,2,1,3,6.7044,119.715516256,802.6255
rand_fast,200,1400,5,1,3,6.049,124.10851422,750.7268
rand_fast,200,1400,4,1,3,5.0229,130.521192877,655.5985
rand_fast,200,1400,3,1,3,6.6612,119.140001368,793.6097
rand_fast,200,1400,1,1,3,6.0748,127.629556477,775.3218
rand_ener,500,800,2,3,3,5.1014,161.998844663,826.4163
rand_ener,500,800,5,3,3,4.9734,184.754022973,918.8477
rand_ener,500,800,4,3,3,5.025,179.207654324,900.5122
rand_ener,500,800,3,3,3,4.9425,182.911398599,904.0367
rand_ener,500,800,1,3,3,5.149,163.115730496,839.8887
