Fl,Fb,Run,li,bi,Total Power(W),CPU Power(W),GPU Power(W),Run Time (s),Total energy(J),CPU energy(J),GPU energy(J)
345600,499200,2,4,0,1.2339,0.3548,0.152,1793.462982,2212.9194,636.3212,272.6064
345600,499200,5,4,0,1.2313,0.351,0.152,1871.772648,2304.6394,656.9076,284.5094
345600,499200,4,4,0,1.2342,0.3536,0.152,1798.53853,2219.6861,635.9867,273.3779
345600,499200,3,4,0,1.2337,0.353,0.152,1812.905496,2236.5076,640.0192,275.5616
345600,499200,6,4,0,1.234,0.3542,0.152,1798.454476,2219.3491,636.9545,273.3266
345600,499200,1,4,0,1.2339,0.353,0.152,1827.910867,2255.504,645.2294,277.8425
345600,499200,7,4,0,1.231,0.3503,0.152,1873.286576,2305.9348,656.1228,284.7396
960000,1881600,2,4,0,2.085,0.8408,0.152,330.162857,688.4017,277.5934,50.1848
960000,1881600,5,4,0,2.0944,0.8582,0.152,322.083968,674.5782,276.4061,48.9568
960000,1881600,4,4,0,2.0911,0.8448,0.152,328.642577,687.2315,277.6328,49.9537
960000,1881600,3,4,0,2.0929,0.8499,0.152,326.632571,683.5965,277.6111,49.6482
960000,1881600,6,4,0,2.0908,0.8441,0.152,327.086788,683.8715,276.0784,49.7172
960000,1881600,1,4,0,2.0869,0.8471,0.152,327.115559,682.6709,277.0917,49.7216
960000,1881600,7,4,0,2.0866,0.8404,0.152,329.169703,686.852,276.6263,50.0338
806400,345600,2,3,0,1.8151,0.6756,0.152,461.662781,837.9467,311.8939,70.1727
806400,345600,5,3,0,1.8241,0.6781,0.152,461.144483,841.1733,312.6822,70.094
806400,345600,4,3,0,1.8193,0.6753,0.152,461.682597,839.9292,311.7926,70.1758
806400,345600,3,3,0,1.8173,0.6776,0.152,458.172412,832.6555,310.4719,69.6422
806400,345600,6,3,0,1.8199,0.6686,0.152,468.220104,852.1354,313.0366,71.1695
806400,345600,1,3,0,1.8152,0.6625,0.152,472.245976,857.2434,312.8597,71.7814
806400,345600,7,3,0,1.8232,0.6785,0.152,460.66677,839.8909,312.5446,70.0213
1267200,960000,2,3,0,2.2072,0.9885,0.152,324.110504,715.3679,320.3883,49.2648
1267200,960000,5,3,0,2.208,0.9886,0.152,319.549362,705.5578,315.9082,48.5715
1267200,960000,4,3,0,2.2026,0.9886,0.152,332.61631,732.6101,328.8195,50.5577
1267200,960000,3,3,0,2.1971,0.9885,0.152,327.610204,719.8081,323.8585,49.7968
1267200,960000,6,3,0,2.1986,0.9886,0.152,322.591591,709.2401,318.9231,49.0339
1267200,960000,1,3,0,2.2021,0.9882,0.152,326.589959,719.1872,322.7511,49.6417
1267200,960000,7,3,0,2.1932,0.9886,0.152,328.097765,719.5787,324.3607,49.8709
345600,1881600,2,0,2,5.4121,2.7766,0.152,271.698965,1470.4708,754.3973,41.2982
345600,1881600,5,0,2,5.3581,2.7335,0.152,281.302948,1507.2445,768.9307,42.758
345600,1881600,4,0,2,5.3674,2.7416,0.152,276.229457,1482.6341,757.3171,41.9869
345600,1881600,3,0,2,5.3625,2.7382,0.152,281.212983,1507.9908,770.0231,42.7444
345600,1881600,6,0,2,5.3952,2.7531,0.152,278.714243,1503.7267,767.333,42.3646
345600,1881600,1,0,2,5.3696,2.7364,0.152,277.754175,1491.4371,760.0421,42.2186
345600,1881600,7,0,2,5.3889,2.7588,0.152,281.304137,1515.9215,776.0513,42.7582
1420800,345600,2,0,2,4.4766,1.8872,0.152,338.959578,1517.3876,639.6797,51.5219
1420800,345600,5,0,2,4.5072,1.927,0.152,331.936559,1496.1015,639.6337,50.4544
1420800,345600,4,0,2,4.4862,1.9039,0.152,340.951527,1529.5813,649.1363,51.8246
1420800,345600,3,0,2,4.5202,1.9272,0.152,332.971543,1505.0921,641.6969,50.6117
1420800,345600,6,0,2,4.5023,1.9138,0.152,336.464699,1514.8619,643.9342,51.1426
1420800,345600,1,0,2,4.458,1.8803,0.152,341.973258,1524.5042,643.0141,51.9799
1420800,345600,7,0,2,4.5149,1.928,0.152,331.435288,1496.3883,639.019,50.3782
499200,1728000,2,1,2,4.8951,2.3022,0.152,296.5662,1451.7343,682.7659,45.0781
499200,1728000,5,1,2,4.9233,2.3174,0.152,287.580619,1415.8552,666.4273,43.7123
499200,1728000,4,1,2,4.9359,2.3372,0.152,277.489289,1369.6602,648.5429,42.1784
499200,1728000,3,1,2,4.8984,2.2936,0.152,302.058499,1479.6112,692.8105,45.9129
499200,1728000,6,1,2,4.9071,2.3087,0.152,281.530778,1381.4889,649.9766,42.7927
499200,1728000,1,1,2,4.8947,2.3001,0.152,286.518452,1402.4274,659.0185,43.5508
499200,1728000,7,1,2,4.9049,2.3032,0.152,283.563009,1390.8551,653.1058,43.1016
960000,652800,2,1,2,2.1221,0.9511,0.152,543.533418,1153.4448,516.9328,82.6171
960000,652800,5,1,2,2.1124,0.9379,0.152,556.582985,1175.7116,522.044,84.6006
960000,652800,4,1,2,2.1342,0.943,0.152,564.497852,1204.7261,532.2986,85.8037
960000,652800,3,1,2,2.1195,0.949,0.152,556.010391,1178.4486,527.6413,84.5136
960000,652800,6,1,2,2.1121,0.9386,0.152,548.893911,1159.3455,515.1769,83.4319
960000,652800,1,1,2,2.1302,0.9424,0.152,542.981229,1156.6554,511.7296,82.5331
960000,652800,7,1,2,2.1166,0.9381,0.152,571.10963,1208.8296,535.7365,86.8087
1728000,652800,2,2,0,3.8457,1.2894,0.152,367.058936,1411.5931,473.2828,55.793
1728000,652800,5,2,0,3.8277,1.2876,0.152,366.569424,1403.1337,472.0007,55.7186
1728000,652800,4,2,0,3.8458,1.289,0.152,365.037153,1403.86,470.5502,55.4856
1728000,652800,3,2,0,3.8519,1.2918,0.152,360.528315,1388.727,465.72,54.8003
1728000,652800,6,2,0,3.8381,1.289,0.152,362.524535,1391.3919,467.2945,55.1037
1728000,652800,1,2,0,3.8484,1.2877,0.152,368.549656,1418.3154,474.5824,56.0195
1728000,652800,7,2,0,3.843,1.2875,0.152,367.050061,1410.5746,472.5853,55.7916
652800,806400,2,0,1,1.6277,0.5794,0.152,1324.174375,2155.3114,767.1819,201.2745
652800,806400,5,0,1,1.6286,0.58,0.152,1334.750533,2173.787,774.2106,202.8821
652800,806400,4,0,1,1.6268,0.5768,0.152,1327.719948,2159.8936,765.8269,201.8134
652800,806400,3,0,1,1.6298,0.5816,0.152,1342.815936,2188.4731,781.0239,204.108
652800,806400,6,0,1,1.6238,0.573,0.152,1354.839861,2199.9596,776.3042,205.9357
652800,806400,1,0,1,1.6287,0.5794,0.152,1338.750282,2180.3841,775.699,203.49
652800,806400,7,0,1,1.6302,0.5833,0.152,1323.294894,2157.2289,771.8327,201.1408
1728000,1267200,2,0,1,3.3247,0.8417,0.152,816.815249,2715.6886,687.4843,124.1559
1728000,1267200,5,0,1,3.2824,0.825,0.152,839.888942,2756.8206,692.891,127.6631
1728000,1267200,4,0,1,3.2943,0.835,0.152,828.345917,2728.8212,691.6769,125.9086
1728000,1267200,3,0,1,3.2934,0.838,0.152,826.356108,2721.5284,692.4477,125.6061
1728000,1267200,6,0,1,3.3052,0.8424,0.152,809.793759,2676.5331,682.2091,123.0887
1728000,1267200,1,0,1,3.3265,0.8358,0.152,826.365786,2748.9211,690.6668,125.6076
1728000,1267200,7,0,1,3.2988,0.8377,0.152,831.365021,2742.5416,696.4179,126.3675
345600,960000,2,1,1,1.7876,0.6655,0.152,1044.942825,1867.9351,695.363,158.8313
345600,960000,5,1,1,1.7207,0.6127,0.152,1277.109939,2197.5617,782.4909,194.1207
345600,960000,4,1,1,1.722,0.6137,0.152,1305.740021,2248.4673,801.3718,198.4725
345600,960000,3,1,1,1.7263,0.6194,0.152,1334.76521,2304.2652,826.7395,202.8843
345600,960000,6,1,1,1.7203,0.614,0.152,1303.100711,2241.7216,800.0563,198.0713
345600,960000,1,1,1,1.7937,0.664,0.152,1043.63895,1871.9967,692.9316,158.6331
345600,960000,7,1,1,1.7154,0.6121,0.152,1349.257682,2314.5051,825.8442,205.0872
345600,1574400,2,3,2,4.4261,1.8564,0.152,357.060762,1580.4016,662.8361,54.2732
345600,1574400,5,3,2,4.4143,1.8458,0.152,364.610099,1609.488,672.9942,55.4207
345600,1574400,4,3,2,4.4057,1.8372,0.152,359.602549,1584.288,660.6544,54.6596
345600,1574400,3,3,2,4.4173,1.8461,0.152,360.140529,1590.8338,664.8631,54.7414
345600,1574400,6,3,2,4.4276,1.8579,0.152,356.096185,1576.6672,661.5904,54.1266
345600,1574400,1,3,2,4.4033,1.8381,0.152,358.623447,1579.1386,659.1883,54.5108
345600,1574400,7,3,2,4.4174,1.8441,0.152,362.574422,1601.6346,668.606,55.1113
652800,1267200,2,4,2,2.8144,1.5272,0.152,263.484925,741.5444,402.4067,40.0497
652800,1267200,5,4,2,2.8325,1.5459,0.152,261.449008,740.5502,404.1642,39.7402
652800,1267200,4,4,2,2.8552,1.5615,0.152,259.954543,742.2351,405.9137,39.5131
652800,1267200,3,4,2,2.8935,1.6008,0.152,253.925652,734.7436,406.4877,38.5967
652800,1267200,6,4,2,2.7505,1.4798,0.152,281.50979,774.2989,416.5847,42.7895
652800,1267200,1,4,2,2.7621,1.4898,0.152,273.47371,755.3593,407.4085,41.568
652800,1267200,7,4,2,2.8102,1.5203,0.152,268.004414,753.1334,407.4438,40.7367
1574400,806400,2,4,2,4.6576,2.0285,0.152,200.57742,934.2031,406.8693,30.4878
1574400,806400,5,4,2,4.5409,1.9221,0.152,214.586517,974.4219,412.4613,32.6172
1574400,806400,4,4,2,4.5386,1.92,0.152,218.609962,992.1739,419.7318,33.2287
1574400,806400,3,4,2,4.5638,1.9483,0.152,213.086912,972.4793,415.1523,32.3892
1574400,806400,6,4,2,4.5283,1.9109,0.152,219.630891,994.5636,419.6913,33.3839
1574400,806400,1,4,2,4.655,2.0328,0.152,201.05952,935.9222,408.713,30.561
1574400,806400,7,4,2,4.5776,1.9503,0.152,212.60306,973.2188,414.6397,32.3157
1881600,345600,2,2,2,4.2222,1.6646,0.152,389.961797,1646.5105,649.1496,59.2742
1881600,345600,5,2,2,4.2881,1.7234,0.152,373.394504,1601.1491,643.5142,56.756
1881600,345600,4,2,2,4.2384,1.6767,0.152,387.930827,1644.1973,650.4368,58.9655
1881600,345600,3,2,2,4.2138,1.6606,0.152,393.368433,1657.5667,653.212,59.792
1881600,345600,6,2,2,4.3553,1.7946,0.152,348.231993,1516.6409,624.9367,52.9313
1881600,345600,1,2,2,4.2083,1.6478,0.152,402.992665,1695.8955,664.0584,61.2549
1881600,345600,7,2,2,4.328,1.7614,0.152,364.80836,1578.8885,642.576,55.4509
1113600,960000,2,2,2,2.4907,1.2474,0.152,334.160946,832.31,416.8324,50.7925
1113600,960000,5,2,2,2.5486,1.3037,0.152,314.616098,801.833,410.1569,47.8216
1113600,960000,4,2,2,2.5909,1.3398,0.152,300.04784,777.3793,401.9998,45.6073
1113600,960000,3,2,2,2.5801,1.3304,0.152,305.046312,787.055,405.8221,46.367
1113600,960000,6,2,2,2.512,1.2592,0.152,332.67806,835.7013,418.9173,50.5671
1113600,960000,1,2,2,2.5966,1.3419,0.152,300.013664,779.0134,402.5925,45.6021
1113600,960000,7,2,2,2.4695,1.2282,0.1518,342.180894,845.0195,420.2762,51.9353
499200,1881600,2,1,0,1.1514,0.2281,0.152,2955.460668,3402.7821,673.9998,449.1537
499200,1881600,5,1,0,1.1592,0.228,0.152,2994.167116,3470.9816,682.7474,455.1134
499200,1881600,4,1,0,1.1511,0.228,0.152,2956.397265,3403.2339,674.1745,449.3724
499200,1881600,3,1,0,1.151,0.228,0.152,2976.502942,3425.8809,678.778,452.4284
499200,1881600,6,1,0,1.3314,0.2314,0.152,2938.700522,3912.5056,680.0152,446.6825
499200,1881600,1,1,0,1.1516,0.228,0.152,2936.838064,3382.0624,669.6184,446.3611
499200,1881600,7,1,0,1.1662,0.228,0.152,3004.142821,3503.4195,685.0608,456.6297
1113600,345600,2,1,0,1.459,0.381,0.1516,1304.369701,1903.0188,496.9649,197.7684
1113600,345600,5,1,0,1.4595,0.381,0.1513,1327.937559,1938.1426,505.9442,200.9699
1113600,345600,4,1,0,1.4599,0.381,0.152,1314.353063,1918.8887,500.7114,199.7817
1113600,345600,3,1,0,1.4595,0.381,0.1517,1309.35844,1910.9871,498.8275,198.6792
1113600,345600,6,1,0,1.4596,0.381,0.1516,1318.896237,1925.0115,502.4995,199.9003
1113600,345600,1,1,0,1.4603,0.381,0.1514,1303.356683,1903.3507,496.6363,197.3476
1113600,345600,7,1,0,1.4603,0.381,0.152,1308.888104,1911.3178,498.6864,198.951
1574400,1267200,2,1,0,3.0924,0.6091,0.152,830.429284,2568.0609,505.8484,126.2253
1574400,1267200,5,1,0,3.0956,0.6089,0.152,829.424877,2567.5363,505.0629,126.0726
1574400,1267200,4,1,0,3.0948,0.609,0.152,827.797829,2561.8588,504.1106,125.8253
1574400,1267200,3,1,0,3.0932,0.609,0.152,827.911271,2560.8804,504.1604,125.8425
1574400,1267200,6,1,0,3.0951,0.6089,0.152,836.442638,2588.8571,509.337,127.1393
1574400,1267200,1,1,0,3.088,0.6087,0.152,834.927912,2578.2637,508.2237,126.909
1574400,1267200,7,1,0,3.0936,0.6089,0.152,833.944992,2579.8661,507.8165,126.7596
1420800,1881600,2,3,1,4.7177,2.0896,0.152,220.651069,1040.9651,461.0768,33.539
1420800,1881600,5,3,1,4.7004,2.0821,0.152,218.677633,1027.8643,455.3022,33.239
1420800,1881600,4,3,1,4.6934,2.0713,0.152,222.191106,1042.8231,460.2307,33.773
1420800,1881600,3,3,1,4.5703,1.9585,0.152,235.744285,1077.4205,461.7163,35.8331
1420800,1881600,6,3,1,4.6949,2.0787,0.152,222.200578,1043.2017,461.8838,33.7745
1420800,1881600,1,3,1,4.7237,2.1027,0.152,216.668542,1023.4687,455.5785,32.9336
1420800,1881600,7,3,1,4.7234,2.0982,0.152,220.150552,1039.8685,461.9165,33.4629
1881600,1574400,2,3,1,5.1825,2.539,0.152,191.042031,990.0783,485.0602,29.0384
1881600,1574400,5,3,1,5.1692,2.5206,0.152,193.092834,998.131,486.7088,29.3501
1881600,1574400,4,3,1,5.183,2.5371,0.152,188.566781,977.3506,478.4216,28.6622
1881600,1574400,3,3,1,5.1534,2.5101,0.152,194.574803,1002.7247,488.3955,29.5754
1881600,1574400,6,3,1,5.158,2.5146,0.152,194.043198,1000.8842,487.934,29.4946
1881600,1574400,1,3,1,5.1737,2.5283,0.152,190.055853,983.2957,480.5242,28.8885
1881600,1574400,7,3,1,5.1393,2.4946,0.152,194.051962,997.3005,484.0911,29.4959
960000,345600,2,4,1,2.1668,0.9497,0.152,372.300061,806.6844,353.5727,56.5896
960000,345600,5,4,1,2.1849,0.9618,0.152,358.804888,783.9389,345.0874,54.5383
960000,345600,4,4,1,2.1785,0.955,0.152,367.826642,801.3039,351.2589,55.9096
960000,345600,3,4,1,2.1776,0.9485,0.152,373.299616,812.8829,354.0709,56.7415
960000,345600,6,4,1,2.1758,0.9534,0.152,368.356734,801.4685,351.2049,55.9902
960000,345600,1,4,1,2.1741,0.9569,0.152,363.783545,790.8987,348.1108,55.2951
960000,345600,7,4,1,2.1704,0.9457,0.152,375.844111,815.7192,355.4218,57.1283
499200,345600,2,2,1,1.4865,0.5095,0.152,1287.46706,1913.7652,655.9098,195.6567
499200,345600,5,2,1,1.4816,0.5074,0.152,1280.894851,1897.7774,649.9832,194.696
499200,345600,4,2,1,1.4839,0.5087,0.152,1279.918397,1899.3123,651.0512,194.5476
499200,345600,3,2,1,1.4859,0.5068,0.152,1297.119976,1927.354,657.3479,197.1622
499200,345600,6,2,1,1.4799,0.5054,0.152,1285.770617,1902.8564,649.8398,195.4371
499200,345600,1,2,1,1.5022,0.5089,0.152,1300.333737,1953.3207,661.776,197.6507
499200,345600,7,2,1,1.4744,0.5028,0.152,1274.378688,1878.9682,640.7317,193.7056
345600,1420800,2,2,1,3.6196,1.0802,0.152,468.070668,1694.2241,505.6163,71.1467
345600,1420800,5,2,1,3.61,1.0643,0.152,486.209077,1755.2265,517.4938,73.9038
345600,1420800,4,2,1,3.6186,1.0761,0.152,469.546757,1699.0977,505.293,71.3711
345600,1420800,3,2,1,3.6336,1.0865,0.152,462.619242,1680.9817,502.619,70.3181
345600,1420800,6,2,1,3.624,1.0781,0.152,466.538106,1690.7554,502.9556,70.9138
345600,1420800,1,2,1,3.6159,1.0755,0.152,480.623787,1737.8784,516.9245,73.0548
345600,1420800,7,2,1,3.6163,1.0677,0.152,478.115777,1729.0299,510.5043,72.6736
1267200,499200,2,2,1,2.0054,0.8615,0.152,669.015609,1341.6179,576.3516,101.6904
1267200,499200,5,2,1,2.0057,0.8623,0.152,653.955018,1311.6142,563.8843,99.4012
1267200,499200,4,2,1,2.0103,0.861,0.152,650.038265,1306.776,559.6877,98.8058
1267200,499200,3,2,1,2.0054,0.8506,0.152,676.017792,1355.6839,574.9936,102.7547
1267200,499200,6,2,1,2.0028,0.8559,0.152,663.097887,1328.035,567.5382,100.7909
1267200,499200,1,2,1,2.0082,0.8598,0.152,658.60974,1322.5919,566.2673,100.1087
1267200,499200,7,2,1,2.0026,0.8597,0.152,659.936382,1321.5679,567.3467,100.3103
