Fl,Fb,li,bi,Application,Run Time (s)
345600,499200,4,0,benchmark.csv,1812.7806
960000,1881600,4,0,benchmark.csv,327.4823
806400,345600,3,0,benchmark.csv,461.975
1267200,960000,3,0,benchmark.csv,326.7618
345600,1881600,0,2,benchmark.csv,278.8556
1420800,345600,0,2,benchmark.csv,336.5625
499200,1728000,1,2,benchmark.csv,286.5231
960000,652800,1,2,benchmark.csv,556.2112
1728000,652800,2,0,benchmark.csv,367.0364
652800,806400,0,1,benchmark.csv,1334.7986
1728000,1267200,0,1,benchmark.csv,826.5945
345600,960000,1,1,benchmark.csv,1303.2179
345600,1574400,3,2,benchmark.csv,359.9748
652800,1267200,4,2,benchmark.csv,263.6223
1574400,806400,4,2,benchmark.csv,213.3135
1881600,345600,2,2,benchmark.csv,388.0882
1113600,960000,2,2,benchmark.csv,315.0436
499200,1881600,1,0,benchmark.csv,2956.7265
1113600,345600,1,0,benchmark.csv,1309.6055
1574400,1267200,1,0,benchmark.csv,830.6748
1420800,1881600,3,1,benchmark.csv,220.9304
1881600,1574400,3,1,benchmark.csv,193.4834
960000,345600,4,1,benchmark.csv,368.41
499200,345600,2,1,benchmark.csv,1286.0946
345600,1420800,2,1,benchmark.csv,469.5709
1267200,499200,2,1,benchmark.csv,660.0617
