Fl,Fb,Run,li,bi,Total Power(W),CPU Power(W),GPU Power(W),Run Time (s),Total energy(J),CPU energy(J),GPU energy(J)
499200,345600,2,2,1,1.4906,0.444,0.152,17.616167,26.2578,7.8211,2.6777
499200,345600,5,2,1,1.5164,0.4369,0.152,17.115859,25.9547,7.4778,2.6016
499200,345600,4,2,1,1.4703,0.4375,0.152,17.613712,25.8974,7.7056,2.6773
499200,345600,3,2,1,1.5013,0.4436,0.152,17.110387,25.6875,7.5901,2.6008
499200,345600,1,2,1,1.5389,0.466,0.152,17.119524,26.3451,7.9774,2.6022
345600,1420800,2,2,1,3.3214,0.7405,0.152,15.045499,49.9726,11.1407,2.2869
345600,1420800,5,2,1,3.305,0.7417,0.152,15.049023,49.7365,11.1623,2.2875
345600,1420800,4,2,1,3.2903,0.7443,0.152,15.047859,49.512,11.1997,2.2873
345600,1420800,3,2,1,3.3114,0.7417,0.152,15.053736,49.8491,11.166,2.2882
345600,1420800,1,2,1,3.2604,0.7301,0.152,15.547393,50.6913,11.3513,2.3632
1267200,499200,2,2,1,1.8958,0.6501,0.152,8.543358,16.1964,5.5541,1.2986
1267200,499200,5,2,1,1.9295,0.6412,0.152,8.540971,16.4798,5.4764,1.2982
1267200,499200,4,2,1,1.9081,0.6389,0.152,8.537952,16.2914,5.4552,1.2978
1267200,499200,3,2,1,1.9069,0.6345,0.152,8.53561,16.2769,5.4157,1.2974
1267200,499200,1,2,1,1.8914,0.639,0.152,8.543872,16.1603,5.4592,1.2987
1420800,1881600,2,3,1,4.3902,1.6331,0.152,4.010562,17.6071,6.5495,0.6096
1420800,1881600,5,3,1,4.3207,1.6617,0.152,4.010476,17.3283,6.6644,0.6096
1420800,1881600,4,3,1,4.495,1.6712,0.152,4.010611,18.0277,6.7027,0.6096
1420800,1881600,3,3,1,4.2971,1.638,0.152,4.010593,17.2338,6.5693,0.6096
1420800,1881600,1,3,1,4.3115,1.5619,0.152,4.010618,17.2919,6.264,0.6096
1881600,1574400,2,3,1,4.8269,1.8931,0.152,3.50879,16.9364,6.6426,0.5333
1881600,1574400,5,3,1,4.7262,1.8877,0.152,3.511214,16.5947,6.6282,0.5337
1881600,1574400,4,3,1,4.6773,1.8769,0.152,3.509036,16.4128,6.5859,0.5334
1881600,1574400,3,3,1,4.5494,1.8877,0.152,3.508919,15.9633,6.6238,0.5334
1881600,1574400,1,3,1,4.4186,1.8117,0.152,3.511595,15.5165,6.3618,0.5338
960000,345600,2,4,1,1.8218,0.5918,0.152,8.527995,15.5362,5.0471,1.2963
960000,345600,5,4,1,1.7936,0.619,0.152,8.050465,14.4391,4.9836,1.2237
960000,345600,4,4,1,1.7939,0.6145,0.152,8.034048,14.412,4.9368,1.2212
960000,345600,3,4,1,1.8246,0.625,0.152,7.541603,13.7602,4.7136,1.1463
960000,345600,1,4,1,1.8386,0.612,0.152,8.528364,15.6806,5.2196,1.2963
499200,1881600,2,1,0,1.274,0.228,0.152,34.14938,43.505,7.7861,5.1907
499200,1881600,5,1,0,1.2569,0.228,0.152,34.14649,42.9181,7.7854,5.1903
499200,1881600,4,1,0,1.2804,0.228,0.152,34.151563,43.7272,7.7866,5.191
499200,1881600,3,1,0,1.3196,0.228,0.152,34.15398,45.0695,7.7871,5.1914
499200,1881600,1,1,0,1.2972,0.2303,0.152,34.150206,44.2995,7.8633,5.1908
1113600,345600,2,1,0,1.486,0.305,0.152,14.548118,21.619,4.4372,2.2113
1113600,345600,5,1,0,1.4966,0.305,0.152,14.547317,21.7713,4.4369,2.2112
1113600,345600,4,1,0,1.4834,0.305,0.152,14.549738,21.5828,4.4377,2.2116
1113600,345600,3,1,0,1.5256,0.305,0.152,14.547844,22.1939,4.4371,2.2113
1113600,345600,1,1,0,1.5479,0.3129,0.152,14.547858,22.5188,4.5514,2.2113
1574400,1267200,2,1,0,3.0874,0.5308,0.152,8.524231,26.3177,4.5244,1.2957
1574400,1267200,5,1,0,3.0491,0.533,0.152,8.525866,25.9966,4.5443,1.2959
1574400,1267200,4,1,0,3.048,0.533,0.152,8.523847,25.9807,4.5432,1.2956
1574400,1267200,3,1,0,3.0491,0.533,0.152,8.522031,25.9849,4.5422,1.2953
1574400,1267200,1,1,0,3.0026,0.4931,0.152,10.033419,30.1267,4.9474,1.5251
1881600,345600,2,2,2,3.8555,1.1427,0.152,6.021478,23.2159,6.8808,0.9153
1881600,345600,5,2,2,3.7642,1.1809,0.152,5.519679,20.7773,6.518,0.839
1881600,345600,4,2,2,3.9009,1.16,0.152,5.525873,21.5558,6.41,0.8399
1881600,345600,3,2,2,3.7091,1.1268,0.152,6.024534,22.3458,6.7886,0.9157
1881600,345600,1,2,2,3.7285,1.1492,0.152,6.019793,22.4446,6.9177,0.915
1113600,960000,2,2,2,2.2572,0.9095,0.152,7.029929,15.868,6.3936,1.0685
1113600,960000,5,2,2,2.14,0.9048,0.152,7.524728,16.1026,6.8081,1.1438
1113600,960000,4,2,2,2.3263,0.9226,0.152,7.52912,17.5152,6.9463,1.1444
1113600,960000,3,2,2,2.2396,0.9204,0.152,7.029213,15.7424,6.4699,1.0684
1113600,960000,1,2,2,2.3036,0.8958,0.152,8.02591,18.4885,7.1898,1.2199
345600,1574400,2,3,2,3.9479,1.3278,0.152,10.034027,39.6133,13.3227,1.5252
345600,1574400,5,3,2,3.9498,1.3297,0.152,10.036235,39.6409,13.3451,1.5255
345600,1574400,4,3,2,4.0155,1.3011,0.152,9.543456,38.3219,12.4171,1.4506
345600,1574400,3,3,2,3.9765,1.3239,0.152,10.039253,39.9209,13.291,1.526
345600,1574400,1,3,2,3.836,1.2911,0.152,9.540225,36.5963,12.3177,1.4501
652800,1267200,2,4,2,2.3704,1.0699,0.152,6.523031,15.4621,6.9789,0.9915
652800,1267200,5,4,2,2.351,1.0643,0.152,7.023451,16.5119,7.4747,1.0676
652800,1267200,4,4,2,2.5488,1.0728,0.152,6.527586,16.6375,7.0031,0.9922
652800,1267200,3,4,2,2.4991,1.0786,0.152,6.525599,16.3083,7.0388,0.9919
652800,1267200,1,4,2,2.5241,1.0787,0.152,6.52209,16.4623,7.0353,0.9914
1574400,806400,2,4,2,4.2257,1.4713,0.152,4.01042,16.9468,5.9003,0.6096
1574400,806400,5,4,2,4.1955,1.4967,0.152,3.514496,14.7452,5.2601,0.5342
1574400,806400,4,4,2,4.2949,1.4429,0.152,4.010978,17.2269,5.7874,0.6097
1574400,806400,3,4,2,4.0569,1.4053,0.152,4.511867,18.304,6.3407,0.6858
1574400,806400,1,4,2,4.0906,1.4861,0.152,3.519545,14.3971,5.2305,0.535
345600,960000,2,1,1,1.7254,0.4732,0.152,31.156472,53.7564,14.7418,4.7358
345600,960000,5,1,1,1.7763,0.4903,0.152,30.144825,53.5453,14.7803,4.582
345600,960000,4,1,1,1.7317,0.4826,0.152,30.130512,52.1768,14.5422,4.5798
345600,960000,3,1,1,1.6927,0.4711,0.152,30.144002,51.0255,14.2009,4.5819
345600,960000,1,1,1,1.7247,0.4948,0.152,31.150082,53.7253,15.4138,4.7348
652800,806400,2,0,1,1.4923,0.3995,0.152,104.36858,155.7469,41.6906,15.864
652800,806400,5,0,1,1.4708,0.3995,0.152,103.860745,152.7601,41.4966,15.7868
652800,806400,4,0,1,1.4797,0.3988,0.152,103.864768,153.6934,41.422,15.7874
652800,806400,3,0,1,1.4779,0.3975,0.152,103.866095,153.5034,41.289,15.7876
652800,806400,1,0,1,1.4983,0.4006,0.152,103.364978,154.8673,41.4033,15.7115
1728000,1267200,2,0,1,3.0305,0.5587,0.152,66.189565,200.5854,36.9774,10.0608
1728000,1267200,5,0,1,3.0311,0.557,0.152,66.688383,202.1361,37.1455,10.1366
1728000,1267200,4,0,1,3.0209,0.5592,0.152,66.18579,199.9438,37.0142,10.0602
1728000,1267200,3,0,1,3.0343,0.5589,0.152,66.183996,200.8194,36.9935,10.06
1728000,1267200,1,0,1,3.0171,0.5588,0.152,65.688159,198.1871,36.7089,9.9846
1728000,652800,2,2,0,3.4574,0.9056,0.152,4.511332,15.5977,4.0853,0.6857
1728000,652800,5,2,0,3.4532,0.9056,0.152,4.511337,15.5786,4.0853,0.6857
1728000,652800,4,2,0,3.4743,0.9055,0.152,4.513418,15.6811,4.0871,0.686
1728000,652800,3,2,0,3.6323,0.9056,0.152,4.511325,16.3864,4.0853,0.6857
1728000,652800,1,2,0,3.3452,0.8548,0.152,4.511374,15.0913,3.8565,0.6857
499200,1728000,2,1,2,4.0095,1.451,0.152,12.541196,50.2845,18.1978,1.9063
499200,1728000,5,1,2,4.0019,1.4392,0.152,13.037468,52.1752,18.7639,1.9817
499200,1728000,4,1,2,4.0157,1.4434,0.152,12.543648,50.3714,18.106,1.9066
499200,1728000,3,1,2,4.0446,1.4541,0.152,12.542103,50.728,18.2372,1.9064
499200,1728000,1,1,2,3.9626,1.416,0.152,12.543382,49.704,17.7616,1.9066
960000,652800,2,1,2,1.8482,0.6714,0.152,13.058338,24.1346,8.7673,1.9849
960000,652800,5,1,2,1.8666,0.6635,0.152,13.541466,25.2768,8.9843,2.0583
960000,652800,4,1,2,1.8981,0.6685,0.152,13.053151,24.7757,8.7256,1.9841
960000,652800,3,1,2,1.9171,0.6714,0.152,13.046231,25.0115,8.759,1.983
960000,652800,1,1,2,1.8879,0.679,0.152,13.566651,25.612,9.2113,2.0621
345600,1881600,2,0,2,4.207,1.6232,0.152,36.168031,152.1596,58.7073,5.4975
345600,1881600,5,0,2,4.2981,1.6463,0.152,43.199963,185.6775,71.1222,6.5664
345600,1881600,4,0,2,4.2988,1.6494,0.152,45.204219,194.3237,74.5601,6.871
345600,1881600,3,0,2,4.2581,1.6352,0.152,35.155689,149.696,57.4875,5.3437
345600,1881600,1,0,2,4.1869,1.6419,0.152,43.690309,182.9276,71.7352,6.6409
1420800,345600,2,0,2,3.7368,1.2035,0.152,49.139803,183.6258,59.1385,7.4693
1420800,345600,5,0,2,3.7147,1.2098,0.152,51.647975,191.8575,62.482,7.8505
1420800,345600,4,0,2,3.7164,1.2022,0.152,46.635642,173.3182,56.0664,7.0886
1420800,345600,3,0,2,3.7153,1.2008,0.152,45.129309,167.668,54.1925,6.8597
1420800,345600,1,0,2,3.7048,1.1928,0.152,48.13686,178.3382,57.4197,7.3168
345600,499200,2,4,0,1.3394,0.3022,0.152,34.342123,45.9967,10.3773,5.22
345600,499200,5,4,0,1.223,0.3039,0.152,33.810979,41.3519,10.2735,5.1393
345600,499200,4,4,0,1.2142,0.3022,0.152,34.33933,41.6958,10.3767,5.2196
345600,499200,3,4,0,1.2439,0.305,0.152,33.339322,41.4724,10.1685,5.0676
345600,499200,1,4,0,1.2155,0.305,0.152,33.832697,41.122,10.3185,5.1426
960000,1881600,2,4,0,1.9345,0.5909,0.152,6.020921,11.6478,3.5578,0.9152
960000,1881600,5,4,0,1.809,0.5996,0.152,5.517133,9.9807,3.3083,0.8386
960000,1881600,4,4,0,1.8212,0.5996,0.152,5.516735,10.047,3.308,0.8385
960000,1881600,3,4,0,1.8403,0.5996,0.152,5.519457,10.1574,3.3097,0.839
960000,1881600,1,4,0,1.797,0.5718,0.152,5.519743,9.9189,3.1564,0.839
806400,345600,2,3,0,1.6842,0.4499,0.152,8.030974,13.5259,3.613,1.2207
806400,345600,5,3,0,1.7057,0.457,0.152,8.028506,13.6941,3.669,1.2203
806400,345600,4,3,0,1.6687,0.4523,0.152,8.027534,13.3954,3.6305,1.2202
806400,345600,3,3,0,1.6664,0.4523,0.152,8.027677,13.3771,3.6305,1.2202
806400,345600,1,3,0,1.6747,0.4618,0.152,8.025384,13.4398,3.706,1.2199
1267200,960000,2,3,0,1.8807,0.6638,0.152,6.020184,11.322,3.9965,0.9151
1267200,960000,5,3,0,1.952,0.6638,0.152,6.017356,11.7459,3.9945,0.9146
1267200,960000,4,3,0,1.9839,0.6638,0.152,6.017297,11.9378,3.9945,0.9146
1267200,960000,3,3,0,1.8743,0.6638,0.152,6.017425,11.2787,3.9946,0.9146
1267200,960000,1,3,0,1.9759,0.6955,0.152,6.020578,11.8958,4.1876,0.9151
