TimeStamp,Total Power,CPU Power,GPU Power
1592952503597817,3.885,1.295,0.152
1592952504099394,3.961,1.372,0.152
1592952504601357,4.076,1.295,0.152
1592952505102959,4.19,1.372,0.152
1592952505604619,4.152,1.372,0.152
1592952506106231,4,1.372,0.152
1592952506607848,3.961,1.295,0.152
1592952507109367,3.923,1.295,0.152
1592952507611403,3.923,1.372,0.152
1592952508112989,3.885,1.372,0.152
1592952508614590,3.961,1.372,0.152
1592952509116211,3.961,1.372,0.152
1592952509617732,3.885,1.372,0.152
1592952510119709,3.885,1.295,0.152
1592952510623846,3.885,1.295,0.152
1592952511125450,3.961,1.372,0.152
1592952511627086,3.923,1.295,0.152
1592952512128702,3.885,1.295,0.152
1592952512630635,3.885,1.295,0.152
1592952513132450,3.885,1.295,0.152
1592952513634052,3.733,1.143,0.152
