TimeStamp,A7 Voltage(V),A7 Current(A),A7 Power(W),A15 Voltage(V),A15 Current(A),A15 Power(W),GPU Power(W)
1606676157526626218,1.100000,0.373000,0.411000,0.900000,1.506000,1.430000,0.065000
1606676158145447442,0.900000,0.142000,0.128000,0.900000,1.175000,1.076000,0.065000
1606676158734039075,0.900000,0.142000,0.128000,0.900000,1.190000,1.090000,0.066000
1606676159305936804,1.000000,0.299000,0.313000,0.900000,0.943000,0.862000,0.066000
1606676159885214402,1.000000,0.300000,0.314000,0.900000,1.077000,0.985000,0.066000
1606676160950638845,1.000000,0.299000,0.313000,0.900000,1.012000,0.925000,0.066000
1606676162121351873,0.900000,0.027000,0.024000,0.900000,1.099000,1.006000,0.066000
1606676163205442342,0.900000,0.025000,0.022000,0.900000,0.940000,0.860000,0.066000
1606676163876300437,0.900000,0.118000,0.107000,0.900000,1.011000,0.925000,0.066000
1606676164531548040,0.900000,0.124000,0.112000,1.000000,2.011000,2.053000,0.066000
1606676165210543665,0.900000,0.117000,0.106000,1.000000,2.022000,2.064000,0.066000
1606676165872797476,0.900000,0.112000,0.101000,0.900000,0.231000,0.210000,0.067000
1606676166543107889,0.900000,0.117000,0.106000,0.900000,0.303000,0.275000,0.066000
1606676167203364220,0.900000,0.113000,0.102000,0.900000,0.305000,0.277000,0.066000
1606676167869410844,0.900000,0.112000,0.101000,0.900000,0.591000,0.532000,0.066000
1606676168556774202,0.900000,0.116000,0.105000,0.900000,0.756000,0.681000,0.066000
1606676169207982157,0.900000,0.114000,0.103000,0.900000,0.686000,0.618000,0.066000
1606676169881869623,0.900000,0.113000,0.102000,0.900000,0.942000,0.861000,0.066000
1606676170580699326,0.900000,0.122000,0.110000,0.900000,1.056000,0.967000,0.066000
1606676171282466492,0.900000,0.082000,0.074000,0.900000,0.922000,0.843000,0.066000
1606676171969715614,0.900000,0.070000,0.063000,0.900000,0.984000,0.901000,0.066000
1606676172666921334,0.900000,0.069000,0.062000,0.900000,0.992000,0.907000,0.066000
1606676173343059927,0.900000,0.112000,0.101000,0.900000,1.025000,0.954000,0.066000
1606676174009129754,0.900000,0.120000,0.108000,0.900000,1.175000,1.105000,0.066000
1606676174595772037,0.900000,0.112000,0.101000,0.900000,1.106000,1.040000,0.066000
1606676175170707717,0.900000,0.212000,0.207000,0.900000,1.797000,1.788000,0.066000
1606676175752671887,0.900000,0.213000,0.208000,0.900000,1.790000,1.781000,0.067000
1606676176336895127,0.900000,0.213000,0.208000,0.900000,1.800000,1.791000,0.067000
1606676176926021419,0.900000,0.213000,0.208000,0.900000,1.094000,1.029000,0.067000
1606676177513007767,0.900000,0.213000,0.208000,0.900000,1.094000,1.029000,0.067000
1606676178149023607,0.900000,0.212000,0.207000,0.900000,1.286000,1.211000,0.067000
1606676178776557454,0.900000,0.139000,0.131000,0.900000,1.093000,1.028000,0.067000
1606676179440678408,0.900000,0.139000,0.131000,0.900000,1.093000,1.028000,0.067000
1606676180084110991,0.900000,0.140000,0.132000,0.900000,1.107000,1.041000,0.067000
1606676180716136758,0.900000,0.139000,0.131000,0.900000,1.249000,1.207000,0.067000
1606676181356853677,0.900000,0.140000,0.132000,0.900000,1.248000,1.206000,0.067000
1606676182016219540,0.900000,0.139000,0.131000,0.900000,1.250000,1.208000,0.067000
1606676182659175237,0.900000,0.140000,0.132000,0.900000,1.313000,1.269000,0.067000
1606676183290370505,0.900000,0.171000,0.161000,0.900000,1.586000,1.535000,0.068000
1606676183952567155,0.900000,0.155000,0.146000,0.900000,1.590000,1.539000,0.067000
1606676184564947243,0.900000,0.164000,0.160000,0.900000,1.596000,1.544000,0.068000
1606676185190222782,0.900000,0.203000,0.199000,0.900000,1.595000,1.543000,0.068000
1606676185853671262,0.900000,0.180000,0.176000,0.900000,1.594000,1.542000,0.068000
1606676186483631511,0.900000,0.140000,0.132000,0.900000,1.804000,1.794000,0.068000
1606676187124072415,0.900000,0.175000,0.165000,0.900000,1.805000,1.795000,0.068000
1606676187715026855,0.900000,0.167000,0.159000,0.900000,1.772000,1.763000,0.068000
1606676188303043644,0.900000,0.214000,0.209000,0.900000,1.794000,1.785000,0.068000
1606676188889178832,0.900000,0.214000,0.209000,0.900000,1.790000,1.781000,0.068000
1606676189524588635,0.900000,0.213000,0.208000,0.900000,1.806000,1.796000,0.068000
1606676190153244090,0.900000,0.144000,0.136000,0.900000,1.593000,1.542000,0.068000
1606676190812489652,0.900000,0.162000,0.153000,0.900000,1.582000,1.531000,0.068000
1606676191428520296,0.900000,0.165000,0.161000,0.900000,1.770000,1.754000,0.068000
1606676192041060792,0.900000,0.170000,0.166000,0.900000,1.807000,1.797000,0.068000
1606676192698972334,0.900000,0.192000,0.188000,0.900000,1.793000,1.784000,0.068000
1606676193337605495,0.900000,0.141000,0.133000,0.900000,1.603000,1.551000,0.069000
1606676193965445831,0.900000,0.140000,0.132000,0.900000,1.599000,1.547000,0.069000
1606676194625426175,0.900000,0.173000,0.163000,0.900000,1.585000,1.534000,0.068000
1606676195258622971,0.900000,0.150000,0.141000,0.900000,1.801000,1.791000,0.069000
1606676195887273114,0.900000,0.141000,0.133000,0.900000,1.807000,1.797000,0.069000
1606676196532157174,0.900000,0.159000,0.150000,0.900000,1.808000,1.798000,0.069000
1606676197166051423,0.900000,0.147000,0.138000,0.900000,1.802000,1.792000,0.069000
1606676197817649650,0.900000,0.142000,0.134000,0.900000,1.808000,1.798000,0.069000
1606676198447423963,0.900000,0.162000,0.153000,0.900000,1.809000,1.799000,0.069000
1606676199076347195,0.900000,0.146000,0.137000,0.900000,1.808000,1.798000,0.069000
1606676199705889841,0.900000,0.157000,0.148000,0.900000,1.804000,1.794000,0.070000
1606676200333097584,0.900000,0.165000,0.155000,0.900000,1.808000,1.798000,0.069000
1606676200960679307,0.900000,0.140000,0.132000,0.900000,1.810000,1.800000,0.069000
1606676201596185533,0.900000,0.154000,0.145000,0.900000,1.804000,1.794000,0.069000
1606676202228568909,0.900000,0.152000,0.143000,0.900000,1.810000,1.800000,0.069000
1606676202889013362,0.900000,0.141000,0.133000,0.900000,1.810000,1.800000,0.069000
1606676203522742349,0.900000,0.140000,0.132000,0.900000,1.810000,1.800000,0.069000
1606676204155011213,0.900000,0.167000,0.157000,0.900000,1.799000,1.790000,0.069000
1606676204796146829,0.900000,0.146000,0.137000,0.900000,1.797000,1.788000,0.069000
1606676205446389840,0.900000,0.140000,0.132000,0.900000,1.810000,1.800000,0.069000
1606676206111792569,0.900000,0.162000,0.153000,0.900000,1.810000,1.800000,0.070000
1606676206742576458,0.900000,0.144000,0.136000,0.900000,1.802000,1.792000,0.069000
1606676207373100338,0.900000,0.140000,0.132000,0.900000,1.811000,1.801000,0.069000
1606676208002218005,0.900000,0.153000,0.144000,0.900000,1.810000,1.800000,0.069000
1606676208631280073,0.900000,0.156000,0.147000,0.900000,1.806000,1.796000,0.070000
1606676209292556753,0.900000,0.150000,0.141000,0.900000,1.805000,1.795000,0.069000
1606676209919428039,0.900000,0.167000,0.157000,0.900000,1.807000,1.797000,0.070000
1606676210561627532,0.900000,0.141000,0.133000,0.900000,1.809000,1.799000,0.070000
1606676211226948364,0.900000,0.152000,0.143000,0.900000,1.805000,1.795000,0.070000
1606676211866034203,0.900000,0.167000,0.157000,0.900000,1.810000,1.800000,0.070000
1606676212503717931,0.900000,0.141000,0.133000,0.900000,1.811000,1.801000,0.070000
1606676213131112763,0.900000,0.151000,0.142000,0.900000,1.807000,1.797000,0.070000
1606676213759467960,0.900000,0.172000,0.162000,0.900000,1.802000,1.792000,0.070000
1606676214382723708,0.900000,0.141000,0.133000,0.900000,1.810000,1.800000,0.070000
1606676215047790077,0.900000,0.141000,0.133000,0.900000,1.810000,1.800000,0.070000
1606676215701365238,0.900000,0.153000,0.144000,0.900000,1.806000,1.796000,0.070000
1606676216344081771,0.900000,0.141000,0.133000,0.900000,1.810000,1.800000,0.070000
1606676217003053056,0.900000,0.140000,0.132000,0.900000,1.809000,1.799000,0.070000
1606676217633950428,0.900000,0.175000,0.165000,0.900000,1.801000,1.791000,0.070000
1606676218277068359,0.900000,0.149000,0.140000,0.900000,1.795000,1.786000,0.070000
1606676218937986839,0.900000,0.140000,0.132000,0.900000,1.810000,1.800000,0.070000
1606676219595285464,0.900000,0.165000,0.155000,0.900000,1.810000,1.800000,0.070000
1606676220221485174,0.900000,0.155000,0.146000,0.900000,1.809000,1.799000,0.070000
1606676220882971898,0.900000,0.141000,0.133000,0.900000,1.810000,1.800000,0.070000
1606676221525271236,0.900000,0.157000,0.148000,0.900000,1.809000,1.799000,0.070000
1606676222188086902,0.900000,0.147000,0.138000,0.900000,1.807000,1.797000,0.070000
1606676222814515942,0.900000,0.144000,0.136000,0.900000,1.808000,1.798000,0.070000
1606676223488762568,0.900000,0.170000,0.160000,0.900000,1.809000,1.799000,0.070000
1606676224145913902,0.900000,0.140000,0.132000,0.900000,1.811000,1.801000,0.070000
1606676224779310729,0.900000,0.155000,0.146000,0.900000,1.801000,1.791000,0.070000
1606676225449490445,0.900000,0.169000,0.159000,0.900000,1.811000,1.801000,0.070000
1606676226077749304,0.900000,0.141000,0.133000,0.900000,1.812000,1.802000,0.070000
1606676226742165603,0.900000,0.149000,0.140000,0.900000,1.811000,1.801000,0.070000
1606676227410117131,0.900000,0.175000,0.165000,0.900000,1.804000,1.794000,0.070000
1606676228056156597,0.900000,0.141000,0.133000,0.900000,1.811000,1.801000,0.070000
1606676228687241332,0.900000,0.140000,0.132000,0.900000,1.811000,1.801000,0.070000
1606676229318387457,0.900000,0.174000,0.164000,0.900000,1.792000,1.783000,0.070000
1606676229944205406,0.900000,0.140000,0.132000,0.900000,1.813000,1.803000,0.070000
1606676230562760077,0.900000,0.141000,0.133000,0.900000,1.813000,1.803000,0.071000
1606676231181541194,0.900000,0.170000,0.160000,0.900000,1.804000,1.794000,0.070000
1606676231794015917,0.900000,0.146000,0.137000,0.900000,1.810000,1.800000,0.070000
1606676232427324999,0.900000,0.141000,0.133000,0.900000,1.811000,1.801000,0.070000
1606676233068757595,0.900000,0.161000,0.152000,0.900000,1.739000,1.730000,0.070000
1606676233691964625,0.900000,0.151000,0.142000,0.900000,1.807000,1.797000,0.070000
1606676234315743473,0.900000,0.155000,0.146000,0.900000,1.812000,1.802000,0.070000
1606676234940690211,0.900000,0.142000,0.134000,0.900000,1.813000,1.803000,0.070000
1606676235557432450,0.900000,0.141000,0.133000,0.900000,1.812000,1.802000,0.070000
1606676236193004474,0.900000,0.154000,0.145000,0.900000,1.809000,1.799000,0.070000
1606676236833730440,0.900000,0.176000,0.165000,0.900000,1.811000,1.801000,0.071000
1606676237450751612,0.900000,0.141000,0.133000,0.900000,1.812000,1.802000,0.070000
1606676238077368795,0.900000,0.141000,0.133000,0.900000,1.810000,1.800000,0.070000
1606676238694559009,0.900000,0.171000,0.161000,0.900000,1.800000,1.791000,0.070000
1606676239305484138,0.900000,0.142000,0.134000,0.900000,1.812000,1.802000,0.070000
1606676239947468914,0.900000,0.140000,0.132000,0.900000,1.811000,1.801000,0.070000
1606676240594293118,0.900000,0.148000,0.139000,0.900000,1.797000,1.788000,0.070000
1606676241209874572,0.900000,0.156000,0.147000,0.900000,1.806000,1.796000,0.070000
1606676241829861565,0.900000,0.141000,0.133000,0.900000,1.812000,1.802000,0.071000
1606676242451424641,0.900000,0.144000,0.136000,0.900000,1.812000,1.802000,0.071000
1606676243073901618,0.900000,0.162000,0.153000,0.900000,1.801000,1.791000,0.070000
1606676243712759529,0.900000,0.142000,0.134000,0.900000,1.812000,1.802000,0.070000
1606676244364412639,0.900000,0.146000,0.137000,0.900000,1.813000,1.803000,0.071000
1606676244972396772,0.900000,0.149000,0.140000,0.900000,1.809000,1.799000,0.070000
1606676245591973105,0.900000,0.150000,0.141000,0.900000,1.808000,1.798000,0.071000
1606676246211697257,0.900000,0.147000,0.138000,0.900000,1.813000,1.803000,0.071000
1606676246829501772,0.900000,0.144000,0.136000,0.900000,1.813000,1.803000,0.071000
1606676247473114781,0.900000,0.149000,0.140000,0.900000,1.810000,1.800000,0.070000
1606676248115924920,0.900000,0.155000,0.146000,0.900000,1.806000,1.796000,0.071000
1606676248732335026,0.900000,0.141000,0.133000,0.900000,1.813000,1.803000,0.071000
1606676249365766808,0.900000,0.143000,0.135000,0.900000,1.813000,1.803000,0.070000
1606676250096022761,0.900000,0.162000,0.153000,0.900000,1.805000,1.795000,0.071000
1606676250707549285,0.900000,0.146000,0.137000,0.900000,1.810000,1.800000,0.070000
1606676251325764477,0.900000,0.141000,0.133000,0.900000,1.813000,1.803000,0.070000
1606676251951718960,0.900000,0.160000,0.151000,0.900000,1.807000,1.797000,0.070000
1606676252570956634,0.900000,0.153000,0.144000,0.900000,1.798000,1.789000,0.070000
1606676253213580268,0.900000,0.141000,0.133000,0.900000,1.812000,1.802000,0.070000
1606676253862847666,0.900000,0.143000,0.135000,0.900000,1.812000,1.802000,0.070000
1606676254468627811,0.900000,0.160000,0.151000,0.900000,1.801000,1.791000,0.071000
1606676255089445844,0.900000,0.141000,0.133000,0.900000,1.813000,1.803000,0.071000
1606676255713622389,0.900000,0.140000,0.132000,0.900000,1.812000,1.802000,0.070000
1606676256336764370,0.900000,0.157000,0.148000,0.900000,1.806000,1.796000,0.071000
1606676256952847435,0.900000,0.148000,0.139000,0.900000,1.808000,1.798000,0.071000
1606676257575021811,0.900000,0.141000,0.133000,0.900000,1.812000,1.802000,0.071000
1606676258193704038,0.900000,0.144000,0.136000,0.900000,1.812000,1.802000,0.070000
1606676258815932513,0.900000,0.151000,0.142000,0.900000,1.810000,1.800000,0.070000
1606676259442635595,0.900000,0.153000,0.144000,0.900000,1.809000,1.799000,0.070000
1606676260061362428,0.900000,0.172000,0.162000,0.900000,1.809000,1.799000,0.071000
1606676260684638408,0.900000,0.141000,0.133000,0.900000,1.813000,1.803000,0.070000
1606676261307556116,0.900000,0.150000,0.141000,0.900000,1.805000,1.795000,0.071000
1606676261941102017,0.900000,0.170000,0.160000,0.900000,1.811000,1.801000,0.071000
1606676262577955516,0.900000,0.141000,0.133000,0.900000,1.813000,1.803000,0.071000
1606676263200035699,0.900000,0.153000,0.144000,0.900000,1.811000,1.801000,0.070000
1606676263823093812,0.900000,0.178000,0.167000,0.900000,1.800000,1.791000,0.071000
1606676264448509029,0.900000,0.141000,0.133000,0.900000,1.811000,1.801000,0.070000
1606676265084690697,0.900000,0.140000,0.132000,0.900000,1.812000,1.802000,0.071000
1606676265710000559,0.900000,0.151000,0.142000,0.900000,1.794000,1.785000,0.070000
1606676266347874070,0.900000,0.156000,0.147000,0.900000,1.807000,1.797000,0.070000
1606676266960064412,0.900000,0.141000,0.133000,0.900000,1.812000,1.802000,0.071000
1606676267583569500,0.900000,0.150000,0.141000,0.900000,1.812000,1.802000,0.071000
1606676268199121687,0.900000,0.149000,0.140000,0.900000,1.806000,1.796000,0.071000
1606676268823782823,0.900000,0.141000,0.133000,0.900000,1.813000,1.803000,0.070000
1606676269465235161,0.900000,0.152000,0.143000,0.900000,1.812000,1.802000,0.071000
1606676270096825129,0.900000,0.152000,0.143000,0.900000,1.808000,1.798000,0.070000
1606676270713630312,0.900000,0.150000,0.141000,0.900000,1.808000,1.798000,0.071000
1606676271328976306,0.900000,0.148000,0.139000,0.900000,1.745000,1.736000,0.070000
1606676271951566821,0.900000,0.142000,0.134000,0.900000,1.814000,1.804000,0.070000
1606676272595046197,0.900000,0.149000,0.140000,0.900000,1.808000,1.798000,0.070000
1606676273213153718,0.900000,0.160000,0.151000,0.900000,1.809000,1.799000,0.070000
1606676273847509472,0.900000,0.141000,0.133000,0.900000,1.812000,1.802000,0.071000
1606676274462422311,0.900000,0.141000,0.133000,0.900000,1.812000,1.802000,0.070000
1606676275085706130,0.900000,0.172000,0.162000,0.900000,1.799000,1.790000,0.070000
1606676275701494092,0.900000,0.142000,0.134000,0.900000,1.813000,1.803000,0.070000
1606676276316359021,0.900000,0.141000,0.133000,0.900000,1.796000,1.787000,0.070000
1606676276962873801,0.900000,0.169000,0.159000,0.900000,1.798000,1.789000,0.071000
1606676277610098280,0.900000,0.144000,0.136000,0.900000,1.811000,1.801000,0.070000
1606676278218786288,0.900000,0.142000,0.134000,0.900000,1.811000,1.801000,0.071000
1606676278840826612,0.900000,0.141000,0.133000,0.900000,1.810000,1.800000,0.070000
1606676279457865088,0.900000,0.164000,0.154000,0.900000,1.797000,1.788000,0.070000
1606676280093794409,0.900000,0.141000,0.133000,0.900000,1.811000,1.801000,0.070000
1606676280719132530,0.900000,0.140000,0.132000,0.900000,1.812000,1.802000,0.070000
1606676281360652605,0.900000,0.160000,0.151000,0.900000,1.811000,1.801000,0.071000
1606676281971499541,0.900000,0.152000,0.143000,0.900000,1.809000,1.799000,0.070000
1606676282589395957,0.900000,0.140000,0.132000,0.900000,1.812000,1.802000,0.070000
1606676283207980660,0.900000,0.155000,0.146000,0.900000,1.807000,1.797000,0.070000
1606676283834546216,0.900000,0.153000,0.144000,0.900000,1.805000,1.795000,0.070000
1606676284472926422,0.900000,0.154000,0.145000,0.900000,1.808000,1.798000,0.071000
1606676285121524981,0.900000,0.155000,0.146000,0.900000,1.812000,1.802000,0.071000
1606676285729120273,0.900000,0.141000,0.133000,0.900000,1.814000,1.804000,0.071000
1606676286343672140,0.900000,0.153000,0.144000,0.900000,1.600000,1.548000,0.071000
1606676286953112455,0.900000,0.158000,0.149000,0.900000,1.600000,1.548000,0.070000
1606676287574599211,0.900000,0.142000,0.134000,0.900000,1.600000,1.548000,0.070000
1606676288201909806,0.900000,0.140000,0.132000,0.900000,1.578000,1.527000,0.070000
1606676288819879021,0.900000,0.162000,0.153000,0.900000,1.584000,1.533000,0.070000
1606676289431336640,0.900000,0.141000,0.133000,0.900000,1.599000,1.547000,0.070000
1606676290030370584,0.900000,0.170000,0.166000,0.900000,1.600000,1.548000,0.070000
1606676290645324843,0.900000,0.207000,0.202000,0.900000,1.589000,1.538000,0.070000
1606676291236733809,0.900000,0.180000,0.176000,0.900000,1.598000,1.546000,0.070000
1606676291838293470,0.900000,0.170000,0.166000,0.900000,1.597000,1.545000,0.070000
1606676292461252070,0.900000,0.170000,0.166000,0.900000,1.599000,1.547000,0.070000
1606676293086978109,0.900000,0.180000,0.176000,0.900000,1.591000,1.540000,0.070000
1606676293688200780,0.900000,0.175000,0.171000,0.900000,1.594000,1.542000,0.069000
1606676294288825467,0.900000,0.181000,0.177000,0.900000,1.600000,1.548000,0.070000
1606676294870622768,0.900000,0.170000,0.166000,0.900000,1.601000,1.549000,0.070000
1606676295436029206,0.900000,0.214000,0.209000,0.900000,1.212000,1.140000,0.070000
1606676296002879925,0.900000,0.214000,0.209000,0.900000,1.150000,1.082000,0.069000
1606676296592058451,0.900000,0.213000,0.208000,0.900000,1.097000,1.031000,0.070000
1606676297161898365,0.900000,0.214000,0.209000,0.900000,1.185000,1.115000,0.069000
1606676297728616403,0.900000,0.214000,0.209000,0.900000,1.297000,1.221000,0.069000
1606676298305050518,0.900000,0.213000,0.208000,0.900000,1.097000,1.032000,0.069000
1606676298873066840,0.900000,0.214000,0.209000,0.900000,1.242000,1.168000,0.069000
1606676299432984163,1.000000,0.252000,0.256000,0.900000,1.038000,0.949000,0.069000
1606676299994279643,1.000000,0.252000,0.256000,0.900000,0.948000,0.867000,0.069000
1606676300569204970,1.000000,0.252000,0.256000,0.900000,0.973000,0.890000,0.068000
1606676301129375789,1.000000,0.252000,0.256000,0.900000,1.136000,1.040000,0.068000
1606676301692504852,1.000000,0.252000,0.256000,0.900000,0.948000,0.867000,0.069000
1606676302253960405,1.000000,0.252000,0.256000,0.900000,1.018000,0.931000,0.069000
1606676302838414343,1.000000,0.252000,0.256000,0.900000,1.047000,0.958000,0.068000
1606676303398359039,1.000000,0.252000,0.256000,0.900000,0.820000,0.738000,0.068000
1606676303965573499,1.000000,0.252000,0.256000,0.900000,0.819000,0.737000,0.068000
1606676304532994925,1.000000,0.252000,0.256000,0.900000,0.894000,0.805000,0.068000
1606676305106432534,1.000000,0.252000,0.256000,0.900000,0.820000,0.739000,0.068000
1606676305671632919,1.000000,0.252000,0.256000,0.900000,0.818000,0.737000,0.068000
1606676306231977073,1.000000,0.251000,0.255000,0.900000,0.946000,0.853000,0.068000
1606676306834305773,1.000000,0.252000,0.256000,0.900000,0.819000,0.737000,0.068000
1606676307410697041,1.000000,0.234000,0.234000,0.900000,0.905000,0.828000,0.068000
1606676307976199787,0.900000,0.213000,0.208000,0.900000,1.183000,1.114000,0.068000
1606676308542734543,0.900000,0.213000,0.208000,0.900000,1.095000,1.030000,0.068000
1606676309108369709,0.900000,0.213000,0.208000,0.900000,1.094000,1.029000,0.068000
1606676309672393124,0.900000,0.214000,0.209000,0.900000,1.245000,1.171000,0.068000
1606676310274458210,0.900000,0.213000,0.208000,0.900000,1.095000,1.030000,0.068000
1606676310868992476,0.900000,0.213000,0.208000,0.900000,1.095000,1.030000,0.068000
1606676311432013655,1.000000,0.234000,0.234000,0.900000,1.153000,1.058000,0.068000
1606676311988990393,1.000000,0.252000,0.256000,0.900000,0.944000,0.863000,0.068000
1606676312550330925,1.000000,0.252000,0.256000,0.900000,0.947000,0.866000,0.068000
1606676313110665072,1.000000,0.252000,0.256000,0.900000,0.991000,0.906000,0.068000
1606676313666307486,1.000000,0.251000,0.254000,0.900000,1.027000,0.939000,0.068000
1606676314227915287,1.000000,0.251000,0.254000,0.900000,0.946000,0.865000,0.068000
1606676314793250258,1.000000,0.250000,0.253000,0.900000,0.819000,0.737000,0.068000
1606676315351139937,1.000000,0.252000,0.256000,0.900000,0.945000,0.852000,0.068000
1606676315911238387,1.000000,0.251000,0.255000,0.900000,0.819000,0.737000,0.068000
1606676316472836875,1.000000,0.252000,0.256000,0.900000,0.855000,0.770000,0.068000
1606676317041408105,1.000000,0.252000,0.256000,0.900000,0.960000,0.865000,0.067000
1606676317621507903,1.000000,0.252000,0.256000,0.900000,0.869000,0.782000,0.067000
1606676318187203436,0.900000,0.213000,0.208000,0.900000,1.007000,0.934000,0.068000
1606676318758314464,0.900000,0.213000,0.208000,0.900000,1.214000,1.142000,0.068000
1606676319335551073,0.900000,0.213000,0.208000,0.900000,1.119000,1.052000,0.068000
1606676319906608674,0.900000,0.213000,0.208000,0.900000,1.094000,1.029000,0.068000
1606676320476709311,0.900000,0.213000,0.208000,0.900000,1.259000,1.184000,0.068000
1606676321082675778,0.900000,0.190000,0.186000,0.900000,1.219000,1.147000,0.068000
1606676321683620141,0.900000,0.169000,0.165000,0.900000,1.593000,1.542000,0.068000
1606676322286949870,0.900000,0.198000,0.194000,0.900000,1.596000,1.544000,0.068000
1606676322886050953,0.900000,0.179000,0.175000,0.900000,1.577000,1.526000,0.068000
1606676323486126374,0.900000,0.180000,0.176000,0.900000,1.595000,1.543000,0.068000
1606676324099441813,0.900000,0.188000,0.184000,0.900000,1.596000,1.544000,0.068000
1606676324722812204,0.900000,0.169000,0.165000,0.900000,1.597000,1.545000,0.068000
1606676325335796032,0.900000,0.160000,0.153000,0.900000,1.591000,1.540000,0.068000
1606676325946715290,0.900000,0.167000,0.157000,0.900000,1.804000,1.794000,0.069000
1606676326567194154,0.900000,0.143000,0.135000,0.900000,1.807000,1.797000,0.069000
1606676327198102187,0.900000,0.147000,0.138000,0.900000,1.808000,1.798000,0.069000
1606676327828886077,0.900000,0.173000,0.163000,0.900000,1.802000,1.792000,0.069000
1606676328434512783,0.900000,0.144000,0.136000,0.900000,1.810000,1.800000,0.069000
1606676329038081065,0.900000,0.169000,0.165000,0.900000,1.600000,1.548000,0.069000
1606676329649363099,0.900000,0.171000,0.167000,0.900000,1.580000,1.529000,0.069000
1606676330243495252,0.900000,0.172000,0.168000,0.900000,1.598000,1.546000,0.069000
1606676330841875596,0.900000,0.170000,0.166000,0.900000,1.599000,1.547000,0.069000
1606676331465783379,0.900000,0.171000,0.167000,0.900000,1.599000,1.547000,0.069000
1606676332076496433,0.900000,0.148000,0.139000,0.900000,1.596000,1.544000,0.069000
1606676332682861412,0.900000,0.140000,0.132000,0.900000,1.599000,1.547000,0.069000
1606676333303848362,0.900000,0.150000,0.141000,0.900000,1.599000,1.547000,0.069000
1606676333929992049,0.900000,0.151000,0.142000,0.900000,1.596000,1.544000,0.069000
1606676334557505977,0.900000,0.150000,0.141000,0.900000,1.595000,1.543000,0.069000
1606676335185106916,0.900000,0.143000,0.135000,0.900000,1.598000,1.546000,0.069000
1606676335797279976,0.900000,0.142000,0.134000,0.900000,1.599000,1.547000,0.069000
1606676336424507691,0.900000,0.146000,0.137000,0.900000,1.806000,1.796000,0.069000
1606676337040410395,0.900000,0.153000,0.144000,0.900000,1.805000,1.795000,0.069000
1606676337646795388,0.900000,0.141000,0.133000,0.900000,1.810000,1.800000,0.069000
1606676338251715977,0.900000,0.140000,0.132000,0.900000,1.805000,1.795000,0.069000
1606676338913514460,0.900000,0.153000,0.144000,0.900000,1.801000,1.791000,0.069000
1606676339449516174,0.900000,0.154000,0.146000,0.900000,1.809000,1.799000,0.069000
