TimestampMillisecs	[VirtualCores]	Workers	HT	Frequency	ClockModulation	PForChunk	CurrentThroughput	SmoothedThroughput	CoeffVarThroughput	SmoothedLatency	SmoothedUtilization	CurrentWatts	SmoothedWatts	
658.3	[0,1,2,|4,5,6,|]	3|3|	1|1|	500000|800000|	100|100|	1|1|	4.47899e+06	4.47899e+06	0	0	0	3.64799	3.64799	
980.781	[0,1,2,|4,5,6,|]	3|3|	1|1|	500000|800000|	100|100|	1|1|	3.83529e+06	4.15714e+06	7.74202	0	0	3.62709	3.63754	
1157.53	[0,1,2,|4,5,6,|]	3|3|	1|1|	500000|800000|	100|100|	1|1|	3.97784e+06	4.06749e+06	6.01354	0	0	4.87142	4.25448	
1410.39	[0,1,2,|4,5,6,|]	3|3|	1|1|	500000|800000|	100|100|	1|1|	4.18607e+06	4.12678e+06	4.43053	0	0	3.65948	3.95698	
1657.77	[0,1,2,|4,5,6,|]	3|3|	1|1|	500000|800000|	100|100|	1|1|	4.49509e+06	4.31093e+06	5.21942	0	0	3.63507	3.79602	
2375.64	[0,1,2,3,|4,5,6,|]	4|3|	1|1|	900000|800000|	100|100|	1|1|	4.93456e+06	4.93456e+06	0	0	0	3.65345	3.65345	
2620.25	[0,1,2,3,|4,5,6,|]	4|3|	1|1|	900000|800000|	100|100|	1|1|	4.89591e+06	4.91524e+06	0.393082	0	0	4.69435	4.1739	
2873.54	[0,1,2,3,|4,5,6,|]	4|3|	1|1|	900000|800000|	100|100|	1|1|	4.8486e+06	4.88192e+06	0.737661	0	0	3.60917	3.89153	
3126.32	[0,1,2,3,|4,5,6,|]	4|3|	1|1|	900000|800000|	100|100|	1|1|	4.48639e+06	4.68415e+06	4.25676	0	0	4.01172	3.95162	
3375.06	[0,1,2,3,|4,5,6,|]	4|3|	1|1|	900000|800000|	100|100|	1|1|	4.85875e+06	4.77145e+06	3.47549	0	0	4.90297	4.4273	
4757.03	[0,|4,5,6,|]	1|3|	1|1|	200000|800000|	100|100|	1|1|	2.62081e+06	2.62081e+06	0	0	0	3.77845	3.77845	
4983.92	[0,|4,5,6,|]	1|3|	1|1|	200000|800000|	100|100|	1|1|	2.6423e+06	2.63156e+06	0.40844	0	0	3.66684	3.72264	
5247.53	[0,|4,5,6,|]	1|3|	1|1|	200000|800000|	100|100|	1|1|	2.72153e+06	2.67654e+06	1.70458	0	0	4.79726	4.25995	
5489.94	[0,|4,5,6,|]	1|3|	1|1|	200000|800000|	100|100|	1|1|	2.78263e+06	2.72958e+06	2.27441	0	0	4.09799	4.17897	
5728.63	[0,|4,5,6,|]	1|3|	1|1|	200000|800000|	100|100|	1|1|	2.77834e+06	2.75396e+06	1.82332	0	0	3.81388	3.99642	
7033.56	[0,1,2,|4,5,6,7,|]	3|4|	1|1|	500000|1200000|	100|100|	1|1|	6.21796e+06	6.21796e+06	0	0	0	3.65986	3.65986	
7283.2	[0,1,2,|4,5,6,7,|]	3|4|	1|1|	500000|1200000|	100|100|	1|1|	6.11816e+06	6.16806e+06	0.808939	0	0	3.9561	3.80798	
7533.42	[0,1,2,|4,5,6,7,|]	3|4|	1|1|	500000|1200000|	100|100|	1|1|	6.23281e+06	6.20044e+06	0.772301	3370.75	32.0578	3.59987	3.70393	
7783.6	[0,1,2,|4,5,6,7,|]	3|4|	1|1|	500000|1200000|	100|100|	1|1|	6.33e+06	6.26522e+06	1.16674	1685.38	16.0289	3.61473	3.65933	
8033.4	[0,1,2,|4,5,6,7,|]	3|4|	1|1|	500000|1200000|	100|100|	1|1|	6.30523e+06	6.28522e+06	0.881818	842.688	8.01444	4.82849	4.24391	
8875.23	[0,1,2,|4,|]	3|1|	1|1|	500000|400000|	100|100|	1|1|	1.31209e+06	1.31209e+06	0	5961.04	68.0433	3.69516	3.69516	
9126.52	[0,1,2,|4,|]	3|1|	1|1|	500000|400000|	100|100|	1|1|	1.26559e+06	1.28884e+06	1.80407	5990.53	66.9418	3.63656	3.66586	
9374.66	[0,1,2,|4,|]	3|1|	1|1|	500000|400000|	100|100|	1|1|	1.27887e+06	1.28386e+06	1.33823	5988.06	66.3572	3.597	3.63143	
9623.95	[0,1,2,|4,|]	3|1|	1|1|	500000|400000|	100|100|	1|1|	1.2903e+06	1.28708e+06	0.976542	5942.89	66.4196	4.01417	3.8228	
9875.37	[0,1,2,|4,|]	3|1|	1|1|	500000|400000|	100|100|	1|1|	1.28565e+06	1.28636e+06	0.693147	5930.65	66.5179	3.9744	3.8986	
10676.6	[0,1,2,|4,5,|]	3|2|	1|1|	500000|700000|	100|100|	1|1|	2.44925e+06	2.44925e+06	0	0	0	3.60548	3.60548	
10922.6	[0,1,2,|4,5,|]	3|2|	1|1|	500000|700000|	100|100|	1|1|	2.46519e+06	2.45722e+06	0.32429	0	0	4.38666	3.99607	
11174.8	[0,1,2,|4,5,|]	3|2|	1|1|	500000|700000|	100|100|	1|1|	2.38344e+06	2.42033e+06	1.54172	0	0	3.64306	3.81956	
11422.9	[0,1,2,|4,5,|]	3|2|	1|1|	500000|700000|	100|100|	1|1|	2.45749e+06	2.43891e+06	1.3232	0	0	3.60097	3.71026	
11676.8	[0,1,2,|4,5,|]	3|2|	1|1|	500000|700000|	100|100|	1|1|	2.43398e+06	2.43645e+06	0.942036	0	0	4.80031	4.25529	
12530.6	[0,1,2,|4,5,6,|]	3|3|	1|1|	500000|800000|	100|100|	1|1|	3.59957e+06	3.59957e+06	0	0	0	4.02975	4.02975	
12780.5	[0,1,2,|4,5,6,|]	3|3|	1|1|	500000|800000|	100|100|	1|1|	3.62573e+06	3.61265e+06	0.362036	0	0	3.62094	3.82534	
13034	[0,1,2,|4,5,6,|]	3|3|	1|1|	500000|800000|	100|100|	1|1|	3.38709e+06	3.49987e+06	3.23315	0	0	4.78338	4.30436	
13280.7	[0,1,2,|4,5,6,|]	3|3|	1|1|	500000|800000|	100|100|	1|1|	3.59758e+06	3.54873e+06	2.64176	0	0	3.82582	4.06509	
13530.9	[0,1,2,|4,5,6,|]	3|3|	1|1|	500000|800000|	100|100|	1|1|	3.61497e+06	3.58185e+06	2.0689	0	0	3.62261	3.84385	
14463.6	[0,1,|4,5,6,|]	2|3|	1|1|	400000|800000|	100|100|	1|1|	3.1287e+06	3.1287e+06	0	0	0	3.4647	3.4647	
14706.8	[0,1,|4,5,6,|]	2|3|	1|1|	400000|800000|	100|100|	1|1|	3.06479e+06	3.09674e+06	1.03192	0	0	4.55004	4.00737	
14964.3	[0,1,|4,5,6,|]	2|3|	1|1|	400000|800000|	100|100|	1|1|	2.94592e+06	3.02133e+06	2.60559	0	0	4.05824	4.0328	
15206.2	[0,1,|4,5,6,|]	2|3|	1|1|	400000|800000|	100|100|	1|1|	3.12793e+06	3.07463e+06	2.50664	0	0	4.06207	4.04743	
15464.8	[0,1,|4,5,6,|]	2|3|	1|1|	400000|800000|	100|100|	1|1|	3.07566e+06	3.07514e+06	1.77225	0	0	4.73255	4.38999	
16422.4	[0,1,2,|4,5,6,|]	3|3|	1|1|	500000|900000|	100|100|	1|1|	3.98254e+06	3.98254e+06	0	0	0	4.04727	4.04727	
16662.7	[0,1,2,|4,5,6,|]	3|3|	1|1|	500000|900000|	100|100|	1|1|	3.81651e+06	3.89953e+06	2.12892	0	0	3.36866	3.70797	
16919.5	[0,1,2,|4,5,6,|]	3|3|	1|1|	500000|900000|	100|100|	1|1|	3.83412e+06	3.86682e+06	1.73779	0	0	4.74702	4.2275	
17167.4	[0,1,2,|4,5,6,|]	3|3|	1|1|	500000|900000|	100|100|	1|1|	3.85332e+06	3.86007e+06	1.24332	0	0	3.37727	3.80238	
17422.7	[0,1,2,|4,5,6,|]	3|3|	1|1|	500000|900000|	100|100|	1|1|	3.93868e+06	3.89938e+06	1.33171	0	0	3.37972	3.59105	
18141.3	[0,1,2,3,|4,5,6,7,|]	4|4|	1|1|	700000|1100000|	100|100|	1|1|	6.72305e+06	6.72305e+06	0	0	0	3.3838	3.3838	
18392	[0,1,2,3,|4,5,6,7,|]	4|4|	1|1|	700000|1100000|	100|100|	1|1|	6.49029e+06	6.60667e+06	1.7615	0	0	3.36403	3.37392	
18642.3	[0,1,2,3,|4,5,6,7,|]	4|4|	1|1|	700000|1100000|	100|100|	1|1|	6.24279e+06	6.42473e+06	3.10807	0	0	3.38132	3.37762	
18901.4	[0,1,2,3,|4,5,6,7,|]	4|4|	1|1|	700000|1100000|	100|100|	1|1|	5.74792e+06	6.08632e+06	6.02469	0	0	4.67049	4.02405	
19141.6	[0,1,2,3,|4,5,6,7,|]	4|4|	1|1|	700000|1100000|	100|100|	1|1|	6.39358e+06	6.23995e+06	4.82984	0	0	3.80238	3.91322	
19836.7	[0,1,2,3,|4,5,6,|]	4|3|	1|1|	700000|900000|	100|100|	1|1|	4.75782e+06	4.75782e+06	0	0	0	4.5523	4.5523	
20086.7	[0,1,2,3,|4,5,6,|]	4|3|	1|1|	700000|900000|	100|100|	1|1|	4.74407e+06	4.75095e+06	0.144759	0	0	3.36559	3.95895	
20332.3	[0,1,2,3,|4,5,6,|]	4|3|	1|1|	700000|900000|	100|100|	1|1|	4.73292e+06	4.74194e+06	0.215935	0	0	3.37478	3.66686	
20591	[0,1,2,3,|4,5,6,|]	4|3|	1|1|	700000|900000|	100|100|	1|1|	4.47199e+06	4.60696e+06	2.93394	0	0	3.39937	3.53312	
20831.5	[0,1,2,3,|4,5,6,|]	4|3|	1|1|	700000|900000|	100|100|	1|1|	4.33128e+06	4.46912e+06	3.7532	0	0	4.31498	3.92405	
21562.1	[0,1,2,|4,5,6,|]	3|3|	1|1|	600000|900000|	100|100|	1|1|	4.16858e+06	4.16858e+06	0	5647.09	63.7677	3.38778	3.38778	
21804.8	[0,1,2,|4,5,6,|]	3|3|	1|1|	600000|900000|	100|100|	1|1|	4.16841e+06	4.16849e+06	0.00209122	5547.48	64.9193	3.37019	3.37898	
22063.8	[0,1,2,|4,5,6,|]	3|3|	1|1|	600000|900000|	100|100|	1|1|	4.11448e+06	4.14149e+06	0.652129	2773.74	32.4596	3.40558	3.39228	
22305	[0,1,2,|4,5,6,|]	3|3|	1|1|	600000|900000|	100|100|	1|1|	4.18305e+06	4.16227e+06	0.678105	4035.94	48.7627	3.39726	3.39477	
22555.7	[0,1,2,|4,5,6,|]	3|3|	1|1|	600000|900000|	100|100|	1|1|	3.89873e+06	4.0305e+06	3.30664	2017.97	24.3814	3.51236	3.45357	
22908.3	[0,1,2,|4,5,6,|]	3|3|	1|1|	600000|900000|	100|100|	1|1|	3.9825e+06	4.0065e+06	2.42724	1008.98	12.1907	3.39919	3.42638	
23718.6	[0,1,2,|4,5,6,|]	3|3|	1|1|	600000|1000000|	100|100|	1|1|	4.48703e+06	4.48703e+06	0	5499.49	66.1541	3.37315	3.37315	
23963.6	[0,1,2,|4,5,6,|]	3|3|	1|1|	600000|1000000|	100|100|	1|1|	4.47534e+06	4.48118e+06	0.130514	2749.74	33.0771	3.4167	3.39493	
24222	[0,1,2,|4,5,6,|]	3|3|	1|1|	600000|1000000|	100|100|	1|1|	4.47291e+06	4.47705e+06	0.130633	1374.87	16.5385	3.36877	3.38185	
24465	[0,1,2,|4,5,6,|]	3|3|	1|1|	600000|1000000|	100|100|	1|1|	4.15678e+06	4.31692e+06	3.71066	3602.93	40.089	4.58793	3.98489	
24718.3	[0,1,2,|4,5,6,|]	3|3|	1|1|	600000|1000000|	100|100|	1|1|	4.45433e+06	4.38562e+06	3.02071	1801.47	20.0445	3.35119	3.66804	
25047.2	[0,1,2,|4,5,6,|]	3|3|	1|1|	600000|1000000|	100|100|	1|1|	4.49246e+06	4.43904e+06	2.42925	900.734	10.0223	4.59695	4.13249	
25813.2	[0,1,2,|4,5,6,7,|]	3|4|	1|1|	600000|1000000|	100|100|	1|1|	5.62098e+06	5.62098e+06	0	5941.84	66.1356	3.53525	3.53525	
26061.2	[0,1,2,|4,5,6,7,|]	3|4|	1|1|	600000|1000000|	100|100|	1|1|	5.56116e+06	5.59107e+06	0.534978	2970.92	33.0678	3.38712	3.46118	
26309	[0,1,2,|4,5,6,7,|]	3|4|	1|1|	600000|1000000|	100|100|	1|1|	5.48559e+06	5.53833e+06	1.02604	4299.69	49.1651	3.74293	3.60206	
26561.6	[0,1,2,|4,5,6,7,|]	3|4|	1|1|	600000|1000000|	100|100|	1|1|	5.48752e+06	5.51293e+06	0.862302	2149.84	24.5826	3.3922	3.49713	
26809.5	[0,1,2,|4,5,6,7,|]	3|4|	1|1|	600000|1000000|	100|100|	1|1|	5.5049e+06	5.50891e+06	0.614521	3897.01	45.8932	3.732	3.61456	
27076.8	[0,1,2,|4,5,6,7,|]	3|4|	1|1|	600000|1000000|	100|100|	1|1|	5.63631e+06	5.57261e+06	1.22116	1948.5	22.9466	3.38488	3.49972	
27766.6	[0,1,2,|4,5,6,7,|]	3|4|	1|1|	700000|1000000|	100|100|	1|1|	5.80412e+06	5.80412e+06	0	4899.25	65.5873	3.3757	3.3757	
28015.1	[0,1,2,|4,5,6,7,|]	3|4|	1|1|	700000|1000000|	100|100|	1|1|	5.75427e+06	5.7792e+06	0.431306	2449.63	32.7936	3.36664	3.37117	
28265.1	[0,1,2,|4,5,6,7,|]	3|4|	1|1|	700000|1000000|	100|100|	1|1|	5.83915e+06	5.80918e+06	0.598617	3546.63	50.8416	3.36756	3.36937	
28515.1	[0,1,2,|4,5,6,7,|]	3|4|	1|1|	700000|1000000|	100|100|	1|1|	5.71153e+06	5.76035e+06	0.94901	4315.16	57.3724	3.36168	3.36552	
28765.3	[0,1,2,|4,5,6,7,|]	3|4|	1|1|	700000|1000000|	100|100|	1|1|	5.69229e+06	5.72632e+06	0.899388	2157.58	28.6862	3.77194	3.56873	
29508.1	[0,1,2,|4,5,6,7,|]	3|4|	1|1|	600000|1100000|	100|100|	1|1|	6.0851e+06	6.0851e+06	0	5510.38	67.5644	3.38665	3.38665	
29756.9	[0,1,2,|4,5,6,7,|]	3|4|	1|1|	600000|1100000|	100|100|	1|1|	5.99675e+06	6.04093e+06	0.731218	2755.19	33.7822	3.3692	3.37793	
30007	[0,1,2,|4,5,6,7,|]	3|4|	1|1|	600000|1100000|	100|100|	1|1|	6.04691e+06	6.04392e+06	0.519158	4057.89	48.3948	3.77345	3.57569	
30259.7	[0,1,2,|4,5,6,7,|]	3|4|	1|1|	600000|1100000|	100|100|	1|1|	6.07074e+06	6.05733e+06	0.428001	2028.95	24.1974	3.43224	3.50396	
30506.8	[0,1,2,|4,5,6,7,|]	3|4|	1|1|	600000|1100000|	100|100|	1|1|	6.06272e+06	6.06002e+06	0.305761	3889.28	44.1133	3.39502	3.44949	
31179.8	[0,1,2,3,|4,5,6,7,|]	4|4|	1|1|	700000|1100000|	100|100|	1|1|	6.33385e+06	6.33385e+06	0	0	0	3.4327	3.4327	
31429.7	[0,1,2,3,|4,5,6,7,|]	4|4|	1|1|	700000|1100000|	100|100|	1|1|	6.52847e+06	6.43116e+06	1.51312	0	0	3.50555	3.46913	
31687.6	[0,1,2,3,|4,5,6,7,|]	4|4|	1|1|	700000|1100000|	100|100|	1|1|	6.16717e+06	6.29917e+06	2.36305	0	0	3.36058	3.41485	
31930.3	[0,1,2,3,|4,5,6,7,|]	4|4|	1|1|	700000|1100000|	100|100|	1|1|	6.41938e+06	6.35928e+06	1.90602	0	0	3.76287	3.58886	
32180.2	[0,1,2,3,|4,5,6,7,|]	4|4|	1|1|	700000|1100000|	100|100|	1|1|	6.71808e+06	6.53868e+06	3.04071	0	0	4.16698	3.87792	
32899.1	[0,1,2,|4,5,6,7,|]	3|4|	1|1|	600000|1000000|	100|100|	1|1|	5.5818e+06	5.5818e+06	0	0	0	5.03946	5.03946	
33158.2	[0,1,2,|4,5,6,7,|]	3|4|	1|1|	600000|1000000|	100|100|	1|1|	5.48339e+06	5.53259e+06	0.889351	0	0	4.1407	4.59008	
33408.3	[0,1,2,|4,5,6,7,|]	3|4|	1|1|	600000|1000000|	100|100|	1|1|	5.46745e+06	5.50002e+06	0.866546	0	0	3.60591	4.098	
33658.3	[0,1,2,|4,5,6,7,|]	3|4|	1|1|	600000|1000000|	100|100|	1|1|	5.32774e+06	5.41388e+06	1.70852	0	0	3.58712	3.84256	
33908.4	[0,1,2,|4,5,6,7,|]	3|4|	1|1|	600000|1000000|	100|100|	1|1|	5.60961e+06	5.51175e+06	2.1356	2876.93	32.5481	3.59837	3.72046	
34658	[0,1,2,|4,5,6,7,|]	3|4|	1|1|	700000|1100000|	100|100|	1|1|	6.24777e+06	6.24777e+06	0	4717.18	63.0464	4.66616	4.66616	
34907.7	[0,1,2,|4,5,6,7,|]	3|4|	1|1|	700000|1100000|	100|100|	1|1|	6.27593e+06	6.26185e+06	0.224885	4695.54	65.2432	4.0626	4.36438	
35157.9	[0,1,2,|4,5,6,7,|]	3|4|	1|1|	700000|1100000|	100|100|	1|1|	6.24251e+06	6.25218e+06	0.222007	2347.77	32.6216	4.68394	4.52416	
35408.7	[0,1,2,|4,5,6,7,|]	3|4|	1|1|	700000|1100000|	100|100|	1|1|	5.96214e+06	6.10716e+06	2.37997	3606.24	47.4267	3.62349	4.07382	
35658.3	[0,1,2,|4,5,6,7,|]	3|4|	1|1|	700000|1100000|	100|100|	1|1|	5.79386e+06	5.95051e+06	3.14854	1803.12	23.7134	3.64014	3.85698	
36485.1	[0,1,2,|4,5,6,7,|]	3|4|	1|1|	600000|1000000|	100|100|	1|1|	5.63249e+06	5.63249e+06	0	5505.11	63.3812	3.99955	3.99955	
36735.5	[0,1,2,|4,5,6,7,|]	3|4|	1|1|	600000|1000000|	100|100|	1|1|	5.62673e+06	5.62961e+06	0.0511721	5492.24	62.8927	3.63587	3.81771	
36985.6	[0,1,2,|4,5,6,7,|]	3|4|	1|1|	600000|1000000|	100|100|	1|1|	5.64628e+06	5.63795e+06	0.152182	5423.99	64.3101	3.64732	3.73252	
37236.1	[0,1,2,|4,5,6,7,|]	3|4|	1|1|	600000|1000000|	100|100|	1|1|	5.58812e+06	5.61304e+06	0.456789	2712	32.155	3.9541	3.84331	
37486.1	[0,1,2,|4,5,6,7,|]	3|4|	1|1|	600000|1000000|	100|100|	1|1|	5.36327e+06	5.48815e+06	2.29932	4217.02	49.6792	3.62244	3.73287	
38275.5	[0,1,2,|4,5,6,7,|]	3|4|	1|1|	600000|1100000|	100|100|	1|1|	6.01953e+06	6.01953e+06	0	5625.05	68.3398	4.81666	4.81666	
38527.5	[0,1,2,|4,5,6,7,|]	3|4|	1|1|	600000|1100000|	100|100|	1|1|	6.05804e+06	6.03878e+06	0.318886	2812.52	34.1699	3.61165	4.21415	
38775.4	[0,1,2,|4,5,6,7,|]	3|4|	1|1|	600000|1100000|	100|100|	1|1|	6.09469e+06	6.06673e+06	0.512488	1406.26	17.085	3.58167	3.89791	
39029	[0,1,2,|4,5,6,7,|]	3|4|	1|1|	600000|1100000|	100|100|	1|1|	6.07385e+06	6.07029e+06	0.366886	3484.27	40.8812	3.84285	3.87038	
39276.4	[0,1,2,|4,5,6,7,|]	3|4|	1|1|	600000|1100000|	100|100|	1|1|	5.96522e+06	6.01776e+06	0.911398	1742.14	20.4406	3.58554	3.72796	
39543.9	[0,1,2,|4,5,6,7,|]	3|4|	1|1|	600000|1100000|	100|100|	1|1|	6.03927e+06	6.02852e+06	0.667601	3621.4	42.7848	3.62551	3.67674	
39811.6	[0,1,2,|4,5,6,7,|]	3|4|	1|1|	600000|1100000|	100|100|	1|1|	5.96291e+06	5.99571e+06	0.72428	1810.7	21.3924	3.60658	3.64166	
40083.1	[0,1,2,|4,5,6,7,|]	3|4|	1|1|	600000|1100000|	100|100|	1|1|	5.93252e+06	5.96412e+06	0.738773	3735.64	43.5795	4.7664	4.20403	
40358.5	[0,1,2,|4,5,6,7,|]	3|4|	1|1|	600000|1100000|	100|100|	1|1|	5.94133e+06	5.95273e+06	0.557273	1867.82	21.7898	3.59122	3.89762	
40644.1	[0,1,2,|4,5,6,7,|]	3|4|	1|1|	600000|1100000|	100|100|	1|1|	6.06111e+06	6.00692e+06	0.983083	3770.12	43.0099	4.75742	4.32752	
40939.9	[0,1,2,|4,5,6,7,|]	3|4|	1|1|	600000|1100000|	100|100|	1|1|	6.02096e+06	6.01394e+06	0.704081	1885.06	21.5049	3.61831	3.97292	
41207.7	[0,1,2,|4,5,6,7,|]	3|4|	1|1|	600000|1100000|	100|100|	1|1|	6.02588e+06	6.01991e+06	0.507162	942.531	10.7525	3.6049	3.78891	
41476.5	[0,1,2,|4,5,6,7,|]	3|4|	1|1|	600000|1100000|	100|100|	1|1|	6.06733e+06	6.04362e+06	0.530544	3322.6	38.7015	3.61307	3.70099	
41748.3	[0,1,2,|4,5,6,7,|]	3|4|	1|1|	600000|1100000|	100|100|	1|1|	6.04966e+06	6.04664e+06	0.378272	1661.3	19.3507	3.60122	3.65111	
42031.3	[0,1,2,|4,5,6,7,|]	3|4|	1|1|	600000|1100000|	100|100|	1|1|	6.03416e+06	6.0404e+06	0.286978	830.65	9.67537	3.78985	3.72048	
42374.6	[0,1,2,|4,5,6,7,|]	3|4|	1|1|	600000|1100000|	100|100|	1|1|	5.90005e+06	5.97022e+06	1.19324	415.325	4.83768	3.61747	3.66897	
42711.3	[0,1,2,|4,5,6,7,|]	3|4|	1|1|	600000|1100000|	100|100|	1|1|	5.95137e+06	5.9608e+06	0.859757	3282.95	35.1312	3.60351	3.63624	
43045	[0,1,2,|4,5,6,7,|]	3|4|	1|1|	600000|1100000|	100|100|	1|1|	5.98201e+06	5.9714e+06	0.632332	1641.48	17.5656	3.58393	3.61009	
43331.4	[0,1,2,|4,5,6,7,|]	3|4|	1|1|	600000|1100000|	100|100|	1|1|	6.02696e+06	5.99918e+06	0.642239	3597.97	40.2662	3.65424	3.63216	
43672.8	[0,1,2,|4,5,6,7,|]	3|4|	1|1|	600000|1100000|	100|100|	1|1|	6.0434e+06	6.02129e+06	0.582698	1798.99	20.1331	3.34983	3.491	
43959.1	[0,1,2,|4,5,6,7,|]	3|4|	1|1|	600000|1100000|	100|100|	1|1|	6.07187e+06	6.04658e+06	0.585922	899.493	10.0665	3.37882	3.43491	
44304.8	[0,1,2,|4,5,6,7,|]	3|4|	1|1|	600000|1100000|	100|100|	1|1|	5.91578e+06	5.98118e+06	1.17095	449.747	5.03327	6.66944	5.05217	
44596.9	[0,1,2,|4,5,6,7,|]	3|4|	1|1|	600000|1100000|	100|100|	1|1|	5.93174e+06	5.95646e+06	0.929265	3068.76	34.459	4.53704	4.79461	
44918.8	[0,1,2,|4,5,6,7,|]	3|4|	1|1|	600000|1100000|	100|100|	1|1|	5.80242e+06	5.87944e+06	1.46942	1534.38	17.2295	4.4674	4.631	
45187.7	[0,1,2,|4,5,6,7,|]	3|4|	1|1|	600000|1100000|	100|100|	1|1|	5.92006e+06	5.89975e+06	1.0912	767.191	8.61476	4.52488	4.57794	
45461.7	[0,1,2,|4,5,6,7,|]	3|4|	1|1|	600000|1100000|	100|100|	1|1|	6.05028e+06	5.97501e+06	1.47213	383.596	4.30738	4.20665	4.39229	
45736.9	[0,1,2,|4,5,6,7,|]	3|4|	1|1|	600000|1100000|	100|100|	1|1|	6.03418e+06	6.0046e+06	1.14702	2945.87	34.326	4.15266	4.27248	
46027.9	[0,1,2,|4,5,6,7,|]	3|4|	1|1|	600000|1100000|	100|100|	1|1|	6.05908e+06	6.03184e+06	0.925146	1472.93	17.163	4.20364	4.23806	
46393.2	[0,1,2,|4,5,6,7,|]	3|4|	1|1|	600000|1100000|	100|100|	1|1|	6.0615e+06	6.04667e+06	0.697145	736.467	8.58151	4.09192	4.16499	
46746.6	[0,1,2,|4,5,6,7,|]	3|4|	1|1|	600000|1100000|	100|100|	1|1|	5.96803e+06	6.00735e+06	0.821361	368.233	4.29075	5.71869	4.94184	
47048.1	[0,1,2,|4,5,6,7,|]	3|4|	1|1|	600000|1100000|	100|100|	1|1|	5.67343e+06	5.84039e+06	2.92047	3045.03	33.441	5.76665	5.35424	
47372.8	[0,1,2,|4,5,6,7,|]	3|4|	1|1|	600000|1100000|	100|100|	1|1|	5.86819e+06	5.85429e+06	2.07382	1522.52	16.7205	3.72796	4.5411	
47640.7	[0,1,2,|4,5,6,7,|]	3|4|	1|1|	600000|1100000|	100|100|	1|1|	6.05584e+06	5.95506e+06	2.22304	3552.84	41.9012	3.72767	4.13439	
47909.2	[0,1,2,|4,5,6,7,|]	3|4|	1|1|	600000|1100000|	100|100|	1|1|	6.06831e+06	6.01169e+06	1.81981	4498.84	52.1974	3.73742	3.93591	
48183.6	[0,1,2,|4,5,6,7,|]	3|4|	1|1|	600000|1100000|	100|100|	1|1|	6.05203e+06	6.03186e+06	1.32538	2249.42	26.0987	4.04515	3.99053	
48485.9	[0,1,2,|4,5,6,7,|]	3|4|	1|1|	600000|1100000|	100|100|	1|1|	6.073e+06	6.05243e+06	0.993914	1124.71	13.0494	4.14835	4.06944	
48872.3	[0,1,2,|4,5,6,7,|]	3|4|	1|1|	600000|1100000|	100|100|	1|1|	5.98118e+06	6.0168e+06	0.922137	562.355	6.52468	4.18692	4.12818	
49178.3	[0,1,2,|4,5,6,7,|]	3|4|	1|1|	600000|1100000|	100|100|	1|1|	5.51343e+06	5.76512e+06	4.41841	281.178	3.26234	4.22545	4.17682	
49528.6	[0,1,2,|4,5,6,7,|]	3|4|	1|1|	600000|1100000|	100|100|	1|1|	5.92327e+06	5.84419e+06	3.36595	140.589	1.63117	4.14201	4.15941	
49798.2	[0,1,2,|4,5,6,7,|]	3|4|	1|1|	600000|1100000|	100|100|	1|1|	6.07208e+06	5.95814e+06	3.01786	2758.99	33.0191	4.33448	4.24694	
50067.1	[0,1,2,|4,5,6,7,|]	3|4|	1|1|	600000|1100000|	100|100|	1|1|	6.06336e+06	6.01075e+06	2.28923	1379.49	16.5096	4.23004	4.23849	
50346.4	[0,1,2,|4,5,6,7,|]	3|4|	1|1|	600000|1100000|	100|100|	1|1|	6.08784e+06	6.04929e+06	1.73003	689.747	8.25478	4.61763	4.42806	
50633.3	[0,1,2,|4,5,6,7,|]	3|4|	1|1|	600000|1100000|	100|100|	1|1|	6.05433e+06	6.05181e+06	1.22351	344.874	4.12739	4.42612	4.42709	
50950.4	[0,1,2,|4,5,6,7,|]	3|4|	1|1|	600000|1100000|	100|100|	1|1|	5.71496e+06	5.88339e+06	2.99787	172.437	2.0637	5.51985	4.97347	
51289.6	[0,1,2,|4,5,6,7,|]	3|4|	1|1|	600000|1100000|	100|100|	1|1|	6.0021e+06	5.94274e+06	2.32419	86.2184	1.03185	5.51205	5.24276	
51560.2	[0,1,2,|4,5,6,7,|]	3|4|	1|1|	600000|1100000|	100|100|	1|1|	6.01231e+06	5.97753e+06	1.73443	43.1092	0.515924	4.54747	4.89512	
51835.7	[0,1,2,|4,5,6,7,|]	3|4|	1|1|	600000|1100000|	100|100|	1|1|	5.93749e+06	5.95751e+06	1.2756	21.5546	0.257962	4.78415	4.83963	
52120.5	[0,1,2,|4,5,6,7,|]	3|4|	1|1|	600000|1100000|	100|100|	1|1|	6.08365e+06	6.02058e+06	1.37625	10.7773	0.128981	4.46001	4.64982	
52436.3	[0,1,2,|4,5,6,7,|]	3|4|	1|1|	600000|1100000|	100|100|	1|1|	5.92055e+06	5.97056e+06	1.29025	5.38865	0.0644905	4.70992	4.67987	
52837.3	[0,1,2,|4,5,6,7,|]	3|4|	1|1|	600000|1100000|	100|100|	1|1|	6.05623e+06	6.0134e+06	1.15235	2.69433	0.0322452	4.66374	4.67181	
53226.1	[0,1,2,|4,5,6,7,|]	3|4|	1|1|	600000|1100000|	100|100|	1|1|	6.0621e+06	6.03775e+06	0.906255	1.34716	0.0161226	4.93357	4.80269	
53538	[0,1,2,|4,5,6,7,|]	3|4|	1|1|	600000|1100000|	100|100|	1|1|	6.02721e+06	6.03248e+06	0.647299	0.673582	0.00806131	4.68859	4.74564	
53953.9	[0,1,2,|4,5,6,7,|]	3|4|	1|1|	600000|1100000|	100|100|	1|1|	5.91143e+06	5.97196e+06	1.11394	0.336791	0.00403066	5.13121	4.93843	
54283.6	[0,1,2,|4,5,6,7,|]	3|4|	1|1|	600000|1100000|	100|100|	1|1|	5.96737e+06	5.96966e+06	0.788913	0.168395	0.00201533	5.0963	5.01737	
54650.5	[0,1,2,|4,5,6,7,|]	3|4|	1|1|	600000|1100000|	100|100|	1|1|	5.99656e+06	5.98311e+06	0.600266	0.0841977	0.00100766	5.16537	5.09137	
54923.1	[0,1,2,|4,5,6,7,|]	3|4|	1|1|	600000|1100000|	100|100|	1|1|	6.06861e+06	6.02586e+06	0.825124	2689.78	32.118	5.19424	5.14281	
55198.5	[0,1,2,|4,5,6,7,|]	3|4|	1|1|	600000|1100000|	100|100|	1|1|	6.04923e+06	6.03754e+06	0.613641	1344.89	16.059	5.5195	5.33115	
55474.3	[0,1,2,|4,5,6,7,|]	3|4|	1|1|	600000|1100000|	100|100|	1|1|	6.07839e+06	6.05797e+06	0.548339	3441.64	39.9121	5.42103	5.37609	
55780.8	[0,1,2,|4,5,6,7,|]	3|4|	1|1|	600000|1100000|	100|100|	1|1|	5.94108e+06	5.99953e+06	1.04985	1720.82	19.9561	5.55064	5.46336	
56106.2	[0,1,2,|4,5,6,7,|]	3|4|	1|1|	600000|1100000|	100|100|	1|1|	5.90731e+06	5.95342e+06	1.07679	860.411	9.97803	5.46653	5.46495	
56480.5	[0,1,2,|4,5,6,7,|]	3|4|	1|1|	600000|1100000|	100|100|	1|1|	5.89314e+06	5.92328e+06	0.918983	430.205	4.98901	5.11482	5.28988	
56752.7	[0,1,2,|4,5,6,7,|]	3|4|	1|1|	600000|1100000|	100|100|	1|1|	6.03257e+06	5.97793e+06	1.11814	215.103	2.49451	5.00859	5.14923	
57023.1	[0,1,2,|4,5,6,7,|]	3|4|	1|1|	600000|1100000|	100|100|	1|1|	6.05155e+06	6.01474e+06	0.996038	107.551	1.24725	5.466	5.30762	
57314.1	[0,1,2,|4,5,6,7,|]	3|4|	1|1|	600000|1100000|	100|100|	1|1|	6.08106e+06	6.0479e+06	0.889525	2759.99	32.0531	5.51746	5.41254	
57637.5	[0,1,2,|4,5,6,7,|]	3|4|	1|1|	600000|1100000|	100|100|	1|1|	5.97876e+06	6.01333e+06	0.854821	1380	16.0266	5.12541	5.26898	
58053.9	[0,1,2,|4,5,6,7,|]	3|4|	1|1|	600000|1100000|	100|100|	1|1|	6.00193e+06	6.00763e+06	0.612419	689.998	8.01329	5.15847	5.21372	
58507.5	[0,1,2,|4,5,6,7,|]	3|4|	1|1|	600000|1100000|	100|100|	1|1|	5.84302e+06	5.92533e+06	1.45675	344.999	4.00664	5.4102	5.31196	
58848.3	[0,1,2,|4,5,6,7,|]	3|4|	1|1|	600000|1100000|	100|100|	1|1|	5.86548e+06	5.8954e+06	1.15304	172.499	2.00332	5.45937	5.38567	
59227.4	[0,1,2,|4,5,6,7,|]	3|4|	1|1|	600000|1100000|	100|100|	1|1|	6.01622e+06	5.95581e+06	1.29619	86.2497	1.00166	5.46089	5.42328	
59498.6	[0,1,2,|4,5,6,7,|]	3|4|	1|1|	600000|1100000|	100|100|	1|1|	6.07955e+06	6.01768e+06	1.37112	43.1248	0.50083	5.44441	5.43385	
59770.5	[0,1,2,|4,5,6,7,|]	3|4|	1|1|	600000|1100000|	100|100|	1|1|	6.09031e+06	6.05399e+06	1.13513	21.5624	0.250415	5.44484	5.43934	
60066.2	[0,1,2,|4,5,6,7,|]	3|4|	1|1|	600000|1100000|	100|100|	1|1|	6.09058e+06	6.07229e+06	0.855077	10.7812	0.125208	5.43384	5.43659	
60416.1	[0,1,2,|4,5,6,7,|]	3|4|	1|1|	600000|1100000|	100|100|	1|1|	5.89231e+06	5.9823e+06	1.62467	5.39061	0.0626038	5.43318	5.43488	
60866	[0,1,2,|4,5,6,7,|]	3|4|	1|1|	600000|1100000|	100|100|	1|1|	5.76428e+06	5.87329e+06	2.19405	2.6953	0.0313019	5.46666	5.45077	
61208.3	[0,1,2,|4,5,6,7,|]	3|4|	1|1|	600000|1100000|	100|100|	1|1|	6.10981e+06	5.99155e+06	2.49171	1.34765	0.0156509	5.42334	5.43706	
61648.4	[0,1,2,|4,5,6,7,|]	3|4|	1|1|	600000|1100000|	100|100|	1|1|	6.07556e+06	6.03356e+06	1.88307	0.673826	0.00782547	5.46064	5.44885	
62090.2	[0,1,2,|4,5,6,7,|]	3|4|	1|1|	600000|1100000|	100|100|	1|1|	6.06218e+06	6.04787e+06	1.3493	0.336913	0.00391274	5.42132	5.43508	
62540.4	[0,1,2,|4,5,6,7,|]	3|4|	1|1|	600000|1100000|	100|100|	1|1|	5.89509e+06	5.97148e+06	1.60323	0.168456	0.00195637	5.46044	5.44776	
63005.9	[0,1,2,|4,5,6,7,|]	3|4|	1|1|	600000|1100000|	100|100|	1|1|	5.95512e+06	5.9633e+06	1.14347	0.0842282	0.000978184	5.44081	5.44429	
63455.2	[0,1,2,|4,5,6,7,|]	3|4|	1|1|	600000|1100000|	100|100|	1|1|	6.0358e+06	5.99955e+06	1.0055	0.0421141	0.000489092	5.47628	5.46028	
63896	[0,1,2,|4,5,6,7,|]	3|4|	1|1|	600000|1100000|	100|100|	1|1|	6.08613e+06	6.04284e+06	1.00575	0.0210571	0.000244546	5.43145	5.44587	
64379.3	[0,1,2,|4,5,6,7,|]	3|4|	1|1|	600000|1100000|	100|100|	1|1|	5.75994e+06	5.90139e+06	2.50513	0.0105285	0.000122273	5.45963	5.45275	
64727	[0,1,2,|4,5,6,7,|]	3|4|	1|1|	600000|1100000|	100|100|	1|1|	6.04951e+06	5.97545e+06	2.14397	0.00526426	6.11365e-05	5.44181	5.44728	
65186.2	[0,1,2,|4,5,6,7,|]	3|4|	1|1|	600000|1100000|	100|100|	1|1|	5.90657e+06	5.94101e+06	1.63126	0.00263213	3.05683e-05	5.45607	5.45167	
65677.6	[0,1,2,|4,5,6,7,|]	3|4|	1|1|	600000|1100000|	100|100|	1|1|	5.96972e+06	5.95536e+06	1.17566	0.00131607	1.52841e-05	5.47632	5.464	
66124.9	[0,1,2,|4,5,6,7,|]	3|4|	1|1|	600000|1100000|	100|100|	1|1|	5.97458e+06	5.96497e+06	0.845466	0.000658033	7.64206e-06	5.42009	5.44204	
66591.2	[0,1,2,|4,5,6,7,|]	3|4|	1|1|	600000|1100000|	100|100|	1|1|	6.03421e+06	5.99959e+06	0.828395	0.000329016	3.82103e-06	5.48565	5.46385	
67071.2	[0,1,2,|4,5,6,7,|]	3|4|	1|1|	600000|1100000|	100|100|	1|1|	6.03488e+06	6.01724e+06	0.653546	0.000164508	1.91052e-06	5.43881	5.45133	
67559.6	[0,1,2,|4,5,6,7,|]	3|4|	1|1|	600000|1100000|	100|100|	1|1|	5.89831e+06	5.95777e+06	1.10182	8.22541e-05	9.55258e-07	5.49877	5.47505	
68035.2	[0,1,2,|4,5,6,7,|]	3|4|	1|1|	600000|1100000|	100|100|	1|1|	5.96193e+06	5.95985e+06	0.779614	4.11271e-05	4.77629e-07	5.41491	5.44498	
68502	[0,1,2,|4,5,6,7,|]	3|4|	1|1|	600000|1100000|	100|100|	1|1|	6.0201e+06	5.98997e+06	0.744148	2.05635e-05	2.38815e-07	5.70388	5.57443	
68872.4	[0,1,2,|4,5,6,7,|]	3|4|	1|1|	600000|1100000|	100|100|	1|1|	6.04435e+06	6.01716e+06	0.691777	1.02818e-05	1.19407e-07	5.65853	5.61648	
69270.1	[0,1,2,|4,5,6,7,|]	3|4|	1|1|	600000|1100000|	100|100|	1|1|	5.98078e+06	5.99897e+06	0.576808	5.14088e-06	5.97036e-08	5.70611	5.6613	
69543.9	[0,1,2,|4,5,6,7,|]	3|4|	1|1|	600000|1100000|	100|100|	1|1|	5.93782e+06	5.96839e+06	0.656138	2842.43	31.8948	5.67949	5.6704	
69834.1	[0,1,2,|4,5,6,7,|]	3|4|	1|1|	600000|1100000|	100|100|	1|1|	5.95405e+06	5.96122e+06	0.479843	1421.21	15.9474	5.71483	5.69261	
70145.4	[0,1,2,|4,5,6,7,|]	3|4|	1|1|	600000|1100000|	100|100|	1|1|	5.78396e+06	5.87259e+06	1.54804	710.607	7.97369	5.70382	5.69821	
70484.3	[0,1,2,|4,5,6,7,|]	3|4|	1|1|	600000|1100000|	100|100|	1|1|	6.06904e+06	5.97081e+06	1.96605	355.304	3.98685	5.72734	5.71278	
70973.4	[0,1,2,|4,5,6,7,|]	3|4|	1|1|	600000|1100000|	100|100|	1|1|	6.03548e+06	6.00314e+06	1.4839	177.652	1.99342	5.66611	5.68944	
71457.5	[0,1,2,|4,5,6,7,|]	3|4|	1|1|	600000|1100000|	100|100|	1|1|	6.04873e+06	6.02594e+06	1.11163	88.8259	0.996711	5.71733	5.70339	
71932.8	[0,1,2,|4,5,6,7,|]	3|4|	1|1|	600000|1100000|	100|100|	1|1|	5.84037e+06	5.93315e+06	1.75584	44.413	0.498356	5.69142	5.6974	
72706.8	[0,1,2,|4,5,6,7,|]	3|4|	1|1|	600000|1100000|	100|100|	1|1|	5.84181e+06	5.88748e+06	1.47214	22.2065	0.249178	5.69928	5.69834	
73206.8	[0,1,2,|4,5,6,7,|]	3|4|	1|1|	600000|1100000|	100|100|	1|1|	6.08785e+06	5.98767e+06	1.96142	11.1032	0.124589	5.66715	5.68274	
73956.8	[0,1,2,|4,5,6,7,|]	3|4|	1|1|	600000|1100000|	100|100|	1|1|	6.10825e+06	6.04796e+06	1.69682	2629.26	33.826	5.71453	5.69864	
74706.7	[0,1,2,|4,5,6,7,|]	3|4|	1|1|	600000|1100000|	100|100|	1|1|	5.89187e+06	5.96992e+06	1.78505	4087.8	49.8497	5.69513	5.69688	
75456.5	[0,1,2,|4,5,6,7,|]	3|4|	1|1|	600000|1100000|	100|100|	1|1|	6.08139e+06	6.02565e+06	1.55547	2043.9	24.9249	5.67009	5.68348	
76206.6	[0,1,2,|4,5,6,7,|]	3|4|	1|1|	600000|1100000|	100|100|	1|1|	5.95304e+06	5.98935e+06	1.26172	1021.95	12.4624	5.60169	5.64259	
76956.8	[0,1,2,|4,5,6,7,|]	3|4|	1|1|	600000|1100000|	100|100|	1|1|	6.03741e+06	6.01338e+06	0.974354	510.975	6.23122	5.71283	5.67771	
77706.5	[0,1,2,|4,5,6,7,|]	3|4|	1|1|	600000|1100000|	100|100|	1|1|	6.07642e+06	6.0449e+06	0.861174	255.488	3.11561	5.6896	5.68365	
78456.2	[0,1,2,|4,5,6,7,|]	3|4|	1|1|	600000|1100000|	100|100|	1|1|	6.04331e+06	6.0441e+06	0.609164	2790.36	34.3027	5.6701	5.67688	
79206.4	[0,1,2,|4,5,6,7,|]	3|4|	1|1|	600000|1100000|	100|100|	1|1|	6.05811e+06	6.05111e+06	0.44555	1395.18	17.1513	5.69406	5.68547	
79956.2	[0,1,2,|4,5,6,7,|]	3|4|	1|1|	600000|1100000|	100|100|	1|1|	6.02996e+06	6.04054e+06	0.36089	697.59	8.57567	5.71889	5.70218	
80706.3	[0,1,2,|4,5,6,7,|]	3|4|	1|1|	600000|1100000|	100|100|	1|1|	6.1064e+06	6.07347e+06	0.598714	348.795	4.28784	5.68217	5.69218	
81456.2	[0,1,2,|4,5,6,7,|]	3|4|	1|1|	600000|1100000|	100|100|	1|1|	6.01022e+06	6.04184e+06	0.674636	2880.11	36.7889	5.72222	5.7072	
82206.3	[0,1,2,|4,5,6,7,|]	3|4|	1|1|	600000|1100000|	100|100|	1|1|	5.91999e+06	5.98091e+06	1.12695	4231.61	51.9773	5.66316	5.68518	
82955.9	[0,1,2,|4,5,6,7,|]	3|4|	1|1|	600000|1100000|	100|100|	1|1|	6.10716e+06	6.04404e+06	1.30864	2115.81	25.9886	5.68287	5.68403	
83706.2	[0,1,2,|4,5,6,7,|]	3|4|	1|1|	600000|1100000|	100|100|	1|1|	6.0014e+06	6.02272e+06	0.993813	1057.9	12.9943	5.71872	5.70137	
84456.1	[0,1,2,|4,5,6,7,|]	3|4|	1|1|	600000|1100000|	100|100|	1|1|	5.95244e+06	5.98758e+06	0.918711	528.952	6.49716	5.6839	5.69264	
85206.1	[0,1,2,|4,5,6,7,|]	3|4|	1|1|	600000|1100000|	100|100|	1|1|	6.11295e+06	6.05027e+06	1.21934	264.476	3.24858	5.67621	5.68442	
85956	[0,1,2,|4,5,6,7,|]	3|4|	1|1|	600000|1100000|	100|100|	1|1|	6.00377e+06	6.02702e+06	0.947604	132.238	1.62429	5.72549	5.70496	
86705.9	[0,1,2,|4,5,6,7,|]	3|4|	1|1|	600000|1100000|	100|100|	1|1|	6.01332e+06	6.02017e+06	0.680395	66.119	0.812145	5.68385	5.69441	
87456	[0,1,2,|4,5,6,7,|]	3|4|	1|1|	600000|1100000|	100|100|	1|1|	6.10938e+06	6.06477e+06	0.876942	33.0595	0.406072	5.72822	5.71131	
88205.6	[0,1,2,|4,5,6,7,|]	3|4|	1|1|	600000|1100000|	100|100|	1|1|	5.9531e+06	6.00894e+06	1.12033	2765.68	34.859	5.73182	5.72157	
88955.8	[0,1,2,|4,5,6,7,|]	3|4|	1|1|	600000|1100000|	100|100|	1|1|	6.02754e+06	6.01824e+06	0.805917	1382.84	17.4295	5.66655	5.69406	
89705.7	[0,1,2,|4,5,6,7,|]	3|4|	1|1|	600000|1100000|	100|100|	1|1|	5.89876e+06	5.9585e+06	1.15606	3406.25	41.1576	5.72227	5.70817	
90455.7	[0,1,2,|4,5,6,7,|]	3|4|	1|1|	600000|1100000|	100|100|	1|1|	6.07403e+06	6.01626e+06	1.25592	1703.12	20.5788	5.7246	5.71638	
91206	[0,1,2,|4,5,6,7,|]	3|4|	1|1|	600000|1100000|	100|100|	1|1|	5.97722e+06	5.99674e+06	0.948573	851.562	10.2894	5.7119	5.71414	
91955.8	[0,1,2,|4,5,6,7,|]	3|4|	1|1|	600000|1100000|	100|100|	1|1|	6.07356e+06	6.03515e+06	0.92154	3150.45	39.5026	5.68837	5.70125	
92705.6	[0,1,2,|4,5,6,7,|]	3|4|	1|1|	600000|1100000|	100|100|	1|1|	6.04727e+06	6.04121e+06	0.658654	1575.23	19.7513	5.70751	5.70438	
93205.6	[0,1,2,|4,5,6,7,|]	3|4|	1|1|	600000|1100000|	100|100|	1|1|	5.81523e+06	5.92822e+06	1.96415	787.613	9.87566	5.73684	5.72061	
93955.6	[0,1,2,|4,5,6,7,|]	3|4|	1|1|	600000|1100000|	100|100|	1|1|	6.09797e+06	6.01309e+06	1.9665	3099.28	37.9193	5.64549	5.68305	
94705.7	[0,1,2,|4,5,6,7,|]	3|4|	1|1|	600000|1100000|	100|100|	1|1|	6.08709e+06	6.05009e+06	1.51128	4197.26	52.5102	5.68185	5.68245	
95455.6	[0,1,2,|4,5,6,7,|]	3|4|	1|1|	600000|1100000|	100|100|	1|1|	5.83688e+06	5.94348e+06	2.09778	2098.63	26.2551	5.72193	5.70219	
96205.4	[0,1,2,|4,5,6,7,|]	3|4|	1|1|	600000|1100000|	100|100|	1|1|	6.07202e+06	6.00775e+06	1.81603	1049.32	13.1275	5.6618	5.682	
96955.3	[0,1,2,|4,5,6,7,|]	3|4|	1|1|	600000|1100000|	100|100|	1|1|	6.12225e+06	6.065e+06	1.58395	524.658	6.56377	5.726	5.704	
97705.4	[0,1,2,|4,5,6,7,|]	3|4|	1|1|	600000|1100000|	100|100|	1|1|	5.87153e+06	5.96826e+06	1.98054	262.329	3.28189	5.69001	5.697	
98455.2	[0,1,2,|4,5,6,7,|]	3|4|	1|1|	600000|1100000|	100|100|	1|1|	6.08135e+06	6.02481e+06	1.67493	131.164	1.64094	5.67341	5.68521	
98955.4	[0,1,2,|4,5,6,7,|]	3|4|	1|1|	600000|1100000|	100|100|	1|1|	6.11764e+06	6.07122e+06	1.40207	65.5822	0.820471	5.7229	5.70405	
99705.3	[0,1,2,|4,5,6,7,|]	3|4|	1|1|	600000|1100000|	100|100|	1|1|	5.92852e+06	5.99987e+06	1.55584	2796.62	33.6518	5.70004	5.70205	
100455	[0,1,2,|4,5,6,7,|]	3|4|	1|1|	600000|1100000|	100|100|	1|1|	6.03722e+06	6.01855e+06	1.13979	1398.31	16.8259	5.67273	5.68739	
100955	[0,1,2,|4,5,6,7,|]	3|4|	1|1|	600000|1100000|	100|100|	1|1|	5.97008e+06	5.99431e+06	0.904595	699.156	8.41294	5.63766	5.66253	
101706	[0,1,2,|4,5,6,7,|]	3|4|	1|1|	600000|1100000|	100|100|	1|1|	6.06276e+06	6.02853e+06	0.85251	349.578	4.20647	5.70693	5.68473	
102205	[0,1,2,|4,5,6,7,|]	3|4|	1|1|	600000|1100000|	100|100|	1|1|	5.9305e+06	5.97952e+06	1.02045	174.789	2.10323	5.69677	5.69075	
102955	[0,1,2,|4,5,6,7,|]	3|4|	1|1|	600000|1100000|	100|100|	1|1|	6.06774e+06	6.02363e+06	1.02435	2833.29	35.2518	5.73722	5.71398	
103455	[0,1,2,|4,5,6,7,|]	3|4|	1|1|	600000|1100000|	100|100|	1|1|	6.0897e+06	6.05667e+06	0.903599	1416.64	17.6259	5.67122	5.6926	
104205	[0,1,2,|4,5,6,7,|]	3|4|	1|1|	600000|1100000|	100|100|	1|1|	5.99885e+06	6.02776e+06	0.801346	708.322	8.81294	5.67721	5.6849	
104955	[0,1,2,|4,5,6,7,|]	3|4|	1|1|	600000|1100000|	100|100|	1|1|	5.97826e+06	6.00301e+06	0.702653	3087.66	38.509	5.70488	5.69489	
105705	[0,1,2,|4,5,6,7,|]	3|4|	1|1|	600000|1100000|	100|100|	1|1|	6.10036e+06	6.05169e+06	0.943344	1543.83	19.2545	5.68532	5.69011	
106455	[0,1,2,|4,5,6,7,|]	3|4|	1|1|	600000|1100000|	100|100|	1|1|	5.97348e+06	6.01258e+06	0.934713	771.914	9.62725	5.70112	5.69561	
107205	[0,1,2,|4,5,6,7,|]	3|4|	1|1|	600000|1100000|	100|100|	1|1|	5.89853e+06	5.95556e+06	1.16709	385.957	4.81362	5.68198	5.68879	
107955	[0,1,2,|4,5,6,7,|]	3|4|	1|1|	600000|1100000|	100|100|	1|1|	6.09202e+06	6.02379e+06	1.39596	192.979	2.40681	5.72145	5.70512	
108705	[0,1,2,|4,5,6,7,|]	3|4|	1|1|	600000|1100000|	100|100|	1|1|	5.95974e+06	5.99177e+06	1.12714	96.4893	1.20341	5.72767	5.71639	
109455	[0,1,2,|4,5,6,7,|]	3|4|	1|1|	600000|1100000|	100|100|	1|1|	5.95831e+06	5.97504e+06	0.846849	48.2446	0.601703	5.67987	5.69813	
110205	[0,1,2,|4,5,6,7,|]	3|4|	1|1|	600000|1100000|	100|100|	1|1|	6.15711e+06	6.06607e+06	1.61247	24.1223	0.300851	5.6765	5.68732	
110955	[0,1,2,|4,5,6,7,|]	3|4|	1|1|	600000|1100000|	100|100|	1|1|	6.00913e+06	6.0376e+06	1.23883	12.0612	0.150426	5.71991	5.70361	
111705	[0,1,2,|4,5,6,7,|]	3|4|	1|1|	600000|1100000|	100|100|	1|1|	6.00311e+06	6.02036e+06	0.924021	6.03058	0.0752129	5.68943	5.69652	
112455	[0,1,2,|4,5,6,7,|]	3|4|	1|1|	600000|1100000|	100|100|	1|1|	6.1076e+06	6.06398e+06	0.968641	2635.31	34.0358	5.72429	5.71041	
113204	[0,1,2,|4,5,6,7,|]	3|4|	1|1|	600000|1100000|	100|100|	1|1|	6.01067e+06	6.03732e+06	0.817454	1317.65	17.0179	5.70109	5.70575	
113954	[0,1,2,|4,5,6,7,|]	3|4|	1|1|	600000|1100000|	100|100|	1|1|	5.99051e+06	6.01391e+06	0.698727	658.827	8.50895	5.68213	5.69394	
114704	[0,1,2,|4,5,6,7,|]	3|4|	1|1|	600000|1100000|	100|100|	1|1|	5.94426e+06	5.97909e+06	0.765651	3058.38	38.319	5.75679	5.72537	
115454	[0,1,2,|4,5,6,7,|]	3|4|	1|1|	600000|1100000|	100|100|	1|1|	6.09103e+06	6.03506e+06	1.07135	4128.6	52.9478	5.71382	5.71959	
116204	[0,1,2,|4,5,6,7,|]	3|4|	1|1|	600000|1100000|	100|100|	1|1|	5.91311e+06	5.97408e+06	1.27572	2064.3	26.4739	5.7258	5.7227	
116954	[0,1,2,|4,5,6,7,|]	3|4|	1|1|	600000|1100000|	100|100|	1|1|	6.05463e+06	6.01435e+06	1.11858	1032.15	13.237	5.68043	5.70156	
117704	[0,1,2,|4,5,6,7,|]	3|4|	1|1|	600000|1100000|	100|100|	1|1|	6.04945e+06	6.0319e+06	0.84059	3179.31	41.1441	5.70095	5.70126	
118454	[0,1,2,|4,5,6,7,|]	3|4|	1|1|	600000|1100000|	100|100|	1|1|	5.891e+06	5.96145e+06	1.32602	1589.65	20.572	5.71909	5.71017	
119204	[0,1,2,|4,5,6,7,|]	3|4|	1|1|	600000|1100000|	100|100|	1|1|	6.0898e+06	6.02562e+06	1.4124	3544.73	44.4437	5.66442	5.6873	
119954	[0,1,2,|4,5,6,7,|]	3|4|	1|1|	600000|1100000|	100|100|	1|1|	6.06365e+06	6.04464e+06	1.04407	1772.37	22.2218	5.69866	5.69298	
120704	[0,1,2,|4,5,6,7,|]	3|4|	1|1|	600000|1100000|	100|100|	1|1|	5.9043e+06	5.97447e+06	1.39188	886.183	11.1109	5.69217	5.69258	
121454	[0,1,2,|4,5,6,7,|]	3|4|	1|1|	600000|1100000|	100|100|	1|1|	6.09367e+06	6.03407e+06	1.38754	3092.69	40.1988	5.68623	5.6894	
122204	[0,1,2,|4,5,6,7,|]	3|4|	1|1|	600000|1100000|	100|100|	1|1|	6.02062e+06	6.02734e+06	0.988547	1546.34	20.0994	5.70506	5.69723	
122954	[0,1,2,|4,5,6,7,|]	3|4|	1|1|	600000|1100000|	100|100|	1|1|	5.90554e+06	5.96644e+06	1.24119	773.172	10.0497	5.70116	5.69919	
123704	[0,1,2,|4,5,6,7,|]	3|4|	1|1|	600000|1100000|	100|100|	1|1|	6.11073e+06	6.03859e+06	1.47624	386.586	5.02485	5.69705	5.69812	
124454	[0,1,2,|4,5,6,7,|]	3|4|	1|1|	600000|1100000|	100|100|	1|1|	6.04586e+06	6.04222e+06	1.04497	193.293	2.51243	5.71529	5.7067	
125204	[0,1,2,|4,5,6,7,|]	3|4|	1|1|	600000|1100000|	100|100|	1|1|	5.992e+06	6.01711e+06	0.851273	96.6465	1.25621	5.70024	5.70347	
125954	[0,1,2,|4,5,6,7,|]	3|4|	1|1|	600000|1100000|	100|100|	1|1|	6.08985e+06	6.05348e+06	0.847885	48.3233	0.628107	5.73	5.71674	
126704	[0,1,2,|4,5,6,7,|]	3|4|	1|1|	600000|1100000|	100|100|	1|1|	6.02483e+06	6.03916e+06	0.646083	24.1616	0.314053	5.49818	5.60746	
127454	[0,1,2,|4,5,6,7,|]	3|4|	1|1|	600000|1100000|	100|100|	1|1|	5.99315e+06	6.01615e+06	0.597063	12.0808	0.157027	5.45101	5.52923	
128204	[0,1,2,|4,5,6,7,|]	3|4|	1|1|	600000|1100000|	100|100|	1|1|	6.04071e+06	6.02843e+06	0.467975	6.04041	0.0785133	5.47737	5.5033	
129454	[0,1,2,|4,5,6,7,|]	3|4|	1|1|	600000|1000000|	100|100|	1|1|	5.53019e+06	5.53019e+06	0	0	0	5.38496	5.38496	
129954	[0,1,2,|4,5,6,7,|]	3|4|	1|1|	600000|1000000|	100|100|	1|1|	5.39145e+06	5.46082e+06	1.27037	0	0	5.36874	5.37685	
130454	[0,1,2,|4,5,6,7,|]	3|4|	1|1|	600000|1000000|	100|100|	1|1|	5.66142e+06	5.56112e+06	2.00774	0	0	5.35465	5.36575	
130954	[0,1,2,|4,5,6,7,|]	3|4|	1|1|	600000|1000000|	100|100|	1|1|	5.69061e+06	5.62587e+06	1.81491	0	0	5.34207	5.35391	
131454	[0,1,2,|4,5,6,7,|]	3|4|	1|1|	600000|1000000|	100|100|	1|1|	5.64802e+06	5.63694e+06	1.2958	0	0	5.36179	5.35785	
132204	[0,1,2,|4,5,6,7,|]	3|4|	1|1|	600000|1000000|	100|100|	1|1|	5.46215e+06	5.54954e+06	1.82932	0	0	5.33487	5.34636	
133453	[0,1,2,|4,5,6,7,|]	3|4|	1|1|	700000|1000000|	100|100|	1|1|	5.88942e+06	5.88942e+06	0	0	0	5.14888	5.14888	
133954	[0,1,2,|4,5,6,7,|]	3|4|	1|1|	700000|1000000|	100|100|	1|1|	5.62833e+06	5.75887e+06	2.26686	0	0	5.21756	5.18322	
134453	[0,1,2,|4,5,6,7,|]	3|4|	1|1|	700000|1000000|	100|100|	1|1|	5.77461e+06	5.76674e+06	1.60653	0	0	5.16079	5.17201	
134953	[0,1,2,|4,5,6,7,|]	3|4|	1|1|	700000|1000000|	100|100|	1|1|	5.87769e+06	5.82222e+06	1.47439	0	0	5.16307	5.16754	
135453	[0,1,2,|4,5,6,7,|]	3|4|	1|1|	700000|1000000|	100|100|	1|1|	5.95618e+06	5.8892e+06	1.5349	0	0	5.22695	5.19724	
136203	[0,1,2,|4,5,6,7,|]	3|4|	1|1|	700000|1000000|	100|100|	1|1|	5.77669e+06	5.83294e+06	1.45978	0	0	5.188	5.19262	
136953	[0,1,2,|4,5,6,7,|]	3|4|	1|1|	700000|1000000|	100|100|	1|1|	5.78779e+06	5.81037e+06	1.10667	0	0	5.16302	5.17782	
137703	[0,1,2,|4,5,6,7,|]	3|4|	1|1|	700000|1000000|	100|100|	1|1|	5.84035e+06	5.82536e+06	0.821841	0	0	5.20057	5.1892	
138953	[0,1,2,3,|4,5,6,|]	4|3|	1|1|	700000|900000|	100|100|	1|1|	4.87767e+06	4.87767e+06	0	0	0	4.7826	4.7826	
139453	[0,1,2,3,|4,5,6,|]	4|3|	1|1|	700000|900000|	100|100|	1|1|	4.84221e+06	4.85994e+06	0.364746	0	0	4.597	4.6898	
139953	[0,1,2,3,|4,5,6,|]	4|3|	1|1|	700000|900000|	100|100|	1|1|	4.89615e+06	4.87804e+06	0.451415	0	0	4.62961	4.65971	
140453	[0,1,2,3,|4,5,6,|]	4|3|	1|1|	700000|900000|	100|100|	1|1|	4.68394e+06	4.78099e+06	2.05589	0	0	4.58334	4.62152	
140953	[0,1,2,3,|4,5,6,|]	4|3|	1|1|	700000|900000|	100|100|	1|1|	4.86996e+06	4.82547e+06	1.71005	0	0	4.65778	4.63965	
141703	[0,1,2,3,|4,5,6,|]	4|3|	1|1|	700000|900000|	100|100|	1|1|	4.84572e+06	4.8356e+06	1.22469	0	0	4.70313	4.67139	
142953	[0,1,2,3,|4,5,6,|]	4|3|	1|1|	800000|800000|	100|100|	1|1|	4.76715e+06	4.76715e+06	0	0	0	4.43926	4.43926	
143453	[0,1,2,3,|4,5,6,|]	4|3|	1|1|	800000|800000|	100|100|	1|1|	4.80984e+06	4.78849e+06	0.445759	0	0	4.48377	4.46152	
143953	[0,1,2,3,|4,5,6,|]	4|3|	1|1|	800000|800000|	100|100|	1|1|	4.68883e+06	4.73866e+06	1.09875	0	0	4.44417	4.45284	
144453	[0,1,2,3,|4,5,6,|]	4|3|	1|1|	800000|800000|	100|100|	1|1|	4.66252e+06	4.70059e+06	1.1267	0	0	4.4289	4.44087	
144953	[0,1,2,3,|4,5,6,|]	4|3|	1|1|	800000|800000|	100|100|	1|1|	4.7515e+06	4.72604e+06	0.958108	0	0	4.43498	4.43793	
145703	[0,1,2,3,|4,5,6,|]	4|3|	1|1|	800000|800000|	100|100|	1|1|	4.65467e+06	4.69036e+06	1.02222	0	0	4.51271	4.47532	
146953	[0,1,2,3,|4,5,6,|]	4|3|	1|1|	800000|700000|	100|100|	1|1|	4.43797e+06	4.43797e+06	0	0	0	4.28271	4.28271	
147453	[0,1,2,3,|4,5,6,|]	4|3|	1|1|	800000|700000|	100|100|	1|1|	4.31167e+06	4.37482e+06	1.44341	0	0	4.42595	4.35433	
147953	[0,1,2,3,|4,5,6,|]	4|3|	1|1|	800000|700000|	100|100|	1|1|	4.28276e+06	4.32879e+06	1.48144	0	0	4.36572	4.36002	
148453	[0,1,2,3,|4,5,6,|]	4|3|	1|1|	800000|700000|	100|100|	1|1|	4.44723e+06	4.38801e+06	1.6998	0	0	4.25668	4.30835	
148953	[0,1,2,3,|4,5,6,|]	4|3|	1|1|	800000|700000|	100|100|	1|1|	4.42553e+06	4.40677e+06	1.27028	0	0	4.32689	4.31762	
149703	[0,1,2,3,|4,5,6,|]	4|3|	1|1|	800000|700000|	100|100|	1|1|	4.25597e+06	4.33137e+06	1.96608	0	0	4.2721	4.29486	
151203	[0,1,2,3,|4,5,6,|]	4|3|	1|1|	700000|900000|	100|100|	1|1|	4.61488e+06	4.61488e+06	0	0	0	4.82717	4.82717	
151703	[0,1,2,3,|4,5,6,|]	4|3|	1|1|	700000|900000|	100|100|	1|1|	4.7686e+06	4.69174e+06	1.63824	0	0	4.56636	4.69677	
152203	[0,1,2,3,|4,5,6,|]	4|3|	1|1|	700000|900000|	100|100|	1|1|	4.89588e+06	4.79381e+06	2.41224	0	0	4.54985	4.62331	
152703	[0,1,2,3,|4,5,6,|]	4|3|	1|1|	700000|900000|	100|100|	1|1|	4.8978e+06	4.8458e+06	1.99968	0	0	4.82246	4.72288	
153203	[0,1,2,3,|4,5,6,|]	4|3|	1|1|	700000|900000|	100|100|	1|1|	4.59052e+06	4.71816e+06	3.07049	0	0	4.71554	4.71921	
153953	[0,1,2,3,|4,5,6,|]	4|3|	1|1|	700000|900000|	100|100|	1|1|	4.77552e+06	4.74684e+06	2.24104	0	0	4.56136	4.64029	
155202	[0,1,2,3,|4,5,6,|]	4|3|	1|1|	800000|800000|	100|100|	1|1|	4.64119e+06	4.64119e+06	0	0	0	4.42468	4.42468	
155702	[0,1,2,3,|4,5,6,|]	4|3|	1|1|	800000|800000|	100|100|	1|1|	4.74215e+06	4.69167e+06	1.07594	0	0	4.40798	4.41633	
156202	[0,1,2,3,|4,5,6,|]	4|3|	1|1|	800000|800000|	100|100|	1|1|	4.81601e+06	4.75384e+06	1.50803	0	0	4.43511	4.42572	
156702	[0,1,2,3,|4,5,6,|]	4|3|	1|1|	800000|800000|	100|100|	1|1|	4.76502e+06	4.75943e+06	1.07154	0	0	4.61129	4.51851	
157202	[0,1,2,3,|4,5,6,|]	4|3|	1|1|	800000|800000|	100|100|	1|1|	4.5876e+06	4.67352e+06	1.99375	0	0	4.42331	4.47091	
158452	[0,1,2,3,|4,5,6,|]	4|3|	1|1|	800000|700000|	100|100|	1|1|	4.37757e+06	4.37757e+06	0	0	0	4.58488	4.58488	
158952	[0,1,2,3,|4,5,6,|]	4|3|	1|1|	800000|700000|	100|100|	1|1|	4.26388e+06	4.32072e+06	1.31562	0	0	4.51926	4.55207	
159452	[0,1,2,3,|4,5,6,|]	4|3|	1|1|	800000|700000|	100|100|	1|1|	4.45785e+06	4.38929e+06	1.81074	0	0	4.51147	4.53177	
159952	[0,1,2,3,|4,5,6,|]	4|3|	1|1|	800000|700000|	100|100|	1|1|	4.42941e+06	4.40935e+06	1.35332	0	0	4.67833	4.60505	
160452	[0,1,2,3,|4,5,6,|]	4|3|	1|1|	800000|700000|	100|100|	1|1|	4.32703e+06	4.36819e+06	1.34944	0	0	4.55723	4.58114	
161702	[0,1,2,3,|4,5,6,|]	4|3|	1|1|	700000|900000|	100|100|	1|1|	4.85404e+06	4.85404e+06	0	0	0	5.02047	5.02047	
162202	[0,1,2,3,|4,5,6,|]	4|3|	1|1|	700000|900000|	100|100|	1|1|	4.80192e+06	4.82798e+06	0.539776	0	0	4.98022	5.00035	
162702	[0,1,2,3,|4,5,6,|]	4|3|	1|1|	700000|900000|	100|100|	1|1|	4.66897e+06	4.74847e+06	1.71875	0	0	4.80277	4.90156	
163202	[0,1,2,3,|4,5,6,|]	4|3|	1|1|	700000|900000|	100|100|	1|1|	4.87323e+06	4.81085e+06	1.7664	0	0	4.91934	4.91045	
163702	[0,1,2,3,|4,5,6,|]	4|3|	1|1|	700000|900000|	100|100|	1|1|	4.82918e+06	4.82002e+06	1.26108	0	0	4.90555	4.908	
164953	[0,1,2,|4,5,6,7,|]	3|4|	1|1|	700000|1000000|	100|100|	1|1|	5.88896e+06	5.88896e+06	0	0	0	5.40932	5.40932	
165453	[0,1,2,|4,5,6,7,|]	3|4|	1|1|	700000|1000000|	100|100|	1|1|	5.75378e+06	5.82137e+06	1.16101	0	0	5.40295	5.40614	
165952	[0,1,2,|4,5,6,7,|]	3|4|	1|1|	700000|1000000|	100|100|	1|1|	5.76822e+06	5.7948e+06	0.943646	0	0	5.41621	5.41118	
166452	[0,1,2,|4,5,6,7,|]	3|4|	1|1|	700000|1000000|	100|100|	1|1|	5.75007e+06	5.77243e+06	0.773802	0	0	5.3876	5.39939	
166952	[0,1,2,|4,5,6,7,|]	3|4|	1|1|	700000|1000000|	100|100|	1|1|	5.89792e+06	5.83518e+06	1.20382	0	0	5.40416	5.40178	
167702	[0,1,2,|4,5,6,7,|]	3|4|	1|1|	700000|1000000|	100|100|	1|1|	5.80825e+06	5.82171e+06	0.883984	0	0	5.41092	5.40635	
168952	[0,1,2,|4,5,6,7,|]	3|4|	1|1|	600000|1100000|	100|100|	1|1|	6.11124e+06	6.11124e+06	0	0	0	5.70008	5.70008	
169452	[0,1,2,|4,5,6,7,|]	3|4|	1|1|	600000|1100000|	100|100|	1|1|	6.08255e+06	6.09689e+06	0.235278	0	0	5.65662	5.67835	
169953	[0,1,2,|4,5,6,7,|]	3|4|	1|1|	600000|1100000|	100|100|	1|1|	6.131e+06	6.11395e+06	0.324542	0	0	5.6694	5.67387	
170452	[0,1,2,|4,5,6,7,|]	3|4|	1|1|	600000|1100000|	100|100|	1|1|	6.11211e+06	6.11303e+06	0.230013	0	0	5.68128	5.67758	
170952	[0,1,2,|4,5,6,7,|]	3|4|	1|1|	600000|1100000|	100|100|	1|1|	5.96073e+06	6.03688e+06	1.27205	0	0	5.71878	5.69818	
172452	[0,1,2,|4,5,6,7,|]	3|4|	1|1|	700000|1000000|	100|100|	1|1|	5.80601e+06	5.80601e+06	0	0	0	5.43654	5.43654	
172952	[0,1,2,|4,5,6,7,|]	3|4|	1|1|	700000|1000000|	100|100|	1|1|	5.55266e+06	5.67933e+06	2.23048	0	0	5.46119	5.44887	
173452	[0,1,2,|4,5,6,7,|]	3|4|	1|1|	700000|1000000|	100|100|	1|1|	5.66993e+06	5.67463e+06	1.58066	0	0	5.38916	5.41901	
173952	[0,1,2,|4,5,6,7,|]	3|4|	1|1|	700000|1000000|	100|100|	1|1|	5.90049e+06	5.78756e+06	2.23788	0	0	5.40616	5.41258	
174452	[0,1,2,|4,5,6,7,|]	3|4|	1|1|	700000|1000000|	100|100|	1|1|	5.8815e+06	5.83453e+06	1.76407	0	0	5.48308	5.44783	
175702	[0,1,2,|4,5,6,7,|]	3|4|	1|1|	600000|1000000|	100|100|	1|1|	5.66041e+06	5.66041e+06	0	0	0	5.34119	5.34119	
176202	[0,1,2,|4,5,6,7,|]	3|4|	1|1|	600000|1000000|	100|100|	1|1|	5.64266e+06	5.65153e+06	0.156959	0	0	5.34704	5.34412	
176702	[0,1,2,|4,5,6,7,|]	3|4|	1|1|	600000|1000000|	100|100|	1|1|	5.63764e+06	5.64459e+06	0.165845	0	0	5.37997	5.36204	
177203	[0,1,2,|4,5,6,7,|]	3|4|	1|1|	600000|1000000|	100|100|	1|1|	5.65287e+06	5.64873e+06	0.138224	0	0	5.38087	5.37145	
177702	[0,1,2,|4,5,6,7,|]	3|4|	1|1|	600000|1000000|	100|100|	1|1|	5.56389e+06	5.60631e+06	0.763007	0	0	5.38931	5.38038	
178452	[0,1,2,|4,5,6,7,|]	3|4|	1|1|	600000|1000000|	100|100|	1|1|	5.59521e+06	5.60076e+06	0.549078	0	0	5.40432	5.39235	
179702	[0,1,2,|4,5,6,7,|]	3|4|	1|1|	600000|1100000|	100|100|	1|1|	6.01806e+06	6.01806e+06	0	0	0	5.69077	5.69077	
180202	[0,1,2,|4,5,6,7,|]	3|4|	1|1|	600000|1100000|	100|100|	1|1|	6.00181e+06	6.00993e+06	0.135221	2744.42	33.215	5.73808	5.71442	
180702	[0,1,2,|4,5,6,7,|]	3|4|	1|1|	600000|1100000|	100|100|	1|1|	6.11589e+06	6.06291e+06	0.878933	1372.21	16.6075	5.67415	5.69429	
181202	[0,1,2,|4,5,6,7,|]	3|4|	1|1|	600000|1100000|	100|100|	1|1|	6.15074e+06	6.10683e+06	0.947543	686.106	8.30375	5.67276	5.68352	
181702	[0,1,2,|4,5,6,7,|]	3|4|	1|1|	600000|1100000|	100|100|	1|1|	6.12298e+06	6.1149e+06	0.682039	343.053	4.15187	5.68673	5.68513	
