timestamp	VIRTUAL_SCALING	CPU0_F	CPU1_F	CPU2_F	CPU3_F	CPU4_F	CPU5_F	CPU6_F	CPU7_F	GPU_FREQ	CPU_GOVERNOR	EMC_F	TEMP0
1606676035274695972	1	1400	1400	1400	1400	1800	1800	1800	1800	600	performance	-	51
1606676035332562788 	0	1400	1400	1400	1400	1800	1800	1800	1800	600	performance	-	51
1606676036950291773	1	1400	1400	1400	1400	1800	1800	1800	1800	600	ondemand	-	50
1606676037015446119 	0	1400	1400	1400	1400	1600	1600	1600	1600	600	ondemand	-	49
1606676038647096267	1	1400	1400	1400	1400	1800	1800	1800	1800	600	ondemand	-	48
1606676038719129921 	0	1400	1400	1400	1400	1800	1200	1200	1200	600	ondemand	-	46
1606676040347085916	1	1400	1400	1400	1400	1800	1800	1800	1800	600	ondemand	-	44
1606676040416395913 	0	1400	1400	1400	1400	1800	1400	1400	1400	600	ondemand	-	46
1606676042047193997	1	1400	1400	1400	1400	1800	1800	1800	1800	600	ondemand	-	44
1606676042110119838 	0	1400	1400	1400	1400	1800	1800	1800	1800	600	ondemand	-	45
1606676043745583517	1	1400	1400	1400	1400	1800	1800	1800	1800	600	ondemand	-	44
1606676043814142876 	0	1400	1400	1400	1400	1800	1400	1400	1400	600	ondemand	-	46
1606676045446376748	1	1400	1400	1400	1400	1800	1800	1800	1800	600	ondemand	-	43
1606676045514105256 	0	1400	1400	1400	1400	1800	1400	1400	1400	600	ondemand	-	45
1606676047146554841	1	1400	1400	1400	1400	1800	1800	1800	1800	600	ondemand	-	43
1606676047214154301 	0	1400	1400	1400	1400	1800	1400	1400	1400	600	ondemand	-	44
1606676048846542270	1	1400	1400	1400	1400	1800	1800	1800	1800	600	ondemand	-	43
1606676048914141413 	0	1400	1400	1400	1400	1800	1400	1400	1400	600	ondemand	-	45
1606676050546476255	1	1400	1400	1400	1400	1800	1800	1800	1800	600	ondemand	-	43
1606676050614501025 	0	1400	1400	1400	1400	1800	1400	1400	1400	600	ondemand	-	44
1606676052247092165	1	1400	1400	1400	1400	1800	1800	1800	1800	600	ondemand	-	43
1606676052320140767 	0	1400	1400	1400	1400	1800	1100	1100	1100	600	ondemand	-	44
1606676053947680199	1	1400	1400	1400	1400	1800	1800	1800	1800	600	ondemand	-	45
1606676054012841647 	0	1400	1400	1400	1400	1800	1600	1600	1600	600	ondemand	-	45
1606676055646569639	1	1400	1400	1400	1400	1800	1800	1800	1800	600	ondemand	-	43
1606676055714264522 	0	1400	1400	1400	1400	1800	1400	1400	1400	600	ondemand	-	44
1606676057346565226	1	1400	1400	1400	1400	1800	1800	1800	1800	600	ondemand	-	45
1606676057414356369 	0	1400	1400	1400	1400	1800	1400	1400	1400	600	ondemand	-	43
1606676059046513032	1	1400	1400	1400	1400	1800	1800	1800	1800	600	ondemand	-	44
1606676059114107376 	0	1400	1400	1400	1400	1800	1400	1400	1400	600	ondemand	-	43
1606676060747184440	1	1400	1400	1400	1400	1800	1800	1800	1800	600	ondemand	-	43
1606676060810466976 	0	1400	1400	1400	1400	1800	1700	1700	1700	600	ondemand	-	43
1606676062447056494	1	1400	1400	1400	1400	1800	1800	1800	1800	600	ondemand	-	43
1606676062518024767 	0	1400	1400	1400	1400	1800	1200	1200	1200	600	ondemand	-	43
1606676064147230969	1	1400	1400	1400	1400	1800	1800	1800	1800	600	ondemand	-	42
1606676064215645287 	0	1400	1400	1400	1400	1800	1400	1400	1400	600	ondemand	-	43
1606676065846642362	1	1400	1400	1400	1400	1800	1800	1800	1800	600	ondemand	-	42
1606676065908802518 	0	1400	1400	1400	1400	1800	1800	1800	1800	600	ondemand	-	43
1606676067546457839	1	1400	1400	1400	1400	1800	1800	1800	1800	600	ondemand	-	42
1606676067615095935 	0	1400	1400	1400	1400	1800	1400	1400	1400	600	ondemand	-	43
1606676069246697430	1	1400	1400	1400	1400	1800	1800	1800	1800	600	ondemand	-	43
1606676069313901270 	0	1400	1400	1400	1400	1800	1400	1400	1400	600	ondemand	-	44
1606676070946711481	1	1400	1400	1400	1400	1800	1800	1800	1800	600	ondemand	-	42
1606676071008521348 	0	1400	1400	1400	1400	1800	1800	1800	1800	600	ondemand	-	42
1606676072645928305	1	1400	1400	1400	1400	1800	1800	1800	1800	600	ondemand	-	43
1606676072713940477 	0	1400	1400	1400	1400	1800	1400	1400	1400	600	ondemand	-	43
1606676074346499425	1	1400	1400	1400	1400	1800	1800	1800	1800	600	ondemand	-	42
1606676074409086051 	0	1400	1400	1400	1400	1800	1800	1800	1800	600	ondemand	-	43
1606676076046048380	1	1400	1400	1400	1400	1800	1800	1800	1800	600	ondemand	-	42
1606676076114615222 	0	1400	1400	1400	1400	1800	1400	1400	1400	600	ondemand	-	43
1606676077746496300	1	1400	1400	1400	1400	1800	1800	1800	1800	600	ondemand	-	44
1606676077817770258 	0	1400	1400	1400	1400	1800	1200	1200	1200	600	ondemand	-	43
1606676079446934965	1	1400	1400	1400	1400	1800	1800	1800	1800	600	ondemand	-	45
1606676079509276062 	0	1400	1400	1400	1400	1800	1800	1800	1800	600	ondemand	-	44
1606676081145609685	1	1400	1400	1400	1400	1800	1800	1800	1800	600	ondemand	-	42
1606676081213902832 	0	1400	1400	1400	1400	1800	1400	1400	1400	600	ondemand	-	43
1606676082847489421	1	1400	1400	1400	1400	1800	1800	1800	1800	600	ondemand	-	44
1606676082916180233 	0	1400	1400	1400	1400	1400	1400	1400	1400	600	ondemand	-	43
1606676084546970250	1	1400	1400	1400	1400	1800	1800	1800	1800	600	ondemand	-	45
1606676084608688240 	0	1400	1400	1400	1400	1800	1800	1800	1800	600	ondemand	-	44
1606676086245852765	1	1400	1400	1400	1400	1800	1800	1800	1800	600	ondemand	-	42
1606676086308251281 	0	1400	1400	1400	1400	1800	1800	1800	1800	600	ondemand	-	42
1606676087945967496	1	1400	1400	1400	1400	1800	1800	1800	1800	600	ondemand	-	44
1606676088014396013 	0	1400	1400	1400	1400	1800	1400	1400	1400	600	ondemand	-	42
1606676089647443868	1	1400	1400	1400	1400	1800	1800	1800	1800	600	ondemand	-	41
1606676089709191206 	0	1400	1400	1400	1400	1800	1800	1800	1800	600	ondemand	-	43
1606676091345513075	1	1400	1400	1400	1400	1800	1800	1800	1800	600	ondemand	-	44
1606676091412990856 	0	1400	1400	1400	1400	1800	1400	1400	1400	600	ondemand	-	43
1606676093046788264	1	1400	1400	1400	1400	1800	1800	1800	1800	600	ondemand	-	44
1606676093120062091 	0	1400	1400	1400	1400	1800	1100	1100	1100	600	ondemand	-	42
1606676094748107033	1	1400	1400	1400	1400	1800	1800	1800	1800	600	ondemand	-	44
1606676094822894124 	0	1400	1400	1400	1400	1100	1100	1100	1100	600	ondemand	-	42
1606676096448210407	1	1400	1400	1400	1400	1800	1800	1800	1800	600	ondemand	-	42
1606676096524316839 	0	1400	1400	1400	1400	1100	1100	1100	1100	600	ondemand	-	42
1606676098147809146	1	1400	1400	1400	1400	1800	1800	1800	1800	600	ondemand	-	41
1606676098209541880 	0	1400	1400	1400	1400	1800	1800	1800	1800	600	ondemand	-	42
1606676099845764631	1	1400	1400	1400	1400	1800	1800	1800	1800	600	ondemand	-	43
1606676099913808504 	0	1400	1400	1400	1400	1800	1400	1400	1400	600	ondemand	-	42
1606676101546203885	1	1400	1400	1400	1400	1800	1800	1800	1800	600	ondemand	-	41
1606676101613943161 	0	1400	1400	1400	1400	1800	1400	1400	1400	600	ondemand	-	42
1606676103246117495	1	1400	1400	1400	1400	1800	1800	1800	1800	600	ondemand	-	44
1606676103308196057 	0	1400	1400	1400	1400	1800	1800	1800	1800	600	ondemand	-	43
1606676104945769080	1	1400	1400	1400	1400	1800	1800	1800	1800	600	ondemand	-	43
1606676105014282272 	0	1400	1400	1400	1400	1800	1400	1400	1400	600	ondemand	-	42
1606676106646372773	1	1400	1400	1400	1400	1800	1800	1800	1800	600	ondemand	-	44
1606676106714065081 	0	1400	1400	1400	1400	1800	1400	1400	1400	600	ondemand	-	42
1606676108345980844	1	1400	1400	1400	1400	1800	1800	1800	1800	600	ondemand	-	41
1606676108413893530 	0	1400	1400	1400	1400	1800	1400	1400	1400	600	ondemand	-	43
1606676110046700009	1	1400	1400	1400	1400	1800	1800	1800	1800	600	ondemand	-	41
1606676110114212634 	0	1400	1400	1400	1400	1800	1400	1400	1400	600	ondemand	-	42
1606676111746295852	1	1400	1400	1400	1400	1800	1800	1800	1800	600	ondemand	-	43
1606676111814274535 	0	1400	1400	1400	1400	1800	1400	1400	1400	600	ondemand	-	42
1606676113446685699	1	1400	1400	1400	1400	1800	1800	1800	1800	600	ondemand	-	41
1606676113514401247 	0	1400	1400	1400	1400	1800	1400	1400	1400	600	ondemand	-	43
1606676115146430254	1	1400	1400	1400	1400	1800	1800	1800	1800	600	ondemand	-	41
1606676115214278248 	0	1400	1400	1400	1400	1800	1400	1400	1400	600	ondemand	-	42
1606676116846693687	1	1400	1400	1400	1400	1800	1800	1800	1800	600	ondemand	-	41
1606676116915524118 	0	1400	1400	1400	1400	1800	1400	1400	1400	600	ondemand	-	42
1606676118546538922	1	1400	1400	1400	1400	1800	1800	1800	1800	600	ondemand	-	41
1606676118608337972 	0	1400	1400	1400	1400	1800	1800	1800	1800	600	ondemand	-	42
1606676120245593234	1	1400	1400	1400	1400	1800	1800	1800	1800	600	ondemand	-	41
1606676120313157192 	0	1400	1400	1400	1400	1800	1400	1400	1400	600	ondemand	-	42
1606676121946614921	1	1400	1400	1400	1400	1800	1800	1800	1800	600	ondemand	-	44
1606676122014034288 	0	1400	1400	1400	1400	1800	1400	1400	1400	600	ondemand	-	42
1606676123646292922	1	1400	1400	1400	1400	1800	1800	1800	1800	600	ondemand	-	41
1606676123714952924 	0	1400	1400	1400	1400	1800	1400	1400	1400	600	ondemand	-	43
1606676125346192593	1	1400	1400	1400	1400	1800	1800	1800	1800	600	ondemand	-	41
1606676125411593884 	0	1400	1400	1400	1400	1800	1600	1600	1600	600	ondemand	-	42
1606676127045798516	1	1400	1400	1400	1400	1800	1800	1800	1800	600	ondemand	-	42
1606676127116854663 	0	1400	1400	1400	1400	1800	1200	1200	1200	600	ondemand	-	42
1606676128715008602	1	1400	1400	1400	1400	1400	1400	1400	1400	600	ondemand	-	40
1606676128789472270 	0	1400	1400	1400	1400	1400	1400	1400	1400	600	ondemand	-	41
1606676130423220045	1	1400	1400	1400	1400	1800	1800	1800	1800	600	ondemand	-	40
1606676130485646018 	0	1400	1400	1400	1400	1800	1800	1800	1800	600	ondemand	-	41
1606676132079337556	1	1400	1400	1400	1400	1600	1600	1600	1600	600	ondemand	-	41
1606676132141526634 	0	1400	1400	1400	1400	1800	1800	1800	1800	600	ondemand	-	42
1606676133752567783	1	1400	1400	1400	1400	1700	1700	1700	1700	600	ondemand	-	40
1606676133820720036 	0	1400	1400	1400	1400	1500	1500	1500	1500	600	ondemand	-	42
1606676135425700130	1	1400	1400	1400	1400	1200	1200	1200	1200	600	ondemand	-	40
1606676135507790153 	0	1400	1400	1400	1400	1200	1200	1100	1100	600	ondemand	-	41
1606676137145320719	1	1400	1400	1400	1400	1800	1800	1800	1800	600	ondemand	-	41
1606676137212986792 	0	1400	1400	1400	1400	1800	1400	1400	1400	600	ondemand	-	41
1606676138846119202	1	1400	1400	1400	1400	1800	1800	1800	1800	600	ondemand	-	41
1606676138913074024 	0	1400	1400	1400	1400	1800	1400	1400	1400	600	ondemand	-	42
1606676140545935454	1	1400	1400	1400	1400	1800	1800	1800	1800	600	ondemand	-	43
1606676140614228065 	0	1400	1400	1400	1400	1800	1400	1400	1400	600	ondemand	-	42
1606676142246968051	1	1400	1400	1400	1400	1800	1800	1800	1800	600	ondemand	-	43
1606676142314867219 	0	1400	1400	1400	1400	1800	1400	1400	1400	600	ondemand	-	41
1606676143946458408	1	1400	1400	1400	1400	1800	1800	1800	1800	600	ondemand	-	43
1606676144014250067 	0	1400	1400	1400	1400	1800	1400	1400	1400	600	ondemand	-	42
1606676145646389896	1	1400	1400	1400	1400	1800	1800	1800	1800	600	ondemand	-	42
1606676145713701766 	0	1400	1400	1400	1400	1800	1400	1400	1400	600	ondemand	-	41
1606676147346635877	1	1400	1400	1400	1400	1800	1800	1800	1800	600	ondemand	-	41
1606676147418083038 	0	1400	1400	1400	1400	1800	1200	1200	1200	600	ondemand	-	42
1606676149047165373	1	1400	1400	1400	1400	1800	1800	1800	1800	600	ondemand	-	43
1606676149112445873 	0	1400	1400	1400	1400	1800	1600	1600	1600	600	ondemand	-	42
1606676150746147761	1	1400	1400	1400	1400	1800	1800	1800	1800	600	ondemand	-	43
1606676150815352357 	0	1400	1400	1400	1400	1800	1400	1400	1400	600	ondemand	-	41
1606676152445684354	1	1400	1400	1400	1400	1800	1800	1800	1800	600	ondemand	-	40
1606676152512648673 	0	1400	1400	1400	1400	1800	1400	1400	1400	600	ondemand	-	41
1606676154148288653	1	1400	1400	1400	1400	1800	1800	1800	1800	600	ondemand	-	40
1606676154219579141 	0	1400	1400	1400	1400	1400	1400	1400	1400	600	ondemand	-	42
1606676155849153001	1	1400	1400	1400	1400	1800	1800	1800	1800	600	ondemand	-	43
1606676155920745880 	0	1400	1400	1400	1400	1400	1400	1400	1400	600	ondemand	-	41
1606676157799971666	1	500	500	500	500	800	800	800	800	600	ondemand	-	44
1606676158151032344 	0	500	500	500	500	800	800	800	800	600	ondemand	-	44
1606676159836419986	1	900	900	900	900	800	800	800	800	600	ondemand	-	44
1606676159964136538 	0	900	900	900	900	800	800	800	800	600	ondemand	-	44
1606676161730610928	1	200	200	200	200	800	800	800	800	600	ondemand	-	44
1606676161921270554 	0	200	200	200	200	800	800	800	800	600	ondemand	-	44
1606676163879584889	1	500	500	500	500	1200	1200	1200	1200	600	ondemand	-	48
1606676164240345878 	0	500	500	500	500	1200	1200	1200	1200	600	ondemand	-	49
1606676166048167540	1	500	500	500	500	400	400	400	400	600	ondemand	-	42
1606676166265726449 	0	500	500	500	500	400	400	400	400	600	ondemand	-	42
1606676167950284062	1	500	500	500	500	700	700	700	700	600	ondemand	-	41
1606676168092556630 	0	500	500	500	500	700	700	700	700	600	ondemand	-	42
1606676169767796688	1	500	500	500	500	800	800	800	800	600	ondemand	-	44
1606676169910864710 	0	500	500	500	500	800	800	800	800	600	ondemand	-	44
1606676171606508207	1	400	400	400	400	800	800	800	800	600	ondemand	-	44
1606676171755263638 	0	400	400	400	400	800	800	800	800	600	ondemand	-	44
1606676173419333753	1	500	500	500	500	900	900	900	900	600	ondemand	-	45
1606676173564588780 	0	500	500	500	500	900	900	900	900	600	ondemand	-	45
1606676175384550357	1	700	700	700	700	1100	1100	1100	1100	600	ondemand	-	48
1606676175669463179 	0	700	700	700	700	1100	1100	1100	1100	600	ondemand	-	48
1606676177359045740	1	700	700	700	700	900	900	900	900	600	ondemand	-	47
1606676177605197842 	0	700	700	700	700	900	900	900	900	600	ondemand	-	46
1606676179396675196	1	600	600	600	600	900	900	900	900	600	ondemand	-	46
1606676179525848031 	0	600	600	600	600	900	900	900	900	600	ondemand	-	46
1606676181199671522	1	600	600	600	600	1000	1000	1000	1000	600	ondemand	-	47
1606676181324900558 	0	600	600	600	600	1000	1000	1000	1000	600	ondemand	-	47
1606676183242864117	1	600	600	600	600	1000	1000	1000	1000	600	ondemand	-	48
1606676183564868390 	0	600	600	600	600	1000	1000	1000	1000	600	ondemand	-	48
1606676185507611909	1	700	700	700	700	1000	1000	1000	1000	600	ondemand	-	49
1606676185863570686 	0	700	700	700	700	1000	1000	1000	1000	600	ondemand	-	49
1606676187759446310	1	700	700	700	700	1100	1100	1100	1100	600	ondemand	-	50
1606676188079467833 	0	700	700	700	700	1100	1100	1100	1100	600	ondemand	-	50
1606676190028829496	1	600	600	600	600	1000	1000	1000	1000	600	ondemand	-	50
1606676190359978960 	0	600	600	600	600	1000	1000	1000	1000	600	ondemand	-	50
1606676192296935354	1	700	700	700	700	1100	1100	1100	1100	600	ondemand	-	51
1606676192622752725 	0	700	700	700	700	1100	1100	1100	1100	600	ondemand	-	51
1606676194562499314	1	600	600	600	600	1000	1000	1000	1000	600	ondemand	-	50
1606676194904443652 	0	600	600	600	600	1100	1100	1100	1100	600	ondemand	-	50
1606676196843242488	1	600	600	600	600	1100	1100	1100	1100	600	ondemand	-	51
1606676197183905389 	0	600	600	600	600	1100	1100	1100	1100	600	ondemand	-	51
1606676199144022887	1	600	600	600	600	1100	1100	1100	1100	600	ondemand	-	51
1606676199523672773 	0	600	600	600	600	1100	1100	1100	1100	600	ondemand	-	51
1606676201458709690	1	600	600	600	600	1100	1100	1100	1100	600	ondemand	-	52
1606676201804495570 	0	600	600	600	600	1100	1100	1100	1100	600	ondemand	-	52
1606676203774510145	1	600	600	600	600	1100	1100	1100	1100	600	ondemand	-	51
1606676204104450338 	0	600	600	600	600	1100	1100	1100	1100	600	ondemand	-	52
1606676205977572073	1	600	600	600	600	1100	1100	1100	1100	600	ondemand	-	52
1606676206318651842 	0	600	600	600	600	1100	1100	1100	1100	600	ondemand	-	52
1606676208293717114	1	600	600	600	600	1100	1100	1100	1100	600	ondemand	-	52
1606676208638660714 	0	600	600	600	600	1100	1100	1100	1100	600	ondemand	-	52
1606676210574083829	1	600	600	600	600	1100	1100	1100	1100	600	ondemand	-	52
1606676210929635483 	0	600	600	600	600	1100	1100	1100	1100	600	ondemand	-	52
1606676212868521321	1	600	600	600	600	1100	1100	1100	1100	600	ondemand	-	52
1606676213204487559 	0	600	600	600	600	1100	1100	1100	1100	600	ondemand	-	52
1606676215129431452	1	600	600	600	600	1100	1100	1100	1100	600	ondemand	-	52
1606676215451525010 	0	600	600	600	600	1100	1100	1100	1100	600	ondemand	-	52
1606676217369487115	1	600	600	600	600	1100	1100	1100	1100	600	ondemand	-	52
1606676217680203686 	0	600	600	600	600	1100	1100	1100	1100	600	ondemand	-	52
1606676219623423628	1	600	600	600	600	1100	1100	1100	1100	600	ondemand	-	52
1606676219983946166 	0	600	600	600	600	1100	1100	1100	1100	600	ondemand	-	52
1606676221940717219	1	600	600	600	600	1100	1100	1100	1100	600	ondemand	-	52
1606676222306929626 	0	600	600	600	600	1100	1100	1100	1100	600	ondemand	-	52
1606676224253666882	1	600	600	600	600	1100	1100	1100	1100	600	ondemand	-	52
1606676224608819597 	0	600	600	600	600	1100	1100	1100	1100	600	ondemand	-	52
1606676226524377594	1	600	600	600	600	1100	1100	1100	1100	600	ondemand	-	52
1606676226859421586 	0	600	600	600	600	1100	1100	1100	1100	600	ondemand	-	52
1606676228784606914	1	600	600	600	600	1100	1100	1100	1100	600	ondemand	-	52
1606676229099442808 	0	600	600	600	600	1100	1100	1100	1100	600	ondemand	-	52
1606676231043573139	1	600	600	600	600	1100	1100	1100	1100	600	ondemand	-	52
1606676231408623200 	0	600	600	600	600	1100	1100	1100	1100	600	ondemand	-	52
1606676233383927725	1	600	600	600	600	1100	1100	1100	1100	600	ondemand	-	52
1606676233743734835 	0	600	600	600	600	1100	1100	1100	1100	600	ondemand	-	52
1606676235708728315	1	600	600	600	600	1100	1100	1100	1100	600	ondemand	-	52
1606676236078764649 	0	600	600	600	600	1100	1100	1100	1100	600	ondemand	-	52
1606676238008917436	1	600	600	600	600	1100	1100	1100	1100	600	ondemand	-	52
1606676238379502248 	0	600	600	600	600	1100	1100	1100	1100	600	ondemand	-	52
1606676240332587872	1	600	600	600	600	1100	1100	1100	1100	600	ondemand	-	52
1606676240673150669 	0	600	600	600	600	1100	1100	1100	1100	600	ondemand	-	52
1606676242605078632	1	600	600	600	600	1100	1100	1100	1100	600	ondemand	-	52
1606676242973581606 	0	600	600	600	600	1100	1100	1100	1100	600	ondemand	-	53
1606676244893853954	1	600	600	600	600	1100	1100	1100	1100	600	ondemand	-	53
1606676245258498761 	0	600	600	600	600	1100	1100	1100	1100	600	ondemand	-	52
1606676247208825350	1	600	600	600	600	1100	1100	1100	1100	600	ondemand	-	53
1606676247529378682 	0	600	600	600	600	1100	1100	1100	1100	600	ondemand	-	52
1606676249499401658	1	600	600	600	600	1100	1100	1100	1100	600	ondemand	-	53
1606676249826595805 	0	600	600	600	600	1100	1100	1100	1100	600	ondemand	-	53
1606676251769472001	1	600	600	600	600	1100	1100	1100	1100	600	ondemand	-	53
1606676252062263684 	0	600	600	600	600	1100	1100	1100	1100	600	ondemand	-	53
1606676253944413319	1	600	600	600	600	1100	1100	1100	1100	600	ondemand	-	53
1606676254268724760 	0	600	600	600	600	1100	1100	1100	1100	600	ondemand	-	53
1606676256199466164	1	600	600	600	600	1100	1100	1100	1100	600	ondemand	-	53
1606676256563713142 	0	600	600	600	600	1100	1100	1100	1100	600	ondemand	-	53
1606676258529408957	1	600	600	600	600	1100	1100	1100	1100	600	ondemand	-	53
1606676258832763662 	0	600	600	600	600	1100	1100	1100	1100	600	ondemand	-	53
1606676260773560936	1	600	600	600	600	1100	1100	1100	1100	600	ondemand	-	53
1606676261128924362 	0	600	600	600	600	1100	1100	1100	1100	600	ondemand	-	53
1606676263105645986	1	600	600	600	600	1100	1100	1100	1100	600	ondemand	-	53
1606676263444407858 	0	600	600	600	600	1100	1100	1100	1100	600	ondemand	-	53
1606676265399472441	1	600	600	600	600	1100	1100	1100	1100	600	ondemand	-	53
1606676265701581507 	0	600	600	600	600	1100	1100	1100	1100	600	ondemand	-	53
1606676267623951448	1	600	600	600	600	1100	1100	1100	1100	600	ondemand	-	53
1606676267968797118 	0	600	600	600	600	1100	1100	1100	1100	600	ondemand	-	53
1606676269928435057	1	600	600	600	600	1100	1100	1100	1100	600	ondemand	-	53
1606676270272488677 	0	600	600	600	600	1100	1100	1100	1100	600	ondemand	-	53
1606676272208746549	1	600	600	600	600	1100	1100	1100	1100	600	ondemand	-	53
1606676272522597699 	0	600	600	600	600	1100	1100	1100	1100	600	ondemand	-	53
1606676274453691774	1	600	600	600	600	1100	1100	1100	1100	600	ondemand	-	53
1606676274779445892 	0	600	600	600	600	1100	1100	1100	1100	600	ondemand	-	53
1606676276734582066	1	600	600	600	600	1100	1100	1100	1100	600	ondemand	-	53
1606676277058308919 	0	600	600	600	600	1100	1100	1100	1100	600	ondemand	-	52
1606676279008712034	1	600	600	600	600	1100	1100	1100	1100	600	ondemand	-	53
1606676279353461262 	0	600	600	600	600	1100	1100	1100	1100	600	ondemand	-	53
1606676281313745711	1	600	600	600	600	1100	1100	1100	1100	600	ondemand	-	53
1606676281664390156 	0	600	600	600	600	1100	1100	1100	1100	600	ondemand	-	53
1606676283628580766	1	600	600	600	600	1100	1100	1100	1100	600	ondemand	-	53
1606676283993782969 	0	600	600	600	600	1100	1100	1100	1100	600	ondemand	-	53
1606676285958519428	1	600	600	600	600	1000	1000	1000	1000	600	ondemand	-	52
1606676286294840851 	0	600	600	600	600	1000	1000	1000	1000	600	ondemand	-	52
1606676288229906140	1	600	600	600	600	1000	1000	1000	1000	600	ondemand	-	51
1606676288519850063 	0	600	600	600	600	1000	1000	1000	1000	600	ondemand	-	51
1606676290457558380	1	700	700	700	700	1000	1000	1000	1000	600	ondemand	-	51
1606676290800025635 	0	700	700	700	700	1000	1000	1000	1000	600	ondemand	-	51
1606676292734932541	1	700	700	700	700	1000	1000	1000	1000	600	ondemand	-	51
1606676293100079657 	0	700	700	700	700	1000	1000	1000	1000	600	ondemand	-	51
1606676294857509257	1	700	700	700	700	900	900	900	900	600	ondemand	-	50
1606676294983490598 	0	700	700	700	700	900	900	900	900	600	ondemand	-	50
1606676296660487313	1	700	700	700	700	900	900	900	900	600	ondemand	-	49
1606676296795632527 	0	700	700	700	700	900	900	900	900	600	ondemand	-	49
1606676298453524733	1	700	700	700	700	900	900	900	900	600	ondemand	-	48
1606676298585628927 	0	700	700	700	700	900	900	900	900	600	ondemand	-	48
1606676300245414472	1	800	800	800	800	800	800	800	800	600	ondemand	-	47
1606676300375722714 	0	800	800	800	800	800	800	800	800	600	ondemand	-	47
1606676302041028508	1	800	800	800	800	800	800	800	800	600	ondemand	-	47
1606676302174611418 	0	800	800	800	800	800	800	800	800	600	ondemand	-	47
1606676303862014459	1	800	800	800	800	700	700	700	700	600	ondemand	-	46
1606676304016918229 	0	800	800	800	800	700	700	700	700	600	ondemand	-	46
1606676305701583567	1	800	800	800	800	700	700	700	700	600	ondemand	-	46
1606676305841383411 	0	800	800	800	800	700	700	700	700	600	ondemand	-	46
1606676307510500449	1	700	700	700	700	900	900	900	900	600	ondemand	-	47
1606676307670376812 	0	700	700	700	700	900	900	900	900	600	ondemand	-	47
1606676309365152465	1	700	700	700	700	900	900	900	900	600	ondemand	-	47
1606676309600209720 	0	700	700	700	700	900	900	900	900	600	ondemand	-	47
1606676311360858375	1	800	800	800	800	800	800	800	800	600	ondemand	-	47
1606676311486971710 	0	800	800	800	800	800	800	800	800	600	ondemand	-	47
1606676313203342764	1	800	800	800	800	800	800	800	800	600	ondemand	-	46
1606676313335857729 	0	800	800	800	800	800	800	800	800	600	ondemand	-	47
1606676315023695711	1	800	800	800	800	700	700	700	700	600	ondemand	-	46
1606676315171456864 	0	800	800	800	800	700	700	700	700	600	ondemand	-	46
1606676316851873369	1	800	800	800	800	700	700	700	700	600	ondemand	-	45
1606676317001682948 	0	800	800	800	800	700	700	700	700	600	ondemand	-	45
1606676318675177385	1	700	700	700	700	900	900	900	900	600	ondemand	-	47
1606676318802871835 	0	700	700	700	700	900	900	900	900	600	ondemand	-	47
1606676320456343151	1	700	700	700	700	900	900	900	900	600	ondemand	-	47
1606676320590301826 	0	700	700	700	700	900	900	900	900	600	ondemand	-	47
1606676322526224516	1	700	700	700	700	1000	1000	1000	1000	600	ondemand	-	49
1606676322861291100 	0	700	700	700	700	1000	1000	1000	1000	600	ondemand	-	49
1606676324777414344	1	700	700	700	700	1000	1000	1000	1000	600	ondemand	-	49
1606676325128874321 	0	600	600	600	600	1100	1100	1100	1100	600	ondemand	-	50
1606676327098642127	1	600	600	600	600	1100	1100	1100	1100	600	ondemand	-	51
1606676327404468599 	0	600	600	600	600	1100	1100	1100	1100	600	ondemand	-	51
1606676329304945127	1	700	700	700	700	1000	1000	1000	1000	600	ondemand	-	50
1606676329626077281 	0	700	700	700	700	1000	1000	1000	1000	600	ondemand	-	50
1606676331578833464	1	700	700	700	700	1000	1000	1000	1000	600	ondemand	-	50
1606676331903741558 	0	600	600	600	600	1000	1000	1000	1000	600	ondemand	-	50
1606676333864080239	1	600	600	600	600	1000	1000	1000	1000	600	ondemand	-	50
1606676334238611189 	0	600	600	600	600	1000	1000	1000	1000	600	ondemand	-	50
1606676336187546785	1	600	600	600	600	1100	1100	1100	1100	600	ondemand	-	51
1606676336528915086 	0	600	600	600	600	1100	1100	1100	1100	600	ondemand	-	51
1606676338478687288	1	600	600	600	600	1100	1100	1100	1100	600	ondemand	-	52
1606676338850286750 	0	600	600	600	600	1100	1100	1100	1100	600	ondemand	-	52
1606676340487726605	1	600	600	600	600	900	900	900	900	600	ondemand	-	45
1606676340600268542 	0	600	600	600	600	900	900	900	900	600	ondemand	-	46
1606676342182611886	1	1400	1400	1400	1400	1800	1800	1800	1800	600	performance	-	51
1606676342247999789 	0	1400	1400	1400	1400	1800	1800	1800	1800	600	performance	-	51
1606676343830890071	1	1400	1400	1400	1400	1800	1800	1800	1800	600	performance	-	52
1606676343896706514 	0	1400	1400	1400	1400	1800	1800	1800	1800	600	performance	-	52
1606676345477653142	1	1400	1400	1400	1400	1800	1800	1800	1800	600	performance	-	52
1606676345538481465 	0	1400	1400	1400	1400	1800	1800	1800	1800	600	performance	-	53
1606676347120660466	1	1400	1400	1400	1400	1800	1800	1800	1800	600	performance	-	53
1606676347181070022 	0	1400	1400	1400	1400	1800	1800	1800	1800	600	performance	-	53
1606676348758387397	1	1400	1400	1400	1400	1800	1800	1800	1800	600	performance	-	53
1606676348818559978 	0	1400	1400	1400	1400	1800	1800	1800	1800	600	performance	-	53
1606676350394450280	1	1400	1400	1400	1400	1800	1800	1800	1800	600	performance	-	53
1606676350454518264 	0	1400	1400	1400	1400	1800	1800	1800	1800	600	performance	-	53
1606676352031396797	1	1400	1400	1400	1400	1800	1800	1800	1800	600	performance	-	53
1606676352091597209 	0	1400	1400	1400	1400	1800	1800	1800	1800	600	performance	-	53
1606676353666900809	1	1400	1400	1400	1400	1800	1800	1800	1800	600	performance	-	53
1606676353726462899 	0	1400	1400	1400	1400	1800	1800	1800	1800	600	performance	-	53
1606676355302690795	1	1400	1400	1400	1400	1800	1800	1800	1800	600	performance	-	53
1606676355363150011 	0	1400	1400	1400	1400	1800	1800	1800	1800	600	performance	-	53
1606676356937142710	1	1400	1400	1400	1400	1800	1800	1800	1800	600	performance	-	53
1606676357000018170 	0	1400	1400	1400	1400	1800	1800	1800	1800	600	performance	-	53
1606676358583955423	1	1400	1400	1400	1400	1800	1800	1800	1800	600	performance	-	50
1606676358649992226 	0	1400	1400	1400	1400	1800	1800	1800	1800	600	performance	-	51
