TimeStamp,Total Power,CPU Power,GPU Power
1592832916432997,2.782,0.686,0.152
1592832916935173,1.639,0.381,0.152
1592832917437367,1.372,0.305,0.152
1592832917939346,1.372,0.457,0.152
1592832918441606,1.372,0.457,0.152
1592832918943372,1.448,0.457,0.152
1592832919445599,1.448,0.534,0.152
1592832919947458,1.372,0.457,0.152
1592832920449588,1.372,0.457,0.152
1592832920951539,1.334,0.457,0.152
1592832921453452,1.41,0.457,0.152
1592832921955157,1.372,0.457,0.152
1592832922457366,1.563,0.457,0.152
1592832922961092,1.448,0.457,0.152
1592832923463081,1.41,0.457,0.152
1592832923964943,1.486,0.457,0.152
1592832924469718,1.486,0.457,0.152
1592832924971859,1.41,0.457,0.152
1592832925473762,1.372,0.457,0.152
1592832925975810,1.372,0.457,0.152
1592832926477760,1.563,0.457,0.152
1592832926979775,1.486,0.534,0.152
1592832927481650,1.372,0.457,0.152
1592832927983714,1.372,0.457,0.152
1592832928487658,1.334,0.457,0.152
1592832928989812,1.372,0.457,0.152
1592832929494525,1.334,0.457,0.152
1592832929996461,1.41,0.457,0.152
1592832930498482,1.41,0.457,0.152
1592832931000416,1.372,0.457,0.152
1592832931502519,1.372,0.457,0.152
1592832932004475,1.372,0.457,0.152
1592832932506588,1.639,0.457,0.152
1592832933008514,1.639,0.457,0.152
1592832933510577,1.486,0.457,0.152
1592832934012531,1.486,0.457,0.152
1592832934517233,1.525,0.457,0.152
1592832935019147,1.486,0.457,0.152
1592832935521299,1.601,0.457,0.152
1592832936023386,1.41,0.457,0.152
1592832936525348,1.41,0.457,0.152
1592832937030041,1.334,0.457,0.152
1592832937532070,1.372,0.457,0.152
1592832938034216,1.372,0.457,0.152
1592832938536074,1.372,0.457,0.152
1592832939038178,1.372,0.457,0.152
1592832939543071,1.372,0.457,0.152
1592832940045241,1.41,0.457,0.152
1592832940547145,1.334,0.457,0.152
1592832941049289,1.41,0.457,0.152
1592832941551228,1.334,0.457,0.152
1592832942053161,1.41,0.457,0.152
1592832942555025,1.41,0.457,0.152
1592832943056918,1.601,0.457,0.152
1592832943561001,1.639,0.457,0.152
1592832944062908,1.677,0.457,0.152
1592832944568434,1.601,0.457,0.152
1592832945070384,1.601,0.457,0.152
1592832945572579,1.639,0.457,0.152
1592832946074485,1.525,0.457,0.152
1592832946576563,1.448,0.457,0.152
1592832947078447,1.372,0.457,0.152
1592832947580516,1.41,0.457,0.152
1592832948082438,1.334,0.457,0.152
1592832948584433,1.41,0.457,0.152
1592832949086374,1.334,0.457,0.152
1592832949591213,1.41,0.457,0.152
1592832950093405,1.372,0.457,0.152
1592832950595303,1.372,0.457,0.152
1592832951098291,1.372,0.457,0.152
1592832951600284,1.525,0.457,0.152
1592832952102566,1.448,0.457,0.152
1592832952604738,1.372,0.457,0.152
1592832953106788,1.41,0.457,0.152
1592832953608983,1.525,0.457,0.152
1592832954111022,1.601,0.534,0.152
1592832954612836,1.601,0.457,0.152
1592832955114968,1.715,0.457,0.152
1592832955618857,1.677,0.457,0.152
1592832956120869,1.486,0.457,0.152
1592832956622559,1.563,0.457,0.152
1592832957124622,1.601,0.457,0.152
1592832957626756,1.486,0.457,0.152
1592832958129125,1.372,0.457,0.152
1592832958633115,1.372,0.457,0.152
1592832959135043,1.372,0.457,0.152
1592832959640017,1.41,0.534,0.152
1592832960141975,1.334,0.457,0.152
1592832960644091,1.41,0.457,0.152
1592832961146000,1.372,0.457,0.152
1592832961647940,1.372,0.457,0.152
1592832962149880,1.334,0.457,0.152
1592832962651896,1.41,0.457,0.152
1592832963154262,1.372,0.457,0.152
1592832963656165,1.372,0.457,0.152
1592832964158435,1.334,0.457,0.152
1592832964663159,1.372,0.457,0.152
1592832965165511,1.41,0.457,0.152
1592832965667444,1.334,0.457,0.152
1592832966169669,1.41,0.457,0.152
1592832966671533,1.486,0.457,0.152
1592832967173490,1.563,0.457,0.152
1592832967675349,1.448,0.457,0.152
1592832968179064,1.448,0.457,0.152
1592832968681243,1.486,0.457,0.152
1592832969183204,1.486,0.457,0.152
1592832969687965,1.372,0.457,0.152
1592832970190272,1.41,0.457,0.152
1592832970692928,1.41,0.457,0.152
1592832971194870,1.372,0.457,0.152
1592832971696806,1.334,0.457,0.152
1592832972198475,1.372,0.457,0.152
1592832972700599,1.448,0.534,0.152
1592832973202542,1.448,0.457,0.152
1592832973705247,1.372,0.457,0.152
1592832974207343,1.372,0.457,0.152
1592832974712406,1.41,0.457,0.152
1592832975214426,1.334,0.457,0.152
1592832975716530,1.372,0.457,0.152
1592832976218641,1.41,0.457,0.152
1592832976720534,1.486,0.457,0.152
1592832977222177,1.601,0.457,0.152
