timestamp	VIRTUAL_SCALING	CPU0_F	CPU1_F	CPU2_F	CPU3_F	CPU4_F	CPU5_F	CPU6_F	CPU7_F	GPU_FREQ	CPU_GOVERNOR	EMC_F	TEMP0
1606786288172662015	1	800	800	800	800	1800	1800	1800	1800	600	ondemand	-	48
1606786288242171560 	0	800	800	800	800	1400	1400	1400	1400	600	ondemand	-	47
1606786289833979054	1	1400	1400	1400	1400	1700	1700	1700	1700	600	ondemand	-	47
1606786289915093488 	0	1400	1400	1400	1400	1000	1000	1000	1000	600	ondemand	-	45
1606786291501819177	1	1400	1400	1400	1400	1800	1800	1800	1800	600	ondemand	-	47
1606786291565596673 	0	1400	1400	1400	1400	1800	1800	1800	1800	600	ondemand	-	46
1606786293149441418	1	1400	1400	1400	1400	1700	1700	1700	1700	600	ondemand	-	46
1606786293242916529 	0	1400	1400	1400	1400	900	900	900	900	600	ondemand	-	45
1606786294832679862	1	1400	1400	1400	1400	1800	1800	1800	1800	600	ondemand	-	45
1606786294911698808 	0	1400	1400	1400	1400	1000	1000	1000	1000	600	ondemand	-	45
1606786296511160790	1	1400	1400	1400	1400	1800	1800	1800	1800	600	ondemand	-	44
1606786296582234409 	0	1400	1400	1400	1400	1800	1800	1800	800	600	ondemand	-	45
1606786298168633049	1	1400	1400	1400	1400	1800	1800	1800	1800	600	ondemand	-	45
1606786298269720947 	0	1400	1400	1400	1400	900	900	900	900	600	ondemand	-	44
1606786299854039557	1	1400	1400	1400	1400	1800	1800	1800	1800	600	ondemand	-	45
1606786299951412018 	0	1400	1400	1400	1400	900	900	900	900	600	ondemand	-	44
1606786301562800547	1	1400	1400	1400	1400	1100	1100	1100	1100	600	ondemand	-	44
1606786301669831827 	0	1400	1400	1400	1400	800	800	800	800	600	ondemand	-	44
1606786303343303984	1	1400	1400	1400	1400	700	500	500	500	600	ondemand	-	44
1606786303476617815 	0	1400	1400	1400	1400	600	600	600	600	600	ondemand	-	44
1606786305153987488	1	1400	1400	1400	1400	900	900	900	900	600	ondemand	-	43
1606786305274020647 	0	1400	1400	1400	1400	700	700	700	700	600	ondemand	-	43
1606786306953964261	1	1400	1400	1400	1400	900	900	900	900	600	ondemand	-	43
1606786307090494531 	0	1400	1400	1400	1400	600	600	600	600	600	ondemand	-	43
1606786308745118876	1	1400	1400	1400	1400	1100	1100	1100	1100	600	ondemand	-	43
1606786308862072137 	0	1400	1400	1400	1400	700	700	700	700	600	ondemand	-	43
1606786310573629224	1	1400	1400	1400	1400	700	700	700	700	600	ondemand	-	43
1606786310698728645 	0	1400	1400	1400	1400	700	700	600	600	600	ondemand	-	43
1606786312443482448	1	1400	1400	1400	1400	800	800	800	800	600	ondemand	-	43
1606786312550224228 	0	1400	1400	1400	1400	800	800	800	800	600	ondemand	-	43
1606786314247774894	1	1400	1400	1400	1400	900	900	900	900	600	ondemand	-	43
1606786314355150170 	0	1400	1400	1400	1400	800	800	800	800	600	ondemand	-	43
1606786316049094605	1	1400	1400	1400	1400	900	900	900	900	600	ondemand	-	43
1606786316199989496 	0	1400	1400	1400	1400	500	500	600	600	600	ondemand	-	43
1606786317890334617	1	1400	1400	1400	1400	700	700	700	700	600	ondemand	-	42
1606786317991810011 	0	1400	1400	1400	1400	1800	1800	1800	1800	600	ondemand	-	44
1606786319637800144	1	1400	1400	1400	1400	1300	1300	1300	1300	600	ondemand	-	43
1606786319715822678 	0	1400	1400	1400	1400	1200	1200	1200	1200	600	ondemand	-	43
1606786321324214992	1	1400	1400	1400	1400	1800	1800	1800	1800	600	ondemand	-	44
1606786321394772821 	0	1400	1400	1400	1400	1800	1200	1200	1200	600	ondemand	-	44
1606786322982012467	1	1400	1400	1400	1400	1800	1800	1800	1800	600	ondemand	-	43
1606786323042558022 	0	1400	1400	1400	1400	1800	1800	1800	1800	600	ondemand	-	44
1606786324631463823	1	1400	1400	1400	1400	1800	1800	1800	1800	600	ondemand	-	44
1606786324703077312 	0	1400	1400	1400	1400	1200	1200	1200	1200	600	ondemand	-	43
1606786326313798189	1	1400	1400	1400	1400	1600	1600	1600	1600	600	ondemand	-	44
1606786326392155554 	0	1400	1400	1400	1400	1600	1600	800	800	600	ondemand	-	43
1606786327998868328	1	1400	1400	1400	1400	1200	1200	1100	1100	600	ondemand	-	43
1606786328105209651 	0	1400	1400	1400	1400	1100	1100	1100	500	600	ondemand	-	43
1606786329712352878	1	1400	1400	1400	1400	1800	900	900	900	600	ondemand	-	43
1606786329831361542 	0	1400	1400	1400	1400	600	600	600	600	600	ondemand	-	43
1606786331449712075	1	1400	1400	1400	1400	900	900	900	900	600	ondemand	-	43
1606786331583995730 	0	1400	1400	1400	1400	600	600	600	600	600	ondemand	-	43
1606786333297367652	1	1400	1400	1400	1400	600	600	600	600	600	ondemand	-	42
1606786333434952996 	0	1400	1400	1400	1400	600	600	600	600	600	ondemand	-	42
1606786335144779227	1	1400	1400	1400	1400	900	900	900	900	600	ondemand	-	42
1606786335263536892 	0	1400	1400	1400	1400	700	700	700	700	600	ondemand	-	43
1606786336949798971	1	1400	1400	1400	1400	700	700	700	700	600	ondemand	-	42
1606786337082585510 	0	1400	1400	1400	1400	600	600	600	700	600	ondemand	-	42
1606786338782284422	1	1400	1400	1400	1400	700	700	700	700	600	ondemand	-	42
1606786338919455643 	0	1400	1400	1400	1400	600	600	600	600	600	ondemand	-	42
1606786340599855878	1	1400	1400	1400	1400	1000	1000	1000	1000	600	ondemand	-	42
1606786340707235276 	0	1400	1400	1400	1400	1000	1000	600	600	600	ondemand	-	42
1606786342456675887	1	1400	1400	1400	1400	700	700	700	700	600	ondemand	-	42
1606786342565686026 	0	1400	1400	1400	1400	800	800	800	800	600	ondemand	-	42
1606786344244189767	1	1400	1400	1400	1400	1000	1000	1000	1000	600	ondemand	-	42
1606786344359799283 	0	1400	1400	1400	1400	700	700	700	700	600	ondemand	-	42
1606786346069769417	1	1400	1400	1400	1400	700	700	700	700	600	ondemand	-	42
1606786346156353481 	0	1400	1400	1400	1400	1100	1100	1100	1100	600	ondemand	-	43
1606786347791753768	1	1400	1400	1400	1400	600	1800	1800	1800	600	ondemand	-	43
1606786347851741450 	0	1400	1400	1400	1400	1800	1800	1800	1800	600	ondemand	-	43
1606786349461693221	1	1400	1400	1400	1400	1100	1100	1100	1100	600	ondemand	-	43
1606786349535380696 	0	1400	1400	1400	1400	1300	1300	1300	1300	600	ondemand	-	42
1606786351119554660	1	1400	1400	1400	1400	1800	1800	1800	1800	600	ondemand	-	45
1606786351187746627 	0	1400	1400	1400	1400	1800	1800	1200	1200	600	ondemand	-	44
1606786352775475860	1	1400	1400	1400	1400	1700	1700	1700	1700	600	ondemand	-	43
1606786352879077947 	0	1400	1400	1400	1400	900	900	900	900	600	ondemand	-	42
1606786354466023516	1	1400	1400	1400	1400	1800	1800	1800	1800	600	ondemand	-	42
1606786354549654431 	0	1400	1400	1400	1400	1100	1100	1100	1100	600	ondemand	-	42
1606786356156911710	1	1400	1400	1400	1400	1100	1100	1100	1100	600	ondemand	-	42
1606786356264449815 	0	1400	1400	1400	1400	800	800	800	800	600	ondemand	-	42
1606786357936159664	1	1400	1400	1400	1400	700	700	500	500	600	ondemand	-	42
1606786358060986873 	0	1400	1400	1400	1400	700	700	700	700	600	ondemand	-	42
1606786359742524452	1	1400	1400	1400	1400	1000	1000	1000	1000	600	ondemand	-	42
1606786359857224848 	0	1400	1400	1400	1400	700	700	700	700	600	ondemand	-	42
1606786361548694282	1	1400	1400	1400	1400	900	900	900	900	600	ondemand	-	42
1606786361681937565 	0	1400	1400	1400	1400	600	600	600	600	600	ondemand	-	42
1606786363346398868	1	1400	1400	1400	1400	1000	1000	1000	1000	600	ondemand	-	42
1606786363488779346 	0	1400	1400	1400	1400	500	500	500	700	600	ondemand	-	42
1606786365149234420	1	1400	1400	1400	1400	1000	1000	1000	1000	600	ondemand	-	42
1606786365288445501 	0	1400	1400	1400	1400	500	500	500	800	600	ondemand	-	42
1606786366968038417	1	1400	1400	1400	1400	800	800	800	800	600	ondemand	-	42
1606786367091856590 	0	1400	1400	1400	1400	700	700	700	600	600	ondemand	-	42
1606786368744512040	1	1400	1400	1400	1400	1100	1100	1100	1100	600	ondemand	-	42
1606786368889683585 	0	1400	1400	1400	1400	500	500	500	600	600	ondemand	-	42
1606786370599824021	1	1400	1400	1400	1400	600	600	600	600	600	ondemand	-	41
1606786370736300909 	0	1400	1400	1400	1400	600	600	600	600	600	ondemand	-	42
1606786372418850717	1	1400	1400	1400	1400	1000	1000	1000	1000	600	ondemand	-	41
1606786372528087228 	0	1400	1400	1400	1400	700	700	700	700	600	ondemand	-	42
1606786374184885230	1	1400	1400	1400	1400	800	800	1800	1800	600	ondemand	-	42
1606786374246044071 	0	1400	1400	1400	1400	1800	1800	1800	1800	600	ondemand	-	43
1606786375833627237	1	1400	1400	1400	1400	1700	1700	1700	1700	600	ondemand	-	43
1606786375907093754 	0	1400	1400	1400	1400	1200	1200	1200	1200	600	ondemand	-	42
1606786377514968380	1	1400	1400	1400	1400	1800	1800	1800	1800	600	ondemand	-	43
1606786377584682835 	0	1400	1400	1400	1400	1800	1800	1800	1000	600	ondemand	-	43
1606786379175238564	1	1400	1400	1400	1400	1600	1600	1600	1600	600	ondemand	-	43
1606786379258542063 	0	1400	1400	1400	1400	1100	1100	1100	1100	600	ondemand	-	42
1606786380842647203	1	1400	1400	1400	1400	1800	1800	1800	1800	600	ondemand	-	42
1606786380921181772 	0	1400	1400	1400	1400	1100	1100	1100	1100	600	ondemand	-	42
1606786382525505164	1	1400	1400	1400	1400	1400	1400	1400	1400	600	ondemand	-	42
1606786382610585444 	0	1400	1400	1400	1400	900	900	900	900	600	ondemand	-	42
1606786384210495235	1	1400	1400	1400	1400	1700	900	900	900	600	ondemand	-	42
1606786384337840511 	0	1400	1400	1400	1400	500	500	500	500	600	ondemand	-	42
1606786386011863354	1	1400	1400	1400	1400	500	500	700	700	600	ondemand	-	41
1606786386121321487 	0	1400	1400	1400	1400	800	800	800	800	600	ondemand	-	42
1606786387852657734	1	1400	1400	1400	1400	600	600	600	600	600	ondemand	-	42
1606786387948436490 	0	1400	1400	1400	1400	900	900	900	900	600	ondemand	-	42
1606786389652810939	1	1400	1400	1400	1400	800	800	800	800	600	ondemand	-	42
1606786389785749055 	0	1400	1400	1400	1400	600	600	600	600	600	ondemand	-	42
1606786391446300557	1	1400	1400	1400	1400	1000	1000	1000	1000	600	ondemand	-	42
1606786391560071497 	0	1400	1400	1400	1400	700	700	700	700	600	ondemand	-	42
1606786393247698250	1	1400	1400	1400	1400	900	900	900	900	600	ondemand	-	41
1606786393350829963 	0	1400	1400	1400	1400	800	800	800	800	600	ondemand	-	41
1606786395023471513	1	1400	1400	1400	1400	800	800	800	800	600	ondemand	-	41
1606786395135912627 	0	1400	1400	1400	1400	700	700	700	700	600	ondemand	-	41
1606786396835427013	1	1400	1400	1400	1400	1000	1000	1000	1000	600	ondemand	-	41
1606786396944620105 	0	1400	1400	1400	1400	700	700	700	700	600	ondemand	-	42
1606786398652340856	1	1400	1400	1400	1400	800	800	800	800	600	ondemand	-	41
1606786398767229706 	0	1400	1400	1400	1400	700	700	700	700	600	ondemand	-	42
1606786400441212908	1	1400	1400	1400	1400	1000	1000	1000	1000	600	ondemand	-	41
1606786400576118178 	0	1400	1400	1400	1400	500	500	500	500	600	ondemand	-	41
1606786402252840196	1	1400	1400	1400	1400	900	900	900	900	600	ondemand	-	41
1606786402340816749 	0	1400	1400	1400	1400	1100	1100	1100	1100	600	ondemand	-	42
1606786403998786503	1	1400	1400	1400	1400	1800	1800	1800	1800	600	ondemand	-	42
1606786404058846182 	0	1400	1400	1400	1400	1800	1800	1800	1800	600	ondemand	-	43
1606786405650845540	1	1400	1400	1400	1400	1500	1500	1500	1500	600	ondemand	-	42
1606786405735779819 	0	1400	1400	1400	1400	1100	1100	1100	1100	600	ondemand	-	42
1606786407330476076	1	1400	1400	1400	1400	1800	1800	1800	1800	600	ondemand	-	43
1606786407402656057 	0	1400	1400	1400	1400	1200	1200	1200	1200	600	ondemand	-	43
1606786409250738283	1	1400	1400	1400	1400	1800	1800	1800	1800	600	ondemand	-	61
1606786409580779250 	0	1400	1400	1400	1400	1800	1800	1800	1800	600	ondemand	-	62
1606786411500745957	1	1400	1400	1400	1400	1800	1800	1800	1800	600	ondemand	-	67
1606786411825749829 	0	1400	1400	1400	1400	1800	1800	1800	1800	600	ondemand	-	68
1606786413740735771	1	1400	1400	1400	1400	1800	1800	1800	1800	600	ondemand	-	71
1606786414080756093 	0	1400	1400	1400	1400	1800	1800	1800	1800	600	ondemand	-	71
1606786415950844554	1	1400	1400	1400	1400	1800	1800	1800	1800	600	ondemand	-	73
1606786416175804779 	0	1400	1400	1400	1400	1800	1800	1800	1800	600	ondemand	-	73
1606786417980719838	1	1400	1400	1400	1400	1800	1800	1800	1800	600	ondemand	-	74
1606786418222145755 	0	1400	1400	1400	1400	1800	1800	1800	1800	600	ondemand	-	74
1606786420013649060	1	1400	1400	1400	1400	1800	1800	1800	1800	600	ondemand	-	75
1606786420250928252 	0	1400	1400	1400	1400	1800	1800	1800	1800	600	ondemand	-	75
1606786422063696635	1	1400	1400	1400	1400	1800	1800	1800	1800	600	ondemand	-	76
1606786422277141345 	0	1400	1400	1400	1400	1800	1800	1800	1800	600	ondemand	-	76
1606786424121434452	1	1400	1400	1400	1400	1800	1800	1800	1800	600	ondemand	-	76
1606786424400772514 	0	1400	1400	1400	1400	1800	1800	1800	1800	600	ondemand	-	76
1606786426275750974	1	1400	1400	1400	1400	1800	1800	1800	1800	600	ondemand	-	77
1606786426580728464 	0	1400	1400	1400	1400	1800	1800	1800	1800	600	ondemand	-	77
1606786428380763083	1	1400	1400	1400	1400	1800	1800	1800	1800	600	ondemand	-	78
1606786428605776264 	0	1400	1400	1400	1400	1800	1800	1800	1800	600	ondemand	-	78
1606786430380773491	1	1400	1400	1400	1400	1800	1800	1800	1800	600	ondemand	-	78
1606786430623635480 	0	1400	1400	1400	1400	1800	1800	1800	1800	600	ondemand	-	78
1606786432480869791	1	1400	1400	1400	1400	1800	1800	1800	1800	600	ondemand	-	78
1606786432780736102 	0	1400	1400	1400	1400	1800	1800	1800	1800	600	ondemand	-	79
1606786434645797821	1	1400	1400	1400	1400	1800	1800	1800	1800	600	ondemand	-	79
1606786434975798033 	0	1400	1400	1400	1400	1800	1800	1800	1800	600	ondemand	-	79
1606786436855703034	1	1400	1400	1400	1400	1800	1800	1800	1800	600	ondemand	-	80
1606786437180764109 	0	1400	1400	1400	1400	1800	1800	1800	1800	600	ondemand	-	80
1606786439060808690	1	1400	1400	1400	1400	1800	1800	1800	1800	600	ondemand	-	80
1606786439305819916 	0	1400	1400	1400	1400	1800	1800	1800	1800	600	ondemand	-	80
1606786441180764317	1	1400	1400	1400	1400	1800	1800	1800	1800	600	ondemand	-	80
1606786441480754418 	0	1400	1400	1400	1400	1800	1800	1800	1800	600	ondemand	-	80
1606786443295742097	1	1400	1400	1400	1400	1800	1800	1800	1800	600	ondemand	-	81
1606786443523814716 	0	1400	1400	1400	1400	1800	1800	1800	1800	600	ondemand	-	81
1606786445305762051	1	1400	1400	1400	1400	1800	1800	1800	1800	600	ondemand	-	81
1606786445555751537 	0	1400	1400	1400	1400	1800	1800	1800	1800	600	ondemand	-	81
1606786447365816074	1	1400	1400	1400	1400	1800	1800	1800	1800	600	ondemand	-	81
1606786447663718520 	0	1400	1400	1400	1400	1800	1800	1800	1800	600	ondemand	-	81
1606786449498648529	1	1400	1400	1400	1400	1800	1800	1800	1800	600	ondemand	-	82
1606786449735738468 	0	1400	1400	1400	1400	1800	1800	1800	1800	600	ondemand	-	82
1606786451585802758	1	1400	1400	1400	1400	1800	1800	1800	1800	600	ondemand	-	82
1606786451810743853 	0	1400	1400	1400	1400	1800	1800	1800	1800	600	ondemand	-	82
1606786453600780297	1	1400	1400	1400	1400	1800	1800	1800	1800	600	ondemand	-	82
1606786453848656211 	0	1400	1400	1400	1400	1800	1800	1800	1800	600	ondemand	-	82
1606786455640735515	1	1400	1400	1400	1400	1800	1800	1800	1800	600	ondemand	-	82
1606786455860826723 	0	1400	1400	1400	1400	1800	1800	1800	1800	600	ondemand	-	82
1606786457643673372	1	1400	1400	1400	1400	1800	1800	1800	1800	600	ondemand	-	83
1606786457915769014 	0	1400	1400	1400	1400	1800	1800	1800	1800	600	ondemand	-	82
1606786459718728248	1	1400	1400	1400	1400	1800	1800	1800	1800	600	ondemand	-	83
1606786459975809856 	0	1400	1400	1400	1400	1800	1800	1800	1800	600	ondemand	-	83
1606786461780752200	1	1400	1400	1400	1400	1800	1800	1800	1800	600	ondemand	-	83
1606786461990766218 	0	1400	1400	1400	1400	1800	1800	1800	1800	600	ondemand	-	83
1606786463780745735	1	1400	1400	1400	1400	1800	1800	1800	1800	600	ondemand	-	83
1606786464038533879 	0	1400	1400	1400	1400	1800	1800	1800	1800	600	ondemand	-	83
1606786465858805251	1	1400	1400	1400	1400	1800	1800	1800	1800	600	ondemand	-	84
1606786466150870812 	0	1400	1400	1400	1400	1800	1800	1800	1800	600	ondemand	-	83
1606786467980867040	1	1400	1400	1400	1400	1800	1800	1800	1800	600	ondemand	-	84
1606786468305753360 	0	1400	1400	1400	1400	1800	1800	1800	1800	600	ondemand	-	84
1606786470145759149	1	1400	1400	1400	1400	1800	1800	1800	1800	600	ondemand	-	84
1606786470485728961 	0	1400	1400	1400	1400	1800	1800	1800	1800	600	ondemand	-	84
1606786472350732013	1	1400	1400	1400	1400	1800	1800	1800	1800	600	ondemand	-	84
1606786472645784596 	0	1400	1400	1400	1400	1800	1800	1800	1800	600	ondemand	-	84
1606786474560786634	1	1400	1400	1400	1400	1800	1800	1800	1800	600	ondemand	-	84
1606786474875769180 	0	1400	1400	1400	1400	1800	1800	1800	1800	600	ondemand	-	84
1606786476820745075	1	1400	1400	1400	1400	1800	1800	1800	1800	600	ondemand	-	84
1606786477180744722 	0	1400	1400	1400	1400	1800	1800	1800	1800	600	ondemand	-	84
1606786479145837325	1	1400	1400	1400	1400	1800	1800	1800	1800	600	ondemand	-	85
1606786479475775321 	0	1400	1400	1400	1400	1800	1800	1800	1800	600	ondemand	-	85
1606786481400851748	1	1400	1400	1400	1400	1800	1800	1800	1800	600	ondemand	-	85
1606786481720748513 	0	1400	1400	1400	1400	1800	1800	1800	1800	600	ondemand	-	85
1606786483575802239	1	1400	1400	1400	1400	1800	1800	1800	1800	600	ondemand	-	85
1606786483900748472 	0	1400	1400	1400	1400	1800	1800	1800	1800	600	ondemand	-	85
1606786485800767922	1	1400	1400	1400	1400	1800	1800	1800	1800	600	ondemand	-	85
1606786486080753928 	0	1400	1400	1400	1400	1800	1800	1800	1800	600	ondemand	-	85
1606786487925752877	1	1400	1400	1400	1400	1800	1800	1800	1800	600	ondemand	-	85
1606786488213733626 	0	1400	1400	1400	1400	1800	1800	1800	1800	600	ondemand	-	85
1606786489886408080	1	1300	1300	200	200	800	800	800	800	600	ondemand	-	76
1606786490037939450 	0	800	800	800	800	600	600	600	600	600	ondemand	-	73
1606786491740358679	1	1400	1400	1400	1400	900	900	900	900	600	ondemand	-	62
1606786491882253149 	0	1400	1400	1400	1400	500	500	500	700	600	ondemand	-	61
1606786493596193098	1	1400	1400	1400	1400	600	600	600	600	600	ondemand	-	57
1606786493732734142 	0	1400	1400	1400	1400	600	600	600	600	600	ondemand	-	57
1606786495413567541	1	1400	1400	1400	1400	700	800	800	800	600	ondemand	-	55
1606786495537899034 	0	1400	1400	1400	1400	600	600	600	600	600	ondemand	-	55
1606786497194906326	1	1400	1400	1400	1400	1100	1100	1100	1100	600	ondemand	-	53
1606786497297171329 	0	1400	1400	1400	1400	1100	1100	1100	500	600	ondemand	-	53
1606786498974413788	1	1400	1400	1400	1400	800	800	800	800	600	ondemand	-	52
1606786499095639216 	0	1400	1400	1400	1400	600	600	900	900	600	ondemand	-	52
1606786500745286550	1	1400	1400	1400	1400	1100	1100	1100	1100	600	ondemand	-	52
1606786500887080145 	0	1400	1400	1400	1400	500	500	500	700	600	ondemand	-	52
1606786502549398775	1	1400	1400	1400	1400	1000	1000	1000	1000	600	ondemand	-	50
1606786502668140760 	0	1400	1400	1400	1400	700	700	700	700	600	ondemand	-	51
1606786504345432422	1	1400	1400	1400	1400	1000	1000	1000	1000	600	ondemand	-	50
1606786504463699744 	0	1400	1400	1400	1400	700	700	700	700	600	ondemand	-	50
1606786506170880430	1	1400	1400	1400	1400	700	700	700	700	600	ondemand	-	49
1606786506257047864 	0	1400	1400	1400	1400	1100	1100	1100	1100	600	ondemand	-	50
1606786507897653830	1	1400	1400	1400	1400	1800	1800	1800	1800	600	ondemand	-	49
1606786507959031872 	0	1400	1400	1400	1400	1800	1800	1800	1800	600	ondemand	-	50
1606786509548413690	1	1400	1400	1400	1400	1600	1600	1600	1600	600	ondemand	-	49
1606786509618356389 	0	1400	1400	1400	1400	1500	1500	1500	1500	600	ondemand	-	50
1606786511202309488	1	1400	1400	1400	1400	1800	1800	1800	1800	600	ondemand	-	50
1606786511264973440 	0	1400	1400	1400	1400	1800	1800	1800	1800	600	ondemand	-	50
1606786512855150125	1	1400	1400	1400	1400	1500	1500	1500	1500	600	ondemand	-	49
1606786512922178508 	0	1400	1400	1400	1400	1500	1500	1500	1500	600	ondemand	-	49
1606786514519678564	1	1400	1400	1400	1400	1700	1700	1700	1700	600	ondemand	-	49
1606786514596891427 	0	1400	1400	1400	1400	1700	900	900	900	600	ondemand	-	49
1606786516191043960	1	1400	1400	1400	1400	1700	1700	1700	1000	600	ondemand	-	48
1606786516289144904 	0	1400	1400	1400	1400	1000	1000	1000	700	600	ondemand	-	48
1606786517882803938	1	1400	1400	1400	1400	1800	1800	1800	1800	600	ondemand	-	49
1606786517989760578 	0	1400	1400	1400	1400	900	900	900	600	600	ondemand	-	48
1606786519663711830	1	1400	1400	1400	1400	1100	400	400	400	600	ondemand	-	47
1606786519799912208 	0	1400	1400	1400	1400	600	600	600	600	600	ondemand	-	47
1606786521472907172	1	1400	1400	1400	1400	800	800	800	800	600	ondemand	-	47
1606786521596885833 	0	1400	1400	1400	1400	700	700	700	600	600	ondemand	-	47
1606786523281160936	1	1400	1400	1400	1400	900	900	900	900	600	ondemand	-	47
1606786523401263036 	0	1400	1400	1400	1400	700	700	700	700	600	ondemand	-	47
1606786525075383283	1	1400	1400	1400	1400	800	800	800	800	600	ondemand	-	47
1606786525205602947 	0	1400	1400	1400	1400	600	700	700	700	600	ondemand	-	46
1606786526945368791	1	1400	1400	1400	1400	800	800	800	800	600	ondemand	-	46
1606786527074084339 	0	1400	1400	1400	1400	600	600	600	600	600	ondemand	-	46
1606786528759069266	1	1400	1400	1400	1400	900	900	900	900	600	ondemand	-	46
1606786528887054693 	0	1400	1400	1400	1400	600	600	1500	1500	600	ondemand	-	46
