timestamp	VIRTUAL_SCALING	CPU0_F	CPU1_F	CPU2_F	CPU3_F	CPU4_F	CPU5_F	GPU_FREQ	CPU_GOVERNOR	EMC_F	TEMP0	TEMP1	TEMP2	TEMP3	TEMP4	TEMP5	TEMP6	TEMP7
1593905154561028819	1	499	1728	1728	499	499	499	114750000	performance	1866	29	29	27	29	26	25	100	28
1593905154691225935 	0	499	1696	1702	499	499	499	114750000	performance	1866	29	29	27	29	26	25	100	28
1593905156421348790	1	499	1728	1728	499	499	499	114750000	performance	1866	29	29	27	29	26	25	100	28
1593905156595916625 	0	499	1727	1727	499	499	498	114750000	performance	1866	29	29	27	29	26	25	100	28
1593905158450564363	1	499	1728	1728	499	499	499	114750000	performance	1866	29	29	27	29	26	25	100	28
1593905158714301942 	0	499	1700	1727	499	499	499	114750000	performance	1866	29	29	27	29	26	25	100	28
1593905160415750805	1	499	1728	1728	499	499	499	114750000	performance	1866	29	29	27	29	26	25	100	28
1593905160568685603 	0	499	1727	1728	499	498	499	114750000	performance	1866	29	29	27	29	26	25	100	28
1593905162354131847	1	499	1728	1728	499	499	499	114750000	performance	1866	29	29	27	29	26	25	100	28
1593905162602024379 	0	499	1727	1728	499	498	499	114750000	performance	1866	29	29	27	29	26	25	100	28
1593905164395975257	1	499	1728	1728	499	499	499	114750000	performance	1866	29	29	27	29	26	25	100	28
1593905164688000771 	0	498	1727	1728	498	498	499	114750000	performance	1866	29	29	27	29	26	25	100	28
1593905166506614442	1	499	1728	1728	499	499	499	114750000	performance	1866	29	29	27	29	26	25	100	28
1593905166621951131 	0	499	1697	1727	499	499	499	114750000	performance	1866	29	29	27	29	26	25	100	28
1593905168433809456	1	499	1728	1728	499	499	499	114750000	performance	1866	29	29	27	29	26	25	100	28
1593905168692916882 	0	498	1728	1710	498	498	498	114750000	performance	1866	29	29	27	29	26	25	100	28
1593905170433227879	1	499	1728	1728	499	499	499	114750000	performance	1866	29	29	27	29	26	25	100	28
1593905170557989090 	0	499	1724	1726	499	498	498	114750000	performance	1866	29	29	27	29	26	25	100	28
1593905172314341503	1	499	1728	1728	499	499	499	114750000	performance	1866	29	29	27	29	26	25	100	28
1593905172499810325 	0	499	1726	1726	499	498	499	114750000	performance	1866	29	29	27	29	26	25	100	28
1593905174233180653	1	499	1728	1728	499	499	499	114750000	performance	1866	29	29	27	29	26	25	100	28
1593905174421135616 	0	499	1728	1726	499	499	499	114750000	performance	1866	29	29	27	29	26	25	100	28
1593905176181668782	1	499	1728	1728	499	499	499	114750000	performance	1866	29	29	27	29	26	25	100	28
1593905176526128620 	0	498	1729	1727	499	499	498	114750000	performance	1866	29	29	27	29	26	25	100	28
1593905178392416598	1	499	1728	1728	499	499	499	114750000	performance	1866	29	29	27	29	26	25	100	28
1593905178618782246 	0	498	1705	1726	499	498	499	114750000	performance	1866	29	29	27	29	26	25	100	28
1593905180336890405	1	499	1728	1728	499	499	499	114750000	performance	1866	29	29	27	29	26	25	100	28
1593905180526232427 	0	498	1727	1728	498	499	499	114750000	performance	1866	29	29	27	29	26	25	100	28
1593905182242446297	1	499	1728	1728	499	499	499	114750000	performance	1866	29	29	27	29	26	25	100	28
1593905182391699184 	0	499	1711	1709	498	499	499	114750000	performance	1866	29	29	27	29	26	25	100	28
1593905184124702863	1	499	1728	1728	499	499	499	114750000	performance	1866	29	29	27	29	26	25	100	28
1593905184364288559 	0	498	1701	1728	499	499	499	114750000	performance	1866	29	29	27	29	26	25	100	28
1593905186131283932	1	499	1728	1728	499	499	499	114750000	performance	1866	29	29	27	29	26	25	100	28
1593905186265293778 	0	498	1727	1728	499	499	499	114750000	performance	1866	29	29	27	29	26	25	100	28
1593905188018111747	1	499	1728	1728	499	499	499	114750000	performance	1866	29	29	27	29	26	25	100	28
1593905188339830111 	0	499	1728	1728	499	499	499	114750000	performance	1866	29	29	27	29	26	25	100	28
1593905190138837814	1	499	1728	1728	499	499	499	114750000	performance	1866	29	29	27	29	26	25	100	28
1593905190275816927 	0	499	1681	1728	498	499	499	114750000	performance	1866	29	29	27	29	26	25	100	28
1593905191967051819	1	499	1728	1728	499	499	499	114750000	performance	1866	29	29	27	29	26	25	100	28
1593905192179103355 	0	498	1727	1727	498	498	499	114750000	performance	1866	29	29	27	29	26	25	100	28
1593905193987831035	1	499	1728	1728	499	499	499	114750000	performance	1866	29	29	27	29	26	25	100	28
1593905194232058059 	0	499	1698	1728	499	499	499	114750000	performance	1866	29	29	27	29	26	25	100	28
1593905196069520742	1	499	1728	1728	499	499	499	114750000	performance	1866	29	29	27	29	26	25	100	28
1593905196240586529 	0	499	1727	1728	499	499	498	114750000	performance	1866	29	29	27	29	26	25	100	28
1593905197961054234	1	499	1728	1728	499	499	499	114750000	performance	1866	29	29	27	29	26	25	100	28
1593905198145390957 	0	499	1727	1727	498	499	498	114750000	performance	1866	29	29	27	29	26	25	100	28
1593905199923457910	1	499	1728	1728	499	499	499	114750000	performance	1866	29	29	27	29	26	25	100	28
1593905200198831489 	0	499	1728	1727	499	498	498	114750000	performance	1866	29	29	27	29	26	25	100	28
1593905201973077879	1	499	1728	1728	499	499	499	114750000	performance	1866	29	29	27	29	26	25	100	28
1593905202271470143 	0	499	1728	1676	499	499	498	114750000	performance	1866	29	29	27	29	26	25	100	28
1593905204047448091	1	499	1728	1728	499	499	499	114750000	performance	1866	29	29	27	29	26	25	100	28
1593905204303997400 	0	499	1727	1727	498	499	499	114750000	performance	1866	29	29	27	29	26	25	100	28
1593905206137117249	1	499	1728	1728	499	499	499	114750000	performance	1866	29	29	27	29	26	25	100	28
1593905206418522467 	0	498	1702	1727	499	498	499	114750000	performance	1866	29	29	27	29	26	25	100	28
1593905208230403270	1	499	1728	1728	499	499	499	114750000	performance	1866	29	29	27	29	26	25	100	28
1593905208604057684 	0	499	1728	1726	499	499	499	114750000	performance	1866	29	29	27	29	26	25	100	28
1593905210375676584	1	499	1728	1728	499	499	499	114750000	performance	1866	29	29	27	29	26	25	100	28
1593905210575933304 	0	499	1728	1728	499	498	499	114750000	performance	1866	29	29	27	29	26	25	100	28
1593905212342143075	1	499	1728	1728	499	499	499	114750000	performance	1866	29	29	27	29	26	25	100	28
1593905212528586904 	0	498	1724	1728	499	499	499	114750000	performance	1866	29	29	27	29	26	25	100	28
1593905214349629977	1	499	1728	1728	499	499	499	114750000	performance	1866	29	29	27	29	26	25	100	28
1593905214494193395 	0	499	1728	1700	498	499	498	114750000	performance	1866	29	29	27	29	26	25	100	28
1593905216171205882	1	499	1728	1728	499	499	499	114750000	performance	1866	29	29	27	29	26	25	100	28
1593905216360664743 	0	498	1727	1727	499	499	499	114750000	performance	1866	29	29	27	29	26	25	100	28
1593905218142889326	1	499	1728	1728	499	499	499	114750000	performance	1866	29	29	27	29	26	25	100	28
1593905218377441421 	0	499	1728	1728	499	499	498	114750000	performance	1866	29	29	27	29	26	25	100	28
1593905220280170368	1	499	1728	1728	499	499	499	114750000	performance	1866	29	29	27	29	26	25	100	28
1593905220452974956 	0	498	1727	1702	499	499	499	114750000	performance	1866	29	29	27	29	26	25	100	28
1593905222122687738	1	499	1728	1728	499	499	499	114750000	performance	1866	29	29	27	29	26	25	100	28
1593905222308280469 	0	498	1727	1728	499	499	499	114750000	performance	1866	29	29	27	29	26	25	100	28
1593905224063867498	1	499	1728	1728	499	499	499	114750000	performance	1866	29	29	27	29	26	25	100	28
1593905224360354025 	0	499	1728	1728	499	499	499	114750000	performance	1866	29	29	27	29	26	25	100	28
1593905226197013347	1	499	1728	1728	499	499	499	114750000	performance	1866	29	29	27	29	26	25	100	28
1593905226334859340 	0	499	1727	1727	499	499	499	114750000	performance	1866	29	29	27	29	26	25	100	28
1593905228057393299	1	499	1728	1728	499	499	499	114750000	performance	1866	29	29	27	29	26	25	100	28
1593905228306366179 	0	499	1727	1727	499	499	498	114750000	performance	1866	29	29	27	29	26	25	100	28
1593905230004716735	1	499	1728	1728	499	499	499	114750000	performance	1866	29	29	27	29	26	25	100	28
1593905230195465701 	0	499	1727	1727	499	499	499	114750000	performance	1866	29	29	27	29	26	25	100	28
1593905231896560382	1	499	1728	1728	499	499	499	114750000	performance	1866	29	29	27	29	26	25	100	28
1593905232101195733 	0	499	1727	1727	499	499	499	114750000	performance	1866	29	29	27	29	26	25	100	28
1593905233886496412	1	499	1728	1728	499	499	499	114750000	performance	1866	29	29	27	29	26	25	100	28
1593905234073015693 	0	499	1703	1702	498	498	499	114750000	performance	1866	29	29	27	29	26	25	100	28
1593905235875800264	1	499	1728	1728	499	499	499	114750000	performance	1866	29	29	27	29	26	25	100	28
1593905236068651561 	0	499	1728	1728	499	499	499	114750000	performance	1866	29	29	27	29	26	25	100	28
1593905237764008500	1	499	1728	1728	499	499	499	114750000	performance	1866	29	29	27	29	26	25	100	28
1593905237971055646 	0	499	1727	1734	499	499	499	114750000	performance	1866	29	29	27	29	26	25	100	28
1593905239695917081	1	499	1728	1728	499	499	499	114750000	performance	1866	29	29	27	29	26	25	100	28
1593905239853929601 	0	499	1723	1727	498	498	499	114750000	performance	1866	29	29	27	29	26	25	100	28
1593905241624803629	1	499	1728	1728	499	499	499	114750000	performance	1866	29	29	27	29	26	25	100	28
1593905241874371478 	0	499	1710	1709	499	499	498	114750000	performance	1866	29	29	27	29	26	25	100	28
1593905243703984363	1	499	1728	1728	499	499	499	114750000	performance	1866	29	29	27	29	26	25	100	28
1593905243969402324 	0	499	1728	1727	499	498	498	114750000	performance	1866	29	29	27	29	26	25	100	28
1593905245732492745	1	499	1728	1728	499	499	499	114750000	performance	1866	29	29	27	29	26	25	100	28
1593905245915798377 	0	499	1725	1725	499	499	499	114750000	performance	1866	29	29	27	29	26	25	100	28
1593905247618175976	1	499	1728	1728	499	499	499	114750000	performance	1866	29	29	27	29	26	25	100	28
1593905247732424895 	0	498	1727	1727	498	498	498	114750000	performance	1866	29	29	27	29	26	25	100	28
1593905249397952140	1	499	1728	1728	499	499	499	114750000	performance	1866	29	29	27	29	26	25	100	28
1593905249512403233 	0	499	1727	1727	499	499	499	114750000	performance	1866	29	29	27	29	26	25	100	28
1593905251311751036	1	499	1728	1728	499	499	499	114750000	performance	1866	29	29	27	29	26	25	100	28
1593905251549651278 	0	499	1724	1727	498	499	498	114750000	performance	1866	29	29	27	29	26	25	100	28
1593905253317702753	1	499	1728	1728	499	499	499	114750000	performance	1866	29	29	27	29	26	25	100	28
1593905253498196051 	0	498	1725	1727	499	499	499	114750000	performance	1866	29	29	27	29	26	25	100	28
1593905255168114200	1	499	1728	1728	499	499	499	114750000	performance	1866	29	29	27	29	26	25	100	28
1593905255284330890 	0	499	1727	1727	499	498	499	114750000	performance	1866	29	29	27	29	26	25	100	28
1593905256983023415	1	499	1728	1728	499	499	499	114750000	performance	1866	29	29	27	29	26	25	100	28
1593905257340628060 	0	499	1727	1727	499	499	499	114750000	performance	1866	29	29	27	29	26	25	100	28
1593905259218734463	1	499	1728	1728	499	499	499	114750000	performance	1866	29	29	27	29	26	25	100	28
1593905259401572391 	0	499	1727	1727	499	498	499	114750000	performance	1866	29	29	27	29	26	25	100	28
1593905261062587941	1	499	1728	1728	499	499	499	114750000	performance	1866	29	29	27	29	26	25	100	28
1593905261178738409 	0	499	1728	1727	499	499	499	114750000	performance	1866	29	29	27	29	26	25	100	28
1593905262869210528	1	499	1728	1728	499	499	499	114750000	performance	1866	29	29	27	29	26	25	100	28
1593905263026975969 	0	499	1699	1701	499	499	499	114750000	performance	1866	29	29	27	29	26	25	100	28
1593905264700387686	1	499	1728	1728	499	499	499	114750000	performance	1866	29	29	27	29	26	25	100	28
1593905264868619682 	0	499	1671	1684	498	499	498	114750000	performance	1866	29	29	27	29	26	25	100	28
1593905266549203550	1	499	1728	1728	499	499	499	114750000	performance	1866	29	29	27	29	26	25	100	28
1593905266674369358 	0	499	1726	1730	499	498	499	114750000	performance	1866	29	29	27	29	26	25	100	28
1593905268385871898	1	499	1728	1728	499	499	499	114750000	performance	1866	29	29	27	29	26	25	100	28
1593905268578390706 	0	499	1727	1727	499	499	499	114750000	performance	1866	29	29	27	29	26	25	100	28
1593905270260593318	1	499	1728	1728	499	499	499	114750000	performance	1866	30	30	27	30	26	25	100	28
1593905270372124804 	0	498	1725	1726	498	499	499	114750000	performance	1866	29	29	27	29	26	25	100	28
1593905272033017460	1	499	1728	1728	499	499	499	114750000	performance	1866	29	29	27	29	26	25	100	28
1593905272140969789 	0	498	1726	1729	499	498	499	114750000	performance	1866	29	29	27	29	26	25	100	28
1593905273796320141	1	499	1728	1728	499	499	499	114750000	performance	1866	29	29	27	29	26	25	100	28
1593905273913878855 	0	499	1727	1726	499	499	498	114750000	performance	1866	29	29	27	29	26	25	100	28
1593905275587061150	1	499	1728	1728	499	499	499	114750000	performance	1866	29	29	27	29	26	25	100	28
1593905275694378272 	0	498	1726	1727	499	499	499	114750000	performance	1866	29	29	27	29	26	25	100	28
1593905277358499350	1	499	1728	1728	499	499	499	114750000	performance	1866	29	29	27	29	26	25	100	28
1593905277606826473 	0	498	1670	1727	499	498	499	114750000	performance	1866	29	29	27	29	26	25	100	28
1593905279496853274	1	499	1728	1728	499	499	499	114750000	performance	1866	29	29	27	29	26	25	100	28
1593905279715550908 	0	499	1727	1727	499	498	499	114750000	performance	1866	29	29	27	29	26	25	100	28
1593905281482859909	1	499	1728	1728	499	499	499	114750000	performance	1866	29	29	27	29	26	25	100	28
1593905281637366818 	0	498	1725	1727	498	499	499	114750000	performance	1866	29	29	27	29	26	25	100	28
1593905283438680885	1	499	1728	1728	499	499	499	114750000	performance	1866	29	29	27	29	26	25	100	28
1593905283552967524 	0	499	1698	1700	498	498	499	114750000	performance	1866	29	29	27	29	26	25	100	28
1593905285277198518	1	499	1728	1728	499	499	499	114750000	performance	1866	29	29	27	29	26	25	100	28
1593905285496111982 	0	498	1727	1727	499	499	498	114750000	performance	1866	29	29	27	29	26	25	100	28
1593905287254204016	1	499	1728	1728	499	499	499	114750000	performance	1866	29	29	27	29	26	25	100	28
1593905287470591481 	0	498	1701	1727	499	499	499	114750000	performance	1866	29	29	27	29	26	25	100	28
1593905289297195684	1	499	1728	1728	499	499	499	114750000	performance	1866	29	29	27	29	26	25	100	28
1593905289509264014 	0	499	1724	1727	498	498	499	114750000	performance	1866	29	29	27	29	26	25	100	28
1593905291367923623	1	499	1728	1728	499	499	499	114750000	performance	1866	29	29	27	29	26	25	100	28
1593905291630066785 	0	499	1729	1728	499	498	499	114750000	performance	1866	29	29	27	29	26	25	100	28
1593905293383196688	1	499	1728	1728	499	499	499	114750000	performance	1866	29	29	27	29	26	25	100	28
1593905293586180297 	0	499	1726	1726	499	498	499	114750000	performance	1866	29	29	27	29	26	25	100	28
1593905295298183898	1	499	1728	1728	499	499	499	114750000	performance	1866	29	29	27	29	26	25	100	28
1593905295439889033 	0	499	1725	1728	499	499	499	114750000	performance	1866	29	29	27	29	26	25	100	28
1593905297145738118	1	499	1728	1728	499	499	499	114750000	performance	1866	29	29	27	29	26	25	100	28
1593905297267555845 	0	498	1725	1727	499	499	499	114750000	performance	1866	29	29	27	29	26	25	100	28
1593905298948753456	1	499	1728	1728	499	499	499	114750000	performance	1866	29	29	27	29	26	25	100	28
1593905299190510411 	0	498	1712	1728	499	499	499	114750000	performance	1866	29	29	27	29	26	25	100	28
1593905300957564327	1	499	1728	1728	499	499	499	114750000	performance	1866	29	29	27	29	26	25	100	28
1593905301073965766 	0	499	1727	1700	499	498	499	114750000	performance	1866	29	29	27	29	26	25	100	28
1593905302876682410	1	499	1728	1728	499	499	499	114750000	performance	1866	29	29	27	29	26	25	100	28
1593905303129488933 	0	499	1727	1727	499	499	499	114750000	performance	1866	29	29	27	29	26	25	100	28
1593905304958997038	1	499	1728	1728	499	499	499	114750000	performance	1866	29	29	27	29	26	25	100	28
1593905305233838387 	0	499	1709	1709	498	499	499	114750000	performance	1866	29	29	27	29	26	25	100	28
1593905306969537771	1	499	1728	1728	499	499	499	114750000	performance	1866	29	29	27	29	26	25	100	28
1593905307093720321 	0	499	1699	1728	499	498	498	114750000	performance	1866	29	29	27	29	26	25	100	28
1593905308859205541	1	499	1728	1728	499	499	499	114750000	performance	1866	29	29	27	29	26	25	100	28
1593905309135929354 	0	499	1728	1699	499	499	499	114750000	performance	1866	29	29	27	29	26	25	100	28
1593905310889316772	1	499	1728	1728	499	499	499	114750000	performance	1866	29	29	27	29	26	25	100	28
1593905311097760784 	0	499	1723	1726	499	499	499	114750000	performance	1866	29	29	27	29	26	25	100	28
1593905312889095482	1	499	1728	1728	499	499	499	114750000	performance	1866	29	29	27	29	26	25	100	28
1593905313054976577 	0	499	1729	1728	499	498	498	114750000	performance	1866	29	29	27	29	26	25	100	28
1593905314822986771	1	499	1728	1728	499	499	499	114750000	performance	1866	29	29	27	29	26	25	100	28
1593905315109837987 	0	499	1669	1729	499	499	499	114750000	performance	1866	29	29	27	29	26	25	100	28
1593905316937998184	1	499	1728	1728	499	499	499	114750000	performance	1866	29	29	27	29	26	25	100	28
1593905317252387154 	0	498	1752	1727	498	499	499	114750000	performance	1866	29	29	27	29	26	25	100	28
1593905318927084596	1	499	1728	1728	499	499	499	114750000	performance	1866	29	29	27	29	26	25	100	28
1593905319043149157 	0	499	1728	1699	499	499	499	114750000	performance	1866	29	29	27	29	26	25	100	28
1593905320762014507	1	499	1728	1728	499	499	499	114750000	performance	1866	29	29	27	29	26	25	100	28
1593905320909935416 	0	499	1701	1728	498	499	499	114750000	performance	1866	29	29	27	29	26	25	100	28
1593905322602909217	1	499	1728	1728	499	499	499	114750000	performance	1866	29	29	27	29	26	25	100	28
1593905322741776523 	0	499	1726	1727	498	499	499	114750000	performance	1866	29	29	27	29	26	25	100	28
1593905324602895552	1	499	1728	1728	499	499	499	114750000	performance	1866	29	29	27	29	26	25	100	28
1593905324801644556 	0	498	1726	1739	499	499	499	114750000	performance	1866	29	29	27	29	26	25	100	28
1593905326562651094	1	499	1728	1728	499	499	499	114750000	performance	1866	29	29	27	29	26	25	100	28
1593905326915035020 	0	499	1712	1727	499	499	499	114750000	performance	1866	29	29	27	29	26	25	100	28
1593905328744657074	1	499	1728	1728	499	499	499	114750000	performance	1866	29	29	27	29	26	25	100	28
1593905328981287622 	0	499	1728	1727	499	499	499	114750000	performance	1866	29	29	27	29	26	25	100	28
1593905330737110125	1	499	1728	1728	499	499	499	114750000	performance	1866	29	29	27	29	26	25	100	28
1593905330972044248 	0	499	1727	1727	499	499	499	114750000	performance	1866	29	29	27	29	26	25	100	28
1593905332723125795	1	499	1728	1728	499	499	499	114750000	performance	1866	29	29	27	29	26	25	100	28
1593905332861195773 	0	499	1728	1728	499	498	499	114750000	performance	1866	29	29	27	29	26	25	100	28
1593905334600148816	1	499	1728	1728	499	499	499	114750000	performance	1866	29	29	27	29	26	25	100	28
1593905334745038743 	0	499	1726	1728	499	499	498	114750000	performance	1866	29	29	27	29	26	25	100	28
1593905336398550641	1	499	1728	1728	499	499	499	114750000	performance	1866	29	29	27	29	26	25	100	28
1593905336531561023 	0	499	1700	1728	498	499	498	114750000	performance	1866	29	29	27	29	26	25	100	28
1593905338285185917	1	499	1728	1728	499	499	499	114750000	performance	1866	29	29	27	29	26	25	100	28
1593905338514259403 	0	499	1728	1727	499	499	499	114750000	performance	1866	29	29	27	29	26	25	100	28
1593905340457874369	1	499	1728	1728	499	499	499	114750000	performance	1866	29	29	27	29	26	25	100	28
1593905340662833538 	0	498	1728	1726	499	499	499	114750000	performance	1866	29	29	27	29	26	25	100	28
1593905342392227767	1	499	1728	1728	499	499	499	114750000	performance	1866	29	29	27	29	26	25	100	28
1593905342678306261 	0	499	1727	1725	499	499	499	114750000	performance	1866	29	29	27	29	26	25	100	28
1593905344458075200	1	499	1728	1728	499	499	499	114750000	performance	1866	29	29	27	29	26	25	100	28
1593905344651400874 	0	498	1727	1728	499	499	499	114750000	performance	1866	29	29	27	29	26	25	100	28
1593905346369077820	1	499	1728	1728	499	499	499	114750000	performance	1866	29	29	27	29	26	25	100	28
1593905346577369531 	0	499	1728	1727	498	499	499	114750000	performance	1866	29	29	27	29	26	25	100	28
1593905348365742240	1	499	1728	1728	499	499	499	114750000	performance	1866	29	29	27	29	26	25	100	28
1593905348553759047 	0	499	1727	1727	498	499	499	114750000	performance	1866	29	29	27	29	26	25	100	28
1593905350322393919	1	499	1728	1728	499	499	499	114750000	performance	1866	29	29	27	29	26	25	100	28
1593905350585243510 	0	498	1728	1727	499	499	499	114750000	performance	1866	29	29	27	29	26	25	100	28
1593905352476365985	1	499	1728	1728	499	499	499	114750000	performance	1866	29	29	27	29	26	25	100	28
1593905352724351056 	0	499	1728	1727	499	498	498	114750000	performance	1866	29	29	27	29	26	25	100	28
1593905354531393966	1	499	1728	1728	499	499	499	114750000	performance	1866	29	29	27	29	26	25	100	28
1593905354691498805 	0	499	1727	1710	499	499	498	114750000	performance	1866	29	29	27	29	26	25	100	28
1593905356336715478	1	499	1728	1728	499	499	499	114750000	performance	1866	29	29	27	29	26	25	100	28
1593905356452584512 	0	499	1728	1696	499	498	499	114750000	performance	1866	29	29	27	29	26	25	100	28
1593905358132607220	1	499	1728	1728	499	499	499	114750000	performance	1866	29	29	27	29	26	25	100	28
1593905358335153307 	0	499	1727	1699	499	499	498	114750000	performance	1866	29	29	27	29	26	25	100	28
1593905360044232899	1	499	1728	1728	499	499	499	114750000	performance	1866	29	29	27	29	26	25	100	28
1593905360275653103 	0	498	1713	1727	499	499	499	114750000	performance	1866	29	29	27	29	26	25	100	28
1593905361973013067	1	499	1728	1728	499	499	499	114750000	performance	1866	29	29	27	29	26	25	100	28
1593905362138842608 	0	499	1725	1728	499	498	499	114750000	performance	1866	29	29	27	29	26	25	100	28
1593905363977132614	1	499	1728	1728	499	499	499	114750000	performance	1866	29	29	27	29	26	25	100	28
1593905364282172191 	0	499	1706	1710	499	498	499	114750000	performance	1866	29	29	27	29	26	25	100	28
1593905366069385671	1	499	1728	1728	499	499	499	114750000	performance	1866	29	29	27	29	26	25	100	28
1593905366285757659 	0	499	1727	1699	499	499	499	114750000	performance	1866	29	29	27	29	26	25	100	28
1593905367983778046	1	499	1728	1728	499	499	499	114750000	performance	1866	29	29	27	29	26	25	100	28
1593905368110378884 	0	499	1727	1727	498	499	498	114750000	performance	1866	29	29	27	29	26	25	100	28
1593905369800610959	1	499	1728	1728	499	499	499	114750000	performance	1866	29	29	27	29	26	25	100	28
1593905370050993388 	0	499	1727	1727	499	499	499	114750000	performance	1866	29	29	27	29	26	25	100	28
1593905371786277803	1	499	1728	1728	499	499	499	114750000	performance	1866	29	29	27	29	26	25	100	28
1593905371931189108 	0	499	1725	1727	499	498	499	114750000	performance	1866	29	29	27	29	26	25	100	28
1593905373689463183	1	499	1728	1728	499	499	499	114750000	performance	1866	29	29	27	29	26	25	100	28
1593905373876765214 	0	499	1728	1727	499	498	499	114750000	performance	1866	29	29	27	29	26	25	100	28
1593905375667717559	1	499	1728	1728	499	499	499	114750000	performance	1866	29	29	27	29	26	25	100	28
1593905375989795244 	0	499	1726	1727	499	499	499	114750000	performance	1866	29	29	27	29	26	25	100	28
1593905377877267035	1	499	1728	1728	499	499	499	114750000	performance	1866	29	29	27	29	26	25	100	28
1593905377996668627 	0	499	1728	1727	498	499	498	114750000	performance	1866	29	29	27	29	26	25	100	28
1593905379728409892	1	499	1728	1728	499	499	499	114750000	performance	1866	29	29	27	29	26	25	100	28
1593905379909106165 	0	499	1711	1708	498	499	499	114750000	performance	1866	29	29	27	29	26	25	100	28
1593905381560125030	1	499	1728	1728	499	499	499	114750000	performance	1866	29	29	27	29	26	25	100	28
1593905381668754306 	0	498	1728	1728	499	499	499	114750000	performance	1866	29	29	27	29	26	25	100	28
1593905383318723296	1	499	1728	1728	499	499	499	114750000	performance	1866	29	29	27	29	26	25	100	28
1593905383434613729 	0	499	1727	1727	499	499	498	114750000	performance	1866	29	29	27	29	26	25	100	28
1593905385167179326	1	499	1728	1728	499	499	499	114750000	performance	1866	29	29	27	29	26	25	100	28
1593905385345625180 	0	499	1726	1728	499	499	499	114750000	performance	1866	29	29	27	29	26	25	100	28
1593905387116168081	1	499	1728	1728	499	499	499	114750000	performance	1866	29	29	27	29	26	25	100	28
1593905387326830891 	0	499	1701	1700	498	499	499	114750000	performance	1866	29	29	27	29	26	25	100	28
1593905389059399228	1	499	1728	1728	499	499	499	114750000	performance	1866	29	29	27	29	26	25	100	28
1593905389228185859 	0	499	1728	1728	498	499	499	114750000	performance	1866	29	29	27	29	26	25	100	28
1593905390941843642	1	499	1728	1728	499	499	499	114750000	performance	1866	29	29	27	29	26	25	100	28
1593905391307004483 	0	499	1728	1701	499	499	499	114750000	performance	1866	29	29	27	29	26	25	100	28
1593905393161735900	1	499	1728	1728	499	499	499	114750000	performance	1866	29	29	27	29	26	25	100	28
1593905393336979591 	0	499	1731	1727	499	499	499	114750000	performance	1866	29	29	27	29	26	25	100	28
1593905395007778129	1	499	1728	1728	499	499	499	114750000	performance	1866	29	29	27	29	26	25	100	28
1593905395134196823 	0	499	1701	1702	499	499	499	114750000	performance	1866	29	29	27	29	26	25	100	28
1593905396963545341	1	499	1728	1728	499	499	499	114750000	performance	1866	29	29	27	29	26	25	100	28
1593905397170349054 	0	499	1700	1699	499	499	499	114750000	performance	1866	29	29	27	29	26	25	100	28
1593905398915061112	1	499	1728	1728	499	499	499	114750000	performance	1866	29	29	27	29	26	25	100	28
1593905399190235697 	0	499	1728	1700	499	498	499	114750000	performance	1866	29	29	27	29	26	25	100	28
1593905400868283399	1	499	1728	1728	499	499	499	114750000	performance	1866	29	29	27	29	26	25	100	28
1593905401008268665 	0	499	1727	1729	499	499	499	114750000	performance	1866	29	29	27	29	26	25	100	28
1593905402733980273	1	499	1728	1728	499	499	499	114750000	performance	1866	29	29	27	29	26	25	100	28
1593905402900261342 	0	498	1727	1727	499	498	499	114750000	performance	1866	29	29	27	29	26	25	100	28
1593905404608474097	1	499	1728	1728	499	499	499	114750000	performance	1866	29	29	27	29	26	25	100	28
1593905404731960471 	0	498	1727	1725	498	498	499	114750000	performance	1866	29	29	27	29	26	25	100	28
1593905406484127022	1	499	1728	1728	499	499	499	114750000	performance	1866	29	29	27	29	26	25	100	28
1593905406695770643 	0	498	1728	1727	499	499	498	114750000	performance	1866	29	29	27	29	26	25	100	28
1593905408580083217	1	499	1728	1728	499	499	499	114750000	performance	1866	29	29	27	29	26	25	100	28
1593905408855515055 	0	498	1727	1728	499	499	499	114750000	performance	1866	29	29	27	29	26	25	100	28
1593905410626319615	1	499	1728	1728	499	499	499	114750000	performance	1866	29	29	27	29	26	25	100	28
1593905410894289766 	0	499	1728	1727	498	499	498	114750000	performance	1866	29	29	27	29	26	25	100	28
1593905412650622437	1	499	1728	1728	499	499	499	114750000	performance	1866	29	29	27	29	26	25	100	28
1593905412874491780 	0	498	1727	1728	499	499	499	114750000	performance	1866	29	29	27	29	26	25	100	28
1593905414672122039	1	499	1728	1728	499	499	499	114750000	performance	1866	29	29	27	29	26	25	100	28
1593905414995814840 	0	499	1727	1727	499	498	499	114750000	performance	1866	29	29	27	29	26	25	100	28
1593905416789083289	1	499	1728	1728	499	499	499	114750000	performance	1866	29	29	27	29	26	25	100	28
1593905416947205342 	0	499	1726	1730	499	499	499	114750000	performance	1866	29	29	27	29	26	25	100	28
1593905418610043944	1	499	1728	1728	499	499	499	114750000	performance	1866	29	29	27	29	26	25	100	28
1593905418779298486 	0	498	1728	1727	499	499	499	114750000	performance	1866	29	29	27	29	26	25	100	28
1593905420597951195	1	499	1728	1728	499	499	499	114750000	performance	1866	29	29	27	29	26	25	100	28
1593905420822203501 	0	499	1727	1728	499	499	499	114750000	performance	1866	29	29	27	29	26	25	100	28
1593905422594499984	1	499	1728	1728	499	499	499	114750000	performance	1866	29	29	27	29	26	25	100	28
1593905422710471354 	0	499	1727	1716	498	499	499	114750000	performance	1866	29	29	27	29	26	25	100	28
1593905424390832382	1	499	1728	1728	499	499	499	114750000	performance	1866	29	29	27	29	26	25	100	28
1593905424594469358 	0	498	1726	1728	499	499	499	114750000	performance	1866	29	29	27	29	26	25	100	28
1593905426465059568	1	499	1728	1728	499	499	499	114750000	performance	1866	29	29	27	29	26	25	100	28
1593905426632998836 	0	499	1699	1727	499	499	498	114750000	performance	1866	29	29	27	29	26	25	100	28
1593905428482602474	1	499	1728	1728	499	499	499	114750000	performance	1866	29	29	27	29	26	25	100	28
1593905428669203193 	0	499	1705	1711	499	498	498	114750000	performance	1866	29	29	27	29	26	25	100	28
1593905430452738588	1	499	1728	1728	499	499	499	114750000	performance	1866	29	29	27	29	26	25	100	28
1593905430647865495 	0	499	1728	1727	499	499	498	114750000	performance	1866	29	29	27	29	26	25	100	28
1593905432317044524	1	499	1728	1728	499	499	499	114750000	performance	1866	29	29	27	29	26	25	100	28
1593905432433078439 	0	499	1727	1726	499	499	499	114750000	performance	1866	29	29	27	29	26	25	100	28
1593905434107579459	1	499	1728	1728	499	499	499	114750000	performance	1866	29	29	27	29	26	25	100	28
1593905434283732844 	0	499	1733	1728	499	499	499	114750000	performance	1866	29	29	27	29	26	25	100	28
1593905436005041301	1	499	1728	1728	499	499	499	114750000	performance	1866	29	29	27	29	26	25	100	28
1593905436279928669 	0	499	1727	1727	499	499	499	114750000	performance	1866	29	29	27	29	26	25	100	28
1593905438016760595	1	499	1728	1728	499	499	499	114750000	performance	1866	29	29	27	29	26	25	100	28
1593905438257079503 	0	499	1726	1672	499	498	499	114750000	performance	1866	29	29	27	29	26	25	100	28
