TimeStamp,Total Power,CPU Power,GPU Power
1593987442890785,4.683,1.98,0.152
1593987443392153,3.847,1.219,0.152
1593987443893420,3.771,1.143,0.152
1593987444394735,4.683,2.057,0.152
1593987444896147,5.102,2.437,0.152
1593987445397381,5.102,2.513,0.152
1593987445898632,5.14,2.513,0.152
1593987446399892,5.255,2.589,0.152
1593987446901132,5.178,2.513,0.152
1593987447402539,5.14,2.513,0.152
1593987447903972,5.14,2.513,0.152
1593987448405375,5.178,2.513,0.152
1593987448906761,5.102,2.513,0.152
1593987449408158,5.14,2.513,0.152
1593987449911690,5.255,2.589,0.152
1593987450412929,5.178,2.513,0.152
1593987450914149,5.14,2.513,0.152
1593987451415451,5.255,2.589,0.152
1593987451916694,5.216,2.589,0.152
1593987452417931,5.255,2.589,0.152
1593987452919163,5.178,2.513,0.152
1593987453420477,5.255,2.589,0.152
1593987453921737,5.178,2.589,0.152
1593987454422989,5.14,2.513,0.152
1593987454926132,5.216,2.513,0.152
1593987455427393,5.178,2.513,0.152
1593987455928628,5.14,2.513,0.152
1593987456429867,5.14,2.513,0.152
1593987456931144,5.14,2.513,0.152
1593987457432414,5.102,2.437,0.152
1593987457933663,5.14,2.513,0.152
1593987458434922,5.178,2.513,0.152
1593987458937897,5.14,2.513,0.152
1593987459439147,5.102,2.513,0.152
1593987459942430,5.14,2.513,0.152
1593987460443761,5.14,2.513,0.152
1593987460945027,5.178,2.589,0.152
1593987461446290,5.14,2.513,0.152
1593987461947582,5.216,2.513,0.152
1593987462448835,5.14,2.513,0.152
1593987462950085,5.178,2.513,0.152
1593987463451319,5.293,2.589,0.152
1593987463952545,5.216,2.513,0.152
1593987464453861,5.14,2.513,0.152
1593987464957350,5.14,2.513,0.152
1593987465458592,5.216,2.589,0.152
1593987465959851,5.14,2.513,0.152
1593987466461146,5.102,2.437,0.152
1593987466962398,5.255,2.589,0.152
1593987467463640,5.178,2.513,0.152
1593987467964872,5.14,2.513,0.152
1593987468466208,5.178,2.589,0.152
1593987468967473,5.14,2.513,0.152
1593987469468722,5.064,2.437,0.152
1593987469969969,5.178,2.513,0.152
1593987470471340,5.255,2.589,0.152
1593987470974492,5.14,2.513,0.152
1593987471475728,5.14,2.513,0.152
1593987471976946,5.178,2.513,0.152
1593987472478225,5.14,2.513,0.152
1593987472979491,5.102,2.513,0.152
1593987473480743,5.102,2.513,0.152
1593987473981972,5.14,2.513,0.152
1593987474483210,5.14,2.513,0.152
1593987474984422,5.14,2.513,0.152
1593987475485647,5.255,2.589,0.152
1593987475986896,5.255,2.589,0.152
1593987476488198,5.064,2.437,0.152
1593987476991478,5.178,2.513,0.152
1593987477492911,5.178,2.513,0.152
1593987477994135,5.14,2.513,0.152
1593987478495389,5.102,2.513,0.152
1593987478996641,5.178,2.513,0.152
1593987479497898,5.178,2.513,0.152
1593987479999130,5.178,2.513,0.152
1593987480500499,5.216,2.589,0.152
1593987481001745,5.178,2.513,0.152
1593987481502978,5.178,2.513,0.152
1593987482004218,5.178,2.513,0.152
1593987482505479,5.216,2.589,0.152
1593987483006743,5.14,2.513,0.152
1593987483507992,5.178,2.513,0.152
1593987484009294,5.293,2.589,0.152
1593987484510605,5.178,2.513,0.152
1593987485011893,5.14,2.513,0.152
1593987485515287,5.216,2.589,0.152
1593987486016563,5.178,2.513,0.152
1593987486517870,5.14,2.513,0.152
1593987487019114,5.102,2.513,0.152
1593987487520338,5.216,2.589,0.152
1593987488021573,5.14,2.513,0.152
1593987488522825,5.14,2.513,0.152
1593987489024080,5.14,2.513,0.152
1593987489525325,5.178,2.513,0.152
1593987490026554,5.178,2.513,0.152
1593987490529874,5.14,2.513,0.152
1593987491031129,5.178,2.513,0.152
1593987491532397,5.102,2.513,0.152
1593987492033633,5.14,2.513,0.152
1593987492534863,5.216,2.589,0.152
1593987493036125,5.178,2.513,0.152
1593987493537378,5.14,2.513,0.152
1593987494038600,5.102,2.513,0.152
1593987494539897,5.14,2.513,0.152
1593987495041149,5.14,2.513,0.152
1593987495544575,5.14,2.513,0.152
1593987496046622,5.255,2.589,0.152
1593987496547928,5.216,2.589,0.152
1593987497049149,5.102,2.513,0.152
1593987497550382,5.064,2.437,0.152
1593987498051614,5.216,2.589,0.152
1593987498552878,5.178,2.513,0.152
1593987499055948,5.14,2.513,0.152
1593987499557227,5.216,2.589,0.152
1593987500058466,5.14,2.513,0.152
1593987500561765,5.14,2.513,0.152
1593987501063036,5.216,2.589,0.152
1593987501564272,5.14,2.513,0.152
1593987502065553,5.064,2.437,0.152
1593987502566793,5.102,2.513,0.152
1593987503068186,5.331,2.589,0.152
1593987503569438,5.407,2.437,0.152
1593987504070682,5.521,2.513,0.152
1593987504571892,5.673,2.665,0.152
1593987505073154,5.331,2.589,0.152
1593987505574465,5.178,2.513,0.152
1593987506075736,5.178,2.589,0.152
1593987506583149,5.178,2.513,0.152
1593987507084409,5.178,2.513,0.152
1593987507585630,5.216,2.589,0.152
1593987508086899,5.178,2.513,0.152
1593987508588133,5.178,2.513,0.152
1593987509089452,5.14,2.513,0.152
1593987509590707,5.216,2.513,0.152
1593987510091954,5.178,2.513,0.152
1593987510593190,5.216,2.589,0.152
1593987511094453,5.14,2.513,0.152
1593987511595694,5.178,2.589,0.152
1593987512096918,5.14,2.513,0.152
1593987512598154,5.14,2.513,0.152
1593987513099396,5.255,2.589,0.152
1593987513600645,5.14,2.513,0.152
1593987514101883,5.14,2.513,0.152
1593987514603126,5.178,2.589,0.152
1593987515104350,5.178,2.513,0.152
1593987515605593,5.178,2.513,0.152
1593987516106827,5.178,2.513,0.152
1593987516608160,5.216,2.589,0.152
1593987517109438,5.178,2.513,0.152
1593987517612037,5.14,2.513,0.152
1593987518113298,5.178,2.589,0.152
1593987518614600,5.178,2.513,0.152
1593987519115840,5.102,2.513,0.152
1593987519621934,5.102,2.513,0.152
1593987520123177,5.178,2.513,0.152
1593987520624478,5.14,2.513,0.152
1593987521130522,5.102,2.513,0.152
1593987521631915,5.293,2.665,0.152
1593987522133278,5.216,2.589,0.152
1593987522634509,5.14,2.513,0.152
1593987523135713,5.216,2.589,0.152
1593987523636952,5.14,2.513,0.152
1593987524138340,5.14,2.513,0.152
1593987524639783,5.102,2.513,0.152
1593987525141050,5.178,2.513,0.152
1593987525643465,5.14,2.513,0.152
1593987526146194,5.102,2.513,0.152
1593987526647453,5.293,2.665,0.152
1593987527148692,5.14,2.513,0.152
1593987527649967,5.14,2.513,0.152
1593987528151181,5.216,2.589,0.152
1593987528652467,5.216,2.589,0.152
1593987529153744,5.14,2.513,0.152
1593987529654976,5.14,2.513,0.152
1593987530156231,5.216,2.589,0.152
1593987530657476,5.216,2.589,0.152
1593987531161048,5.255,2.589,0.152
1593987531662276,5.255,2.589,0.152
1593987532163549,5.14,2.513,0.152
1593987532664791,5.178,2.589,0.152
1593987533166076,5.178,2.513,0.152
1593987533667351,5.178,2.513,0.152
1593987534168643,5.178,2.513,0.152
1593987534669917,5.102,2.513,0.152
1593987535171167,5.216,2.589,0.152
1593987535672431,5.178,2.589,0.152
1593987536175919,5.14,2.513,0.152
1593987536677140,5.255,2.589,0.152
1593987537178396,5.178,2.589,0.152
1593987537679629,5.178,2.589,0.152
1593987538180857,5.14,2.513,0.152
1593987538682090,5.216,2.589,0.152
1593987539183350,5.216,2.589,0.152
1593987539684599,5.178,2.513,0.152
1593987540185850,5.255,2.589,0.152
1593987540687099,5.216,2.589,0.152
1593987541190285,5.178,2.589,0.152
1593987541691521,5.178,2.589,0.152
1593987542192805,5.255,2.589,0.152
1593987542695459,5.14,2.513,0.152
1593987543196700,5.14,2.513,0.152
1593987543697950,5.178,2.589,0.152
1593987544199201,5.178,2.513,0.152
1593987544700496,5.14,2.513,0.152
1593987545201717,5.178,2.589,0.152
1593987545702963,5.216,2.589,0.152
1593987546204227,5.102,2.513,0.152
1593987546705491,5.178,2.589,0.152
1593987547206740,5.255,2.589,0.152
1593987547707988,5.216,2.589,0.152
1593987548209297,5.102,2.513,0.152
1593987548710530,5.178,2.513,0.152
1593987549211844,5.064,2.437,0.152
1593987549713063,5.064,2.437,0.152
1593987550214350,5.14,2.513,0.152
1593987550715586,5.14,2.513,0.152
1593987551216835,5.102,2.437,0.152
1593987551718101,5.14,2.513,0.152
1593987552219340,5.255,2.589,0.152
1593987552720550,5.14,2.513,0.152
1593987553221799,5.14,2.513,0.152
1593987553723052,5.216,2.589,0.152
1593987554224284,5.216,2.589,0.152
1593987554725521,5.178,2.589,0.152
1593987555226773,5.14,2.513,0.152
1593987555728019,5.216,2.589,0.152
1593987556229272,5.178,2.513,0.152
1593987556730536,5.064,2.437,0.152
1593987557231811,5.14,2.513,0.152
1593987557733044,5.255,2.589,0.152
1593987558234260,5.178,2.589,0.152
1593987558735509,5.14,2.513,0.152
1593987559236777,5.293,2.665,0.152
1593987559738002,5.14,2.513,0.152
1593987560239255,5.14,2.513,0.152
1593987560740515,5.255,2.589,0.152
1593987561241826,5.216,2.589,0.152
1593987561743061,5.14,2.513,0.152
1593987562244286,5.102,2.513,0.152
1593987562745525,5.255,2.589,0.152
1593987563246753,5.216,2.589,0.152
1593987563748012,5.178,2.589,0.152
1593987564249227,5.331,2.665,0.152
1593987564750468,5.178,2.513,0.152
1593987565251730,5.14,2.513,0.152
1593987565752977,5.178,2.513,0.152
1593987566254255,5.445,2.589,0.152
1593987566755626,5.483,2.513,0.152
1593987567256848,5.559,2.513,0.152
1593987567758079,5.597,2.589,0.152
1593987568259327,5.255,2.513,0.152
1593987568760631,5.178,2.513,0.152
1593987569261877,5.178,2.513,0.152
1593987569763151,5.14,2.513,0.152
1593987570264388,5.178,2.513,0.152
1593987570765642,5.216,2.589,0.152
1593987571267003,5.178,2.513,0.152
1593987571768404,5.178,2.513,0.152
1593987572269620,5.14,2.513,0.152
1593987572770884,5.216,2.589,0.152
1593987573272204,5.178,2.513,0.152
1593987573773443,5.216,2.589,0.152
1593987574279473,5.178,2.589,0.152
1593987574780707,5.178,2.589,0.152
1593987575281939,5.178,2.513,0.152
1593987575783227,5.178,2.589,0.152
1593987576284461,5.216,2.589,0.152
1593987576785702,5.216,2.589,0.152
1593987577286954,5.102,2.513,0.152
1593987577788273,5.216,2.589,0.152
1593987578289524,5.14,2.513,0.152
1593987578790766,5.14,2.513,0.152
1593987579292038,5.14,2.513,0.152
1593987579793607,5.255,2.589,0.152
1593987580295531,5.178,2.513,0.152
1593987580796889,5.14,2.513,0.152
1593987581298116,5.216,2.589,0.152
1593987581801604,5.102,2.513,0.152
1593987582302855,5.14,2.513,0.152
1593987582804136,5.255,2.589,0.152
1593987583305388,5.216,2.589,0.152
1593987583806627,5.14,2.513,0.152
1593987584307924,5.102,2.513,0.152
1593987584809148,5.216,2.589,0.152
1593987585310414,5.178,2.513,0.152
1593987585811666,5.14,2.513,0.152
1593987586312960,5.216,2.589,0.152
1593987586814182,5.14,2.513,0.152
1593987587315399,5.064,2.437,0.152
1593987587816630,5.102,2.513,0.152
1593987588317862,5.255,2.589,0.152
1593987588819129,5.178,2.513,0.152
1593987589320726,5.216,2.589,0.152
1593987589822695,5.255,2.589,0.152
1593987590324095,5.178,2.589,0.152
1593987590825476,5.14,2.513,0.152
1593987591326804,5.14,2.513,0.152
1593987591828089,5.255,2.589,0.152
1593987592329848,5.216,2.589,0.152
1593987592831250,5.178,2.589,0.152
1593987593332650,5.178,2.513,0.152
1593987593833867,5.178,2.589,0.152
1593987594335109,5.178,2.513,0.152
1593987594836411,5.178,2.589,0.152
1593987595337656,5.178,2.589,0.152
1593987595838893,5.14,2.513,0.152
1593987596340139,5.14,2.513,0.152
1593987596843338,5.216,2.589,0.152
1593987597344588,5.216,2.589,0.152
1593987597845825,5.14,2.513,0.152
1593987598348358,5.178,2.513,0.152
1593987598849595,5.14,2.513,0.152
1593987599350861,5.178,2.513,0.152
1593987599852109,5.14,2.513,0.152
1593987600354459,5.255,2.589,0.152
1593987600855690,5.14,2.513,0.152
1593987601356920,5.14,2.589,0.152
1593987601860261,5.216,2.589,0.152
1593987602361508,5.178,2.513,0.152
1593987602862763,5.14,2.513,0.152
1593987603364061,5.102,2.513,0.152
1593987603865280,5.216,2.589,0.152
1593987604366526,5.14,2.513,0.152
1593987604867780,5.14,2.513,0.152
1593987605369020,5.216,2.589,0.152
1593987605870303,5.178,2.589,0.152
1593987606371532,5.064,2.437,0.152
1593987606872775,5.178,2.589,0.152
1593987607374000,5.14,2.513,0.152
1593987607875243,5.102,2.437,0.152
1593987608376485,5.102,2.513,0.152
1593987608877714,5.14,2.513,0.152
1593987609378948,5.14,2.513,0.152
1593987609880300,5.178,2.513,0.152
1593987610382426,5.216,2.589,0.152
1593987610883689,5.216,2.589,0.152
1593987611384928,5.216,2.589,0.152
1593987611886186,5.14,2.513,0.152
1593987612387418,5.178,2.589,0.152
1593987612889742,5.14,2.513,0.152
1593987613390984,5.14,2.513,0.152
1593987613892280,5.255,2.589,0.152
1593987614393592,5.255,2.589,0.152
1593987614894843,5.178,2.589,0.152
1593987615396083,5.14,2.513,0.152
1593987615897281,5.216,2.589,0.152
1593987616398535,5.14,2.437,0.152
1593987616899830,5.102,2.437,0.152
1593987617401043,5.255,2.589,0.152
1593987617902277,5.178,2.513,0.152
1593987618403530,5.102,2.513,0.152
1593987618905049,5.255,2.589,0.152
1593987619406377,5.178,2.513,0.152
1593987619907713,5.102,2.513,0.152
1593987620408969,5.14,2.513,0.152
1593987620910191,5.178,2.513,0.152
1593987621411426,5.178,2.513,0.152
1593987621912666,5.102,2.513,0.152
1593987622416484,5.293,2.589,0.152
1593987622917722,5.216,2.589,0.152
1593987623418936,5.14,2.513,0.152
1593987623920185,5.178,2.513,0.152
1593987624421413,5.14,2.513,0.152
1593987624922743,5.178,2.513,0.152
1593987625423987,5.216,2.589,0.152
1593987625925225,5.216,2.589,0.152
1593987626426467,5.14,2.513,0.152
1593987626927735,5.178,2.513,0.152
1593987627429072,5.293,2.589,0.152
1593987627930340,5.178,2.513,0.152
1593987628431612,5.216,2.589,0.152
1593987628932853,5.102,2.513,0.152
1593987629434184,5.483,2.513,0.152
1593987629936814,5.559,2.513,0.152
1593987630438073,5.559,2.513,0.152
1593987630939325,5.445,2.589,0.152
1593987631440546,5.255,2.513,0.152
1593987631941844,5.216,2.513,0.152
1593987632443061,5.14,2.513,0.152
1593987632946638,5.14,2.513,0.152
