timestamp	VIRTUAL_SCALING	CPU0_F	CPU1_F	CPU2_F	CPU3_F	CPU4_F	CPU5_F	GPU_FREQ	CPU_GOVERNOR	EMC_F	TEMP0	TEMP1	TEMP2	TEMP3	TEMP4	TEMP5	TEMP6	TEMP7
1592951674538769273	1	1728	1267	1267	1728	1728	1728	114750000	performance	1866	29	29	27	29	27	25	100	29
1592951674574015164 	0	1672	1266	1267	1727	1728	1727	114750000	performance	1866	29	29	28	29	27	25	100	29
1592951676118316168	1	1728	1267	1267	1728	1728	1728	114750000	performance	1866	29	29	28	29	27	25	100	28
1592951676153236650 	0	1689	1267	1267	1690	1728	1729	114750000	performance	1866	29	29	27	29	27	25	100	28
1592951677698504344	1	1728	1267	1267	1728	1728	1728	114750000	performance	1866	29	29	28	29	27	25	100	28
1592951677733167066 	0	1674	1266	1267	1689	1728	1728	114750000	performance	1866	29	29	27	29	27	25	100	28
1592951679277480650	1	1728	1267	1267	1728	1728	1728	114750000	performance	1866	29	29	28	29	27	25	100	28
1592951679312201292 	0	1682	1267	1266	1725	1728	1727	114750000	performance	1866	29	29	27	29	27	25	100	28
1592951680855715387	1	1728	1267	1267	1728	1728	1728	114750000	performance	1866	29	29	27	29	27	25	100	28
1592951680890555069 	0	1674	1267	1266	1728	1727	1727	114750000	performance	1866	29	29	28	29	27	25	100	28
1592951682435447926	1	1728	1267	1267	1728	1728	1728	114750000	performance	1866	29	29	27	29	27	25	100	28
1592951682470522585 	0	1673	1267	1267	1728	1728	1727	114750000	performance	1866	29	29	27	29	27	25	100	28
1592951684014682640	1	1728	1267	1267	1728	1728	1728	114750000	performance	1866	29	29	27	29	27	25	100	28
1592951684049982387 	0	1678	1266	1267	1727	1728	1727	114750000	performance	1866	29	29	27	29	27	25	100	28
1592951685593829167	1	1728	1267	1267	1728	1728	1728	114750000	performance	1866	29	29	27	29	27	25	100	28
1592951685628998418 	0	1690	1267	1266	1729	1727	1728	114750000	performance	1866	29	29	27	29	27	25	100	28
1592951687173370096	1	1728	1267	1267	1728	1728	1728	114750000	performance	1866	29	29	28	29	27	25	100	28
1592951687208359667 	0	1678	1267	1266	1726	1728	1728	114750000	performance	1866	29	29	28	29	27	25	100	28
1592951688752564438	1	1728	1267	1267	1728	1728	1728	114750000	performance	1866	29	29	27	29	27	25	100	28
1592951688787500632 	0	1676	1267	1267	1728	1727	1728	114750000	performance	1866	29	29	28	29	27	25	100	28
1592951690331761211	1	1728	1267	1267	1728	1728	1728	114750000	performance	1866	29	29	27	29	27	25	100	28
1592951690366121148 	0	1675	1267	1267	1726	1725	1726	114750000	performance	1866	29	30	27	30	27	25	100	28
1592951691910653891	1	1728	1267	1267	1728	1728	1728	114750000	performance	1866	29	29	28	29	27	25	100	28
1592951691945962791 	0	1679	1267	1267	1689	1727	1728	114750000	performance	1866	29	29	27	29	27	25	100	28
1592951693491144786	1	1728	1267	1267	1728	1728	1728	114750000	performance	1866	29	29	27	29	27	25	100	28
1592951693525848532 	0	1678	1266	1267	1725	1724	1728	114750000	performance	1866	29	29	27	29	27	25	100	28
1592951695069844064	1	1728	1267	1267	1728	1728	1728	114750000	performance	1866	29	29	28	29	27	25	100	28
1592951695104946947 	0	1683	1267	1267	1727	1727	1727	114750000	performance	1866	29	29	28	29	27	25	100	28
1592951696649411634	1	1728	1267	1267	1728	1728	1728	114750000	performance	1866	29	29	27	29	27	25	100	29
1592951696684269493 	0	1671	1267	1267	1688	1727	1727	114750000	performance	1866	30	30	27	30	27	25	100	29
1592951698228138726	1	1728	1267	1267	1728	1728	1728	114750000	performance	1866	29	29	27	29	27	25	100	28
1592951698263161770 	0	1681	1266	1267	1690	1727	1728	114750000	performance	1866	29	29	27	29	27	25	100	28
1592951699807595262	1	1728	1267	1267	1728	1728	1728	114750000	performance	1866	29	29	27	29	27	25	100	28
1592951699842564673 	0	1680	1266	1266	1690	1727	1728	114750000	performance	1866	29	29	27	29	27	25	100	28
1592951701386746391	1	1728	1267	1267	1728	1728	1728	114750000	performance	1866	29	29	28	29	27	25	100	28
1592951701421879482 	0	1675	1267	1266	1689	1727	1728	114750000	performance	1866	29	29	28	29	27	25	100	28
1592951702966770582	1	1728	1267	1267	1728	1728	1728	114750000	performance	1866	29	29	27	29	27	25	100	28
1592951703033331186 	0	1674	1267	1266	1725	1724	1726	114750000	performance	1866	29	29	27	29	27	25	100	28
1592951704585839846	1	1728	1267	1267	1728	1728	1728	114750000	performance	1866	29	29	27	29	27	25	100	28
1592951704620541352 	0	1670	1266	1267	1728	1723	1727	114750000	performance	1866	29	29	28	29	27	25	100	28
1592951706165044457	1	1728	1267	1267	1728	1728	1728	114750000	performance	1866	29	29	27	29	27	25	100	28
1592951706199789899 	0	1684	1266	1267	1727	1730	1727	114750000	performance	1866	29	29	27	29	27	25	100	28
1592951707744043243	1	1728	1267	1267	1728	1728	1728	114750000	performance	1866	29	29	27	29	27	25	100	28
1592951707779108623 	0	1680	1267	1267	1689	1727	1728	114750000	performance	1866	30	30	27	30	27	25	100	28
1592951709323739412	1	1728	1267	1267	1728	1728	1728	114750000	performance	1866	29	29	27	29	27	25	100	28
1592951709358213174 	0	1682	1267	1267	1724	1726	1728	114750000	performance	1866	29	29	27	29	27	25	100	28
1592951710902574364	1	1728	1267	1267	1728	1728	1728	114750000	performance	1866	29	29	28	29	27	25	100	28
1592951710937571135 	0	1672	1267	1267	1727	1727	1727	114750000	performance	1866	29	29	28	29	27	25	100	28
1592951712482337580	1	1728	1267	1267	1728	1728	1728	114750000	performance	1866	29	29	27	29	27	25	100	28
1592951712518580307 	0	1670	1267	1266	1690	1727	1728	114750000	performance	1866	29	29	27	29	27	25	100	28
1592951714062908990	1	1728	1267	1267	1728	1728	1728	114750000	performance	1866	29	29	27	29	27	25	100	28
1592951714098144386 	0	1675	1266	1267	1741	1728	1728	114750000	performance	1866	29	29	28	29	27	25	100	28
1592951715642977938	1	1728	1267	1267	1728	1728	1728	114750000	performance	1866	29	29	27	29	27	25	100	28
1592951715677992629 	0	1680	1267	1267	1727	1729	1729	114750000	performance	1866	30	30	27	30	27	25	100	28
1592951717222534535	1	1728	1267	1267	1728	1728	1728	114750000	performance	1866	29	29	27	29	27	25	100	28
1592951717257575147 	0	1678	1267	1267	1690	1727	1728	114750000	performance	1866	29	29	28	29	27	25	100	28
1592951718802394653	1	1728	1267	1267	1728	1728	1728	114750000	performance	1866	29	29	27	29	27	25	100	28
1592951718837292513 	0	1683	1266	1267	1691	1727	1727	114750000	performance	1866	29	29	27	29	27	25	100	28
1592951720381951800	1	1728	1267	1267	1728	1728	1728	114750000	performance	1866	29	29	27	29	27	25	100	28
1592951720417051740 	0	1684	1267	1266	1690	1728	1727	114750000	performance	1866	29	29	27	29	27	25	100	28
1592951721961760212	1	1728	1267	1267	1728	1728	1728	114750000	performance	1866	29	29	28	29	27	25	100	28
1592951721996648216 	0	1681	1266	1268	1689	1727	1727	114750000	performance	1866	29	29	28	29	27	25	100	28
1592951723541467922	1	1728	1267	1267	1728	1728	1728	114750000	performance	1866	30	30	28	30	27	25	100	28
1592951723576598134 	0	1682	1266	1267	1690	1727	1728	114750000	performance	1866	30	30	28	29	27	25	100	28
1592951725121102771	1	1728	1267	1267	1728	1728	1728	114750000	performance	1866	29	29	27	29	27	25	100	28
1592951725156240664 	0	1680	1266	1267	1689	1728	1727	114750000	performance	1866	29	29	28	29	27	25	100	28
1592951726700416247	1	1728	1267	1267	1728	1728	1728	114750000	performance	1866	29	29	27	29	27	25	100	28
1592951726735541563 	0	1682	1266	1266	1690	1728	1728	114750000	performance	1866	29	29	28	29	27	25	100	28
1592951728279771869	1	1728	1267	1267	1728	1728	1728	114750000	performance	1866	29	29	27	29	27	25	100	28
1592951728314799297 	0	1682	1266	1267	1690	1728	1728	114750000	performance	1866	29	29	27	29	27	25	100	28
1592951729859074820	1	1728	1267	1267	1728	1728	1728	114750000	performance	1866	29	29	27	29	27	25	100	28
1592951729898718773 	0	1679	1267	1266	1689	1728	1727	114750000	performance	1866	29	29	27	29	27	25	100	28
1592951731442724380	1	1728	1267	1267	1728	1728	1728	114750000	performance	1866	29	29	28	29	27	25	100	28
1592951731478129025 	0	1684	1267	1266	1689	1727	1728	114750000	performance	1866	29	29	28	29	27	25	100	28
1592951733022759242	1	1728	1267	1267	1728	1728	1728	114750000	performance	1866	29	29	28	29	27	25	100	29
1592951733057649166 	0	1674	1267	1267	1690	1728	1728	114750000	performance	1866	29	29	28	29	27	25	100	29
1592951734602842907	1	1728	1267	1267	1728	1728	1728	114750000	performance	1866	29	29	27	29	27	25	100	28
1592951734638162048 	0	1683	1266	1266	1688	1727	1728	114750000	performance	1866	29	29	27	29	27	25	100	28
1592951736182283502	1	1728	1267	1267	1728	1728	1728	114750000	performance	1866	29	29	27	29	27	25	100	28
1592951736217079025 	0	1682	1267	1266	1690	1728	1729	114750000	performance	1866	29	29	27	29	27	25	100	28
1592951737761333375	1	1728	1267	1267	1728	1728	1728	114750000	performance	1866	29	29	27	29	27	25	100	28
1592951737796647108 	0	1686	1266	1267	1729	1727	1723	114750000	performance	1866	30	30	28	30	27	25	100	28
1592951739340642838	1	1728	1267	1267	1728	1728	1728	114750000	performance	1866	29	29	27	29	27	25	100	28
1592951739375683707 	0	1672	1267	1266	1688	1728	1727	114750000	performance	1866	29	29	27	29	27	25	100	28
1592951740920188975	1	1728	1267	1267	1728	1728	1728	114750000	performance	1866	29	29	28	29	27	25	100	28
1592951740955170547 	0	1723	1267	1267	1726	1726	1728	114750000	performance	1866	29	29	27	29	27	25	100	28
