TimeStamp,Total Power,CPU Power,GPU Power
1592951397092188,3.125,0.762,0.152
1592951397596813,2.249,0.686,0.152
1592951398098883,1.944,0.686,0.152
1592951398600932,1.868,0.686,0.152
1592951399102999,1.868,0.686,0.152
1592951399605028,1.868,0.686,0.152
1592951400107020,1.868,0.686,0.152
1592951400609120,1.868,0.686,0.152
1592951401111170,1.906,0.686,0.152
1592951401613311,1.83,0.686,0.152
1592951402115389,1.792,0.686,0.152
1592951402617427,1.792,0.686,0.152
1592951403119495,1.868,0.686,0.152
1592951403623723,1.906,0.686,0.152
1592951404125672,1.868,0.686,0.152
1592951404627814,1.868,0.686,0.152
1592951405129862,1.83,0.686,0.152
1592951405631946,1.83,0.686,0.152
1592951406133953,1.83,0.686,0.152
1592951406639267,1.868,0.686,0.152
1592951407141476,1.868,0.686,0.152
1592951407643514,1.906,0.686,0.152
1592951408145466,1.906,0.686,0.152
1592951408647490,1.83,0.686,0.152
1592951409149525,1.83,0.686,0.152
1592951409654517,1.792,0.61,0.152
1592951410156789,1.753,0.61,0.152
1592951410658839,1.601,0.534,0.152
