TimeStamp,Total Power,CPU Power,GPU Power
1592952655428069,1.258,0.228,0.152
1592952655929975,1.22,0.228,0.152
1592952656431882,1.22,0.228,0.152
1592952656933769,1.258,0.228,0.152
1592952657435928,1.258,0.228,0.152
1592952657937791,1.258,0.228,0.152
1592952658439710,1.258,0.228,0.152
1592952658941574,1.258,0.228,0.152
1592952659443501,1.22,0.228,0.152
1592952659945322,1.258,0.228,0.152
1592952660447178,1.258,0.228,0.152
1592952660949185,1.258,0.228,0.152
1592952661450994,1.22,0.228,0.152
1592952661952919,1.258,0.228,0.152
1592952662454795,1.258,0.228,0.152
1592952662956773,1.22,0.228,0.152
1592952663461512,1.258,0.228,0.152
1592952663963580,1.258,0.228,0.152
1592952664465447,1.258,0.228,0.152
1592952664967492,1.258,0.228,0.152
1592952665469329,1.258,0.228,0.152
1592952665971186,1.258,0.228,0.152
1592952666473136,1.258,0.228,0.152
1592952666974970,1.258,0.228,0.152
1592952667476912,1.258,0.228,0.152
1592952667978823,1.258,0.228,0.152
1592952668483446,1.258,0.228,0.152
1592952668985288,1.258,0.228,0.152
1592952669487114,1.258,0.228,0.152
1592952669989100,1.258,0.228,0.152
1592952670490935,1.258,0.228,0.152
1592952670992867,1.258,0.228,0.152
1592952671494695,1.258,0.228,0.152
1592952671996753,1.258,0.228,0.152
1592952672498637,1.258,0.228,0.152
1592952673000604,1.258,0.228,0.152
1592952673505289,1.258,0.228,0.152
1592952674007174,1.258,0.228,0.152
1592952674509183,1.258,0.228,0.152
1592952675011031,1.258,0.228,0.152
1592952675512971,1.258,0.228,0.152
1592952676014805,1.258,0.228,0.152
1592952676516722,1.41,0.228,0.152
1592952677018597,1.296,0.228,0.152
1592952677520473,1.258,0.228,0.152
1592952678022357,1.258,0.228,0.152
1592952678527092,1.258,0.228,0.152
1592952679028972,1.258,0.228,0.152
1592952679530827,1.258,0.228,0.152
1592952680032782,1.22,0.228,0.152
1592952680534643,1.22,0.228,0.152
1592952681037026,1.258,0.228,0.152
1592952681538882,1.258,0.228,0.152
1592952682040791,1.258,0.228,0.152
1592952682542651,1.258,0.228,0.152
1592952683044603,1.258,0.228,0.152
1592952683549142,1.258,0.228,0.152
1592952684051006,1.258,0.228,0.152
1592952684552936,1.258,0.228,0.152
1592952685054855,1.258,0.228,0.152
1592952685556739,1.258,0.228,0.152
1592952686058565,1.258,0.228,0.152
1592952686560449,1.258,0.228,0.152
1592952687062293,1.258,0.228,0.152
1592952687564258,1.258,0.228,0.152
1592952688066141,1.258,0.228,0.152
1592952688570765,1.258,0.228,0.152
1592952689072706,1.258,0.228,0.152
1592952689574559,1.258,0.228,0.152
