TimeStamp,Total Power,CPU Power,GPU Power
1592831220788369,3.468,0.914,0.152
1592831221289839,3.62,1.067,0.152
1592831221791255,3.658,1.143,0.152
1592831222292653,3.62,1.219,0.152
1592831222794066,3.62,1.143,0.152
1592831223297600,3.734,1.143,0.152
1592831223800593,3.658,1.143,0.152
1592831224302012,3.582,1.143,0.152
1592831224803478,3.582,1.143,0.152
1592831225304970,3.582,1.143,0.152
1592831225809521,3.582,1.143,0.152
1592831226310924,3.582,1.143,0.152
1592831226812350,3.62,1.219,0.152
1592831227313737,3.582,1.143,0.152
1592831227816380,3.62,1.143,0.152
1592831228317802,3.582,1.143,0.152
1592831228819226,3.582,1.143,0.152
1592831229320653,3.582,1.143,0.152
1592831229822127,3.582,1.143,0.152
1592831230323522,3.62,1.143,0.152
1592831230824940,3.582,1.143,0.152
1592831231326347,3.582,1.219,0.152
1592831231827763,3.582,1.143,0.152
1592831232329211,3.582,1.143,0.152
1592831232831310,3.582,1.143,0.152
1592831233332750,3.62,1.143,0.152
1592831233834140,3.62,1.143,0.152
1592831234335586,3.582,1.143,0.152
1592831234837216,3.62,1.143,0.152
1592831235338643,3.582,1.143,0.152
1592831235840078,3.62,1.219,0.152
1592831236341548,3.62,1.143,0.152
1592831236842928,3.62,1.143,0.152
1592831237345433,3.62,1.143,0.152
1592831237846836,3.582,1.143,0.152
1592831238348270,3.582,1.143,0.152
1592831238849879,3.62,1.143,0.152
1592831239351330,3.582,1.143,0.152
1592831239852879,3.62,1.143,0.152
1592831240354281,3.62,1.143,0.152
1592831240855697,3.62,1.143,0.152
1592831241357121,3.62,1.143,0.152
1592831241859682,3.582,1.143,0.152
1592831242361434,3.582,1.143,0.152
1592831242862850,3.582,1.143,0.152
1592831243364323,3.582,1.143,0.152
1592831243865807,3.62,1.143,0.152
1592831244368707,3.62,1.143,0.152
1592831244870186,3.582,1.143,0.152
1592831245371648,3.582,1.143,0.152
1592831245873113,3.582,1.143,0.152
1592831246374574,3.62,1.143,0.152
1592831246875981,3.582,1.143,0.152
1592831247377698,3.582,1.143,0.152
1592831247879188,3.582,1.143,0.152
1592831248380634,3.62,1.219,0.152
1592831248882079,3.582,1.143,0.152
1592831249383504,3.62,1.143,0.152
1592831249885012,3.582,1.143,0.152
1592831250386438,3.62,1.143,0.152
1592831250887891,3.62,1.143,0.152
1592831251389384,3.62,1.143,0.152
1592831251890797,3.582,1.143,0.152
1592831252392227,3.582,1.143,0.152
1592831252893691,3.582,1.219,0.152
1592831253395137,3.582,1.143,0.152
1592831253896614,3.582,1.143,0.152
1592831254398055,3.582,1.143,0.152
1592831254899490,3.582,1.143,0.152
1592831255401022,3.582,1.219,0.152
1592831255902457,3.582,1.143,0.152
1592831256403934,3.62,1.143,0.152
1592831256905473,3.582,1.143,0.152
1592831257406904,3.582,1.219,0.152
1592831257908383,3.62,1.143,0.152
1592831258409830,3.582,1.143,0.152
1592831258911301,3.62,1.143,0.152
1592831259412746,3.62,1.143,0.152
1592831259914111,3.582,1.219,0.152
1592831260415579,3.582,1.143,0.152
1592831260916974,3.582,1.143,0.152
1592831261418332,3.582,1.143,0.152
1592831261919685,3.696,1.143,0.152
1592831262421053,3.658,1.143,0.152
1592831262922409,3.62,1.143,0.152
1592831263423758,3.62,1.143,0.152
1592831263925215,3.582,1.143,0.152
1592831264426557,3.582,1.219,0.152
1592831264927900,3.582,1.143,0.152
1592831265431424,3.62,1.143,0.152
1592831265932785,3.696,1.143,0.152
1592831266434129,3.658,1.143,0.152
1592831266935487,3.62,1.219,0.152
1592831267436817,3.582,1.143,0.152
1592831267938153,3.62,1.143,0.152
1592831268439510,3.62,1.143,0.152
1592831268940853,3.62,1.219,0.152
1592831269442189,3.582,1.219,0.152
1592831269943524,3.582,1.143,0.152
1592831270446922,3.62,1.143,0.152
1592831270948274,3.582,1.143,0.152
1592831271449646,3.696,1.219,0.152
1592831271951004,3.658,1.143,0.152
1592831272452372,3.62,1.143,0.152
1592831272953731,3.62,1.143,0.152
1592831273455086,3.62,1.143,0.152
1592831273956432,3.582,1.219,0.152
1592831274457789,3.62,1.143,0.152
1592831274959153,3.62,1.143,0.152
1592831275462575,3.62,1.143,0.152
1592831275963934,3.582,1.143,0.152
1592831276465280,3.658,1.219,0.152
1592831276966636,3.62,1.143,0.152
1592831277467979,3.62,1.143,0.152
1592831277969381,3.62,1.143,0.152
1592831278470730,3.62,1.219,0.152
1592831278972058,3.582,1.219,0.152
1592831279473395,3.62,1.143,0.152
1592831279974778,3.62,1.143,0.152
1592831280478162,3.62,1.143,0.152
