TimeStamp,Total Power,CPU Power,GPU Power
1593982536602664,2.172,0.991,0.152
1593982537104217,1.943,0.838,0.152
1593982537605695,1.829,0.686,0.152
1593982538107120,1.753,0.61,0.152
1593982538608567,1.981,0.762,0.152
1593982539110173,2.515,1.296,0.152
1593982539612027,2.705,1.448,0.152
1593982540113909,2.744,1.524,0.152
1593982540615613,2.782,1.524,0.152
1593982541117262,2.782,1.524,0.152
1593982541618912,2.82,1.524,0.152
1593982542120635,2.782,1.524,0.152
1593982542622268,2.782,1.448,0.152
1593982543124021,2.782,1.524,0.152
1593982543625797,2.782,1.524,0.152
1593982544127454,2.82,1.6,0.152
1593982544629134,2.82,1.524,0.152
1593982545130781,2.82,1.524,0.152
1593982545632462,2.782,1.524,0.152
1593982546134111,2.782,1.6,0.152
1593982546636369,2.82,1.524,0.152
1593982547138059,2.782,1.524,0.152
1593982547639701,2.82,1.6,0.152
1593982548141284,2.82,1.6,0.152
1593982548642789,2.782,1.524,0.152
1593982549144443,2.782,1.524,0.152
1593982549646105,2.782,1.524,0.152
1593982550147702,2.782,1.524,0.152
1593982550649346,2.782,1.524,0.152
1593982551151180,2.782,1.524,0.152
1593982551652904,2.82,1.524,0.152
1593982552154591,2.782,1.524,0.152
1593982552656439,2.744,1.524,0.152
1593982553158085,2.782,1.524,0.152
1593982553659860,2.782,1.524,0.152
1593982554161520,2.782,1.524,0.152
1593982554663194,2.782,1.524,0.152
1593982555164854,2.782,1.524,0.152
1593982555666486,2.782,1.524,0.152
1593982556168110,2.82,1.6,0.152
1593982556669742,2.782,1.524,0.152
1593982557173719,2.782,1.524,0.152
1593982557675440,2.782,1.524,0.152
1593982558177099,2.82,1.6,0.152
1593982558678731,2.782,1.524,0.152
1593982559180390,2.82,1.524,0.152
1593982559682058,2.782,1.524,0.152
1593982560183657,2.782,1.524,0.152
1593982560685280,2.82,1.524,0.152
1593982561186917,2.782,1.524,0.152
1593982561688607,2.82,1.524,0.152
1593982562190549,2.82,1.524,0.152
1593982562692258,2.82,1.524,0.152
1593982563193886,2.782,1.524,0.152
1593982563695516,2.82,1.524,0.152
1593982564197132,2.782,1.524,0.152
1593982564698715,2.782,1.524,0.152
1593982565200550,2.82,1.524,0.152
1593982565702228,2.82,1.524,0.152
1593982566203887,2.82,1.6,0.152
1593982566705507,2.82,1.524,0.152
1593982567209607,2.782,1.524,0.152
1593982567711247,2.82,1.524,0.152
1593982568212986,2.858,1.6,0.152
1593982568714749,2.82,1.524,0.152
1593982569216397,2.782,1.524,0.152
1593982569718049,2.82,1.6,0.152
1593982570219819,2.82,1.524,0.152
1593982570721490,2.82,1.524,0.152
1593982571223167,2.82,1.524,0.152
1593982571724819,2.782,1.524,0.152
1593982572226492,2.782,1.524,0.152
1593982572728149,2.82,1.524,0.152
1593982573229826,2.82,1.524,0.152
1593982573732004,2.82,1.6,0.152
1593982574233843,2.782,1.524,0.152
1593982574735792,2.82,1.524,0.152
1593982575237456,2.82,1.524,0.152
1593982575739113,2.82,1.524,0.152
1593982576240820,2.82,1.6,0.152
1593982576742382,2.82,1.524,0.152
1593982577244064,2.82,1.524,0.152
1593982577745634,2.782,1.524,0.152
1593982578247276,2.82,1.524,0.152
1593982578748949,2.782,1.524,0.152
1593982579250670,2.782,1.524,0.152
1593982579752344,2.82,1.524,0.152
1593982580253980,2.82,1.524,0.152
1593982580755874,2.82,1.524,0.152
1593982581257539,2.82,1.524,0.152
1593982581759165,2.82,1.524,0.152
1593982582260828,2.82,1.524,0.152
1593982582762459,2.82,1.524,0.152
1593982583264160,2.82,1.524,0.152
1593982583765830,2.82,1.524,0.152
1593982584267563,2.82,1.524,0.152
1593982584769235,2.782,1.524,0.152
1593982585270862,2.744,1.524,0.152
1593982585772575,2.82,1.524,0.152
1593982586274120,2.82,1.524,0.152
1593982586775643,2.782,1.524,0.152
1593982587277260,2.782,1.524,0.152
1593982587781359,2.82,1.524,0.152
1593982588283046,2.82,1.524,0.152
1593982588784795,2.782,1.524,0.152
1593982589286479,3.01,1.524,0.152
1593982589788412,3.161,1.524,0.152
1593982590290149,3.238,1.524,0.152
1593982590791855,3.085,1.524,0.152
1593982591293464,2.896,1.524,0.152
1593982591795256,2.82,1.524,0.152
1593982592296971,2.82,1.524,0.152
1593982592801222,2.82,1.524,0.152
1593982593302825,2.782,1.524,0.152
1593982593804545,2.82,1.524,0.152
1593982594306161,2.782,1.524,0.152
1593982594807816,2.82,1.524,0.152
1593982595309448,2.82,1.524,0.152
1593982595811067,2.82,1.6,0.152
1593982596312795,2.82,1.524,0.152
1593982596814314,2.82,1.524,0.152
1593982597322221,2.82,1.524,0.152
1593982597823874,2.782,1.524,0.152
1593982598325554,2.782,1.524,0.152
1593982598827116,2.782,1.524,0.152
1593982599328845,2.744,1.524,0.152
1593982599830461,2.782,1.524,0.152
1593982600332118,2.82,1.524,0.152
1593982600833741,2.82,1.524,0.152
1593982601335479,2.82,1.524,0.152
1593982601837149,2.782,1.524,0.152
1593982602338898,2.82,1.6,0.152
1593982602842729,2.82,1.524,0.152
1593982603344394,2.782,1.524,0.152
1593982603846029,2.82,1.524,0.152
1593982604347649,2.82,1.524,0.152
1593982604849291,2.82,1.524,0.152
1593982605350894,2.82,1.524,0.152
1593982605852579,2.82,1.6,0.152
1593982606354149,2.82,1.524,0.152
1593982606856571,2.82,1.524,0.152
1593982607358435,2.82,1.524,0.152
1593982607863000,2.82,1.524,0.152
1593982608364658,2.82,1.524,0.152
1593982608866431,2.82,1.524,0.152
1593982609368083,2.782,1.524,0.152
1593982609869742,2.782,1.524,0.152
1593982610371444,2.82,1.524,0.152
1593982610873074,2.782,1.524,0.152
1593982611374718,2.82,1.524,0.152
1593982611876365,2.782,1.524,0.152
1593982612378005,2.82,1.524,0.152
1593982612881963,2.782,1.524,0.152
1593982613383986,2.782,1.448,0.152
1593982613885652,2.82,1.524,0.152
1593982614387230,2.82,1.524,0.152
1593982614888898,2.82,1.524,0.152
1593982615391392,2.82,1.524,0.152
1593982615893020,2.782,1.524,0.152
1593982616394604,2.782,1.524,0.152
1593982616896381,2.667,1.448,0.152
1593982617398008,2.744,1.448,0.152
1593982617901999,2.782,1.524,0.152
1593982618403653,2.782,1.524,0.152
1593982618905313,2.782,1.524,0.152
1593982619406915,2.782,1.448,0.152
1593982619908612,2.667,1.448,0.152
1593982620410248,2.667,1.448,0.152
1593982620911931,2.629,1.372,0.152
1593982621413661,2.705,1.448,0.152
1593982621915275,2.667,1.448,0.152
1593982622416985,2.629,1.448,0.152
1593982622921357,2.667,1.448,0.152
1593982623423007,2.667,1.372,0.152
1593982623924703,2.629,1.372,0.152
1593982624426329,2.629,1.372,0.152
1593982624928117,2.667,1.448,0.152
1593982625429815,2.705,1.448,0.152
1593982625931439,2.667,1.448,0.152
1593982626432991,2.667,1.448,0.152
1593982626934630,2.782,1.524,0.152
1593982627436401,2.782,1.448,0.152
1593982627938126,2.782,1.524,0.152
1593982628439890,2.82,1.524,0.152
1593982628941539,2.82,1.6,0.152
1593982629443299,2.82,1.524,0.152
1593982629944983,2.744,1.524,0.152
1593982630446814,2.782,1.524,0.152
1593982630948521,2.82,1.6,0.152
1593982631450106,2.82,1.524,0.152
1593982631951860,2.82,1.524,0.152
1593982632453480,2.782,1.524,0.152
1593982632955109,2.82,1.6,0.152
1593982633456815,2.82,1.524,0.152
1593982633958424,2.82,1.524,0.152
1593982634460131,2.82,1.524,0.152
1593982634961786,2.82,1.524,0.152
1593982635463475,2.82,1.524,0.152
1593982635965180,2.782,1.524,0.152
1593982636466810,2.82,1.524,0.152
1593982636968503,2.782,1.524,0.152
1593982637470712,2.82,1.524,0.152
1593982637972382,2.782,1.524,0.152
1593982638473976,2.782,1.524,0.152
1593982638975715,2.782,1.524,0.152
1593982639477282,2.782,1.524,0.152
1593982639978952,2.782,1.524,0.152
1593982640480638,2.82,1.6,0.152
1593982640982294,2.782,1.524,0.152
1593982641483939,2.82,1.524,0.152
1593982641985619,2.782,1.524,0.152
1593982642487289,2.82,1.6,0.152
1593982642989036,2.82,1.524,0.152
1593982643490708,2.858,1.524,0.152
1593982643992392,2.82,1.524,0.152
1593982644494093,2.82,1.6,0.152
1593982644995821,2.782,1.524,0.152
1593982645497445,2.82,1.524,0.152
1593982645999110,2.82,1.524,0.152
1593982646500774,2.82,1.524,0.152
1593982647002504,2.82,1.524,0.152
1593982647504136,2.82,1.524,0.152
1593982648005928,2.782,1.524,0.152
1593982648507885,2.82,1.524,0.152
1593982649009585,2.782,1.524,0.152
1593982649511217,2.82,1.524,0.152
1593982650013066,2.782,1.524,0.152
1593982650514765,2.82,1.524,0.152
1593982651016507,2.82,1.6,0.152
1593982651518145,2.82,1.524,0.152
1593982652019821,2.858,1.524,0.152
1593982652521495,3.123,1.6,0.152
1593982653023106,3.238,1.6,0.152
1593982653524802,3.238,1.524,0.152
1593982654026456,2.972,1.524,0.152
1593982654528276,2.858,1.524,0.152
1593982655029848,2.82,1.524,0.152
1593982655531612,2.782,1.524,0.152
1593982656033308,2.782,1.524,0.152
1593982656534940,2.82,1.524,0.152
1593982657036528,2.82,1.6,0.152
1593982657538185,2.858,1.524,0.152
1593982658039863,2.782,1.524,0.152
1593982658541665,2.858,1.524,0.152
1593982659043438,2.82,1.524,0.152
1593982659545034,2.782,1.524,0.152
1593982660046844,2.782,1.524,0.152
1593982660548454,2.744,1.524,0.152
1593982661050063,2.667,1.448,0.152
1593982661551641,2.629,1.372,0.152
1593982662053289,2.667,1.372,0.152
1593982662554879,2.629,1.372,0.152
1593982663056540,2.629,1.372,0.152
1593982663558159,2.667,1.372,0.152
1593982664061987,2.629,1.372,0.152
1593982664563609,2.629,1.448,0.152
1593982665065201,2.629,1.448,0.152
1593982665566752,2.705,1.448,0.152
1593982666068624,2.667,1.372,0.152
1593982666570304,2.629,1.372,0.152
1593982667071861,2.629,1.372,0.152
1593982667573650,2.667,1.372,0.152
1593982668075206,2.629,1.372,0.152
1593982668576917,2.629,1.372,0.152
1593982669080809,2.629,1.372,0.152
1593982669582425,2.667,1.372,0.152
1593982670084005,2.629,1.372,0.152
1593982670585574,2.629,1.372,0.152
1593982671087368,2.591,1.372,0.152
1593982671588941,2.667,1.372,0.152
1593982672091389,2.667,1.372,0.152
1593982672593107,2.705,1.448,0.152
1593982673094803,2.744,1.524,0.152
1593982673598158,2.705,1.448,0.152
1593982674099869,2.667,1.448,0.152
1593982674601496,2.629,1.448,0.152
1593982675103122,2.629,1.372,0.152
1593982675604818,2.705,1.448,0.152
1593982676106418,2.667,1.372,0.152
1593982676608164,2.629,1.372,0.152
1593982677109819,2.667,1.448,0.152
1593982677611461,2.667,1.448,0.152
1593982678113092,2.629,1.372,0.152
1593982678614767,2.629,1.372,0.152
1593982679119114,2.667,1.448,0.152
1593982679620668,2.667,1.372,0.152
1593982680122284,2.667,1.372,0.152
1593982680623877,2.629,1.372,0.152
1593982681125473,2.629,1.448,0.152
1593982681627125,2.667,1.448,0.152
1593982682128748,2.667,1.448,0.152
1593982682630312,2.667,1.448,0.152
1593982683131956,2.629,1.448,0.152
1593982683633512,2.629,1.372,0.152
1593982684135054,2.629,1.372,0.152
1593982684636734,2.667,1.372,0.152
1593982685138272,2.629,1.448,0.152
1593982685639907,2.705,1.448,0.152
1593982686141541,2.667,1.372,0.152
1593982686643285,2.667,1.448,0.152
1593982687145140,2.629,1.372,0.152
1593982687646770,2.705,1.448,0.152
1593982688148384,2.667,1.448,0.152
1593982688650153,2.667,1.448,0.152
1593982689151905,2.629,1.372,0.152
1593982689653555,2.667,1.372,0.152
1593982690155215,2.667,1.448,0.152
1593982690657086,2.667,1.448,0.152
1593982691158776,2.667,1.448,0.152
1593982691660547,2.705,1.448,0.152
1593982692162259,2.744,1.524,0.152
1593982692664117,2.667,1.448,0.152
1593982693165714,2.629,1.448,0.152
1593982693667434,2.705,1.448,0.152
1593982694169122,2.667,1.372,0.152
1593982694670785,2.591,1.372,0.152
1593982695172467,2.591,1.372,0.152
1593982695674104,2.667,1.372,0.152
1593982696175921,2.667,1.448,0.152
1593982696681017,2.629,1.448,0.152
1593982697182655,2.629,1.448,0.152
1593982697684345,2.705,1.372,0.152
1593982698185997,2.667,1.448,0.152
1593982698687670,2.629,1.448,0.152
1593982699189262,2.667,1.448,0.152
1593982699690945,2.705,1.448,0.152
1593982700192566,2.667,1.448,0.152
1593982700694208,2.629,1.448,0.152
1593982701195890,2.629,1.448,0.152
1593982701697584,2.705,1.448,0.152
1593982702199274,2.629,1.448,0.152
1593982702700949,2.667,1.448,0.152
1593982703202619,2.667,1.448,0.152
1593982703704426,2.705,1.448,0.152
1593982704206085,2.667,1.448,0.152
1593982704707681,2.705,1.448,0.152
1593982705209306,2.744,1.524,0.152
1593982705710879,2.667,1.372,0.152
1593982706212572,2.705,1.448,0.152
1593982706714199,2.629,1.372,0.152
1593982707215837,2.667,1.448,0.152
1593982707717472,2.705,1.448,0.152
1593982708219226,2.667,1.448,0.152
1593982708720982,2.629,1.448,0.152
1593982709222605,2.629,1.372,0.152
1593982709724227,2.667,1.372,0.152
1593982710225922,2.629,1.372,0.152
1593982710727840,2.629,1.448,0.152
1593982711229453,2.705,1.448,0.152
1593982711731073,2.705,1.448,0.152
1593982712232935,2.667,1.448,0.152
1593982712734591,2.629,1.448,0.152
1593982713236270,2.667,1.448,0.152
1593982713737872,2.705,1.448,0.152
1593982714239549,2.629,1.448,0.152
1593982714741317,2.667,1.372,0.152
1593982715242963,2.896,1.372,0.152
1593982715744702,3.01,1.372,0.152
1593982716246282,3.087,1.448,0.152
1593982716747962,2.972,1.448,0.152
1593982717249757,2.782,1.448,0.152
1593982717751436,2.744,1.448,0.152
1593982718252991,2.667,1.448,0.152
1593982718754567,2.629,1.448,0.152
1593982719256261,2.705,1.448,0.152
1593982719757907,2.667,1.372,0.152
1593982720259683,2.667,1.448,0.152
1593982720761299,2.629,1.372,0.152
1593982721262896,2.667,1.448,0.152
1593982721764573,2.667,1.448,0.152
1593982722266201,2.629,1.372,0.152
1593982722767974,2.629,1.372,0.152
1593982723269584,2.667,1.372,0.152
1593982723771217,2.667,1.372,0.152
1593982724272878,2.629,1.372,0.152
1593982724774748,2.705,1.448,0.152
1593982725276414,2.705,1.448,0.152
1593982725778029,2.667,1.372,0.152
1593982726279873,2.629,1.448,0.152
1593982726781428,2.629,1.372,0.152
1593982727283130,2.667,1.372,0.152
1593982727784936,2.667,1.448,0.152
1593982728286604,2.629,1.448,0.152
1593982728788284,2.629,1.448,0.152
1593982729290075,2.667,1.372,0.152
1593982729791830,2.667,1.448,0.152
1593982730293522,2.667,1.448,0.152
1593982730795182,2.667,1.448,0.152
1593982731296862,2.667,1.372,0.152
1593982731798501,2.667,1.372,0.152
1593982732300137,2.629,1.448,0.152
1593982732801704,2.629,1.372,0.152
1593982733303506,2.667,1.372,0.152
1593982733805110,2.629,1.372,0.152
1593982734306693,2.629,1.372,0.152
1593982734808382,2.591,1.372,0.152
1593982735310096,2.667,1.372,0.152
1593982735811804,2.629,1.372,0.152
1593982736313381,2.705,1.448,0.152
1593982736814984,2.744,1.524,0.152
1593982737316833,2.782,1.448,0.152
1593982737818571,2.782,1.524,0.152
1593982738323876,2.82,1.524,0.152
1593982738825494,2.82,1.6,0.152
1593982739327387,2.782,1.524,0.152
1593982739828980,2.782,1.524,0.152
1593982740330623,2.782,1.524,0.152
1593982740832380,2.82,1.524,0.152
1593982741333912,2.782,1.524,0.152
1593982741835689,2.782,1.524,0.152
1593982742337467,2.782,1.524,0.152
1593982742839126,2.82,1.524,0.152
1593982743340774,2.82,1.524,0.152
1593982743842348,2.782,1.524,0.152
1593982744344042,2.82,1.524,0.152
1593982744845667,2.82,1.6,0.152
1593982745347472,2.82,1.524,0.152
1593982745849160,2.782,1.524,0.152
1593982746350913,2.82,1.524,0.152
1593982746852601,2.782,1.524,0.152
1593982747354335,2.782,1.524,0.152
1593982747856034,2.82,1.524,0.152
1593982748357708,2.82,1.6,0.152
1593982748859398,2.782,1.524,0.152
1593982749361279,2.82,1.524,0.152
1593982749863040,2.82,1.524,0.152
1593982750364972,2.82,1.524,0.152
1593982750866658,2.82,1.6,0.152
1593982751368298,2.782,1.524,0.152
1593982751870028,2.782,1.524,0.152
1593982752372034,2.782,1.524,0.152
1593982752873730,2.82,1.524,0.152
1593982753375573,2.82,1.524,0.152
1593982753877199,2.782,1.524,0.152
1593982754378846,2.82,1.524,0.152
1593982754880487,2.782,1.524,0.152
1593982755382124,2.82,1.524,0.152
1593982755883869,2.82,1.524,0.152
1593982756385462,2.82,1.524,0.152
1593982756887057,2.82,1.524,0.152
1593982757388728,2.782,1.524,0.152
1593982757890358,2.782,1.524,0.152
1593982758392371,2.82,1.524,0.152
1593982758893997,2.782,1.524,0.152
1593982759395645,2.782,1.524,0.152
1593982759897421,2.82,1.6,0.152
1593982760399238,2.82,1.524,0.152
1593982760901002,2.858,1.6,0.152
1593982761402605,2.82,1.524,0.152
1593982761904216,2.782,1.524,0.152
1593982762405843,2.782,1.524,0.152
1593982762907494,2.858,1.6,0.152
1593982763409140,2.82,1.524,0.152
1593982763910942,2.782,1.524,0.152
1593982764412637,2.782,1.524,0.152
1593982764914227,2.82,1.6,0.152
1593982765415902,2.782,1.524,0.152
1593982765917562,2.82,1.524,0.152
1593982766419233,2.82,1.6,0.152
1593982766920882,2.82,1.524,0.152
1593982767422516,2.82,1.524,0.152
1593982767924197,2.82,1.6,0.152
1593982768425845,2.782,1.524,0.152
1593982768927509,2.82,1.524,0.152
1593982769429182,2.782,1.524,0.152
1593982769930748,2.82,1.524,0.152
1593982770432390,2.782,1.524,0.152
1593982770934015,2.82,1.524,0.152
1593982771435638,2.782,1.524,0.152
1593982771937273,2.782,1.524,0.152
1593982772438901,2.782,1.524,0.152
1593982772940521,2.82,1.524,0.152
1593982773442184,2.782,1.524,0.152
1593982773943888,2.744,1.524,0.152
1593982774445768,2.782,1.524,0.152
1593982774947482,2.782,1.524,0.152
1593982775449248,2.782,1.524,0.152
1593982775950911,2.782,1.524,0.152
1593982776452558,2.782,1.524,0.152
1593982776954174,2.858,1.6,0.152
1593982777455872,2.782,1.524,0.152
1593982777957487,2.858,1.524,0.152
1593982778459127,3.123,1.6,0.152
1593982778960825,3.238,1.524,0.152
1593982779462471,3.238,1.524,0.152
1593982779964140,3.01,1.524,0.152
1593982780465678,2.858,1.524,0.152
1593982780967395,2.82,1.524,0.152
1593982781471262,2.82,1.524,0.152
1593982781972885,2.82,1.524,0.152
1593982782474556,2.782,1.524,0.152
1593982782976077,2.782,1.524,0.152
1593982783477777,2.782,1.524,0.152
1593982783979363,2.82,1.524,0.152
1593982784480881,2.782,1.524,0.152
1593982784982516,2.82,1.524,0.152
1593982785484205,2.82,1.524,0.152
1593982785985877,2.82,1.524,0.152
1593982786490194,2.82,1.6,0.152
1593982786992004,2.82,1.524,0.152
1593982787493626,2.782,1.524,0.152
1593982787995204,2.82,1.524,0.152
1593982788496898,2.82,1.6,0.152
1593982788998651,2.858,1.6,0.152
1593982789500410,2.782,1.524,0.152
1593982790002063,2.782,1.524,0.152
1593982790503738,2.782,1.524,0.152
1593982791005570,2.82,1.524,0.152
1593982791509906,2.782,1.448,0.152
1593982792011507,2.782,1.524,0.152
1593982792513123,2.782,1.524,0.152
1593982793014876,2.82,1.524,0.152
1593982793516567,2.782,1.524,0.152
1593982794018251,2.782,1.524,0.152
1593982794519919,2.782,1.524,0.152
1593982795021647,2.82,1.6,0.152
1593982795523394,2.82,1.524,0.152
1593982796025004,2.782,1.524,0.152
1593982796526648,2.82,1.524,0.152
1593982797028420,2.782,1.524,0.152
1593982797530099,2.744,1.448,0.152
1593982798031778,2.82,1.524,0.152
1593982798533377,2.858,1.6,0.152
1593982799034967,2.82,1.6,0.152
1593982799536581,2.82,1.524,0.152
1593982800038193,2.858,1.6,0.152
1593982800539792,2.82,1.6,0.152
1593982801041467,2.82,1.524,0.152
1593982801545444,2.782,1.448,0.152
1593982802047051,2.782,1.524,0.152
1593982802548679,2.782,1.524,0.152
1593982803050344,2.82,1.524,0.152
1593982803552065,2.782,1.448,0.152
1593982804053735,2.82,1.6,0.152
1593982804555404,2.82,1.524,0.152
1593982805057074,2.82,1.6,0.152
1593982805558636,2.858,1.524,0.152
1593982806060357,2.82,1.524,0.152
1593982806564356,2.82,1.524,0.152
1593982807066075,2.858,1.524,0.152
1593982807567922,2.858,1.524,0.152
1593982808069719,2.858,1.6,0.152
1593982808571376,2.782,1.524,0.152
1593982809073030,2.858,1.6,0.152
1593982809574730,2.82,1.524,0.152
1593982810076374,2.782,1.524,0.152
