timestamp	VIRTUAL_SCALING	CPU0_F	CPU1_F	CPU2_F	CPU3_F	CPU4_F	CPU5_F	GPU_FREQ	CPU_GOVERNOR	EMC_F	TEMP0	TEMP1	TEMP2	TEMP3	TEMP4	TEMP5	TEMP6	TEMP7
1593990740329255186	1	1881	345	345	1881	1881	1881	114750000	performance	1866	28	28	26	28	24	23	100	27
1593990740381704417 	0	1876	345	345	1876	1879	1879	114750000	performance	1866	27	27	26	27	24	23	100	27
1593990742019811589	1	1881	345	345	1881	1881	1881	114750000	performance	1866	28	28	26	28	24	23	100	26
1593990742110617266 	0	1871	345	345	1877	1877	1878	114750000	performance	1866	28	28	26	28	24	23	100	26
1593990743791537453	1	1881	345	345	1881	1881	1881	114750000	performance	1866	28	28	26	28	24	23	100	27
1593990743886068944 	0	1882	345	345	1843	1843	1842	114750000	performance	1866	27	28	26	28	24	23	100	27
1593990745549201445	1	1881	345	345	1881	1881	1881	114750000	performance	1866	28	28	26	28	24	23	100	27
1593990745692288736 	0	1878	345	345	1885	1880	1880	114750000	performance	1866	28	28	26	28	24	23	100	27
1593990747389143896	1	1881	345	345	1881	1881	1881	114750000	performance	1866	28	28	26	28	24	23	100	27
1593990747478647230 	0	1875	345	345	1884	1876	1877	114750000	performance	1866	28	28	26	28	24	24	100	27
1593990749070260661	1	1881	345	345	1881	1881	1881	114750000	performance	1866	28	28	26	28	24	23	100	26
1593990749146122091 	0	1878	345	345	1878	1877	1875	114750000	performance	1866	28	28	26	28	24	23	100	26
1593990750754619972	1	1881	345	345	1881	1881	1881	114750000	performance	1866	28	28	26	28	24	23	100	27
1593990750837312258 	0	1875	345	345	1876	1878	1879	114750000	performance	1866	28	28	26	28	24	23	100	27
1593990752451405979	1	1881	345	345	1881	1881	1881	114750000	performance	1866	27	27	26	27	24	23	100	27
1593990752517869851 	0	1879	345	345	1880	1882	1880	114750000	performance	1866	27	28	26	28	24	23	100	27
1593990754130909934	1	1881	345	345	1881	1881	1881	114750000	performance	1866	28	28	26	28	24	24	100	27
1593990754213262251 	0	1886	345	345	1887	1883	1885	114750000	performance	1866	28	28	26	28	24	24	100	27
1593990755839960556	1	1881	345	345	1881	1881	1881	114750000	performance	1866	28	28	26	28	24	23	100	27
1593990755886128247 	0	1881	345	345	1883	1882	1878	114750000	performance	1866	28	28	26	28	24	23	100	27
1593990757529260472	1	1881	345	345	1881	1881	1881	114750000	performance	1866	28	28	26	28	24	23	100	27
1593990757652887811 	0	1844	345	345	1843	1881	1881	114750000	performance	1866	27	27	26	27	24	23	100	27
1593990759265748597	1	1881	345	345	1881	1881	1881	114750000	performance	1866	28	28	26	28	24	23	100	27
1593990759354345237 	0	1843	345	345	1843	1843	1882	114750000	performance	1866	28	28	26	28	24	23	100	27
1593990761002576372	1	1881	345	345	1881	1881	1881	114750000	performance	1866	28	28	26	28	24	24	100	27
1593990761109516894 	0	1881	345	345	1882	1888	1889	114750000	performance	1866	28	28	26	28	24	23	100	27
1593990762789291923	1	1881	345	345	1881	1881	1881	114750000	performance	1866	28	28	26	28	24	23	100	27
1593990762885358175 	0	1884	345	345	1881	1887	1888	114750000	performance	1866	28	28	26	28	24	23	100	27
1593990764522628574	1	1881	345	345	1881	1881	1881	114750000	performance	1866	28	28	26	28	24	24	100	27
1593990764586831377 	0	1880	345	345	1879	1880	1878	114750000	performance	1866	28	28	26	28	24	24	100	27
1593990766210484609	1	1881	345	345	1881	1881	1881	114750000	performance	1866	28	28	26	28	24	24	100	27
1593990766330570744 	0	1880	345	345	1891	1882	1890	114750000	performance	1866	28	28	26	28	24	23	100	27
1593990767981826152	1	1881	345	345	1881	1881	1881	114750000	performance	1866	28	28	26	28	24	23	100	27
1593990768100479638 	0	1877	345	345	1880	1880	1880	114750000	performance	1866	28	28	26	28	24	24	100	27
1593990769742436208	1	1881	345	345	1881	1881	1881	114750000	performance	1866	28	28	26	28	24	24	100	27
1593990769823613062 	0	1878	345	345	1876	1877	1876	114750000	performance	1866	28	28	26	28	24	24	100	27
1593990771442869820	1	1881	345	345	1881	1881	1881	114750000	performance	1866	28	28	26	28	24	23	100	27
1593990771513439956 	0	1886	345	345	1891	1892	1885	114750000	performance	1866	28	28	26	28	24	23	100	27
1593990773198168454	1	1881	345	345	1881	1881	1881	114750000	performance	1866	28	28	26	28	24	24	100	27
1593990773336866312 	0	1879	345	345	1876	1877	1879	114750000	performance	1866	28	28	26	28	24	23	100	27
1593990774971110774	1	1881	345	345	1881	1881	1881	114750000	performance	1866	28	28	26	28	24	23	100	27
1593990775055952928 	0	1841	345	345	1881	1881	1843	114750000	performance	1866	28	28	26	28	24	23	100	27
1593990776669370229	1	1881	345	345	1881	1881	1881	114750000	performance	1866	28	28	26	28	24	24	100	26
1593990776849194629 	0	1883	345	345	1883	1884	1882	114750000	performance	1866	28	28	26	28	24	24	100	26
1593990778572629111	1	1881	345	345	1881	1881	1881	114750000	performance	1866	28	28	26	28	24	24	100	27
1593990778654292463 	0	1842	345	345	1882	1881	1881	114750000	performance	1866	28	28	26	28	24	24	100	27
1593990780310205498	1	1881	345	345	1881	1881	1881	114750000	performance	1866	28	28	26	28	24	24	100	27
1593990780384581512 	0	1880	345	345	1882	1882	1882	114750000	performance	1866	28	28	26	28	24	24	100	27
1593990782029181265	1	1881	345	345	1881	1881	1881	114750000	performance	1866	28	28	26	28	24	23	100	27
1593990782093754183 	0	1881	345	345	1883	1882	1878	114750000	performance	1866	28	28	26	28	24	23	100	27
1593990783716101199	1	1881	345	345	1881	1881	1881	114750000	performance	1866	28	28	26	28	24	24	100	27
1593990783767876251 	0	1882	345	345	1880	1880	1880	114750000	performance	1866	28	28	26	28	24	24	100	27
1593990785367844514	1	1881	345	345	1881	1881	1881	114750000	performance	1866	28	28	26	28	24	23	100	27
1593990785421579993 	0	1881	345	345	1884	1884	1883	114750000	performance	1866	28	28	26	28	24	23	100	27
1593990787059081945	1	1881	345	345	1881	1881	1881	114750000	performance	1866	28	28	26	28	24	24	100	27
1593990787183020902 	0	1880	345	345	1881	1882	1878	114750000	performance	1866	28	28	26	28	24	24	100	27
1593990788834985018	1	1881	345	345	1881	1881	1881	114750000	performance	1866	28	28	26	28	24	24	100	27
1593990788934691963 	0	1842	345	345	1843	1881	1881	114750000	performance	1866	28	28	26	28	24	24	100	27
1593990790532822327	1	1881	345	345	1881	1881	1881	114750000	performance	1866	28	28	26	28	24	24	100	27
1593990790688322651 	0	1882	345	345	1876	1883	1880	114750000	performance	1866	28	28	26	28	24	24	100	27
1593990792287875103	1	1881	345	345	1881	1881	1881	114750000	performance	1866	28	28	26	28	24	24	100	27
1593990792399490085 	0	1888	345	345	1881	1883	1883	114750000	performance	1866	28	28	26	28	24	24	100	27
1593990794048724297	1	1881	345	345	1881	1881	1881	114750000	performance	1866	28	28	26	28	24	23	100	27
1593990794150520662 	0	1881	345	345	1844	1843	1882	114750000	performance	1866	28	28	26	28	24	23	100	27
1593990795787694836	1	1881	345	345	1881	1881	1881	114750000	performance	1866	27	27	26	27	24	24	100	27
1593990795883815168 	0	1882	345	345	1884	1884	1887	114750000	performance	1866	28	28	26	28	24	24	100	27
1593990797486741624	1	1881	345	345	1881	1881	1881	114750000	performance	1866	28	28	26	28	24	23	100	27
1593990797642413981 	0	1884	345	345	1891	1881	1882	114750000	performance	1866	28	28	26	28	24	23	100	27
1593990799267441077	1	1881	345	345	1881	1881	1881	114750000	performance	1866	28	28	26	28	24	23	100	27
1593990799376433739 	0	1879	345	345	1876	1876	1876	114750000	performance	1866	28	28	26	28	24	23	100	27
1593990800972577052	1	1881	345	345	1881	1881	1881	114750000	performance	1866	28	28	26	28	24	24	100	27
1593990801064413520 	0	1880	345	345	1843	1843	1842	114750000	performance	1866	28	28	26	28	24	24	100	27
1593990802701998128	1	1881	345	345	1881	1881	1881	114750000	performance	1866	28	28	26	28	24	24	100	27
1593990802784929616 	0	1880	345	345	1880	1885	1882	114750000	performance	1866	28	28	26	28	24	24	100	27
1593990804406395764	1	1881	345	345	1881	1881	1881	114750000	performance	1866	28	28	26	28	24	24	100	27
1593990804480186398 	0	1874	345	345	1876	1874	1874	114750000	performance	1866	28	28	26	28	24	24	100	27
1593990806091612584	1	1881	345	345	1881	1881	1881	114750000	performance	1866	28	28	26	28	24	24	100	27
1593990806184299424 	0	1893	345	345	1881	1882	1886	114750000	performance	1866	27	27	26	28	24	24	100	27
1593990807778939624	1	1881	345	345	1881	1881	1881	114750000	performance	1866	28	28	26	28	24	23	100	27
1593990807875472471 	0	1879	345	345	1882	1884	1883	114750000	performance	1866	28	28	26	28	24	23	100	27
1593990809498750181	1	1881	345	345	1881	1881	1881	114750000	performance	1866	28	28	26	28	24	24	100	27
1593990809623713015 	0	1878	345	345	1884	1880	1877	114750000	performance	1866	28	28	26	28	24	24	100	27
1593990811237982481	1	1881	345	345	1881	1881	1881	114750000	performance	1866	28	28	26	28	24	23	100	27
1593990811366146103 	0	1881	345	345	1843	1842	1881	114750000	performance	1866	28	28	26	28	24	23	100	27
1593990813029409996	1	1881	345	345	1881	1881	1881	114750000	performance	1866	28	28	26	28	24	24	100	27
1593990813110592194 	0	1884	345	345	1884	1885	1887	114750000	performance	1866	28	28	26	28	24	24	100	27
1593990814726547173	1	1881	345	345	1881	1881	1881	114750000	performance	1866	28	28	26	28	24	23	100	27
1593990814835383067 	0	1880	345	345	1877	1879	1879	114750000	performance	1866	28	28	26	28	24	23	100	27
1593990816469858889	1	1881	345	345	1881	1881	1881	114750000	performance	1866	28	28	26	28	24	23	100	27
1593990816574342374 	0	1875	345	345	1878	1881	1881	114750000	performance	1866	28	28	26	28	24	23	100	27
1593990818207370412	1	1881	345	345	1881	1881	1881	114750000	performance	1866	28	28	26	28	24	23	100	27
1593990818351761231 	0	1877	345	345	1879	1876	1880	114750000	performance	1866	28	28	26	28	24	23	100	27
1593990820002297979	1	1881	345	345	1881	1881	1881	114750000	performance	1866	28	28	26	28	24	24	100	27
1593990820105204974 	0	1886	345	345	1881	1883	1887	114750000	performance	1866	28	28	26	28	24	24	100	27
1593990821704012175	1	1881	345	345	1881	1881	1881	114750000	performance	1866	28	28	26	28	24	23	100	27
1593990821814147308 	0	1884	345	345	1882	1883	1883	114750000	performance	1866	28	28	26	28	24	23	100	27
1593990823457656559	1	1881	345	345	1881	1881	1881	114750000	performance	1866	28	28	26	28	24	24	100	27
1593990823569146004 	0	1844	345	345	1843	1881	1881	114750000	performance	1866	28	28	26	28	24	24	100	27
1593990825225186335	1	1881	345	345	1881	1881	1881	114750000	performance	1866	28	28	26	28	24	23	100	27
1593990825371758415 	0	1881	345	345	1881	1843	1842	114750000	performance	1866	28	28	26	28	24	23	100	27
1593990827026683796	1	1881	345	345	1881	1881	1881	114750000	performance	1866	28	28	26	28	24	24	100	27
1593990827099042487 	0	1842	345	345	1882	1881	1882	114750000	performance	1866	28	28	26	28	24	24	100	27
1593990828806986350	1	1881	345	345	1881	1881	1881	114750000	performance	1866	28	28	26	28	24	23	100	27
1593990828874582485 	0	1875	345	345	1872	1873	1877	114750000	performance	1866	28	28	26	28	24	23	100	27
1593990830498595687	1	1881	345	345	1881	1881	1881	114750000	performance	1866	28	28	26	28	24	23	100	27
1593990830653140197 	0	1887	345	345	1881	1881	1880	114750000	performance	1866	28	28	26	28	24	23	100	27
1593990832251116001	1	1881	345	345	1881	1881	1881	114750000	performance	1866	28	28	26	28	24	23	100	27
1593990832407194376 	0	1841	345	345	1881	1882	1881	114750000	performance	1866	28	28	26	28	24	23	100	27
1593990834060614596	1	1881	345	345	1881	1881	1881	114750000	performance	1866	28	28	26	28	24	24	100	27
1593990834238782891 	0	1881	345	345	1842	1843	1854	114750000	performance	1866	28	28	26	28	24	23	100	27
1593990835950646617	1	1881	345	345	1881	1881	1881	114750000	performance	1866	28	28	26	28	24	23	100	27
1593990836086441547 	0	1877	345	345	1885	1887	1881	114750000	performance	1866	28	28	26	28	24	24	100	27
1593990837760544479	1	1881	345	345	1881	1881	1881	114750000	performance	1866	28	28	26	28	24	23	100	27
1593990837870705500 	0	1882	345	345	1880	1842	1843	114750000	performance	1866	28	28	26	28	24	23	100	27
1593990839467697266	1	1881	345	345	1881	1881	1881	114750000	performance	1866	28	28	26	28	24	23	100	27
1593990839532118950 	0	1881	345	345	1843	1844	1843	114750000	performance	1866	28	28	26	28	24	23	100	27
1593990841152793317	1	1881	345	345	1881	1881	1881	114750000	performance	1866	28	28	26	28	24	23	100	27
1593990841266338902 	0	1881	345	345	1841	1842	1842	114750000	performance	1866	28	28	26	28	24	23	100	27
1593990842914752085	1	1881	345	345	1881	1881	1881	114750000	performance	1866	28	28	26	28	24	23	100	27
1593990842994819589 	0	1881	345	345	1843	1842	1843	114750000	performance	1866	28	28	26	28	24	23	100	27
1593990844655152393	1	1881	345	345	1881	1881	1881	114750000	performance	1866	28	28	26	28	24	23	100	27
1593990844769161276 	0	1885	345	345	1889	1879	1882	114750000	performance	1866	28	28	26	28	24	23	100	27
1593990846398988848	1	1881	345	345	1881	1881	1881	114750000	performance	1866	28	28	26	28	24	24	100	27
1593990846472361177 	0	1843	345	345	1881	1843	1842	114750000	performance	1866	28	28	26	28	24	23	100	27
1593990848065746810	1	1881	345	345	1881	1881	1881	114750000	performance	1866	28	28	26	28	24	24	100	27
1593990848171089723 	0	1843	345	345	1881	1842	1843	114750000	performance	1866	28	28	26	28	24	24	100	27
1593990849771213763	1	1881	345	345	1881	1881	1881	114750000	performance	1866	28	28	26	28	24	24	100	27
1593990849821334565 	0	1890	345	345	1888	1891	1889	114750000	performance	1866	28	28	26	28	24	24	100	27
1593990851457075707	1	1881	345	345	1881	1881	1881	114750000	performance	1866	28	28	26	28	24	23	100	27
1593990851543767376 	0	1881	345	345	1844	1843	1842	114750000	performance	1866	28	28	26	28	24	23	100	27
1593990853167894467	1	1881	345	345	1881	1881	1881	114750000	performance	1866	28	28	26	28	24	23	100	27
1593990853251408902 	0	1878	345	345	1884	1882	1883	114750000	performance	1866	28	28	26	28	24	23	100	27
1593990854825129718	1	1881	345	345	1881	1881	1881	114750000	performance	1866	27	27	26	27	24	23	100	27
1593990855051613940 	0	1842	345	345	1842	1881	1881	114750000	performance	1866	28	28	26	28	24	23	100	27
1593990856662053719	1	1881	345	345	1881	1881	1881	114750000	performance	1866	28	28	26	28	24	23	100	27
1593990856729135707 	0	1880	345	345	1843	1842	1843	114750000	performance	1866	28	28	26	28	24	23	100	27
1593990858317122141	1	1881	345	345	1881	1881	1881	114750000	performance	1866	28	28	26	28	24	24	100	27
1593990858375411118 	0	1879	345	345	1880	1877	1875	114750000	performance	1866	28	28	26	28	24	24	100	27
1593990860028043462	1	1881	345	345	1881	1881	1881	114750000	performance	1866	28	28	26	28	24	23	100	27
1593990860109086843 	0	1876	345	345	1871	1876	1876	114750000	performance	1866	28	28	26	28	24	23	100	27
1593990861740665337	1	1881	345	345	1881	1881	1881	114750000	performance	1866	28	28	26	28	24	24	100	27
1593990861846740991 	0	1877	345	345	1874	1875	1873	114750000	performance	1866	28	28	26	28	24	24	100	27
1593990863486071977	1	1881	345	345	1881	1881	1881	114750000	performance	1866	28	28	26	28	24	23	100	27
1593990863631637843 	0	1885	345	345	1884	1879	1892	114750000	performance	1866	27	27	26	28	24	23	100	27
1593990865234483755	1	1881	345	345	1881	1881	1881	114750000	performance	1866	28	28	26	28	24	23	100	26
1593990865309613662 	0	1879	345	345	1880	1879	1880	114750000	performance	1866	28	28	26	28	24	23	100	26
1593990866941515742	1	1881	345	345	1881	1881	1881	114750000	performance	1866	28	28	26	28	24	23	100	27
1593990867070667785 	0	1896	345	345	1891	1884	1888	114750000	performance	1866	27	27	26	28	24	23	100	27
1593990868704699637	1	1881	345	345	1881	1881	1881	114750000	performance	1866	28	28	26	28	24	23	100	27
1593990868766169528 	0	1879	345	345	1884	1886	1883	114750000	performance	1866	28	28	26	28	24	23	100	27
1593990870348855676	1	1881	345	345	1881	1881	1881	114750000	performance	1866	28	28	26	28	24	23	100	26
1593990870452121009 	0	1879	345	345	1884	1882	1882	114750000	performance	1866	28	27	26	27	24	23	100	26
1593990872135419450	1	1881	345	345	1881	1881	1881	114750000	performance	1866	28	28	26	28	24	23	100	26
1593990872278190196 	0	1875	345	345	1887	1888	1888	114750000	performance	1866	28	28	26	28	24	24	100	27
1593990873891660553	1	1881	345	345	1881	1881	1881	114750000	performance	1866	28	28	26	27	24	24	100	27
1593990874007194821 	0	1880	345	345	1878	1879	1886	114750000	performance	1866	28	28	26	28	24	24	100	27
1593990875740952626	1	1881	345	345	1881	1881	1881	114750000	performance	1866	28	28	26	28	24	23	100	27
1593990875859661825 	0	1884	345	345	1885	1887	1880	114750000	performance	1866	27	27	26	27	24	23	100	27
1593990877437048518	1	1881	345	345	1881	1881	1881	114750000	performance	1866	28	28	26	28	24	24	100	27
1593990877549237199 	0	1874	345	345	1881	1877	1879	114750000	performance	1866	28	28	26	28	24	24	100	27
1593990879129300003	1	1881	345	345	1881	1881	1881	114750000	performance	1866	28	28	26	28	24	24	100	27
1593990879202089800 	0	1881	345	345	1884	1888	1888	114750000	performance	1866	28	28	26	28	24	23	100	27
1593990880809332089	1	1881	345	345	1881	1881	1881	114750000	performance	1866	28	28	26	28	24	24	100	26
1593990880904933634 	0	1843	345	345	1880	1878	1878	114750000	performance	1866	27	27	26	27	24	23	100	26
1593990882524798524	1	1881	345	345	1881	1881	1881	114750000	performance	1866	28	28	26	28	24	23	100	26
1593990882615273927 	0	1843	345	345	1843	1881	1881	114750000	performance	1866	28	28	26	28	24	23	100	26
1593990884233309495	1	1881	345	345	1881	1881	1881	114750000	performance	1866	28	28	26	28	24	23	100	27
1593990884350952127 	0	1878	345	345	1882	1881	1884	114750000	performance	1866	28	28	26	28	24	23	100	27
1593990885944748515	1	1881	345	345	1881	1881	1881	114750000	performance	1866	28	28	26	28	24	23	100	27
1593990886063340369 	0	1842	345	345	1881	1882	1881	114750000	performance	1866	28	28	26	28	24	23	100	27
1593990887707080213	1	1881	345	345	1881	1881	1881	114750000	performance	1866	28	28	26	28	24	23	100	27
1593990887812480887 	0	1843	345	345	1881	1882	1881	114750000	performance	1866	28	28	26	28	24	23	100	27
1593990889479859684	1	1881	345	345	1881	1881	1881	114750000	performance	1866	28	28	26	28	24	23	100	27
1593990889542781328 	0	1882	345	345	1884	1890	1883	114750000	performance	1866	28	28	26	28	24	23	100	27
1593990891163936018	1	1881	345	345	1881	1881	1881	114750000	performance	1866	28	28	26	28	24	23	100	27
1593990891258195699 	0	1880	345	345	1842	1842	1842	114750000	performance	1866	27	27	26	27	24	23	100	26
1593990892919693118	1	1881	345	345	1881	1881	1881	114750000	performance	1866	28	28	26	28	24	23	100	27
1593990893080375455 	0	1882	345	345	1889	1888	1890	114750000	performance	1866	28	28	26	28	24	23	100	27
1593990894751039775	1	1881	345	345	1881	1881	1881	114750000	performance	1866	28	28	26	28	24	23	100	27
1593990894848480051 	0	1876	345	345	1879	1879	1875	114750000	performance	1866	28	28	26	28	24	23	100	27
1593990896465989120	1	1881	345	345	1881	1881	1881	114750000	performance	1866	28	28	26	28	24	23	100	27
1593990896549976357 	0	1882	345	345	1882	1881	1880	114750000	performance	1866	28	28	26	28	24	23	100	27
1593990898180206684	1	1881	345	345	1881	1881	1881	114750000	performance	1866	28	28	26	28	24	23	100	27
1593990898295077524 	0	1881	345	345	1880	1880	1883	114750000	performance	1866	28	28	26	28	24	23	100	27
1593990899957731014	1	1881	345	345	1881	1881	1881	114750000	performance	1866	28	28	26	28	24	23	100	27
1593990900116861310 	0	1888	345	345	1873	1886	1883	114750000	performance	1866	28	28	26	28	24	23	100	27
1593990901763513395	1	1881	345	345	1881	1881	1881	114750000	performance	1866	28	28	26	28	24	23	100	27
1593990901835944278 	0	1877	345	345	1880	1882	1880	114750000	performance	1866	28	28	26	28	24	23	100	27
1593990903493664908	1	1881	345	345	1881	1881	1881	114750000	performance	1866	28	28	26	28	24	23	100	27
1593990903586231587 	0	1882	345	345	1841	1843	1843	114750000	performance	1866	28	28	26	28	24	23	100	27
1593990905242695377	1	1881	345	345	1881	1881	1881	114750000	performance	1866	28	28	26	28	24	23	100	27
1593990905307104646 	0	1843	345	345	1881	1841	1842	114750000	performance	1866	28	28	26	28	24	23	100	27
1593990906895203240	1	1881	345	345	1881	1881	1881	114750000	performance	1866	28	28	26	28	24	23	100	27
1593990907316313932 	0	1881	345	345	1881	1880	1882	114750000	performance	1866	28	28	26	28	24	23	100	27
1593990908959419501	1	1881	345	345	1881	1881	1881	114750000	performance	1866	28	28	26	28	24	23	100	27
1593990909007913861 	0	1887	345	345	1883	1883	1886	114750000	performance	1866	28	28	26	28	24	23	100	27
1593990910623067940	1	1881	345	345	1881	1881	1881	114750000	performance	1866	28	28	26	28	24	23	100	27
1593990910787497371 	0	1893	345	345	1888	1892	1891	114750000	performance	1866	28	28	26	28	24	23	100	27
1593990912418056819	1	1881	345	345	1881	1881	1881	114750000	performance	1866	28	28	26	28	24	23	100	26
1593990912582148936 	0	1877	345	345	1884	1889	1892	114750000	performance	1866	28	28	26	28	24	23	100	27
1593990914256357885	1	1881	345	345	1881	1881	1881	114750000	performance	1866	28	28	26	28	24	23	100	27
1593990914321183316 	0	1880	345	345	1882	1881	1882	114750000	performance	1866	28	28	26	28	24	23	100	27
1593990915963747506	1	1881	345	345	1881	1881	1881	114750000	performance	1866	28	28	26	28	24	23	100	27
1593990916111805930 	0	1884	345	345	1881	1886	1882	114750000	performance	1866	28	28	26	28	24	23	100	27
1593990917743877899	1	1881	345	345	1881	1881	1881	114750000	performance	1866	27	27	26	27	24	23	100	27
1593990917843110537 	0	1843	345	345	1843	1841	1843	114750000	performance	1866	28	28	26	28	24	23	100	27
1593990919496707718	1	1881	345	345	1881	1881	1881	114750000	performance	1866	28	27	26	27	24	23	100	27
1593990919590867719 	0	1882	345	345	1873	1875	1880	114750000	performance	1866	28	28	26	28	24	23	100	27
1593990921165018809	1	1881	345	345	1881	1881	1881	114750000	performance	1866	28	28	26	28	24	23	100	27
1593990921324212657 	0	1881	345	345	1841	1842	1881	114750000	performance	1866	28	28	26	28	24	23	100	27
1593990922916077002	1	1881	345	345	1881	1881	1881	114750000	performance	1866	28	28	26	28	24	23	100	27
1593990923061888917 	0	1880	345	345	1882	1880	1880	114750000	performance	1866	28	28	26	28	24	23	100	27
1593990924671940727	1	1881	345	345	1881	1881	1881	114750000	performance	1866	28	28	26	28	24	24	100	27
1593990924778980610 	0	1843	345	345	1842	1881	1881	114750000	performance	1866	28	28	26	28	24	24	100	27
1593990926433123714	1	1881	345	345	1881	1881	1881	114750000	performance	1866	28	28	26	28	24	23	100	27
1593990926524327346 	0	1875	345	345	1879	1877	1877	114750000	performance	1866	28	28	26	28	24	23	100	27
1593990928102204633	1	1881	345	345	1881	1881	1881	114750000	performance	1866	28	28	26	28	24	23	100	27
1593990928207475418 	0	1880	345	345	1879	1881	1875	114750000	performance	1866	28	28	26	28	24	23	100	27
1593990929839951517	1	1881	345	345	1881	1881	1881	114750000	performance	1866	28	28	26	28	24	23	100	27
1593990929972235002 	0	1880	345	345	1844	1881	1881	114750000	performance	1866	28	28	26	28	24	24	100	27
1593990931598420249	1	1881	345	345	1881	1881	1881	114750000	performance	1866	28	28	26	28	24	23	100	27
1593990931818229553 	0	1888	345	345	1892	1872	1890	114750000	performance	1866	28	28	26	28	24	23	100	27
1593990933491916258	1	1881	345	345	1881	1881	1881	114750000	performance	1866	28	28	26	28	24	24	100	27
1593990933571553007 	0	1881	345	345	1881	1881	1882	114750000	performance	1866	28	28	26	28	24	24	100	27
1593990935172329595	1	1881	345	345	1881	1881	1881	114750000	performance	1866	28	28	26	28	24	23	100	27
1593990935248727061 	0	1877	345	345	1874	1874	1876	114750000	performance	1866	28	28	26	28	24	23	100	27
1593990936936000597	1	1881	345	345	1881	1881	1881	114750000	performance	1866	28	28	26	28	24	23	100	27
1593990937073192654 	0	1886	345	345	1881	1874	1877	114750000	performance	1866	28	28	26	28	24	23	100	27
1593990938706929401	1	1881	345	345	1881	1881	1881	114750000	performance	1866	28	28	26	28	24	24	100	27
1593990938793414125 	0	1883	345	345	1884	1888	1882	114750000	performance	1866	28	28	26	28	24	24	100	27
1593990940449955547	1	1881	345	345	1881	1881	1881	114750000	performance	1866	28	28	26	28	24	23	100	27
1593990940544531518 	0	1844	345	345	1888	1886	1883	114750000	performance	1866	27	27	26	27	24	23	100	27
1593990942151785136	1	1881	345	345	1881	1881	1881	114750000	performance	1866	28	28	26	28	24	24	100	27
1593990942237872706 	0	1880	345	346	1844	1841	1878	114750000	performance	1866	28	28	26	28	24	24	100	27
1593990943875625091	1	1881	345	345	1881	1881	1881	114750000	performance	1866	28	28	26	28	24	24	100	27
1593990944001710941 	0	1843	345	345	1882	1843	1881	114750000	performance	1866	28	28	26	28	24	24	100	27
1593990945669403468	1	1881	345	345	1881	1881	1881	114750000	performance	1866	28	28	26	28	24	24	100	27
1593990945748927480 	0	1877	345	345	1880	1879	1881	114750000	performance	1866	28	28	26	28	24	24	100	27
1593990947372442343	1	1881	345	345	1881	1881	1881	114750000	performance	1866	28	28	26	28	24	23	100	27
1593990947499645831 	0	1877	345	345	1887	1884	1882	114750000	performance	1866	28	28	26	28	24	23	100	27
1593990949131768808	1	1881	345	345	1881	1881	1881	114750000	performance	1866	28	28	26	28	24	24	100	27
1593990949268903137 	0	1863	345	345	1842	1859	1881	114750000	performance	1866	28	28	26	28	24	24	100	27
1593990950891045224	1	1881	345	345	1881	1881	1881	114750000	performance	1866	28	28	26	28	24	23	100	27
1593990951003089841 	0	1882	345	345	1842	1881	1882	114750000	performance	1866	28	28	26	28	24	23	100	27
1593990952613210770	1	1881	345	345	1881	1881	1881	114750000	performance	1866	28	28	26	28	24	23	100	27
1593990952674997208 	0	1877	345	345	1880	1877	1878	114750000	performance	1866	28	28	26	28	24	23	100	27
1593990954373331608	1	1881	345	345	1881	1881	1881	114750000	performance	1866	28	28	26	28	24	23	100	27
1593990954478270615 	0	1883	345	345	1890	1884	1888	114750000	performance	1866	28	28	26	28	24	24	100	27
1593990956105543772	1	1881	345	345	1881	1881	1881	114750000	performance	1866	28	28	26	28	24	23	100	27
1593990956181572916 	0	1843	345	345	1881	1881	1881	114750000	performance	1866	28	28	26	28	24	23	100	27
1593990957851805681	1	1881	345	345	1881	1881	1881	114750000	performance	1866	28	28	26	28	24	23	100	27
1593990957962409201 	0	1878	345	345	1875	1877	1875	114750000	performance	1866	28	28	26	28	24	23	100	27
1593990959606383479	1	1881	345	345	1881	1881	1881	114750000	performance	1866	28	28	26	28	24	23	100	27
1593990959681916204 	0	1876	345	345	1876	1879	1879	114750000	performance	1866	28	28	26	28	24	24	100	27
1593990961315872727	1	1881	345	345	1881	1881	1881	114750000	performance	1866	28	28	26	28	24	23	100	27
1593990961389570242 	0	1881	345	345	1842	1842	1843	114750000	performance	1866	28	28	26	28	24	24	100	27
1593990962998720990	1	1881	345	345	1881	1881	1881	114750000	performance	1866	28	28	26	28	24	23	100	27
1593990963096952854 	0	1875	345	345	1873	1874	1876	114750000	performance	1866	28	28	26	28	24	23	100	27
1593990964768432603	1	1881	345	345	1881	1881	1881	114750000	performance	1866	28	28	26	28	24	24	100	27
1593990964850353365 	0	1888	345	345	1883	1886	1880	114750000	performance	1866	28	28	26	28	24	23	100	27
1593990966458158121	1	1881	345	345	1881	1881	1881	114750000	performance	1866	28	28	26	28	24	24	100	27
1593990966526630773 	0	1881	345	345	1843	1844	1842	114750000	performance	1866	28	28	26	28	24	24	100	27
1593990968110747937	1	1881	345	345	1881	1881	1881	114750000	performance	1866	28	28	26	28	24	23	100	27
1593990968214233367 	0	1877	345	345	1874	1877	1876	114750000	performance	1866	28	28	26	28	24	23	100	27
1593990969997061536	1	1881	345	345	1881	1881	1881	114750000	performance	1866	28	28	26	28	24	24	100	27
1593990970102213665 	0	1843	345	345	1882	1844	1843	114750000	performance	1866	28	28	26	28	24	24	100	27
1593990971839816356	1	1881	345	345	1881	1881	1881	114750000	performance	1866	28	28	26	28	24	23	100	27
1593990972035247886 	0	1876	345	345	1876	1882	1877	114750000	performance	1866	28	28	26	28	24	24	100	27
1593990973649705737	1	1881	345	345	1881	1881	1881	114750000	performance	1866	28	28	26	28	24	23	100	27
1593990973724594970 	0	1843	345	345	1880	1843	1843	114750000	performance	1866	28	28	26	28	24	23	100	27
1593990975334796317	1	1881	345	345	1881	1881	1881	114750000	performance	1866	28	28	26	28	24	23	100	27
1593990975416183988 	0	1886	345	345	1878	1876	1881	114750000	performance	1866	28	28	26	28	24	23	100	27
1593990977013254282	1	1881	345	345	1881	1881	1881	114750000	performance	1866	28	28	26	28	24	23	100	27
1593990977103502068 	0	1844	345	345	1881	1843	1886	114750000	performance	1866	28	28	26	28	24	23	100	27
1593990978722555049	1	1881	345	345	1881	1881	1881	114750000	performance	1866	28	28	26	28	24	23	100	27
1593990978842692608 	0	1889	345	345	1888	1888	1888	114750000	performance	1866	28	28	26	28	24	23	100	27
1593990980550646328	1	1881	345	345	1881	1881	1881	114750000	performance	1866	28	28	26	28	24	24	100	27
1593990980649115570 	0	1878	345	345	1881	1875	1876	114750000	performance	1866	28	28	26	28	24	24	100	27
1593990982272238975	1	1881	345	345	1881	1881	1881	114750000	performance	1866	28	28	26	28	24	23	100	27
1593990982367951688 	0	1882	345	345	1881	1880	1889	114750000	performance	1866	28	28	26	28	24	23	100	27
1593990983948845441	1	1881	345	345	1881	1881	1881	114750000	performance	1866	28	28	26	28	24	24	100	27
1593990984009159198 	0	1882	345	345	1886	1889	1892	114750000	performance	1866	28	28	26	28	24	24	100	27
1593990985628546550	1	1881	345	345	1881	1881	1881	114750000	performance	1866	28	28	26	28	24	23	100	27
1593990985701449979 	0	1881	345	345	1843	1842	1841	114750000	performance	1866	28	28	26	28	24	23	100	27
1593990987300101819	1	1881	345	345	1881	1881	1881	114750000	performance	1866	28	28	26	28	24	24	100	27
1593990987360104982 	0	1873	345	345	1880	1880	1881	114750000	performance	1866	28	28	26	28	24	23	100	27
1593990988983486532	1	1881	345	345	1881	1881	1881	114750000	performance	1866	28	28	26	28	24	24	100	27
1593990989092540635 	0	1843	345	345	1880	1881	1881	114750000	performance	1866	28	28	26	28	24	24	100	27
1593990990723873720	1	1881	345	345	1881	1881	1881	114750000	performance	1866	28	28	26	28	24	23	100	27
1593990990794369968 	0	1877	345	345	1877	1877	1877	114750000	performance	1866	28	28	26	28	24	23	100	27
1593990992464911695	1	1881	345	345	1881	1881	1881	114750000	performance	1866	28	28	26	28	24	23	100	27
1593990992574322344 	0	1882	345	345	1891	1889	1887	114750000	performance	1866	28	28	26	28	24	24	100	27
1593990994208208531	1	1881	345	345	1881	1881	1881	114750000	performance	1866	28	28	26	28	24	23	100	27
1593990994350235817 	0	1880	345	345	1843	1843	1843	114750000	performance	1866	28	28	26	28	24	24	100	27
1593990996025667076	1	1881	345	345	1881	1881	1881	114750000	performance	1866	28	28	26	28	24	23	100	27
1593990996097669317 	0	1878	345	345	1883	1891	1883	114750000	performance	1866	28	28	26	28	24	24	100	27
1593990997716098263	1	1881	345	345	1881	1881	1881	114750000	performance	1866	28	28	26	28	24	23	100	27
1593990997777744283 	0	1877	345	345	1879	1877	1880	114750000	performance	1866	28	28	26	28	24	23	100	27
1593990999480596758	1	1881	345	345	1881	1881	1881	114750000	performance	1866	28	28	26	28	24	23	100	27
1593990999572582602 	0	1844	345	345	1881	1881	1881	114750000	performance	1866	28	28	26	28	24	23	100	27
1593991001197148127	1	1881	345	345	1881	1881	1881	114750000	performance	1866	28	28	26	28	24	23	100	27
1593991001299841969 	0	1882	345	345	1885	1881	1887	114750000	performance	1866	28	28	26	28	24	23	100	27
1593991002924752680	1	1881	345	345	1881	1881	1881	114750000	performance	1866	28	28	26	28	24	23	100	27
1593991003085326313 	0	1889	345	345	1889	1889	1889	114750000	performance	1866	28	28	26	28	24	23	100	27
1593991004813947513	1	1881	345	345	1881	1881	1881	114750000	performance	1866	28	28	26	28	24	23	100	27
1593991004937277666 	0	1881	345	345	1880	1878	1881	114750000	performance	1866	28	28	26	28	24	23	100	27
1593991006635951876	1	1881	345	345	1881	1881	1881	114750000	performance	1866	28	28	26	28	24	24	100	27
1593991006758218887 	0	1881	345	345	1841	1842	1843	114750000	performance	1866	28	28	26	28	24	23	100	27
1593991008442341621	1	1881	345	345	1881	1881	1881	114750000	performance	1866	28	28	26	28	24	23	100	27
1593991008538920964 	0	1843	345	345	1881	1881	1881	114750000	performance	1866	28	28	26	28	24	23	100	27
1593991010186470430	1	1881	345	345	1881	1881	1881	114750000	performance	1866	28	28	26	28	24	24	100	27
1593991010272871122 	0	1843	345	345	1881	1881	1880	114750000	performance	1866	28	28	26	28	24	24	100	27
1593991011960291347	1	1881	345	345	1881	1881	1881	114750000	performance	1866	28	28	26	28	24	23	100	27
1593991012053414382 	0	1879	345	345	1884	1881	1893	114750000	performance	1866	28	28	26	28	24	23	100	27
1593991013654228346	1	1881	345	345	1881	1881	1881	114750000	performance	1866	28	28	26	28	24	23	100	27
1593991013771861026 	0	1841	345	345	1880	1880	1843	114750000	performance	1866	28	28	26	28	24	23	100	27
1593991015395120016	1	1881	345	345	1881	1881	1881	114750000	performance	1866	28	28	26	28	24	23	100	27
1593991015452716253 	0	1842	345	345	1881	1882	1881	114750000	performance	1866	28	28	26	28	24	23	100	27
1593991017154911604	1	1881	345	345	1881	1881	1881	114750000	performance	1866	28	28	26	28	24	23	100	27
1593991017303343662 	0	1842	345	345	1843	1881	1881	114750000	performance	1866	28	28	26	28	24	23	100	27
1593991018949695458	1	1881	345	345	1881	1881	1881	114750000	performance	1866	28	28	26	28	24	23	100	27
1593991019034327851 	0	1881	345	345	1842	1842	1882	114750000	performance	1866	28	28	26	28	24	23	100	27
1593991020650299727	1	1881	345	345	1881	1881	1881	114750000	performance	1866	28	28	26	28	24	24	100	27
1593991020753359107 	0	1891	345	345	1892	1897	1892	114750000	performance	1866	28	28	26	28	24	24	100	27
1593991022397576362	1	1881	345	345	1881	1881	1881	114750000	performance	1866	28	28	26	28	24	23	100	27
1593991022524165414 	0	1883	345	345	1884	1883	1886	114750000	performance	1866	28	28	26	28	24	23	100	27
1593991024185843410	1	1881	345	345	1881	1881	1881	114750000	performance	1866	28	28	26	28	24	23	100	27
1593991024229027244 	0	1890	345	345	1886	1888	1887	114750000	performance	1866	28	28	26	28	24	23	100	27
1593991025904919691	1	1881	345	345	1881	1881	1881	114750000	performance	1866	28	28	26	28	24	23	100	27
1593991026005687729 	0	1841	345	345	1881	1881	1881	114750000	performance	1866	28	28	26	28	24	23	100	27
1593991027640561986	1	1881	345	345	1881	1881	1881	114750000	performance	1866	28	28	26	28	24	23	100	27
1593991027774978476 	0	1899	345	345	1880	1878	1890	114750000	performance	1866	28	28	26	28	24	23	100	27
1593991029416829605	1	1881	345	345	1881	1881	1881	114750000	performance	1866	28	28	26	28	24	24	100	27
1593991029524238227 	0	1878	345	345	1877	1879	1873	114750000	performance	1866	28	28	26	28	24	24	100	27
1593991031216493104	1	1881	345	345	1881	1881	1881	114750000	performance	1866	28	28	26	28	24	23	100	27
1593991031311166995 	0	1842	345	345	1843	1842	1843	114750000	performance	1866	28	28	26	28	24	23	100	27
1593991032927345976	1	1881	345	345	1881	1881	1881	114750000	performance	1866	28	28	26	28	24	23	100	27
1593991033002745484 	0	1882	345	345	1888	1883	1887	114750000	performance	1866	28	28	26	28	24	23	100	27
1593991034633096163	1	1881	345	345	1881	1881	1881	114750000	performance	1866	28	28	26	28	24	23	100	27
1593991034679685681 	0	1879	345	345	1881	1878	1879	114750000	performance	1866	28	28	26	28	24	23	100	27
1593991036347889154	1	1881	345	345	1881	1881	1881	114750000	performance	1866	28	28	26	28	24	24	100	27
1593991036407757405 	0	1878	345	345	1879	1877	1881	114750000	performance	1866	28	28	26	28	24	24	100	27
1593991038056386141	1	1881	345	345	1881	1881	1881	114750000	performance	1866	28	28	26	28	24	24	100	27
1593991038163175687 	0	1879	345	345	1887	1887	1887	114750000	performance	1866	28	28	26	28	24	24	100	27
1593991039808610805	1	1881	345	345	1881	1881	1881	114750000	performance	1866	28	28	26	28	24	23	100	27
1593991039918390384 	0	1880	345	345	1875	1877	1877	114750000	performance	1866	28	28	26	28	24	23	100	27
1593991041563834750	1	1881	345	345	1881	1881	1881	114750000	performance	1866	28	28	26	28	24	23	100	27
1593991041702911363 	0	1876	345	345	1875	1876	1877	114750000	performance	1866	28	28	26	28	24	23	100	27
1593991043297638252	1	1881	345	345	1881	1881	1881	114750000	performance	1866	28	28	26	28	24	23	100	27
1593991043359673427 	0	1881	345	345	1842	1881	1883	114750000	performance	1866	28	28	26	28	24	23	100	27
1593991045011395589	1	1881	345	345	1881	1881	1881	114750000	performance	1866	28	28	26	28	24	24	100	27
1593991045125691898 	0	1881	345	345	1842	1843	1842	114750000	performance	1866	28	28	26	28	24	23	100	27
1593991046737719143	1	1881	345	345	1881	1881	1881	114750000	performance	1866	28	28	26	28	24	24	100	27
1593991046842919528 	0	1878	345	345	1878	1877	1877	114750000	performance	1866	28	28	26	28	24	24	100	27
1593991048474461477	1	1881	345	345	1881	1881	1881	114750000	performance	1866	28	28	26	28	24	23	100	27
1593991048548914644 	0	1880	345	345	1878	1880	1882	114750000	performance	1866	28	28	26	28	24	24	100	27
1593991050129838637	1	1881	345	345	1881	1881	1881	114750000	performance	1866	28	28	26	28	24	23	100	27
1593991050235548304 	0	1880	345	345	1881	1882	1883	114750000	performance	1866	28	28	26	28	24	23	100	27
1593991051932096582	1	1881	345	345	1881	1881	1881	114750000	performance	1866	28	28	26	28	24	23	100	27
1593991052036807236 	0	1874	345	345	1875	1878	1881	114750000	performance	1866	28	28	26	28	24	24	100	27
1593991053642402636	1	1881	345	345	1881	1881	1881	114750000	performance	1866	28	28	26	28	24	23	100	27
1593991053700045273 	0	1874	345	345	1875	1880	1876	114750000	performance	1866	28	28	26	28	24	23	100	27
1593991055303767734	1	1881	345	345	1881	1881	1881	114750000	performance	1866	28	28	26	28	24	23	100	27
1593991055399499040 	0	1844	345	345	1881	1882	1842	114750000	performance	1866	28	28	26	28	24	23	100	27
1593991057047872511	1	1881	345	345	1881	1881	1881	114750000	performance	1866	28	28	26	28	24	23	100	27
1593991057140456054 	0	1876	345	345	1877	1877	1873	114750000	performance	1866	28	28	26	28	24	23	100	27
1593991058742035751	1	1881	345	345	1881	1881	1881	114750000	performance	1866	28	28	26	28	24	24	100	27
1593991058805115764 	0	1875	345	345	1874	1877	1879	114750000	performance	1866	28	28	26	28	24	24	100	27
1593991060421873468	1	1881	345	345	1881	1881	1881	114750000	performance	1866	28	28	26	28	24	23	100	27
1593991060514344467 	0	1877	345	345	1875	1879	1875	114750000	performance	1866	28	28	26	28	24	23	100	27
1593991062209991747	1	1881	345	345	1881	1881	1881	114750000	performance	1866	28	28	26	28	24	24	100	27
1593991062329293909 	0	1879	345	345	1885	1888	1882	114750000	performance	1866	28	28	26	28	24	24	100	27
1593991063974156640	1	1881	345	345	1881	1881	1881	114750000	performance	1866	28	28	26	28	24	24	100	27
1593991064082354482 	0	1895	345	345	1882	1878	1882	114750000	performance	1866	28	28	26	28	24	23	100	27
1593991065665493304	1	1881	345	345	1881	1881	1881	114750000	performance	1866	28	28	26	28	24	24	100	27
1593991065785304109 	0	1880	345	345	1878	1883	1882	114750000	performance	1866	28	28	26	28	24	24	100	27
1593991067444308905	1	1881	345	345	1881	1881	1881	114750000	performance	1866	28	28	26	28	24	24	100	27
1593991067537846503 	0	1880	345	345	1881	1843	1844	114750000	performance	1866	28	28	26	28	24	23	100	27
1593991069152617635	1	1881	345	345	1881	1881	1881	114750000	performance	1866	28	28	26	28	24	24	100	27
1593991069244221781 	0	1880	345	345	1875	1876	1880	114750000	performance	1866	28	28	26	28	24	24	100	27
1593991070823703110	1	1881	345	345	1881	1881	1881	114750000	performance	1866	28	28	26	28	24	23	100	27
1593991070871268089 	0	1843	345	345	1881	1881	1842	114750000	performance	1866	28	28	26	28	24	23	100	27
1593991072451105324	1	1881	345	345	1881	1881	1881	114750000	performance	1866	28	28	26	28	24	23	100	27
1593991072525235864 	0	1843	345	345	1843	1882	1881	114750000	performance	1866	28	28	26	28	24	23	100	27
1593991074164552835	1	1881	345	345	1881	1881	1881	114750000	performance	1866	28	28	26	28	24	23	100	27
1593991074229817757 	0	1845	345	345	1882	1844	1842	114750000	performance	1866	28	28	26	28	24	23	100	27
1593991075827665624	1	1881	345	345	1881	1881	1881	114750000	performance	1866	28	28	26	28	24	23	100	27
1593991075953527216 	0	1882	345	345	1842	1843	1842	114750000	performance	1866	28	28	26	28	24	23	100	27
1593991077586166356	1	1881	345	345	1881	1881	1881	114750000	performance	1866	28	28	26	28	24	23	100	27
1593991077676227645 	0	1887	345	345	1889	1881	1876	114750000	performance	1866	28	28	26	28	24	23	100	27
1593991079282929803	1	1881	345	345	1881	1881	1881	114750000	performance	1866	28	28	26	28	24	23	100	27
1593991079378873846 	0	1843	345	345	1842	1842	1915	114750000	performance	1866	28	28	26	28	24	23	100	27
1593991080984164540	1	1881	345	345	1881	1881	1881	114750000	performance	1866	28	28	26	28	24	24	100	27
1593991081073568961 	0	1882	345	345	1842	1842	1843	114750000	performance	1866	28	28	26	28	24	24	100	27
1593991082667041122	1	1881	345	345	1881	1881	1881	114750000	performance	1866	28	28	26	28	24	24	100	27
1593991082845383946 	0	1843	345	345	1881	1843	1842	114750000	performance	1866	28	28	26	28	24	23	100	27
1593991084580525951	1	1881	345	345	1881	1881	1881	114750000	performance	1866	28	28	26	28	24	23	100	27
1593991084733100722 	0	1842	345	345	1841	1843	1881	114750000	performance	1866	28	28	26	28	24	23	100	27
1593991086346960617	1	1881	345	345	1881	1881	1881	114750000	performance	1866	28	28	26	28	24	23	100	27
1593991086413349737 	0	1878	345	345	1882	1884	1885	114750000	performance	1866	28	28	26	28	24	23	100	27
1593991088065494942	1	1881	345	345	1881	1881	1881	114750000	performance	1866	28	28	26	28	24	24	100	27
1593991088189190825 	0	1881	345	345	1843	1843	1842	114750000	performance	1866	28	28	26	28	24	23	100	27
