timestamp	VIRTUAL_SCALING	CPU0_F	CPU1_F	CPU2_F	CPU3_F	CPU4_F	CPU5_F	CPU6_F	CPU7_F	GPU_FREQ	CPU_GOVERNOR	EMC_F	TEMP0
1606797005527660559	1	1400	1400	1400	1400	1800	1800	1800	1800	600	performance	-	56
1606797005584788961 	0	1400	1400	1400	1400	1800	1800	1800	1800	600	performance	-	55
1606797007160007805	1	1400	1400	1400	1400	1800	1800	1800	1800	600	performance	-	53
1606797007220129190 	0	1400	1400	1400	1400	1800	1800	1800	1800	600	performance	-	53
1606797008795846988	1	1400	1400	1400	1400	1800	1800	1800	1800	600	performance	-	53
1606797008855982748 	0	1400	1400	1400	1400	1800	1800	1800	1800	600	performance	-	53
1606797010431654796	1	1400	1400	1400	1400	1800	1800	1800	1800	600	performance	-	53
1606797010491406766 	0	1400	1400	1400	1400	1800	1800	1800	1800	600	performance	-	53
1606797012067055064	1	1400	1400	1400	1400	1800	1800	1800	1800	600	performance	-	52
1606797012126853200 	0	1400	1400	1400	1400	1800	1800	1800	1800	600	performance	-	53
1606797013702511998	1	1400	1400	1400	1400	1800	1800	1800	1800	600	performance	-	52
1606797013762213843 	0	1400	1400	1400	1400	1800	1800	1800	1800	600	performance	-	53
1606797015338107347	1	1400	1400	1400	1400	1800	1800	1800	1800	600	performance	-	52
1606797015397720818 	0	1400	1400	1400	1400	1800	1800	1800	1800	600	performance	-	52
1606797016973811903	1	1400	1400	1400	1400	1800	1800	1800	1800	600	performance	-	53
1606797017034408118 	0	1400	1400	1400	1400	1800	1800	1800	1800	600	performance	-	53
1606797018610275955	1	1400	1400	1400	1400	1800	1800	1800	1800	600	performance	-	52
1606797018669949050 	0	1400	1400	1400	1400	1800	1800	1800	1800	600	performance	-	53
1606797020246311175	1	1400	1400	1400	1400	1800	1800	1800	1800	600	performance	-	52
1606797020306821807 	0	1400	1400	1400	1400	1800	1800	1800	1800	600	performance	-	52
1606797021884191675	1	1400	1400	1400	1400	1800	1800	1800	1800	600	performance	-	51
1606797021944679973 	0	1400	1400	1400	1400	1800	1800	1800	1800	600	performance	-	52
1606797023520952639	1	1400	1400	1400	1400	1800	1800	1800	1800	600	performance	-	52
1606797023581023316 	0	1400	1400	1400	1400	1800	1800	1800	1800	600	performance	-	52
1606797025157571854	1	1400	1400	1400	1400	1800	1800	1800	1800	600	performance	-	52
1606797025217392157 	0	1400	1400	1400	1400	1800	1800	1800	1800	600	performance	-	53
1606797026793491698	1	1400	1400	1400	1400	1800	1800	1800	1800	600	performance	-	52
1606797026853377084 	0	1400	1400	1400	1400	1800	1800	1800	1800	600	performance	-	52
1606797028429491124	1	1400	1400	1400	1400	1800	1800	1800	1800	600	performance	-	52
1606797028489204386 	0	1400	1400	1400	1400	1800	1800	1800	1800	600	performance	-	52
1606797030065032136	1	1400	1400	1400	1400	1800	1800	1800	1800	600	performance	-	51
1606797030124759481 	0	1400	1400	1400	1400	1800	1800	1800	1800	600	performance	-	52
1606797031700708271	1	1400	1400	1400	1400	1800	1800	1800	1800	600	performance	-	52
1606797031760468616 	0	1400	1400	1400	1400	1800	1800	1800	1800	600	performance	-	52
1606797033336392115	1	1400	1400	1400	1400	1800	1800	1800	1800	600	performance	-	51
1606797033396661331 	0	1400	1400	1400	1400	1800	1800	1800	1800	600	performance	-	52
1606797034972832244	1	1400	1400	1400	1400	1800	1800	1800	1800	600	performance	-	51
1606797035033166127 	0	1400	1400	1400	1400	1800	1800	1800	1800	600	performance	-	52
1606797036609598705	1	1400	1400	1400	1400	1800	1800	1800	1800	600	performance	-	51
1606797036669838380 	0	1400	1400	1400	1400	1800	1800	1800	1800	600	performance	-	52
1606797038245828544	1	1400	1400	1400	1400	1800	1800	1800	1800	600	performance	-	51
1606797038305649721 	0	1400	1400	1400	1400	1800	1800	1800	1800	600	performance	-	52
1606797039881360302	1	1400	1400	1400	1400	1800	1800	1800	1800	600	performance	-	51
1606797039944361503 	0	1400	1400	1400	1400	1800	1800	1800	1800	600	performance	-	53
1606797041523688353	1	1400	1400	1400	1400	1800	1800	1800	1800	600	performance	-	51
1606797041585488477 	0	1400	1400	1400	1400	1800	1800	1800	1800	600	performance	-	51
1606797043163426710	1	1400	1400	1400	1400	1800	1800	1800	1800	600	performance	-	51
1606797043223340679 	0	1400	1400	1400	1400	1800	1800	1800	1800	600	performance	-	51
1606797044798927510	1	1400	1400	1400	1400	1800	1800	1800	1800	600	performance	-	51
1606797044858747771 	0	1400	1400	1400	1400	1800	1800	1800	1800	600	performance	-	51
1606797046434456642	1	1400	1400	1400	1400	1800	1800	1800	1800	600	performance	-	51
1606797046494358527 	0	1400	1400	1400	1400	1800	1800	1800	1800	600	performance	-	51
1606797048070220897	1	1400	1400	1400	1400	1800	1800	1800	1800	600	performance	-	50
1606797048130420989 	0	1400	1400	1400	1400	1800	1800	1800	1800	600	performance	-	51
1606797049706296483	1	1400	1400	1400	1400	1800	1800	1800	1800	600	performance	-	50
1606797049766675740 	0	1400	1400	1400	1400	1800	1800	1800	1800	600	performance	-	51
1606797051342841607	1	1400	1400	1400	1400	1800	1800	1800	1800	600	performance	-	51
1606797051402401870 	0	1400	1400	1400	1400	1800	1800	1800	1800	600	performance	-	51
1606797052978689736	1	1400	1400	1400	1400	1800	1800	1800	1800	600	performance	-	51
1606797053039097660 	0	1400	1400	1400	1400	1800	1800	1800	1800	600	performance	-	51
1606797054615027235	1	1400	1400	1400	1400	1800	1800	1800	1800	600	performance	-	50
1606797054675195536 	0	1400	1400	1400	1400	1800	1800	1800	1800	600	performance	-	51
1606797056250964362	1	1400	1400	1400	1400	1800	1800	1800	1800	600	performance	-	50
1606797056310997372 	0	1400	1400	1400	1400	1800	1800	1800	1800	600	performance	-	50
1606797057887089654	1	1400	1400	1400	1400	1800	1800	1800	1800	600	performance	-	50
1606797057946830040 	0	1400	1400	1400	1400	1800	1800	1800	1800	600	performance	-	50
1606797059522813031	1	1400	1400	1400	1400	1800	1800	1800	1800	600	performance	-	50
1606797059582806458 	0	1400	1400	1400	1400	1800	1800	1800	1800	600	performance	-	51
1606797061159170946	1	1400	1400	1400	1400	1800	1800	1800	1800	600	performance	-	50
1606797061218758749 	0	1400	1400	1400	1400	1800	1800	1800	1800	600	performance	-	51
1606797062794374075	1	1400	1400	1400	1400	1800	1800	1800	1800	600	performance	-	50
1606797062854623666 	0	1400	1400	1400	1400	1800	1800	1800	1800	600	performance	-	51
1606797064430272200	1	1400	1400	1400	1400	1800	1800	1800	1800	600	performance	-	50
1606797064490161668 	0	1400	1400	1400	1400	1800	1800	1800	1800	600	performance	-	51
1606797066065878034	1	1400	1400	1400	1400	1800	1800	1800	1800	600	performance	-	51
1606797066125453838 	0	1400	1400	1400	1400	1800	1800	1800	1800	600	performance	-	51
1606797067701689242	1	1400	1400	1400	1400	1800	1800	1800	1800	600	performance	-	50
1606797067761738543 	0	1400	1400	1400	1400	1800	1800	1800	1800	600	performance	-	51
1606797069337014535	1	1400	1400	1400	1400	1800	1800	1800	1800	600	performance	-	50
1606797069397074836 	0	1400	1400	1400	1400	1800	1800	1800	1800	600	performance	-	51
1606797070972538369	1	1400	1400	1400	1400	1800	1800	1800	1800	600	performance	-	50
1606797071032078798 	0	1400	1400	1400	1400	1800	1800	1800	1800	600	performance	-	50
1606797072607380331	1	1400	1400	1400	1400	1800	1800	1800	1800	600	performance	-	50
1606797072667703005 	0	1400	1400	1400	1400	1800	1800	1800	1800	600	performance	-	51
1606797074243613992	1	1400	1400	1400	1400	1800	1800	1800	1800	600	performance	-	50
1606797074303575336 	0	1400	1400	1400	1400	1800	1800	1800	1800	600	performance	-	51
1606797075879307574	1	1400	1400	1400	1400	1800	1800	1800	1800	600	performance	-	50
1606797075939628956 	0	1400	1400	1400	1400	1800	1800	1800	1800	600	performance	-	51
1606797077517229057	1	1400	1400	1400	1400	1800	1800	1800	1800	600	performance	-	50
1606797077581703748 	0	1400	1400	1400	1400	1800	1800	1800	1800	600	performance	-	51
1606797079160786631	1	1400	1400	1400	1400	1800	1800	1800	1800	600	performance	-	51
1606797079220472226 	0	1400	1400	1400	1400	1800	1800	1800	1800	600	performance	-	51
1606797080795377260	1	1400	1400	1400	1400	1800	1800	1800	1800	600	performance	-	50
1606797080853739196 	0	1400	1400	1400	1400	1800	1800	1800	1800	600	performance	-	50
1606797082428126190	1	1400	1400	1400	1400	1800	1800	1800	1800	600	performance	-	50
1606797082486731042 	0	1400	1400	1400	1400	1800	1800	1800	1800	600	performance	-	50
1606797084060480456	1	1400	1400	1400	1400	1800	1800	1800	1800	600	performance	-	50
1606797084118697643 	0	1400	1400	1400	1400	1800	1800	1800	1800	600	performance	-	50
1606797085692273308	1	1400	1400	1400	1400	1800	1800	1800	1800	600	performance	-	50
1606797085750443662 	0	1400	1400	1400	1400	1800	1800	1800	1800	600	performance	-	50
1606797087324279076	1	1400	1400	1400	1400	1800	1800	1800	1800	600	performance	-	50
1606797087382805594 	0	1400	1400	1400	1400	1800	1800	1800	1800	600	performance	-	50
1606797088956247134	1	1400	1400	1400	1400	1800	1800	1800	1800	600	performance	-	49
1606797089014830777 	0	1400	1400	1400	1400	1800	1800	1800	1800	600	performance	-	50
1606797090588782772	1	1400	1400	1400	1400	1800	1800	1800	1800	600	performance	-	49
1606797090647371416 	0	1400	1400	1400	1400	1800	1800	1800	1800	600	performance	-	50
1606797092221597283	1	1400	1400	1400	1400	1800	1800	1800	1800	600	performance	-	49
1606797092280169885 	0	1400	1400	1400	1400	1800	1800	1800	1800	600	performance	-	50
1606797093853885214	1	1400	1400	1400	1400	1800	1800	1800	1800	600	performance	-	49
1606797093911890902 	0	1400	1400	1400	1400	1800	1800	1800	1800	600	performance	-	50
1606797095485542814	1	1400	1400	1400	1400	1800	1800	1800	1800	600	performance	-	49
1606797095543962583 	0	1400	1400	1400	1400	1800	1800	1800	1800	600	performance	-	50
1606797097118222825	1	1400	1400	1400	1400	1800	1800	1800	1800	600	performance	-	50
1606797097176654386 	0	1400	1400	1400	1400	1800	1800	1800	1800	600	performance	-	50
1606797098750228631	1	1400	1400	1400	1400	1800	1800	1800	1800	600	performance	-	50
1606797098808704566 	0	1400	1400	1400	1400	1800	1800	1800	1800	600	performance	-	50
1606797100382931599	1	1400	1400	1400	1400	1800	1800	1800	1800	600	performance	-	49
1606797100441650199 	0	1400	1400	1400	1400	1800	1800	1800	1800	600	performance	-	50
1606797102015414192	1	1400	1400	1400	1400	1800	1800	1800	1800	600	performance	-	49
1606797102073977752 	0	1400	1400	1400	1400	1800	1800	1800	1800	600	performance	-	50
1606797103647768203	1	1400	1400	1400	1400	1800	1800	1800	1800	600	performance	-	50
1606797103706497595 	0	1400	1400	1400	1400	1800	1800	1800	1800	600	performance	-	50
1606797105280105922	1	1400	1400	1400	1400	1800	1800	1800	1800	600	performance	-	49
1606797105338206360 	0	1400	1400	1400	1400	1800	1800	1800	1800	600	performance	-	50
1606797106911690145	1	1400	1400	1400	1400	1800	1800	1800	1800	600	performance	-	49
1606797106970210747 	0	1400	1400	1400	1400	1800	1800	1800	1800	600	performance	-	50
1606797108543948738	1	1400	1400	1400	1400	1800	1800	1800	1800	600	performance	-	50
1606797108602308299 	0	1400	1400	1400	1400	1800	1800	1800	1800	600	performance	-	50
1606797110176221248	1	1400	1400	1400	1400	1800	1800	1800	1800	600	performance	-	49
1606797110234161520 	0	1400	1400	1400	1400	1800	1800	1800	1800	600	performance	-	50
1606797111808074218	1	1400	1400	1400	1400	1800	1800	1800	1800	600	performance	-	50
1606797111866375488 	0	1400	1400	1400	1400	1800	1800	1800	1800	600	performance	-	50
1606797113439902771	1	1400	1400	1400	1400	1800	1800	1800	1800	600	performance	-	49
1606797113498941870 	0	1400	1400	1400	1400	1800	1800	1800	1800	600	performance	-	50
1606797115072635569	1	1400	1400	1400	1400	1800	1800	1800	1800	600	performance	-	50
1606797115135959599 	0	1400	1400	1400	1400	1800	1800	1800	1800	600	performance	-	51
1606797116713446983	1	1400	1400	1400	1400	1800	1800	1800	1800	600	performance	-	50
1606797116772878496 	0	1400	1400	1400	1400	1800	1800	1800	1800	600	performance	-	50
1606797118347456397	1	1400	1400	1400	1400	1800	1800	1800	1800	600	performance	-	50
1606797118405884165 	0	1400	1400	1400	1400	1800	1800	1800	1800	600	performance	-	50
1606797119983865254	1	1400	1400	1400	1400	1800	1800	1800	1800	600	performance	-	50
1606797120046326790 	0	1400	1400	1400	1400	1800	1800	1800	1800	600	performance	-	50
1606797121643027555	1	1400	1400	1400	1400	1800	1800	1800	1800	600	performance	-	50
1606797121857476706 	0	1400	1400	1400	1400	1800	1800	1800	1800	600	performance	-	57
1606797123635763322	1	1400	1400	1400	1400	1800	1800	1800	1800	600	performance	-	68
1606797123855724606 	0	1400	1400	1400	1400	1800	1800	1800	1800	600	performance	-	70
1606797125653719476	1	1400	1400	1400	1400	1800	1800	1800	1800	600	performance	-	73
1606797125890744739 	0	1400	1400	1400	1400	1800	1800	1800	1800	600	performance	-	73
1606797127680788741	1	1400	1400	1400	1400	1800	1800	1800	1800	600	performance	-	75
1606797127893578068 	0	1400	1400	1400	1400	1800	1800	1800	1800	600	performance	-	76
1606797129685733515	1	1400	1400	1400	1400	1800	1800	1800	1800	600	performance	-	77
1606797129907168914 	0	1400	1400	1400	1400	1800	1800	1800	1800	600	performance	-	77
1606797131720717271	1	1400	1400	1400	1400	1800	1800	1800	1800	600	performance	-	78
1606797131938613151 	0	1400	1400	1400	1400	1800	1800	1800	1800	600	performance	-	78
1606797133745727588	1	1400	1400	1400	1400	1800	1800	1800	1800	600	performance	-	79
1606797133970795466 	0	1400	1400	1400	1400	1800	1800	1800	1800	600	performance	-	79
1606797135810732828	1	1400	1400	1400	1400	1800	1800	1800	1800	600	performance	-	80
1606797136120734062 	0	1400	1400	1400	1400	1800	1800	1800	1800	600	performance	-	80
1606797138020736182	1	1400	1400	1400	1400	1800	1800	1800	1800	600	performance	-	81
1606797138285763107 	0	1400	1400	1400	1400	1800	1800	1800	1800	600	performance	-	81
1606797140150816856	1	1400	1400	1400	1400	1800	1800	1800	1800	600	performance	-	81
1606797140360741951 	0	1400	1400	1400	1400	1800	1800	1800	1800	600	performance	-	81
1606797142150587700	1	1400	1400	1400	1400	1800	1800	1800	1800	600	performance	-	82
1606797142455752755 	0	1400	1400	1400	1400	1800	1800	1800	1800	600	performance	-	82
1606797144355727248	1	1400	1400	1400	1400	1800	1800	1800	1800	600	performance	-	82
1606797144640737676 	0	1400	1400	1400	1400	1800	1800	1800	1800	600	performance	-	82
1606797146515738696	1	1400	1400	1400	1400	1800	1800	1800	1800	600	performance	-	83
1606797146810825688 	0	1400	1400	1400	1400	1800	1800	1800	1800	600	performance	-	83
1606797148680697155	1	1400	1400	1400	1400	1800	1800	1800	1800	600	performance	-	83
1606797149005779880 	0	1400	1400	1400	1400	1800	1800	1800	1800	600	performance	-	83
1606797150925714125	1	1400	1400	1400	1400	1800	1800	1800	1800	600	performance	-	83
1606797151240771494 	0	1400	1400	1400	1400	1800	1800	1800	1800	600	performance	-	84
1606797153155947017	1	1400	1400	1400	1400	1800	1800	1800	1800	600	performance	-	84
1606797153460778032 	0	1400	1400	1400	1400	1800	1800	1800	1800	600	performance	-	84
1606797155303702204	1	1400	1400	1400	1400	1800	1800	1800	1800	600	performance	-	84
1606797155610762581 	0	1400	1400	1400	1400	1800	1800	1800	1800	600	performance	-	84
1606797157508660375	1	1400	1400	1400	1400	1800	1800	1800	1800	600	performance	-	84
1606797157778662644 	0	1400	1400	1400	1400	1800	1800	1800	1800	600	performance	-	84
1606797159670743598	1	1400	1400	1400	1400	1800	1800	1800	1800	600	performance	-	85
1606797160000771125 	0	1400	1400	1400	1400	1800	1800	1800	1800	600	performance	-	85
1606797161870867380	1	1400	1400	1400	1400	1800	1800	1800	1800	600	performance	-	85
1606797162130786293 	0	1400	1400	1400	1400	1800	1800	1800	1800	600	performance	-	85
1606797163935903860	1	1400	1400	1400	1400	1800	1800	1800	1800	600	performance	-	85
1606797164160739071 	0	1400	1400	1400	1400	1800	1800	1800	1800	600	performance	-	85
1606797165975761952	1	1400	1400	1400	1400	1800	1800	1800	1800	600	performance	-	86
1606797166225741718 	0	1400	1400	1400	1400	1800	1800	1800	1800	600	performance	-	86
1606797168005737979	1	1400	1400	1400	1400	1800	1800	1800	1800	600	performance	-	86
1606797168225720470 	0	1400	1400	1400	1400	1800	1800	1800	1800	600	performance	-	86
1606797170020810221	1	1400	1400	1400	1400	1800	1800	1800	1800	600	performance	-	86
1606797170233688047 	0	1400	1400	1400	1400	1800	1800	1800	1800	600	performance	-	86
1606797172050845247	1	1400	1400	1400	1400	1800	1800	1800	1800	600	performance	-	86
1606797172273801844 	0	1400	1400	1400	1400	1800	1800	1800	1800	600	performance	-	86
1606797174070783791	1	1400	1400	1400	1400	1800	1800	1800	1800	600	performance	-	87
1606797174288675128 	0	1400	1400	1400	1400	1800	1800	1800	1800	600	performance	-	86
1606797176073699814	1	1400	1400	1400	1400	1800	1800	1800	1800	600	performance	-	87
1606797176305972980 	0	1400	1400	1400	1400	1800	1800	1800	1800	600	performance	-	87
1606797178120772567	1	1400	1400	1400	1400	1800	1800	1800	1800	600	performance	-	87
1606797178420739361 	0	1400	1400	1400	1400	1800	1800	1800	1800	600	performance	-	87
1606797180305737603	1	1400	1400	1400	1400	1800	1800	1800	1800	600	performance	-	87
1606797180585931267 	0	1400	1400	1400	1400	1800	1800	1800	1800	600	performance	-	87
1606797182475728604	1	1400	1400	1400	1400	1800	1800	1800	1800	600	performance	-	87
1606797182790770264 	0	1400	1400	1400	1400	1800	1800	1800	1800	600	performance	-	87
1606797184645936520	1	1400	1400	1400	1400	1800	1800	1800	1800	600	performance	-	87
1606797184955738587 	0	1400	1400	1400	1400	1800	1800	1800	1800	600	performance	-	88
1606797186770730713	1	1400	1400	1400	1400	1800	1800	1800	1800	600	performance	-	87
1606797186980778013 	0	1400	1400	1400	1400	1800	1800	1800	1800	600	performance	-	88
1606797188792160161	1	1400	1400	1400	1400	1800	1800	1800	1800	600	performance	-	88
1606797189068652556 	0	1400	1400	1400	1400	1800	1800	1800	1800	600	performance	-	88
1606797190863630511	1	1400	1400	1400	1400	1800	1800	1800	1800	600	performance	-	88
1606797191090795083 	0	1400	1400	1400	1400	1800	1800	1800	1800	600	performance	-	88
1606797192875772224	1	1400	1400	1400	1400	1800	1800	1800	1800	600	performance	-	88
1606797193090739619 	0	1400	1400	1400	1400	1800	1800	1800	1800	600	performance	-	88
1606797194873594564	1	1400	1400	1400	1400	1800	1800	1800	1800	600	performance	-	88
1606797195115800752 	0	1400	1400	1400	1400	1800	1800	1800	1800	600	performance	-	88
1606797196920755187	1	1400	1400	1400	1400	1800	1800	1800	1800	600	performance	-	88
1606797197135764915 	0	1400	1400	1400	1400	1800	1800	1800	1800	600	performance	-	88
1606797198925812316	1	1400	1400	1400	1400	1800	1800	1800	1800	600	performance	-	88
1606797199195752792 	0	1400	1400	1400	1400	1800	1800	1800	1800	600	performance	-	88
1606797201080718945	1	1400	1400	1400	1400	1800	1800	1800	1800	600	performance	-	89
1606797201365763413 	0	1400	1400	1400	1400	1800	1800	1800	1800	600	performance	-	89
1606797203225754843	1	1400	1400	1400	1400	1800	1800	1800	1800	600	performance	-	89
1606797203392938364 	0	1400	1400	1400	1400	1800	1800	1800	1800	600	performance	-	86
1606797204969013986	1	1400	1400	1400	1400	1800	1800	1800	1800	600	performance	-	69
1606797205028908829 	0	1400	1400	1400	1400	1800	1800	1800	1800	600	performance	-	70
1606797206604807785	1	1400	1400	1400	1400	1800	1800	1800	1800	600	performance	-	65
1606797206664831294 	0	1400	1400	1400	1400	1800	1800	1800	1800	600	performance	-	65
1606797208243310234	1	1400	1400	1400	1400	1800	1800	1800	1800	600	performance	-	62
1606797208304014364 	0	1400	1400	1400	1400	1800	1800	1800	1800	600	performance	-	63
1606797209879993402	1	1400	1400	1400	1400	1800	1800	1800	1800	600	performance	-	61
1606797209940095577 	0	1400	1400	1400	1400	1800	1800	1800	1800	600	performance	-	61
1606797211516437030	1	1400	1400	1400	1400	1800	1800	1800	1800	600	performance	-	60
1606797211576379247 	0	1400	1400	1400	1400	1800	1800	1800	1800	600	performance	-	60
1606797213152198328	1	1400	1400	1400	1400	1800	1800	1800	1800	600	performance	-	59
1606797213213399621 	0	1400	1400	1400	1400	1800	1800	1800	1800	600	performance	-	59
1606797214789679699	1	1400	1400	1400	1400	1800	1800	1800	1800	600	performance	-	58
1606797214849630332 	0	1400	1400	1400	1400	1800	1800	1800	1800	600	performance	-	58
1606797216425973576	1	1400	1400	1400	1400	1800	1800	1800	1800	600	performance	-	58
1606797216486431832 	0	1400	1400	1400	1400	1800	1800	1800	1800	600	performance	-	58
1606797218063372946	1	1400	1400	1400	1400	1800	1800	1800	1800	600	performance	-	57
1606797218124563156 	0	1400	1400	1400	1400	1800	1800	1800	1800	600	performance	-	58
1606797219700787983	1	1400	1400	1400	1400	1800	1800	1800	1800	600	performance	-	57
1606797219765867794 	0	1400	1400	1400	1400	1800	1800	1800	1800	600	performance	-	59
1606797221345795973	1	1400	1400	1400	1400	1800	1800	1800	1800	600	performance	-	58
1606797221407759844 	0	1400	1400	1400	1400	1800	1800	1800	1800	600	performance	-	57
1606797222984127170	1	1400	1400	1400	1400	1800	1800	1800	1800	600	performance	-	56
1606797223044761424 	0	1400	1400	1400	1400	1800	1800	1800	1800	600	performance	-	56
1606797224625917637	1	1400	1400	1400	1400	1800	1800	1800	1800	600	performance	-	56
1606797224687355970 	0	1400	1400	1400	1400	1800	1800	1800	1800	600	performance	-	56
1606797226263429880	1	1400	1400	1400	1400	1800	1800	1800	1800	600	performance	-	55
1606797226323313847 	0	1400	1400	1400	1400	1800	1800	1800	1800	600	performance	-	56
1606797227899338299	1	1400	1400	1400	1400	1800	1800	1800	1800	600	performance	-	56
1606797227959549098 	0	1400	1400	1400	1400	1800	1800	1800	1800	600	performance	-	56
1606797229536410544	1	1400	1400	1400	1400	1800	1800	1800	1800	600	performance	-	55
1606797229596161429 	0	1400	1400	1400	1400	1800	1800	1800	1800	600	performance	-	56
1606797231171868840	1	1400	1400	1400	1400	1800	1800	1800	1800	600	performance	-	55
1606797231232156597 	0	1400	1400	1400	1400	1800	1800	1800	1800	600	performance	-	56
1606797232808559462	1	1400	1400	1400	1400	1800	1800	1800	1800	600	performance	-	54
1606797232868622095 	0	1400	1400	1400	1400	1800	1800	1800	1800	600	performance	-	55
1606797234444689087	1	1400	1400	1400	1400	1800	1800	1800	1800	600	performance	-	54
1606797234505591089 	0	1400	1400	1400	1400	1800	1800	1800	1800	600	performance	-	55
1606797236081687039	1	1400	1400	1400	1400	1800	1800	1800	1800	600	performance	-	54
1606797236142120211 	0	1400	1400	1400	1400	1800	1800	1800	1800	600	performance	-	55
1606797237718070828	1	1400	1400	1400	1400	1800	1800	1800	1800	600	performance	-	54
1606797237778090461 	0	1400	1400	1400	1400	1800	1800	1800	1800	600	performance	-	55
1606797239353923954	1	1400	1400	1400	1400	1800	1800	1800	1800	600	performance	-	54
1606797239414689457 	0	1400	1400	1400	1400	1800	1800	1800	1800	600	performance	-	54
1606797240992115773	1	1400	1400	1400	1400	1800	1800	1800	1800	600	performance	-	54
1606797241053207941 	0	1400	1400	1400	1400	1800	1800	1800	1800	600	performance	-	54
