timestamp	VIRTUAL_SCALING	CPU0_F	CPU1_F	CPU2_F	CPU3_F	CPU4_F	CPU5_F	GPU_FREQ	CPU_GOVERNOR	EMC_F	TEMP0	TEMP1	TEMP2	TEMP3	TEMP4	TEMP5	TEMP6	TEMP7
1592953046824788035	1	1420	345	345	1420	1420	1420	114750000	performance	1866	30	30	28	30	27	26	100	30
1592953046870661714 	0	1375	345	345	1375	1420	1373	114750000	performance	1866	30	30	28	30	27	26	100	30
1592953048422717992	1	1420	345	345	1420	1420	1420	114750000	performance	1866	30	30	29	30	27	26	100	29
1592953048464146568 	0	1420	1569	1569	1420	1421	1420	114750000	performance	1866	30	30	28	30	27	26	100	29
1592953050017197602	1	1420	345	345	1420	1420	1420	114750000	performance	1866	30	30	29	30	27	26	100	29
1592953050094801011 	0	1420	1570	1568	1420	1421	1421	114750000	performance	1866	30	30	29	30	27	26	100	29
1592953051647175882	1	1420	345	345	1420	1420	1420	114750000	performance	1866	30	30	28	30	27	26	100	29
1592953051689074028 	0	1419	1576	1571	1421	1420	1420	114750000	performance	1866	30	30	28	30	27	26	100	29
1592953053240982338	1	1420	345	345	1420	1420	1420	114750000	performance	1866	30	30	28	30	27	26	100	29
1592953053282349058 	0	1421	1569	1576	1420	1420	1419	114750000	performance	1866	31	31	28	31	27	26	100	29
1592953054834329144	1	1420	345	345	1420	1420	1420	114750000	performance	1866	30	30	28	30	27	26	100	29
1592953054876120922 	0	1419	1570	1573	1420	1420	1420	114750000	performance	1866	31	31	28	31	27	26	100	29
1592953056427770351	1	1420	345	345	1420	1420	1420	114750000	performance	1866	31	30	29	30	27	26	100	29
1592953056469258607 	0	1419	1572	1570	1420	1419	1420	114750000	performance	1866	30	30	29	31	27	26	100	29
1592953058021558406	1	1420	345	345	1420	1420	1420	114750000	performance	1866	30	30	29	30	27	26	100	30
1592953058062847206 	0	1420	1571	1573	1419	1420	1421	114750000	performance	1866	30	30	29	30	27	26	100	30
1592953059614172058	1	1420	345	345	1420	1420	1420	114750000	performance	1866	30	30	28	30	27	26	100	29
1592953059655434842 	0	1420	1579	1573	1420	1421	1420	114750000	performance	1866	31	31	29	31	27	26	100	29
1592953061208075634	1	1420	345	345	1420	1420	1420	114750000	performance	1866	30	30	28	30	27	26	100	30
1592953061249891348 	0	1420	1570	1570	1420	1419	1420	114750000	performance	1866	30	30	29	30	27	26	100	30
1592953062802231755	1	1420	345	345	1420	1420	1420	114750000	performance	1866	31	31	29	31	27	26	100	30
1592953062844757519 	0	1422	1574	1573	1421	1420	1420	114750000	performance	1866	31	31	28	31	27	26	100	30
1592953064396874982	1	1420	345	345	1420	1420	1420	114750000	performance	1866	30	30	29	30	27	26	100	29
1592953064438233030 	0	1420	1573	1571	1421	1420	1421	114750000	performance	1866	30	30	29	30	27	26	100	29
1592953065990363004	1	1420	345	345	1420	1420	1420	114750000	performance	1866	31	31	29	31	27	26	100	29
1592953066032009502 	0	1420	1574	1567	1421	1421	1421	114750000	performance	1866	31	31	28	31	27	26	100	29
1592953067583729683	1	1420	345	345	1420	1420	1420	114750000	performance	1866	31	31	29	31	27	26	100	29
1592953067625474260 	0	1419	1574	1571	1421	1420	1420	114750000	performance	1866	31	31	28	31	27	26	100	29
1592953069177571147	1	1420	345	345	1420	1420	1420	114750000	performance	1866	30	30	29	31	27	26	100	29
1592953069219480333 	0	1420	1569	1574	1419	1420	1420	114750000	performance	1866	31	31	28	31	27	26	100	29
1592953070772398182	1	1420	345	345	1420	1420	1420	114750000	performance	1866	30	30	28	30	27	26	100	29
1592953070814114279 	0	1420	1571	1570	1420	1420	1419	114750000	performance	1866	30	30	28	30	27	26	100	29
1592953072366288254	1	1420	345	345	1420	1420	1420	114750000	performance	1866	30	30	28	30	27	26	100	29
1592953072407760862 	0	1420	1570	1568	1421	1420	1419	114750000	performance	1866	31	31	28	31	27	26	100	29
1592953073959694996	1	1420	345	345	1420	1420	1420	114750000	performance	1866	30	30	29	30	27	26	100	29
1592953074002667226 	0	1421	1568	1570	1421	1421	1420	114750000	performance	1866	30	30	29	30	27	26	100	29
1592953075554634607	1	1420	345	345	1420	1420	1420	114750000	performance	1866	31	31	28	31	27	26	100	30
1592953075596415441 	0	1420	1569	1568	1420	1421	1419	114750000	performance	1866	30	30	29	30	27	26	100	30
1592953077148545448	1	1420	345	345	1420	1420	1420	114750000	performance	1866	30	30	28	30	27	26	100	30
1592953077190010504 	0	1421	1574	1575	1420	1421	1421	114750000	performance	1866	30	30	29	30	27	26	100	30
1592953078741883902	1	1420	345	345	1420	1420	1420	114750000	performance	1866	31	31	29	31	27	26	100	30
1592953078784054177 	0	1420	1569	1576	1421	1420	1421	114750000	performance	1866	30	30	29	30	27	26	100	30
1592953080335733942	1	1420	345	345	1420	1420	1420	114750000	performance	1866	30	31	29	31	27	26	100	30
1592953080377245207 	0	1421	1575	1573	1420	1420	1419	114750000	performance	1866	31	31	29	31	27	26	100	30
1592953081929173804	1	1420	345	345	1420	1420	1420	114750000	performance	1866	31	31	29	31	27	26	100	29
1592953081971005358 	0	1421	1571	1572	1420	1420	1420	114750000	performance	1866	30	30	29	30	27	26	100	29
1592953083523273669	1	1420	345	345	1420	1420	1420	114750000	performance	1866	31	31	29	31	27	26	100	30
1592953083565089511 	0	1420	1568	1573	1420	1421	1420	114750000	performance	1866	31	31	29	31	27	26	100	30
1592953085117633375	1	1420	345	345	1420	1420	1420	114750000	performance	1866	31	31	29	31	27	26	100	30
1592953085159658945 	0	1421	1572	1575	1420	1420	1421	114750000	performance	1866	31	31	29	31	27	26	100	30
1592953086712098776	1	1420	345	345	1420	1420	1420	114750000	performance	1866	31	31	29	31	27	26	100	30
1592953086753666201 	0	1421	1571	1566	1419	1421	1419	114750000	performance	1866	31	31	29	31	27	26	100	30
1592953088306862643	1	1420	345	345	1420	1420	1420	114750000	performance	1866	31	31	29	31	27	26	100	30
1592953088348871798 	0	1420	1573	1575	1422	1420	1420	114750000	performance	1866	31	31	29	31	27	26	100	30
1592953089902963506	1	1420	345	345	1420	1420	1420	114750000	performance	1866	30	30	29	30	27	26	100	30
1592953089979163103 	0	1420	1572	1573	1420	1421	1420	114750000	performance	1866	30	30	29	31	27	26	100	30
1592953091541199796	1	1420	345	345	1420	1420	1420	114750000	performance	1866	31	31	29	31	27	26	100	29
1592953091582956598 	0	1420	1575	1574	1420	1420	1420	114750000	performance	1866	31	31	29	31	27	26	100	29
1592953093135300332	1	1420	345	345	1420	1420	1420	114750000	performance	1866	30	30	29	31	27	26	100	30
1592953093176781101 	0	1420	1571	1571	1421	1420	1420	114750000	performance	1866	31	31	29	31	27	26	100	30
1592953094729328869	1	1420	345	345	1420	1420	1420	114750000	performance	1866	31	31	29	31	27	26	100	30
1592953094770649989 	0	1421	1571	1567	1421	1421	1421	114750000	performance	1866	31	31	29	31	27	26	100	30
1592953096323558622	1	1420	345	345	1420	1420	1420	114750000	performance	1866	31	31	29	31	27	26	100	30
1592953096365219551 	0	1420	1572	1574	1420	1420	1421	114750000	performance	1866	31	31	29	31	27	26	100	30
1592953097921782564	1	1420	345	345	1420	1420	1420	114750000	performance	1866	31	31	28	31	27	26	100	29
1592953097963923302 	0	1420	1569	1575	1419	1421	1420	114750000	performance	1866	31	31	29	31	27	26	100	29
