TimeStamp,Total Power,CPU Power,GPU Power
1592953260468688,4.114,1.143,0.152
1592953260970785,3.353,0.533,0.152
1592953261472670,3.811,0.99,0.152
1592953261977338,4.076,1.448,0.152
1592953262479244,4.19,1.676,0.152
1592953262981304,4.228,1.676,0.152
1592953263483089,4.19,1.676,0.152
1592953263984852,4.419,1.676,0.152
1592953264487279,4.381,1.676,0.152
1592953264989799,4.304,1.676,0.152
1592953265491643,4.19,1.676,0.152
1592953265994753,4.228,1.676,0.152
1592953266496739,4.152,1.6,0.152
1592953267001084,4.228,1.676,0.152
1592953267503041,4.19,1.6,0.152
1592953268004876,4.19,1.676,0.152
1592953268506772,4.19,1.676,0.152
1592953269008631,4.381,1.676,0.152
1592953269510552,4.495,1.676,0.152
1592953270012412,4.266,1.676,0.152
1592953270514301,4.304,1.676,0.152
1592953271016266,4.533,1.676,0.152
1592953271518000,4.647,1.676,0.152
1592953272022332,4.609,1.6,0.152
1592953272524222,4.609,1.676,0.152
1592953273026146,4.381,1.676,0.152
1592953273527848,4.266,1.676,0.152
1592953274035804,4.342,1.676,0.152
1592953274537695,4.342,1.753,0.152
1592953275039568,4.457,1.752,0.152
1592953275541323,4.381,1.676,0.152
1592953276043043,4.228,1.676,0.152
1592953276545165,4.228,1.676,0.152
1592953277049664,4.266,1.753,0.152
1592953277551875,4.228,1.676,0.152
1592953278053727,4.228,1.676,0.152
1592953278555785,4.228,1.676,0.152
1592953279057560,4.266,1.676,0.152
1592953279559416,4.304,1.676,0.152
1592953280061146,4.342,1.676,0.152
1592953280563025,4.495,1.676,0.152
1592953281065249,4.304,1.676,0.152
1592953281567046,4.19,1.6,0.152
1592953282072332,4.19,1.6,0.152
1592953282574201,4.342,1.676,0.152
1592953283076071,4.571,1.676,0.152
1592953283577822,4.609,1.676,0.152
1592953284079660,4.609,1.676,0.152
1592953284581586,4.609,1.676,0.152
1592953285088647,4.609,1.676,0.152
1592953285590596,4.495,1.676,0.152
1592953286092591,4.266,1.676,0.152
1592953286594496,4.266,1.676,0.152
1592953287099096,4.19,1.676,0.152
1592953287600919,4.19,1.676,0.152
1592953288102706,4.304,1.676,0.152
1592953288604500,4.266,1.676,0.152
1592953289106297,4.228,1.676,0.152
1592953289608148,4.19,1.676,0.152
1592953290110040,4.19,1.676,0.152
1592953290612134,4.228,1.676,0.152
1592953291113931,4.228,1.676,0.152
1592953291615814,4.152,1.676,0.152
1592953292120383,4.228,1.676,0.152
1592953292622315,4.228,1.676,0.152
1592953293124125,4.19,1.676,0.152
1592953293625736,4.304,1.676,0.152
1592953294127747,4.609,1.676,0.152
1592953294629559,4.647,1.676,0.152
1592953295131772,4.571,1.676,0.152
1592953295633432,4.533,1.6,0.152
1592953296135278,4.571,1.676,0.152
1592953296637189,4.495,1.676,0.152
1592953297141699,4.266,1.676,0.152
1592953297643446,4.19,1.676,0.152
1592953298145508,4.228,1.676,0.152
1592953298647292,4.228,1.676,0.152
1592953299149112,4.19,1.676,0.152
1592953299650881,4.19,1.676,0.152
1592953300152799,4.266,1.753,0.152
1592953300654653,4.228,1.676,0.152
1592953301156534,4.19,1.676,0.152
1592953301658459,4.152,1.6,0.152
1592953302162990,4.266,1.676,0.152
1592953302664984,4.19,1.676,0.152
1592953303166776,4.152,1.676,0.152
1592953303668651,4.19,1.676,0.152
