timestamp	VIRTUAL_SCALING	CPU0_F	CPU1_F	CPU2_F	CPU3_F	CPU4_F	CPU5_F	GPU_FREQ	CPU_GOVERNOR	EMC_F	TEMP0	TEMP1	TEMP2	TEMP3	TEMP4	TEMP5	TEMP6	TEMP7
1592837068459976195	1	345	1574	1574	345	345	345	114750000	performance	1866	30	30	28	30	27	26	100	29
1592837068726581926 	0	345	1581	1579	345	345	345	114750000	performance	1866	30	30	28	30	27	26	100	29
1592837070761362264	1	345	1574	1574	345	345	345	114750000	performance	1866	30	30	28	30	27	26	100	29
1592837071197415324 	0	345	1580	1575	345	345	345	114750000	performance	1866	30	30	29	30	27	26	100	29
1592837073233865206	1	345	1574	1574	345	345	345	114750000	performance	1866	30	30	29	30	27	26	100	29
1592837073685643284 	0	345	1568	1569	345	345	345	114750000	performance	1866	30	30	29	30	27	26	100	29
1592837075694412231	1	345	1574	1574	345	345	345	114750000	performance	1866	30	31	29	31	27	26	100	29
1592837076102898055 	0	345	1565	1569	345	345	345	114750000	performance	1866	31	31	29	31	27	26	100	30
1592837078109461697	1	345	1574	1574	345	345	345	114750000	performance	1866	30	30	29	31	27	26	100	30
1592837078530964486 	0	345	1570	1570	345	345	345	114750000	performance	1866	31	31	29	31	27	26	100	29
1592837080569889956	1	345	1574	1574	345	345	345	114750000	performance	1866	31	31	29	31	27	26	100	30
1592837081001587438 	0	345	1578	1576	345	345	345	114750000	performance	1866	30	31	29	30	27	26	100	30
1592837083025745078	1	345	1574	1574	345	345	345	114750000	performance	1866	31	31	29	31	27	27	100	29
1592837083449450407 	0	345	1570	1570	345	345	345	114750000	performance	1866	31	31	29	31	27	27	100	29
1592837085481638992	1	345	1574	1574	345	345	345	114750000	performance	1866	31	31	29	31	27	27	100	30
1592837085925530171 	0	345	1565	1564	345	345	345	114750000	performance	1866	31	31	29	31	27	27	100	30
1592837087949853185	1	345	1574	1574	345	345	345	114750000	performance	1866	31	31	29	31	28	27	100	30
1592837088417370901 	0	345	1569	1566	345	345	345	114750000	performance	1866	31	31	29	31	28	26	100	30
1592837090458291538	1	345	1574	1574	345	345	345	114750000	performance	1866	31	31	29	31	28	27	100	30
1592837090858999169 	0	345	1579	1566	345	345	345	114750000	performance	1866	31	31	29	31	28	27	100	30
1592837092897911063	1	345	1574	1574	345	345	345	114750000	performance	1866	31	31	29	31	28	27	100	30
1592837093301479403 	0	345	1567	1579	345	345	345	114750000	performance	1866	31	31	29	31	28	27	100	30
1592837095318110843	1	345	1574	1574	345	345	345	114750000	performance	1866	31	31	29	31	28	27	100	30
1592837095713770150 	0	345	1565	1567	345	345	345	114750000	performance	1866	31	31	29	31	28	27	100	30
1592837097735818069	1	345	1574	1574	345	345	345	114750000	performance	1866	31	31	29	31	28	27	100	30
1592837098149748272 	0	345	1567	1570	345	345	345	114750000	performance	1866	31	31	29	31	28	27	100	30
1592837100183282244	1	345	1574	1574	345	345	345	114750000	performance	1866	31	31	29	31	28	27	100	30
1592837100625831178 	0	345	1578	1573	345	345	346	114750000	performance	1866	31	31	29	31	28	27	100	30
1592837102654234868	1	345	1574	1574	345	345	345	114750000	performance	1866	31	31	29	31	28	27	100	30
1592837103081581288 	0	345	1569	1580	345	345	345	114750000	performance	1866	31	31	29	31	28	27	100	30
1592837105109530207	1	345	1574	1574	345	345	345	114750000	performance	1866	31	31	29	31	28	27	100	30
1592837105529586843 	0	345	1584	1580	345	345	345	114750000	performance	1866	31	31	29	31	28	27	100	30
1592837107549780123	1	345	1574	1574	345	345	345	114750000	performance	1866	31	31	29	31	28	27	100	30
1592837107989792765 	0	345	1573	1574	345	345	345	114750000	performance	1866	31	31	29	31	28	27	100	30
1592837109993769573	1	345	1574	1574	345	345	345	114750000	performance	1866	31	31	29	31	28	27	100	30
1592837110437531204 	0	345	1581	1581	345	345	345	114750000	performance	1866	31	31	29	31	28	27	100	30
1592837112450431159	1	345	1574	1574	345	345	345	114750000	performance	1866	31	31	29	31	28	27	100	30
1592837112845570912 	0	345	1545	1567	345	345	345	114750000	performance	1866	31	31	29	31	28	27	100	30
1592837114863152597	1	345	1574	1574	345	345	345	114750000	performance	1866	31	31	29	31	28	27	100	30
1592837115265765865 	0	346	1580	1581	345	345	345	114750000	performance	1866	31	31	29	31	28	27	100	30
1592837117293781432	1	345	1574	1574	345	345	345	114750000	performance	1866	31	31	29	31	28	27	100	30
1592837117693428221 	0	345	1574	1574	345	346	345	114750000	performance	1866	31	31	29	31	28	27	100	30
1592837119734036933	1	345	1574	1574	345	345	345	114750000	performance	1866	31	31	29	31	28	27	100	30
1592837120189597539 	0	345	1574	1580	345	345	345	114750000	performance	1866	31	31	29	31	28	27	100	30
1592837122257629122	1	345	1574	1574	345	345	345	114750000	performance	1866	31	31	29	31	28	27	100	30
1592837122705691946 	0	345	1581	1578	345	345	345	114750000	performance	1866	31	31	29	31	28	27	100	30
1592837124719045914	1	345	1574	1574	345	345	345	114750000	performance	1866	31	31	29	31	28	27	100	30
1592837125157435910 	0	345	1580	1575	345	345	345	114750000	performance	1866	31	31	29	31	28	27	100	30
1592837127173656136	1	345	1574	1574	345	345	345	114750000	performance	1866	31	31	29	31	28	27	100	30
1592837127617764107 	0	345	1579	1578	345	345	345	114750000	performance	1866	31	31	29	31	28	27	100	30
