timestamp	VIRTUAL_SCALING	CPU0_F	CPU1_F	CPU2_F	CPU3_F	CPU4_F	CPU5_F	GPU_FREQ	CPU_GOVERNOR	EMC_F	TEMP0	TEMP1	TEMP2	TEMP3	TEMP4	TEMP5	TEMP6	TEMP7
1593989584816287343	1	1881	345	345	1881	1881	1881	114750000	performance	1866	28	28	26	28	24	23	100	27
1593989584868523037 	0	1884	345	345	1881	1880	1875	114750000	performance	1866	28	28	26	28	24	23	100	27
1593989586529429476	1	1881	345	345	1881	1881	1881	114750000	performance	1866	28	28	26	28	24	23	100	26
1593989586596734378 	0	1881	345	345	1842	1843	1842	114750000	performance	1866	27	27	26	27	24	23	100	26
1593989588222770024	1	1881	345	345	1881	1881	1881	114750000	performance	1866	28	28	26	28	24	23	100	27
1593989588331150427 	0	1893	345	345	1881	1885	1887	114750000	performance	1866	28	28	26	28	24	23	100	27
1593989589958254495	1	1881	345	345	1881	1881	1881	114750000	performance	1866	27	27	26	27	24	23	100	26
1593989590039834103 	0	1844	345	345	1881	1881	1881	114750000	performance	1866	27	27	26	27	24	23	100	26
1593989591663164005	1	1881	345	345	1881	1881	1881	114750000	performance	1866	28	28	26	28	24	23	100	27
1593989591735347142 	0	1890	345	345	1887	1888	1887	114750000	performance	1866	28	28	26	28	24	23	100	27
1593989593410424768	1	1881	345	345	1881	1881	1881	114750000	performance	1866	28	28	26	28	24	23	100	27
1593989593519064148 	0	1898	345	345	1881	1882	1845	114750000	performance	1866	27	27	26	27	24	23	100	27
1593989595181123427	1	1881	345	345	1881	1881	1881	114750000	performance	1866	28	28	26	28	24	23	100	27
1593989595262185048 	0	1881	345	345	1843	1843	1878	114750000	performance	1866	28	28	26	28	24	23	100	27
1593989596898157647	1	1881	345	345	1881	1881	1881	114750000	performance	1866	28	28	26	28	24	23	100	26
1593989596965679542 	0	1895	345	345	1891	1883	1892	114750000	performance	1866	28	28	26	28	24	23	100	26
1593989598648123578	1	1881	345	345	1881	1881	1881	114750000	performance	1866	27	27	26	27	24	23	100	27
1593989598731756574 	0	1843	345	345	1881	1881	1843	114750000	performance	1866	27	27	26	27	24	23	100	26
1593989600352195227	1	1881	345	345	1881	1881	1881	114750000	performance	1866	28	28	26	28	24	23	100	27
1593989600476524874 	0	1842	345	345	1881	1843	1842	114750000	performance	1866	27	27	26	27	24	23	100	27
1593989602094939836	1	1881	345	345	1881	1881	1881	114750000	performance	1866	27	27	26	27	24	23	100	27
1593989602208662286 	0	1843	345	345	1843	1881	1881	114750000	performance	1866	27	27	26	27	24	23	100	26
1593989603849209376	1	1881	345	345	1881	1881	1881	114750000	performance	1866	27	27	26	27	24	23	100	26
1593989603947841306 	0	1881	345	345	1845	1844	1843	114750000	performance	1866	28	28	26	28	24	24	100	26
1593989605593398537	1	1881	345	345	1881	1881	1881	114750000	performance	1866	27	27	26	27	24	23	100	27
1593989605678582070 	0	1886	345	345	1895	1896	1897	114750000	performance	1866	28	28	26	28	24	23	100	27
1593989607280935947	1	1881	345	345	1881	1881	1881	114750000	performance	1866	28	28	26	28	24	23	100	27
1593989607371101492 	0	1842	345	345	1844	1882	1881	114750000	performance	1866	28	28	26	28	24	23	100	27
1593989608938700256	1	1881	345	345	1881	1881	1881	114750000	performance	1866	28	28	26	28	24	23	100	27
1593989609005927237 	0	1893	345	345	1886	1890	1886	114750000	performance	1866	28	28	26	28	24	23	100	27
1593989610592641919	1	1881	345	345	1881	1881	1881	114750000	performance	1866	27	27	26	27	24	23	100	26
1593989610693374598 	0	1843	345	345	1881	1881	1845	114750000	performance	1866	27	27	26	27	24	23	100	26
1593989612301994367	1	1881	345	345	1881	1881	1881	114750000	performance	1866	28	28	26	27	24	23	100	26
1593989612376367662 	0	1892	345	345	1893	1892	1892	114750000	performance	1866	27	27	26	27	24	23	100	26
1593989613965468534	1	1881	345	345	1881	1881	1881	114750000	performance	1866	27	27	26	27	24	23	100	26
1593989614055953537 	0	1878	345	345	1889	1891	1894	114750000	performance	1866	28	28	26	28	24	23	100	26
1593989615655595206	1	1881	345	345	1881	1881	1881	114750000	performance	1866	28	28	26	28	24	23	100	27
1593989615716800424 	0	1882	345	345	1880	1878	1876	114750000	performance	1866	28	28	26	28	24	23	100	27
1593989617326814570	1	1881	345	345	1881	1881	1881	114750000	performance	1866	27	28	26	28	24	23	100	26
1593989617389266547 	0	1896	345	345	1894	1899	1894	114750000	performance	1866	27	27	26	27	24	23	100	26
1593989619011037784	1	1881	345	345	1881	1881	1881	114750000	performance	1866	28	28	26	28	24	23	100	27
1593989619098856212 	0	1844	345	345	1880	1880	1843	114750000	performance	1866	27	27	26	27	24	23	100	27
1593989620713955923	1	1881	345	345	1881	1881	1881	114750000	performance	1866	28	28	26	28	24	23	100	26
1593989620822228869 	0	1890	345	345	1899	1893	1895	114750000	performance	1866	27	27	26	27	24	23	100	26
1593989622549734510	1	1881	345	345	1881	1881	1881	114750000	performance	1866	27	27	26	27	24	23	100	26
1593989622602396511 	0	1883	345	345	1880	1879	1879	114750000	performance	1866	27	27	26	27	24	23	100	26
1593989624232745205	1	1881	345	345	1881	1881	1881	114750000	performance	1866	27	27	26	27	24	23	100	26
1593989624320165679 	0	1880	345	345	1880	1881	1877	114750000	performance	1866	28	27	26	27	24	23	100	26
1593989625916177343	1	1881	345	345	1881	1881	1881	114750000	performance	1866	27	27	26	27	24	23	100	26
1593989625976322747 	0	1897	345	345	1894	1892	1887	114750000	performance	1866	27	27	26	27	24	23	100	26
1593989627591169688	1	1881	345	345	1881	1881	1881	114750000	performance	1866	28	28	26	28	24	23	100	26
1593989627672724080 	0	1879	345	345	1876	1877	1877	114750000	performance	1866	27	27	26	27	24	23	100	26
1593989629367138330	1	1881	345	345	1881	1881	1881	114750000	performance	1866	28	28	26	28	24	23	100	26
1593989629505938237 	0	1843	345	345	1843	1843	1844	114750000	performance	1866	28	28	26	28	24	23	100	26
1593989631126718844	1	1881	345	345	1881	1881	1881	114750000	performance	1866	28	28	26	28	24	23	100	27
1593989631177446625 	0	1890	345	345	1893	1891	1885	114750000	performance	1866	28	28	26	28	24	23	100	27
1593989632825277853	1	1881	345	345	1881	1881	1881	114750000	performance	1866	28	28	26	28	24	23	100	27
1593989632920112034 	0	1896	345	345	1892	1893	1892	114750000	performance	1866	28	28	26	28	24	23	100	27
1593989634532809459	1	1881	345	345	1881	1881	1881	114750000	performance	1866	27	27	26	27	24	23	100	26
1593989634707785543 	0	1894	345	345	1877	1877	1882	114750000	performance	1866	27	27	26	27	24	23	100	26
1593989636309887802	1	1881	345	345	1881	1881	1881	114750000	performance	1866	27	27	26	27	24	23	100	26
1593989636385598704 	0	1843	345	345	1882	1881	1844	114750000	performance	1866	27	27	26	27	24	23	100	26
1593989637984604210	1	1881	345	345	1881	1881	1881	114750000	performance	1866	27	27	26	27	24	23	100	26
1593989638044219467 	0	1888	345	345	1890	1890	1891	114750000	performance	1866	27	28	26	28	24	23	100	26
1593989639710930420	1	1881	345	345	1881	1881	1881	114750000	performance	1866	28	28	26	28	24	23	100	27
1593989639794840057 	0	1880	345	345	1886	1885	1883	114750000	performance	1866	27	27	26	27	24	23	100	27
1593989641413264107	1	1881	345	345	1881	1881	1881	114750000	performance	1866	28	28	26	28	24	23	100	27
1593989641485225483 	0	1879	345	345	1881	1882	1881	114750000	performance	1866	28	28	26	28	24	23	100	27
1593989643125012985	1	1881	345	345	1881	1881	1881	114750000	performance	1866	27	28	26	28	24	23	100	27
1593989643165299842 	0	1879	345	345	1878	1876	1876	114750000	performance	1866	28	28	26	28	24	23	100	27
1593989644805233552	1	1881	345	345	1881	1881	1881	114750000	performance	1866	28	28	26	28	24	23	100	27
1593989644902427618 	0	1889	345	345	1894	1888	1886	114750000	performance	1866	28	28	26	28	24	23	100	27
1593989646547300237	1	1881	345	345	1881	1881	1881	114750000	performance	1866	28	28	26	28	24	23	100	27
1593989646624247274 	0	1888	345	345	1880	1886	1884	114750000	performance	1866	28	28	26	28	24	23	100	27
1593989648234741966	1	1881	345	345	1881	1881	1881	114750000	performance	1866	28	28	26	28	24	23	100	26
1593989648287621536 	0	1886	345	345	1890	1893	1888	114750000	performance	1866	28	28	26	28	24	23	100	26
1593989649998965420	1	1881	345	345	1881	1881	1881	114750000	performance	1866	28	28	26	28	24	23	100	26
1593989650110808659 	0	1843	345	345	1881	1882	1842	114750000	performance	1866	28	28	26	28	24	23	100	26
1593989651723406307	1	1881	345	345	1881	1881	1881	114750000	performance	1866	27	27	26	27	24	23	100	26
1593989651815218038 	0	1881	345	345	1843	1843	1842	114750000	performance	1866	28	28	26	28	24	23	100	26
1593989653410996709	1	1881	345	345	1881	1881	1881	114750000	performance	1866	27	27	26	28	24	23	100	27
1593989653503729533 	0	1879	345	345	1878	1879	1877	114750000	performance	1866	27	27	26	27	24	23	100	27
1593989655135486652	1	1881	345	345	1881	1881	1881	114750000	performance	1866	27	27	26	27	24	23	100	26
1593989655223410137 	0	1842	345	345	1842	1881	1880	114750000	performance	1866	28	28	26	28	24	23	100	26
1593989656832090802	1	1881	345	345	1881	1881	1881	114750000	performance	1866	28	28	26	28	24	23	100	27
1593989656891446090 	0	1844	345	345	1880	1882	1881	114750000	performance	1866	28	28	26	28	24	23	100	27
1593989658506254439	1	1881	345	345	1881	1881	1881	114750000	performance	1866	28	28	26	28	24	23	100	27
1593989658561230565 	0	1885	345	345	1883	1882	1884	114750000	performance	1866	28	28	26	28	24	23	100	27
1593989660183390156	1	1881	345	345	1881	1881	1881	114750000	performance	1866	28	28	26	28	24	23	100	27
1593989660323975737 	0	1892	345	345	1889	1893	1891	114750000	performance	1866	28	28	26	28	24	23	100	27
1593989661937029420	1	1881	345	345	1881	1881	1881	114750000	performance	1866	27	27	26	27	24	23	100	27
1593989662007447555 	0	1881	345	345	1880	1880	1881	114750000	performance	1866	27	27	26	27	24	23	100	27
1593989663682065274	1	1881	345	345	1881	1881	1881	114750000	performance	1866	28	28	26	28	24	23	100	27
1593989663800189702 	0	1880	345	345	1882	1883	1884	114750000	performance	1866	28	28	26	28	24	23	100	27
1593989665427745228	1	1881	345	345	1881	1881	1881	114750000	performance	1866	28	28	26	28	24	23	100	27
1593989665479711513 	0	1890	345	345	1887	1890	1888	114750000	performance	1866	27	27	26	27	24	23	100	27
1593989667103773451	1	1881	345	345	1881	1881	1881	114750000	performance	1866	28	28	26	28	24	23	100	27
1593989667171643508 	0	1882	345	345	1887	1882	1884	114750000	performance	1866	28	28	26	28	24	23	100	27
1593989668753715924	1	1881	345	345	1881	1881	1881	114750000	performance	1866	27	27	26	27	24	23	100	27
1593989668816292094 	0	1889	345	345	1888	1889	1889	114750000	performance	1866	27	27	26	28	24	23	100	27
1593989670436103095	1	1881	345	345	1881	1881	1881	114750000	performance	1866	28	28	26	28	24	23	100	27
1593989670504023424 	0	1843	345	345	1843	1843	1842	114750000	performance	1866	28	28	26	28	24	23	100	27
1593989672168314043	1	1881	345	345	1881	1881	1881	114750000	performance	1866	28	28	26	28	24	23	100	27
1593989672235005245 	0	1890	345	345	1893	1892	1891	114750000	performance	1866	28	28	26	28	24	23	100	27
1593989673862172194	1	1881	345	345	1881	1881	1881	114750000	performance	1866	28	28	26	28	24	23	100	27
1593989673919358156 	0	1886	345	345	1889	1882	1881	114750000	performance	1866	28	28	26	28	24	23	100	27
1593989675565375454	1	1881	345	345	1881	1881	1881	114750000	performance	1866	27	27	26	27	24	23	100	27
1593989675717250221 	0	1886	345	345	1881	1882	1883	114750000	performance	1866	28	28	26	28	24	23	100	27
1593989677307468379	1	1881	345	345	1881	1881	1881	114750000	performance	1866	28	28	26	28	24	23	100	26
1593989677374927329 	0	1883	345	345	1890	1886	1885	114750000	performance	1866	28	28	26	28	24	23	100	26
1593989679046341958	1	1881	345	345	1881	1881	1881	114750000	performance	1866	28	28	26	27	24	23	100	26
1593989679143593112 	0	1884	345	345	1882	1885	1885	114750000	performance	1866	28	28	26	28	24	23	100	26
1593989680776082556	1	1881	345	345	1881	1881	1881	114750000	performance	1866	28	28	26	28	24	23	100	26
1593989680930155991 	0	1881	345	345	1888	1884	1883	114750000	performance	1866	28	28	26	28	24	23	100	26
1593989682584310423	1	1881	345	345	1881	1881	1881	114750000	performance	1866	28	28	26	28	24	23	100	27
1593989682819879242 	0	1882	345	345	1876	1879	1881	114750000	performance	1866	28	28	26	28	24	23	100	27
1593989684523826923	1	1881	345	345	1881	1881	1881	114750000	performance	1866	28	28	26	28	24	23	100	27
1593989684569525587 	0	1873	345	345	1876	1877	1881	114750000	performance	1866	28	28	26	28	24	23	100	27
1593989686201597780	1	1881	345	345	1881	1881	1881	114750000	performance	1866	28	28	26	28	24	23	100	27
1593989686302333883 	0	1889	345	345	1883	1888	1888	114750000	performance	1866	28	28	26	28	24	23	100	27
1593989687893656656	1	1881	345	345	1881	1881	1881	114750000	performance	1866	28	28	26	28	24	23	100	27
1593989687977896983 	0	1882	345	345	1878	1879	1879	114750000	performance	1866	28	28	26	28	24	23	100	27
1593989689575339919	1	1881	345	345	1881	1881	1881	114750000	performance	1866	28	28	26	28	24	23	100	27
1593989689671636124 	0	1894	345	345	1890	1890	1888	114750000	performance	1866	28	28	26	28	24	23	100	27
1593989691361131593	1	1881	345	345	1881	1881	1881	114750000	performance	1866	28	28	26	28	24	23	100	27
1593989691469382652 	0	1878	345	345	1886	1888	1883	114750000	performance	1866	28	28	26	28	24	23	100	27
1593989693080449091	1	1881	345	345	1881	1881	1881	114750000	performance	1866	28	28	26	28	24	23	100	27
1593989693151581054 	0	1880	345	345	1843	1842	1843	114750000	performance	1866	28	28	26	28	24	23	100	27
1593989694751453861	1	1881	345	345	1881	1881	1881	114750000	performance	1866	28	28	26	28	24	23	100	27
1593989694839630755 	0	1844	345	345	1881	1882	1843	114750000	performance	1866	28	28	26	27	24	23	100	27
1593989696451521007	1	1881	345	345	1881	1881	1881	114750000	performance	1866	28	28	26	28	24	23	100	27
1593989696534333454 	0	1878	345	345	1878	1882	1880	114750000	performance	1866	27	27	26	28	24	23	100	27
1593989698139959030	1	1881	345	345	1881	1881	1881	114750000	performance	1866	27	27	26	27	24	23	100	27
1593989698268390269 	0	1894	345	345	1896	1887	1888	114750000	performance	1866	28	28	26	28	24	23	100	27
1593989699933485725	1	1881	345	345	1881	1881	1881	114750000	performance	1866	28	28	26	28	24	23	100	26
1593989700168120010 	0	1844	345	345	1887	1891	1879	114750000	performance	1866	28	28	26	28	24	23	100	26
1593989701744758986	1	1881	345	345	1881	1881	1881	114750000	performance	1866	28	28	26	28	24	23	100	26
1593989701902627899 	0	1884	345	345	1882	1885	1887	114750000	performance	1866	28	28	26	28	24	23	100	27
1593989703522140435	1	1881	345	345	1881	1881	1881	114750000	performance	1866	27	27	26	27	24	23	100	26
1593989703595793566 	0	1880	345	345	1881	1881	1882	114750000	performance	1866	28	28	26	28	24	23	100	26
1593989705216085466	1	1881	345	345	1881	1881	1881	114750000	performance	1866	27	27	26	27	24	23	100	26
1593989705280816881 	0	1845	345	345	1844	1843	1880	114750000	performance	1866	28	28	26	28	24	23	100	26
1593989706908687065	1	1881	345	345	1881	1881	1881	114750000	performance	1866	27	28	26	28	24	23	100	27
1593989706978807407 	0	1881	345	345	1883	1887	1883	114750000	performance	1866	28	28	26	28	24	23	100	27
1593989708637773131	1	1881	345	345	1881	1881	1881	114750000	performance	1866	28	28	26	28	24	23	100	27
1593989708764692521 	0	1881	345	345	1878	1879	1880	114750000	performance	1866	27	27	26	27	24	23	100	27
1593989710421482361	1	1881	345	345	1881	1881	1881	114750000	performance	1866	28	28	26	28	24	23	100	27
1593989710472602849 	0	1889	345	345	1884	1887	1886	114750000	performance	1866	27	27	26	28	24	23	100	27
1593989712106573389	1	1881	345	345	1881	1881	1881	114750000	performance	1866	27	27	26	27	24	23	100	27
1593989712150980237 	0	1879	345	345	1880	1882	1881	114750000	performance	1866	27	27	26	27	24	23	100	27
1593989713719119164	1	1881	345	345	1881	1881	1881	114750000	performance	1866	28	28	26	28	24	23	100	27
1593989713794787154 	0	1882	345	345	1878	1881	1879	114750000	performance	1866	27	27	26	27	24	23	100	27
1593989715400661595	1	1881	345	345	1881	1881	1881	114750000	performance	1866	27	27	26	27	24	23	100	26
1593989715467458558 	0	1882	345	345	1876	1881	1878	114750000	performance	1866	27	27	26	27	24	23	100	26
1593989717059795673	1	1881	345	345	1881	1881	1881	114750000	performance	1866	27	27	26	27	24	23	100	27
1593989717162010376 	0	1883	345	345	1879	1878	1881	114750000	performance	1866	27	27	26	27	24	23	100	27
1593989718802256824	1	1881	345	345	1881	1881	1881	114750000	performance	1866	27	27	26	27	24	23	100	26
1593989718924675452 	0	1883	345	345	1882	1889	1884	114750000	performance	1866	28	28	26	28	24	23	100	26
1593989720501884096	1	1881	345	345	1881	1881	1881	114750000	performance	1866	28	28	26	28	24	23	100	26
1593989720599518741 	0	1880	345	345	1880	1879	1881	114750000	performance	1866	28	28	26	28	24	23	100	26
1593989722223200261	1	1881	345	345	1881	1881	1881	114750000	performance	1866	28	28	26	28	24	23	100	26
1593989722291646449 	0	1883	345	345	1880	1879	1879	114750000	performance	1866	27	27	26	27	24	23	100	26
1593989723963609464	1	1881	345	345	1881	1881	1881	114750000	performance	1866	27	27	26	27	24	23	100	26
1593989724040565269 	0	1880	345	345	1878	1878	1880	114750000	performance	1866	28	28	26	28	24	23	100	26
1593989725608160385	1	1881	345	345	1881	1881	1881	114750000	performance	1866	27	27	26	27	24	23	100	26
1593989725718303198 	0	1893	345	345	1894	1892	1895	114750000	performance	1866	28	28	26	28	24	23	100	26
1593989727336784209	1	1881	345	345	1881	1881	1881	114750000	performance	1866	28	28	26	28	24	23	100	26
1593989727407971372 	0	1881	345	345	1882	1885	1883	114750000	performance	1866	28	28	26	28	24	23	100	26
1593989728973345259	1	1881	345	345	1881	1881	1881	114750000	performance	1866	28	28	26	28	24	23	100	27
1593989729051588208 	0	1888	345	345	1883	1885	1885	114750000	performance	1866	28	28	26	28	24	23	100	27
1593989730664981765	1	1881	345	345	1881	1881	1881	114750000	performance	1866	28	28	26	28	24	23	100	27
1593989730739349107 	0	1878	345	345	1882	1880	1880	114750000	performance	1866	28	28	26	28	24	23	100	27
1593989732434161951	1	1881	345	345	1881	1881	1881	114750000	performance	1866	28	28	26	27	24	23	100	27
1593989732551980968 	0	1842	345	345	1881	1881	1842	114750000	performance	1866	28	28	26	28	24	23	100	27
1593989734237540926	1	1881	345	345	1881	1881	1881	114750000	performance	1866	28	28	26	28	24	23	100	26
1593989734365247425 	0	1881	345	345	1843	1844	1881	114750000	performance	1866	28	28	26	28	24	23	100	27
1593989735980898659	1	1881	345	345	1881	1881	1881	114750000	performance	1866	28	28	26	28	24	23	100	27
1593989736059042599 	0	1892	345	345	1894	1897	1895	114750000	performance	1866	28	28	26	28	24	23	100	27
1593989737686793775	1	1881	345	345	1881	1881	1881	114750000	performance	1866	28	28	26	28	24	23	100	27
1593989737817310338 	0	1883	345	345	1877	1883	1880	114750000	performance	1866	28	28	26	28	24	23	100	27
1593989739456949326	1	1881	345	345	1881	1881	1881	114750000	performance	1866	28	28	26	28	24	23	100	27
1593989739548169662 	0	1886	345	345	1886	1888	1886	114750000	performance	1866	28	28	26	28	24	23	100	27
1593989741226911181	1	1881	345	345	1881	1881	1881	114750000	performance	1866	28	28	26	28	24	23	100	26
1593989741285347711 	0	1844	345	345	1843	1881	1882	114750000	performance	1866	28	28	26	28	24	23	100	26
1593989742910797369	1	1881	345	345	1881	1881	1881	114750000	performance	1866	28	28	26	28	24	23	100	27
1593989742960731354 	0	1882	345	345	1883	1878	1878	114750000	performance	1866	28	28	26	28	24	23	100	27
1593989744604658336	1	1881	345	345	1881	1881	1881	114750000	performance	1866	27	27	26	27	24	23	100	26
1593989744709191164 	0	1883	345	345	1882	1881	1880	114750000	performance	1866	28	28	26	28	24	23	100	26
1593989746359581543	1	1881	345	345	1881	1881	1881	114750000	performance	1866	27	27	26	27	24	23	100	26
1593989746435048860 	0	1893	345	345	1897	1893	1899	114750000	performance	1866	28	28	26	28	24	23	100	26
1593989748043681109	1	1881	345	345	1881	1881	1881	114750000	performance	1866	28	28	26	28	24	23	100	27
1593989748104780662 	0	1844	345	345	1844	1881	1881	114750000	performance	1866	28	28	26	28	24	23	100	27
1593989749752025167	1	1881	345	345	1881	1881	1881	114750000	performance	1866	28	28	26	28	24	23	100	26
1593989749839930923 	0	1844	345	345	1843	1844	1843	114750000	performance	1866	28	28	26	28	24	23	100	26
1593989751519674080	1	1881	345	345	1881	1881	1881	114750000	performance	1866	27	27	26	27	24	23	100	27
1593989751613539391 	0	1882	345	345	1843	1843	1881	114750000	performance	1866	28	28	26	28	24	23	100	27
1593989753245609216	1	1881	345	345	1881	1881	1881	114750000	performance	1866	28	28	26	28	24	23	100	27
1593989753366832701 	0	1881	345	345	1843	1842	1843	114750000	performance	1866	28	28	26	28	24	23	100	27
1593989755021235423	1	1881	345	345	1881	1881	1881	114750000	performance	1866	27	27	26	27	24	24	100	27
1593989755129068463 	0	1881	345	345	1842	1843	1844	114750000	performance	1866	28	28	26	28	24	23	100	27
1593989756756353140	1	1881	345	345	1881	1881	1881	114750000	performance	1866	28	28	26	28	24	23	100	27
1593989756862774267 	0	1881	345	345	1881	1843	1843	114750000	performance	1866	27	27	26	28	24	23	100	27
1593989758551687333	1	1881	345	345	1881	1881	1881	114750000	performance	1866	28	28	26	28	24	23	100	27
1593989758636885298 	0	1875	345	345	1877	1881	1877	114750000	performance	1866	28	28	26	28	24	23	100	27
1593989760294464070	1	1881	345	345	1881	1881	1881	114750000	performance	1866	28	28	26	28	24	23	100	27
1593989760402934266 	0	1878	345	345	1880	1881	1884	114750000	performance	1866	28	28	26	28	24	23	100	27
1593989761990280024	1	1881	345	345	1881	1881	1881	114750000	performance	1866	28	28	26	28	24	23	100	27
1593989762127366993 	0	1843	345	345	1882	1842	1881	114750000	performance	1866	28	28	26	28	24	23	100	27
1593989763837851991	1	1881	345	345	1881	1881	1881	114750000	performance	1866	28	28	26	28	24	23	100	27
1593989763906560933 	0	1843	345	345	1880	1882	1880	114750000	performance	1866	28	28	26	28	24	23	100	27
1593989765524565524	1	1881	345	345	1881	1881	1881	114750000	performance	1866	27	27	26	27	24	23	100	27
1593989765622345226 	0	1882	345	345	1882	1878	1879	114750000	performance	1866	28	28	26	28	24	23	100	27
1593989767232996143	1	1881	345	345	1881	1881	1881	114750000	performance	1866	27	28	26	28	24	23	100	27
1593989767310138125 	0	1843	345	345	1881	1842	1843	114750000	performance	1866	28	28	26	28	24	23	100	27
1593989768981207087	1	1881	345	345	1881	1881	1881	114750000	performance	1866	28	28	26	28	24	23	100	27
1593989769082787739 	0	1880	345	345	1888	1888	1843	114750000	performance	1866	28	28	26	28	24	23	100	27
1593989770723816079	1	1881	345	345	1881	1881	1881	114750000	performance	1866	28	28	26	28	24	23	100	26
1593989770844501578 	0	1892	345	345	1890	1897	1890	114750000	performance	1866	28	28	26	28	24	23	100	26
1593989772512860380	1	1881	345	345	1881	1881	1881	114750000	performance	1866	28	28	26	28	24	23	100	27
1593989772628463449 	0	1886	345	345	1890	1888	1886	114750000	performance	1866	28	28	26	27	24	23	100	27
1593989774216733628	1	1881	345	345	1881	1881	1881	114750000	performance	1866	27	27	26	27	24	23	100	27
1593989774267221216 	0	1888	345	345	1890	1885	1888	114750000	performance	1866	27	27	26	27	24	23	100	27
1593989775873621901	1	1881	345	345	1881	1881	1881	114750000	performance	1866	27	27	26	27	24	23	100	26
1593989775955775016 	0	1885	345	345	1885	1890	1891	114750000	performance	1866	27	27	26	27	24	23	100	26
1593989777566794223	1	1881	345	345	1881	1881	1881	114750000	performance	1866	27	27	26	28	24	23	100	27
1593989777629175992 	0	1876	345	345	1882	1883	1881	114750000	performance	1866	28	28	26	28	24	23	100	27
1593989779256088795	1	1881	345	345	1881	1881	1881	114750000	performance	1866	28	28	26	28	24	23	100	26
1593989779318707237 	0	1888	345	345	1885	1888	1886	114750000	performance	1866	28	28	26	28	24	23	100	26
1593989780944314784	1	1881	345	345	1881	1881	1881	114750000	performance	1866	28	28	26	28	24	23	100	26
1593989781026894910 	0	1883	345	346	1879	1884	1890	114750000	performance	1866	28	28	26	28	24	23	100	26
1593989782606647600	1	1881	345	345	1881	1881	1881	114750000	performance	1866	28	28	26	28	24	23	100	27
1593989782686339901 	0	1843	345	345	1881	1882	1843	114750000	performance	1866	28	28	26	28	24	23	100	27
1593989784302465634	1	1881	345	345	1881	1881	1881	114750000	performance	1866	28	28	26	28	24	23	100	27
1593989784382883923 	0	1883	345	345	1885	1885	1887	114750000	performance	1866	28	28	26	28	24	23	100	27
1593989786009040786	1	1881	345	345	1881	1881	1881	114750000	performance	1866	28	28	26	28	24	23	100	27
1593989786070760567 	0	1877	345	345	1843	1842	1842	114750000	performance	1866	28	28	26	28	24	23	100	27
1593989787659765886	1	1881	345	345	1881	1881	1881	114750000	performance	1866	28	28	26	28	24	23	100	27
1593989787766215014 	0	1880	345	345	1844	1843	1843	114750000	performance	1866	27	27	26	27	24	23	100	27
1593989789364431715	1	1881	345	345	1881	1881	1881	114750000	performance	1866	27	27	26	27	24	23	100	27
1593989789439731351 	0	1879	345	345	1877	1880	1880	114750000	performance	1866	28	28	26	28	24	23	100	27
1593989791095612961	1	1881	345	345	1881	1881	1881	114750000	performance	1866	28	28	26	28	24	23	100	27
1593989791206188129 	0	1890	345	345	1891	1891	1895	114750000	performance	1866	28	28	26	28	24	23	100	27
1593989792810122943	1	1881	345	345	1881	1881	1881	114750000	performance	1866	28	28	26	28	24	23	100	27
1593989792863822294 	0	1882	345	345	1880	1882	1882	114750000	performance	1866	27	27	26	27	24	23	100	27
1593989794523729111	1	1881	345	345	1881	1881	1881	114750000	performance	1866	28	28	26	28	24	23	100	26
1593989794626915660 	0	1881	345	345	1842	1843	1844	114750000	performance	1866	28	28	26	28	24	23	100	26
1593989796331108206	1	1881	345	345	1881	1881	1881	114750000	performance	1866	28	28	26	28	24	23	100	27
1593989796429612424 	0	1841	345	345	1842	1898	1882	114750000	performance	1866	28	28	26	28	24	23	100	27
1593989798083941706	1	1881	345	345	1881	1881	1881	114750000	performance	1866	28	28	26	28	24	23	100	26
1593989798149180035 	0	1877	345	345	1880	1880	1879	114750000	performance	1866	27	27	26	27	24	23	100	27
1593989799758835298	1	1881	345	345	1881	1881	1881	114750000	performance	1866	28	28	26	28	24	23	100	27
1593989799888511024 	0	1882	345	345	1844	1842	1880	114750000	performance	1866	28	28	26	28	24	23	100	27
1593989801454494451	1	1881	345	345	1881	1881	1881	114750000	performance	1866	27	27	26	27	24	23	100	27
1593989801578326783 	0	1881	345	345	1864	1843	1881	114750000	performance	1866	27	27	26	27	24	23	100	27
1593989803196476847	1	1881	345	345	1881	1881	1881	114750000	performance	1866	28	28	26	28	24	23	100	27
1593989803298692607 	0	1844	345	345	1881	1881	1881	114750000	performance	1866	28	28	26	28	24	23	100	27
1593989804923481685	1	1881	345	345	1881	1881	1881	114750000	performance	1866	28	28	26	28	24	23	100	27
1593989805002759168 	0	1881	345	345	1889	1889	1892	114750000	performance	1866	28	28	26	28	24	23	100	27
1593989806674450342	1	1881	345	345	1881	1881	1881	114750000	performance	1866	28	28	26	28	24	23	100	27
1593989806761266972 	0	1842	345	345	1843	1843	1882	114750000	performance	1866	28	28	26	28	24	23	100	27
1593989808403664665	1	1881	345	345	1881	1881	1881	114750000	performance	1866	28	28	26	28	24	23	100	27
1593989808522325095 	0	1891	345	345	1888	1893	1829	114750000	performance	1866	28	28	26	28	24	23	100	27
1593989810121370921	1	1881	345	345	1881	1881	1881	114750000	performance	1866	28	28	26	28	24	23	100	27
1593989810205495247 	0	1882	345	345	1881	1841	1843	114750000	performance	1866	28	28	26	28	24	23	100	27
1593989811861337690	1	1881	345	345	1881	1881	1881	114750000	performance	1866	28	28	26	28	24	23	100	27
1593989811980100809 	0	1880	345	345	1881	1879	1884	114750000	performance	1866	28	28	26	28	24	23	100	27
1593989813620193176	1	1881	345	345	1881	1881	1881	114750000	performance	1866	28	28	26	28	24	23	100	27
1593989813715091517 	0	1879	345	345	1879	1878	1879	114750000	performance	1866	28	28	26	28	24	23	100	27
1593989815340763353	1	1881	345	345	1881	1881	1881	114750000	performance	1866	28	28	26	28	24	24	100	27
1593989815394922194 	0	1843	345	345	1844	1844	1843	114750000	performance	1866	28	28	26	28	24	24	100	27
1593989817042741134	1	1881	345	345	1881	1881	1881	114750000	performance	1866	28	28	26	28	24	23	100	27
1593989817164749520 	0	1894	345	345	1883	1886	1885	114750000	performance	1866	28	28	26	28	24	23	100	27
1593989818840355756	1	1881	345	345	1881	1881	1881	114750000	performance	1866	28	28	26	28	24	23	100	27
1593989818918388656 	0	1879	345	345	1878	1879	1878	114750000	performance	1866	28	28	26	28	24	23	100	27
1593989820595278260	1	1881	345	345	1881	1881	1881	114750000	performance	1866	28	28	26	28	24	23	100	27
1593989820671164395 	0	1885	345	345	1882	1887	1887	114750000	performance	1866	28	28	26	28	24	23	100	27
1593989822271244338	1	1881	345	345	1881	1881	1881	114750000	performance	1866	27	27	26	27	24	23	100	27
1593989822352726762 	0	1883	345	345	1886	1886	1888	114750000	performance	1866	28	28	26	28	24	23	100	27
1593989823939995527	1	1881	345	345	1881	1881	1881	114750000	performance	1866	28	28	26	28	24	23	100	27
1593989824034271817 	0	1883	345	345	1896	1895	1895	114750000	performance	1866	28	28	26	28	24	23	100	27
1593989825663903164	1	1881	345	345	1881	1881	1881	114750000	performance	1866	28	28	26	28	24	23	100	27
1593989825738402250 	0	1843	345	345	1844	1881	1881	114750000	performance	1866	28	28	26	28	24	23	100	27
1593989827396490818	1	1881	345	345	1881	1881	1881	114750000	performance	1866	28	28	26	28	24	23	100	27
1593989827507245826 	0	1880	345	345	1877	1882	1880	114750000	performance	1866	28	28	26	28	24	23	100	27
1593989829171132699	1	1881	345	345	1881	1881	1881	114750000	performance	1866	28	28	26	28	24	23	100	27
1593989829290855088 	0	1885	345	345	1887	1887	1886	114750000	performance	1866	28	28	26	28	24	23	100	27
1593989830872254828	1	1881	345	345	1881	1881	1881	114750000	performance	1866	28	28	26	28	24	23	100	27
1593989830998913512 	0	1842	345	345	1843	1843	1880	114750000	performance	1866	28	28	26	28	24	23	100	27
1593989832591202659	1	1881	345	345	1881	1881	1881	114750000	performance	1866	28	28	26	28	24	23	100	27
1593989832667935999 	0	1887	345	345	1897	1886	1890	114750000	performance	1866	28	28	26	28	24	23	100	27
1593989834386689365	1	1881	345	345	1881	1881	1881	114750000	performance	1866	28	28	26	28	24	23	100	27
1593989834473965038 	0	1877	345	345	1879	1878	1881	114750000	performance	1866	28	28	26	28	24	23	100	27
1593989836128521233	1	1881	345	345	1881	1881	1881	114750000	performance	1866	28	28	26	28	24	23	100	27
1593989836189332240 	0	1894	345	345	1896	1895	1898	114750000	performance	1866	28	28	26	28	24	23	100	27
1593989837788707604	1	1881	345	345	1881	1881	1881	114750000	performance	1866	28	28	26	28	24	23	100	27
1593989837854651762 	0	1843	345	345	1881	1882	1844	114750000	performance	1866	28	28	26	28	24	23	100	27
1593989839495498085	1	1881	345	345	1881	1881	1881	114750000	performance	1866	28	28	26	28	24	23	100	27
1593989839615499355 	0	1879	345	345	1881	1878	1878	114750000	performance	1866	28	28	26	28	24	23	100	27
1593989841297097339	1	1881	345	345	1881	1881	1881	114750000	performance	1866	28	28	26	28	24	23	100	27
1593989841362544181 	0	1891	345	345	1895	1890	1891	114750000	performance	1866	28	28	26	28	24	23	100	27
1593989843007934915	1	1881	345	345	1881	1881	1881	114750000	performance	1866	28	28	26	28	24	23	100	27
1593989843113982568 	0	1881	345	345	1881	1879	1881	114750000	performance	1866	28	28	26	28	24	23	100	27
1593989844772110528	1	1881	345	345	1881	1881	1881	114750000	performance	1866	28	28	26	28	24	23	100	27
1593989844875124276 	0	1880	345	345	1881	1883	1882	114750000	performance	1866	28	28	26	28	24	23	100	27
1593989846505607340	1	1881	345	345	1881	1881	1881	114750000	performance	1866	28	28	26	28	24	23	100	27
1593989846583077772 	0	1881	345	345	1843	1882	1881	114750000	performance	1866	28	28	26	28	24	23	100	27
1593989848213970182	1	1881	345	345	1881	1881	1881	114750000	performance	1866	28	28	26	28	24	23	100	27
1593989848405018135 	0	1885	345	345	1880	1879	1882	114750000	performance	1866	28	28	26	28	24	23	100	27
1593989850065383419	1	1881	345	345	1881	1881	1881	114750000	performance	1866	28	28	26	28	24	23	100	27
1593989850141157362 	0	1844	345	345	1881	1880	1843	114750000	performance	1866	28	28	26	28	24	23	100	27
1593989851788819149	1	1881	345	345	1881	1881	1881	114750000	performance	1866	28	28	26	28	24	23	100	27
1593989851877533070 	0	1880	345	345	1882	1882	1881	114750000	performance	1866	28	28	26	28	24	23	100	27
1593989853498890993	1	1881	345	345	1881	1881	1881	114750000	performance	1866	28	28	26	28	24	23	100	27
1593989853589071546 	0	1886	345	345	1881	1843	1842	114750000	performance	1866	28	28	26	28	24	23	100	27
1593989855173566184	1	1881	345	345	1881	1881	1881	114750000	performance	1866	28	28	26	28	24	24	100	27
1593989855277782819 	0	1881	345	345	1843	1842	1881	114750000	performance	1866	28	28	26	28	24	23	100	27
1593989856900511053	1	1881	345	345	1881	1881	1881	114750000	performance	1866	28	28	26	28	24	23	100	27
1593989856976517285 	0	1880	345	345	1842	1843	1843	114750000	performance	1866	28	28	26	28	24	23	100	27
1593989858670025193	1	1881	345	345	1881	1881	1881	114750000	performance	1866	28	28	26	28	24	23	100	27
1593989858771077874 	0	1882	345	345	1843	1842	1843	114750000	performance	1866	28	28	26	28	24	23	100	27
1593989860376171255	1	1881	345	345	1881	1881	1881	114750000	performance	1866	28	28	26	28	24	23	100	27
1593989860472855046 	0	1879	345	345	1881	1881	1877	114750000	performance	1866	28	28	26	28	24	23	100	27
1593989862121267589	1	1881	345	345	1881	1881	1881	114750000	performance	1866	28	28	26	28	24	23	100	27
1593989862239141263 	0	1880	345	345	1879	1878	1878	114750000	performance	1866	28	28	26	28	24	23	100	27
1593989863855154707	1	1881	345	345	1881	1881	1881	114750000	performance	1866	28	28	26	28	24	23	100	27
1593989863935971878 	0	1842	345	345	1881	1881	1880	114750000	performance	1866	28	28	26	28	24	23	100	27
1593989865577690015	1	1881	345	345	1881	1881	1881	114750000	performance	1866	28	28	26	28	24	23	100	27
1593989865663551280 	0	1878	345	345	1877	1879	1880	114750000	performance	1866	28	28	26	28	24	23	100	27
1593989867302572729	1	1881	345	345	1881	1881	1881	114750000	performance	1866	28	28	26	28	24	23	100	27
1593989867405204298 	0	1880	345	345	1877	1882	1881	114750000	performance	1866	28	28	26	28	24	23	100	27
1593989868993625487	1	1881	345	345	1881	1881	1881	114750000	performance	1866	28	28	26	28	24	23	100	27
1593989869142800590 	0	1878	345	345	1881	1877	1877	114750000	performance	1866	28	28	26	28	24	23	100	27
1593989870734446597	1	1881	345	345	1881	1881	1881	114750000	performance	1866	28	28	26	28	24	23	100	27
1593989870873556905 	0	1878	345	345	1880	1879	1880	114750000	performance	1866	28	28	26	28	24	23	100	27
1593989872516664490	1	1881	345	345	1881	1881	1881	114750000	performance	1866	28	28	26	28	24	23	100	26
1593989872590945784 	0	1879	345	345	1881	1881	1880	114750000	performance	1866	28	28	26	28	24	23	100	26
1593989874232755857	1	1881	345	345	1881	1881	1881	114750000	performance	1866	28	28	26	28	24	23	100	27
1593989874308817225 	0	1844	345	345	1881	1882	1843	114750000	performance	1866	28	28	26	28	24	23	100	27
1593989875962696104	1	1881	345	345	1881	1881	1881	114750000	performance	1866	28	28	26	28	24	23	100	27
1593989876064351380 	0	1843	345	345	1880	1881	1881	114750000	performance	1866	28	28	26	28	24	23	100	27
1593989877719405754	1	1881	345	345	1881	1881	1881	114750000	performance	1866	28	28	26	28	24	23	100	27
1593989877802760252 	0	1883	345	345	1888	1886	1886	114750000	performance	1866	28	28	26	28	24	23	100	27
1593989879417850682	1	1881	345	345	1881	1881	1881	114750000	performance	1866	27	27	26	28	24	23	100	26
1593989879491623237 	0	1882	345	345	1881	1842	1842	114750000	performance	1866	28	28	26	28	24	23	100	26
1593989881123585509	1	1881	345	345	1881	1881	1881	114750000	performance	1866	27	28	26	28	24	23	100	27
1593989881222218944 	0	1891	345	345	1881	1884	1884	114750000	performance	1866	27	27	26	28	24	23	100	27
1593989882827918312	1	1881	345	345	1881	1881	1881	114750000	performance	1866	27	27	26	27	24	23	100	27
1593989882934210799 	0	1882	345	345	1880	1842	1842	114750000	performance	1866	28	28	26	28	24	23	100	27
1593989884546974304	1	1881	345	345	1881	1881	1881	114750000	performance	1866	27	27	26	28	24	23	100	26
1593989884662414844 	0	1884	345	345	1882	1881	1878	114750000	performance	1866	28	28	26	28	24	23	100	26
1593989886274375144	1	1881	345	345	1881	1881	1881	114750000	performance	1866	28	28	26	28	24	23	100	27
1593989886366780703 	0	1882	345	345	1881	1881	1881	114750000	performance	1866	28	28	26	28	24	23	100	27
1593989887975569049	1	1881	345	345	1881	1881	1881	114750000	performance	1866	28	28	26	28	24	23	100	27
1593989888074694134 	0	1891	345	345	1890	1888	1889	114750000	performance	1866	27	27	26	27	24	23	100	27
1593989889766426384	1	1881	345	345	1881	1881	1881	114750000	performance	1866	28	28	26	28	24	23	100	27
1593989889812471163 	0	1895	345	345	1895	1896	1892	114750000	performance	1866	28	28	26	28	24	23	100	27
1593989891398905171	1	1881	345	345	1881	1881	1881	114750000	performance	1866	27	27	26	27	24	23	100	26
1593989891503933555 	0	1882	345	345	1844	1843	1842	114750000	performance	1866	28	28	26	28	24	23	100	26
1593989893144466277	1	1881	345	345	1881	1881	1881	114750000	performance	1866	28	28	26	28	24	23	100	26
1593989893208717720 	0	1882	345	345	1879	1874	1877	114750000	performance	1866	28	28	26	28	24	23	100	26
1593989894860753965	1	1881	345	345	1881	1881	1881	114750000	performance	1866	28	28	26	28	24	23	100	27
1593989894959514600 	0	1879	345	345	1878	1891	1895	114750000	performance	1866	28	28	26	28	24	23	100	27
1593989896579599395	1	1881	345	345	1881	1881	1881	114750000	performance	1866	28	28	26	28	24	24	100	27
1593989896643658230 	0	1880	345	345	1845	1843	1882	114750000	performance	1866	28	28	26	28	24	24	100	27
1593989898243271131	1	1881	345	345	1881	1881	1881	114750000	performance	1866	28	28	26	28	24	23	100	27
1593989898297439924 	0	1842	345	345	1881	1882	1845	114750000	performance	1866	28	28	26	28	24	23	100	27
1593989899911294700	1	1881	345	345	1881	1881	1881	114750000	performance	1866	28	28	26	28	24	23	100	27
1593989900018039925 	0	1885	345	345	1895	1895	1884	114750000	performance	1866	28	28	26	28	24	23	100	27
1593989901637922352	1	1881	345	345	1881	1881	1881	114750000	performance	1866	28	28	26	28	24	23	100	27
1593989901717020537 	0	1878	345	345	1884	1883	1880	114750000	performance	1866	28	28	26	28	24	23	100	27
1593989903324954894	1	1881	345	345	1881	1881	1881	114750000	performance	1866	28	28	26	28	24	23	100	27
1593989903421027130 	0	1843	345	345	1880	1881	1882	114750000	performance	1866	28	28	26	28	24	23	100	27
1593989905048857506	1	1881	345	345	1881	1881	1881	114750000	performance	1866	28	28	26	28	24	23	100	27
1593989905098554658 	0	1842	345	345	1842	1881	1881	114750000	performance	1866	28	28	26	28	24	23	100	27
1593989906703245188	1	1881	345	345	1881	1881	1881	114750000	performance	1866	28	28	26	28	24	23	100	27
1593989906791537827 	0	1842	345	345	1882	1843	1843	114750000	performance	1866	28	28	26	28	24	23	100	27
1593989908483968577	1	1881	345	345	1881	1881	1881	114750000	performance	1866	28	28	26	28	24	23	100	27
1593989908574057738 	0	1881	345	345	1843	1842	1842	114750000	performance	1866	28	28	26	28	24	23	100	27
1593989910190732594	1	1881	345	345	1881	1881	1881	114750000	performance	1866	28	28	26	28	24	23	100	27
1593989910300915695 	0	1881	345	345	1881	1843	1841	114750000	performance	1866	28	28	26	28	24	24	100	27
1593989911941378689	1	1881	345	345	1881	1881	1881	114750000	performance	1866	28	28	26	28	24	23	100	27
1593989912093322159 	0	1845	345	345	1843	1843	1881	114750000	performance	1866	28	28	26	28	24	23	100	27
1593989913710277881	1	1881	345	345	1881	1881	1881	114750000	performance	1866	28	28	26	28	24	23	100	27
1593989913771297178 	0	1844	345	345	1882	1881	1880	114750000	performance	1866	28	28	26	28	24	23	100	27
1593989915375832859	1	1881	345	345	1881	1881	1881	114750000	performance	1866	28	28	26	27	24	23	100	27
1593989915533687980 	0	1881	345	345	1842	1844	1844	114750000	performance	1866	28	28	26	28	24	23	100	27
1593989917186223300	1	1881	345	345	1881	1881	1881	114750000	performance	1866	28	28	26	28	24	23	100	27
1593989917268916066 	0	1843	345	345	1880	1880	1881	114750000	performance	1866	27	27	26	28	24	23	100	27
1593989918990313127	1	1881	345	345	1881	1881	1881	114750000	performance	1866	27	28	26	28	24	23	100	27
1593989919115935806 	0	1879	345	345	1842	1845	1881	114750000	performance	1866	28	28	26	28	24	23	100	27
1593989920692232124	1	1881	345	345	1881	1881	1881	114750000	performance	1866	27	27	26	27	24	23	100	27
1593989920755797964 	0	1881	345	345	1842	1843	1881	114750000	performance	1866	27	27	26	27	24	23	100	27
1593989922366163695	1	1881	345	345	1881	1881	1881	114750000	performance	1866	28	28	26	28	24	23	100	27
1593989922447211108 	0	1881	345	345	1886	1883	1888	114750000	performance	1866	28	28	26	28	24	23	100	27
1593989924030380330	1	1881	345	345	1881	1881	1881	114750000	performance	1866	28	28	26	28	24	23	100	27
1593989924092350097 	0	1878	345	345	1877	1881	1879	114750000	performance	1866	28	28	26	28	24	23	100	27
1593989925710380096	1	1881	345	345	1881	1881	1881	114750000	performance	1866	28	28	26	28	24	23	100	27
1593989925862393263 	0	1880	345	345	1879	1887	1893	114750000	performance	1866	28	28	26	28	24	23	100	27
1593989927444954962	1	1881	345	345	1881	1881	1881	114750000	performance	1866	28	28	26	28	24	23	100	27
1593989927521164939 	0	1893	345	345	1889	1889	1889	114750000	performance	1866	28	28	26	28	24	23	100	27
1593989929129637987	1	1881	345	345	1881	1881	1881	114750000	performance	1866	28	28	26	28	24	23	100	27
1593989929193189043 	0	1899	345	345	1892	1888	1891	114750000	performance	1866	28	28	26	28	24	23	100	27
1593989930788654624	1	1881	345	345	1881	1881	1881	114750000	performance	1866	28	28	26	28	24	23	100	27
1593989930860582720 	0	1879	345	345	1891	1889	1887	114750000	performance	1866	27	27	26	27	24	23	100	27
1593989932555520428	1	1881	345	345	1881	1881	1881	114750000	performance	1866	28	28	26	28	24	23	100	27
1593989932647851554 	0	1844	345	345	1843	1842	1843	114750000	performance	1866	28	28	26	28	24	23	100	27
1593989934244694775	1	1881	345	345	1881	1881	1881	114750000	performance	1866	28	28	26	28	24	23	100	27
1593989934317248603 	0	1882	345	345	1889	1888	1887	114750000	performance	1866	28	28	26	28	24	23	100	27
1593989935942402356	1	1881	345	345	1881	1881	1881	114750000	performance	1866	28	28	26	28	24	23	100	27
1593989936030876116 	0	1885	345	345	1886	1886	1885	114750000	performance	1866	28	28	26	28	24	23	100	27
1593989937674476311	1	1881	345	345	1881	1881	1881	114750000	performance	1866	28	28	26	28	24	23	100	27
1593989937722297004 	0	1876	345	345	1881	1879	1878	114750000	performance	1866	28	28	26	28	24	23	100	27
1593989939284866874	1	1881	345	345	1881	1881	1881	114750000	performance	1866	28	28	26	28	24	24	100	27
1593989939380660901 	0	1888	345	345	1881	1880	1880	114750000	performance	1866	28	28	26	28	24	24	100	27
1593989940977733435	1	1881	345	345	1881	1881	1881	114750000	performance	1866	28	28	26	28	24	23	100	27
1593989941060304889 	0	1879	345	345	1881	1886	1879	114750000	performance	1866	28	28	26	28	24	23	100	27
1593989942736284887	1	1881	345	345	1881	1881	1881	114750000	performance	1866	28	28	26	28	24	23	100	27
1593989942798418847 	0	1883	345	345	1883	1884	1883	114750000	performance	1866	28	28	26	28	24	23	100	27
1593989944438220908	1	1881	345	345	1881	1881	1881	114750000	performance	1866	28	28	26	28	24	23	100	27
1593989944525315492 	0	1880	345	345	1880	1882	1880	114750000	performance	1866	28	28	26	28	24	24	100	27
1593989946191870636	1	1881	345	345	1881	1881	1881	114750000	performance	1866	27	28	26	28	24	23	100	27
1593989946294032475 	0	1880	345	345	1881	1883	1883	114750000	performance	1866	28	28	26	28	24	23	100	27
1593989947902476180	1	1881	345	345	1881	1881	1881	114750000	performance	1866	28	28	26	28	24	23	100	27
1593989947976160542 	0	1880	345	345	1880	1882	1842	114750000	performance	1866	28	28	26	28	24	23	100	27
1593989949585159929	1	1881	345	345	1881	1881	1881	114750000	performance	1866	28	28	26	28	24	23	100	27
1593989949666198094 	0	1889	345	345	1881	1891	1883	114750000	performance	1866	28	28	26	28	24	23	100	27
1593989951275877165	1	1881	345	345	1881	1881	1881	114750000	performance	1866	28	28	26	28	24	23	100	27
1593989951400405022 	0	1880	345	345	1876	1877	1878	114750000	performance	1866	28	28	26	28	24	23	100	27
1593989953075803961	1	1881	345	345	1881	1881	1881	114750000	performance	1866	28	28	26	28	24	23	100	27
1593989953247243449 	0	1882	345	345	1878	1878	1880	114750000	performance	1866	28	28	26	28	24	23	100	27
1593989954919885316	1	1881	345	345	1881	1881	1881	114750000	performance	1866	28	28	26	28	24	23	100	27
1593989954990469916 	0	1879	345	345	1877	1878	1879	114750000	performance	1866	28	28	26	28	24	23	100	27
1593989956652207401	1	1881	345	345	1881	1881	1881	114750000	performance	1866	28	28	26	28	24	23	100	27
1593989956774073066 	0	1882	345	345	1888	1889	1891	114750000	performance	1866	28	28	26	28	24	24	100	27
1593989958419426295	1	1881	345	345	1881	1881	1881	114750000	performance	1866	28	28	26	28	24	24	100	27
1593989958549569928 	0	1883	345	345	1883	1882	1887	114750000	performance	1866	28	28	26	28	24	23	100	27
1593989960181989035	1	1881	345	345	1881	1881	1881	114750000	performance	1866	28	28	26	28	24	23	100	27
1593989960261315254 	0	1889	345	345	1888	1892	1891	114750000	performance	1866	28	28	26	28	24	23	100	27
1593989962016963778	1	1881	345	345	1881	1881	1881	114750000	performance	1866	28	28	26	28	24	24	100	27
1593989962156190535 	0	1885	345	345	1886	1885	1887	114750000	performance	1866	28	28	26	28	24	24	100	27
1593989963784732307	1	1881	345	345	1881	1881	1881	114750000	performance	1866	28	28	26	28	24	23	100	27
1593989963903502786 	0	1880	345	345	1843	1844	1842	114750000	performance	1866	28	28	26	28	24	23	100	27
1593989965529830594	1	1881	345	345	1881	1881	1881	114750000	performance	1866	28	28	26	28	24	23	100	27
1593989965599938296 	0	1884	345	345	1885	1885	1890	114750000	performance	1866	28	28	26	28	24	23	100	27
1593989967217772006	1	1881	345	345	1881	1881	1881	114750000	performance	1866	28	28	26	28	24	23	100	27
1593989967295640456 	0	1874	345	345	1875	1878	1877	114750000	performance	1866	28	28	26	28	24	23	100	27
1593989968883160008	1	1881	345	345	1881	1881	1881	114750000	performance	1866	28	28	26	28	24	23	100	27
1593989968944005447 	0	1877	345	345	1884	1882	1881	114750000	performance	1866	28	27	26	27	24	24	100	27
1593989970537307464	1	1881	345	345	1881	1881	1881	114750000	performance	1866	28	28	26	28	24	24	100	27
1593989970651580029 	0	1882	345	345	1881	1880	1878	114750000	performance	1866	28	28	26	28	24	24	100	27
1593989972255165785	1	1881	345	345	1881	1881	1881	114750000	performance	1866	28	28	26	28	24	23	100	27
1593989972386631282 	0	1842	345	345	1844	1842	1843	114750000	performance	1866	28	28	26	28	24	23	100	27
1593989974060808678	1	1881	345	345	1881	1881	1881	114750000	performance	1866	28	28	26	28	24	23	100	27
1593989974138566248 	0	1879	345	345	1879	1876	1876	114750000	performance	1866	28	28	26	28	24	23	100	27
1593989975799016557	1	1881	345	345	1881	1881	1881	114750000	performance	1866	28	28	26	28	24	24	100	27
1593989975921330224 	0	1881	345	345	1843	1881	1881	114750000	performance	1866	28	28	26	28	24	24	100	27
1593989977490067171	1	1881	345	345	1881	1881	1881	114750000	performance	1866	28	28	26	28	24	23	100	27
1593989977563918894 	0	1876	345	345	1886	1887	1890	114750000	performance	1866	28	28	26	28	24	23	100	27
