TimeStamp,Total Power,CPU Power,GPU Power
1593886464151479,1.41,0.457,0.152
1593886464654185,1.41,0.381,0.152
1593886465157362,1.334,0.381,0.152
1593886465660704,1.22,0.305,0.152
1593886466163559,1.22,0.305,0.152
1593886466666737,1.258,0.305,0.152
1593886467169524,1.296,0.381,0.152
1593886467672587,1.296,0.381,0.152
1593886468175415,1.296,0.305,0.152
1593886468678141,1.296,0.305,0.152
1593886469180913,1.448,0.305,0.152
1593886469683827,1.563,0.305,0.152
1593886470187072,1.41,0.305,0.152
1593886470690845,1.448,0.381,0.152
1593886471193903,1.486,0.457,0.152
1593886471697154,1.448,0.457,0.152
1593886472200081,1.525,0.534,0.152
1593886472703191,1.525,0.534,0.152
1593886473206408,1.486,0.534,0.152
1593886473713753,1.525,0.534,0.152
1593886474216615,1.486,0.534,0.152
1593886474720065,1.448,0.457,0.152
1593886475223001,1.448,0.534,0.152
1593886475725991,1.448,0.534,0.152
1593886476229105,1.486,0.534,0.152
1593886476732336,1.525,0.534,0.152
1593886477235609,1.486,0.534,0.152
1593886477737829,1.486,0.534,0.152
1593886478239659,1.486,0.534,0.152
1593886478741504,1.525,0.534,0.152
1593886479243267,1.448,0.457,0.152
1593886479745106,1.372,0.457,0.152
1593886480246828,1.41,0.457,0.152
1593886480748533,1.41,0.457,0.152
1593886481250298,1.41,0.457,0.152
1593886481752212,1.448,0.457,0.152
1593886482254079,1.486,0.457,0.152
1593886482755818,1.486,0.534,0.152
1593886483260912,1.525,0.534,0.152
1593886483762676,1.486,0.534,0.152
1593886484264613,1.525,0.534,0.152
1593886484766428,1.525,0.534,0.152
1593886485268313,1.486,0.534,0.152
1593886485770165,1.41,0.457,0.152
1593886486272843,1.486,0.457,0.152
1593886486776382,1.486,0.534,0.152
1593886487288125,1.486,0.534,0.152
1593886487791113,1.486,0.534,0.152
1593886488294085,1.486,0.457,0.152
1593886488796987,1.486,0.534,0.152
1593886489304211,1.486,0.534,0.152
1593886489807205,1.486,0.534,0.152
1593886490310258,1.41,0.534,0.152
1593886490814747,1.448,0.457,0.152
1593886491316657,1.525,0.534,0.152
1593886491818519,1.486,0.534,0.152
1593886492320435,1.486,0.534,0.152
1593886492822176,1.448,0.457,0.152
1593886493327664,1.41,0.457,0.152
1593886493830739,1.486,0.457,0.152
1593886494338089,1.486,0.534,0.152
1593886494841079,1.525,0.534,0.152
1593886495344159,1.525,0.534,0.152
1593886495847278,1.486,0.534,0.152
1593886496350928,1.525,0.534,0.152
1593886496853874,1.525,0.534,0.152
1593886497357003,1.486,0.534,0.152
1593886497859921,1.486,0.534,0.152
1593886498362892,1.486,0.534,0.152
1593886498866077,1.486,0.534,0.152
1593886499373493,1.639,0.457,0.152
1593886499876644,1.715,0.457,0.152
1593886500379618,1.601,0.457,0.152
1593886500882713,1.525,0.534,0.152
1593886501385823,1.525,0.534,0.152
1593886501888861,1.525,0.534,0.152
1593886502391953,1.486,0.534,0.152
1593886502895047,1.486,0.534,0.152
1593886503398007,1.486,0.534,0.152
1593886503901115,1.525,0.534,0.152
1593886504406465,1.525,0.534,0.152
1593886504908582,1.525,0.534,0.152
1593886505410446,1.525,0.534,0.152
1593886505913703,1.486,0.534,0.152
1593886506416578,1.525,0.534,0.152
1593886506919610,1.486,0.534,0.152
1593886507422531,1.448,0.457,0.152
1593886507925658,1.486,0.534,0.152
1593886508428884,1.448,0.457,0.152
1593886508931899,1.486,0.534,0.152
1593886509438881,1.448,0.534,0.152
1593886509941884,1.41,0.457,0.152
1593886510445167,1.486,0.534,0.152
1593886510948159,1.486,0.534,0.152
1593886511451077,1.486,0.534,0.152
1593886511954557,1.525,0.534,0.152
1593886512457976,1.525,0.534,0.152
1593886512960924,1.486,0.534,0.152
1593886513463986,1.448,0.534,0.152
1593886513966957,1.486,0.534,0.152
1593886514473399,1.41,0.457,0.152
1593886514976381,1.448,0.457,0.152
1593886515479271,1.448,0.457,0.152
1593886515982927,1.41,0.457,0.152
1593886516485404,1.486,0.534,0.152
1593886516987260,1.486,0.534,0.152
1593886517489223,1.448,0.534,0.152
1593886517990942,1.525,0.534,0.152
1593886518493109,1.486,0.534,0.152
1593886518994880,1.448,0.457,0.152
1593886519499362,1.41,0.457,0.152
1593886520001118,1.41,0.457,0.152
1593886520502928,1.486,0.534,0.152
1593886521005980,1.448,0.457,0.152
1593886521507957,1.486,0.457,0.152
1593886522010549,1.486,0.534,0.152
1593886522512479,1.486,0.457,0.152
1593886523014320,1.525,0.534,0.152
1593886523516189,1.448,0.534,0.152
1593886524017935,1.486,0.534,0.152
1593886524522508,1.448,0.534,0.152
1593886525024277,1.448,0.457,0.152
1593886525526123,1.486,0.534,0.152
1593886526028001,1.525,0.534,0.152
1593886526529786,1.486,0.534,0.152
1593886527031708,1.486,0.534,0.152
1593886527533407,1.486,0.534,0.152
1593886528035242,1.448,0.457,0.152
1593886528537137,1.525,0.534,0.152
1593886529038923,1.41,0.534,0.152
1593886529543737,1.563,0.534,0.152
1593886530045612,1.715,0.534,0.152
1593886530547370,1.525,0.534,0.152
1593886531049169,1.486,0.534,0.152
1593886531550919,1.448,0.457,0.152
1593886532052894,1.448,0.457,0.152
1593886532554751,1.486,0.534,0.152
1593886533056635,1.486,0.534,0.152
1593886533558503,1.525,0.534,0.152
1593886534060399,1.448,0.534,0.152
1593886534566198,1.41,0.457,0.152
1593886535069420,1.448,0.457,0.152
1593886535572487,1.448,0.457,0.152
1593886536075287,1.486,0.534,0.152
1593886536578234,1.525,0.534,0.152
1593886537081147,1.525,0.534,0.152
1593886537584288,1.525,0.534,0.152
1593886538087156,1.525,0.534,0.152
1593886538589704,1.448,0.457,0.152
1593886539091638,1.486,0.534,0.152
1593886539597683,1.448,0.534,0.152
1593886540100896,1.41,0.457,0.152
1593886540610322,1.448,0.457,0.152
1593886541113225,1.448,0.457,0.152
1593886541622063,1.525,0.534,0.152
1593886542125122,1.525,0.534,0.152
1593886542628255,1.486,0.534,0.152
1593886543131235,1.525,0.534,0.152
1593886543634430,1.486,0.534,0.152
1593886544137439,1.41,0.457,0.152
1593886544642946,1.525,0.457,0.152
1593886545146299,1.677,0.457,0.152
1593886545653927,1.639,0.534,0.152
1593886546156952,1.486,0.457,0.152
1593886546659866,1.525,0.534,0.152
1593886547162844,1.525,0.534,0.152
1593886547665348,1.525,0.534,0.152
1593886548167227,1.525,0.534,0.152
1593886548669074,1.448,0.534,0.152
1593886549170885,1.448,0.534,0.152
1593886549675798,1.41,0.457,0.152
1593886550177519,1.486,0.534,0.152
1593886550679411,1.486,0.534,0.152
1593886551181161,1.448,0.534,0.152
1593886551682963,1.486,0.534,0.152
1593886552184820,1.448,0.457,0.152
1593886552686588,1.486,0.457,0.152
1593886553188377,1.448,0.457,0.152
1593886553690206,1.486,0.534,0.152
1593886554192039,1.486,0.534,0.152
1593886554696627,1.448,0.534,0.152
1593886555198442,1.486,0.534,0.152
1593886555700409,1.486,0.534,0.152
1593886556202299,1.486,0.534,0.152
1593886556704144,1.486,0.534,0.152
1593886557206075,1.486,0.534,0.152
1593886557707966,1.525,0.534,0.152
1593886558209807,1.486,0.534,0.152
1593886558711596,1.448,0.457,0.152
1593886559213232,1.372,0.457,0.152
1593886559717440,1.525,0.457,0.152
1593886560219441,1.525,0.457,0.152
1593886560721291,1.486,0.457,0.152
1593886561223139,1.486,0.534,0.152
1593886561725018,1.525,0.534,0.152
1593886562226848,1.525,0.534,0.152
1593886562728755,1.525,0.534,0.152
1593886563230595,1.448,0.457,0.152
1593886563732688,1.486,0.457,0.152
1593886564234539,1.486,0.534,0.152
1593886564736341,1.448,0.457,0.152
1593886565238049,1.41,0.457,0.152
1593886565739939,1.448,0.457,0.152
1593886566241658,1.486,0.457,0.152
1593886566743478,1.486,0.534,0.152
1593886567245356,1.448,0.534,0.152
1593886567747163,1.486,0.534,0.152
1593886568249017,1.486,0.534,0.152
1593886568750784,1.486,0.534,0.152
1593886569252573,1.448,0.534,0.152
1593886569754328,1.41,0.457,0.152
1593886570256091,1.486,0.534,0.152
1593886570757899,1.448,0.457,0.152
1593886571260081,1.486,0.534,0.152
1593886571761909,1.486,0.534,0.152
1593886572263739,1.448,0.457,0.152
1593886572765493,1.486,0.534,0.152
1593886573267279,1.448,0.534,0.152
1593886573769289,1.448,0.534,0.152
1593886574271121,1.486,0.534,0.152
1593886574772910,1.563,0.457,0.152
1593886575277625,1.753,0.457,0.152
1593886575779510,1.639,0.534,0.152
1593886576281296,1.525,0.534,0.152
1593886576783132,1.486,0.457,0.152
1593886577292644,1.448,0.457,0.152
1593886577794534,1.486,0.534,0.152
1593886578296417,1.486,0.534,0.152
1593886578798143,1.448,0.457,0.152
1593886579299993,1.486,0.534,0.152
1593886579803849,1.486,0.534,0.152
1593886580305736,1.525,0.534,0.152
1593886580807627,1.486,0.534,0.152
1593886581309437,1.486,0.534,0.152
1593886581811411,1.486,0.534,0.152
1593886582313142,1.486,0.457,0.152
1593886582814898,1.486,0.534,0.152
1593886583316668,1.448,0.534,0.152
1593886583818412,1.41,0.457,0.152
1593886584320284,1.525,0.534,0.152
1593886584821991,1.448,0.534,0.152
1593886585323889,1.525,0.534,0.152
1593886585825786,1.486,0.534,0.152
1593886586327583,1.448,0.457,0.152
1593886586829466,1.525,0.534,0.152
1593886587331230,1.486,0.534,0.152
1593886587833181,1.448,0.534,0.152
1593886588334952,1.448,0.534,0.152
1593886588836971,1.448,0.457,0.152
1593886589338840,1.486,0.534,0.152
1593886589840665,1.448,0.457,0.152
1593886590342574,1.486,0.534,0.152
1593886590847449,1.486,0.534,0.152
1593886591349271,1.448,0.457,0.152
1593886591851127,1.525,0.534,0.152
1593886592352987,1.41,0.457,0.152
1593886592854768,1.486,0.534,0.152
1593886593356542,1.41,0.457,0.152
1593886593858407,1.486,0.534,0.152
1593886594360799,1.486,0.534,0.152
1593886594864023,1.486,0.534,0.152
1593886595366944,1.525,0.534,0.152
1593886595869954,1.525,0.534,0.152
1593886596373118,1.525,0.534,0.152
1593886596876123,1.448,0.534,0.152
1593886597380280,1.448,0.534,0.152
1593886597883433,1.486,0.534,0.152
1593886598386289,1.448,0.457,0.152
1593886598889300,1.486,0.534,0.152
1593886599392450,1.448,0.534,0.152
1593886599895539,1.486,0.534,0.152
1593886600397779,1.525,0.534,0.152
1593886600899564,1.448,0.457,0.152
1593886601401367,1.486,0.534,0.152
1593886601903123,1.41,0.457,0.152
1593886602405163,1.372,0.457,0.152
1593886602907156,1.448,0.457,0.152
1593886603409086,1.448,0.534,0.152
1593886603910906,1.486,0.534,0.152
1593886604412711,1.525,0.534,0.152
1593886604914546,1.486,0.534,0.152
1593886605416446,1.525,0.534,0.152
1593886605918317,1.525,0.534,0.152
1593886606420838,1.563,0.534,0.152
1593886606923764,1.448,0.534,0.152
1593886607429733,1.41,0.457,0.152
1593886607932842,1.486,0.534,0.152
1593886608435876,1.486,0.534,0.152
1593886608938699,1.486,0.534,0.152
1593886609441356,1.448,0.534,0.152
1593886609943082,1.486,0.534,0.152
1593886610444904,1.486,0.534,0.152
1593886610946676,1.372,0.457,0.152
1593886611448456,1.41,0.457,0.152
1593886611950298,1.41,0.457,0.152
1593886612452134,1.448,0.534,0.152
1593886612954004,1.486,0.534,0.152
1593886613455774,1.486,0.534,0.152
1593886613957653,1.486,0.534,0.152
1593886614459613,1.486,0.534,0.152
1593886614961461,1.41,0.457,0.152
1593886615463416,1.448,0.457,0.152
1593886615965252,1.448,0.457,0.152
1593886616467128,1.448,0.457,0.152
1593886616972012,1.525,0.534,0.152
1593886617473824,1.525,0.534,0.152
1593886617975845,1.525,0.534,0.152
1593886618477706,1.448,0.534,0.152
1593886618979478,1.525,0.534,0.152
1593886619481252,1.448,0.534,0.152
1593886619983000,1.601,0.457,0.152
1593886620484901,1.525,0.457,0.152
1593886620986770,1.448,0.457,0.152
1593886621488702,1.486,0.534,0.152
1593886621990543,1.525,0.534,0.152
1593886622492438,1.525,0.534,0.152
1593886622994282,1.486,0.534,0.152
1593886623496413,1.525,0.534,0.152
1593886623998146,1.448,0.534,0.152
1593886624499918,1.41,0.457,0.152
1593886625001789,1.486,0.534,0.152
1593886625503651,1.486,0.534,0.152
1593886626005441,1.486,0.457,0.152
1593886626507269,1.486,0.534,0.152
1593886627010619,1.448,0.457,0.152
1593886627519061,1.525,0.534,0.152
1593886628022702,1.41,0.457,0.152
1593886628525712,1.41,0.457,0.152
1593886629028938,1.448,0.534,0.152
1593886629532084,1.486,0.534,0.152
1593886630034981,1.525,0.534,0.152
1593886630538094,1.525,0.534,0.152
1593886631041299,1.525,0.534,0.152
1593886631544306,1.486,0.534,0.152
1593886632046632,1.486,0.534,0.152
1593886632551442,1.486,0.534,0.152
1593886633053226,1.486,0.534,0.152
1593886633554941,1.448,0.457,0.152
1593886634056808,1.448,0.457,0.152
1593886634558654,1.448,0.457,0.152
1593886635060497,1.486,0.534,0.152
1593886635562331,1.486,0.534,0.152
1593886636064175,1.486,0.534,0.152
1593886636565979,1.448,0.534,0.152
1593886637067999,1.525,0.534,0.152
1593886637569831,1.486,0.534,0.152
1593886638071700,1.41,0.457,0.152
1593886638573537,1.486,0.457,0.152
1593886639075522,1.486,0.534,0.152
1593886639577320,1.486,0.534,0.152
1593886640079117,1.525,0.534,0.152
1593886640581188,1.486,0.534,0.152
1593886641083064,1.525,0.534,0.152
1593886641584817,1.448,0.534,0.152
1593886642086514,1.372,0.457,0.152
1593886642588165,1.41,0.457,0.152
1593886643089987,1.448,0.457,0.152
1593886643591893,1.448,0.457,0.152
1593886644093600,1.525,0.534,0.152
1593886644595435,1.448,0.534,0.152
1593886645097294,1.525,0.534,0.152
1593886645599157,1.525,0.534,0.152
1593886646101013,1.448,0.534,0.152
1593886646602814,1.448,0.534,0.152
1593886647104711,1.41,0.457,0.152
1593886647606576,1.525,0.534,0.152
1593886648108413,1.486,0.534,0.152
1593886648610174,1.525,0.534,0.152
1593886649112134,1.486,0.534,0.152
1593886649613965,1.486,0.534,0.152
1593886650115856,1.525,0.534,0.152
1593886650617706,1.486,0.534,0.152
1593886651119523,1.525,0.534,0.152
1593886651621361,1.486,0.534,0.152
1593886652123125,1.486,0.457,0.152
1593886652625070,1.486,0.534,0.152
1593886653126997,1.486,0.534,0.152
1593886653628843,1.486,0.534,0.152
1593886654130590,1.41,0.457,0.152
1593886654643833,1.486,0.534,0.152
1593886655145670,1.525,0.534,0.152
1593886655647456,1.525,0.534,0.152
1593886656149289,1.486,0.534,0.152
1593886656651035,1.41,0.457,0.152
1593886657152898,1.486,0.457,0.152
1593886657654614,1.486,0.534,0.152
1593886658156596,1.486,0.534,0.152
1593886658658458,1.486,0.534,0.152
1593886659160331,1.486,0.534,0.152
1593886659662199,1.486,0.534,0.152
1593886660164024,1.486,0.534,0.152
1593886660665941,1.448,0.534,0.152
1593886661167988,1.448,0.534,0.152
1593886661669824,1.448,0.457,0.152
1593886662171640,1.525,0.534,0.152
1593886662673494,1.486,0.534,0.152
1593886663175889,1.525,0.534,0.152
1593886663677732,1.486,0.534,0.152
1593886664179683,1.639,0.534,0.152
1593886664681538,1.563,0.534,0.152
1593886665183380,1.448,0.534,0.152
1593886665685139,1.448,0.534,0.152
1593886666186912,1.41,0.457,0.152
1593886666688873,1.486,0.534,0.152
1593886667190707,1.486,0.534,0.152
1593886667692549,1.486,0.534,0.152
1593886668195250,1.525,0.534,0.152
1593886668698009,1.448,0.457,0.152
1593886669201587,1.486,0.534,0.152
1593886669704612,1.486,0.534,0.152
1593886670207580,1.41,0.457,0.152
1593886670710593,1.486,0.534,0.152
1593886671213614,1.41,0.457,0.152
1593886671716793,1.486,0.457,0.152
1593886672219707,1.486,0.534,0.152
1593886672722595,1.448,0.534,0.152
1593886673225628,1.525,0.534,0.152
1593886673728626,1.486,0.534,0.152
1593886674231556,1.486,0.457,0.152
1593886674733828,1.448,0.457,0.152
1593886675238452,1.448,0.457,0.152
1593886675740307,1.448,0.534,0.152
1593886676242151,1.448,0.457,0.152
1593886676743922,1.486,0.534,0.152
1593886677245644,1.486,0.534,0.152
1593886677747490,1.448,0.457,0.152
1593886678249337,1.525,0.534,0.152
1593886678751197,1.486,0.534,0.152
1593886679253199,1.486,0.534,0.152
1593886679754863,1.448,0.457,0.152
1593886680267574,1.563,0.457,0.152
1593886680770717,1.753,0.457,0.152
1593886681273635,1.639,0.534,0.152
1593886681776455,1.486,0.457,0.152
1593886682279115,1.486,0.457,0.152
1593886682782287,1.486,0.534,0.152
1593886683285395,1.486,0.534,0.152
1593886683788363,1.486,0.534,0.152
1593886684291477,1.448,0.457,0.152
1593886684794293,1.486,0.534,0.152
1593886685297281,1.41,0.457,0.152
1593886685803880,1.41,0.457,0.152
1593886686306714,1.753,0.533,0.152
1593886686809707,1.83,0.533,0.152
1593886687315753,1.677,0.534,0.152
1593886687818564,1.83,0.533,0.152
1593886688321742,1.601,0.534,0.152
1593886688824593,1.563,0.534,0.152
1593886689327670,1.486,0.534,0.152
1593886689830643,1.486,0.534,0.152
1593886690333689,1.525,0.534,0.152
1593886690840914,1.486,0.534,0.152
1593886691344028,1.486,0.534,0.152
1593886691847012,1.525,0.534,0.152
1593886692349411,1.486,0.457,0.152
1593886692851121,1.448,0.457,0.152
1593886693353057,1.525,0.534,0.152
1593886693854910,1.486,0.534,0.152
1593886694356792,1.486,0.534,0.152
1593886694858623,1.41,0.457,0.152
1593886695360461,1.486,0.534,0.152
1593886695862331,1.486,0.534,0.152
1593886696364177,1.448,0.534,0.152
1593886696866004,1.525,0.534,0.152
1593886697368015,1.486,0.534,0.152
1593886697869846,1.525,0.534,0.152
1593886698371620,1.448,0.457,0.152
1593886698873409,1.372,0.457,0.152
1593886699375257,1.486,0.534,0.152
1593886699880060,1.448,0.534,0.152
1593886700382021,1.525,0.534,0.152
1593886700884054,1.563,0.534,0.152
1593886701388751,1.525,0.534,0.152
1593886701890690,1.486,0.534,0.152
1593886702392673,1.525,0.534,0.152
1593886702894677,1.525,0.534,0.152
1593886703396528,1.486,0.534,0.152
1593886703898251,1.372,0.457,0.152
1593886704400125,1.41,0.457,0.152
1593886704901927,1.486,0.457,0.152
1593886705403740,1.486,0.534,0.152
1593886705905541,1.525,0.534,0.152
1593886706410142,1.486,0.534,0.152
1593886706911942,1.525,0.534,0.152
1593886707413818,1.486,0.534,0.152
1593886707915608,1.486,0.534,0.152
1593886708417377,1.448,0.534,0.152
1593886708919123,1.41,0.534,0.152
1593886709421317,1.486,0.534,0.152
1593886709923140,1.486,0.534,0.152
1593886710425010,1.715,0.534,0.152
1593886710926825,1.792,0.533,0.152
1593886711432287,1.639,0.534,0.152
1593886711935250,1.563,0.534,0.152
1593886712438365,1.525,0.534,0.152
1593886712941354,1.486,0.534,0.152
1593886713444277,1.41,0.534,0.152
1593886713947112,1.486,0.534,0.152
1593886714450034,1.448,0.534,0.152
1593886714952453,1.486,0.534,0.152
1593886715454210,1.486,0.534,0.152
1593886715956158,1.448,0.457,0.152
1593886716460662,1.486,0.457,0.152
1593886716962422,1.448,0.457,0.152
1593886717464248,1.41,0.457,0.152
1593886717966027,1.448,0.534,0.152
1593886718467908,1.41,0.457,0.152
1593886718969603,1.448,0.457,0.152
1593886719471445,1.486,0.534,0.152
1593886719973168,1.448,0.534,0.152
1593886720474909,1.486,0.534,0.152
1593886720977371,1.486,0.534,0.152
1593886721480640,1.448,0.457,0.152
1593886721983607,1.486,0.534,0.152
1593886722486430,1.448,0.534,0.152
1593886722989297,1.448,0.534,0.152
1593886723492453,1.486,0.534,0.152
1593886723994709,1.525,0.534,0.152
1593886724496664,1.486,0.534,0.152
1593886724998621,1.486,0.534,0.152
1593886725500459,1.525,0.534,0.152
1593886726002227,1.448,0.457,0.152
1593886726506687,1.486,0.534,0.152
1593886727008585,1.41,0.457,0.152
1593886727510491,1.486,0.534,0.152
1593886728012396,1.525,0.534,0.152
1593886728514249,1.525,0.534,0.152
1593886729016252,1.525,0.534,0.152
1593886729518104,1.448,0.457,0.152
1593886730020139,1.525,0.457,0.152
1593886730522016,1.525,0.534,0.152
1593886731023867,1.563,0.534,0.152
1593886731528555,1.448,0.534,0.152
1593886732030505,1.448,0.457,0.152
1593886732532432,1.486,0.534,0.152
1593886733034168,1.525,0.534,0.152
1593886733535969,1.486,0.534,0.152
1593886734047757,1.448,0.457,0.152
1593886734549635,1.525,0.534,0.152
1593886735051471,1.486,0.534,0.152
1593886735553422,1.525,0.534,0.152
1593886736055191,1.448,0.534,0.152
1593886736560064,1.372,0.457,0.152
1593886737061792,1.372,0.457,0.152
1593886737563711,1.486,0.534,0.152
1593886738065543,1.448,0.457,0.152
1593886738567469,1.486,0.534,0.152
1593886739069328,1.486,0.534,0.152
1593886739571174,1.525,0.534,0.152
1593886740073075,1.525,0.534,0.152
1593886740574952,1.486,0.534,0.152
1593886741078161,1.486,0.534,0.152
1593886741583935,1.41,0.457,0.152
1593886742086899,1.486,0.534,0.152
1593886742589759,1.486,0.534,0.152
1593886743092763,1.448,0.457,0.152
1593886743595960,1.486,0.534,0.152
1593886744098875,1.486,0.534,0.152
1593886744607647,1.486,0.534,0.152
1593886745110498,1.486,0.534,0.152
1593886745613596,1.525,0.534,0.152
1593886746125110,1.525,0.534,0.152
1593886746630739,1.525,0.534,0.152
1593886747133645,1.525,0.534,0.152
1593886747636440,1.525,0.534,0.152
1593886748139269,1.486,0.534,0.152
1593886748642619,1.525,0.534,0.152
1593886749145660,1.525,0.534,0.152
1593886749648820,1.486,0.534,0.152
1593886750152147,1.372,0.457,0.152
1593886750655114,1.372,0.457,0.152
1593886751158331,1.486,0.457,0.152
1593886751664363,1.448,0.457,0.152
1593886752167290,1.525,0.534,0.152
1593886752670143,1.486,0.534,0.152
1593886753173010,1.448,0.534,0.152
1593886753676220,1.486,0.457,0.152
1593886754179069,1.448,0.457,0.152
1593886754682071,1.486,0.534,0.152
1593886755184942,1.448,0.534,0.152
1593886755687959,1.41,0.457,0.152
1593886756190236,1.525,0.534,0.152
1593886756692127,1.486,0.457,0.152
1593886757193906,1.486,0.534,0.152
1593886757695838,1.486,0.534,0.152
1593886758197655,1.525,0.534,0.152
1593886758699461,1.486,0.534,0.152
1593886759201091,1.372,0.457,0.152
1593886759702744,1.372,0.457,0.152
1593886760205560,1.448,0.457,0.152
1593886760708417,1.448,0.457,0.152
1593886761217999,1.448,0.457,0.152
1593886761723753,1.486,0.534,0.152
1593886762226907,1.486,0.534,0.152
1593886762730445,1.525,0.534,0.152
1593886763233403,1.486,0.534,0.152
1593886763737358,1.486,0.534,0.152
1593886764240248,1.41,0.457,0.152
1593886764742970,1.334,0.457,0.152
1593886765246002,1.41,0.457,0.152
1593886765748998,1.486,0.534,0.152
1593886766252061,1.486,0.534,0.152
1593886766757681,1.486,0.534,0.152
1593886767260598,1.525,0.534,0.152
1593886767768807,1.525,0.534,0.152
1593886768271831,1.486,0.534,0.152
1593886768774700,1.486,0.457,0.152
1593886769277949,1.448,0.457,0.152
1593886769780903,1.448,0.457,0.152
1593886770283812,1.41,0.457,0.152
1593886770786667,1.448,0.457,0.152
1593886771289729,1.448,0.457,0.152
1593886771792537,1.525,0.534,0.152
1593886772295858,1.525,0.534,0.152
1593886772798642,1.525,0.534,0.152
1593886773301548,1.486,0.534,0.152
1593886773804438,1.41,0.457,0.152
1593886774308181,1.448,0.457,0.152
1593886774811073,1.372,0.457,0.152
1593886775314045,1.334,0.457,0.152
1593886775817426,1.486,0.534,0.152
1593886776322876,1.486,0.534,0.152
1593886776826037,1.525,0.534,0.152
1593886777329005,1.486,0.534,0.152
1593886777831995,1.448,0.534,0.152
1593886778334904,1.486,0.534,0.152
1593886778837893,1.486,0.534,0.152
1593886779341000,1.525,0.534,0.152
1593886779844080,1.486,0.534,0.152
1593886780353425,1.486,0.534,0.152
1593886780856778,1.486,0.534,0.152
1593886781359897,1.448,0.457,0.152
1593886781862742,1.525,0.534,0.152
1593886782366063,1.486,0.457,0.152
1593886782873951,1.525,0.534,0.152
1593886783377025,1.525,0.534,0.152
1593886783879930,1.486,0.534,0.152
1593886784382761,1.486,0.534,0.152
1593886784885801,1.525,0.534,0.152
1593886785389735,1.486,0.534,0.152
1593886785892855,1.486,0.534,0.152
1593886786395869,1.486,0.534,0.152
1593886786898699,1.486,0.534,0.152
1593886787402060,1.486,0.534,0.152
1593886787905384,1.486,0.534,0.152
1593886788408338,1.525,0.534,0.152
1593886788911431,1.448,0.457,0.152
1593886789415126,1.486,0.534,0.152
1593886789918597,1.448,0.534,0.152
1593886790421765,1.486,0.534,0.152
1593886790924561,1.486,0.534,0.152
1593886791427479,1.448,0.534,0.152
1593886791930351,1.486,0.534,0.152
1593886792433311,1.486,0.534,0.152
1593886792937039,1.486,0.534,0.152
1593886793445767,1.486,0.534,0.152
1593886793948612,1.448,0.534,0.152
1593886794451802,1.448,0.457,0.152
1593886794954010,1.448,0.457,0.152
1593886795455910,1.486,0.534,0.152
1593886795957720,1.525,0.534,0.152
1593886796459577,1.486,0.534,0.152
1593886796961383,1.525,0.534,0.152
1593886797466122,1.525,0.534,0.152
1593886797967899,1.525,0.534,0.152
1593886798469673,1.448,0.457,0.152
1593886798971433,1.41,0.457,0.152
1593886799473255,1.448,0.534,0.152
1593886799975115,1.448,0.457,0.152
1593886800478007,1.525,0.534,0.152
1593886800980831,1.486,0.534,0.152
1593886801483949,1.639,0.534,0.152
1593886801986979,1.563,0.534,0.152
1593886802490199,1.486,0.534,0.152
1593886802993226,1.486,0.534,0.152
1593886803496238,1.41,0.457,0.152
1593886803999052,1.486,0.534,0.152
1593886804501056,1.486,0.534,0.152
1593886805002909,1.448,0.534,0.152
1593886805504835,1.486,0.534,0.152
1593886806006670,1.525,0.534,0.152
1593886806508659,1.486,0.534,0.152
1593886807010545,1.486,0.534,0.152
1593886807512453,1.525,0.534,0.152
1593886808014201,1.715,0.457,0.152
1593886808515924,1.601,0.457,0.152
1593886809017635,1.448,0.457,0.152
1593886809519468,1.486,0.534,0.152
1593886810021199,1.486,0.534,0.152
1593886810523190,1.448,0.457,0.152
1593886811025964,1.525,0.534,0.152
1593886811528849,1.486,0.534,0.152
1593886812031836,1.525,0.534,0.152
1593886812534698,1.448,0.534,0.152
1593886813037851,1.525,0.534,0.152
1593886813541000,1.486,0.534,0.152
1593886814044096,1.448,0.534,0.152
1593886814547167,1.486,0.534,0.152
1593886815050594,1.486,0.534,0.152
1593886815553733,1.525,0.534,0.152
1593886816056622,1.486,0.534,0.152
1593886816559664,1.525,0.534,0.152
1593886817062578,1.486,0.534,0.152
1593886817565862,1.525,0.534,0.152
1593886818069032,1.486,0.534,0.152
1593886818572115,1.525,0.534,0.152
1593886819075033,1.525,0.534,0.152
1593886819577969,1.525,0.534,0.152
1593886820080749,1.486,0.534,0.152
1593886820582552,1.525,0.534,0.152
1593886821084412,1.486,0.534,0.152
1593886821586256,1.525,0.534,0.152
1593886822088129,1.41,0.457,0.152
1593886822589995,1.486,0.534,0.152
1593886823091798,1.448,0.534,0.152
1593886823596619,1.486,0.534,0.152
1593886824098403,1.525,0.534,0.152
1593886824600300,1.448,0.457,0.152
1593886825102115,1.525,0.534,0.152
1593886825603905,1.448,0.457,0.152
1593886826105770,1.486,0.457,0.152
1593886826607596,1.486,0.534,0.152
1593886827109411,1.41,0.457,0.152
1593886827611124,1.448,0.534,0.152
1593886828113597,1.448,0.534,0.152
1593886828616090,1.486,0.534,0.152
1593886829117875,1.486,0.534,0.152
1593886829619710,1.486,0.534,0.152
1593886830121539,1.525,0.534,0.152
1593886830623451,1.486,0.534,0.152
1593886831125458,1.677,0.534,0.152
1593886831627271,1.486,0.457,0.152
1593886832129163,1.486,0.534,0.152
1593886832631060,1.448,0.534,0.152
1593886833133047,1.486,0.534,0.152
1593886833635919,1.525,0.534,0.152
1593886834138457,1.448,0.457,0.152
1593886834641365,1.525,0.534,0.152
1593886835144298,1.486,0.534,0.152
1593886835647277,1.448,0.457,0.152
1593886836150335,1.486,0.534,0.152
1593886836653301,1.486,0.534,0.152
1593886837156232,1.486,0.457,0.152
1593886837661941,1.448,0.534,0.152
1593886838164880,1.448,0.457,0.152
1593886838672672,1.486,0.534,0.152
1593886839175834,1.486,0.534,0.152
1593886839679112,1.486,0.457,0.152
1593886840182103,1.448,0.457,0.152
1593886840685101,1.448,0.457,0.152
1593886841188292,1.448,0.457,0.152
1593886841691421,1.41,0.457,0.152
1593886842194353,1.41,0.457,0.152
1593886842697187,1.486,0.457,0.152
1593886843198914,1.486,0.534,0.152
1593886843701983,1.486,0.534,0.152
1593886844204875,1.525,0.534,0.152
1593886844707955,1.486,0.534,0.152
1593886845210848,1.563,0.534,0.152
1593886845713820,1.41,0.457,0.152
1593886846216871,1.448,0.457,0.152
1593886846719807,1.41,0.457,0.152
1593886847222782,1.448,0.534,0.152
1593886847725731,1.525,0.534,0.152
1593886848228682,1.486,0.457,0.152
1593886848731491,1.525,0.534,0.152
1593886849238052,1.486,0.534,0.152
1593886849740975,1.525,0.534,0.152
1593886850244124,1.486,0.534,0.152
1593886850747124,1.448,0.534,0.152
1593886851250102,1.372,0.457,0.152
1593886851753051,1.448,0.457,0.152
1593886852256688,1.486,0.534,0.152
1593886852759575,1.486,0.534,0.152
1593886853262487,1.525,0.534,0.152
1593886853765605,1.486,0.534,0.152
1593886854273075,1.525,0.534,0.152
1593886854776207,1.525,0.534,0.152
1593886855279215,1.525,0.534,0.152
1593886855782227,1.486,0.534,0.152
1593886856285166,1.486,0.457,0.152
1593886856788167,1.486,0.534,0.152
1593886857291777,1.525,0.534,0.152
1593886857794764,1.486,0.534,0.152
1593886858297730,1.486,0.534,0.152
1593886858800885,1.486,0.534,0.152
1593886859307929,1.486,0.534,0.152
1593886859811204,1.486,0.534,0.152
1593886860314398,1.563,0.534,0.152
1593886860817329,1.486,0.534,0.152
1593886861320430,1.677,0.457,0.152
1593886861823911,1.792,0.533,0.152
1593886862326870,1.715,0.534,0.152
1593886862829933,1.525,0.534,0.152
1593886863333095,1.486,0.457,0.152
1593886863836223,1.486,0.534,0.152
1593886864343283,1.525,0.534,0.152
1593886864846200,1.448,0.534,0.152
1593886865349356,1.41,0.457,0.152
1593886865853032,1.448,0.457,0.152
1593886866361838,1.486,0.457,0.152
1593886866870430,1.486,0.457,0.152
1593886867373573,1.525,0.534,0.152
1593886867876611,1.486,0.534,0.152
1593886868379573,1.486,0.534,0.152
1593886868882582,1.486,0.534,0.152
1593886869389463,1.525,0.534,0.152
1593886869892919,1.41,0.457,0.152
1593886870395843,1.372,0.457,0.152
1593886870898870,1.448,0.457,0.152
1593886871402271,1.486,0.534,0.152
1593886871905238,1.448,0.534,0.152
1593886872407636,1.486,0.534,0.152
1593886872909559,1.486,0.534,0.152
1593886873411507,1.486,0.457,0.152
1593886873913352,1.486,0.534,0.152
1593886874415505,1.486,0.534,0.152
1593886874917407,1.525,0.534,0.152
1593886875419262,1.525,0.534,0.152
1593886875929027,1.525,0.534,0.152
1593886876430982,1.525,0.534,0.152
1593886876932968,1.525,0.534,0.152
1593886877434812,1.486,0.534,0.152
1593886877936656,1.486,0.534,0.152
1593886878438476,1.525,0.534,0.152
1593886878940328,1.486,0.534,0.152
1593886879442255,1.486,0.534,0.152
1593886879944048,1.486,0.534,0.152
1593886880445928,1.486,0.534,0.152
1593886880947805,1.448,0.534,0.152
1593886881449607,1.41,0.457,0.152
1593886881951373,1.525,0.534,0.152
1593886882453217,1.486,0.534,0.152
1593886882954951,1.486,0.534,0.152
1593886883457012,1.486,0.534,0.152
1593886883958972,1.525,0.534,0.152
1593886884460899,1.525,0.534,0.152
1593886884962709,1.448,0.534,0.152
1593886885464584,1.448,0.534,0.152
1593886885966430,1.41,0.457,0.152
1593886886468322,1.486,0.534,0.152
1593886886970156,1.486,0.534,0.152
1593886887472136,1.525,0.534,0.152
1593886887973982,1.525,0.534,0.152
1593886888475900,1.448,0.534,0.152
1593886888977617,1.448,0.457,0.152
1593886889479513,1.41,0.457,0.152
1593886889982276,1.486,0.457,0.152
1593886890485175,1.486,0.534,0.152
1593886890988376,1.486,0.534,0.152
1593886891491502,1.753,0.533,0.152
1593886891994383,1.715,0.457,0.152
1593886892497492,1.601,0.534,0.152
1593886893000697,1.448,0.457,0.152
1593886893504295,1.372,0.457,0.152
1593886894006609,1.372,0.457,0.152
1593886894508377,1.448,0.457,0.152
1593886895010140,1.448,0.457,0.152
1593886895512022,1.448,0.457,0.152
1593886896013867,1.525,0.534,0.152
1593886896515719,1.486,0.534,0.152
1593886897017631,1.486,0.457,0.152
1593886897519430,1.448,0.457,0.152
1593886898021074,1.372,0.457,0.152
1593886898522890,1.372,0.457,0.152
1593886899026518,1.448,0.534,0.152
1593886899528458,1.448,0.457,0.152
1593886900030318,1.525,0.534,0.152
1593886900532196,1.525,0.534,0.152
1593886901034133,1.525,0.534,0.152
1593886901535977,1.525,0.534,0.152
1593886902037795,1.525,0.534,0.152
1593886902539691,1.525,0.534,0.152
1593886903041666,1.486,0.534,0.152
1593886903543588,1.486,0.534,0.152
1593886904045339,1.448,0.457,0.152
1593886904547182,1.486,0.534,0.152
1593886905049042,1.486,0.534,0.152
1593886905550910,1.525,0.534,0.152
1593886906052827,1.486,0.534,0.152
1593886906554786,1.486,0.534,0.152
1593886907056659,1.525,0.534,0.152
1593886907558412,1.41,0.457,0.152
1593886908060233,1.486,0.534,0.152
1593886908561934,1.448,0.457,0.152
1593886909063740,1.448,0.457,0.152
1593886909565543,1.525,0.534,0.152
1593886910067467,1.448,0.457,0.152
1593886910576916,1.486,0.457,0.152
1593886911078750,1.486,0.534,0.152
1593886911580659,1.486,0.534,0.152
1593886912082432,1.486,0.534,0.152
1593886912584122,1.372,0.457,0.152
1593886913085864,1.372,0.457,0.152
1593886913587727,1.448,0.534,0.152
1593886914089557,1.486,0.457,0.152
1593886914591445,1.525,0.534,0.152
1593886915093262,1.486,0.534,0.152
1593886915595114,1.525,0.534,0.152
1593886916097088,1.525,0.534,0.152
1593886916598896,1.563,0.534,0.152
1593886917101620,1.448,0.457,0.152
1593886917605724,1.372,0.457,0.152
1593886918108621,1.41,0.457,0.152
1593886918611822,1.41,0.457,0.152
1593886919114911,1.448,0.457,0.152
1593886919617991,1.486,0.534,0.152
1593886920121051,1.525,0.534,0.152
1593886920628706,1.525,0.534,0.152
1593886921131791,1.563,0.534,0.152
1593886921634718,1.753,0.533,0.152
1593886922137762,1.753,0.533,0.152
1593886922640638,1.563,0.534,0.152
1593886923143620,1.41,0.457,0.152
1593886923646754,1.372,0.457,0.152
1593886924149997,1.486,0.534,0.152
1593886924653109,1.486,0.534,0.152
1593886925155586,1.525,0.534,0.152
1593886925657450,1.525,0.534,0.152
1593886926159359,1.486,0.534,0.152
1593886926661090,1.486,0.534,0.152
1593886927162853,1.41,0.457,0.152
1593886927668001,1.41,0.457,0.152
1593886928169827,1.525,0.534,0.152
1593886928671581,1.448,0.457,0.152
1593886929173409,1.525,0.534,0.152
1593886929675145,1.525,0.534,0.152
1593886930178402,1.525,0.534,0.152
1593886930681350,1.486,0.534,0.152
1593886931184350,1.486,0.534,0.152
1593886931687693,1.486,0.534,0.152
1593886932190071,1.448,0.457,0.152
1593886932701075,1.486,0.457,0.152
1593886933202930,1.486,0.534,0.152
1593886933704729,1.525,0.534,0.152
1593886934209000,1.486,0.534,0.152
1593886934710836,1.448,0.457,0.152
1593886935212633,1.486,0.534,0.152
1593886935714608,1.448,0.457,0.152
1593886936216468,1.486,0.534,0.152
1593886936718320,1.448,0.457,0.152
1593886937220225,1.486,0.534,0.152
1593886937726359,1.525,0.534,0.152
1593886938229447,1.486,0.534,0.152
1593886938732333,1.525,0.534,0.152
1593886939235255,1.486,0.534,0.152
1593886939738265,1.525,0.534,0.152
1593886940241322,1.448,0.457,0.152
1593886940744376,1.486,0.534,0.152
1593886941247495,1.41,0.457,0.152
1593886941750488,1.448,0.457,0.152
1593886942252781,1.486,0.534,0.152
1593886942754624,1.448,0.457,0.152
1593886943256577,1.486,0.457,0.152
1593886943758296,1.486,0.534,0.152
1593886944260340,1.525,0.534,0.152
1593886944762178,1.525,0.534,0.152
1593886945264036,1.41,0.457,0.152
1593886945765754,1.448,0.457,0.152
1593886946267645,1.448,0.457,0.152
1593886946769400,1.486,0.534,0.152
1593886947271206,1.486,0.534,0.152
1593886947774068,1.486,0.534,0.152
1593886948277067,1.563,0.534,0.152
1593886948780079,1.486,0.534,0.152
1593886949283069,1.486,0.457,0.152
1593886949786136,1.41,0.457,0.152
1593886950289200,1.372,0.457,0.152
1593886950792302,1.41,0.457,0.152
1593886951295143,1.486,0.534,0.152
1593886951798076,1.448,0.457,0.152
1593886952301026,1.601,0.457,0.152
1593886952804351,1.753,0.534,0.152
1593886953307280,1.677,0.534,0.152
1593886953810496,1.563,0.534,0.152
1593886954313447,1.448,0.534,0.152
1593886954816454,1.448,0.534,0.152
1593886955319476,1.41,0.457,0.152
1593886955822964,1.448,0.457,0.152
1593886956326040,1.525,0.534,0.152
1593886956829033,1.486,0.534,0.152
1593886957337896,1.486,0.534,0.152
1593886957840880,1.486,0.534,0.152
1593886958343980,1.486,0.534,0.152
1593886958851235,1.486,0.534,0.152
1593886959354167,1.486,0.534,0.152
1593886959857171,1.486,0.534,0.152
1593886960360171,1.41,0.457,0.152
1593886960863141,1.486,0.534,0.152
1593886961373408,1.525,0.534,0.152
1593886961876852,1.486,0.534,0.152
1593886962379954,1.486,0.534,0.152
1593886962882158,1.486,0.534,0.152
1593886963383966,1.448,0.457,0.152
1593886963885752,1.41,0.457,0.152
1593886964387730,1.41,0.457,0.152
1593886964889565,1.448,0.457,0.152
1593886965391798,1.486,0.534,0.152
1593886965893638,1.525,0.534,0.152
1593886966395481,1.486,0.534,0.152
1593886966897358,1.486,0.534,0.152
1593886967399201,1.486,0.534,0.152
1593886967901121,1.486,0.534,0.152
1593886968402962,1.525,0.534,0.152
1593886968904819,1.448,0.534,0.152
1593886969406709,1.486,0.534,0.152
1593886969908497,1.448,0.534,0.152
1593886970410308,1.448,0.457,0.152
1593886970912127,1.486,0.534,0.152
1593886971413834,1.448,0.534,0.152
1593886971916069,1.525,0.534,0.152
1593886972417865,1.486,0.534,0.152
1593886972919962,1.525,0.534,0.152
1593886973421765,1.486,0.534,0.152
1593886973942964,1.41,0.457,0.152
1593886974445999,1.486,0.534,0.152
1593886974952309,1.486,0.457,0.152
1593886975455272,1.486,0.534,0.152
1593886975958654,1.486,0.534,0.152
1593886976461771,1.448,0.534,0.152
1593886976964804,1.525,0.534,0.152
1593886977467738,1.448,0.457,0.152
1593886977970588,1.486,0.534,0.152
1593886978474639,1.41,0.457,0.152
1593886978977789,1.525,0.534,0.152
1593886979480818,1.486,0.534,0.152
1593886979989532,1.41,0.457,0.152
1593886980492538,1.486,0.534,0.152
1593886981008095,1.525,0.534,0.152
1593886981511076,1.525,0.534,0.152
1593886982014187,1.677,0.534,0.152
1593886982517001,1.486,0.534,0.152
1593886983019813,1.448,0.457,0.152
1593886983521543,1.41,0.457,0.152
1593886984023389,1.448,0.457,0.152
1593886984525263,1.525,0.534,0.152
1593886985028163,1.563,0.534,0.152
1593886985531168,1.792,0.533,0.152
1593886986034182,1.83,0.533,0.152
1593886986537604,1.868,0.533,0.152
1593886987040528,1.753,0.533,0.152
1593886987543538,1.525,0.534,0.152
1593886988046324,1.448,0.457,0.152
1593886988549344,1.41,0.457,0.152
1593886989052336,1.448,0.457,0.152
1593886989555115,1.486,0.534,0.152
1593886990058066,1.448,0.457,0.152
1593886990565211,1.525,0.534,0.152
1593886991068144,1.525,0.534,0.152
1593886991570992,1.563,0.534,0.152
1593886992074048,1.525,0.534,0.152
1593886992576935,1.448,0.534,0.152
1593886993079884,1.372,0.457,0.152
1593886993582712,1.486,0.457,0.152
1593886994085882,1.486,0.534,0.152
1593886994589196,1.448,0.457,0.152
1593886995092329,1.486,0.534,0.152
1593886995599608,1.486,0.534,0.152
1593886996102525,1.525,0.534,0.152
1593886996605397,1.486,0.534,0.152
1593886997108743,1.486,0.534,0.152
1593886997611704,1.486,0.534,0.152
1593886998114756,1.486,0.457,0.152
1593886998618054,1.525,0.534,0.152
1593886999121162,1.486,0.534,0.152
1593886999624116,1.525,0.534,0.152
1593887000127042,1.486,0.534,0.152
1593887000634240,1.525,0.534,0.152
1593887001149417,1.525,0.534,0.152
1593887001657887,1.486,0.457,0.152
1593887002160952,1.41,0.457,0.152
1593887002663920,1.372,0.457,0.152
1593887003166249,1.448,0.457,0.152
1593887003668129,1.486,0.534,0.152
1593887004169968,1.486,0.534,0.152
1593887004671776,1.486,0.457,0.152
1593887005173551,1.448,0.457,0.152
1593887005678347,1.486,0.457,0.152
1593887006180255,1.486,0.534,0.152
1593887006681978,1.41,0.457,0.152
1593887007184304,1.448,0.457,0.152
1593887007686070,1.41,0.457,0.152
1593887008192677,1.448,0.457,0.152
1593887008694461,1.525,0.534,0.152
1593887009196300,1.448,0.457,0.152
1593887009698063,1.41,0.457,0.152
1593887010199915,1.486,0.534,0.152
1593887010701795,1.448,0.457,0.152
1593887011203708,1.486,0.534,0.152
1593887011705542,1.486,0.534,0.152
1593887012207414,1.448,0.534,0.152
1593887012709208,1.486,0.534,0.152
1593887013210908,1.448,0.457,0.152
1593887013712636,1.486,0.457,0.152
1593887014214469,1.448,0.534,0.152
1593887014716361,1.448,0.457,0.152
1593887015218165,1.525,0.534,0.152
1593887015720091,1.486,0.534,0.152
1593887016221898,1.525,0.534,0.152
1593887016723752,1.448,0.457,0.152
1593887017225469,1.448,0.457,0.152
1593887017727349,1.448,0.457,0.152
1593887018229127,1.448,0.457,0.152
1593887018730928,1.486,0.534,0.152
1593887019232713,1.486,0.534,0.152
1593887019734692,1.525,0.534,0.152
1593887020236575,1.525,0.534,0.152
1593887020738387,1.41,0.457,0.152
1593887021240381,1.486,0.534,0.152
1593887021742396,1.448,0.457,0.152
1593887022244306,1.525,0.534,0.152
1593887022746157,1.486,0.534,0.152
1593887023248038,1.448,0.534,0.152
1593887023749876,1.486,0.534,0.152
1593887024251610,1.486,0.534,0.152
1593887024753428,1.525,0.534,0.152
1593887025255152,1.486,0.457,0.152
1593887025757085,1.525,0.534,0.152
1593887026258836,1.41,0.457,0.152
1593887026761611,1.448,0.457,0.152
1593887027264565,1.486,0.534,0.152
1593887027767555,1.448,0.457,0.152
1593887028270602,1.525,0.534,0.152
1593887028773641,1.486,0.534,0.152
1593887029276997,1.448,0.534,0.152
1593887029780030,1.486,0.534,0.152
1593887030282935,1.486,0.534,0.152
1593887030785930,1.525,0.534,0.152
1593887031289181,1.525,0.534,0.152
1593887031792481,1.486,0.534,0.152
1593887032298677,1.448,0.457,0.152
1593887032801856,1.486,0.534,0.152
1593887033305043,1.486,0.534,0.152
1593887033808315,1.525,0.534,0.152
1593887034311162,1.525,0.534,0.152
1593887034814078,1.486,0.534,0.152
1593887035317075,1.448,0.457,0.152
1593887035819891,1.41,0.457,0.152
1593887036322684,1.486,0.534,0.152
1593887036825716,1.525,0.534,0.152
1593887037332816,1.486,0.534,0.152
1593887037835762,1.486,0.534,0.152
1593887038338644,1.486,0.534,0.152
1593887038841729,1.448,0.457,0.152
1593887039344695,1.486,0.534,0.152
1593887039847779,1.525,0.534,0.152
1593887040350884,1.486,0.457,0.152
1593887040853911,1.448,0.457,0.152
1593887041356711,1.486,0.534,0.152
1593887041864948,1.448,0.534,0.152
1593887042371746,1.486,0.534,0.152
1593887042874673,1.486,0.534,0.152
1593887043377655,1.486,0.534,0.152
1593887043880549,1.525,0.534,0.152
1593887044383809,1.486,0.534,0.152
1593887044886714,1.525,0.534,0.152
1593887045389754,1.448,0.457,0.152
1593887045892886,1.448,0.457,0.152
1593887046395841,1.486,0.534,0.152
1593887046898934,1.448,0.534,0.152
1593887047406146,1.486,0.534,0.152
1593887047909209,1.486,0.534,0.152
1593887048412660,1.486,0.534,0.152
1593887048915712,1.525,0.534,0.152
1593887049418570,1.448,0.457,0.152
1593887049920987,1.486,0.534,0.152
1593887050422762,1.448,0.534,0.152
1593887050924498,1.41,0.457,0.152
1593887051426398,1.486,0.457,0.152
1593887051928125,1.486,0.534,0.152
1593887052429921,1.486,0.534,0.152
1593887052931830,1.525,0.534,0.152
1593887053433675,1.486,0.534,0.152
1593887053935534,1.486,0.457,0.152
1593887054437288,1.525,0.534,0.152
1593887054939141,1.486,0.534,0.152
1593887055440969,1.41,0.457,0.152
1593887055942781,1.486,0.534,0.152
1593887056444674,1.486,0.534,0.152
1593887056946826,1.486,0.534,0.152
1593887057448691,1.486,0.534,0.152
1593887057951480,1.486,0.534,0.152
1593887058454449,1.525,0.534,0.152
1593887058957674,1.486,0.534,0.152
1593887059460588,1.486,0.534,0.152
1593887059962835,1.41,0.457,0.152
1593887060464570,1.372,0.457,0.152
1593887060966275,1.486,0.457,0.152
1593887061468135,1.486,0.534,0.152
1593887061969953,1.486,0.534,0.152
1593887062471823,1.448,0.534,0.152
1593887062973683,1.486,0.534,0.152
1593887063475522,1.486,0.534,0.152
1593887063977339,1.525,0.534,0.152
1593887064479098,1.486,0.534,0.152
1593887064980876,1.41,0.457,0.152
1593887065482718,1.448,0.534,0.152
1593887065984657,1.448,0.534,0.152
1593887066486521,1.486,0.534,0.152
1593887066988315,1.486,0.534,0.152
1593887067490083,1.448,0.457,0.152
1593887067992159,1.486,0.534,0.152
1593887068494982,1.486,0.534,0.152
1593887068996886,1.486,0.534,0.152
1593887069498625,1.486,0.534,0.152
1593887070000260,1.41,0.457,0.152
1593887070501831,1.334,0.457,0.152
1593887071003717,1.372,0.457,0.152
1593887071505530,1.486,0.534,0.152
1593887072007415,1.448,0.457,0.152
1593887072516937,1.525,0.534,0.152
1593887073018898,1.525,0.534,0.152
1593887073520893,1.525,0.534,0.152
1593887074022777,1.525,0.534,0.152
1593887074524719,1.525,0.534,0.152
1593887075026639,1.525,0.534,0.152
1593887075528380,1.41,0.457,0.152
1593887076030764,1.525,0.534,0.152
1593887076532482,1.448,0.457,0.152
1593887077034404,1.486,0.534,0.152
1593887077536221,1.448,0.534,0.152
1593887078038027,1.486,0.534,0.152
1593887078539912,1.525,0.534,0.152
1593887079041713,1.486,0.534,0.152
1593887079543577,1.486,0.534,0.152
1593887080045330,1.41,0.457,0.152
1593887080547243,1.448,0.457,0.152
1593887081049109,1.486,0.534,0.152
1593887081550912,1.448,0.457,0.152
1593887082052792,1.525,0.457,0.152
1593887082554648,1.486,0.534,0.152
1593887083056559,1.448,0.457,0.152
1593887083558322,1.486,0.534,0.152
1593887084060206,1.448,0.457,0.152
1593887084561982,1.486,0.534,0.152
1593887085063890,1.41,0.457,0.152
1593887085565687,1.486,0.534,0.152
1593887086067502,1.486,0.534,0.152
1593887086569400,1.448,0.457,0.152
1593887087071293,1.486,0.534,0.152
1593887087573630,1.486,0.534,0.152
1593887088075478,1.448,0.457,0.152
1593887088577238,1.486,0.534,0.152
1593887089079042,1.41,0.457,0.152
1593887089585228,1.41,0.457,0.152
1593887090087019,1.486,0.534,0.152
1593887090588832,1.486,0.534,0.152
1593887091090603,1.486,0.534,0.152
1593887091594061,1.448,0.457,0.152
1593887092095921,1.448,0.457,0.152
1593887092597755,1.525,0.534,0.152
1593887093099637,1.448,0.457,0.152
1593887093601435,1.448,0.534,0.152
1593887094103205,1.448,0.534,0.152
1593887094605286,1.486,0.457,0.152
1593887095107103,1.486,0.534,0.152
1593887095609057,1.486,0.534,0.152
1593887096110876,1.486,0.534,0.152
1593887096612712,1.486,0.534,0.152
1593887097114514,1.525,0.534,0.152
1593887097616388,1.486,0.534,0.152
1593887098118196,1.525,0.534,0.152
1593887098619871,1.41,0.457,0.152
1593887099121511,1.372,0.457,0.152
1593887099623462,1.448,0.457,0.152
1593887100125269,1.525,0.534,0.152
1593887100627533,1.525,0.534,0.152
1593887101129319,1.525,0.534,0.152
1593887101631148,1.448,0.457,0.152
1593887102133038,1.525,0.457,0.152
1593887102634812,1.639,0.457,0.152
1593887103136584,1.563,0.457,0.152
1593887103638175,1.41,0.457,0.152
1593887104140004,1.486,0.457,0.152
1593887104641902,1.448,0.457,0.152
1593887105143738,1.486,0.534,0.152
1593887105645584,1.525,0.534,0.152
1593887106147431,1.486,0.534,0.152
1593887106649300,1.525,0.534,0.152
1593887107151083,1.448,0.534,0.152
1593887107652881,1.486,0.534,0.152
1593887108154731,1.41,0.457,0.152
1593887108656706,1.486,0.534,0.152
1593887109158441,1.486,0.534,0.152
1593887109660444,1.448,0.534,0.152
1593887110162275,1.525,0.534,0.152
1593887110664070,1.525,0.534,0.152
1593887111165923,1.486,0.534,0.152
1593887111667843,1.448,0.457,0.152
1593887112169600,1.486,0.534,0.152
1593887112671433,1.41,0.457,0.152
1593887113173154,1.41,0.457,0.152
1593887113675002,1.448,0.457,0.152
1593887114176888,1.486,0.534,0.152
1593887114678721,1.525,0.534,0.152
1593887115180504,1.448,0.457,0.152
1593887115682334,1.448,0.457,0.152
1593887116184119,1.486,0.457,0.152
1593887116688690,1.486,0.534,0.152
1593887117190465,1.486,0.534,0.152
1593887117692430,1.41,0.457,0.152
1593887118194253,1.525,0.534,0.152
1593887118696136,1.753,0.534,0.152
1593887119198062,1.563,0.534,0.152
1593887119699963,1.525,0.534,0.152
1593887120201737,1.448,0.457,0.152
1593887120703601,1.486,0.457,0.152
1593887121205444,1.486,0.534,0.152
1593887121710034,1.486,0.534,0.152
1593887122211903,1.448,0.534,0.152
1593887122713750,1.448,0.534,0.152
1593887123215641,1.486,0.534,0.152
1593887123718733,1.563,0.534,0.152
1593887124220582,1.753,0.533,0.152
1593887124722415,1.525,0.457,0.152
1593887125224427,1.525,0.534,0.152
1593887125726215,1.486,0.534,0.152
1593887126228150,1.448,0.534,0.152
1593887126737757,1.448,0.534,0.152
1593887127243934,1.448,0.457,0.152
1593887127746818,1.486,0.534,0.152
1593887128249712,1.525,0.534,0.152
1593887128754248,1.448,0.457,0.152
1593887129257279,1.486,0.457,0.152
1593887129760302,1.486,0.534,0.152
1593887130263236,1.486,0.534,0.152
1593887130766199,1.448,0.534,0.152
1593887131269176,1.448,0.457,0.152
1593887131772171,1.486,0.534,0.152
1593887132275126,1.448,0.457,0.152
1593887132778767,1.486,0.534,0.152
1593887133285760,1.486,0.534,0.152
1593887133788793,1.41,0.457,0.152
1593887134296544,1.486,0.534,0.152
1593887134799556,1.486,0.534,0.152
1593887135303051,1.448,0.534,0.152
1593887135806180,1.41,0.457,0.152
1593887136309253,1.448,0.457,0.152
1593887136812304,1.486,0.534,0.152
1593887137315861,1.486,0.534,0.152
1593887137818501,1.525,0.534,0.152
1593887138320420,1.486,0.534,0.152
1593887138822351,1.448,0.457,0.152
1593887139324158,1.486,0.534,0.152
1593887139825930,1.448,0.534,0.152
1593887140327815,1.448,0.534,0.152
1593887140829603,1.448,0.534,0.152
1593887141331489,1.486,0.534,0.152
1593887141833310,1.486,0.534,0.152
1593887142335175,1.525,0.534,0.152
1593887142839996,1.525,0.534,0.152
1593887143341811,1.448,0.457,0.152
1593887143843696,1.486,0.534,0.152
1593887144345457,1.41,0.457,0.152
1593887144847225,1.448,0.457,0.152
1593887145349184,1.486,0.534,0.152
1593887145851043,1.525,0.534,0.152
1593887146353045,1.525,0.534,0.152
1593887146854899,1.448,0.534,0.152
1593887147356743,1.486,0.534,0.152
1593887147861373,1.486,0.457,0.152
1593887148363200,1.525,0.534,0.152
1593887148865085,1.486,0.534,0.152
1593887149366964,1.486,0.534,0.152
1593887149868829,1.448,0.534,0.152
1593887150370651,1.41,0.457,0.152
1593887150872461,1.753,0.457,0.152
1593887151374216,1.601,0.534,0.152
1593887151876168,1.486,0.534,0.152
1593887152377934,1.486,0.534,0.152
1593887152883478,1.486,0.534,0.152
1593887153386766,1.486,0.534,0.152
1593887153890474,1.486,0.534,0.152
1593887154393537,1.525,0.534,0.152
1593887154896548,1.486,0.534,0.152
1593887155399651,1.486,0.534,0.152
1593887155902558,1.525,0.534,0.152
1593887156405528,1.525,0.534,0.152
1593887156908585,1.525,0.534,0.152
1593887157411568,1.448,0.457,0.152
1593887157914648,1.525,0.534,0.152
1593887158417643,1.486,0.534,0.152
1593887158920886,1.486,0.534,0.152
1593887159423918,1.525,0.534,0.152
1593887159928420,1.41,0.457,0.152
1593887160431505,1.486,0.534,0.152
1593887160934699,1.486,0.534,0.152
1593887161438027,1.525,0.534,0.152
1593887161941027,1.486,0.534,0.152
1593887162444139,1.525,0.534,0.152
1593887162949936,1.525,0.534,0.152
1593887163453319,1.525,0.534,0.152
1593887163956397,1.486,0.534,0.152
1593887164459701,1.448,0.457,0.152
1593887164962575,1.486,0.534,0.152
1593887165465572,1.486,0.534,0.152
1593887165968628,1.525,0.534,0.152
1593887166471549,1.486,0.534,0.152
1593887166974506,1.525,0.534,0.152
1593887167477452,1.525,0.534,0.152
1593887167980787,1.486,0.534,0.152
1593887168483770,1.448,0.457,0.152
1593887168986687,1.372,0.457,0.152
1593887169489784,1.41,0.457,0.152
1593887169992838,1.486,0.534,0.152
1593887170495882,1.448,0.457,0.152
1593887170998875,1.486,0.534,0.152
1593887171502134,1.486,0.534,0.152
1593887172005063,1.448,0.457,0.152
1593887172509461,1.486,0.534,0.152
1593887173015166,1.448,0.457,0.152
1593887173518321,1.525,0.534,0.152
1593887174021418,1.448,0.534,0.152
1593887174525116,1.41,0.457,0.152
1593887175028118,1.486,0.534,0.152
1593887175530963,1.486,0.534,0.152
1593887176036103,1.525,0.534,0.152
1593887176540046,1.486,0.534,0.152
1593887177043531,1.448,0.534,0.152
1593887177546550,1.486,0.534,0.152
1593887178052658,1.486,0.457,0.152
1593887178556071,1.41,0.457,0.152
1593887179059003,1.448,0.534,0.152
1593887179561968,1.41,0.457,0.152
1593887180065009,1.486,0.534,0.152
1593887180568009,1.486,0.534,0.152
1593887181070906,1.486,0.534,0.152
1593887181573924,1.486,0.534,0.152
1593887182077005,1.486,0.534,0.152
1593887182579947,1.525,0.534,0.152
1593887183083012,1.486,0.534,0.152
1593887183586086,1.448,0.534,0.152
1593887184089143,1.486,0.534,0.152
1593887184591602,1.486,0.534,0.152
1593887185094305,1.525,0.534,0.152
1593887185597396,1.448,0.534,0.152
1593887186100383,1.486,0.534,0.152
1593887186603954,1.448,0.534,0.152
1593887187106862,1.486,0.534,0.152
1593887187609979,1.486,0.534,0.152
1593887188113095,1.486,0.534,0.152
1593887188616107,1.41,0.457,0.152
1593887189119115,1.41,0.457,0.152
1593887189621996,1.486,0.457,0.152
1593887190125171,1.525,0.534,0.152
1593887190628753,1.448,0.534,0.152
1593887191132068,1.525,0.534,0.152
1593887191634924,1.448,0.457,0.152
1593887192138068,1.525,0.534,0.152
1593887192642269,1.41,0.457,0.152
1593887193145304,1.448,0.457,0.152
1593887193651210,1.677,0.457,0.152
1593887194154178,1.792,0.457,0.152
1593887194657046,1.601,0.534,0.152
1593887195160226,1.563,0.534,0.152
1593887195663123,1.486,0.534,0.152
1593887196166302,1.525,0.534,0.152
1593887196669448,1.448,0.457,0.152
1593887197172520,1.448,0.457,0.152
1593887197675542,1.41,0.457,0.152
1593887198178398,1.372,0.457,0.152
1593887198681606,1.372,0.457,0.152
1593887199184729,1.486,0.534,0.152
1593887199687571,1.486,0.534,0.152
1593887200190406,1.525,0.534,0.152
1593887200697860,1.486,0.534,0.152
1593887201200983,1.525,0.534,0.152
1593887201703282,1.525,0.534,0.152
1593887202205132,1.563,0.534,0.152
1593887202706910,1.448,0.457,0.152
1593887203208683,1.448,0.534,0.152
1593887203713259,1.486,0.534,0.152
1593887204214973,1.486,0.534,0.152
1593887204716905,1.525,0.534,0.152
1593887205218756,1.448,0.534,0.152
1593887205720674,1.525,0.534,0.152
1593887206222525,1.525,0.534,0.152
1593887206732440,1.486,0.534,0.152
1593887207234284,1.448,0.457,0.152
1593887207736105,1.486,0.534,0.152
1593887208237957,1.486,0.534,0.152
1593887208743167,1.448,0.457,0.152
1593887209245107,1.486,0.534,0.152
1593887209746950,1.486,0.534,0.152
1593887210248840,1.525,0.534,0.152
1593887210750721,1.486,0.534,0.152
1593887211252664,1.448,0.457,0.152
1593887211754480,1.486,0.534,0.152
1593887212256335,1.41,0.457,0.152
1593887212758162,1.486,0.534,0.152
1593887213260112,1.448,0.457,0.152
1593887213766096,1.448,0.457,0.152
1593887214269214,1.486,0.534,0.152
1593887214772336,1.486,0.534,0.152
1593887215275294,1.715,0.533,0.152
1593887215778259,1.563,0.534,0.152
1593887216281331,1.486,0.457,0.152
1593887216784391,1.525,0.534,0.152
1593887217287252,1.486,0.534,0.152
1593887217790585,1.525,0.534,0.152
1593887218293531,1.486,0.534,0.152
1593887218796868,1.448,0.457,0.152
1593887219299886,1.448,0.457,0.152
1593887219802981,1.525,0.534,0.152
1593887220305854,1.677,0.457,0.152
1593887220809161,1.563,0.534,0.152
1593887221312211,1.677,0.534,0.152
1593887221815420,1.792,0.533,0.152
1593887222318371,1.715,0.534,0.152
1593887222821452,1.677,0.534,0.152
1593887223324142,1.525,0.457,0.152
1593887223829479,1.486,0.534,0.152
1593887224332525,1.525,0.534,0.152
1593887224835667,1.525,0.534,0.152
1593887225338698,1.677,0.533,0.152
1593887225841624,1.792,0.533,0.152
1593887226344586,1.677,0.457,0.152
1593887226847539,1.525,0.534,0.152
1593887227350477,1.41,0.457,0.152
1593887227852482,1.486,0.534,0.152
1593887228354292,1.448,0.534,0.152
1593887228858899,1.486,0.534,0.152
1593887229360744,1.486,0.534,0.152
1593887229862615,1.486,0.534,0.152
1593887230364801,1.486,0.534,0.152
1593887230867765,1.486,0.534,0.152
1593887231370814,1.525,0.534,0.152
1593887231874106,1.448,0.457,0.152
1593887232377239,1.41,0.457,0.152
1593887232880366,1.448,0.457,0.152
1593887233384545,1.448,0.457,0.152
1593887233891582,1.41,0.457,0.152
1593887234394635,1.525,0.534,0.152
1593887234901821,1.486,0.534,0.152
1593887235405088,1.525,0.534,0.152
1593887235908778,1.715,0.533,0.152
1593887236412041,1.525,0.457,0.152
1593887236915454,1.448,0.457,0.152
1593887237418360,1.486,0.534,0.152
1593887237934293,1.486,0.534,0.152
1593887238441435,1.448,0.457,0.152
1593887238947035,1.448,0.457,0.152
1593887239450006,1.486,0.534,0.152
1593887239952888,1.525,0.534,0.152
1593887240455776,1.525,0.534,0.152
1593887240958777,1.525,0.534,0.152
1593887241461749,1.486,0.534,0.152
1593887241964686,1.41,0.457,0.152
1593887242466947,1.486,0.457,0.152
1593887242969002,1.486,0.534,0.152
1593887243470923,1.448,0.457,0.152
1593887243976124,1.486,0.534,0.152
1593887244477952,1.525,0.534,0.152
1593887244979844,1.525,0.534,0.152
1593887245481600,1.448,0.534,0.152
1593887245983403,1.715,0.534,0.152
1593887246485186,1.525,0.457,0.152
1593887246986952,1.525,0.457,0.152
1593887247488727,1.486,0.534,0.152
1593887247990566,1.486,0.534,0.152
1593887248492447,1.525,0.534,0.152
1593887248997079,1.525,0.534,0.152
1593887249498828,1.525,0.534,0.152
1593887250000681,1.486,0.534,0.152
1593887250502520,1.486,0.534,0.152
1593887251004295,1.41,0.457,0.152
1593887251506037,1.41,0.457,0.152
1593887252008102,1.486,0.457,0.152
1593887252509907,1.448,0.457,0.152
1593887253011884,1.41,0.457,0.152
1593887253513720,1.486,0.534,0.152
1593887254018555,1.486,0.534,0.152
1593887254520419,1.525,0.534,0.152
1593887255022140,1.448,0.457,0.152
1593887255523954,1.525,0.534,0.152
1593887256025570,1.41,0.457,0.152
1593887256527439,1.372,0.457,0.152
1593887257029231,1.486,0.534,0.152
1593887257530947,1.486,0.534,0.152
1593887258036988,1.486,0.534,0.152
1593887258538806,1.486,0.534,0.152
1593887259044159,1.525,0.534,0.152
1593887259546013,1.525,0.534,0.152
1593887260047841,1.41,0.457,0.152
1593887260549688,1.448,0.534,0.152
1593887261051668,1.486,0.534,0.152
1593887261553540,1.486,0.534,0.152
1593887262055375,1.525,0.534,0.152
1593887262557220,1.448,0.457,0.152
1593887263059072,1.525,0.534,0.152
1593887263560782,1.41,0.457,0.152
1593887264065399,1.486,0.457,0.152
1593887264567238,1.448,0.534,0.152
1593887265069064,1.41,0.457,0.152
1593887265570812,1.448,0.534,0.152
1593887266072667,1.486,0.534,0.152
1593887266574496,1.486,0.534,0.152
1593887267076380,1.448,0.534,0.152
1593887267578161,1.448,0.534,0.152
1593887268080048,1.525,0.534,0.152
1593887268581835,1.486,0.534,0.152
1593887269083711,1.486,0.534,0.152
1593887269585491,1.448,0.534,0.152
1593887270087259,1.448,0.534,0.152
1593887270589170,1.486,0.534,0.152
1593887271091136,1.563,0.534,0.152
1593887271593051,1.486,0.534,0.152
1593887272094950,1.448,0.457,0.152
1593887272596888,1.525,0.534,0.152
1593887273098712,1.486,0.534,0.152
1593887273600485,1.486,0.457,0.152
1593887274105146,1.448,0.457,0.152
1593887274606987,1.448,0.534,0.152
1593887275108926,1.448,0.534,0.152
1593887275610636,1.448,0.534,0.152
1593887276112494,1.486,0.534,0.152
1593887276614316,1.525,0.534,0.152
1593887277116225,1.486,0.534,0.152
1593887277618085,1.486,0.534,0.152
1593887278119982,1.486,0.534,0.152
1593887278621751,1.486,0.457,0.152
1593887279126415,1.448,0.534,0.152
1593887279628125,1.448,0.457,0.152
1593887280132728,1.486,0.534,0.152
1593887280634707,1.525,0.534,0.152
1593887281136580,1.525,0.534,0.152
1593887281638386,1.486,0.534,0.152
1593887282140231,1.525,0.534,0.152
1593887282642055,1.486,0.534,0.152
1593887283143919,1.525,0.534,0.152
1593887283645675,1.639,0.534,0.152
1593887284150020,1.792,0.533,0.152
1593887284651856,1.601,0.534,0.152
1593887285153646,1.525,0.534,0.152
1593887285655529,1.525,0.534,0.152
1593887286157344,1.715,0.534,0.152
1593887286659175,1.83,0.533,0.152
1593887287160989,1.715,0.457,0.152
1593887287662848,1.525,0.534,0.152
1593887288164609,1.448,0.457,0.152
1593887288666463,1.486,0.457,0.152
1593887289168378,1.601,0.534,0.152
1593887289670353,1.753,0.457,0.152
1593887290172215,1.715,0.457,0.152
1593887290674042,1.563,0.534,0.152
1593887291175941,1.486,0.457,0.152
1593887291677716,1.486,0.534,0.152
1593887292179490,1.486,0.457,0.152
1593887292681415,1.486,0.534,0.152
1593887293183271,1.41,0.457,0.152
1593887293685164,1.448,0.457,0.152
1593887294186935,1.41,0.457,0.152
1593887294691988,1.486,0.534,0.152
1593887295193779,1.486,0.534,0.152
1593887295695684,1.486,0.534,0.152
1593887296197502,1.486,0.534,0.152
1593887296699449,1.486,0.534,0.152
1593887297201313,1.525,0.534,0.152
1593887297703157,1.448,0.457,0.152
1593887298205047,1.486,0.534,0.152
1593887298706799,1.448,0.534,0.152
1593887299208932,1.448,0.534,0.152
1593887299710770,1.486,0.534,0.152
1593887300212497,1.448,0.457,0.152
1593887300714312,1.486,0.534,0.152
1593887301216193,1.486,0.534,0.152
1593887301717942,1.448,0.534,0.152
1593887302219915,1.525,0.534,0.152
1593887302721740,1.525,0.534,0.152
1593887303223491,1.448,0.534,0.152
1593887303725352,1.448,0.457,0.152
1593887304227221,1.525,0.534,0.152
1593887304729137,1.448,0.457,0.152
1593887305230966,1.525,0.534,0.152
1593887305732741,1.486,0.534,0.152
1593887306234602,1.448,0.534,0.152
1593887306736439,1.41,0.457,0.152
1593887307238136,1.372,0.457,0.152
1593887307739915,1.41,0.457,0.152
1593887308241642,1.448,0.457,0.152
1593887308743501,1.448,0.457,0.152
1593887309245482,1.448,0.457,0.152
1593887309747464,1.525,0.534,0.152
1593887310249189,1.639,0.534,0.152
1593887310751154,1.792,0.533,0.152
1593887311252998,1.792,0.533,0.152
1593887311754794,1.525,0.534,0.152
1593887312256661,1.525,0.534,0.152
1593887312758459,1.486,0.534,0.152
1593887313260357,1.525,0.534,0.152
1593887313762223,1.677,0.534,0.152
1593887314264035,1.601,0.534,0.152
1593887314765857,1.563,0.534,0.152
1593887315270553,1.486,0.534,0.152
1593887315772196,1.486,0.534,0.152
1593887316273719,1.372,0.457,0.152
1593887316775467,1.372,0.457,0.152
1593887317277299,1.448,0.457,0.152
1593887317779160,1.486,0.534,0.152
1593887318281096,1.41,0.457,0.152
1593887318782933,1.486,0.457,0.152
1593887319284831,1.486,0.534,0.152
1593887319786635,1.486,0.534,0.152
1593887320291285,1.486,0.534,0.152
1593887320793161,1.448,0.534,0.152
1593887321294947,1.448,0.534,0.152
1593887321796753,1.41,0.457,0.152
1593887322298539,1.448,0.457,0.152
1593887322800430,1.525,0.534,0.152
1593887323302282,1.486,0.534,0.152
1593887323804160,1.486,0.534,0.152
1593887324305991,1.525,0.534,0.152
1593887324808466,1.525,0.534,0.152
1593887325311535,1.486,0.534,0.152
1593887325814452,1.41,0.457,0.152
1593887326317514,1.448,0.534,0.152
1593887326820248,1.372,0.457,0.152
1593887327322116,1.486,0.457,0.152
1593887327824008,1.486,0.534,0.152
1593887328325936,1.486,0.534,0.152
1593887328827870,1.525,0.534,0.152
1593887329329697,1.486,0.534,0.152
1593887329831599,1.486,0.534,0.152
1593887330336891,1.41,0.457,0.152
1593887330839841,1.372,0.457,0.152
1593887331342773,1.448,0.457,0.152
1593887331845893,1.448,0.457,0.152
1593887332348914,1.448,0.457,0.152
1593887332853141,1.486,0.534,0.152
1593887333356225,1.486,0.534,0.152
1593887333859170,1.525,0.534,0.152
1593887334362253,1.448,0.457,0.152
1593887334865350,1.448,0.457,0.152
1593887335368353,1.448,0.534,0.152
1593887335871531,1.448,0.457,0.152
1593887336374530,1.486,0.534,0.152
1593887336877649,1.486,0.534,0.152
1593887337380573,1.525,0.534,0.152
1593887337883853,1.525,0.534,0.152
1593887338386956,1.486,0.534,0.152
1593887338889956,1.525,0.534,0.152
1593887339392924,1.525,0.534,0.152
1593887339896051,1.448,0.457,0.152
1593887340401677,1.41,0.457,0.152
1593887340912408,1.486,0.534,0.152
1593887341415487,1.486,0.534,0.152
1593887341918412,1.448,0.534,0.152
1593887342420676,1.525,0.534,0.152
1593887342922458,1.448,0.457,0.152
1593887343424315,1.486,0.534,0.152
1593887343926140,1.715,0.534,0.152
1593887344427918,1.486,0.457,0.152
1593887344929791,1.448,0.457,0.152
1593887345434445,1.486,0.534,0.152
1593887345945464,1.448,0.457,0.152
1593887346448535,1.525,0.534,0.152
1593887346951590,1.486,0.534,0.152
1593887347454598,1.41,0.457,0.152
1593887347957729,1.486,0.534,0.152
1593887348461013,1.41,0.457,0.152
1593887348964030,1.448,0.457,0.152
1593887349467218,1.448,0.457,0.152
1593887349970201,1.41,0.457,0.152
1593887350476357,1.486,0.534,0.152
1593887350979239,1.448,0.534,0.152
1593887351482215,1.486,0.534,0.152
1593887351985202,1.486,0.457,0.152
1593887352488248,1.448,0.457,0.152
1593887352990988,1.525,0.534,0.152
1593887353494067,1.486,0.534,0.152
1593887353997040,1.41,0.457,0.152
1593887354499368,1.448,0.457,0.152
1593887355001233,1.448,0.534,0.152
1593887355503167,1.372,0.457,0.152
1593887356004982,1.486,0.457,0.152
1593887356506810,1.448,0.534,0.152
1593887357008821,1.486,0.534,0.152
1593887357510693,1.525,0.534,0.152
1593887358012482,1.448,0.457,0.152
1593887358514229,1.486,0.534,0.152
1593887359016071,1.41,0.457,0.152
1593887359517813,1.448,0.457,0.152
1593887360019651,1.486,0.457,0.152
1593887360527498,1.448,0.457,0.152
1593887361029372,1.486,0.534,0.152
1593887361531223,1.486,0.534,0.152
1593887362033149,1.41,0.457,0.152
1593887362534996,1.486,0.457,0.152
1593887363036907,1.448,0.534,0.152
1593887363538737,1.41,0.457,0.152
1593887364040571,1.448,0.534,0.152
1593887364542305,1.41,0.457,0.152
1593887365044130,1.41,0.457,0.152
1593887365548639,1.486,0.534,0.152
1593887366050407,1.448,0.457,0.152
1593887366552450,1.486,0.534,0.152
1593887367054310,1.486,0.534,0.152
1593887367556252,1.486,0.534,0.152
1593887368058102,1.486,0.534,0.152
1593887368559952,1.448,0.534,0.152
1593887369061749,1.448,0.534,0.152
1593887369563724,1.486,0.534,0.152
1593887370065488,1.525,0.534,0.152
1593887370567287,1.486,0.534,0.152
1593887371069310,1.41,0.457,0.152
1593887371571162,1.486,0.534,0.152
1593887372073124,1.486,0.534,0.152
1593887372578939,1.525,0.534,0.152
1593887373080770,1.448,0.534,0.152
1593887373582550,1.486,0.534,0.152
1593887374084440,1.41,0.457,0.152
1593887374586306,1.448,0.457,0.152
1593887375092502,1.486,0.534,0.152
1593887375594433,1.486,0.534,0.152
1593887376099925,1.525,0.534,0.152
1593887376602849,1.525,0.534,0.152
1593887377105871,1.486,0.534,0.152
1593887377608968,1.448,0.457,0.152
1593887378112079,1.372,0.457,0.152
1593887378614999,1.486,0.457,0.152
1593887379118119,1.486,0.534,0.152
1593887379621432,1.486,0.534,0.152
1593887380127664,1.525,0.534,0.152
1593887380629594,1.525,0.534,0.152
1593887381134599,1.563,0.534,0.152
1593887381636487,1.525,0.534,0.152
1593887382138340,1.486,0.534,0.152
1593887382640298,1.486,0.534,0.152
1593887383142221,1.486,0.534,0.152
1593887383644229,1.525,0.534,0.152
1593887384146066,1.448,0.457,0.152
1593887384647857,1.486,0.534,0.152
1593887385149668,1.486,0.534,0.152
1593887385651488,1.486,0.534,0.152
1593887386153304,1.525,0.534,0.152
1593887386655097,1.41,0.457,0.152
1593887387156825,1.448,0.457,0.152
1593887387658439,1.372,0.457,0.152
1593887388160163,1.41,0.457,0.152
1593887388661977,1.486,0.534,0.152
1593887389163893,1.525,0.534,0.152
1593887389665768,1.486,0.534,0.152
1593887390168148,1.525,0.534,0.152
1593887390669978,1.448,0.457,0.152
1593887391171810,1.486,0.534,0.152
1593887391673561,1.41,0.457,0.152
1593887392175378,1.448,0.534,0.152
1593887392677173,1.486,0.534,0.152
1593887393179019,1.448,0.534,0.152
1593887393680894,1.486,0.534,0.152
1593887394182610,1.486,0.534,0.152
1593887394693019,1.448,0.457,0.152
1593887395194846,1.486,0.534,0.152
1593887395696898,1.448,0.457,0.152
1593887396198678,1.448,0.457,0.152
1593887396700554,1.448,0.534,0.152
1593887397202320,1.372,0.457,0.152
1593887397704197,1.372,0.457,0.152
1593887398206063,1.486,0.534,0.152
1593887398707947,1.486,0.534,0.152
1593887399209661,1.525,0.534,0.152
1593887399711481,1.486,0.534,0.152
1593887400213245,1.525,0.534,0.152
1593887400715098,1.525,0.534,0.152
1593887401216969,1.525,0.534,0.152
1593887401718606,1.448,0.457,0.152
1593887402220465,1.41,0.457,0.152
1593887402722168,1.486,0.534,0.152
1593887403223943,1.448,0.457,0.152
1593887403725805,1.448,0.457,0.152
1593887404227651,1.486,0.534,0.152
1593887404729359,1.448,0.457,0.152
1593887405231181,1.525,0.534,0.152
1593887405733054,1.448,0.534,0.152
1593887406234960,1.486,0.534,0.152
1593887406736810,1.448,0.457,0.152
1593887407238677,1.448,0.457,0.152
1593887407740577,1.486,0.534,0.152
1593887408242358,1.486,0.534,0.152
1593887408744368,1.448,0.457,0.152
1593887409246242,1.486,0.534,0.152
1593887409748165,1.486,0.534,0.152
1593887410249968,1.486,0.457,0.152
1593887410751737,1.448,0.534,0.152
1593887411253444,1.525,0.457,0.152
1593887411759442,1.563,0.457,0.152
1593887412267029,1.486,0.457,0.152
1593887412770159,1.448,0.457,0.152
1593887413277870,1.486,0.534,0.152
1593887413780874,1.525,0.534,0.152
1593887414284056,1.486,0.534,0.152
1593887414787051,1.448,0.534,0.152
1593887415290323,1.486,0.534,0.152
1593887415793596,1.448,0.534,0.152
1593887416296656,1.486,0.534,0.152
1593887416799997,1.448,0.457,0.152
1593887417303083,1.486,0.534,0.152
1593887417806157,1.448,0.457,0.152
1593887418309427,1.486,0.457,0.152
1593887418812372,1.486,0.534,0.152
1593887419316243,1.486,0.534,0.152
1593887419819198,1.448,0.457,0.152
1593887420322352,1.486,0.534,0.152
1593887420825383,1.525,0.534,0.152
1593887421329225,1.448,0.457,0.152
1593887421832692,1.448,0.457,0.152
1593887422335915,1.486,0.534,0.152
1593887422844622,1.486,0.534,0.152
1593887423347724,1.486,0.457,0.152
1593887423850741,1.486,0.534,0.152
1593887424353806,1.525,0.534,0.152
1593887424856079,1.486,0.534,0.152
1593887425357953,1.448,0.457,0.152
1593887425859886,1.448,0.457,0.152
1593887426361701,1.486,0.534,0.152
1593887426866406,1.486,0.457,0.152
1593887427368242,1.448,0.457,0.152
1593887427870053,1.41,0.457,0.152
1593887428371910,1.448,0.457,0.152
1593887428873638,1.486,0.457,0.152
1593887429375493,1.486,0.534,0.152
1593887429877293,1.448,0.534,0.152
1593887430379136,1.41,0.457,0.152
1593887430881101,1.448,0.457,0.152
1593887431382817,1.448,0.457,0.152
1593887431887102,1.448,0.457,0.152
1593887432388861,1.486,0.457,0.152
1593887432890701,1.486,0.534,0.152
1593887433392680,1.525,0.534,0.152
1593887433894438,1.525,0.534,0.152
1593887434396235,1.525,0.534,0.152
1593887434897923,1.486,0.534,0.152
1593887435399666,1.448,0.457,0.152
1593887435901476,1.41,0.457,0.152
1593887436403276,1.486,0.534,0.152
1593887436907874,1.448,0.457,0.152
1593887437409699,1.525,0.534,0.152
1593887437911433,1.486,0.534,0.152
1593887438413175,1.41,0.457,0.152
1593887438914949,1.448,0.457,0.152
1593887439416873,1.448,0.534,0.152
1593887439918722,1.486,0.534,0.152
1593887440420705,1.525,0.534,0.152
1593887440922549,1.486,0.534,0.152
1593887441424449,1.448,0.534,0.152
1593887441929410,1.525,0.534,0.152
1593887442431271,1.486,0.534,0.152
1593887442933232,1.486,0.534,0.152
1593887443435061,1.486,0.534,0.152
1593887443936871,1.448,0.534,0.152
1593887444438688,1.486,0.534,0.152
1593887444941808,1.41,0.457,0.152
1593887445445010,1.448,0.457,0.152
1593887445948385,1.486,0.457,0.152
1593887446451603,1.486,0.457,0.152
1593887446957267,1.525,0.534,0.152
1593887447461417,1.525,0.534,0.152
1593887447964307,1.525,0.534,0.152
1593887448472819,1.486,0.534,0.152
1593887448976122,1.41,0.534,0.152
1593887449484123,1.448,0.534,0.152
1593887449985920,1.41,0.457,0.152
1593887450487924,1.448,0.457,0.152
1593887450989756,1.486,0.534,0.152
1593887451491737,1.486,0.534,0.152
1593887451996583,1.525,0.534,0.152
1593887452498409,1.448,0.457,0.152
1593887453000464,1.486,0.534,0.152
1593887453502237,1.448,0.534,0.152
1593887454004202,1.448,0.457,0.152
1593887454506036,1.486,0.534,0.152
1593887455007894,1.448,0.457,0.152
1593887455509697,1.525,0.534,0.152
1593887456011476,1.448,0.534,0.152
1593887456513245,1.486,0.534,0.152
1593887457017883,1.486,0.534,0.152
1593887457520002,1.448,0.534,0.152
1593887458021909,1.486,0.534,0.152
1593887458523676,1.41,0.457,0.152
1593887459025557,1.448,0.457,0.152
1593887459531960,1.486,0.534,0.152
1593887460033801,1.486,0.534,0.152
1593887460538036,1.525,0.534,0.152
1593887461041138,1.486,0.534,0.152
1593887461544299,1.525,0.534,0.152
1593887462047525,1.486,0.534,0.152
1593887462550565,1.448,0.534,0.152
1593887463053597,1.486,0.534,0.152
1593887463556856,1.448,0.457,0.152
1593887464059957,1.601,0.534,0.152
1593887464562877,1.563,0.534,0.152
1593887465066137,1.525,0.534,0.152
1593887465571688,1.525,0.534,0.152
1593887466073614,1.525,0.534,0.152
1593887466576411,1.486,0.534,0.152
1593887467079537,1.448,0.457,0.152
1593887467582534,1.448,0.457,0.152
1593887468085537,1.372,0.457,0.152
1593887468588635,1.448,0.457,0.152
1593887469091725,1.486,0.457,0.152
1593887469594580,1.486,0.534,0.152
1593887470097568,1.525,0.534,0.152
1593887470600731,1.525,0.534,0.152
1593887471103716,1.448,0.457,0.152
1593887471606701,1.486,0.534,0.152
1593887472110010,1.448,0.457,0.152
1593887472613206,1.486,0.534,0.152
1593887473116208,1.448,0.457,0.152
1593887473619051,1.41,0.457,0.152
1593887474121979,1.525,0.534,0.152
1593887474625148,1.448,0.457,0.152
1593887475127954,1.486,0.534,0.152
1593887475630211,1.486,0.534,0.152
1593887476132040,1.486,0.534,0.152
1593887476633888,1.486,0.534,0.152
1593887477138669,1.41,0.534,0.152
1593887477640598,1.486,0.457,0.152
1593887478142466,1.525,0.534,0.152
1593887478644568,1.486,0.457,0.152
1593887479146398,1.486,0.534,0.152
1593887479648305,1.448,0.534,0.152
1593887480150159,1.525,0.534,0.152
1593887480651914,1.448,0.457,0.152
1593887481153565,1.334,0.457,0.152
1593887481655208,1.372,0.457,0.152
1593887482161254,1.448,0.457,0.152
1593887482664614,1.448,0.457,0.152
1593887483167576,1.486,0.534,0.152
1593887483670546,1.486,0.534,0.152
1593887484173047,1.525,0.534,0.152
1593887484674841,1.525,0.534,0.152
1593887485176689,1.41,0.457,0.152
1593887485678503,1.448,0.534,0.152
1593887486180263,1.41,0.457,0.152
1593887486682069,1.448,0.457,0.152
1593887487183948,1.486,0.534,0.152
1593887487685796,1.448,0.534,0.152
1593887488187761,1.525,0.534,0.152
1593887488689638,1.486,0.534,0.152
1593887489191626,1.525,0.534,0.152
1593887489693366,1.448,0.534,0.152
1593887490195017,1.372,0.457,0.152
1593887490696904,1.372,0.457,0.152
1593887491198760,1.41,0.457,0.152
1593887491700532,1.448,0.457,0.152
1593887492205915,1.448,0.457,0.152
1593887492709135,1.486,0.534,0.152
1593887493212710,1.448,0.534,0.152
1593887493715931,1.486,0.457,0.152
1593887494218892,1.486,0.534,0.152
1593887494721917,1.525,0.534,0.152
1593887495224829,1.41,0.457,0.152
1593887495727811,1.334,0.457,0.152
1593887496230761,1.372,0.457,0.152
1593887496733819,1.486,0.534,0.152
1593887497239618,1.448,0.534,0.152
1593887497742515,1.486,0.457,0.152
1593887498246267,1.486,0.534,0.152
1593887498749699,1.486,0.534,0.152
1593887499252943,1.486,0.534,0.152
1593887499755940,1.448,0.534,0.152
1593887500258930,1.448,0.534,0.152
1593887500761725,1.41,0.457,0.152
1593887501264679,1.448,0.457,0.152
1593887501767699,1.486,0.534,0.152
1593887502271108,1.448,0.457,0.152
1593887502774007,1.486,0.457,0.152
1593887503276750,1.486,0.534,0.152
1593887503778583,1.525,0.534,0.152
1593887504280502,1.486,0.534,0.152
1593887504782369,1.486,0.534,0.152
1593887505284169,1.448,0.457,0.152
1593887505786008,1.486,0.534,0.152
1593887506287816,1.486,0.534,0.152
1593887506789596,1.448,0.457,0.152
1593887507294067,1.486,0.534,0.152
1593887507795951,1.448,0.457,0.152
1593887508297920,1.486,0.457,0.152
1593887508799839,1.486,0.534,0.152
1593887509301781,1.486,0.534,0.152
1593887509803669,1.486,0.534,0.152
1593887510307849,1.41,0.457,0.152
1593887510809648,1.486,0.534,0.152
1593887511311474,1.486,0.457,0.152
1593887511813230,1.525,0.534,0.152
1593887512317830,1.486,0.534,0.152
1593887512819624,1.448,0.457,0.152
1593887513321471,1.486,0.534,0.152
1593887513823233,1.448,0.457,0.152
1593887514325196,1.486,0.534,0.152
1593887514827066,1.448,0.534,0.152
1593887515328807,1.41,0.534,0.152
1593887515830653,1.486,0.534,0.152
1593887516332419,1.448,0.457,0.152
1593887516834181,1.486,0.534,0.152
1593887517338492,1.486,0.534,0.152
1593887517840387,1.448,0.457,0.152
1593887518342196,1.525,0.534,0.152
1593887518843953,1.448,0.457,0.152
1593887519345724,1.486,0.534,0.152
1593887519847558,1.41,0.534,0.152
1593887520349355,1.448,0.457,0.152
1593887520851203,1.525,0.534,0.152
1593887521353037,1.41,0.457,0.152
1593887521854821,1.486,0.534,0.152
1593887522359481,1.486,0.534,0.152
1593887522861325,1.448,0.457,0.152
1593887523363166,1.525,0.534,0.152
1593887523865203,1.486,0.534,0.152
1593887524366997,1.525,0.534,0.152
1593887524868811,1.41,0.457,0.152
1593887525372443,1.41,0.457,0.152
1593887525874249,1.486,0.534,0.152
1593887526376117,1.486,0.534,0.152
1593887526877918,1.525,0.534,0.152
1593887527382536,1.525,0.534,0.152
1593887527884418,1.486,0.534,0.152
1593887528386140,1.486,0.534,0.152
1593887528887987,1.41,0.457,0.152
1593887529389728,1.486,0.534,0.152
1593887529891617,1.41,0.457,0.152
1593887530393428,1.486,0.534,0.152
1593887530895232,1.486,0.534,0.152
1593887531397154,1.448,0.534,0.152
1593887531898990,1.486,0.534,0.152
1593887532403654,1.486,0.457,0.152
1593887532905518,1.448,0.457,0.152
1593887533407376,1.486,0.534,0.152
1593887533909217,1.448,0.457,0.152
1593887534410996,1.448,0.534,0.152
1593887534912847,1.41,0.457,0.152
1593887535414626,1.41,0.457,0.152
1593887535916506,1.448,0.457,0.152
1593887536418203,1.41,0.457,0.152
1593887536920237,1.486,0.534,0.152
1593887537425162,1.525,0.534,0.152
1593887537927006,1.486,0.534,0.152
1593887538428830,1.486,0.534,0.152
1593887538930570,1.41,0.457,0.152
1593887539432348,1.372,0.457,0.152
1593887539934172,1.448,0.457,0.152
1593887540436005,1.448,0.457,0.152
1593887540937880,1.448,0.457,0.152
1593887541439783,1.486,0.457,0.152
1593887541941555,1.486,0.457,0.152
1593887542452249,1.448,0.457,0.152
1593887542954114,1.486,0.457,0.152
1593887543456024,1.525,0.534,0.152
1593887543957939,1.525,0.534,0.152
1593887544459795,1.525,0.534,0.152
1593887544961605,1.448,0.534,0.152
1593887545463609,1.486,0.534,0.152
1593887545965404,1.486,0.534,0.152
1593887546467261,1.448,0.457,0.152
1593887546969138,1.525,0.534,0.152
1593887547474162,1.448,0.457,0.152
1593887547975986,1.525,0.534,0.152
1593887548477812,1.486,0.534,0.152
1593887548979721,1.525,0.534,0.152
1593887549481490,1.448,0.534,0.152
1593887549983211,1.448,0.457,0.152
1593887550485136,1.448,0.534,0.152
1593887550986956,1.448,0.534,0.152
1593887551488959,1.525,0.534,0.152
1593887551990819,1.486,0.534,0.152
1593887552496732,1.448,0.534,0.152
1593887552999709,1.486,0.534,0.152
1593887553502691,1.486,0.534,0.152
1593887554005807,1.486,0.534,0.152
1593887554510286,1.448,0.534,0.152
1593887555013567,1.677,0.534,0.152
1593887555516673,1.601,0.534,0.152
1593887556018975,1.525,0.457,0.152
1593887556520858,1.525,0.534,0.152
1593887557022583,1.486,0.534,0.152
1593887557527462,1.525,0.534,0.152
1593887558029301,1.525,0.534,0.152
1593887558531086,1.486,0.534,0.152
1593887559032830,1.41,0.457,0.152
1593887559534457,1.334,0.457,0.152
1593887560036074,1.372,0.457,0.152
1593887560537782,1.448,0.457,0.152
1593887561039616,1.448,0.457,0.152
1593887561541426,1.486,0.534,0.152
1593887562043224,1.448,0.457,0.152
1593887562547837,1.448,0.457,0.152
1593887563049670,1.525,0.534,0.152
1593887563551586,1.486,0.534,0.152
1593887564053454,1.486,0.534,0.152
1593887564555267,1.525,0.534,0.152
1593887565057200,1.448,0.534,0.152
1593887565558889,1.372,0.457,0.152
1593887566068791,1.448,0.457,0.152
1593887566570517,1.486,0.534,0.152
1593887567072411,1.486,0.534,0.152
1593887567578219,1.525,0.534,0.152
1593887568081190,1.525,0.534,0.152
1593887568584397,1.486,0.457,0.152
1593887569087450,1.448,0.457,0.152
1593887569590425,1.372,0.457,0.152
1593887570097976,1.372,0.457,0.152
1593887570601217,1.41,0.457,0.152
1593887571105204,1.41,0.457,0.152
1593887571608236,1.486,0.534,0.152
1593887572111531,1.486,0.534,0.152
1593887572614577,1.448,0.457,0.152
1593887573117824,1.525,0.534,0.152
1593887573621085,1.525,0.534,0.152
1593887574127887,1.525,0.534,0.152
1593887574630715,1.448,0.457,0.152
1593887575133724,1.525,0.534,0.152
1593887575636812,1.525,0.534,0.152
1593887576139814,1.525,0.534,0.152
1593887576642710,1.525,0.534,0.152
1593887577145725,1.486,0.534,0.152
1593887577648588,1.486,0.534,0.152
1593887578151623,1.448,0.457,0.152
1593887578654428,1.372,0.457,0.152
1593887579158847,1.41,0.457,0.152
1593887579662208,1.486,0.534,0.152
1593887580165197,1.486,0.534,0.152
1593887580668177,1.525,0.534,0.152
1593887581171070,1.486,0.534,0.152
1593887581674122,1.525,0.534,0.152
1593887582177230,1.525,0.534,0.152
1593887582680392,1.41,0.457,0.152
1593887583183238,1.486,0.534,0.152
1593887583686303,1.448,0.534,0.152
1593887584189469,1.486,0.534,0.152
1593887584692429,1.525,0.534,0.152
1593887585195419,1.792,0.533,0.152
1593887585698149,1.639,0.534,0.152
1593887586201338,1.715,0.533,0.152
1593887586704317,1.715,0.533,0.152
1593887587207241,1.639,0.534,0.152
1593887587710562,1.792,0.533,0.152
1593887588213714,1.753,0.457,0.152
1593887588716735,1.601,0.534,0.152
1593887589219563,1.525,0.534,0.152
1593887589723257,1.486,0.534,0.152
1593887590226347,1.486,0.534,0.152
1593887590729782,1.525,0.534,0.152
1593887591236446,1.486,0.534,0.152
1593887591739438,1.486,0.534,0.152
1593887592242445,1.486,0.534,0.152
1593887592745374,1.41,0.457,0.152
1593887593250959,1.448,0.457,0.152
1593887593754001,1.448,0.534,0.152
1593887594257164,1.448,0.457,0.152
1593887594759904,1.525,0.534,0.152
1593887595262779,1.448,0.457,0.152
1593887595765939,1.525,0.534,0.152
1593887596269001,1.486,0.534,0.152
1593887596771958,1.525,0.534,0.152
1593887597274893,1.448,0.534,0.152
1593887597777975,1.448,0.457,0.152
1593887598280970,1.486,0.457,0.152
1593887598783869,1.448,0.534,0.152
1593887599286773,1.525,0.534,0.152
1593887599789754,1.525,0.534,0.152
1593887600292944,1.486,0.534,0.152
1593887600795962,1.486,0.534,0.152
1593887601298906,1.41,0.534,0.152
1593887601803107,1.448,0.534,0.152
1593887602306085,1.486,0.534,0.152
1593887602808980,1.525,0.534,0.152
1593887603312031,1.486,0.534,0.152
1593887603825576,1.448,0.534,0.152
1593887604328652,1.525,0.534,0.152
1593887604831828,1.486,0.534,0.152
1593887605334668,1.525,0.534,0.152
1593887605837709,1.448,0.457,0.152
1593887606340619,1.486,0.534,0.152
1593887606843565,1.41,0.457,0.152
1593887607346486,1.448,0.457,0.152
1593887607849690,1.448,0.534,0.152
1593887608352501,1.448,0.534,0.152
1593887608855559,1.525,0.534,0.152
1593887609358416,1.448,0.457,0.152
1593887609861524,1.525,0.534,0.152
1593887610364609,1.486,0.534,0.152
1593887610867623,1.448,0.534,0.152
1593887611369858,1.448,0.534,0.152
1593887611871661,1.41,0.534,0.152
1593887612373506,1.448,0.457,0.152
1593887612875538,1.486,0.534,0.152
1593887613377439,1.486,0.534,0.152
1593887613882472,1.525,0.534,0.152
1593887614384383,1.486,0.534,0.152
1593887614886091,1.563,0.534,0.152
1593887615387883,1.486,0.457,0.152
1593887615889740,1.486,0.534,0.152
1593887616391742,1.486,0.534,0.152
1593887616893566,1.486,0.457,0.152
1593887617395498,1.448,0.534,0.152
1593887617897364,1.448,0.457,0.152
1593887618399210,1.486,0.534,0.152
1593887618910193,1.525,0.534,0.152
1593887619413013,1.525,0.534,0.152
1593887619917040,1.41,0.457,0.152
1593887620421058,1.448,0.534,0.152
1593887620923968,1.448,0.534,0.152
1593887621426852,1.448,0.457,0.152
1593887621929867,1.486,0.534,0.152
1593887622433039,1.486,0.534,0.152
1593887622936135,1.525,0.534,0.152
1593887623439567,1.486,0.534,0.152
1593887623942453,1.486,0.534,0.152
1593887624445494,1.41,0.457,0.152
1593887624948605,1.448,0.457,0.152
1593887625451591,1.486,0.534,0.152
1593887625954538,1.41,0.457,0.152
1593887626461739,1.448,0.457,0.152
1593887626964601,1.486,0.534,0.152
1593887627467591,1.525,0.534,0.152
1593887627971254,1.525,0.534,0.152
1593887628474241,1.525,0.534,0.152
1593887628977278,1.486,0.457,0.152
1593887629480230,1.41,0.457,0.152
1593887629982535,1.486,0.534,0.152
1593887630484335,1.486,0.534,0.152
1593887630986167,1.525,0.534,0.152
1593887631487914,1.486,0.534,0.152
1593887631989723,1.448,0.534,0.152
1593887632491640,1.525,0.534,0.152
1593887632993635,1.486,0.534,0.152
1593887633495630,1.525,0.534,0.152
1593887634001225,1.486,0.534,0.152
1593887634504256,1.525,0.534,0.152
1593887635012939,1.525,0.534,0.152
1593887635515860,1.486,0.534,0.152
1593887636018773,1.448,0.457,0.152
1593887636521801,1.486,0.534,0.152
1593887637024896,1.448,0.534,0.152
1593887637528212,1.486,0.534,0.152
1593887638031200,1.525,0.534,0.152
1593887638534188,1.525,0.534,0.152
1593887639037451,1.448,0.457,0.152
1593887639540603,1.486,0.534,0.152
1593887640043569,1.486,0.534,0.152
1593887640546510,1.525,0.534,0.152
1593887641049602,1.525,0.534,0.152
1593887641552371,1.486,0.534,0.152
1593887642055415,1.486,0.534,0.152
1593887642558413,1.486,0.534,0.152
1593887643061539,1.525,0.534,0.152
1593887643566178,1.41,0.457,0.152
1593887644069281,1.486,0.534,0.152
1593887644571685,1.448,0.457,0.152
1593887645073495,1.601,0.457,0.152
1593887645575368,1.601,0.534,0.152
1593887646077164,1.525,0.534,0.152
1593887646579065,1.525,0.534,0.152
1593887647080860,1.448,0.534,0.152
1593887647582774,1.448,0.457,0.152
1593887648084640,1.486,0.534,0.152
1593887648593414,1.448,0.457,0.152
1593887649095493,1.486,0.534,0.152
1593887649598088,1.448,0.457,0.152
1593887650101345,1.525,0.534,0.152
1593887650604505,1.486,0.534,0.152
1593887651106804,1.41,0.457,0.152
1593887651608664,1.486,0.534,0.152
1593887652110482,1.448,0.457,0.152
1593887652612389,1.486,0.534,0.152
1593887653114142,1.41,0.457,0.152
1593887653615938,1.448,0.534,0.152
1593887654117758,1.486,0.534,0.152
1593887654619593,1.486,0.534,0.152
1593887655121537,1.486,0.534,0.152
1593887655623420,1.448,0.457,0.152
1593887656125202,1.525,0.534,0.152
1593887656626963,1.486,0.534,0.152
1593887657128947,1.448,0.457,0.152
1593887657630632,1.448,0.457,0.152
1593887658132338,1.41,0.457,0.152
1593887658633996,1.334,0.457,0.152
1593887659135817,1.486,0.457,0.152
1593887659640385,1.525,0.534,0.152
1593887660142269,1.563,0.534,0.152
1593887660644109,1.525,0.534,0.152
1593887661153255,1.448,0.457,0.152
1593887661655026,1.486,0.534,0.152
1593887662156878,1.41,0.457,0.152
1593887662658782,1.448,0.534,0.152
1593887663160614,1.41,0.457,0.152
1593887663662618,1.448,0.457,0.152
1593887664164362,1.525,0.534,0.152
1593887664669386,1.486,0.534,0.152
1593887665171207,1.525,0.534,0.152
1593887665673162,1.448,0.457,0.152
1593887666175047,1.525,0.534,0.152
1593887666676811,1.486,0.534,0.152
1593887667178631,1.41,0.457,0.152
1593887667680403,1.448,0.534,0.152
1593887668182269,1.41,0.457,0.152
1593887668684162,1.486,0.534,0.152
1593887669185880,1.486,0.534,0.152
1593887669687717,1.448,0.457,0.152
1593887670189524,1.486,0.534,0.152
1593887670691382,1.448,0.457,0.152
1593887671193213,1.486,0.534,0.152
1593887671694930,1.486,0.534,0.152
1593887672196657,1.486,0.534,0.152
1593887672698406,1.486,0.534,0.152
1593887673200304,1.372,0.457,0.152
1593887673702062,1.448,0.457,0.152
1593887674203900,1.448,0.534,0.152
1593887674705674,1.486,0.534,0.152
1593887675207660,1.525,0.534,0.152
1593887675709545,1.715,0.533,0.152
1593887676211435,1.83,0.533,0.152
1593887676713215,1.563,0.534,0.152
1593887677215031,1.525,0.534,0.152
1593887677717063,1.448,0.534,0.152
1593887678219009,1.448,0.534,0.152
1593887678721689,1.486,0.534,0.152
1593887679223481,1.486,0.534,0.152
1593887679725274,1.525,0.534,0.152
1593887680227014,1.486,0.534,0.152
1593887680728885,1.486,0.534,0.152
1593887681230619,1.486,0.534,0.152
1593887681732472,1.41,0.457,0.152
1593887682234296,1.486,0.457,0.152
1593887682736151,1.448,0.457,0.152
1593887683238053,1.486,0.534,0.152
1593887683739959,1.525,0.534,0.152
1593887684241877,1.486,0.534,0.152
1593887684743706,1.525,0.534,0.152
1593887685245547,1.448,0.534,0.152
1593887685747489,1.448,0.534,0.152
1593887686250291,1.448,0.457,0.152
1593887686757282,1.601,0.457,0.152
1593887687260348,1.525,0.534,0.152
1593887687763248,1.486,0.534,0.152
1593887688266329,1.525,0.534,0.152
1593887688769192,1.486,0.534,0.152
1593887689272214,1.486,0.534,0.152
1593887689775030,1.486,0.534,0.152
1593887690278357,1.486,0.534,0.152
1593887690781254,1.448,0.534,0.152
1593887691284245,1.41,0.457,0.152
1593887691791261,1.486,0.534,0.152
1593887692294271,1.525,0.534,0.152
1593887692803036,1.525,0.534,0.152
1593887693309108,1.525,0.534,0.152
1593887693812041,1.525,0.534,0.152
1593887694314827,1.486,0.534,0.152
1593887694818023,1.486,0.534,0.152
1593887695320888,1.41,0.457,0.152
1593887695823910,1.41,0.457,0.152
1593887696326642,1.486,0.534,0.152
1593887696833423,1.486,0.534,0.152
1593887697341464,1.486,0.534,0.152
1593887697844311,1.41,0.457,0.152
1593887698347051,1.41,0.457,0.152
1593887698850252,1.486,0.534,0.152
1593887699355024,1.41,0.457,0.152
1593887699858033,1.41,0.457,0.152
1593887700360992,1.41,0.457,0.152
1593887700863879,1.334,0.457,0.152
1593887701366975,1.448,0.457,0.152
1593887701870036,1.525,0.534,0.152
1593887702372489,1.486,0.534,0.152
1593887702874273,1.525,0.534,0.152
1593887703376171,1.486,0.534,0.152
1593887703878023,1.525,0.534,0.152
1593887704379845,1.448,0.534,0.152
1593887704881638,1.448,0.534,0.152
1593887705388884,1.448,0.534,0.152
1593887705890696,1.715,0.533,0.152
1593887706392523,1.715,0.457,0.152
1593887706897529,1.563,0.534,0.152
1593887707399450,1.525,0.534,0.152
1593887707901268,1.525,0.534,0.152
1593887708403157,1.448,0.457,0.152
1593887708905001,1.486,0.457,0.152
1593887709406771,1.448,0.534,0.152
1593887709908538,1.448,0.534,0.152
1593887710410297,1.41,0.457,0.152
1593887710912122,1.41,0.457,0.152
1593887711413821,1.486,0.457,0.152
1593887711915669,1.486,0.534,0.152
1593887712417474,1.525,0.534,0.152
1593887712919380,1.486,0.534,0.152
1593887713421201,1.486,0.534,0.152
1593887713922998,1.486,0.534,0.152
1593887714424906,1.41,0.457,0.152
1593887714926719,1.448,0.457,0.152
1593887715428563,1.448,0.457,0.152
1593887715930350,1.41,0.457,0.152
1593887716432204,1.486,0.534,0.152
1593887716934043,1.486,0.534,0.152
1593887717435984,1.525,0.534,0.152
1593887717937829,1.486,0.534,0.152
1593887718439715,1.486,0.457,0.152
1593887718941588,1.525,0.534,0.152
1593887719443404,1.525,0.534,0.152
1593887719945297,1.525,0.534,0.152
1593887720447159,1.525,0.534,0.152
1593887720949136,1.525,0.534,0.152
1593887721451056,1.525,0.534,0.152
1593887721953060,1.525,0.534,0.152
1593887722457864,1.448,0.457,0.152
1593887722959759,1.525,0.534,0.152
1593887723461491,1.448,0.457,0.152
1593887723963389,1.486,0.534,0.152
1593887724465163,1.448,0.534,0.152
1593887724966965,1.448,0.534,0.152
1593887725468964,1.525,0.534,0.152
1593887725970831,1.525,0.534,0.152
1593887726472667,1.486,0.534,0.152
1593887726974461,1.525,0.534,0.152
1593887727478946,1.486,0.534,0.152
1593887727980928,1.486,0.534,0.152
1593887728482815,1.448,0.457,0.152
1593887728984744,1.372,0.457,0.152
1593887729486566,1.41,0.457,0.152
1593887729988463,1.486,0.534,0.152
1593887730490325,1.448,0.457,0.152
1593887730992238,1.486,0.534,0.152
1593887731494093,1.486,0.534,0.152
1593887731995959,1.486,0.457,0.152
1593887732500799,1.486,0.534,0.152
1593887733002551,1.486,0.534,0.152
1593887733504332,1.448,0.534,0.152
1593887734006158,1.448,0.457,0.152
1593887734507981,1.486,0.534,0.152
1593887735009800,1.448,0.534,0.152
1593887735511705,1.486,0.534,0.152
1593887736013568,1.753,0.533,0.152
1593887736515297,1.525,0.457,0.152
1593887737017215,1.486,0.457,0.152
1593887737522926,1.448,0.457,0.152
1593887738031933,1.525,0.534,0.152
1593887738534766,1.486,0.534,0.152
1593887739037859,1.486,0.534,0.152
1593887739540762,1.525,0.534,0.152
1593887740043793,1.525,0.534,0.152
1593887740546723,1.448,0.457,0.152
1593887741049757,1.41,0.457,0.152
1593887741552901,1.448,0.457,0.152
1593887742055956,1.486,0.534,0.152
1593887742561320,1.448,0.534,0.152
1593887743064175,1.525,0.534,0.152
1593887743567012,1.486,0.534,0.152
1593887744069876,1.525,0.534,0.152
