TimeStamp,A7 Voltage(V),A7 Current(A),A7 Power(W),A15 Voltage(V),A15 Current(A),A15 Power(W),GPU Power(W)
1610494117023729563,1.000000,0.258000,0.263000,1.000000,0.993000,0.998000,0.126000
1610494117535570128,1.000000,0.249000,0.254000,1.000000,0.931000,0.936000,0.128000
1610494118091655642,1.000000,0.221000,0.225000,1.000000,0.917000,0.922000,0.128000
