TimeStamp,Total Power,CPU Power,GPU Power
1593897169150592,3.504,0.99,0.152
1593897169652580,3.314,0.838,0.152
1593897170154388,3.277,0.762,0.152
1593897170655958,3.201,0.686,0.152
1593897171157662,3.277,0.762,0.152
1593897171659172,3.504,0.99,0.152
1593897172160678,3.619,1.067,0.152
1593897172662186,3.619,1.067,0.152
1593897173163665,3.657,1.143,0.152
1593897173665631,3.542,0.99,0.152
1593897174170659,3.619,1.067,0.152
1593897174672181,3.657,1.143,0.152
1593897175174625,3.809,1.143,0.152
1593897175676988,3.885,1.067,0.152
1593897176178779,3.733,1.067,0.152
1593897176680705,3.695,1.143,0.152
1593897177182553,3.657,1.143,0.152
1593897177684659,3.695,1.143,0.152
1593897178186571,3.657,1.067,0.152
1593897178688549,3.695,1.143,0.152
1593897179190692,3.657,1.143,0.152
1593897179692722,3.695,1.143,0.152
1593897180194647,3.657,1.067,0.152
1593897180696603,3.581,1.067,0.152
1593897181198487,3.542,1.067,0.152
1593897181700456,3.581,1.067,0.152
1593897182204845,3.657,1.143,0.152
1593897182706911,3.619,1.143,0.152
1593897183208451,3.657,1.143,0.152
1593897183709939,3.619,1.067,0.152
1593897184211577,3.581,0.99,0.152
1593897184720321,3.542,0.99,0.152
1593897185230493,3.695,0.99,0.152
1593897185732046,3.695,1.067,0.152
1593897186234141,3.809,1.143,0.152
1593897186740620,3.733,1.143,0.152
1593897187244211,3.923,1.143,0.152
1593897187745708,4,1.143,0.152
1593897188247229,3.961,1.143,0.152
1593897188752679,3.923,1.067,0.152
1593897189254523,3.923,1.143,0.152
1593897189756506,3.733,1.143,0.152
1593897190258365,3.733,1.143,0.152
1593897190760416,3.733,1.143,0.152
1593897191262375,3.657,1.143,0.152
1593897191764202,3.657,1.143,0.152
1593897192269512,3.695,1.143,0.152
1593897192770989,3.695,1.143,0.152
1593897193272509,3.657,1.143,0.152
1593897193774355,3.695,1.143,0.152
1593897194280656,3.695,1.143,0.152
1593897194782168,3.657,1.143,0.152
1593897195287607,3.695,1.143,0.152
1593897195789470,3.695,1.143,0.152
1593897196291297,3.733,1.143,0.152
1593897196793214,3.695,1.143,0.152
1593897197297689,3.657,1.067,0.152
1593897197799634,3.657,1.143,0.152
1593897198301598,3.695,1.143,0.152
1593897198803508,3.657,1.143,0.152
1593897199305468,3.657,1.143,0.152
1593897199807451,3.695,1.143,0.152
1593897200309391,3.657,1.143,0.152
1593897200811466,3.657,1.143,0.152
1593897201313361,3.695,1.143,0.152
1593897201815266,3.657,1.143,0.152
1593897202319416,3.657,1.067,0.152
1593897202824670,3.733,1.143,0.152
1593897203326161,3.695,1.143,0.152
1593897203828061,3.657,1.067,0.152
1593897204329660,3.657,1.143,0.152
1593897204831213,3.695,1.143,0.152
1593897205332771,3.809,1.143,0.152
1593897205834245,3.923,1.143,0.152
1593897206335817,3.809,1.143,0.152
1593897206837335,3.695,1.143,0.152
1593897207338860,3.695,1.143,0.152
1593897207840372,3.657,1.143,0.152
1593897208341864,3.657,1.067,0.152
1593897208843355,3.657,1.067,0.152
1593897209345206,3.619,1.067,0.152
1593897209847181,3.695,1.143,0.152
1593897210348832,3.695,1.143,0.152
1593897210850342,3.657,1.143,0.152
1593897211356716,3.695,1.143,0.152
1593897211858199,3.657,1.143,0.152
1593897212359856,3.657,1.143,0.152
1593897212865370,3.695,1.143,0.152
1593897213379424,3.657,1.143,0.152
1593897213880907,3.619,1.067,0.152
1593897214382664,3.657,1.143,0.152
1593897214884602,3.695,1.143,0.152
1593897215386414,3.619,1.067,0.152
1593897215888435,3.542,1.067,0.152
1593897216390350,3.581,1.067,0.152
1593897216892394,3.581,0.99,0.152
1593897217394527,3.542,0.99,0.152
1593897217896564,3.542,0.99,0.152
1593897218398520,3.542,1.067,0.152
1593897218900496,3.581,1.067,0.152
1593897219402441,3.581,1.067,0.152
1593897219904461,3.619,1.067,0.152
1593897220406299,3.657,1.143,0.152
1593897220908467,3.619,1.067,0.152
1593897221410406,3.619,1.067,0.152
1593897221912322,3.619,1.067,0.152
1593897222414257,3.619,1.067,0.152
1593897222916124,3.657,1.067,0.152
1593897223418033,3.619,1.143,0.152
1593897223920019,3.581,1.067,0.152
1593897224421847,3.581,1.067,0.152
1593897224923804,3.542,0.99,0.152
1593897225425801,3.542,0.99,0.152
1593897225927813,3.504,0.99,0.152
1593897226429748,3.542,0.99,0.152
1593897226931758,3.542,0.99,0.152
1593897227433742,3.542,1.067,0.152
1593897227938357,3.542,0.99,0.152
1593897228440272,3.581,1.067,0.152
1593897228942194,3.619,1.067,0.152
1593897229444021,3.619,1.067,0.152
1593897229946087,3.619,1.067,0.152
1593897230448004,3.619,1.067,0.152
1593897230949903,3.657,1.067,0.152
1593897231451808,3.619,1.067,0.152
1593897231953743,3.581,1.067,0.152
1593897232456994,3.657,1.143,0.152
1593897232961718,3.657,1.067,0.152
1593897233463734,3.657,1.143,0.152
1593897233965676,3.657,1.067,0.152
1593897234467752,3.657,1.143,0.152
1593897234969657,3.657,1.143,0.152
1593897235475657,3.771,1.067,0.152
1593897235977560,3.885,1.067,0.152
1593897236479515,3.809,1.143,0.152
1593897236981429,3.657,1.067,0.152
1593897237483296,3.619,1.067,0.152
1593897237988090,3.542,0.99,0.152
1593897238490177,3.542,0.99,0.152
1593897238992342,3.542,0.99,0.152
1593897239494392,3.542,0.99,0.152
1593897239996445,3.542,0.99,0.152
1593897240498405,3.542,1.067,0.152
1593897241000475,3.581,1.067,0.152
1593897241502453,3.619,1.067,0.152
1593897242004410,3.657,1.067,0.152
1593897242506390,3.657,1.143,0.152
1593897243008500,3.619,1.067,0.152
1593897243510535,3.619,1.067,0.152
1593897244012436,3.657,1.143,0.152
1593897244514237,3.619,1.067,0.152
1593897245016316,3.619,1.143,0.152
1593897245518367,3.619,1.067,0.152
1593897246020338,3.695,1.067,0.152
1593897246522064,3.619,1.067,0.152
1593897247024044,3.581,1.067,0.152
1593897247525980,3.581,1.067,0.152
1593897248028050,3.504,0.99,0.152
1593897248530015,3.504,0.99,0.152
1593897249032007,3.504,0.99,0.152
1593897249533942,3.542,0.99,0.152
1593897250035996,3.542,0.99,0.152
1593897250538025,3.542,0.99,0.152
1593897251040026,3.466,0.99,0.152
1593897251541951,3.542,0.99,0.152
1593897252043931,3.542,1.067,0.152
1593897252545855,3.542,0.99,0.152
1593897253047933,3.542,0.99,0.152
1593897253552742,3.542,0.99,0.152
1593897254054579,3.619,1.067,0.152
1593897254556547,3.619,1.143,0.152
1593897255058471,3.657,1.143,0.152
1593897255560457,3.619,1.067,0.152
1593897256062358,3.619,1.143,0.152
1593897256564290,3.657,1.143,0.152
1593897257066444,3.657,1.143,0.152
1593897257567968,3.657,1.143,0.152
1593897258069442,3.657,1.143,0.152
1593897258570954,3.581,1.067,0.152
1593897259072855,3.619,1.067,0.152
1593897259574624,3.619,1.067,0.152
1593897260076479,3.657,1.067,0.152
1593897260578411,3.657,1.143,0.152
1593897261080508,3.657,1.143,0.152
1593897261582427,3.619,1.067,0.152
1593897262084593,3.619,1.067,0.152
1593897262586520,3.581,1.067,0.152
1593897263088713,3.657,1.143,0.152
1593897263590604,3.695,1.143,0.152
1593897264092569,3.657,1.143,0.152
1593897264594547,3.695,1.143,0.152
1593897265096515,3.657,1.143,0.152
1593897265598425,3.771,1.067,0.152
1593897266100343,3.733,0.99,0.152
1593897266602302,3.657,1.067,0.152
1593897267104210,3.695,1.143,0.152
1593897267606111,3.657,1.143,0.152
1593897268108022,3.619,1.067,0.152
1593897268609949,3.619,1.067,0.152
1593897269112117,3.619,1.067,0.152
1593897269613999,3.695,1.143,0.152
1593897270115976,3.657,1.067,0.152
1593897270617913,3.581,1.067,0.152
1593897271119888,3.619,1.067,0.152
1593897271621828,3.619,1.067,0.152
1593897272123828,3.619,1.067,0.152
1593897272625845,3.657,1.143,0.152
1593897273127907,3.619,1.067,0.152
1593897273629829,3.657,1.143,0.152
1593897274134492,3.619,1.067,0.152
1593897274636480,3.695,1.143,0.152
1593897275138400,3.695,1.143,0.152
1593897275640430,3.771,1.067,0.152
1593897276142357,3.695,1.067,0.152
1593897276645985,3.733,1.143,0.152
1593897277147536,3.695,1.143,0.152
1593897277649048,3.657,1.143,0.152
1593897278150557,3.657,1.143,0.152
1593897278652440,3.657,1.143,0.152
1593897279160689,3.695,1.067,0.152
1593897279662715,3.657,1.143,0.152
1593897280164712,3.657,1.143,0.152
1593897280666276,3.619,1.143,0.152
1593897281167818,3.619,1.067,0.152
1593897281669445,3.657,1.067,0.152
1593897282170942,3.657,1.143,0.152
1593897282672414,3.657,1.143,0.152
1593897283174013,3.619,1.067,0.152
1593897283682621,3.619,1.067,0.152
1593897284188463,3.695,1.143,0.152
1593897284689949,3.657,1.143,0.152
1593897285191482,3.657,1.143,0.152
1593897285692994,3.619,1.067,0.152
1593897286194528,3.581,1.067,0.152
1593897286696167,3.542,1.067,0.152
1593897287197796,3.542,0.99,0.152
1593897287700103,3.542,0.99,0.152
1593897288202055,3.542,0.99,0.152
1593897288704019,3.542,1.067,0.152
1593897289208582,3.581,1.067,0.152
1593897289710605,3.619,1.067,0.152
1593897290212573,3.695,1.143,0.152
1593897290714506,3.619,1.067,0.152
1593897291216513,3.657,1.143,0.152
1593897291718433,3.695,1.143,0.152
1593897292220442,3.619,1.067,0.152
1593897292721935,3.542,0.99,0.152
1593897293223449,3.542,1.067,0.152
1593897293724901,3.542,1.067,0.152
1593897294226403,3.542,0.99,0.152
1593897294727865,3.542,0.99,0.152
1593897295229334,3.542,0.99,0.152
1593897295730778,3.733,0.99,0.152
1593897296236487,3.695,1.067,0.152
1593897296741564,3.695,1.143,0.152
1593897297243072,3.695,1.143,0.152
1593897297748721,3.733,1.143,0.152
1593897298250224,3.695,1.143,0.152
1593897298751759,3.657,1.143,0.152
1593897299253293,3.695,1.143,0.152
1593897299754880,3.733,1.143,0.152
1593897300256447,3.657,1.143,0.152
1593897300757995,3.695,1.143,0.152
1593897301259488,3.695,1.143,0.152
1593897301768027,3.657,1.143,0.152
1593897302269522,3.695,1.143,0.152
1593897302772008,3.657,1.143,0.152
1593897303273824,3.619,1.067,0.152
1593897303775724,3.542,1.067,0.152
1593897304277668,3.542,1.067,0.152
1593897304780047,3.581,1.067,0.152
1593897305282059,3.542,0.99,0.152
1593897305784023,3.504,0.99,0.152
1593897306285969,3.542,1.067,0.152
1593897306788037,3.542,1.067,0.152
1593897307289968,3.504,0.99,0.152
1593897307791973,3.542,0.99,0.152
1593897308293946,3.542,0.99,0.152
1593897308795963,3.504,0.99,0.152
1593897309297924,3.542,1.067,0.152
1593897309802488,3.542,0.99,0.152
1593897310304822,3.542,0.99,0.152
1593897310806410,3.581,1.067,0.152
1593897311307949,3.619,1.067,0.152
1593897311812504,3.657,1.143,0.152
1593897312314044,3.695,1.143,0.152
1593897312816011,3.657,1.067,0.152
1593897313317973,3.695,1.143,0.152
1593897313819965,3.657,1.143,0.152
1593897314321877,3.657,1.143,0.152
1593897314826480,3.619,1.067,0.152
1593897315328410,3.542,1.067,0.152
1593897315830428,3.542,1.067,0.152
1593897316332472,3.657,1.067,0.152
1593897316834384,3.695,1.143,0.152
1593897317336364,3.657,1.143,0.152
1593897317838357,3.695,1.143,0.152
1593897318340412,3.695,1.143,0.152
1593897318842349,3.657,1.143,0.152
1593897319344304,3.581,1.067,0.152
1593897319849241,3.581,1.067,0.152
1593897320351190,3.581,1.067,0.152
1593897320853217,3.581,1.067,0.152
1593897321355064,3.619,1.067,0.152
1593897321856943,3.657,1.143,0.152
1593897322358857,3.657,1.143,0.152
1593897322860871,3.619,1.143,0.152
1593897323362884,3.657,1.143,0.152
1593897323864777,3.695,1.143,0.152
1593897324366736,3.619,1.067,0.152
1593897324871725,3.581,1.067,0.152
1593897325373857,3.619,1.067,0.152
1593897325875789,3.619,1.067,0.152
1593897326377759,3.695,1.143,0.152
1593897326880072,3.695,1.143,0.152
1593897327382001,3.657,1.143,0.152
1593897327883855,3.657,1.143,0.152
1593897328390480,3.733,1.143,0.152
1593897328892024,3.657,1.143,0.152
1593897329393590,3.657,1.143,0.152
1593897329895566,3.733,1.143,0.152
1593897330397499,3.809,1.143,0.152
1593897330899504,3.657,1.143,0.152
1593897331401383,3.657,1.067,0.152
1593897331903287,3.619,1.067,0.152
1593897332415439,3.581,1.067,0.152
1593897332917417,3.581,1.067,0.152
1593897333419480,3.542,1.067,0.152
1593897333921402,3.581,1.067,0.152
1593897334423455,3.657,1.143,0.152
1593897334927810,3.657,1.143,0.152
1593897335429329,3.847,1.143,0.152
1593897335930820,3.695,1.143,0.152
1593897336432297,3.695,1.143,0.152
1593897336933810,3.657,1.143,0.152
1593897337435336,3.695,1.143,0.152
1593897337937759,3.695,1.143,0.152
1593897338439622,3.695,1.143,0.152
1593897338941458,3.657,1.143,0.152
1593897339443593,3.657,1.143,0.152
1593897339948866,3.657,1.143,0.152
1593897340450820,3.695,1.143,0.152
1593897340952951,3.657,1.143,0.152
1593897341454877,3.657,1.143,0.152
1593897341956834,3.695,1.143,0.152
1593897342458811,3.619,1.067,0.152
1593897342960824,3.581,1.067,0.152
1593897343462766,3.581,1.067,0.152
1593897343964773,3.581,1.067,0.152
1593897344466685,3.542,0.99,0.152
1593897344968827,3.542,0.99,0.152
1593897345470780,3.542,1.067,0.152
1593897345972914,3.542,1.067,0.152
1593897346474846,3.542,1.067,0.152
1593897346976952,3.619,1.067,0.152
1593897347478849,3.657,1.143,0.152
1593897347980822,3.657,1.143,0.152
1593897348482737,3.657,1.143,0.152
1593897348984760,3.581,1.067,0.152
1593897349486604,3.619,1.067,0.152
1593897349991276,3.657,1.067,0.152
1593897350493341,3.657,1.143,0.152
1593897350995241,3.657,1.067,0.152
1593897351496951,3.542,1.067,0.152
1593897352001353,3.581,1.067,0.152
1593897352508786,3.542,1.067,0.152
1593897353010291,3.542,1.067,0.152
1593897353511847,3.581,0.99,0.152
1593897354013956,3.657,1.067,0.152
1593897354515436,3.657,1.143,0.152
1593897355016953,3.695,1.143,0.152
1593897355518428,3.695,1.143,0.152
1593897356022793,3.581,1.067,0.152
1593897356524246,3.581,1.067,0.152
1593897357027407,3.542,1.067,0.152
1593897357528896,3.581,1.067,0.152
1593897358030363,3.542,0.99,0.152
1593897358531857,3.504,0.99,0.152
1593897359033341,3.542,0.99,0.152
1593897359534901,3.619,1.067,0.152
1593897360036431,3.695,1.143,0.152
1593897360540093,3.695,1.143,0.152
1593897361041591,3.733,1.143,0.152
1593897361543115,3.695,1.143,0.152
1593897362060135,3.733,1.143,0.152
1593897362561632,4,1.143,0.152
1593897363063115,3.961,1.143,0.152
1593897363564695,3.733,1.143,0.152
1593897364071495,3.695,1.143,0.152
1593897364572959,3.657,1.143,0.152
1593897365074430,3.695,1.143,0.152
1593897365576369,3.695,1.143,0.152
1593897366078887,3.657,1.143,0.152
1593897366580375,3.581,1.067,0.152
1593897367081876,3.542,0.99,0.152
1593897367586196,3.542,0.99,0.152
1593897368087737,3.542,0.99,0.152
1593897368589216,3.581,1.067,0.152
1593897369090712,3.542,1.067,0.152
1593897369592217,3.542,0.99,0.152
1593897370093681,3.542,0.99,0.152
1593897370595197,3.542,1.067,0.152
1593897371097120,3.542,1.067,0.152
1593897371598629,3.542,1.067,0.152
1593897372100260,3.657,1.067,0.152
1593897372601769,3.619,1.067,0.152
1593897373103245,3.695,1.143,0.152
1593897373604763,3.619,1.067,0.152
1593897374106840,3.581,1.067,0.152
1593897374608883,3.542,0.99,0.152
1593897375110867,3.542,0.99,0.152
1593897375612735,3.542,0.99,0.152
1593897376114670,3.657,1.143,0.152
1593897376616750,3.657,1.143,0.152
1593897377118668,3.657,1.067,0.152
1593897377620677,3.657,1.143,0.152
1593897378122205,3.657,1.143,0.152
1593897378629624,3.657,1.143,0.152
1593897379132103,3.619,1.067,0.152
1593897379634296,3.542,1.067,0.152
1593897380136265,3.504,0.99,0.152
1593897380638115,3.504,0.99,0.152
1593897381142901,3.542,0.99,0.152
1593897381644852,3.542,0.99,0.152
1593897382146812,3.542,1.067,0.152
1593897382648803,3.542,1.067,0.152
1593897383150746,3.542,1.067,0.152
1593897383652785,3.542,0.99,0.152
1593897384154750,3.542,0.99,0.152
1593897384656745,3.542,0.99,0.152
1593897385158703,3.542,1.067,0.152
1593897385660790,3.542,0.99,0.152
1593897386165500,3.581,0.99,0.152
1593897386667430,3.771,0.99,0.152
1593897387180828,3.847,1.067,0.152
1593897387682785,3.885,1.067,0.152
1593897388184941,3.733,1.067,0.152
1593897388686826,3.695,1.067,0.152
1593897389188648,3.695,1.143,0.152
1593897389690701,3.657,1.067,0.152
1593897390192736,3.695,1.143,0.152
1593897390694735,3.657,1.143,0.152
1593897391199578,3.657,1.143,0.152
1593897391703411,3.695,1.143,0.152
1593897392208706,3.657,1.143,0.152
1593897392710180,3.619,1.067,0.152
1593897393211813,3.619,1.067,0.152
1593897393713362,3.657,1.143,0.152
1593897394214881,3.657,1.143,0.152
1593897394717458,3.619,1.067,0.152
1593897395219440,3.619,1.067,0.152
1593897395721285,3.619,1.067,0.152
1593897396225835,3.619,1.143,0.152
1593897396727795,3.695,1.143,0.152
1593897397229719,3.657,1.143,0.152
1593897397731736,3.619,1.067,0.152
1593897398233705,3.542,1.067,0.152
1593897398735707,3.581,1.067,0.152
1593897399237679,3.581,1.067,0.152
1593897399739654,3.581,1.067,0.152
1593897400241566,3.581,1.067,0.152
1593897400743531,3.657,1.067,0.152
1593897401248224,3.619,1.143,0.152
1593897401750186,3.695,1.143,0.152
1593897402252208,3.619,1.067,0.152
1593897402754049,3.542,0.99,0.152
1593897403256009,3.657,1.067,0.152
1593897403757926,3.657,1.143,0.152
1593897404259887,3.695,1.143,0.152
1593897404761865,3.657,1.067,0.152
1593897405263970,3.581,1.067,0.152
1593897405766019,3.542,1.067,0.152
1593897406268525,3.542,1.067,0.152
1593897406770695,3.542,0.99,0.152
1593897407272744,3.542,0.99,0.152
1593897407774689,3.504,0.99,0.152
1593897408276654,3.504,0.99,0.152
1593897408778609,3.542,0.99,0.152
1593897409280586,3.542,0.99,0.152
1593897409782603,3.542,0.99,0.152
1593897410284559,3.581,1.067,0.152
1593897410786471,3.657,1.143,0.152
1593897411288440,3.657,1.143,0.152
1593897411793303,3.619,1.067,0.152
1593897412295224,3.581,1.067,0.152
1593897412797478,3.619,1.067,0.152
1593897413300576,3.657,1.143,0.152
1593897413802510,3.695,1.143,0.152
1593897414304480,3.619,1.067,0.152
1593897414806470,3.581,1.067,0.152
1593897415308567,3.695,1.143,0.152
1593897415810411,3.695,1.143,0.152
1593897416312487,3.771,1.143,0.152
1593897416815554,3.961,1.143,0.152
1593897417317032,3.885,1.143,0.152
1593897417818537,3.695,1.143,0.152
1593897418320231,3.695,1.143,0.152
1593897418824347,3.695,1.143,0.152
1593897419325862,3.657,1.143,0.152
1593897419827379,3.695,1.143,0.152
1593897420328879,3.695,1.143,0.152
1593897420830361,3.695,1.143,0.152
1593897421331850,3.695,1.143,0.152
1593897421833346,3.657,1.143,0.152
1593897422335215,3.695,1.143,0.152
1593897422837214,3.733,1.143,0.152
1593897423339105,3.657,1.143,0.152
1593897423841034,3.657,1.143,0.152
1593897424342946,3.619,1.067,0.152
1593897424844860,3.657,1.067,0.152
1593897425346797,3.657,1.143,0.152
1593897425848774,3.695,1.143,0.152
1593897426350766,3.657,1.143,0.152
1593897426852761,3.733,1.067,0.152
1593897427357572,3.619,1.067,0.152
1593897427859441,3.657,1.067,0.152
1593897428365019,3.657,1.143,0.152
1593897428866858,3.657,1.143,0.152
1593897429369285,3.619,1.067,0.152
1593897429871279,3.657,1.067,0.152
1593897430373247,3.657,1.143,0.152
1593897430875176,3.657,1.143,0.152
1593897431377319,3.733,1.143,0.152
1593897431879217,3.885,1.143,0.152
1593897432384172,3.809,1.143,0.152
1593897432886086,3.961,1.143,0.152
1593897433387999,3.809,1.143,0.152
1593897433889890,3.619,1.067,0.152
1593897434391892,3.657,1.067,0.152
1593897434893811,3.619,1.067,0.152
1593897435395759,3.542,1.067,0.152
1593897435897670,3.581,1.067,0.152
1593897436399681,3.542,0.99,0.152
1593897436901612,3.581,1.067,0.152
1593897437403671,3.657,1.143,0.152
1593897437905656,3.657,1.143,0.152
1593897438413826,3.619,1.067,0.152
1593897438915352,3.657,1.067,0.152
1593897439416851,3.695,1.143,0.152
1593897439918327,3.657,1.143,0.152
1593897440419856,3.657,1.143,0.152
1593897440921350,3.581,1.067,0.152
1593897441422790,3.581,1.067,0.152
1593897441924796,3.542,1.067,0.152
1593897442426721,3.581,1.067,0.152
1593897442928626,3.695,1.143,0.152
1593897443430558,3.695,1.143,0.152
1593897443932543,3.695,1.143,0.152
1593897444434616,3.695,1.143,0.152
1593897444936669,3.657,1.143,0.152
1593897445438581,3.657,1.143,0.152
1593897445940752,3.619,1.067,0.152
1593897446446021,3.695,1.143,0.152
1593897446949166,3.695,1.143,0.152
1593897447450655,3.695,1.143,0.152
1593897447952402,3.695,1.143,0.152
1593897448453887,3.695,1.143,0.152
1593897448955470,3.695,1.143,0.152
1593897449457300,3.695,1.143,0.152
1593897449958802,3.695,1.143,0.152
1593897450460311,3.657,1.143,0.152
1593897450961971,3.733,1.143,0.152
1593897451463447,3.657,1.143,0.152
1593897451965374,3.657,1.067,0.152
1593897452467300,3.695,1.143,0.152
1593897452969258,3.695,1.143,0.152
1593897453471221,3.657,1.143,0.152
1593897453973221,3.695,1.143,0.152
1593897454475148,3.733,1.143,0.152
1593897454977176,3.657,1.143,0.152
1593897455479168,3.695,1.143,0.152
1593897455981156,3.695,1.143,0.152
1593897456482998,3.657,1.143,0.152
1593897456984941,3.695,1.143,0.152
1593897457486959,3.695,1.143,0.152
1593897457988947,3.619,1.067,0.152
1593897458490924,3.619,1.067,0.152
1593897458992948,3.619,1.067,0.152
1593897459494854,3.695,1.143,0.152
1593897459996874,3.657,1.143,0.152
1593897460498779,3.619,1.067,0.152
1593897461000712,3.542,1.067,0.152
1593897461502186,3.542,1.067,0.152
1593897462006958,3.542,1.067,0.152
1593897462508868,3.581,1.067,0.152
1593897463010820,3.581,1.067,0.152
1593897463512720,3.504,0.99,0.152
1593897464014667,3.504,0.99,0.152
1593897464516620,3.542,0.99,0.152
1593897465018523,3.504,0.99,0.152
1593897465520453,3.581,0.99,0.152
1593897466022207,3.619,1.067,0.152
1593897466524258,3.657,1.143,0.152
1593897467026320,3.581,1.067,0.152
1593897467528444,3.542,0.99,0.152
1593897468030383,3.809,1.067,0.152
1593897468532244,3.809,1.143,0.152
1593897469034167,3.733,1.143,0.152
1593897469536232,3.695,1.143,0.152
1593897470038099,3.695,1.143,0.152
1593897470540108,3.657,1.143,0.152
1593897471041951,3.619,1.067,0.152
1593897471543954,3.733,1.143,0.152
1593897472045848,3.657,1.143,0.152
1593897472547786,3.619,1.067,0.152
1593897473049940,3.619,1.143,0.152
1593897473552097,3.695,1.143,0.152
1593897474054022,3.695,1.143,0.152
1593897474555937,3.657,1.143,0.152
1593897475057833,3.695,1.143,0.152
1593897475559760,3.657,1.143,0.152
1593897476061657,3.657,1.067,0.152
1593897476563714,3.809,1.143,0.152
1593897477065635,3.885,1.143,0.152
1593897477567670,3.695,1.143,0.152
1593897478069721,3.657,1.067,0.152
1593897478571683,3.581,0.99,0.152
1593897479073680,3.657,1.143,0.152
1593897479575655,3.695,1.143,0.152
1593897480077602,3.695,1.143,0.152
1593897480579557,3.657,1.067,0.152
1593897481081519,3.657,1.143,0.152
1593897481583502,3.657,1.143,0.152
1593897482085573,3.657,1.143,0.152
1593897482587527,3.619,1.067,0.152
1593897483089442,3.581,1.067,0.152
1593897483591523,3.619,1.067,0.152
1593897484093529,3.657,1.143,0.152
1593897484595500,3.619,1.143,0.152
1593897485097421,3.733,1.067,0.152
1593897485599431,3.695,1.067,0.152
1593897486101396,3.619,1.067,0.152
1593897486603423,3.581,1.067,0.152
1593897487105379,3.657,0.99,0.152
1593897487607288,3.619,1.067,0.152
1593897488109412,3.657,1.067,0.152
1593897488611374,3.733,1.143,0.152
1593897489113304,3.695,1.143,0.152
1593897489616715,3.695,1.143,0.152
1593897490118619,3.809,1.067,0.152
1593897490620577,3.847,1.143,0.152
1593897491122526,3.923,1.143,0.152
1593897491624502,3.771,1.143,0.152
1593897492126410,3.657,1.067,0.152
1593897492628595,3.619,1.067,0.152
1593897493130573,3.619,1.067,0.152
1593897493632560,3.657,1.143,0.152
1593897494139816,3.619,1.067,0.152
1593897494641722,3.581,1.067,0.152
1593897495143767,3.581,1.067,0.152
1593897495645793,3.657,1.143,0.152
1593897496147721,3.619,1.067,0.152
1593897496649636,3.657,1.143,0.152
1593897497151496,3.619,1.067,0.152
1593897497655127,3.619,1.067,0.152
1593897498156638,3.733,1.143,0.152
1593897498658108,3.657,1.143,0.152
1593897499159714,3.695,1.143,0.152
1593897499664330,3.657,1.067,0.152
1593897500165818,3.619,1.067,0.152
1593897500667290,3.619,1.067,0.152
1593897501168799,3.657,1.143,0.152
1593897501670284,3.581,1.067,0.152
1593897502171812,3.542,0.99,0.152
1593897502682141,3.542,1.067,0.152
1593897503183906,3.542,0.99,0.152
1593897503688760,3.581,1.067,0.152
1593897504190742,3.581,0.99,0.152
1593897504696039,3.542,0.99,0.152
1593897505197962,3.542,0.99,0.152
1593897505699959,3.657,1.067,0.152
1593897506201847,3.657,1.143,0.152
1593897506703792,3.771,1.143,0.152
1593897507205605,3.695,1.143,0.152
1593897507707538,3.695,1.143,0.152
1593897508209382,3.695,1.143,0.152
1593897508711555,3.657,1.143,0.152
1593897509213524,3.733,1.143,0.152
1593897509715570,3.695,1.143,0.152
1593897510217458,3.695,1.143,0.152
1593897510719260,3.695,1.143,0.152
1593897511221150,3.657,1.143,0.152
1593897511723071,3.657,1.143,0.152
1593897512225131,3.619,1.067,0.152
1593897512727112,3.542,1.067,0.152
1593897513229021,3.542,1.067,0.152
1593897513730975,3.542,1.067,0.152
1593897514232990,3.504,0.99,0.152
1593897514734953,3.504,0.99,0.152
1593897515251994,3.504,0.99,0.152
1593897515753929,3.581,1.067,0.152
1593897516255923,3.581,1.067,0.152
1593897516757843,3.542,0.99,0.152
1593897517259997,3.542,0.99,0.152
1593897517761978,3.504,0.99,0.152
1593897518264068,3.542,0.99,0.152
1593897518766018,3.504,0.99,0.152
1593897519268014,3.504,0.99,0.152
1593897519769938,3.542,0.99,0.152
1593897520272106,3.619,1.067,0.152
1593897520774077,3.619,1.067,0.152
1593897521276068,3.695,1.143,0.152
1593897521778008,3.619,1.067,0.152
1593897522280052,3.657,1.067,0.152
1593897522781991,3.657,1.143,0.152
1593897523284005,3.657,1.143,0.152
1593897523785884,3.733,1.143,0.152
1593897524287866,3.657,1.143,0.152
1593897524789809,3.695,1.143,0.152
1593897525291749,3.695,1.143,0.152
1593897525793661,3.657,1.143,0.152
1593897526295516,3.619,1.067,0.152
1593897526797493,3.619,1.067,0.152
1593897527299406,3.657,1.143,0.152
1593897527801323,3.695,1.143,0.152
1593897528303258,3.657,1.067,0.152
1593897528805274,3.695,1.143,0.152
1593897529307241,3.657,1.143,0.152
1593897529809591,3.657,1.143,0.152
1593897530311641,3.695,1.143,0.152
1593897530813500,3.581,1.067,0.152
1593897531315497,3.657,1.067,0.152
1593897531817404,3.657,1.143,0.152
1593897532319402,3.619,1.067,0.152
1593897532821318,3.619,1.067,0.152
1593897533323269,3.695,1.143,0.152
1593897533825129,3.657,1.143,0.152
1593897534326768,3.695,1.143,0.152
1593897534828427,3.695,1.143,0.152
1593897535329916,3.657,1.143,0.152
1593897535833913,3.657,1.143,0.152
1593897536335468,3.657,1.143,0.152
1593897536839297,3.809,1.143,0.152
1593897537341299,3.847,1.143,0.152
1593897537843189,3.657,1.067,0.152
1593897538344845,3.619,1.067,0.152
1593897538846370,3.695,1.143,0.152
1593897539347853,3.657,1.143,0.152
1593897539849357,3.619,1.067,0.152
1593897540352624,3.657,1.143,0.152
1593897540862500,3.695,1.143,0.152
1593897541369574,3.657,1.067,0.152
1593897541871054,3.657,1.067,0.152
1593897542373459,3.695,1.143,0.152
1593897542874952,3.657,1.143,0.152
1593897543376434,3.619,1.067,0.152
1593897543879970,3.657,1.067,0.152
1593897544381923,3.657,1.067,0.152
1593897544883882,3.657,1.143,0.152
1593897545385716,3.657,1.067,0.152
1593897545890412,3.619,1.067,0.152
1593897546392389,3.581,1.067,0.152
1593897546894416,3.619,1.067,0.152
1593897547396425,3.657,1.067,0.152
1593897547897964,3.657,1.143,0.152
1593897548399431,3.657,1.067,0.152
1593897548901840,3.619,1.067,0.152
1593897549403785,3.695,1.143,0.152
1593897549905707,3.657,1.143,0.152
1593897550407800,3.657,1.067,0.152
1593897550911776,3.619,1.067,0.152
1593897551413266,3.657,1.143,0.152
1593897551914729,3.657,1.143,0.152
1593897552416282,3.695,1.143,0.152
1593897552918247,3.619,1.067,0.152
1593897553420270,3.581,1.067,0.152
1593897553922266,3.542,1.067,0.152
1593897554424262,3.542,1.067,0.152
1593897554926196,3.542,0.99,0.152
1593897555428235,3.542,0.99,0.152
1593897555932950,3.542,0.99,0.152
1593897556434741,3.619,1.067,0.152
1593897556936333,3.657,1.143,0.152
1593897557438237,3.619,1.067,0.152
1593897557940692,3.581,1.067,0.152
1593897558443177,3.657,1.143,0.152
1593897558948661,3.657,1.143,0.152
1593897559450167,3.657,1.143,0.152
1593897559951798,3.695,1.143,0.152
1593897560453273,3.657,1.143,0.152
1593897560954832,3.695,1.143,0.152
1593897561457554,3.733,1.143,0.152
1593897561959047,3.695,1.143,0.152
1593897562461854,3.695,1.143,0.152
1593897562963359,3.657,1.143,0.152
1593897563464836,3.619,1.067,0.152
1593897563966579,3.619,1.067,0.152
1593897564468552,3.581,1.067,0.152
1593897564970363,3.542,1.067,0.152
1593897565472323,3.542,1.067,0.152
1593897565974261,3.581,1.067,0.152
1593897566476272,3.542,0.99,0.152
1593897566978231,3.542,0.99,0.152
1593897567480240,3.619,1.067,0.152
1593897567982184,3.581,1.067,0.152
1593897568484269,3.542,0.99,0.152
1593897568985756,3.619,1.067,0.152
1593897569492796,3.657,1.143,0.152
1593897569994312,3.657,1.067,0.152
1593897570495821,3.657,1.143,0.152
1593897570997287,3.619,1.067,0.152
1593897571498798,3.542,1.067,0.152
1593897572000516,3.581,1.067,0.152
1593897572508271,3.619,1.067,0.152
1593897573009755,3.695,1.143,0.152
1593897573511621,3.657,1.143,0.152
1593897574013500,3.695,1.143,0.152
1593897574515612,3.695,1.143,0.152
1593897575017496,3.695,1.143,0.152
1593897575519689,3.657,1.067,0.152
1593897576021663,3.733,1.143,0.152
1593897576523724,3.695,1.143,0.152
1593897577025719,3.695,1.143,0.152
1593897577527736,3.695,1.143,0.152
1593897578029542,3.657,1.143,0.152
1593897578531463,3.657,1.067,0.152
1593897579033596,3.619,1.067,0.152
1593897579535627,3.657,1.143,0.152
1593897580037534,3.657,1.143,0.152
1593897580539505,3.695,1.143,0.152
1593897581041419,3.733,1.143,0.152
1593897581543575,3.657,1.143,0.152
1593897582045626,3.695,1.143,0.152
1593897582547657,3.619,1.067,0.152
1593897583051238,3.657,1.143,0.152
1593897583553195,3.657,1.143,0.152
1593897584055268,3.695,1.143,0.152
1593897584560796,3.657,1.143,0.152
1593897585062714,3.695,1.143,0.152
1593897585564760,3.581,1.067,0.152
1593897586066720,3.619,1.067,0.152
1593897586571053,3.581,1.067,0.152
1593897587075787,3.542,0.99,0.152
1593897587577961,3.542,0.99,0.152
1593897588080049,3.581,0.99,0.152
1593897588582174,3.542,0.99,0.152
1593897589093061,3.504,0.99,0.152
1593897589595004,3.504,0.99,0.152
1593897590096986,3.619,1.067,0.152
1593897590598969,3.657,1.143,0.152
1593897591101131,3.657,1.143,0.152
1593897591603067,3.657,1.067,0.152
1593897592104633,3.581,1.067,0.152
1593897592606119,3.542,1.067,0.152
1593897593107633,3.542,1.067,0.152
1593897593609093,3.542,1.067,0.152
1593897594110594,3.542,0.99,0.152
1593897594612247,3.542,0.99,0.152
1593897595114168,3.581,1.067,0.152
1593897595616128,3.542,1.067,0.152
1593897596118095,3.542,1.067,0.152
1593897596620065,3.542,0.99,0.152
1593897597122015,3.542,0.99,0.152
1593897597624015,3.695,0.99,0.152
1593897598125971,3.733,1.067,0.152
1593897598627972,3.619,1.067,0.152
1593897599130998,3.504,0.99,0.152
1593897599633080,3.466,0.99,0.152
1593897600135165,3.542,0.99,0.152
1593897600637194,3.542,0.99,0.152
1593897601139138,3.542,1.067,0.152
1593897601641098,3.542,0.99,0.152
1593897602143023,3.504,0.99,0.152
1593897602645060,3.581,1.067,0.152
1593897603146995,3.619,1.067,0.152
1593897603649023,3.733,1.143,0.152
1593897604150944,3.657,1.067,0.152
1593897604652880,3.657,1.143,0.152
1593897605154815,3.695,1.143,0.152
1593897605656846,3.657,1.143,0.152
1593897606158897,3.619,1.067,0.152
1593897606660925,3.581,1.067,0.152
1593897607162937,3.581,1.067,0.152
1593897607664895,3.581,1.067,0.152
1593897608166838,3.542,0.99,0.152
1593897608668839,3.542,0.99,0.152
1593897609170787,3.542,1.067,0.152
1593897609672811,3.542,0.99,0.152
1593897610174819,3.542,1.067,0.152
1593897610676869,3.504,0.99,0.152
1593897611178780,3.466,0.99,0.152
1593897611680759,3.466,0.99,0.152
1593897612182712,3.542,0.99,0.152
1593897612684684,3.504,0.99,0.152
1593897613189172,3.504,0.99,0.152
1593897613691016,3.657,1.067,0.152
1593897614193017,3.657,1.143,0.152
1593897614694936,3.619,1.067,0.152
1593897615196842,3.619,1.067,0.152
1593897615698644,3.695,1.143,0.152
1593897616200582,3.695,1.143,0.152
1593897616702586,3.657,1.143,0.152
1593897617204653,3.657,1.067,0.152
1593897617706590,3.619,1.067,0.152
1593897618208552,3.581,1.067,0.152
1593897618710546,3.542,0.99,0.152
1593897619212717,3.504,0.99,0.152
1593897619715528,3.542,0.99,0.152
1593897620217474,3.542,0.99,0.152
1593897620719472,3.542,0.99,0.152
1593897621221355,3.542,1.067,0.152
1593897621723407,3.542,1.067,0.152
1593897622225566,3.542,0.99,0.152
1593897622727570,3.542,0.99,0.152
1593897623229491,3.542,0.99,0.152
1593897623731504,3.542,1.067,0.152
1593897624235182,3.504,0.99,0.152
1593897624737256,3.581,1.067,0.152
1593897625239196,3.657,1.143,0.152
1593897625741204,3.657,1.143,0.152
1593897626243945,3.619,1.143,0.152
1593897626745878,3.581,1.067,0.152
1593897627247722,3.542,0.99,0.152
1593897627749677,3.542,0.99,0.152
1593897628251676,3.542,1.067,0.152
1593897628753609,3.542,0.99,0.152
1593897629258282,3.542,0.99,0.152
1593897629760308,3.504,0.99,0.152
1593897630262276,3.542,0.99,0.152
1593897630764299,3.542,0.99,0.152
1593897631267906,3.581,0.99,0.152
1593897631769834,3.542,0.99,0.152
