TimeStamp,Total Power,CPU Power,GPU Power
1592833899948524,1.068,0.228,0.152
1592833900449987,1.334,0.305,0.152
1592833900951353,1.334,0.381,0.152
1592833901452861,1.372,0.381,0.152
1592833901954273,1.372,0.381,0.152
1592833902455657,1.372,0.381,0.152
1592833902957032,1.372,0.381,0.152
1592833903458436,1.525,0.381,0.152
1592833903959843,1.448,0.381,0.152
1592833904461228,1.372,0.381,0.152
1592833904962550,1.525,0.381,0.152
1592833905466738,1.448,0.381,0.152
1592833905968116,1.525,0.381,0.152
1592833906469446,1.41,0.381,0.152
1592833906970859,1.372,0.381,0.152
1592833907472267,1.372,0.381,0.152
1592833907973667,1.372,0.381,0.152
1592833908474997,1.372,0.381,0.152
1592833908976467,1.372,0.381,0.152
1592833909477872,1.372,0.381,0.152
1592833909979216,1.334,0.381,0.152
1592833910482831,1.372,0.381,0.152
1592833910984207,1.372,0.381,0.152
1592833911486880,1.372,0.381,0.152
1592833911988212,1.372,0.381,0.152
1592833912489650,1.372,0.381,0.152
1592833912991065,1.372,0.381,0.152
1592833913492451,1.372,0.381,0.152
1592833913993815,1.372,0.381,0.152
1592833914495188,1.448,0.381,0.152
1592833914996560,1.486,0.381,0.152
1592833915500128,1.486,0.381,0.152
1592833916001622,1.639,0.381,0.152
1592833916503033,1.563,0.381,0.152
1592833917004387,1.41,0.381,0.152
1592833917505715,1.372,0.381,0.152
1592833918007087,1.41,0.381,0.152
1592833918508472,1.372,0.381,0.152
1592833919009786,1.334,0.381,0.152
1592833919511182,1.372,0.381,0.152
1592833920012601,1.372,0.381,0.152
1592833920516179,1.486,0.381,0.152
1592833921017559,1.448,0.381,0.152
1592833921518929,1.41,0.381,0.152
1592833922020333,1.372,0.381,0.152
1592833922521715,1.639,0.381,0.152
1592833923023165,1.448,0.381,0.152
1592833923524577,1.525,0.381,0.152
1592833924025948,1.448,0.381,0.152
1592833924527276,1.372,0.381,0.152
1592833925028641,1.486,0.381,0.152
1592833925532652,1.486,0.381,0.152
1592833926033993,1.41,0.381,0.152
1592833926535388,1.525,0.381,0.152
1592833927036858,1.41,0.381,0.152
1592833927538232,1.486,0.381,0.152
1592833928039577,1.41,0.381,0.152
1592833928541130,1.372,0.381,0.152
1592833929042555,1.372,0.381,0.152
1592833929543921,1.372,0.381,0.152
1592833930045239,1.334,0.381,0.152
1592833930548775,1.372,0.381,0.152
1592833931050141,1.372,0.381,0.152
1592833931551457,1.372,0.381,0.152
1592833932052857,1.372,0.381,0.152
1592833932554274,1.41,0.381,0.152
1592833933055652,1.372,0.381,0.152
1592833933556984,1.372,0.381,0.152
1592833934058386,1.372,0.381,0.152
1592833934559765,1.334,0.381,0.152
1592833935061122,1.334,0.381,0.152
1592833935564803,1.448,0.381,0.152
1592833936066280,1.41,0.381,0.152
1592833936567654,1.372,0.381,0.152
1592833937069005,1.372,0.381,0.152
1592833937570373,1.372,0.381,0.152
1592833938071753,1.372,0.381,0.152
1592833938573132,1.372,0.381,0.152
1592833939074572,1.372,0.381,0.152
1592833939575995,1.372,0.381,0.152
1592833940077373,1.372,0.381,0.152
1592833940580982,1.372,0.381,0.152
1592833941082352,1.372,0.381,0.152
1592833941583762,1.372,0.381,0.152
1592833942085184,1.334,0.381,0.152
1592833942586601,1.372,0.381,0.152
1592833943088019,1.372,0.381,0.152
1592833943589395,1.334,0.381,0.152
1592833944090722,1.334,0.381,0.152
1592833944592080,1.372,0.381,0.152
1592833945093446,1.372,0.381,0.152
1592833945597026,1.372,0.381,0.152
1592833946098441,1.372,0.381,0.152
1592833946599844,1.372,0.381,0.152
1592833947101226,1.41,0.381,0.152
1592833947602554,1.525,0.381,0.152
1592833948103958,1.448,0.381,0.152
1592833948605420,1.41,0.381,0.152
1592833949106766,1.372,0.381,0.152
1592833949608167,1.372,0.381,0.152
1592833950109618,1.372,0.381,0.152
1592833950613173,1.372,0.381,0.152
1592833951114525,1.372,0.381,0.152
1592833951615909,1.372,0.381,0.152
1592833952117354,1.372,0.381,0.152
1592833952618717,1.372,0.381,0.152
1592833953120028,1.334,0.381,0.152
1592833953621385,1.372,0.381,0.152
1592833954122753,1.372,0.381,0.152
1592833954624062,1.334,0.381,0.152
1592833955125678,1.372,0.381,0.152
1592833955629337,1.372,0.381,0.152
1592833956130705,1.372,0.381,0.152
1592833956632031,1.372,0.381,0.152
1592833957133433,1.372,0.381,0.152
1592833957634801,1.372,0.381,0.152
1592833958136136,1.41,0.381,0.152
1592833958637634,1.486,0.381,0.152
1592833959139048,1.448,0.381,0.152
1592833959640426,1.372,0.381,0.152
1592833960141752,1.372,0.381,0.152
