timestamp	VIRTUAL_SCALING	CPU0_F	CPU1_F	CPU2_F	CPU3_F	CPU4_F	CPU5_F	GPU_FREQ	CPU_GOVERNOR	EMC_F	TEMP0	TEMP1	TEMP2	TEMP3	TEMP4	TEMP5	TEMP6	TEMP7
1592953458814973000	1	345	960	960	345	345	345	114750000	performance	665	28	29	27	28	26	24	100	27
1592953459079087101 	0	345	960	960	345	345	345	114750000	performance	665	28	28	27	29	26	25	100	27
1592953461179057817	1	345	960	960	345	345	345	114750000	performance	665	28	29	27	29	26	24	100	27
1592953461694918364 	0	345	960	960	345	345	345	114750000	performance	665	28	29	27	28	26	25	100	27
1592953463792386320	1	345	960	960	345	345	345	114750000	performance	665	29	28	27	28	26	25	100	28
1592953464255791920 	0	345	959	959	345	345	345	114750000	performance	665	28	29	27	28	26	25	100	28
1592953466357819571	1	345	960	960	345	345	345	114750000	performance	665	29	29	27	28	26	24	100	28
1592953466897227583 	0	345	960	960	345	346	345	114750000	performance	665	28	28	27	28	26	24	100	28
1592953469129351542	1	345	960	960	345	345	345	114750000	performance	665	28	28	27	28	26	24	100	27
1592953469591262257 	0	345	960	959	345	346	345	114750000	performance	665	28	28	27	28	26	24	100	27
1592953471672586099	1	345	960	960	345	345	345	114750000	performance	665	28	28	27	28	26	25	100	27
1592953472145348784 	0	345	960	959	345	345	345	114750000	performance	665	29	28	27	28	26	24	100	27
1592953474244086281	1	345	960	960	345	345	345	114750000	performance	665	28	28	27	28	26	25	100	27
1592953474725514848 	0	345	960	960	346	346	345	114750000	performance	665	28	28	27	28	26	24	100	27
1592953476894812436	1	345	960	960	345	345	345	114750000	performance	665	28	29	27	28	26	24	100	27
1592953477363237956 	0	345	959	959	345	345	345	114750000	performance	665	28	28	27	28	26	24	100	27
1592953479445031719	1	345	960	960	345	345	345	114750000	performance	665	28	28	27	28	26	24	100	27
1592953479921349455 	0	345	960	959	345	345	345	114750000	performance	665	28	28	27	28	26	24	100	27
1592953482025157400	1	345	960	960	345	345	345	114750000	performance	665	28	28	27	28	26	24	100	27
1592953482503050404 	0	345	959	960	345	345	345	114750000	performance	665	28	28	27	28	26	24	100	27
1592953484630804471	1	345	960	960	345	345	345	114750000	performance	665	28	28	27	28	26	24	100	28
1592953485103519508 	0	345	960	960	345	345	345	114750000	performance	665	28	28	27	29	26	24	100	27
1592953487257476664	1	345	960	960	345	345	345	114750000	performance	665	28	28	27	28	26	24	100	27
1592953487727159563 	0	345	959	960	345	345	345	114750000	performance	665	28	28	27	29	26	24	100	27
