timestamp	VIRTUAL_SCALING	CPU0_F	CPU1_F	CPU2_F	CPU3_F	CPU4_F	CPU5_F	GPU_FREQ	CPU_GOVERNOR	EMC_F	TEMP0	TEMP1	TEMP2	TEMP3	TEMP4	TEMP5	TEMP6	TEMP7
1593969630786416352	1	345	1881	1881	345	345	345	114750000	performance	1866	31	30	29	31	28	27	100	30
1593969630986889288 	0	345	1230	1805	345	345	345	114750000	performance	1866	30	30	29	31	28	27	100	30
1593969632685182376	1	345	1881	1881	345	345	345	114750000	performance	1866	31	31	29	31	28	27	100	30
1593969632844336929 	0	345	1882	1881	345	345	345	114750000	performance	1866	31	31	29	31	28	27	100	30
1593969634541828572	1	345	1881	1881	345	345	345	114750000	performance	1866	31	31	29	31	28	27	100	30
1593969634700211248 	0	345	1881	1839	345	345	345	114750000	performance	1866	31	31	29	31	28	27	100	30
1593969636398572208	1	345	1881	1881	345	345	345	114750000	performance	1866	31	31	29	31	28	27	100	30
1593969636558737743 	0	345	1881	1879	345	345	345	114750000	performance	1866	31	31	29	31	28	27	100	30
1593969638255776903	1	345	1881	1881	345	345	345	114750000	performance	1866	31	31	29	31	28	27	100	30
1593969638416515081 	0	345	1839	1841	345	345	345	114750000	performance	1866	31	31	29	31	28	27	100	30
1593969640112416347	1	345	1881	1881	345	345	345	114750000	performance	1866	31	31	29	31	28	27	100	30
1593969640268864804 	0	345	1880	1881	345	345	345	114750000	performance	1866	31	31	29	31	28	27	100	30
1593969641967246149	1	345	1881	1881	345	345	345	114750000	performance	1866	31	31	29	31	28	27	100	30
1593969642124726484 	0	345	1842	1882	345	345	345	114750000	performance	1866	31	31	29	31	28	27	100	30
1593969643825747587	1	345	1881	1881	345	345	345	114750000	performance	1866	31	31	29	31	28	27	100	30
1593969643983978774 	0	345	1881	1880	345	345	345	114750000	performance	1866	31	31	29	31	28	27	100	30
1593969645681441362	1	345	1881	1881	345	345	345	114750000	performance	1866	31	31	29	31	28	27	100	30
1593969645888271902 	0	345	1881	1792	345	345	345	114750000	performance	1866	31	31	29	31	28	27	100	30
1593969647618244341	1	345	1881	1881	345	345	345	114750000	performance	1866	31	31	29	31	28	27	100	30
1593969647985409729 	0	345	1882	1881	345	345	345	114750000	performance	1866	31	31	29	31	28	27	100	30
1593969649897898712	1	345	1881	1881	345	345	345	114750000	performance	1866	31	31	29	31	28	27	100	30
1593969650056239628 	0	345	1879	1881	345	345	345	114750000	performance	1866	31	31	29	31	28	27	100	30
1593969651777600657	1	345	1881	1881	345	345	345	114750000	performance	1866	31	31	29	31	28	27	100	30
1593969651937197612 	0	345	1875	1878	345	345	345	114750000	performance	1866	31	31	29	31	28	27	100	30
1593969653635721102	1	345	1881	1881	345	345	345	114750000	performance	1866	31	31	29	31	28	27	100	30
1593969653793335517 	0	345	1876	1880	345	345	345	114750000	performance	1866	31	31	29	31	28	27	100	30
1593969655490800312	1	345	1881	1881	345	345	345	114750000	performance	1866	31	31	29	31	28	27	100	30
1593969655650690965 	0	346	1880	1881	345	345	345	114750000	performance	1866	31	31	29	31	28	27	100	30
1593969657348619379	1	345	1881	1881	345	345	345	114750000	performance	1866	31	31	29	31	28	27	100	30
1593969657507095208 	0	345	1881	1881	345	346	345	114750000	performance	1866	31	31	29	31	28	27	100	30
1593969659203599261	1	345	1881	1881	345	345	345	114750000	performance	1866	31	31	29	31	28	27	100	30
1593969659390272661 	0	345	1881	1882	345	345	345	114750000	performance	1866	31	31	29	31	28	27	100	30
1593969661093127919	1	345	1881	1881	345	345	345	114750000	performance	1866	31	31	29	31	28	27	100	30
1593969661251720645 	0	345	1881	1880	345	345	346	114750000	performance	1866	31	31	29	31	28	27	100	30
1593969662949816291	1	345	1881	1881	345	345	345	114750000	performance	1866	31	31	29	31	28	27	100	30
1593969663107543284 	0	345	1881	1879	345	345	345	114750000	performance	1866	31	31	29	31	28	27	100	30
1593969664802998819	1	345	1881	1881	345	345	345	114750000	performance	1866	31	31	29	31	28	27	100	30
1593969664962562398 	0	345	1879	1880	345	345	345	114750000	performance	1866	31	31	29	31	28	27	100	30
1593969666662068933	1	345	1881	1881	345	345	345	114750000	performance	1866	31	31	29	31	28	27	100	30
1593969666819791158 	0	345	1878	1856	345	345	345	114750000	performance	1866	31	31	29	31	28	27	100	30
1593969668518814650	1	345	1881	1881	345	345	345	114750000	performance	1866	31	31	29	31	28	27	100	30
1593969668692136836 	0	345	1881	1845	345	345	345	114750000	performance	1866	31	31	29	31	28	27	100	30
1593969670399593241	1	345	1881	1881	345	345	345	114750000	performance	1866	31	31	29	31	28	27	100	30
1593969670746916818 	0	345	1883	1880	345	345	345	114750000	performance	1866	31	31	29	31	28	27	100	30
1593969672663149087	1	345	1881	1881	345	345	345	114750000	performance	1866	31	31	29	31	28	27	100	30
1593969672853441164 	0	345	1881	1881	345	345	345	114750000	performance	1866	31	31	29	31	28	27	100	30
1593969674656403337	1	345	1881	1881	345	345	345	114750000	performance	1866	31	31	29	31	28	27	100	30
1593969674826410048 	0	345	1881	1881	345	345	345	114750000	performance	1866	31	31	29	31	28	27	100	30
1593969676526285801	1	345	1881	1881	345	345	345	114750000	performance	1866	31	31	29	31	28	27	100	30
1593969676685657955 	0	345	1881	1881	345	345	345	114750000	performance	1866	31	31	29	31	28	27	100	30
1593969678381429013	1	345	1881	1881	345	345	345	114750000	performance	1866	31	31	29	31	28	27	100	30
1593969678541495410 	0	345	1835	1839	345	345	345	114750000	performance	1866	31	31	29	31	28	27	100	30
1593969680238030760	1	345	1881	1881	345	345	345	114750000	performance	1866	31	31	29	31	28	27	100	30
1593969680396161723 	0	345	1880	1877	345	345	345	114750000	performance	1866	31	31	29	31	28	27	100	30
1593969682094384026	1	345	1881	1881	345	345	345	114750000	performance	1866	31	31	29	31	28	27	100	30
1593969682253140145 	0	345	1877	1880	345	345	345	114750000	performance	1866	31	31	29	31	28	27	100	30
1593969683950217129	1	345	1881	1881	345	345	345	114750000	performance	1866	31	31	29	31	28	27	100	30
1593969684115212804 	0	345	1880	1878	345	345	345	114750000	performance	1866	31	31	29	31	28	27	100	30
1593969685811733722	1	345	1881	1881	345	345	345	114750000	performance	1866	31	31	29	31	28	27	100	30
1593969685969042887 	0	345	1881	1880	345	345	346	114750000	performance	1866	31	31	29	31	28	27	100	30
1593969687669059889	1	345	1881	1881	345	345	345	114750000	performance	1866	31	31	29	31	28	27	100	30
1593969687828003337 	0	345	1879	1881	345	345	345	114750000	performance	1866	31	31	29	31	28	27	100	30
1593969689526030951	1	345	1881	1881	345	345	345	114750000	performance	1866	31	31	29	31	28	27	100	30
1593969689684644125 	0	345	1876	1882	345	345	345	114750000	performance	1866	31	31	29	31	28	27	100	30
1593969691383060541	1	345	1881	1881	345	345	345	114750000	performance	1866	31	31	29	31	28	27	100	30
1593969691569904374 	0	345	1881	1878	345	345	345	114750000	performance	1866	31	31	29	31	28	27	100	30
1593969693280203771	1	345	1881	1881	345	345	345	114750000	performance	1866	32	32	29	32	28	27	100	31
1593969693647122470 	0	345	1875	1878	345	345	345	114750000	performance	1866	32	31	29	31	28	27	100	31
1593969695591172467	1	345	1881	1881	345	345	345	114750000	performance	1866	31	31	29	31	28	27	100	31
1593969695750438797 	0	345	1838	1841	345	345	345	114750000	performance	1866	31	31	29	31	28	27	100	31
1593969697486899977	1	345	1881	1881	345	345	345	114750000	performance	1866	31	31	29	31	28	27	100	30
1593969697648616689 	0	345	1882	1880	345	345	345	114750000	performance	1866	31	31	29	31	28	27	100	30
1593969699345479368	1	345	1881	1881	345	345	345	114750000	performance	1866	31	31	29	31	28	27	100	30
1593969699538634694 	0	345	1838	1880	345	345	345	114750000	performance	1866	31	31	29	31	28	27	100	30
1593969701235182075	1	345	1881	1881	345	345	345	114750000	performance	1866	31	31	29	31	28	27	100	30
1593969701393101517 	0	345	1842	1881	345	345	345	114750000	performance	1866	31	31	29	31	28	27	100	30
1593969703090284614	1	345	1881	1881	345	345	345	114750000	performance	1866	31	31	29	31	28	27	100	30
1593969703247246738 	0	345	1881	1881	345	345	346	114750000	performance	1866	31	31	29	31	28	27	100	30
1593969704943068900	1	345	1881	1881	345	345	345	114750000	performance	1866	31	31	29	31	28	27	100	30
1593969705102145180 	0	345	1882	1881	345	345	345	114750000	performance	1866	31	31	29	31	28	27	100	30
1593969706800299963	1	345	1881	1881	345	345	345	114750000	performance	1866	31	31	29	31	28	27	100	30
1593969706959732853 	0	345	1880	1882	345	345	345	114750000	performance	1866	31	31	29	31	28	27	100	30
1593969708659463422	1	345	1881	1881	345	345	345	114750000	performance	1866	31	31	29	31	28	27	100	30
1593969708817627984 	0	345	1837	1841	345	345	345	114750000	performance	1866	31	31	29	31	28	27	100	30
1593969710515807088	1	345	1881	1881	345	345	345	114750000	performance	1866	31	31	29	31	28	27	100	30
1593969710676591506 	0	345	1881	1839	345	345	345	114750000	performance	1866	31	31	29	31	28	27	100	30
1593969712373644906	1	345	1881	1881	345	345	345	114750000	performance	1866	31	31	29	31	28	27	100	30
1593969712532415393 	0	345	1881	1880	345	345	345	114750000	performance	1866	31	31	29	31	28	27	100	30
1593969714233410288	1	345	1881	1881	345	345	345	114750000	performance	1866	31	31	29	31	28	27	100	30
1593969714487623311 	0	345	1880	1881	345	345	345	114750000	performance	1866	31	31	29	31	28	27	100	30
1593969716281402007	1	345	1881	1881	345	345	345	114750000	performance	1866	31	31	29	31	28	27	100	30
1593969716585641111 	0	345	1881	1881	345	345	345	114750000	performance	1866	31	31	29	31	28	27	100	30
1593969718459542383	1	345	1881	1881	345	345	345	114750000	performance	1866	31	31	29	31	28	27	100	30
1593969718620134064 	0	345	1838	1881	345	345	345	114750000	performance	1866	31	31	29	31	28	27	100	30
1593969720384599822	1	345	1881	1881	345	345	345	114750000	performance	1866	31	31	29	31	28	27	100	30
1593969720543026563 	0	345	1881	1841	345	345	345	114750000	performance	1866	31	31	29	31	28	27	100	30
1593969722241417251	1	345	1881	1881	345	345	345	114750000	performance	1866	31	31	29	31	28	27	100	30
1593969722398640337 	0	345	1882	1846	345	345	345	114750000	performance	1866	31	31	29	31	28	27	100	30
1593969724095540776	1	345	1881	1881	345	345	345	114750000	performance	1866	31	31	29	31	28	27	100	30
1593969724257704082 	0	345	1838	1839	345	345	345	114750000	performance	1866	31	31	29	31	28	27	100	30
1593969725954318985	1	345	1881	1881	345	345	345	114750000	performance	1866	31	31	29	31	28	27	100	30
1593969726110877650 	0	345	1882	1881	345	345	345	114750000	performance	1866	31	31	29	31	28	27	100	30
1593969727810755291	1	345	1881	1881	345	345	345	114750000	performance	1866	31	31	29	31	28	27	100	30
1593969727968797997 	0	345	1881	1881	345	345	345	114750000	performance	1866	31	31	29	31	28	27	100	30
1593969729666331305	1	345	1881	1881	345	345	345	114750000	performance	1866	31	31	29	31	28	27	100	30
1593969729826173894 	0	345	1881	1881	345	345	345	114750000	performance	1866	31	31	29	31	28	27	100	30
1593969731522378073	1	345	1881	1881	345	345	345	114750000	performance	1866	31	31	29	31	28	27	100	30
1593969731682972922 	0	345	1881	1839	345	345	345	114750000	performance	1866	31	31	29	31	28	27	100	30
1593969733380014355	1	345	1881	1881	345	345	345	114750000	performance	1866	31	31	29	31	28	27	100	30
1593969733537967909 	0	345	1880	1882	345	345	345	114750000	performance	1866	31	31	29	31	28	27	100	30
1593969735237553516	1	345	1881	1881	345	345	345	114750000	performance	1866	31	31	29	31	28	27	100	30
1593969735395787071 	0	345	1837	1882	345	345	345	114750000	performance	1866	31	31	29	31	28	27	100	30
1593969737111873222	1	345	1881	1881	345	345	345	114750000	performance	1866	31	31	29	31	28	27	100	30
1593969737337560320 	0	345	1842	1838	345	345	345	114750000	performance	1866	31	31	29	31	28	27	100	30
1593969739522882369	1	345	1881	1881	345	345	345	114750000	performance	1866	31	31	29	31	28	27	100	30
1593969739713604880 	0	345	1881	1843	345	345	345	114750000	performance	1866	31	31	29	31	28	27	100	30
1593969741476538470	1	345	1881	1881	345	345	345	114750000	performance	1866	31	31	29	31	28	27	100	30
1593969741635486045 	0	345	1880	1837	345	345	345	114750000	performance	1866	31	31	29	31	28	27	100	30
1593969743333111193	1	345	1881	1881	345	345	345	114750000	performance	1866	31	31	29	31	28	27	100	30
1593969743490311623 	0	345	1881	1881	345	345	345	114750000	performance	1866	31	31	29	31	28	27	100	30
1593969745185863927	1	345	1881	1881	345	345	345	114750000	performance	1866	31	31	29	31	28	27	100	30
1593969745344602509 	0	345	1838	1881	345	345	345	114750000	performance	1866	31	31	29	31	28	27	100	30
1593969747040107773	1	345	1881	1881	345	345	345	114750000	performance	1866	31	31	29	31	28	27	100	31
1593969747197750028 	0	345	1841	1843	345	345	345	114750000	performance	1866	31	31	29	31	28	27	100	31
1593969748896673680	1	345	1881	1881	345	345	345	114750000	performance	1866	31	31	29	31	28	27	100	30
1593969749055498695 	0	345	1879	1880	345	345	345	114750000	performance	1866	31	31	29	31	28	27	100	30
1593969750753804839	1	345	1881	1881	345	345	345	114750000	performance	1866	31	31	29	31	28	27	100	30
1593969750912903903 	0	345	1880	1879	345	345	345	114750000	performance	1866	32	32	29	32	28	27	100	30
1593969752610428538	1	345	1881	1881	345	345	345	114750000	performance	1866	31	31	30	31	28	27	100	30
1593969752770036086 	0	345	1879	1881	345	345	345	114750000	performance	1866	31	31	29	31	28	27	100	30
1593969754470778724	1	345	1881	1881	345	345	345	114750000	performance	1866	31	31	29	31	28	27	100	30
1593969754629484506 	0	345	1877	1882	345	345	345	114750000	performance	1866	31	31	29	31	28	27	100	30
1593969756328611358	1	345	1881	1881	345	345	345	114750000	performance	1866	31	32	29	32	28	27	100	30
1593969756486603376 	0	345	1874	1880	345	345	345	114750000	performance	1866	31	31	29	31	28	27	100	30
1593969758182569187	1	345	1881	1881	345	345	345	114750000	performance	1866	31	31	29	31	28	27	100	30
1593969758376660838 	0	345	1881	1877	345	345	345	114750000	performance	1866	31	31	29	31	28	27	100	30
1593969760078844988	1	345	1881	1881	345	345	345	114750000	performance	1866	31	31	29	31	28	27	100	30
1593969760434904072 	0	345	1842	1840	345	345	345	114750000	performance	1866	31	31	29	31	28	27	100	30
1593969762373230068	1	345	1881	1881	345	345	345	114750000	performance	1866	31	31	29	31	28	27	100	30
1593969762538315407 	0	345	1882	1881	345	345	345	114750000	performance	1866	32	32	29	31	28	27	100	30
1593969764293443991	1	345	1881	1881	345	345	345	114750000	performance	1866	32	32	29	32	28	27	100	30
1593969764455784387 	0	345	1836	1881	345	345	345	114750000	performance	1866	31	31	29	31	28	27	100	30
1593969766152148023	1	345	1881	1881	345	345	345	114750000	performance	1866	31	31	29	31	28	27	100	30
1593969766310317514 	0	345	1881	1882	345	345	345	114750000	performance	1866	31	31	29	31	28	27	100	30
1593969768007230306	1	345	1881	1881	345	345	345	114750000	performance	1866	31	31	29	31	28	27	100	30
1593969768164398831 	0	345	1881	1880	345	345	345	114750000	performance	1866	31	31	29	31	28	27	100	30
1593969769864694043	1	345	1881	1881	345	345	345	114750000	performance	1866	31	31	29	31	28	27	100	30
1593969770022349515 	0	345	1880	1881	345	345	345	114750000	performance	1866	31	31	29	31	28	27	100	30
1593969771719219426	1	345	1881	1881	345	345	345	114750000	performance	1866	31	31	29	31	28	27	100	30
1593969771880398983 	0	345	1881	1881	345	345	345	114750000	performance	1866	31	31	29	31	28	27	100	30
1593969773577057693	1	345	1881	1881	345	345	345	114750000	performance	1866	31	31	29	31	28	27	100	30
1593969773734942382 	0	345	1843	1845	345	345	345	114750000	performance	1866	31	31	29	31	28	27	100	30
1593969775432969805	1	345	1881	1881	345	345	345	114750000	performance	1866	31	31	29	31	28	27	100	30
1593969775592340839 	0	345	1881	1881	345	345	345	114750000	performance	1866	31	31	29	31	28	27	100	30
1593969777289193662	1	345	1881	1881	345	345	345	114750000	performance	1866	31	31	29	31	28	27	100	30
1593969777449441981 	0	345	1880	1881	345	345	345	114750000	performance	1866	31	31	29	31	28	27	100	30
1593969779146982521	1	345	1881	1881	345	345	345	114750000	performance	1866	31	31	29	31	28	27	100	30
1593969779303942629 	0	345	1883	1844	345	345	345	114750000	performance	1866	31	31	29	31	28	27	100	30
1593969781003422475	1	345	1881	1881	345	345	345	114750000	performance	1866	31	31	29	31	28	27	100	30
1593969781162471171 	0	345	1879	1879	345	345	345	114750000	performance	1866	31	31	29	31	28	27	100	30
1593969782862261100	1	345	1881	1881	345	345	345	114750000	performance	1866	31	31	29	31	28	27	100	30
1593969783196155511 	0	345	1880	1881	345	345	345	114750000	performance	1866	31	31	29	31	28	27	100	30
1593969785094866847	1	345	1881	1881	345	345	345	114750000	performance	1866	31	31	29	31	28	27	100	30
1593969785296282860 	0	345	1847	1881	346	345	345	114750000	performance	1866	31	31	29	31	28	27	100	30
1593969787081834404	1	345	1881	1881	345	345	345	114750000	performance	1866	31	31	29	31	28	27	100	30
1593969787240067192 	0	345	1880	1843	345	345	345	114750000	performance	1866	31	31	29	31	28	27	100	30
1593969788938930267	1	345	1881	1881	345	345	345	114750000	performance	1866	31	31	29	31	28	27	100	30
1593969789098303477 	0	346	1881	1878	345	345	345	114750000	performance	1866	31	31	29	31	28	27	100	30
1593969790795847984	1	345	1881	1881	345	345	345	114750000	performance	1866	31	31	29	31	28	27	100	30
1593969790955599436 	0	345	1881	1881	345	345	345	114750000	performance	1866	31	31	29	31	28	27	100	30
1593969792653688235	1	345	1881	1881	345	345	345	114750000	performance	1866	31	31	29	31	28	27	100	30
1593969792813033509 	0	345	1840	1880	345	345	345	114750000	performance	1866	31	31	29	31	28	27	100	30
1593969794513828691	1	345	1881	1881	345	345	345	114750000	performance	1866	31	31	29	31	28	27	100	30
1593969794672591433 	0	345	1881	1844	345	345	345	114750000	performance	1866	31	31	29	31	28	27	100	30
1593969796371558189	1	345	1881	1881	345	345	345	114750000	performance	1866	31	31	29	31	28	27	100	30
1593969796532443504 	0	345	1881	1835	345	345	345	114750000	performance	1866	31	31	29	31	28	27	100	30
1593969798230756624	1	345	1881	1881	345	345	345	114750000	performance	1866	31	31	29	31	28	27	100	30
1593969798389492326 	0	345	1879	1841	345	345	345	114750000	performance	1866	31	31	29	31	28	27	100	30
1593969800112774038	1	345	1881	1881	345	345	345	114750000	performance	1866	31	31	29	31	28	27	100	30
1593969800277151309 	0	345	1881	1881	346	345	345	114750000	performance	1866	31	31	29	31	28	27	100	30
1593969802081147025	1	345	1881	1881	345	345	345	114750000	performance	1866	31	31	29	31	28	27	100	30
1593969802240099720 	0	345	1879	1881	345	345	345	114750000	performance	1866	31	31	29	31	28	27	100	30
1593969803943130307	1	345	1881	1881	345	345	345	114750000	performance	1866	31	31	29	31	28	27	100	30
1593969804284273433 	0	345	1842	1881	345	345	345	114750000	performance	1866	31	31	29	31	28	27	100	30
1593969806196827120	1	345	1881	1881	345	345	345	114750000	performance	1866	31	31	29	31	28	27	100	30
1593969806389487562 	0	345	1881	1839	345	345	345	114750000	performance	1866	31	31	29	31	28	27	100	30
1593969808174545088	1	345	1881	1881	345	345	345	114750000	performance	1866	31	31	29	31	28	27	100	30
1593969808332514994 	0	345	1881	1881	345	345	345	114750000	performance	1866	31	31	29	31	28	27	100	30
1593969810030143310	1	345	1881	1881	345	345	345	114750000	performance	1866	31	31	29	31	28	27	100	30
1593969810191409299 	0	345	1842	1881	345	345	345	114750000	performance	1866	31	31	29	31	28	27	100	30
1593969811890425943	1	345	1881	1881	345	345	345	114750000	performance	1866	31	31	29	31	28	27	100	30
1593969812050813431 	0	345	1881	1880	345	345	345	114750000	performance	1866	31	31	29	31	28	27	100	30
1593969813748680116	1	345	1881	1881	345	345	345	114750000	performance	1866	31	31	29	31	28	27	100	30
1593969813908773874 	0	345	1881	1881	345	345	345	114750000	performance	1866	31	31	29	31	28	27	100	30
1593969815608839612	1	345	1881	1881	345	345	345	114750000	performance	1866	31	31	29	31	28	27	100	30
1593969815768545496 	0	345	1844	1880	345	345	345	114750000	performance	1866	31	31	29	31	28	27	100	30
1593969817466741335	1	345	1881	1881	345	345	345	114750000	performance	1866	31	31	29	31	28	27	100	30
1593969817627819995 	0	345	1881	1881	345	345	345	114750000	performance	1866	31	31	29	31	28	27	100	30
1593969819325587704	1	345	1881	1881	345	345	345	114750000	performance	1866	31	31	29	31	28	27	100	30
1593969819483724395 	0	345	1881	1794	345	345	345	114750000	performance	1866	31	31	29	31	28	27	100	30
1593969821183897558	1	345	1881	1881	345	345	345	114750000	performance	1866	31	31	29	31	28	27	100	30
1593969821342667244 	0	345	1881	1881	345	345	345	114750000	performance	1866	31	31	29	31	28	27	100	30
1593969823040067303	1	345	1881	1881	345	345	345	114750000	performance	1866	31	31	30	31	28	27	100	30
1593969823199245503 	0	345	1796	1879	345	345	345	114750000	performance	1866	31	31	29	31	28	27	100	30
1593969824898720134	1	345	1881	1881	345	345	345	114750000	performance	1866	31	31	29	31	28	27	100	30
1593969825071141836 	0	345	1881	1838	345	345	345	114750000	performance	1866	31	31	29	31	28	27	100	30
1593969826783265083	1	345	1881	1881	345	345	345	114750000	performance	1866	31	31	29	31	28	27	100	30
1593969827135172623 	0	345	1880	1881	345	345	345	114750000	performance	1866	31	31	29	31	28	27	100	30
1593969829057162237	1	345	1881	1881	345	345	345	114750000	performance	1866	31	31	29	31	28	27	100	30
1593969829244381528 	0	345	1879	1881	345	345	345	114750000	performance	1866	31	31	29	31	28	27	100	30
1593969831014818457	1	345	1881	1881	345	345	345	114750000	performance	1866	31	31	29	31	28	27	100	30
1593969831175077336 	0	345	1879	1881	345	345	345	114750000	performance	1866	31	31	29	31	28	27	100	30
1593969832874238877	1	345	1881	1881	345	345	345	114750000	performance	1866	31	31	29	31	28	27	100	30
1593969833034881694 	0	345	1881	1879	345	345	345	114750000	performance	1866	31	31	29	31	28	27	100	30
1593969834736779667	1	345	1881	1881	345	345	345	114750000	performance	1866	31	31	29	31	28	27	100	30
1593969834897891159 	0	345	1881	1880	345	345	345	114750000	performance	1866	31	31	29	31	28	27	100	30
1593969836596943803	1	345	1881	1881	345	345	345	114750000	performance	1866	31	31	29	31	28	27	100	30
1593969836757403707 	0	345	1882	1880	346	345	345	114750000	performance	1866	31	31	29	31	28	27	100	30
1593969838457623686	1	345	1881	1881	345	345	345	114750000	performance	1866	31	31	29	31	28	27	100	30
1593969838616747743 	0	345	1878	1880	345	346	345	114750000	performance	1866	31	31	29	31	28	27	100	30
1593969840316622248	1	345	1881	1881	345	345	345	114750000	performance	1866	31	31	29	31	28	27	100	30
1593969840475136893 	0	345	1881	1842	345	345	345	114750000	performance	1866	31	31	29	31	28	27	100	30
1593969842174997382	1	345	1881	1881	345	345	345	114750000	performance	1866	31	31	29	31	28	27	100	30
1593969842332979064 	0	345	1881	1881	345	345	345	114750000	performance	1866	31	31	29	31	28	27	100	30
1593969844032689952	1	345	1881	1881	345	345	345	114750000	performance	1866	31	31	29	31	28	27	100	30
1593969844193939684 	0	345	1881	1879	345	346	345	114750000	performance	1866	31	31	29	31	28	27	100	30
1593969845892677479	1	345	1881	1881	345	345	345	114750000	performance	1866	31	31	29	31	28	27	100	30
1593969846051928608 	0	345	1837	1841	345	345	345	114750000	performance	1866	31	31	29	31	28	27	100	30
1593969847756031938	1	345	1881	1881	345	345	345	114750000	performance	1866	31	31	29	31	28	27	100	30
1593969847962732589 	0	345	1881	1842	345	345	345	114750000	performance	1866	31	31	29	31	28	27	100	30
1593969849698113956	1	345	1881	1881	345	345	345	114750000	performance	1866	31	31	29	31	28	27	100	30
1593969850131281965 	0	345	1879	1879	345	345	345	114750000	performance	1866	31	31	29	31	28	27	100	30
1593969852058583066	1	345	1881	1881	345	345	345	114750000	performance	1866	31	31	29	31	28	27	100	30
1593969852218778457 	0	345	1881	1843	345	345	345	114750000	performance	1866	31	31	29	31	28	27	100	30
1593969853929564001	1	345	1881	1881	345	345	345	114750000	performance	1866	31	31	29	31	28	27	100	30
1593969854088365815 	0	345	1840	1881	345	345	345	114750000	performance	1866	31	31	29	31	28	27	100	30
1593969855786707800	1	345	1881	1881	345	345	345	114750000	performance	1866	31	31	29	31	28	27	100	30
1593969855946598804 	0	345	1881	1881	345	345	345	114750000	performance	1866	31	31	29	31	28	27	100	30
1593969857646301532	1	345	1881	1881	345	345	345	114750000	performance	1866	31	31	29	31	28	27	100	30
1593969857806538203 	0	345	1881	1881	345	345	345	114750000	performance	1866	31	31	29	31	28	27	100	30
1593969859502592910	1	345	1881	1881	345	345	345	114750000	performance	1866	31	31	29	31	28	27	100	30
1593969859662093737 	0	345	1841	1844	345	345	345	114750000	performance	1866	31	31	29	31	28	27	100	30
1593969861362458549	1	345	1881	1881	345	345	345	114750000	performance	1866	31	31	29	31	28	27	100	30
1593969861521102922 	0	345	1843	1882	345	345	345	114750000	performance	1866	31	31	29	31	28	27	100	30
1593969863227004566	1	345	1881	1881	345	345	345	114750000	performance	1866	31	31	29	31	28	27	100	30
1593969863399813534 	0	345	1881	1881	345	345	345	114750000	performance	1866	31	31	29	31	28	27	100	30
1593969865129574548	1	345	1881	1881	345	345	345	114750000	performance	1866	31	31	29	31	28	27	100	30
1593969865291517949 	0	345	1879	1837	345	345	345	114750000	performance	1866	31	31	29	31	28	27	100	30
1593969866990721410	1	345	1881	1881	345	345	345	114750000	performance	1866	31	31	29	31	28	27	100	30
1593969867150009947 	0	345	1881	1880	345	345	345	114750000	performance	1866	31	31	29	31	28	27	100	30
1593969868849922276	1	345	1881	1881	345	345	345	114750000	performance	1866	31	31	29	31	28	27	100	30
1593969869012802707 	0	345	1881	1880	345	345	345	114750000	performance	1866	31	31	29	31	28	27	100	30
1593969870710895473	1	345	1881	1881	345	345	345	114750000	performance	1866	31	31	29	31	28	27	100	30
1593969871031210606 	0	345	1881	1881	345	345	345	114750000	performance	1866	31	31	29	31	28	27	100	30
1593969872917478541	1	345	1881	1881	345	345	345	114750000	performance	1866	31	31	29	31	28	27	100	30
1593969873139470514 	0	345	1881	1881	345	345	345	114750000	performance	1866	31	31	29	31	28	27	100	30
1593969874942152493	1	345	1881	1881	345	345	345	114750000	performance	1866	31	31	29	31	28	27	100	30
1593969875101120741 	0	345	1878	1880	345	345	345	114750000	performance	1866	31	31	29	31	28	27	100	30
1593969876799297252	1	345	1881	1881	345	345	345	114750000	performance	1866	31	31	29	31	28	27	100	30
1593969876962333619 	0	345	1881	1881	345	345	345	114750000	performance	1866	31	31	29	31	28	27	100	30
1593969878661285207	1	345	1881	1881	345	345	345	114750000	performance	1866	31	31	29	31	28	27	100	30
1593969878819023335 	0	345	1882	1881	345	345	345	114750000	performance	1866	31	31	29	31	28	27	100	30
1593969880519090641	1	345	1881	1881	345	345	345	114750000	performance	1866	31	31	29	31	28	27	100	30
1593969880678022761 	0	345	1881	1882	345	345	345	114750000	performance	1866	31	31	29	31	28	27	100	30
1593969882377809265	1	345	1881	1881	345	345	345	114750000	performance	1866	31	31	29	31	28	27	100	30
1593969882537272364 	0	345	1840	1881	345	345	345	114750000	performance	1866	31	31	29	31	28	27	100	30
1593969884235465515	1	345	1881	1881	345	345	345	114750000	performance	1866	31	31	29	31	28	27	100	30
1593969884396305005 	0	345	1882	1881	345	345	345	114750000	performance	1866	31	31	29	31	28	27	100	30
1593969886095823156	1	345	1881	1881	345	345	345	114750000	performance	1866	31	31	29	31	28	27	100	30
1593969886255149966 	0	345	1881	1879	345	345	345	114750000	performance	1866	31	31	29	31	28	27	100	30
1593969887955720251	1	345	1881	1881	345	345	345	114750000	performance	1866	31	31	29	31	28	27	100	30
1593969888115880249 	0	345	1882	1881	345	345	345	114750000	performance	1866	31	31	29	31	28	27	100	30
1593969889813658966	1	345	1881	1881	345	345	345	114750000	performance	1866	31	31	29	31	28	27	100	30
1593969889974822811 	0	345	1840	1881	345	345	345	114750000	performance	1866	31	31	29	31	28	27	100	30
1593969891673428636	1	345	1881	1881	345	345	345	114750000	performance	1866	31	31	29	31	28	27	100	30
1593969891831877937 	0	345	1881	1837	345	345	346	114750000	performance	1866	31	31	29	31	28	27	100	30
1593969893542924155	1	345	1881	1881	345	345	345	114750000	performance	1866	31	31	29	31	28	27	100	30
1593969893883056458 	0	345	1882	1841	345	345	345	114750000	performance	1866	31	31	29	31	28	27	100	30
1593969895808364395	1	345	1881	1881	345	345	345	114750000	performance	1866	31	31	29	31	28	27	100	30
1593969895996020841 	0	345	1880	1882	345	345	345	114750000	performance	1866	31	31	29	31	28	27	100	30
1593969897774244119	1	345	1881	1881	345	345	345	114750000	performance	1866	31	31	29	31	28	27	100	30
1593969897934913912 	0	345	1885	1879	345	345	345	114750000	performance	1866	31	31	29	31	28	27	100	30
1593969899633111224	1	345	1881	1881	345	345	345	114750000	performance	1866	31	31	29	31	28	27	100	30
1593969899826472534 	0	345	1837	1881	345	345	345	114750000	performance	1866	31	31	29	31	28	27	100	30
1593969901528123945	1	345	1881	1881	345	345	345	114750000	performance	1866	31	31	29	31	28	27	100	30
1593969901687511235 	0	345	1882	1844	345	345	345	114750000	performance	1866	31	31	29	31	28	27	100	30
