TimeStamp,Total Power,CPU Power,GPU Power
1592953598287641,2.972,0.533,0.152
1592953598789786,3.201,0.762,0.152
1592953599291060,3.696,1.143,0.152
1592953599794536,4.038,1.295,0.152
1592953600295802,4.304,1.295,0.152
1592953600798014,4.342,1.295,0.152
1592953601300163,4.304,1.295,0.152
1592953601802451,4.114,1.295,0.152
1592953602304098,3.961,1.295,0.152
1592953602805352,3.923,1.295,0.152
1592953603306603,3.923,1.295,0.152
1592953603807866,3.468,0.914,0.152
1592953604309119,3.01,0.533,0.152
