timestamp	VIRTUAL_SCALING	CPU0_F	CPU1_F	CPU2_F	CPU3_F	CPU4_F	CPU5_F	GPU_FREQ	CPU_GOVERNOR	EMC_F	TEMP0	TEMP1	TEMP2	TEMP3	TEMP4	TEMP5	TEMP6	TEMP7
1593927540967001826	1	345	1574	1574	345	345	345	114750000	performance	1866	28	28	26	28	24	23	100	27
1593927541117639785 	0	345	1569	1566	345	345	345	114750000	performance	1866	28	28	26	28	24	23	100	27
1593927542852217403	1	345	1574	1574	345	345	345	114750000	performance	1866	28	28	26	28	24	23	100	27
1593927543119646598 	0	345	1572	1570	345	345	345	114750000	performance	1866	28	28	26	28	24	23	100	27
1593927544930555345	1	345	1574	1574	345	345	345	114750000	performance	1866	28	28	26	28	24	23	100	27
1593927545140251918 	0	345	1568	1566	345	345	345	114750000	performance	1866	28	28	26	28	24	23	100	27
1593927546929169946	1	345	1574	1574	345	345	345	114750000	performance	1866	28	28	26	28	24	23	100	27
1593927547144674969 	0	345	1579	1579	345	345	345	114750000	performance	1866	28	28	26	28	24	23	100	27
1593927548869483698	1	345	1574	1574	345	345	345	114750000	performance	1866	28	28	26	28	24	23	100	27
1593927549068900308 	0	345	1565	1566	345	345	345	114750000	performance	1866	28	28	26	28	24	23	100	27
1593927550934452699	1	345	1574	1574	345	345	345	114750000	performance	1866	28	28	26	28	24	23	100	27
1593927551151622980 	0	345	1567	1565	345	345	345	114750000	performance	1866	28	28	26	28	24	23	100	27
1593927552945804942	1	345	1574	1574	345	345	345	114750000	performance	1866	28	28	26	28	24	24	100	27
1593927553134611250 	0	345	1566	1564	345	345	345	114750000	performance	1866	28	28	26	28	24	23	100	27
1593927554864292296	1	345	1574	1574	345	345	345	114750000	performance	1866	28	28	26	28	24	23	100	27
1593927555059441617 	0	346	1533	1572	345	347	345	114750000	performance	1866	28	28	26	28	24	23	100	27
1593927556833803208	1	345	1574	1574	345	345	345	114750000	performance	1866	28	28	26	28	24	23	100	27
1593927557038510249 	0	345	1569	1566	345	345	345	114750000	performance	1866	28	28	26	28	24	23	100	27
1593927558818318272	1	345	1574	1574	345	345	345	114750000	performance	1866	28	28	26	28	24	23	100	27
1593927558996131813 	0	345	1565	1568	345	345	345	114750000	performance	1866	28	28	26	28	24	23	100	27
1593927560768588689	1	345	1574	1574	345	345	345	114750000	performance	1866	28	28	26	28	24	23	100	27
1593927560996651993 	0	345	1567	1569	345	345	345	114750000	performance	1866	28	28	26	28	24	23	100	27
1593927562750840028	1	345	1574	1574	345	345	345	114750000	performance	1866	28	28	26	28	24	23	100	27
1593927562953355951 	0	345	1571	1571	345	345	345	114750000	performance	1866	28	28	26	28	24	23	100	27
1593927564784951954	1	345	1574	1574	345	345	345	114750000	performance	1866	28	28	26	28	24	23	100	27
1593927565032636651 	0	345	1569	1571	345	345	345	114750000	performance	1866	28	28	26	28	24	23	100	27
1593927566853476080	1	345	1574	1574	345	345	345	114750000	performance	1866	28	28	26	28	24	23	100	27
1593927567079391819 	0	345	1568	1565	345	345	345	114750000	performance	1866	28	28	26	28	24	23	100	27
1593927568838863788	1	345	1574	1574	345	345	345	114750000	performance	1866	28	28	26	28	24	23	100	27
1593927569042974857 	0	345	1564	1567	345	345	345	114750000	performance	1866	28	28	26	28	24	23	100	27
1593927570887075028	1	345	1574	1574	345	345	345	114750000	performance	1866	28	28	26	28	24	23	100	27
1593927571094319299 	0	345	1571	1580	345	345	345	114750000	performance	1866	28	28	26	28	24	23	100	27
1593927572805671567	1	345	1574	1574	345	345	345	114750000	performance	1866	28	28	26	28	24	23	100	27
1593927573007875936 	0	345	1579	1573	345	345	345	114750000	performance	1866	28	28	26	28	24	23	100	27
1593927574798451478	1	345	1574	1574	345	345	345	114750000	performance	1866	28	28	26	28	24	23	100	27
1593927574994255171 	0	345	1564	1569	345	345	345	114750000	performance	1866	28	28	26	28	24	23	100	27
1593927576762464535	1	345	1574	1574	345	345	345	114750000	performance	1866	28	28	26	28	24	23	100	27
1593927576956847803 	0	345	1574	1569	345	345	345	114750000	performance	1866	28	28	26	28	24	23	100	27
1593927578755639969	1	345	1574	1574	345	345	345	114750000	performance	1866	28	28	26	28	24	23	100	27
1593927578973845615 	0	345	1567	1568	345	345	345	114750000	performance	1866	28	28	26	28	24	23	100	27
1593927580745945530	1	345	1574	1574	345	345	345	114750000	performance	1866	28	28	26	28	24	23	100	27
1593927580983236918 	0	345	1542	1573	345	345	345	114750000	performance	1866	28	28	26	28	24	23	100	27
1593927582757795439	1	345	1574	1574	345	345	345	114750000	performance	1866	28	28	26	28	24	23	100	27
1593927582947936059 	0	345	1565	1566	345	345	345	114750000	performance	1866	28	28	26	28	24	23	100	27
1593927584705388401	1	345	1574	1574	345	345	345	114750000	performance	1866	28	28	26	28	24	23	100	27
1593927584922783995 	0	345	1569	1602	345	345	345	114750000	performance	1866	28	28	26	28	24	23	100	27
1593927586700036995	1	345	1574	1574	345	345	345	114750000	performance	1866	28	28	26	28	24	23	100	27
1593927586957767446 	0	345	1562	1568	345	345	346	114750000	performance	1866	28	28	26	28	24	23	100	27
1593927588733079860	1	345	1574	1574	345	345	345	114750000	performance	1866	28	28	26	28	24	23	100	27
1593927588939968288 	0	345	1570	1564	345	345	345	114750000	performance	1866	28	28	26	28	24	23	100	27
1593927590706762860	1	345	1574	1574	345	345	345	114750000	performance	1866	28	28	26	28	24	23	100	27
1593927590875795774 	0	345	1578	1579	345	345	345	114750000	performance	1866	28	28	26	28	24	23	100	27
1593927592622105780	1	345	1574	1574	345	345	345	114750000	performance	1866	28	28	26	28	24	23	100	27
1593927592828049819 	0	345	1581	1574	345	345	345	114750000	performance	1866	28	28	26	28	24	23	100	27
1593927594578284648	1	345	1574	1574	345	345	345	114750000	performance	1866	28	28	26	28	24	23	100	27
1593927594785610647 	0	345	1564	1567	345	345	345	114750000	performance	1866	28	28	26	28	24	23	100	27
1593927596636132551	1	345	1574	1574	345	345	345	114750000	performance	1866	28	28	26	28	24	23	100	27
1593927596965079606 	0	345	1568	1568	345	345	345	114750000	performance	1866	28	28	26	28	24	23	100	27
1593927598769409595	1	345	1574	1574	345	345	345	114750000	performance	1866	28	28	26	28	24	23	100	27
1593927599025324132 	0	345	1567	1573	345	345	345	114750000	performance	1866	28	28	26	28	24	23	100	27
1593927600794574654	1	345	1574	1574	345	345	345	114750000	performance	1866	28	28	26	28	24	23	100	27
1593927600970097557 	0	345	1573	1573	345	345	345	114750000	performance	1866	28	28	26	28	24	23	100	27
1593927602747506367	1	345	1574	1574	345	345	345	114750000	performance	1866	28	28	26	28	24	23	100	27
1593927602932392332 	0	345	1572	1583	345	345	345	114750000	performance	1866	28	28	26	28	24	23	100	27
1593927604738470908	1	345	1574	1574	345	345	345	114750000	performance	1866	28	28	26	28	24	23	100	27
1593927604922463588 	0	345	1542	1566	345	345	345	114750000	performance	1866	28	28	26	28	24	23	100	27
1593927606728772949	1	345	1574	1574	345	345	345	114750000	performance	1866	28	28	26	28	24	23	100	27
1593927606906128407 	0	345	1580	1563	345	345	345	114750000	performance	1866	28	28	26	28	24	23	100	27
1593927608671545147	1	345	1574	1574	345	345	345	114750000	performance	1866	28	28	26	28	24	23	100	27
1593927608898799997 	0	345	1580	1579	345	345	345	114750000	performance	1866	28	28	26	28	24	23	100	27
1593927610648262149	1	345	1574	1574	345	345	345	114750000	performance	1866	28	28	26	28	24	23	100	27
1593927610885443073 	0	345	1567	1568	345	345	345	114750000	performance	1866	28	28	26	28	24	23	100	27
1593927612677133853	1	345	1574	1574	345	345	345	114750000	performance	1866	28	28	26	28	24	23	100	27
1593927612873282380 	0	344	1567	1565	345	345	345	114750000	performance	1866	28	28	26	28	24	23	100	27
1593927614734156696	1	345	1574	1574	345	345	345	114750000	performance	1866	28	28	26	28	24	24	100	27
1593927615003497422 	0	345	1574	1573	345	345	345	114750000	performance	1866	28	28	26	28	24	23	100	27
1593927616843825188	1	345	1574	1574	345	345	345	114750000	performance	1866	28	28	26	28	24	23	100	27
1593927617059281890 	0	345	1574	1537	345	345	345	114750000	performance	1866	28	28	26	28	24	23	100	27
1593927618817161371	1	345	1574	1574	345	345	345	114750000	performance	1866	28	28	26	28	24	23	100	27
1593927619024814188 	0	345	1565	1582	345	345	345	114750000	performance	1866	28	28	26	28	24	23	100	27
1593927620820847041	1	345	1574	1574	345	345	345	114750000	performance	1866	28	28	26	28	24	23	100	27
1593927621088122731 	0	345	1567	1569	345	345	345	114750000	performance	1866	28	28	26	28	24	23	100	27
1593927622926092563	1	345	1574	1574	345	345	345	114750000	performance	1866	28	28	26	28	24	23	100	27
1593927623120665337 	0	345	1567	1562	345	345	345	114750000	performance	1866	28	28	26	28	24	23	100	27
1593927624933686064	1	345	1574	1574	345	345	345	114750000	performance	1866	28	28	26	28	24	23	100	27
1593927625106241430 	0	345	1567	1567	345	345	345	114750000	performance	1866	28	28	26	28	24	23	100	27
1593927626931529749	1	345	1574	1574	345	345	345	114750000	performance	1866	28	28	26	28	24	23	100	27
1593927627159752733 	0	345	1566	1573	345	345	345	114750000	performance	1866	28	28	26	28	24	23	100	27
1593927628952188861	1	345	1574	1574	345	345	345	114750000	performance	1866	28	28	26	28	24	23	100	27
1593927629146450625 	0	345	1566	1565	345	345	345	114750000	performance	1866	28	28	26	28	24	23	100	27
1593927630910048923	1	345	1574	1574	345	345	345	114750000	performance	1866	28	28	26	28	24	23	100	27
1593927631172514697 	0	345	1571	1574	345	345	345	114750000	performance	1866	28	28	26	28	24	23	100	27
1593927632949194222	1	345	1574	1574	345	345	345	114750000	performance	1866	28	28	26	28	24	23	100	27
1593927633137295726 	0	345	1575	1570	345	345	345	114750000	performance	1866	28	28	26	28	24	23	100	27
1593927634960749570	1	345	1574	1574	345	345	345	114750000	performance	1866	28	28	26	28	24	23	100	27
1593927635175133370 	0	345	1569	1570	345	345	345	114750000	performance	1866	28	28	26	28	24	23	100	27
1593927636995637725	1	345	1574	1574	345	345	345	114750000	performance	1866	28	28	26	28	24	23	100	27
1593927637221884698 	0	345	1538	1543	345	345	345	114750000	performance	1866	28	28	26	28	24	23	100	27
1593927638968173903	1	345	1574	1574	345	345	345	114750000	performance	1866	28	28	26	28	24	23	100	27
1593927639196346679 	0	345	1569	1566	345	345	345	114750000	performance	1866	28	28	26	28	24	23	100	27
1593927641026304881	1	345	1574	1574	345	345	345	114750000	performance	1866	28	28	26	28	24	23	100	27
1593927641236434832 	0	345	1563	1565	345	345	345	114750000	performance	1866	28	28	26	28	24	23	100	27
1593927643048655683	1	345	1574	1574	345	345	345	114750000	performance	1866	28	28	26	28	24	23	100	27
1593927643239024048 	0	345	1567	1565	345	345	345	114750000	performance	1866	28	28	26	28	24	23	100	27
1593927645017852706	1	345	1574	1574	345	345	345	114750000	performance	1866	28	28	26	28	24	23	100	27
1593927645248700569 	0	345	1568	1577	345	345	345	114750000	performance	1866	28	28	26	28	24	23	100	27
1593927646996601944	1	345	1574	1574	345	345	345	114750000	performance	1866	28	28	26	28	24	23	100	27
1593927647204913485 	0	345	1568	1573	345	345	345	114750000	performance	1866	28	28	26	28	24	23	100	27
1593927648986591023	1	345	1574	1574	345	345	345	114750000	performance	1866	28	28	26	28	24	23	100	27
1593927649170527927 	0	345	1546	1567	345	345	345	114750000	performance	1866	28	28	26	28	24	23	100	27
1593927650934586420	1	345	1574	1574	345	345	345	114750000	performance	1866	28	28	26	28	24	24	100	27
1593927651128752279 	0	345	1564	1566	345	345	345	114750000	performance	1866	28	28	26	28	24	23	100	27
1593927652956385955	1	345	1574	1574	345	345	345	114750000	performance	1866	28	28	26	28	24	23	100	27
1593927653204834208 	0	345	1566	1570	345	345	345	114750000	performance	1866	28	28	26	28	24	24	100	27
1593927655003737798	1	345	1574	1574	345	345	345	114750000	performance	1866	28	28	26	28	24	23	100	27
1593927655192007111 	0	345	1568	1568	345	345	345	114750000	performance	1866	28	28	26	28	24	23	100	27
1593927656977746945	1	345	1574	1574	345	345	345	114750000	performance	1866	28	28	26	28	24	23	100	27
1593927657182841027 	0	345	1578	1574	345	345	345	114750000	performance	1866	28	28	26	28	24	23	100	27
1593927658924778688	1	345	1574	1574	345	345	345	114750000	performance	1866	28	28	26	28	24	23	100	27
1593927659162458014 	0	345	1566	1570	345	345	345	114750000	performance	1866	28	28	26	28	24	23	100	27
1593927660959451577	1	345	1574	1574	345	345	345	114750000	performance	1866	28	28	26	28	24	23	100	27
1593927661153994079 	0	345	1572	1570	345	345	345	114750000	performance	1866	28	28	26	28	24	23	100	27
1593927662917715961	1	345	1574	1574	345	345	345	114750000	performance	1866	28	28	26	28	24	23	100	27
1593927663135654086 	0	345	1571	1575	345	345	345	114750000	performance	1866	28	28	26	28	24	23	100	27
1593927664910447168	1	345	1574	1574	345	345	345	114750000	performance	1866	28	28	26	28	24	23	100	27
1593927665130032278 	0	345	1569	1566	345	345	345	114750000	performance	1866	28	28	26	28	24	23	100	27
1593927666935698211	1	345	1574	1574	345	345	345	114750000	performance	1866	28	28	26	28	24	23	100	27
1593927667106440927 	0	345	1568	1572	345	345	345	114750000	performance	1866	28	28	26	28	24	23	100	27
1593927668865024347	1	345	1574	1574	345	345	345	114750000	performance	1866	28	28	26	28	24	23	100	27
1593927669100817679 	0	345	1569	1573	345	345	345	114750000	performance	1866	28	28	26	28	24	23	100	27
1593927670842224457	1	345	1574	1574	345	345	345	114750000	performance	1866	28	28	26	28	24	23	100	27
1593927671026598771 	0	345	1566	1569	345	345	345	114750000	performance	1866	28	28	26	28	24	23	100	27
1593927672795458411	1	345	1574	1574	345	345	345	114750000	performance	1866	28	28	26	28	24	23	100	27
1593927672982024450 	0	345	1572	1571	345	345	345	114750000	performance	1866	28	28	26	28	24	23	100	27
1593927674773289308	1	345	1574	1574	345	345	345	114750000	performance	1866	28	28	26	28	24	23	100	27
1593927675008293132 	0	345	1564	1566	345	345	345	114750000	performance	1866	28	28	26	28	24	23	100	27
1593927676764633211	1	345	1574	1574	345	345	345	114750000	performance	1866	28	28	26	28	24	23	100	27
1593927676985732858 	0	345	1570	1568	347	345	345	114750000	performance	1866	28	28	26	28	24	23	100	27
1593927678725510730	1	345	1574	1574	345	345	345	114750000	performance	1866	28	28	26	28	24	24	100	27
1593927678938185048 	0	345	1569	1568	345	345	345	114750000	performance	1866	28	28	26	28	24	23	100	27
1593927680733465705	1	345	1574	1574	345	345	345	114750000	performance	1866	28	28	26	28	24	23	100	27
1593927680969504670 	0	345	1568	1568	345	345	345	114750000	performance	1866	28	28	26	28	24	23	100	27
1593927682756594112	1	345	1574	1574	345	345	345	114750000	performance	1866	28	28	26	28	24	23	100	27
1593927682998398967 	0	345	1567	1565	345	345	345	114750000	performance	1866	28	28	26	28	24	23	100	27
1593927684762163601	1	345	1574	1574	345	345	345	114750000	performance	1866	28	28	26	28	24	24	100	27
1593927685047091330 	0	345	1573	1572	345	345	345	114750000	performance	1866	28	28	26	28	24	23	100	27
1593927686837489750	1	345	1574	1574	345	345	345	114750000	performance	1866	28	28	26	28	24	23	100	27
1593927687032330461 	0	345	1566	1563	345	345	345	114750000	performance	1866	28	28	26	28	24	23	100	27
1593927688815775562	1	345	1574	1574	345	345	345	114750000	performance	1866	28	28	26	28	24	23	100	27
1593927689039597464 	0	345	1575	1574	345	345	345	114750000	performance	1866	28	28	26	28	24	23	100	27
1593927690818364938	1	345	1574	1574	345	345	345	114750000	performance	1866	28	28	26	28	24	23	100	27
1593927691042493338 	0	345	1571	1579	345	345	345	114750000	performance	1866	28	28	26	28	24	23	100	27
1593927692826109320	1	345	1574	1574	345	345	345	114750000	performance	1866	28	28	26	28	24	23	100	27
1593927693037401166 	0	345	1567	1569	345	345	345	114750000	performance	1866	28	28	26	28	24	23	100	27
1593927694800696422	1	345	1574	1574	345	345	345	114750000	performance	1866	28	28	26	28	24	24	100	27
1593927695037647648 	0	345	1566	1565	345	345	345	114750000	performance	1866	28	28	26	28	24	23	100	27
1593927696763126270	1	345	1574	1574	345	345	345	114750000	performance	1866	28	28	26	28	24	23	100	27
1593927696971053936 	0	345	1545	1573	345	345	345	114750000	performance	1866	28	28	26	28	24	23	100	27
1593927698827975014	1	345	1574	1574	345	345	345	114750000	performance	1866	28	28	26	28	24	23	100	27
1593927699087866853 	0	345	1566	1570	345	345	345	114750000	performance	1866	28	28	26	28	24	23	100	27
1593927700865237871	1	345	1574	1574	345	345	345	114750000	performance	1866	28	28	26	28	24	23	100	27
1593927701144683327 	0	345	1571	1575	345	345	345	114750000	performance	1866	28	28	26	28	24	23	100	27
1593927702930254232	1	345	1574	1574	345	345	345	114750000	performance	1866	28	28	26	28	24	23	100	27
1593927703135954622 	0	345	1571	1570	345	345	345	114750000	performance	1866	28	28	26	28	24	23	100	27
1593927704938573177	1	345	1574	1574	345	345	345	114750000	performance	1866	28	28	26	28	24	23	100	27
1593927705207745262 	0	345	1574	1577	345	345	345	114750000	performance	1866	28	28	26	28	24	23	100	27
1593927707002997279	1	345	1574	1574	345	345	345	114750000	performance	1866	28	28	26	28	24	23	100	27
1593927707249375952 	0	345	1564	1565	345	345	345	114750000	performance	1866	28	28	26	28	24	23	100	27
1593927709047887316	1	345	1574	1574	345	345	345	114750000	performance	1866	28	28	26	28	24	23	100	27
1593927709264071574 	0	345	1568	1567	345	345	345	114750000	performance	1866	28	28	26	28	24	23	100	27
1593927711024932096	1	345	1574	1574	345	345	345	114750000	performance	1866	28	28	26	28	24	23	100	27
1593927711272191830 	0	345	1565	1569	345	345	345	114750000	performance	1866	28	28	26	28	24	23	100	27
1593927713107565423	1	345	1574	1574	345	345	345	114750000	performance	1866	28	28	26	28	24	23	100	27
1593927713305750153 	0	345	1575	1534	345	345	345	114750000	performance	1866	28	28	26	28	24	23	100	27
1593927715114383751	1	345	1574	1574	345	345	345	114750000	performance	1866	28	28	26	28	24	23	100	27
1593927715313239686 	0	345	1570	1583	345	345	345	114750000	performance	1866	28	28	26	28	24	23	100	27
1593927717094212452	1	345	1574	1574	345	345	345	114750000	performance	1866	28	28	26	28	24	23	100	27
1593927717322322859 	0	345	1581	1571	345	345	345	114750000	performance	1866	28	28	26	28	24	24	100	27
1593927719082795603	1	345	1574	1574	345	345	345	114750000	performance	1866	28	28	26	28	24	23	100	27
1593927719293895544 	0	345	1569	1569	345	345	345	114750000	performance	1866	28	28	26	28	24	23	100	27
1593927721086555546	1	345	1574	1574	345	345	345	114750000	performance	1866	28	28	26	28	24	23	100	27
1593927721298271459 	0	345	1573	1574	345	345	345	114750000	performance	1866	28	28	26	28	24	24	100	27
1593927723143065042	1	345	1574	1574	345	345	345	114750000	performance	1866	28	28	26	28	24	23	100	27
1593927723341329165 	0	345	1569	1569	345	345	345	114750000	performance	1866	28	28	26	28	24	24	100	27
1593927725131416448	1	345	1574	1574	345	345	345	114750000	performance	1866	28	28	26	28	24	23	100	27
1593927725353865542 	0	345	1570	1569	345	345	345	114750000	performance	1866	28	28	26	28	24	23	100	27
1593927727103640912	1	345	1574	1574	345	345	345	114750000	performance	1866	28	28	26	28	24	23	100	27
1593927727321943775 	0	345	1574	1577	345	345	345	114750000	performance	1866	28	28	26	28	24	23	100	27
1593927729136029853	1	345	1574	1574	345	345	345	114750000	performance	1866	28	28	26	28	24	23	100	27
1593927729353525575 	0	345	1565	1569	345	345	345	114750000	performance	1866	28	28	26	28	24	23	100	27
1593927731134167363	1	345	1574	1574	345	345	345	114750000	performance	1866	28	28	26	28	24	23	100	27
1593927731374935060 	0	345	1570	1575	345	345	345	114750000	performance	1866	28	28	26	28	24	23	100	27
1593927733189066930	1	345	1574	1574	345	345	345	114750000	performance	1866	28	28	26	28	24	23	100	27
1593927733446284353 	0	345	1580	1568	345	345	345	114750000	performance	1866	28	28	26	28	24	23	100	27
1593927735237575131	1	345	1574	1574	345	345	345	114750000	performance	1866	28	28	26	28	24	23	100	27
1593927735471493444 	0	345	1572	1583	345	345	345	114750000	performance	1866	28	28	26	28	24	23	100	27
1593927737231039623	1	345	1574	1574	345	345	345	114750000	performance	1866	28	28	26	28	24	23	100	27
1593927737451472802 	0	345	1564	1567	345	345	345	114750000	performance	1866	28	28	26	28	24	23	100	27
1593927739198148633	1	345	1574	1574	345	345	345	114750000	performance	1866	28	28	26	28	24	23	100	27
1593927739379757428 	0	345	1575	1572	345	345	345	114750000	performance	1866	28	28	26	28	24	23	100	27
1593927741194602998	1	345	1574	1574	345	345	345	114750000	performance	1866	28	28	26	28	24	23	100	27
1593927741404256947 	0	345	1570	1565	345	345	345	114750000	performance	1866	28	28	26	28	24	23	100	27
1593927743173284140	1	345	1574	1574	345	345	345	114750000	performance	1866	28	28	26	28	24	23	100	27
1593927743413175255 	0	345	1570	1576	345	345	345	114750000	performance	1866	28	28	26	28	24	23	100	27
1593927745225974670	1	345	1574	1574	345	345	345	114750000	performance	1866	28	28	26	28	24	23	100	27
1593927745462300453 	0	345	1566	1567	345	345	345	114750000	performance	1866	28	28	26	28	24	23	100	27
1593927747194502985	1	345	1574	1574	345	345	345	114750000	performance	1866	28	28	26	28	24	24	100	27
1593927747371580425 	0	345	1575	1581	345	345	345	114750000	performance	1866	28	28	26	28	24	23	100	27
1593927749108331015	1	345	1574	1574	345	345	345	114750000	performance	1866	28	28	26	28	24	23	100	27
1593927749319164779 	0	345	1570	1571	345	345	345	114750000	performance	1866	28	28	26	28	24	23	100	27
1593927751095474830	1	345	1574	1574	345	345	345	114750000	performance	1866	28	28	26	28	24	23	100	27
1593927751292947364 	0	345	1575	1573	345	345	345	114750000	performance	1866	28	28	26	28	24	23	100	27
1593927753076993044	1	345	1574	1574	345	345	345	114750000	performance	1866	28	28	26	28	24	23	100	27
1593927753276379670 	0	345	1572	1575	345	345	345	114750000	performance	1866	28	28	26	28	24	23	100	27
1593927755016220390	1	345	1574	1574	345	345	345	114750000	performance	1866	28	28	26	28	24	23	100	27
1593927755205415340 	0	345	1573	1573	345	345	345	114750000	performance	1866	28	28	26	28	24	23	100	27
1593927757011119898	1	345	1574	1574	345	345	345	114750000	performance	1866	28	28	26	28	24	23	100	27
1593927757201742792 	0	345	1572	1572	345	345	345	114750000	performance	1866	28	28	26	28	24	23	100	27
1593927758954325794	1	345	1574	1574	345	345	345	114750000	performance	1866	28	28	26	28	24	24	100	27
1593927759255973395 	0	345	1570	1578	345	345	345	114750000	performance	1866	28	28	26	28	24	23	100	27
1593927761038181144	1	345	1574	1574	345	345	345	114750000	performance	1866	28	28	26	28	24	23	100	27
1593927761296734256 	0	345	1567	1568	345	345	345	114750000	performance	1866	28	28	26	28	24	23	100	27
1593927763086625634	1	345	1574	1574	345	345	345	114750000	performance	1866	28	28	26	28	24	23	100	27
1593927763249382191 	0	345	1575	1575	345	345	345	114750000	performance	1866	28	28	26	28	24	23	100	27
1593927765058191502	1	345	1574	1574	345	345	345	114750000	performance	1866	28	28	26	28	24	23	100	27
1593927765260905283 	0	345	1584	1584	345	345	345	114750000	performance	1866	28	28	26	28	24	23	100	27
1593927767045541270	1	345	1574	1574	345	345	345	114750000	performance	1866	28	28	26	28	24	23	100	27
1593927767291664102 	0	345	1567	1568	345	345	345	114750000	performance	1866	28	28	26	28	24	23	100	27
1593927769029933869	1	345	1574	1574	345	345	345	114750000	performance	1866	28	28	26	28	24	23	100	27
1593927769230786679 	0	345	1576	1570	345	345	345	114750000	performance	1866	28	28	26	28	24	23	100	27
1593927771018603389	1	345	1574	1574	345	345	345	114750000	performance	1866	28	28	26	28	24	23	100	27
1593927771225514730 	0	345	1567	1564	345	345	345	114750000	performance	1866	28	28	26	28	24	24	100	27
1593927773015045113	1	345	1574	1574	345	345	345	114750000	performance	1866	28	28	26	28	24	23	100	27
1593927773226385792 	0	345	1568	1565	345	345	345	114750000	performance	1866	28	28	26	28	24	23	100	27
1593927774984651002	1	345	1574	1574	345	345	345	114750000	performance	1866	28	28	26	28	24	23	100	27
1593927775229212353 	0	345	1569	1579	345	345	345	114750000	performance	1866	28	28	26	28	24	23	100	27
1593927777006324905	1	345	1574	1574	345	345	345	114750000	performance	1866	28	28	26	28	24	23	100	27
1593927777227986667 	0	345	1565	1567	345	345	345	114750000	performance	1866	28	28	26	28	24	23	100	27
1593927779067978783	1	345	1574	1574	345	345	345	114750000	performance	1866	28	28	26	28	24	23	100	27
1593927779320633684 	0	345	1570	1570	345	345	345	114750000	performance	1866	28	28	26	28	24	23	100	27
1593927781100835918	1	345	1574	1574	345	345	345	114750000	performance	1866	28	28	26	28	24	23	100	27
1593927781315571784 	0	345	1568	1571	345	345	345	114750000	performance	1866	28	28	26	28	24	23	100	27
1593927783063697864	1	345	1574	1574	345	345	345	114750000	performance	1866	28	28	26	28	24	23	100	27
1593927783303906070 	0	345	1571	1569	345	345	345	114750000	performance	1866	28	28	26	28	24	23	100	27
1593927785103935682	1	345	1574	1574	345	345	345	114750000	performance	1866	28	28	26	28	24	23	100	27
1593927785360524526 	0	345	1566	1566	345	345	345	114750000	performance	1866	28	28	26	28	24	24	100	27
1593927787131970773	1	345	1574	1574	345	345	345	114750000	performance	1866	28	28	26	28	24	23	100	27
1593927787333504515 	0	345	1565	1581	345	345	345	114750000	performance	1866	28	28	26	28	24	23	100	27
1593927789106038960	1	345	1574	1574	345	345	345	114750000	performance	1866	28	28	26	28	24	23	100	27
1593927789345656667 	0	346	1578	1581	345	345	345	114750000	performance	1866	28	28	26	28	24	23	100	27
1593927791137920378	1	345	1574	1574	345	345	345	114750000	performance	1866	28	28	26	28	24	23	100	27
1593927791349993189 	0	345	1570	1565	345	345	345	114750000	performance	1866	28	28	26	28	24	23	100	27
1593927793122423633	1	345	1574	1574	345	345	345	114750000	performance	1866	28	28	26	28	24	24	100	27
1593927793351531935 	0	345	1580	1571	345	345	345	114750000	performance	1866	28	28	26	28	24	23	100	27
1593927795147814709	1	345	1574	1574	345	345	345	114750000	performance	1866	28	28	26	28	24	23	100	27
1593927795362520783 	0	345	1567	1569	345	345	345	114750000	performance	1866	28	28	26	28	24	23	100	27
1593927797091142975	1	345	1574	1574	345	345	345	114750000	performance	1866	28	28	26	28	24	23	100	27
1593927797296398370 	0	345	1534	1574	345	345	345	114750000	performance	1866	28	28	26	28	24	23	100	27
1593927799049753152	1	345	1574	1574	345	345	345	114750000	performance	1866	28	28	26	28	24	23	100	27
1593927799295744495 	0	345	1566	1565	345	345	345	114750000	performance	1866	28	28	26	28	24	23	100	27
1593927801079974592	1	345	1574	1574	345	345	345	114750000	performance	1866	28	28	26	28	24	23	100	27
1593927801270047244 	0	345	1573	1575	345	345	345	114750000	performance	1866	28	28	26	28	24	23	100	27
1593927803072526502	1	345	1574	1574	345	345	345	114750000	performance	1866	28	28	26	28	24	23	100	27
1593927803303059196 	0	345	1582	1568	345	345	345	114750000	performance	1866	28	28	26	28	24	23	100	27
1593927805060493778	1	345	1574	1574	345	345	345	114750000	performance	1866	28	28	26	28	24	23	100	27
1593927805267374015 	0	345	1579	1572	345	345	345	114750000	performance	1866	28	28	26	28	24	23	100	27
1593927807011016549	1	345	1574	1574	345	345	345	114750000	performance	1866	28	28	26	28	24	23	100	27
1593927807257084052 	0	345	1568	1570	345	345	345	114750000	performance	1866	28	28	26	28	24	23	100	27
1593927809040889283	1	345	1574	1574	345	345	345	114750000	performance	1866	28	28	26	28	24	23	100	27
1593927809286566896 	0	345	1566	1573	345	345	345	114750000	performance	1866	28	28	26	28	24	23	100	27
1593927811092212381	1	345	1574	1574	345	345	345	114750000	performance	1866	28	28	26	28	24	23	100	27
1593927811265661032 	0	345	1577	1570	345	345	345	114750000	performance	1866	28	28	26	28	24	23	100	27
1593927813024547046	1	345	1574	1574	345	345	345	114750000	performance	1866	28	28	26	28	24	23	100	27
1593927813309357334 	0	345	1564	1568	345	345	345	114750000	performance	1866	28	28	26	28	24	23	100	27
1593927815086635423	1	345	1574	1574	345	345	345	114750000	performance	1866	28	28	26	28	24	23	100	27
1593927815295796281 	0	345	1535	1573	345	345	345	114750000	performance	1866	28	28	26	28	24	23	100	27
1593927817118919403	1	345	1574	1574	345	345	345	114750000	performance	1866	28	28	26	28	24	23	100	27
1593927817315921982 	0	345	1572	1566	345	345	345	114750000	performance	1866	28	28	26	28	24	23	100	27
1593927819072185837	1	345	1574	1574	345	345	345	114750000	performance	1866	28	28	26	28	24	23	100	27
1593927819257915008 	0	345	1574	1534	345	345	345	114750000	performance	1866	28	28	26	28	24	24	100	27
1593927821063580141	1	345	1574	1574	345	345	345	114750000	performance	1866	28	28	26	28	24	24	100	27
1593927821293721792 	0	345	1572	1569	345	345	345	114750000	performance	1866	28	28	26	28	24	23	100	27
1593927823112367160	1	345	1574	1574	345	345	345	114750000	performance	1866	28	28	26	28	24	23	100	27
1593927823383765114 	0	346	1574	1536	345	345	345	114750000	performance	1866	28	28	26	28	24	23	100	27
1593927825220035768	1	345	1574	1574	345	345	345	114750000	performance	1866	28	28	26	28	24	23	100	27
1593927825448931908 	0	345	1566	1571	345	345	345	114750000	performance	1866	28	28	26	28	24	23	100	27
1593927827286105991	1	345	1574	1574	345	345	345	114750000	performance	1866	28	28	26	28	24	23	100	27
1593927827530672302 	0	345	1578	1571	345	345	345	114750000	performance	1866	28	28	26	28	24	23	100	27
1593927829354905798	1	345	1574	1574	345	345	345	114750000	performance	1866	28	28	26	28	24	23	100	27
1593927829587708041 	0	345	1571	1569	345	345	345	114750000	performance	1866	28	28	26	28	24	23	100	27
1593927831375528335	1	345	1574	1574	345	345	345	114750000	performance	1866	28	28	26	28	24	23	100	27
1593927831630498578 	0	345	1568	1567	345	345	345	114750000	performance	1866	28	28	26	28	24	23	100	27
1593927833442609764	1	345	1574	1574	345	345	345	114750000	performance	1866	28	28	26	28	24	23	100	27
1593927833761524441 	0	345	1570	1572	345	345	345	114750000	performance	1866	28	28	26	28	24	23	100	27
1593927835562115176	1	345	1574	1574	345	345	345	114750000	performance	1866	28	28	26	28	24	23	100	27
1593927835798279934 	0	345	1581	1583	345	345	345	114750000	performance	1866	28	28	26	28	24	23	100	27
1593927837586718632	1	345	1574	1574	345	345	345	114750000	performance	1866	28	28	26	28	24	23	100	27
1593927837796292644 	0	345	1572	1578	345	345	345	114750000	performance	1866	28	28	26	28	24	23	100	27
1593927839594560326	1	345	1574	1574	345	345	345	114750000	performance	1866	28	28	26	28	24	23	100	27
1593927839826176162 	0	345	1571	1572	345	345	345	114750000	performance	1866	28	28	26	28	24	23	100	27
1593927841664460364	1	345	1574	1574	345	345	345	114750000	performance	1866	28	28	26	28	24	23	100	27
1593927841884375684 	0	345	1569	1572	345	345	345	114750000	performance	1866	28	28	26	28	24	23	100	27
1593927843725156252	1	345	1574	1574	345	345	345	114750000	performance	1866	28	28	26	28	24	23	100	27
1593927844006055861 	0	346	1569	1575	345	345	345	114750000	performance	1866	28	28	26	28	24	23	100	27
1593927845826031925	1	345	1574	1574	345	345	345	114750000	performance	1866	28	28	26	28	24	23	100	27
1593927846021161469 	0	345	1575	1575	345	345	345	114750000	performance	1866	28	28	26	28	24	23	100	27
1593927847813154651	1	345	1574	1574	345	345	345	114750000	performance	1866	28	28	26	28	24	23	100	27
1593927848069363589 	0	345	1568	1568	345	345	345	114750000	performance	1866	28	28	26	28	24	23	100	27
1593927849879173418	1	345	1574	1574	345	345	345	114750000	performance	1866	28	28	26	28	24	23	100	27
1593927850105477799 	0	345	1569	1570	345	345	345	114750000	performance	1866	28	28	26	28	24	23	100	27
1593927851876188042	1	345	1574	1574	345	345	345	114750000	performance	1866	28	28	26	28	24	23	100	27
1593927852113374534 	0	345	1567	1565	345	345	345	114750000	performance	1866	28	28	26	28	24	23	100	27
1593927853881342617	1	345	1574	1574	345	345	345	114750000	performance	1866	28	28	26	28	24	23	100	27
1593927854082955431 	0	345	1575	1569	345	345	345	114750000	performance	1866	28	28	26	28	24	23	100	27
1593927855827173521	1	345	1574	1574	345	345	345	114750000	performance	1866	28	28	26	28	24	23	100	27
1593927856092754609 	0	345	1571	1564	345	345	345	114750000	performance	1866	28	28	26	28	24	23	100	27
1593927857921821829	1	345	1574	1574	345	345	345	114750000	performance	1866	28	28	26	28	24	23	100	27
1593927858150625521 	0	345	1570	1569	345	345	345	114750000	performance	1866	28	28	26	28	24	23	100	27
1593927859894584025	1	345	1574	1574	345	345	345	114750000	performance	1866	28	28	26	28	24	23	100	27
1593927860125690546 	0	345	1585	1571	345	345	345	114750000	performance	1866	28	28	25	28	24	24	100	27
1593927861929572276	1	345	1574	1574	345	345	345	114750000	performance	1866	28	28	26	28	24	24	100	27
1593927862173019381 	0	345	1565	1568	345	345	346	114750000	performance	1866	28	28	26	28	24	23	100	27
1593927863947526637	1	345	1574	1574	345	345	345	114750000	performance	1866	28	28	26	28	24	23	100	27
1593927864213685745 	0	345	1568	1570	345	345	345	114750000	performance	1866	28	28	26	28	24	23	100	27
1593927866016406413	1	345	1574	1574	345	345	345	114750000	performance	1866	28	28	26	28	24	23	100	27
1593927866295573724 	0	345	1570	1570	345	345	345	114750000	performance	1866	28	28	26	28	24	23	100	27
1593927868148366425	1	345	1574	1574	345	345	345	114750000	performance	1866	28	28	26	28	24	23	100	27
1593927868414511741 	0	345	1568	1576	345	345	345	114750000	performance	1866	28	28	26	28	24	23	100	27
1593927870231468171	1	345	1574	1574	345	345	345	114750000	performance	1866	28	28	26	28	24	23	100	27
1593927870454394677 	0	345	1570	1574	345	345	344	114750000	performance	1866	28	28	26	28	24	23	100	27
1593927872208902330	1	345	1574	1574	345	345	345	114750000	performance	1866	28	28	26	28	24	23	100	27
1593927872446522072 	0	345	1568	1561	345	345	345	114750000	performance	1866	28	28	26	28	24	23	100	27
1593927874245225245	1	345	1574	1574	345	345	345	114750000	performance	1866	28	28	26	28	24	23	100	27
1593927874466274876 	0	345	1534	1574	345	345	348	114750000	performance	1866	28	28	26	28	24	23	100	27
1593927876282972616	1	345	1574	1574	345	345	345	114750000	performance	1866	28	28	26	28	24	23	100	27
1593927876568571805 	0	345	1569	1573	345	345	345	114750000	performance	1866	28	28	26	28	24	23	100	27
1593927878404874203	1	345	1574	1574	345	345	345	114750000	performance	1866	28	28	26	28	24	23	100	27
1593927878602047247 	0	345	1573	1573	345	345	345	114750000	performance	1866	28	28	26	28	24	23	100	27
1593927880355350733	1	345	1574	1574	345	345	345	114750000	performance	1866	28	28	26	28	24	23	100	27
1593927880560566192 	0	345	1569	1579	345	345	345	114750000	performance	1866	28	28	26	28	24	23	100	27
1593927882349967583	1	345	1574	1574	345	345	345	114750000	performance	1866	28	28	26	28	24	23	100	27
1593927882565826080 	0	345	1568	1567	345	345	345	114750000	performance	1866	28	28	26	28	24	23	100	27
1593927884331399269	1	345	1574	1574	345	345	345	114750000	performance	1866	28	28	26	28	24	23	100	27
1593927884554886738 	0	345	1564	1567	345	345	345	114750000	performance	1866	28	28	26	28	24	23	100	27
1593927886315183064	1	345	1574	1574	345	345	345	114750000	performance	1866	28	28	26	28	24	23	100	27
1593927886556449100 	0	345	1574	1535	345	345	345	114750000	performance	1866	28	28	26	28	24	23	100	27
1593927888431669643	1	345	1574	1574	345	345	345	114750000	performance	1866	28	28	26	28	24	23	100	27
1593927888662462594 	0	345	1567	1573	345	345	345	114750000	performance	1866	28	28	26	28	24	23	100	27
1593927890442442075	1	345	1574	1574	345	345	345	114750000	performance	1866	28	28	26	28	24	23	100	27
1593927890655836269 	0	345	1571	1568	345	345	345	114750000	performance	1866	28	28	26	28	24	23	100	27
1593927892426642608	1	345	1574	1574	345	345	345	114750000	performance	1866	28	28	26	28	24	23	100	27
1593927892632536663 	0	345	1568	1565	345	345	345	114750000	performance	1866	28	28	26	28	24	23	100	27
1593927894398452286	1	345	1574	1574	345	345	345	114750000	performance	1866	28	28	26	28	24	23	100	27
1593927894620374690 	0	345	1568	1569	345	345	345	114750000	performance	1866	28	28	26	28	24	23	100	27
1593927896462923013	1	345	1574	1574	345	345	345	114750000	performance	1866	28	28	26	28	24	23	100	27
1593927896684142820 	0	345	1566	1566	345	345	345	114750000	performance	1866	28	28	26	28	24	23	100	27
1593927898467791250	1	345	1574	1574	345	345	345	114750000	performance	1866	28	28	26	28	24	23	100	27
1593927898726049736 	0	345	1566	1569	345	345	345	114750000	performance	1866	28	28	26	28	24	23	100	27
1593927900503465745	1	345	1574	1574	345	345	345	114750000	performance	1866	28	28	26	28	24	23	100	27
1593927900734600298 	0	345	1566	1568	345	345	345	114750000	performance	1866	28	28	26	28	24	23	100	27
1593927902502861279	1	345	1574	1574	345	345	345	114750000	performance	1866	28	28	26	28	24	23	100	27
1593927902713068351 	0	345	1568	1565	345	345	345	114750000	performance	1866	28	28	26	28	24	23	100	27
1593927904535542669	1	345	1574	1574	345	345	345	114750000	performance	1866	28	28	26	28	24	23	100	27
1593927904754193662 	0	345	1575	1569	345	345	345	114750000	performance	1866	28	28	26	28	24	23	100	27
