TimeStamp,Total Power,CPU Power,GPU Power
1593979877952577,1.677,0.533,0.152
1593979878454732,1.677,0.533,0.152
1593979878956691,1.486,0.457,0.152
1593979879458360,1.563,0.533,0.152
1593979879960283,1.639,0.533,0.152
1593979880462253,1.943,0.533,0.152
1593979880963948,1.981,0.457,0.152
1593979881465924,2.019,0.457,0.152
1593979881967911,1.905,0.533,0.152
1593979882469893,1.753,0.61,0.152
1593979882971997,1.715,0.61,0.152
1593979883474073,1.753,0.61,0.152
1593979883976078,1.677,0.61,0.152
1593979884478043,1.677,0.61,0.152
1593979884980048,1.715,0.61,0.152
1593979885482023,1.715,0.61,0.152
1593979885984015,1.792,0.61,0.152
1593979886486052,1.715,0.61,0.152
1593979886988061,1.715,0.61,0.152
1593979887490049,1.715,0.61,0.152
1593979887992083,1.677,0.61,0.152
1593979888494060,1.677,0.61,0.152
1593979888996059,1.677,0.61,0.152
1593979889498077,1.639,0.61,0.152
1593979890000126,1.677,0.61,0.152
1593979890502175,1.753,0.61,0.152
1593979891004249,1.677,0.61,0.152
1593979891506417,1.639,0.61,0.152
1593979892008980,1.677,0.61,0.152
1593979892510962,1.715,0.61,0.152
1593979893012996,1.677,0.61,0.152
1593979893514935,1.753,0.61,0.152
1593979894016963,1.677,0.61,0.152
1593979894519039,1.677,0.61,0.152
1593979895021248,1.677,0.61,0.152
1593979895523212,1.677,0.61,0.152
1593979896025381,1.791,0.61,0.152
1593979896527431,1.715,0.61,0.152
1593979897029417,1.715,0.61,0.152
1593979897531565,1.677,0.61,0.152
1593979898033554,1.715,0.61,0.152
1593979898535527,1.715,0.61,0.152
1593979899037646,1.677,0.61,0.152
1593979899539753,1.677,0.61,0.152
1593979900041748,1.677,0.61,0.152
1593979900543761,1.677,0.61,0.152
1593979901045737,1.676,0.61,0.152
1593979901547862,1.715,0.61,0.152
1593979902049890,1.677,0.61,0.152
1593979902552288,1.677,0.61,0.152
1593979903054305,1.715,0.61,0.152
1593979903556344,1.715,0.61,0.152
1593979904058384,1.677,0.61,0.152
1593979904565146,1.639,0.61,0.152
1593979905067157,1.677,0.61,0.152
1593979905569253,1.676,0.61,0.152
1593979906071578,1.676,0.61,0.152
1593979906573564,1.753,0.61,0.152
1593979907076640,1.677,0.61,0.152
1593979907578646,1.715,0.61,0.152
1593979908080732,1.677,0.61,0.152
1593979908582844,1.677,0.61,0.152
1593979909084917,1.676,0.61,0.152
1593979909586962,1.677,0.61,0.152
1593979910089133,1.677,0.61,0.152
1593979910591087,1.715,0.61,0.152
1593979911093308,1.715,0.61,0.152
1593979911595395,1.715,0.61,0.152
1593979912097401,1.715,0.61,0.152
1593979912599382,1.715,0.61,0.152
1593979913101359,1.715,0.61,0.152
1593979913603463,1.715,0.61,0.152
1593979914105575,1.715,0.61,0.152
1593979914607692,1.676,0.61,0.152
1593979915109751,1.753,0.61,0.152
1593979915611797,1.677,0.61,0.152
1593979916113807,1.677,0.61,0.152
1593979916615780,1.753,0.61,0.152
1593979917117755,1.677,0.61,0.152
1593979917619884,1.677,0.61,0.152
1593979918121971,1.677,0.61,0.152
1593979918623982,1.677,0.61,0.152
1593979919126130,1.677,0.61,0.152
1593979919628169,1.677,0.61,0.152
1593979920130141,1.677,0.61,0.152
1593979920632271,1.677,0.61,0.152
1593979921134261,1.676,0.61,0.152
1593979921636318,1.715,0.61,0.152
1593979922138278,1.639,0.61,0.152
1593979922640379,1.677,0.61,0.152
1593979923142372,1.677,0.61,0.152
1593979923644465,1.677,0.61,0.152
1593979924146445,1.715,0.61,0.152
1593979924648498,1.677,0.61,0.152
1593979925150503,1.677,0.61,0.152
1593979925652742,1.677,0.61,0.152
1593979926154744,1.715,0.61,0.152
1593979926657185,1.677,0.61,0.152
1593979927159296,1.677,0.61,0.152
1593979927661340,1.677,0.61,0.152
1593979928163409,1.639,0.61,0.152
1593979928665365,1.676,0.61,0.152
1593979929167475,1.715,0.61,0.152
1593979929669471,1.715,0.61,0.152
1593979930171473,1.792,0.686,0.152
1593979930674040,1.677,0.61,0.152
1593979931176103,1.715,0.61,0.152
1593979931678128,1.715,0.61,0.152
1593979932180363,1.677,0.61,0.152
1593979932689138,1.677,0.61,0.152
1593979933191108,1.677,0.61,0.152
1593979933693310,1.677,0.61,0.152
1593979934195534,1.677,0.61,0.152
1593979934697536,1.715,0.61,0.152
1593979935199551,1.677,0.61,0.152
1593979935701566,1.639,0.61,0.152
1593979936203822,1.677,0.61,0.152
1593979936705784,1.715,0.61,0.152
1593979937207782,1.715,0.61,0.152
1593979937712468,1.753,0.61,0.152
1593979938214428,1.677,0.61,0.152
1593979938716472,1.753,0.61,0.152
1593979939218556,1.715,0.61,0.152
1593979939720645,1.753,0.61,0.152
1593979940222580,1.677,0.61,0.152
1593979940724586,1.715,0.61,0.152
1593979941226847,1.677,0.61,0.152
1593979941728905,1.677,0.61,0.152
1593979942230853,1.791,0.61,0.152
1593979942732944,1.753,0.61,0.152
1593979943234980,1.943,0.61,0.152
1593979943737101,2.058,0.61,0.152
1593979944239253,2.134,0.61,0.152
1593979944741622,2.058,0.61,0.152
1593979945243786,1.791,0.61,0.152
1593979945745804,1.753,0.61,0.152
1593979946247891,1.677,0.61,0.152
1593979946749900,1.677,0.61,0.152
1593979947252048,1.715,0.61,0.152
1593979947754041,1.715,0.61,0.152
1593979948256048,1.677,0.61,0.152
1593979948759975,1.715,0.61,0.152
1593979949261987,1.715,0.61,0.152
1593979949764379,1.677,0.61,0.152
1593979950266374,1.715,0.61,0.152
1593979950768449,1.677,0.61,0.152
1593979951270431,1.677,0.61,0.152
1593979951772572,1.753,0.61,0.152
1593979952274743,1.715,0.61,0.152
1593979952776850,1.715,0.61,0.152
1593979953278863,1.677,0.61,0.152
1593979953780960,1.677,0.61,0.152
1593979954283000,1.753,0.61,0.152
1593979954785056,1.715,0.61,0.152
1593979955287056,1.677,0.61,0.152
1593979955789126,1.715,0.61,0.152
1593979956291058,1.753,0.61,0.152
1593979956793112,1.715,0.61,0.152
1593979957295095,1.753,0.61,0.152
1593979957797045,1.715,0.61,0.152
1593979958299153,1.715,0.61,0.152
1593979958801248,1.753,0.61,0.152
1593979959303245,1.677,0.61,0.152
1593979959805337,1.715,0.61,0.152
1593979960307403,1.677,0.61,0.152
1593979960809477,1.677,0.61,0.152
1593979961311504,1.753,0.61,0.152
1593979961813488,1.715,0.61,0.152
1593979962315638,1.677,0.61,0.152
1593979962817826,1.715,0.61,0.152
1593979963319968,1.715,0.61,0.152
1593979963821994,1.677,0.61,0.152
1593979964324026,1.715,0.61,0.152
1593979964831552,1.677,0.61,0.152
1593979965333655,1.715,0.61,0.152
1593979965837576,1.715,0.61,0.152
1593979966339552,1.677,0.61,0.152
1593979966841693,1.677,0.61,0.152
1593979967343903,1.639,0.61,0.152
1593979967845882,1.677,0.61,0.152
1593979968348042,1.753,0.61,0.152
1593979968850357,1.715,0.61,0.152
1593979969352422,1.753,0.61,0.152
1593979969854527,1.715,0.61,0.152
1593979970356784,1.715,0.61,0.152
1593979970858935,1.753,0.61,0.152
1593979971360940,1.677,0.61,0.152
1593979971862887,1.753,0.61,0.152
1593979972365774,1.677,0.61,0.152
1593979972868733,1.753,0.61,0.152
1593979973370718,1.715,0.61,0.152
1593979973872809,1.753,0.61,0.152
1593979974374830,1.677,0.61,0.152
1593979974877587,1.753,0.61,0.152
1593979975379649,1.677,0.61,0.152
1593979975881622,1.677,0.61,0.152
1593979976383640,1.677,0.61,0.152
1593979976885852,1.677,0.61,0.152
1593979977388023,1.715,0.61,0.152
1593979977890069,1.753,0.61,0.152
1593979978392063,1.677,0.61,0.152
1593979978894163,1.677,0.61,0.152
1593979979396253,1.753,0.61,0.152
1593979979898259,1.677,0.61,0.152
1593979980400222,1.753,0.686,0.152
1593979980902238,1.677,0.61,0.152
1593979981404635,1.715,0.61,0.152
1593979981906645,1.715,0.61,0.152
1593979982409037,1.677,0.61,0.152
1593979982911131,1.677,0.61,0.152
1593979983413260,1.639,0.61,0.152
1593979983915289,1.677,0.61,0.152
1593979984417405,1.753,0.61,0.152
1593979984919412,1.677,0.61,0.152
1593979985421534,1.715,0.61,0.152
1593979985923738,1.791,0.61,0.152
1593979986425848,1.753,0.61,0.152
1593979986927989,1.792,0.686,0.152
1593979987429995,1.677,0.61,0.152
1593979987932079,1.715,0.61,0.152
1593979988434068,1.753,0.61,0.152
1593979988936093,1.677,0.61,0.152
1593979989438077,1.715,0.61,0.152
1593979989940097,1.639,0.61,0.152
1593979990442119,1.677,0.61,0.152
1593979990944112,1.715,0.61,0.152
1593979991446228,1.677,0.61,0.152
1593979991948318,1.639,0.61,0.152
1593979992452596,1.677,0.61,0.152
1593979992954705,1.715,0.61,0.152
1593979993456821,1.753,0.61,0.152
1593979993958848,1.715,0.61,0.152
1593979994460966,1.715,0.61,0.152
1593979994962976,1.677,0.61,0.152
1593979995464938,1.792,0.686,0.152
1593979995967024,1.753,0.61,0.152
1593979996469128,1.715,0.61,0.152
1593979996971541,1.677,0.61,0.152
1593979997473713,1.753,0.61,0.152
1593979997981268,1.715,0.61,0.152
1593979998483453,1.677,0.61,0.152
1593979998985456,1.639,0.61,0.152
1593979999487480,1.677,0.61,0.152
1593979999989549,1.677,0.61,0.152
1593980000492835,1.676,0.61,0.152
1593980000994773,1.753,0.61,0.152
1593980001496743,1.791,0.686,0.152
1593980001998776,1.715,0.61,0.152
1593980002500919,1.753,0.61,0.152
1593980003002802,1.791,0.686,0.152
1593980003504880,1.715,0.61,0.152
1593980004006907,1.676,0.61,0.152
1593980004508981,1.677,0.61,0.152
1593980005013784,1.677,0.61,0.152
1593980005517472,1.677,0.61,0.152
1593980006019501,1.829,0.61,0.152
1593980006521547,2.058,0.61,0.152
1593980007023508,2.134,0.61,0.152
1593980007525480,2.21,0.61,0.152
1593980008027588,1.867,0.61,0.152
1593980008529599,1.715,0.61,0.152
1593980009033908,1.715,0.61,0.152
1593980009536005,1.715,0.61,0.152
1593980010037925,1.677,0.61,0.152
1593980010540035,1.753,0.61,0.152
1593980011042004,1.753,0.61,0.152
1593980011544045,1.715,0.61,0.152
1593980012046116,1.791,0.61,0.152
1593980012548228,1.676,0.61,0.152
1593980013050206,1.639,0.61,0.152
1593980013552296,1.677,0.61,0.152
1593980014054367,1.677,0.61,0.152
1593980014556509,1.715,0.61,0.152
1593980015058546,1.677,0.61,0.152
1593980015560651,1.639,0.61,0.152
1593980016062725,1.753,0.61,0.152
1593980016565129,1.715,0.61,0.152
1593980017066918,1.677,0.61,0.152
1593980017568725,1.753,0.61,0.152
1593980018070433,1.677,0.61,0.152
1593980018572155,1.753,0.61,0.152
1593980019073919,1.715,0.61,0.152
1593980019575704,1.715,0.61,0.152
1593980020077445,1.677,0.61,0.152
1593980020579159,1.677,0.61,0.152
1593980021081100,1.753,0.61,0.152
1593980021582817,1.715,0.61,0.152
1593980022085060,1.715,0.61,0.152
1593980022586699,1.677,0.61,0.152
1593980023088423,1.677,0.61,0.152
1593980023590099,1.753,0.61,0.152
1593980024091875,1.715,0.61,0.152
1593980024593558,1.791,0.61,0.152
1593980025095287,1.715,0.61,0.152
1593980025597168,1.791,0.61,0.152
1593980026098937,1.753,0.61,0.152
1593980026600647,1.677,0.61,0.152
1593980027102250,1.677,0.61,0.152
1593980027603907,1.677,0.61,0.152
1593980028105558,1.677,0.61,0.152
1593980028607363,1.677,0.61,0.152
1593980029109018,1.677,0.61,0.152
1593980029610607,1.676,0.61,0.152
1593980030112292,1.639,0.61,0.152
1593980030613970,1.753,0.61,0.152
1593980031115730,1.715,0.61,0.152
1593980031620001,1.677,0.61,0.152
1593980032121709,1.677,0.61,0.152
1593980032623484,1.715,0.61,0.152
1593980033125167,1.677,0.61,0.152
1593980033626866,1.677,0.61,0.152
1593980034128579,1.715,0.61,0.152
1593980034630296,1.677,0.61,0.152
1593980035132230,1.715,0.61,0.152
1593980035633974,1.715,0.61,0.152
1593980036135750,1.715,0.61,0.152
1593980036640116,1.753,0.61,0.152
1593980037141788,1.677,0.61,0.152
1593980037643538,1.715,0.61,0.152
1593980038145257,1.715,0.61,0.152
1593980038647025,1.715,0.61,0.152
1593980039148818,1.677,0.61,0.152
1593980039650401,1.677,0.61,0.152
1593980040152323,1.676,0.61,0.152
1593980040654009,1.753,0.61,0.152
1593980041155726,1.715,0.61,0.152
1593980041660064,1.715,0.61,0.152
1593980042161753,1.677,0.61,0.152
1593980042664616,1.677,0.61,0.152
1593980043170312,1.715,0.61,0.152
1593980043672093,1.677,0.61,0.152
1593980044173799,1.677,0.61,0.152
1593980044675597,1.676,0.61,0.152
1593980045177308,1.676,0.61,0.152
1593980045678995,1.715,0.61,0.152
1593980046180739,1.677,0.61,0.152
1593980046685134,1.715,0.61,0.152
1593980047186832,1.753,0.61,0.152
1593980047688586,1.715,0.61,0.152
1593980048190263,1.639,0.61,0.152
1593980048691917,1.677,0.61,0.152
1593980049193535,1.677,0.61,0.152
1593980049695140,1.677,0.61,0.152
1593980050196894,1.715,0.61,0.152
1593980050698564,1.715,0.61,0.152
1593980051200249,1.677,0.61,0.152
1593980051704765,1.639,0.61,0.152
1593980052206375,1.753,0.61,0.152
1593980052712779,1.715,0.61,0.152
1593980053214540,1.753,0.61,0.152
1593980053716328,1.677,0.61,0.152
1593980054218041,1.753,0.61,0.152
1593980054719836,1.715,0.61,0.152
1593980055221561,1.753,0.61,0.152
1593980055723208,1.677,0.61,0.152
1593980056225030,1.715,0.61,0.152
1593980056731941,1.715,0.61,0.152
1593980057233688,1.715,0.61,0.152
1593980057735408,1.753,0.686,0.152
1593980058237126,1.677,0.61,0.152
1593980058739019,1.715,0.61,0.152
1593980059240890,1.715,0.61,0.152
1593980059742710,1.753,0.61,0.152
1593980060244457,1.677,0.61,0.152
1593980060746171,1.715,0.61,0.152
1593980061247981,1.715,0.61,0.152
1593980061752685,1.753,0.61,0.152
1593980062254369,1.715,0.61,0.152
1593980062756001,1.677,0.61,0.152
1593980063257621,1.715,0.61,0.152
1593980063759407,1.715,0.61,0.152
1593980064261101,1.677,0.61,0.152
1593980064762791,1.677,0.61,0.152
1593980065264441,1.715,0.61,0.152
1593980065766046,1.676,0.61,0.152
1593980066267885,1.715,0.61,0.152
1593980066772716,1.715,0.61,0.152
1593980067274409,1.677,0.61,0.152
1593980067776103,1.715,0.61,0.152
1593980068277802,1.677,0.61,0.152
1593980068779722,1.677,0.533,0.152
1593980069281464,1.905,0.61,0.152
1593980069783136,2.058,0.61,0.152
1593980070284718,2.096,0.61,0.152
1593980070788937,2.019,0.61,0.152
1593980071290618,1.791,0.61,0.152
1593980071795203,1.753,0.61,0.152
1593980072296947,1.677,0.61,0.152
1593980072798645,1.753,0.61,0.152
1593980073300441,1.715,0.61,0.152
1593980073802180,1.753,0.61,0.152
1593980074304038,1.677,0.61,0.152
1593980074805745,1.753,0.61,0.152
1593980075307504,1.715,0.61,0.152
1593980075809219,1.753,0.61,0.152
1593980076310918,1.715,0.61,0.152
1593980076815567,1.676,0.61,0.152
1593980077317226,1.715,0.61,0.152
1593980077818926,1.677,0.61,0.152
1593980078320837,1.753,0.61,0.152
1593980078822526,1.715,0.61,0.152
1593980079324301,1.715,0.61,0.152
1593980079825947,1.677,0.61,0.152
1593980080327788,1.677,0.61,0.152
1593980080829541,1.715,0.61,0.152
1593980081331158,1.677,0.61,0.152
1593980081835613,1.677,0.61,0.152
1593980082337291,1.715,0.61,0.152
1593980082839038,1.753,0.61,0.152
1593980083340740,1.677,0.61,0.152
1593980083842397,1.715,0.61,0.152
1593980084344050,1.677,0.61,0.152
1593980084845787,1.677,0.61,0.152
1593980085347621,1.791,0.61,0.152
1593980085849331,1.715,0.61,0.152
1593980086351005,1.677,0.61,0.152
1593980086855672,1.715,0.61,0.152
1593980087357355,1.677,0.61,0.152
1593980087859138,1.677,0.61,0.152
1593980088361174,1.753,0.61,0.152
1593980088862852,1.677,0.61,0.152
1593980089364670,1.677,0.61,0.152
1593980089866442,1.715,0.61,0.152
1593980090368125,1.715,0.61,0.152
1593980090869935,1.677,0.61,0.152
1593980091371713,1.715,0.61,0.152
1593980091876012,1.715,0.61,0.152
1593980092377736,1.753,0.61,0.152
1593980092879444,1.753,0.61,0.152
1593980093381148,1.753,0.686,0.152
1593980093882856,1.715,0.61,0.152
1593980094384598,1.715,0.61,0.152
1593980094886377,1.753,0.686,0.152
1593980095388155,1.791,0.686,0.152
1593980095889847,1.715,0.61,0.152
1593980096391585,1.715,0.61,0.152
1593980096896048,1.715,0.61,0.152
1593980097397806,1.715,0.61,0.152
1593980097903817,1.791,0.686,0.152
1593980098405532,1.791,0.686,0.152
1593980098907223,1.753,0.61,0.152
1593980099409290,1.715,0.61,0.152
1593980099911057,1.829,0.686,0.152
1593980100412742,1.753,0.686,0.152
1593980100914332,1.677,0.61,0.152
1593980101415958,1.715,0.61,0.152
1593980101920403,1.715,0.61,0.152
1593980102422130,1.753,0.61,0.152
1593980102923822,1.715,0.61,0.152
1593980103425453,1.677,0.61,0.152
1593980103927039,1.639,0.61,0.152
1593980104428998,1.753,0.61,0.152
1593980104930742,1.753,0.61,0.152
1593980105432526,1.791,0.686,0.152
1593980105934192,1.715,0.61,0.152
1593980106436257,1.753,0.61,0.152
1593980106941942,1.715,0.61,0.152
1593980107443614,1.753,0.686,0.152
1593980107945279,1.753,0.61,0.152
1593980108447061,1.791,0.686,0.152
1593980108948830,1.867,0.762,0.152
1593980109450603,1.905,0.762,0.152
1593980109952409,1.905,0.762,0.152
1593980110454127,1.905,0.762,0.152
1593980110955834,1.753,0.686,0.152
1593980111457511,1.715,0.61,0.152
1593980111962466,1.753,0.61,0.152
1593980112464240,1.715,0.61,0.152
1593980112965931,1.753,0.686,0.152
1593980113467660,1.677,0.61,0.152
1593980113969353,1.715,0.61,0.152
1593980114471257,1.715,0.61,0.152
1593980114973165,1.753,0.61,0.152
1593980115474845,1.677,0.61,0.152
1593980115976538,1.676,0.61,0.152
1593980116478290,1.715,0.61,0.152
1593980116982932,1.715,0.61,0.152
1593980117484700,1.753,0.686,0.152
1593980117986389,1.677,0.61,0.152
1593980118488147,1.753,0.61,0.152
1593980118989963,1.715,0.61,0.152
1593980119491832,1.677,0.61,0.152
1593980119993569,1.753,0.686,0.152
1593980120495230,1.677,0.61,0.152
1593980120996890,1.677,0.61,0.152
1593980121498608,1.753,0.61,0.152
1593980122003486,1.791,0.686,0.152
1593980122505269,1.715,0.61,0.152
1593980123006946,1.715,0.61,0.152
1593980123508631,1.715,0.61,0.152
1593980124010522,1.715,0.61,0.152
1593980124512346,1.715,0.61,0.152
1593980125014046,1.715,0.61,0.152
1593980125515783,1.753,0.61,0.152
1593980126017514,1.715,0.61,0.152
1593980126519188,1.753,0.61,0.152
1593980127024019,1.715,0.61,0.152
1593980127525781,1.677,0.61,0.152
1593980128027451,1.676,0.61,0.152
1593980128529120,1.677,0.61,0.152
1593980129030951,1.715,0.61,0.152
1593980129532616,1.715,0.61,0.152
1593980130034280,1.677,0.61,0.152
1593980130535881,1.715,0.61,0.152
1593980131037584,1.715,0.61,0.152
1593980131539366,1.715,0.61,0.152
1593980132044055,1.753,0.61,0.152
1593980132545688,1.981,0.61,0.152
1593980133047661,2.21,0.61,0.152
1593980133549372,2.134,0.61,0.152
1593980134051129,1.905,0.61,0.152
1593980134552871,1.753,0.61,0.152
1593980135054671,1.715,0.61,0.152
1593980135556405,1.753,0.61,0.152
1593980136058144,1.677,0.61,0.152
1593980136559915,1.677,0.61,0.152
1593980137064261,1.715,0.61,0.152
1593980137565954,1.677,0.61,0.152
1593980138067873,1.715,0.61,0.152
1593980138572857,1.715,0.61,0.152
1593980139074519,1.677,0.61,0.152
1593980139576329,1.715,0.61,0.152
1593980140080960,1.715,0.61,0.152
1593980140582713,1.753,0.61,0.152
1593980141084479,1.715,0.61,0.152
1593980141586171,1.753,0.61,0.152
1593980142090620,1.791,0.61,0.152
1593980142592458,1.715,0.61,0.152
1593980143094208,1.791,0.686,0.152
1593980143595953,1.715,0.61,0.152
1593980144097687,1.715,0.61,0.152
1593980144599505,1.753,0.61,0.152
1593980145101232,1.715,0.61,0.152
1593980145602918,1.715,0.61,0.152
1593980146104502,1.677,0.61,0.152
1593980146606122,1.677,0.61,0.152
1593980147110501,1.677,0.61,0.152
1593980147612491,1.753,0.61,0.152
1593980148114205,1.715,0.61,0.152
1593980148615844,1.677,0.61,0.152
1593980149117456,1.715,0.61,0.152
1593980149619163,1.715,0.61,0.152
1593980150120915,1.715,0.61,0.152
1593980150622618,1.715,0.61,0.152
1593980151124399,1.677,0.61,0.152
1593980151626105,1.676,0.61,0.152
1593980152130797,1.753,0.61,0.152
1593980152632530,1.677,0.61,0.152
1593980153134224,1.715,0.61,0.152
1593980153635917,1.677,0.61,0.152
1593980154137667,1.792,0.61,0.152
1593980154639399,1.715,0.61,0.152
1593980155141204,1.753,0.61,0.152
1593980155642904,1.791,0.686,0.152
1593980156144697,1.715,0.61,0.152
1593980156646396,1.753,0.61,0.152
1593980157150954,1.753,0.61,0.152
1593980157652805,1.715,0.61,0.152
1593980158154462,1.677,0.61,0.152
1593980158656184,1.677,0.61,0.152
1593980159157860,1.677,0.61,0.152
1593980159659631,1.753,0.61,0.152
1593980160161337,1.677,0.61,0.152
1593980160663042,1.677,0.61,0.152
1593980161164876,1.677,0.61,0.152
1593980161666591,1.677,0.61,0.152
1593980162171035,1.753,0.61,0.152
1593980162672955,1.753,0.61,0.152
1593980163174653,1.715,0.61,0.152
1593980163676567,1.791,0.61,0.152
1593980164178307,1.753,0.61,0.152
1593980164680041,1.677,0.61,0.152
1593980165181639,1.677,0.61,0.152
1593980165683211,1.677,0.61,0.152
1593980166184890,1.677,0.61,0.152
1593980166686593,1.753,0.61,0.152
1593980167191127,1.677,0.61,0.152
1593980167692946,1.753,0.686,0.152
1593980168194753,1.791,0.686,0.152
1593980168696656,1.715,0.61,0.152
1593980169198394,1.792,0.686,0.152
1593980169700225,1.791,0.686,0.152
1593980170201956,1.715,0.61,0.152
1593980170703909,1.753,0.61,0.152
1593980171205627,1.753,0.61,0.152
1593980171707388,1.715,0.61,0.152
1593980172212277,1.753,0.61,0.152
1593980172714006,1.715,0.61,0.152
1593980173215729,1.791,0.686,0.152
1593980173717457,1.715,0.61,0.152
1593980174222459,1.753,0.61,0.152
1593980174724341,1.715,0.61,0.152
1593980175226098,1.715,0.61,0.152
1593980175727894,1.791,0.61,0.152
1593980176229618,1.715,0.61,0.152
1593980176735448,1.753,0.686,0.152
1593980177239990,1.715,0.61,0.152
1593980177741710,1.753,0.61,0.152
1593980178243377,1.677,0.61,0.152
1593980178745044,1.715,0.61,0.152
1593980179247105,1.677,0.61,0.152
1593980179748868,1.677,0.61,0.152
1593980180250555,1.677,0.61,0.152
1593980180752294,1.753,0.61,0.152
1593980181254014,1.677,0.61,0.152
1593980181755766,1.715,0.61,0.152
1593980182260137,1.677,0.61,0.152
1593980182761885,1.676,0.61,0.152
1593980183263804,1.753,0.61,0.152
1593980183765488,1.677,0.61,0.152
1593980184267290,1.715,0.61,0.152
1593980184769029,1.715,0.61,0.152
1593980185270716,1.715,0.61,0.152
1593980185772436,1.677,0.61,0.152
1593980186274136,1.677,0.61,0.152
1593980186779751,1.677,0.61,0.152
1593980187284334,1.715,0.61,0.152
1593980187786004,1.753,0.61,0.152
1593980188287750,1.715,0.61,0.152
1593980188789475,1.791,0.686,0.152
1593980189291195,1.715,0.61,0.152
1593980189793126,1.753,0.61,0.152
1593980190294829,1.715,0.61,0.152
1593980190796585,1.753,0.61,0.152
1593980191298304,1.715,0.61,0.152
1593980191800375,1.792,0.61,0.152
1593980192302084,1.715,0.61,0.152
1593980192803829,1.715,0.61,0.152
1593980193305439,1.677,0.61,0.152
1593980193807056,1.677,0.61,0.152
1593980194308851,1.677,0.61,0.152
1593980194810575,1.715,0.61,0.152
1593980195312279,1.905,0.61,0.152
1593980195813984,2.096,0.61,0.152
1593980196315818,2.134,0.61,0.152
1593980196819055,1.981,0.61,0.152
1593980197323958,1.753,0.61,0.152
1593980197825687,1.715,0.61,0.152
1593980198327407,1.639,0.61,0.152
1593980198829008,1.639,0.61,0.152
1593980199330668,1.677,0.61,0.152
1593980199832425,1.715,0.61,0.152
1593980200334145,1.677,0.61,0.152
1593980200835903,1.715,0.61,0.152
1593980201337616,1.677,0.61,0.152
1593980201839379,1.753,0.61,0.152
1593980202343851,1.677,0.61,0.152
1593980202845870,1.639,0.61,0.152
1593980203347548,1.715,0.61,0.152
1593980203849280,1.715,0.61,0.152
1593980204350989,1.677,0.61,0.152
1593980204852793,1.677,0.61,0.152
1593980205354528,1.677,0.61,0.152
1593980205856437,1.715,0.61,0.152
1593980206358256,1.791,0.61,0.152
1593980206860047,1.715,0.61,0.152
1593980207364622,1.753,0.61,0.152
1593980207866321,1.677,0.61,0.152
1593980208368237,1.753,0.61,0.152
1593980208870014,1.715,0.61,0.152
1593980209371868,1.715,0.61,0.152
1593980209873582,1.715,0.61,0.152
1593980210375271,1.676,0.61,0.152
1593980210877109,1.753,0.61,0.152
1593980211378793,1.715,0.61,0.152
1593980211880835,1.677,0.61,0.152
1593980212382488,1.677,0.61,0.152
1593980212884154,1.677,0.61,0.152
1593980213385899,1.677,0.61,0.152
1593980213887633,1.715,0.61,0.152
1593980214389268,1.677,0.61,0.152
1593980214890800,1.639,0.61,0.152
1593980215392576,1.677,0.61,0.152
1593980215894454,1.753,0.61,0.152
1593980216396224,1.715,0.61,0.152
1593980216897928,1.677,0.61,0.152
1593980217404925,1.677,0.61,0.152
1593980217906658,1.677,0.61,0.152
1593980218408376,1.791,0.686,0.152
1593980218910139,1.715,0.61,0.152
1593980219411871,1.715,0.61,0.152
1593980219913683,1.676,0.61,0.152
1593980220415499,1.715,0.61,0.152
1593980220917238,1.753,0.686,0.152
1593980221419025,1.715,0.61,0.152
1593980221920880,1.753,0.61,0.152
1593980222426444,1.791,0.686,0.152
1593980222928271,1.791,0.686,0.152
1593980223429977,1.715,0.61,0.152
1593980223935400,1.791,0.686,0.152
1593980224437128,1.715,0.61,0.152
1593980224938854,1.715,0.61,0.152
1593980225440724,1.677,0.61,0.152
1593980225942453,1.753,0.61,0.152
1593980226444230,1.715,0.61,0.152
1593980226946149,1.715,0.61,0.152
1593980227451136,1.715,0.61,0.152
1593980227952887,1.753,0.61,0.152
1593980228454523,1.677,0.61,0.152
1593980228956243,1.676,0.61,0.152
1593980229458016,1.753,0.61,0.152
1593980229959760,1.677,0.61,0.152
1593980230461433,1.677,0.61,0.152
1593980230963151,1.639,0.61,0.152
1593980231465086,1.753,0.61,0.152
1593980231966906,1.715,0.61,0.152
1593980232471199,1.715,0.61,0.152
1593980232972909,1.677,0.61,0.152
1593980233474445,1.639,0.61,0.152
1593980233976115,1.677,0.61,0.152
1593980234477912,1.753,0.61,0.152
1593980234979674,1.753,0.61,0.152
1593980235481470,1.715,0.61,0.152
1593980235983258,1.791,0.686,0.152
1593980236485199,1.829,0.686,0.152
1593980236986992,1.715,0.61,0.152
1593980237491551,1.715,0.61,0.152
1593980237993274,1.715,0.61,0.152
1593980238495091,1.715,0.61,0.152
1593980238996944,1.791,0.686,0.152
1593980239498675,1.715,0.61,0.152
1593980240000548,1.753,0.61,0.152
1593980240502273,1.715,0.61,0.152
1593980241003990,1.715,0.61,0.152
1593980241505755,1.753,0.686,0.152
1593980242007513,1.715,0.61,0.152
1593980242511885,1.715,0.61,0.152
1593980243013677,1.677,0.61,0.152
1593980243515437,1.792,0.61,0.152
1593980244017161,1.715,0.61,0.152
1593980244518967,1.753,0.686,0.152
1593980245020741,1.677,0.61,0.152
1593980245522520,1.753,0.61,0.152
1593980246024361,1.715,0.61,0.152
1593980246526099,1.753,0.61,0.152
1593980247027797,1.677,0.61,0.152
1593980247532173,1.677,0.61,0.152
1593980248033984,1.715,0.61,0.152
1593980248535700,1.715,0.61,0.152
1593980249037492,1.791,0.686,0.152
1593980249539291,1.677,0.61,0.152
1593980250041178,1.677,0.61,0.152
1593980250542896,1.753,0.61,0.152
1593980251044585,1.677,0.61,0.152
1593980251546274,1.677,0.61,0.152
1593980252048084,1.715,0.61,0.152
1593980252552765,1.791,0.61,0.152
1593980253054512,1.715,0.61,0.152
1593980253556229,1.715,0.61,0.152
1593980254058004,1.677,0.61,0.152
1593980254559937,1.791,0.61,0.152
1593980255061675,1.715,0.61,0.152
1593980255563416,1.753,0.61,0.152
1593980256065131,1.715,0.61,0.152
1593980256566854,1.753,0.61,0.152
1593980257068793,1.715,0.61,0.152
1593980257570549,1.792,0.686,0.152
1593980258072423,1.905,0.686,0.152
1593980258574222,2.058,0.61,0.152
1593980259076006,2.172,0.686,0.152
1593980259577700,2.096,0.61,0.152
1593980260079455,1.905,0.61,0.152
1593980260581135,1.715,0.61,0.152
1593980261082797,1.677,0.61,0.152
1593980261584891,1.753,0.61,0.152
1593980262086645,1.715,0.61,0.152
1593980262591442,1.715,0.61,0.152
1593980263093163,1.715,0.61,0.152
1593980263594865,1.676,0.61,0.152
1593980264096651,1.715,0.61,0.152
1593980264598377,1.677,0.61,0.152
1593980265100208,1.753,0.61,0.152
1593980265601973,1.715,0.61,0.152
1593980266105816,1.715,0.61,0.152
1593980266607654,1.677,0.61,0.152
1593980267109377,1.753,0.61,0.152
1593980267613666,1.791,0.61,0.152
1593980268115478,1.715,0.61,0.152
1593980268617284,1.753,0.61,0.152
1593980269119057,1.715,0.61,0.152
1593980269620832,1.677,0.61,0.152
1593980270122518,1.715,0.61,0.152
1593980270624198,1.677,0.61,0.152
1593980271125819,1.639,0.61,0.152
1593980271627667,1.715,0.61,0.152
1593980272129363,1.715,0.61,0.152
1593980272631103,1.677,0.61,0.152
1593980273132750,1.639,0.61,0.152
1593980273634410,1.676,0.61,0.152
1593980274136166,1.715,0.61,0.152
1593980274637926,1.677,0.61,0.152
1593980275143788,1.677,0.61,0.152
1593980275645576,1.715,0.61,0.152
1593980276147280,1.677,0.61,0.152
1593980276649028,1.715,0.61,0.152
1593980277150802,1.715,0.61,0.152
1593980277652618,1.677,0.61,0.152
1593980278154254,1.677,0.61,0.152
1593980278655846,1.639,0.61,0.152
1593980279157565,1.677,0.61,0.152
1593980279659482,1.753,0.61,0.152
1593980280161218,1.677,0.61,0.152
1593980280662960,1.753,0.61,0.152
1593980281164904,1.715,0.61,0.152
1593980281666666,1.715,0.61,0.152
1593980282168371,1.715,0.61,0.152
1593980282675228,1.715,0.61,0.152
1593980283177287,1.715,0.61,0.152
1593980283679291,1.715,0.61,0.152
1593980284181376,1.677,0.61,0.152
1593980284683273,1.791,0.61,0.152
1593980285185436,1.715,0.61,0.152
1593980285687535,1.677,0.61,0.152
1593980286189506,1.715,0.61,0.152
1593980286691812,1.753,0.61,0.152
1593980287193901,1.715,0.61,0.152
1593980287696050,1.677,0.61,0.152
1593980288197995,1.753,0.61,0.152
1593980288699997,1.715,0.61,0.152
1593980289201933,1.753,0.61,0.152
1593980289704049,1.677,0.61,0.152
1593980290206165,1.753,0.61,0.152
1593980290708322,1.715,0.61,0.152
1593980291210537,1.677,0.61,0.152
1593980291717333,1.639,0.61,0.152
1593980292219278,1.715,0.61,0.152
1593980292721503,1.715,0.61,0.152
1593980293223639,1.677,0.61,0.152
1593980293725705,1.677,0.61,0.152
1593980294227916,1.677,0.61,0.152
1593980294729961,1.677,0.61,0.152
1593980295232046,1.677,0.61,0.152
1593980295734017,1.715,0.61,0.152
1593980296236019,1.639,0.61,0.152
1593980296738079,1.639,0.61,0.152
1593980297242173,1.677,0.61,0.152
1593980297744135,1.753,0.61,0.152
1593980298246138,1.715,0.61,0.152
1593980298748257,1.715,0.61,0.152
1593980299250249,1.715,0.61,0.152
1593980299752380,1.677,0.61,0.152
1593980300254434,1.677,0.61,0.152
1593980300756670,1.677,0.533,0.152
1593980301258687,1.715,0.61,0.152
1593980301760791,1.677,0.61,0.152
1593980302262834,1.639,0.61,0.152
1593980302764890,1.715,0.61,0.152
1593980303266850,1.715,0.61,0.152
1593980303768838,1.677,0.61,0.152
1593980304270817,1.715,0.61,0.152
1593980304772976,1.677,0.61,0.152
1593980305274954,1.715,0.61,0.152
1593980305777065,1.715,0.61,0.152
1593980306279196,1.677,0.61,0.152
1593980306781254,1.677,0.61,0.152
1593980307283487,1.676,0.61,0.152
1593980307785457,1.677,0.61,0.152
1593980308287477,1.677,0.61,0.152
1593980308789521,1.715,0.61,0.152
1593980309291496,1.791,0.686,0.152
1593980309793519,1.715,0.61,0.152
1593980310295532,1.753,0.61,0.152
1593980310797476,1.676,0.61,0.152
1593980311299659,1.753,0.61,0.152
1593980311801699,1.715,0.61,0.152
1593980312303763,1.677,0.61,0.152
1593980312805716,1.677,0.61,0.152
1593980313307915,1.676,0.61,0.152
1593980313809854,1.715,0.61,0.152
1593980314311945,1.639,0.61,0.152
1593980314813955,1.677,0.61,0.152
1593980315316029,1.677,0.61,0.152
1593980315818071,1.676,0.61,0.152
1593980316320209,1.715,0.61,0.152
1593980316822214,1.677,0.61,0.152
1593980317324377,1.677,0.61,0.152
1593980317826377,1.677,0.61,0.152
1593980318328507,1.715,0.61,0.152
1593980318830497,1.677,0.61,0.152
1593980319332664,1.639,0.61,0.152
1593980319834732,1.639,0.61,0.152
1593980320336852,1.715,0.61,0.152
1593980320838843,1.677,0.61,0.152
1593980321341776,1.981,0.61,0.152
1593980321844326,2.096,0.61,0.152
1593980322346362,2.096,0.61,0.152
1593980322850618,1.981,0.61,0.152
1593980323352595,1.792,0.61,0.152
1593980323854569,1.791,0.61,0.152
1593980324356562,1.715,0.61,0.152
1593980324858622,1.715,0.61,0.152
1593980325360623,1.677,0.61,0.152
1593980325862581,1.677,0.61,0.152
1593980326364547,1.753,0.61,0.152
1593980326866545,1.677,0.61,0.152
1593980327368846,1.677,0.61,0.152
1593980327870844,1.715,0.61,0.152
1593980328372846,1.715,0.61,0.152
1593980328874791,1.753,0.61,0.152
1593980329376965,1.715,0.61,0.152
1593980329878997,1.677,0.61,0.152
1593980330381217,1.715,0.61,0.152
1593980330883143,1.677,0.61,0.152
1593980331385223,1.753,0.61,0.152
1593980331887224,1.715,0.61,0.152
1593980332389334,1.677,0.61,0.152
1593980332891584,1.715,0.61,0.152
1593980333393629,1.677,0.61,0.152
1593980333895950,1.677,0.61,0.152
1593980334397944,1.753,0.61,0.152
1593980334900053,1.715,0.61,0.152
1593980335402080,1.715,0.61,0.152
1593980335904328,1.715,0.61,0.152
1593980336406320,1.715,0.61,0.152
1593980336908485,1.677,0.61,0.152
1593980337410496,1.677,0.61,0.152
1593980337912645,1.639,0.61,0.152
1593980338414722,1.676,0.61,0.152
1593980338916838,1.753,0.61,0.152
1593980339418894,1.677,0.61,0.152
1593980339920901,1.677,0.61,0.152
1593980340422912,1.715,0.61,0.152
1593980340925077,1.715,0.61,0.152
1593980341427046,1.676,0.61,0.152
1593980341929438,1.753,0.61,0.152
1593980342431557,1.715,0.61,0.152
1593980342933586,1.715,0.61,0.152
1593980343435744,1.715,0.61,0.152
1593980343937748,1.715,0.61,0.152
1593980344439793,1.677,0.61,0.152
1593980344941777,1.715,0.61,0.152
1593980345443853,1.715,0.61,0.152
1593980345945910,1.753,0.61,0.152
1593980346447997,1.715,0.61,0.152
1593980346950090,1.677,0.61,0.152
1593980347452062,1.677,0.61,0.152
1593980347954051,1.715,0.61,0.152
1593980348456074,1.677,0.61,0.152
1593980348958174,1.677,0.61,0.152
1593980349460218,1.753,0.61,0.152
1593980349962213,1.677,0.61,0.152
1593980350464317,1.715,0.61,0.152
1593980350966349,1.715,0.61,0.152
1593980351468633,1.677,0.61,0.152
1593980351970689,1.677,0.61,0.152
1593980352472702,1.677,0.61,0.152
1593980352974851,1.677,0.61,0.152
1593980353476905,1.677,0.61,0.152
1593980353978969,1.677,0.61,0.152
1593980354481019,1.677,0.61,0.152
1593980354983097,1.639,0.61,0.152
1593980355485097,1.676,0.61,0.152
1593980355987138,1.677,0.61,0.152
1593980356489288,1.715,0.61,0.152
1593980356991257,1.753,0.686,0.152
1593980357493308,1.715,0.61,0.152
1593980357995530,1.753,0.61,0.152
1593980358497563,1.715,0.61,0.152
1593980358999630,1.677,0.61,0.152
1593980359501688,1.715,0.61,0.152
1593980360003803,1.715,0.61,0.152
1593980360506409,1.677,0.61,0.152
1593980361008526,1.715,0.61,0.152
1593980361510631,1.715,0.61,0.152
1593980362012567,1.676,0.61,0.152
1593980362514667,1.753,0.61,0.152
1593980363016754,1.676,0.61,0.152
1593980363518885,1.677,0.61,0.152
1593980364020885,1.753,0.61,0.152
1593980364525443,1.715,0.61,0.152
1593980365027772,1.715,0.61,0.152
1593980365529763,1.677,0.61,0.152
1593980366031801,1.677,0.61,0.152
1593980366533713,1.715,0.61,0.152
1593980367035798,1.753,0.686,0.152
1593980367537875,1.677,0.61,0.152
1593980368040012,1.715,0.61,0.152
1593980368542124,1.715,0.61,0.152
1593980369044154,1.677,0.61,0.152
1593980369546091,1.715,0.61,0.152
1593980370048262,1.677,0.61,0.152
1593980370550228,1.677,0.61,0.152
1593980371052319,1.676,0.61,0.152
1593980371554344,1.677,0.61,0.152
1593980372056596,1.677,0.61,0.152
1593980372558556,1.639,0.533,0.152
1593980373060644,1.715,0.61,0.152
1593980373562720,1.676,0.61,0.152
1593980374065093,1.715,0.61,0.152
1593980374567088,1.753,0.61,0.152
1593980375069123,1.676,0.61,0.152
1593980375571180,1.753,0.61,0.152
1593980376073285,1.715,0.61,0.152
1593980376575189,1.791,0.686,0.152
1593980377077379,1.677,0.61,0.152
1593980377579591,1.715,0.61,0.152
1593980378081620,1.677,0.61,0.152
1593980378583793,1.677,0.61,0.152
1593980379085791,1.677,0.61,0.152
1593980379587894,1.677,0.61,0.152
1593980380089957,1.677,0.61,0.152
1593980380592032,1.677,0.61,0.152
1593980381094129,1.676,0.61,0.152
1593980381596149,1.677,0.61,0.152
1593980382104911,1.677,0.61,0.152
1593980382606971,1.677,0.61,0.152
1593980383109325,1.753,0.61,0.152
1593980383611622,1.677,0.61,0.152
1593980384115005,1.791,0.61,0.152
1593980384617220,2.019,0.61,0.152
1593980385119182,2.134,0.61,0.152
1593980385621469,2.096,0.61,0.152
1593980386123555,1.829,0.61,0.152
1593980386625588,1.753,0.61,0.152
1593980387127779,1.715,0.61,0.152
1593980387629930,1.753,0.61,0.152
1593980388131992,1.715,0.61,0.152
1593980388634042,1.753,0.61,0.152
1593980389136048,1.677,0.61,0.152
1593980389638041,1.639,0.61,0.152
1593980390140030,1.639,0.61,0.152
1593980390642013,1.715,0.61,0.152
1593980391144053,1.676,0.61,0.152
1593980391646038,1.677,0.61,0.152
1593980392148025,1.715,0.61,0.152
1593980392650005,1.677,0.61,0.152
1593980393152096,1.677,0.61,0.152
1593980393654051,1.677,0.61,0.152
1593980394156084,1.715,0.61,0.152
1593980394658079,1.639,0.61,0.152
1593980395160201,1.676,0.61,0.152
1593980395662221,1.753,0.61,0.152
1593980396164269,1.715,0.61,0.152
1593980396666265,1.677,0.61,0.152
1593980397168347,1.715,0.61,0.152
1593980397670389,1.715,0.61,0.152
1593980398172660,1.677,0.61,0.152
1593980398674613,1.715,0.61,0.152
1593980399176601,1.677,0.61,0.152
1593980399678625,1.639,0.61,0.152
1593980400180584,1.677,0.61,0.152
1593980400682587,1.715,0.61,0.152
1593980401184602,1.677,0.61,0.152
1593980401686608,1.791,0.61,0.152
1593980402188678,1.715,0.61,0.152
1593980402690583,1.715,0.61,0.152
1593980403192634,1.715,0.61,0.152
1593980403694678,1.715,0.61,0.152
1593980404196710,1.677,0.61,0.152
1593980404698659,1.715,0.61,0.152
1593980405200681,1.791,0.686,0.152
1593980405702732,1.715,0.61,0.152
1593980406204765,1.753,0.61,0.152
1593980406706688,1.677,0.61,0.152
1593980407208682,1.715,0.61,0.152
1593980407710716,1.792,0.686,0.152
1593980408212983,1.715,0.61,0.152
1593980408714993,1.715,0.61,0.152
1593980409217128,1.677,0.61,0.152
1593980409719189,1.753,0.61,0.152
1593980410221284,1.715,0.61,0.152
1593980410723236,1.677,0.61,0.152
1593980411225265,1.753,0.61,0.152
1593980411727279,1.677,0.61,0.152
1593980412229369,1.677,0.61,0.152
1593980412731417,1.677,0.61,0.152
1593980413233421,1.677,0.61,0.152
1593980413735565,1.676,0.61,0.152
1593980414237561,1.715,0.61,0.152
1593980414739706,1.677,0.61,0.152
1593980415241698,1.639,0.61,0.152
1593980415743759,1.677,0.61,0.152
1593980416245713,1.715,0.61,0.152
1593980416747730,1.676,0.61,0.152
1593980417249692,1.791,0.686,0.152
1593980417751791,1.715,0.61,0.152
1593980418253785,1.753,0.61,0.152
1593980418755754,1.715,0.61,0.152
1593980419257692,1.753,0.61,0.152
1593980419759715,1.677,0.61,0.152
1593980420261772,1.715,0.61,0.152
1593980420763774,1.715,0.61,0.152
1593980421265847,1.677,0.61,0.152
1593980421767864,1.753,0.61,0.152
1593980422269796,1.715,0.61,0.152
1593980422771901,1.791,0.686,0.152
1593980423273839,1.753,0.61,0.152
1593980423775848,1.715,0.61,0.152
1593980424277849,1.715,0.61,0.152
1593980424779912,1.753,0.61,0.152
1593980425281898,1.677,0.61,0.152
1593980425783943,1.715,0.61,0.152
1593980426285911,1.677,0.61,0.152
1593980426788285,1.677,0.61,0.152
1593980427290261,1.677,0.61,0.152
1593980427792259,1.677,0.61,0.152
1593980428294271,1.677,0.61,0.152
1593980428796314,1.677,0.61,0.152
1593980429298265,1.753,0.61,0.152
1593980429800230,1.677,0.61,0.152
1593980430302185,1.753,0.686,0.152
1593980430804346,1.791,0.686,0.152
1593980431306465,1.715,0.61,0.152
1593980431808567,1.753,0.61,0.152
1593980432310563,1.677,0.61,0.152
1593980432812658,1.677,0.61,0.152
1593980433314700,1.677,0.61,0.152
1593980433816751,1.677,0.61,0.152
1593980434318766,1.677,0.61,0.152
1593980434820943,1.677,0.61,0.152
1593980435322966,1.753,0.61,0.152
1593980435825415,1.753,0.61,0.152
1593980436327509,1.677,0.61,0.152
1593980436829678,1.677,0.61,0.152
1593980437331750,1.677,0.61,0.152
1593980437833790,1.715,0.61,0.152
1593980438335886,1.677,0.61,0.152
1593980438837956,1.677,0.61,0.152
1593980439340147,1.676,0.61,0.152
1593980439842114,1.677,0.61,0.152
1593980440344318,1.677,0.61,0.152
1593980440846310,1.677,0.61,0.152
1593980441348644,1.677,0.61,0.152
1593980441850679,1.715,0.61,0.152
1593980442352670,1.715,0.61,0.152
1593980442854765,1.676,0.61,0.152
1593980443356922,1.677,0.61,0.152
1593980443859104,1.676,0.61,0.152
1593980444361113,1.677,0.61,0.152
1593980444863176,1.677,0.61,0.152
1593980445365413,1.753,0.61,0.152
1593980445867459,1.715,0.61,0.152
1593980446369453,1.677,0.61,0.152
1593980446871617,1.715,0.61,0.152
1593980447373759,1.943,0.61,0.152
1593980447875884,2.058,0.61,0.152
1593980448377873,2.058,0.61,0.152
1593980448885207,1.943,0.61,0.152
1593980449389409,1.753,0.61,0.152
1593980449891635,1.715,0.61,0.152
1593980450393623,1.677,0.61,0.152
1593980450895679,1.715,0.61,0.152
1593980451397673,1.677,0.61,0.152
1593980451899693,1.677,0.61,0.152
1593980452401723,1.677,0.61,0.152
1593980452903757,1.715,0.61,0.152
1593980453405778,1.715,0.61,0.152
1593980453907810,1.753,0.61,0.152
1593980454409851,1.715,0.61,0.152
1593980454911979,1.677,0.61,0.152
1593980455414034,1.676,0.61,0.152
1593980455916127,1.753,0.686,0.152
1593980456418113,1.715,0.61,0.152
1593980456920145,1.753,0.61,0.152
1593980457422201,1.715,0.61,0.152
1593980457924327,1.753,0.61,0.152
1593980458426312,1.677,0.61,0.152
1593980458928382,1.677,0.61,0.152
1593980459430481,1.715,0.61,0.152
1593980459932537,1.715,0.61,0.152
1593980460434668,1.715,0.61,0.152
1593980460936795,1.753,0.61,0.152
1593980461438951,1.791,0.686,0.152
1593980461940974,1.715,0.61,0.152
1593980462442963,1.753,0.61,0.152
1593980462944975,1.715,0.61,0.152
1593980463446931,1.753,0.61,0.152
1593980463949110,1.791,0.686,0.152
1593980464451019,1.677,0.61,0.152
1593980464953043,1.715,0.61,0.152
1593980465455090,1.753,0.61,0.152
1593980465957125,1.753,0.61,0.152
1593980466459211,1.753,0.61,0.152
1593980466961285,1.715,0.61,0.152
1593980467463448,1.676,0.61,0.152
1593980467965530,1.753,0.61,0.152
1593980468467539,1.715,0.61,0.152
1593980468969584,1.677,0.61,0.152
1593980469471821,1.677,0.61,0.152
1593980469973874,1.715,0.61,0.152
1593980470476117,1.715,0.61,0.152
1593980470978228,1.677,0.61,0.152
1593980471480300,1.677,0.61,0.152
1593980471982265,1.715,0.61,0.152
1593980472484370,1.791,0.686,0.152
1593980472986391,1.677,0.61,0.152
1593980473488377,1.753,0.61,0.152
1593980473990354,1.715,0.61,0.152
1593980474492449,1.753,0.61,0.152
1593980474994467,1.791,0.686,0.152
1593980475496546,1.715,0.61,0.152
1593980475998562,1.753,0.61,0.152
1593980476500672,1.715,0.61,0.152
1593980477002709,1.715,0.61,0.152
1593980477504813,1.715,0.61,0.152
1593980478006760,1.791,0.686,0.152
1593980478509142,1.715,0.61,0.152
1593980479011439,1.753,0.61,0.152
1593980479513411,1.677,0.61,0.152
1593980480015657,1.676,0.61,0.152
1593980480518990,1.677,0.61,0.152
1593980481021075,1.677,0.61,0.152
1593980481523470,1.676,0.61,0.152
1593980482025415,1.753,0.61,0.152
1593980482527514,1.677,0.61,0.152
1593980483029581,1.753,0.61,0.152
1593980483531650,1.715,0.61,0.152
1593980484033579,1.677,0.61,0.152
1593980484535623,1.715,0.61,0.152
1593980485037650,1.677,0.61,0.152
1593980485539676,1.753,0.686,0.152
1593980486041758,1.677,0.61,0.152
1593980486543716,1.791,0.61,0.152
1593980487045721,1.715,0.61,0.152
1593980487547882,1.753,0.61,0.152
1593980488049979,1.715,0.61,0.152
1593980488552154,1.753,0.61,0.152
1593980489054269,1.715,0.61,0.152
1593980489556269,1.791,0.686,0.152
1593980490058372,1.715,0.61,0.152
1593980490560312,1.715,0.61,0.152
1593980491062265,1.791,0.61,0.152
1593980491564304,1.715,0.61,0.152
1593980492066309,1.791,0.61,0.152
1593980492568538,1.715,0.61,0.152
1593980493070670,1.677,0.61,0.152
1593980493572655,1.715,0.61,0.152
1593980494074642,1.677,0.61,0.152
1593980494576576,1.715,0.61,0.152
1593980495078535,1.715,0.61,0.152
1593980495580569,1.753,0.686,0.152
1593980496082555,1.677,0.61,0.152
1593980496584701,1.753,0.61,0.152
1593980497086747,1.715,0.61,0.152
1593980497588899,1.677,0.61,0.152
1593980498090908,1.639,0.61,0.152
1593980498592915,1.677,0.61,0.152
1593980499094922,1.677,0.61,0.152
1593980499597064,1.676,0.533,0.152
1593980500099054,1.753,0.61,0.152
1593980500601130,1.676,0.61,0.152
1593980501103121,1.715,0.61,0.152
1593980501605360,1.715,0.61,0.152
1593980502107570,1.677,0.61,0.152
1593980502609538,1.677,0.61,0.152
1593980503111501,1.677,0.61,0.152
1593980503613575,1.677,0.61,0.152
1593980504115644,1.676,0.61,0.152
1593980504617678,1.715,0.61,0.152
1593980505119730,1.715,0.61,0.152
1593980505621838,1.677,0.61,0.152
1593980506123952,1.753,0.61,0.152
1593980506626020,1.715,0.61,0.152
1593980507128044,1.715,0.61,0.152
1593980507631649,1.715,0.61,0.152
1593980508133620,1.715,0.61,0.152
1593980508635631,1.753,0.686,0.152
1593980509137668,1.715,0.61,0.152
1593980509639841,1.753,0.61,0.152
1593980510141834,1.867,0.61,0.152
1593980510643831,1.981,0.61,0.152
1593980511145839,2.058,0.61,0.152
1593980511667560,2.134,0.61,0.152
1593980512169487,1.829,0.61,0.152
1593980512671466,1.715,0.61,0.152
1593980513173492,1.753,0.61,0.152
1593980513675658,1.677,0.61,0.152
1593980514177844,1.715,0.61,0.152
1593980514679880,1.715,0.61,0.152
1593980515181885,1.677,0.61,0.152
1593980515684017,1.677,0.61,0.152
1593980516186352,1.715,0.61,0.152
1593980516688543,1.715,0.61,0.152
1593980517190542,1.677,0.61,0.152
1593980517692671,1.677,0.61,0.152
1593980518194697,1.715,0.61,0.152
1593980518696764,1.677,0.61,0.152
1593980519198766,1.676,0.61,0.152
1593980519701164,1.753,0.61,0.152
1593980520203216,1.715,0.61,0.152
1593980520705410,1.715,0.61,0.152
1593980521207495,1.715,0.61,0.152
1593980521709367,1.677,0.61,0.152
1593980522211460,1.677,0.61,0.152
1593980522713479,1.753,0.61,0.152
1593980523215506,1.715,0.61,0.152
1593980523717500,1.753,0.61,0.152
1593980524219720,1.715,0.61,0.152
1593980524721719,1.753,0.61,0.152
1593980525223726,1.715,0.61,0.152
1593980525725651,1.791,0.686,0.152
1593980526227804,1.715,0.61,0.152
1593980526729735,1.715,0.61,0.152
1593980527231812,1.715,0.61,0.152
1593980527733712,1.753,0.61,0.152
1593980528235728,1.715,0.61,0.152
1593980528737761,1.715,0.61,0.152
1593980529240084,1.677,0.61,0.152
1593980529742022,1.676,0.61,0.152
1593980530244277,1.753,0.61,0.152
1593980530746418,1.677,0.61,0.152
1593980531248494,1.677,0.61,0.152
1593980531750483,1.677,0.61,0.152
1593980532252787,1.715,0.61,0.152
1593980532754830,1.677,0.61,0.152
1593980533256878,1.677,0.61,0.152
1593980533759038,1.715,0.61,0.152
1593980534261187,1.715,0.61,0.152
1593980534763167,1.676,0.61,0.152
1593980535265441,1.677,0.61,0.152
1593980535767484,1.715,0.61,0.152
1593980536269554,1.677,0.61,0.152
1593980536771731,1.677,0.61,0.152
1593980537273713,1.715,0.61,0.152
1593980537775801,1.753,0.61,0.152
1593980538277818,1.677,0.61,0.152
1593980538780093,1.753,0.61,0.152
1593980539282122,1.715,0.61,0.152
1593980539784302,1.715,0.61,0.152
1593980540287768,1.715,0.61,0.152
1593980540789915,1.639,0.61,0.152
1593980541292052,1.677,0.61,0.152
1593980541794180,1.753,0.686,0.152
1593980542296256,1.677,0.61,0.152
1593980542798337,1.753,0.61,0.152
1593980543300292,1.715,0.61,0.152
1593980543802275,1.753,0.686,0.152
1593980544304398,1.753,0.61,0.152
1593980544806427,1.715,0.61,0.152
1593980545308562,1.677,0.61,0.152
1593980545810657,1.677,0.61,0.152
1593980546312655,1.715,0.61,0.152
1593980546814787,1.677,0.61,0.152
1593980547316907,1.677,0.61,0.152
1593980547818982,1.715,0.61,0.152
1593980548321249,1.677,0.61,0.152
1593980548823458,1.676,0.61,0.152
1593980549325519,1.676,0.61,0.152
1593980549827690,1.753,0.61,0.152
1593980550329812,1.715,0.61,0.152
1593980550831807,1.715,0.61,0.152
1593980551333871,1.715,0.61,0.152
1593980551835909,1.753,0.686,0.152
1593980552337846,1.791,0.686,0.152
1593980552839970,1.715,0.61,0.152
1593980553341931,1.677,0.61,0.152
1593980553843966,1.715,0.61,0.152
1593980554346046,1.677,0.61,0.152
1593980554848163,1.676,0.61,0.152
1593980555350248,1.677,0.61,0.152
1593980555852404,1.677,0.61,0.152
1593980556354441,1.677,0.61,0.152
1593980556856500,1.677,0.61,0.152
1593980557358486,1.677,0.61,0.152
1593980557860618,1.715,0.61,0.152
1593980558362614,1.715,0.61,0.152
1593980558864654,1.677,0.61,0.152
1593980559366663,1.715,0.61,0.152
1593980559868700,1.677,0.61,0.152
1593980560370803,1.677,0.61,0.152
1593980560872820,1.677,0.61,0.152
1593980561374858,1.715,0.61,0.152
1593980561876876,1.677,0.61,0.152
1593980562378911,1.677,0.61,0.152
1593980562880958,1.715,0.61,0.152
1593980563382964,1.677,0.61,0.152
1593980563885095,1.753,0.61,0.152
1593980564386998,1.715,0.61,0.152
1593980564889043,1.715,0.61,0.152
1593980565390953,1.753,0.61,0.152
1593980565893094,1.753,0.61,0.152
1593980566395183,1.715,0.61,0.152
1593980566897182,1.715,0.61,0.152
1593980567399222,1.715,0.61,0.152
1593980567901248,1.677,0.61,0.152
1593980568403292,1.677,0.61,0.152
1593980568905685,1.753,0.61,0.152
1593980569407727,1.677,0.61,0.152
1593980569909903,1.715,0.61,0.152
1593980570411952,1.715,0.61,0.152
1593980570913943,1.715,0.61,0.152
1593980571416023,1.753,0.61,0.152
1593980571917964,1.677,0.61,0.152
1593980572420169,1.753,0.61,0.152
1593980572922203,1.715,0.61,0.152
1593980573424318,1.981,0.61,0.152
1593980573926383,2.096,0.61,0.152
1593980574428458,2.096,0.61,0.152
1593980574936138,1.905,0.61,0.152
1593980575438249,1.753,0.61,0.152
1593980575943804,1.791,0.61,0.152
1593980576445829,1.715,0.61,0.152
1593980576948094,1.676,0.61,0.152
1593980577450092,1.753,0.61,0.152
1593980577952205,1.715,0.61,0.152
1593980578454289,1.753,0.61,0.152
1593980578956579,1.715,0.61,0.152
1593980579458503,1.753,0.61,0.152
1593980579960833,1.715,0.61,0.152
1593980580462797,1.753,0.61,0.152
1593980580964843,1.715,0.61,0.152
1593980581466925,1.753,0.61,0.152
1593980581969155,1.677,0.61,0.152
1593980582472627,1.676,0.61,0.152
1593980582976345,1.753,0.61,0.152
1593980583478409,1.753,0.61,0.152
1593980583980720,1.715,0.61,0.152
1593980584482704,1.677,0.61,0.152
1593980584984802,1.715,0.61,0.152
1593980585486831,1.715,0.61,0.152
1593980585988879,1.753,0.61,0.152
1593980586490883,1.715,0.61,0.152
1593980586992974,1.677,0.61,0.152
1593980587495227,1.753,0.61,0.152
1593980587997482,1.715,0.61,0.152
1593980588499496,1.791,0.686,0.152
1593980589001494,1.676,0.61,0.152
1593980589503538,1.753,0.61,0.152
1593980590005587,1.715,0.61,0.152
1593980590508249,1.715,0.61,0.152
1593980591010234,1.715,0.61,0.152
1593980591512435,1.791,0.686,0.152
1593980592014374,1.715,0.61,0.152
1593980592516700,1.753,0.61,0.152
1593980593018652,1.791,0.686,0.152
1593980593520725,1.715,0.61,0.152
1593980594022891,1.715,0.61,0.152
1593980594524882,1.677,0.61,0.152
1593980595027050,1.753,0.61,0.152
1593980595529058,1.753,0.61,0.152
1593980596031053,1.753,0.61,0.152
1593980596533193,1.715,0.61,0.152
1593980597035227,1.753,0.61,0.152
1593980597537275,1.715,0.61,0.152
1593980598039166,1.791,0.686,0.152
1593980598541190,1.715,0.61,0.152
1593980599043222,1.715,0.61,0.152
1593980599546012,1.677,0.61,0.152
1593980600048072,1.753,0.61,0.152
1593980600550078,1.677,0.61,0.152
1593980601052181,1.639,0.61,0.152
1593980601554137,1.677,0.61,0.152
1593980602056321,1.715,0.61,0.152
1593980602558427,1.715,0.61,0.152
1593980603060468,1.677,0.61,0.152
1593980603562564,1.715,0.61,0.152
1593980604064638,1.715,0.61,0.152
1593980604566719,1.677,0.61,0.152
1593980605068813,1.677,0.61,0.152
1593980605570752,1.715,0.61,0.152
1593980606072829,1.792,0.686,0.152
1593980606574839,1.715,0.61,0.152
1593980607076863,1.715,0.61,0.152
1593980607578882,1.676,0.61,0.152
1593980608080885,1.677,0.61,0.152
1593980608582919,1.715,0.61,0.152
1593980609085068,1.676,0.61,0.152
1593980609587056,1.677,0.61,0.152
1593980610089077,1.677,0.61,0.152
1593980610591111,1.715,0.61,0.152
1593980611093198,1.677,0.61,0.152
1593980611595169,1.677,0.61,0.152
1593980612097275,1.677,0.61,0.152
1593980612599204,1.676,0.61,0.152
1593980613101311,1.677,0.61,0.152
1593980613603359,1.677,0.61,0.152
1593980614105574,1.639,0.61,0.152
1593980614607625,1.753,0.61,0.152
1593980615109672,1.715,0.61,0.152
1593980615611731,1.753,0.61,0.152
1593980616113705,1.677,0.61,0.152
1593980616615748,1.639,0.61,0.152
1593980617117698,1.677,0.61,0.152
1593980617619763,1.753,0.61,0.152
1593980618121763,1.715,0.61,0.152
1593980618624105,1.715,0.61,0.152
1593980619126191,1.715,0.61,0.152
1593980619628263,1.791,0.61,0.152
1593980620130193,1.715,0.61,0.152
1593980620633824,1.677,0.61,0.152
1593980621135924,1.753,0.61,0.152
1593980621637971,1.753,0.61,0.152
1593980622140118,1.677,0.61,0.152
1593980622642116,1.677,0.61,0.152
1593980623145987,1.715,0.61,0.152
1593980623648070,1.715,0.61,0.152
1593980624150131,1.715,0.61,0.152
1593980624652277,1.677,0.61,0.152
1593980625154293,1.677,0.61,0.152
1593980625656390,1.677,0.61,0.152
1593980626158402,1.715,0.61,0.152
1593980626660569,1.639,0.61,0.152
1593980627162578,1.676,0.61,0.152
1593980627664579,1.715,0.61,0.152
1593980628166570,1.676,0.61,0.152
1593980628668572,1.677,0.61,0.152
1593980629170637,1.677,0.61,0.152
1593980629672632,1.715,0.61,0.152
1593980630174648,1.677,0.61,0.152
1593980630676846,1.753,0.61,0.152
1593980631178857,1.715,0.61,0.152
1593980631680799,1.677,0.61,0.152
1593980632182681,1.715,0.61,0.152
1593980632684625,1.753,0.61,0.152
1593980633186656,1.677,0.61,0.152
1593980633688871,1.677,0.61,0.152
1593980634191252,1.639,0.61,0.152
1593980634693479,1.677,0.61,0.152
1593980635195520,1.677,0.61,0.152
1593980635697554,1.677,0.61,0.152
1593980636199541,1.867,0.61,0.152
1593980636702136,2.058,0.61,0.152
1593980637204247,2.058,0.61,0.152
1593980637708883,2.019,0.61,0.152
1593980638210927,1.829,0.61,0.152
1593980638713019,1.753,0.61,0.152
1593980639215025,1.677,0.61,0.152
1593980639717053,1.677,0.61,0.152
1593980640219070,1.715,0.61,0.152
1593980640721326,1.677,0.61,0.152
1593980641223357,1.715,0.61,0.152
1593980641725372,1.753,0.61,0.152
1593980642227430,1.753,0.61,0.152
1593980642729387,1.715,0.61,0.152
1593980643231508,1.753,0.61,0.152
1593980643733501,1.715,0.61,0.152
1593980644235510,1.677,0.61,0.152
1593980644737509,1.753,0.61,0.152
1593980645239579,1.677,0.61,0.152
1593980645741528,1.715,0.61,0.152
1593980646243697,1.715,0.61,0.152
1593980646745757,1.791,0.61,0.152
1593980647247818,1.677,0.61,0.152
1593980647749746,1.715,0.61,0.152
1593980648251799,1.715,0.61,0.152
1593980648753896,1.753,0.61,0.152
1593980649255917,1.677,0.61,0.152
1593980649757912,1.715,0.61,0.152
1593980650260047,1.715,0.61,0.152
1593980650762077,1.677,0.61,0.152
1593980651264016,1.753,0.61,0.152
1593980651765990,1.715,0.61,0.152
1593980652268844,1.753,0.686,0.152
1593980652770844,1.792,0.61,0.152
1593980653272935,1.753,0.61,0.152
1593980653774963,1.753,0.61,0.152
1593980654276984,1.677,0.61,0.152
1593980654778982,1.677,0.61,0.152
1593980655281239,1.677,0.61,0.152
1593980655783196,1.715,0.61,0.152
1593980656285214,1.715,0.61,0.152
1593980656787194,1.753,0.61,0.152
1593980657289269,1.753,0.61,0.152
1593980657791365,1.715,0.61,0.152
1593980658293416,1.677,0.61,0.152
1593980658795533,1.677,0.61,0.152
1593980659297573,1.677,0.61,0.152
1593980659799562,1.677,0.61,0.152
1593980660301647,1.677,0.61,0.152
1593980660803726,1.676,0.61,0.152
1593980661305718,1.753,0.61,0.152
1593980661809106,1.677,0.61,0.152
1593980662311052,1.677,0.61,0.152
1593980662813310,1.677,0.61,0.152
1593980663315515,1.677,0.61,0.152
1593980663817651,1.639,0.61,0.152
1593980664319740,1.677,0.61,0.152
1593980664821699,1.639,0.61,0.152
1593980665323753,1.677,0.61,0.152
1593980665825683,1.715,0.61,0.152
1593980666327608,1.677,0.61,0.152
1593980666829488,1.753,0.61,0.152
1593980667331574,1.715,0.61,0.152
1593980667833569,1.753,0.61,0.152
1593980668335637,1.715,0.61,0.152
1593980668837672,1.677,0.61,0.152
1593980669339763,1.677,0.61,0.152
1593980669841762,1.677,0.61,0.152
1593980670343785,1.715,0.61,0.152
1593980670845702,1.715,0.61,0.152
1593980671347752,1.677,0.61,0.152
1593980671849865,1.676,0.61,0.152
1593980672351982,1.677,0.61,0.152
1593980672854018,1.677,0.61,0.152
1593980673356076,1.676,0.61,0.152
1593980673858114,1.715,0.61,0.152
1593980674360122,1.677,0.61,0.152
1593980674862105,1.677,0.61,0.152
1593980675364204,1.677,0.61,0.152
1593980675866293,1.715,0.61,0.152
1593980676368284,1.715,0.61,0.152
1593980676870329,1.715,0.61,0.152
1593980677372297,1.753,0.686,0.152
1593980677874291,1.715,0.61,0.152
1593980678376421,1.715,0.61,0.152
1593980678878414,1.677,0.61,0.152
1593980679380576,1.639,0.61,0.152
1593980679882680,1.639,0.61,0.152
1593980680384911,1.753,0.61,0.152
1593980680886996,1.715,0.61,0.152
1593980681388982,1.791,0.61,0.152
1593980681890896,1.715,0.61,0.152
1593980682392852,1.753,0.61,0.152
1593980682894868,1.753,0.61,0.152
1593980683396901,1.753,0.61,0.152
1593980683898948,1.753,0.61,0.152
1593980684401070,1.715,0.61,0.152
1593980684903110,1.677,0.61,0.152
1593980685405166,1.715,0.61,0.152
1593980685907141,1.715,0.61,0.152
1593980686409192,1.715,0.61,0.152
1593980686911201,1.715,0.61,0.152
1593980687413675,1.715,0.61,0.152
1593980687915688,1.677,0.61,0.152
1593980688417823,1.676,0.61,0.152
1593980688919893,1.753,0.61,0.152
1593980689421901,1.677,0.61,0.152
1593980689923936,1.715,0.61,0.152
1593980690425909,1.715,0.61,0.152
1593980690928024,1.676,0.61,0.152
1593980691430072,1.677,0.61,0.152
1593980691932064,1.677,0.61,0.152
1593980692434143,1.638,0.61,0.152
1593980692936344,1.677,0.61,0.152
1593980693438403,1.715,0.61,0.152
1593980693940544,1.677,0.61,0.152
1593980694442630,1.715,0.61,0.152
1593980694944824,1.753,0.61,0.152
1593980695446805,1.715,0.61,0.152
1593980695949391,1.677,0.61,0.152
1593980696451547,1.676,0.61,0.152
1593980696953613,1.715,0.61,0.152
1593980697455727,1.753,0.61,0.152
1593980697957827,1.715,0.61,0.152
1593980698460119,1.715,0.61,0.152
1593980698962261,1.677,0.61,0.152
1593980699464277,1.981,0.61,0.152
1593980699966324,2.058,0.61,0.152
1593980700468508,2.096,0.61,0.152
1593980700970573,1.867,0.533,0.152
1593980701472555,1.791,0.61,0.152
1593980701974623,1.677,0.61,0.152
1593980702476673,1.677,0.61,0.152
1593980702982836,1.677,0.61,0.152
1593980703484827,1.753,0.61,0.152
1593980703986795,1.753,0.61,0.152
1593980704488800,1.676,0.61,0.152
1593980704990853,1.753,0.61,0.152
1593980705492923,1.715,0.61,0.152
1593980705994972,1.791,0.61,0.152
1593980706496927,1.676,0.61,0.152
1593980706999055,1.715,0.61,0.152
1593980707501320,1.677,0.61,0.152
1593980708003286,1.753,0.61,0.152
1593980708505370,1.677,0.61,0.152
1593980709007427,1.753,0.686,0.152
1593980709509421,1.715,0.61,0.152
1593980710011880,1.715,0.61,0.152
1593980710513920,1.715,0.61,0.152
1593980711016079,1.715,0.61,0.152
1593980711518123,1.676,0.61,0.152
1593980712020224,1.676,0.61,0.152
1593980712522218,1.677,0.61,0.152
1593980713024360,1.677,0.61,0.152
1593980713526404,1.715,0.61,0.152
1593980714028515,1.715,0.61,0.152
1593980714530470,1.639,0.61,0.152
1593980715032579,1.639,0.61,0.152
1593980715534651,1.715,0.61,0.152
1593980716036871,1.715,0.61,0.152
1593980716538924,1.677,0.61,0.152
1593980717040968,1.677,0.61,0.152
1593980717542970,1.677,0.61,0.152
1593980718045426,1.677,0.61,0.152
1593980718547521,1.677,0.61,0.152
1593980719054623,1.715,0.61,0.152
1593980719556622,1.677,0.61,0.152
1593980720058621,1.639,0.61,0.152
1593980720560831,1.676,0.61,0.152
1593980721062826,1.715,0.61,0.152
1593980721564953,1.677,0.61,0.152
1593980722066963,1.639,0.61,0.152
1593980722570009,1.715,0.61,0.152
1593980723072216,1.715,0.61,0.152
1593980723574163,1.677,0.61,0.152
1593980724076317,1.753,0.61,0.152
1593980724578391,1.677,0.61,0.152
1593980725080537,1.677,0.61,0.152
1593980725582555,1.715,0.61,0.152
1593980726088252,1.715,0.61,0.152
1593980726590222,1.639,0.61,0.152
1593980727092367,1.715,0.61,0.152
1593980727594299,1.677,0.61,0.152
1593980728096430,1.715,0.61,0.152
1593980728598379,1.677,0.61,0.152
1593980729100499,1.677,0.61,0.152
1593980729602455,1.639,0.61,0.152
1593980730104578,1.676,0.61,0.152
1593980730606571,1.676,0.61,0.152
1593980731108599,1.677,0.61,0.152
1593980731610621,1.715,0.61,0.152
1593980732112709,1.715,0.61,0.152
1593980732614695,1.677,0.61,0.152
1593980733116846,1.715,0.61,0.152
1593980733618899,1.677,0.61,0.152
1593980734121061,1.715,0.61,0.152
1593980734623201,1.677,0.61,0.152
1593980735125393,1.677,0.61,0.152
1593980735627438,1.677,0.61,0.152
1593980736130371,1.753,0.61,0.152
1593980736632561,1.677,0.61,0.152
1593980737134581,1.639,0.61,0.152
1593980737636618,1.676,0.61,0.152
1593980738138802,1.715,0.61,0.152
1593980738640873,1.677,0.61,0.152
1593980739142960,1.677,0.61,0.152
1593980739645050,1.676,0.61,0.152
1593980740147039,1.677,0.61,0.152
1593980740649305,1.638,0.61,0.152
1593980741151479,1.676,0.61,0.152
1593980741653622,1.677,0.61,0.152
1593980742155791,1.677,0.61,0.152
1593980742657805,1.677,0.61,0.152
1593980743159926,1.753,0.61,0.152
1593980743662110,1.753,0.61,0.152
1593980744164278,1.677,0.61,0.152
1593980744666253,1.676,0.61,0.152
1593980745168246,1.677,0.61,0.152
1593980745670384,1.715,0.61,0.152
1593980746172418,1.676,0.61,0.152
1593980746675807,1.676,0.61,0.152
1593980747177828,1.677,0.61,0.152
1593980747679998,1.715,0.61,0.152
1593980748181947,1.677,0.61,0.152
1593980748684132,1.639,0.61,0.152
1593980749186128,1.677,0.61,0.152
1593980749688167,1.715,0.61,0.152
1593980750190237,1.677,0.61,0.152
1593980750692269,1.676,0.61,0.152
1593980751194226,1.715,0.61,0.152
1593980751696251,1.677,0.61,0.152
1593980752198338,1.677,0.61,0.152
1593980752700380,1.677,0.61,0.152
1593980753202565,1.677,0.61,0.152
1593980753704810,1.677,0.61,0.152
1593980754207000,1.677,0.61,0.152
1593980754709069,1.715,0.61,0.152
1593980755211060,1.677,0.61,0.152
1593980755713136,1.715,0.61,0.152
1593980756215182,1.715,0.61,0.152
1593980756717274,1.677,0.61,0.152
1593980757219394,1.753,0.61,0.152
1593980757721377,1.715,0.61,0.152
1593980758223483,1.753,0.61,0.152
1593980758725474,1.715,0.61,0.152
1593980759227524,1.753,0.61,0.152
1593980759729503,1.715,0.61,0.152
1593980760231685,1.677,0.61,0.152
1593980760733727,1.639,0.61,0.152
1593980761235728,1.677,0.61,0.152
1593980761737962,1.677,0.61,0.152
1593980762240056,1.867,0.61,0.152
1593980762742073,2.058,0.61,0.152
1593980763244057,2.134,0.61,0.152
1593980763749089,2.019,0.61,0.152
1593980764251075,1.791,0.533,0.152
1593980764753238,1.753,0.61,0.152
1593980765255243,1.677,0.61,0.152
1593980765757298,1.677,0.61,0.152
1593980766264339,1.639,0.61,0.152
1593980766766293,1.715,0.61,0.152
1593980767268340,1.677,0.61,0.152
1593980767770397,1.715,0.61,0.152
1593980768272484,1.677,0.61,0.152
1593980768774464,1.715,0.61,0.152
1593980769276505,1.715,0.61,0.152
1593980769778490,1.676,0.61,0.152
1593980770280651,1.753,0.61,0.152
1593980770782720,1.715,0.61,0.152
1593980771284769,1.639,0.61,0.152
1593980771786692,1.715,0.61,0.152
1593980772288724,1.715,0.61,0.152
1593980772790757,1.753,0.61,0.152
1593980773292827,1.677,0.61,0.152
1593980773794733,1.753,0.61,0.152
1593980774296806,1.791,0.686,0.152
1593980774798880,1.677,0.61,0.152
1593980775300976,1.753,0.61,0.152
1593980775803025,1.677,0.61,0.152
1593980776305062,1.753,0.61,0.152
1593980776807007,1.677,0.61,0.152
1593980777309165,1.753,0.61,0.152
1593980777811148,1.715,0.61,0.152
1593980778313416,1.715,0.61,0.152
1593980778815553,1.715,0.61,0.152
1593980779317548,1.677,0.61,0.152
1593980779819515,1.715,0.61,0.152
1593980780321470,1.715,0.61,0.152
1593980780823497,1.753,0.61,0.152
1593980781325494,1.715,0.61,0.152
1593980781827594,1.753,0.61,0.152
1593980782329578,1.715,0.61,0.152
1593980782831671,1.715,0.61,0.152
1593980783333772,1.715,0.61,0.152
1593980783835863,1.677,0.61,0.152
1593980784337853,1.715,0.61,0.152
1593980784839905,1.715,0.61,0.152
1593980785341890,1.677,0.61,0.152
1593980785844059,1.753,0.61,0.152
1593980786346060,1.677,0.61,0.152
1593980786848178,1.677,0.61,0.152
1593980787350177,1.677,0.61,0.152
1593980787852267,1.677,0.61,0.152
1593980788354271,1.677,0.61,0.152
1593980788856268,1.715,0.61,0.152
1593980789358287,1.677,0.61,0.152
1593980789860615,1.715,0.61,0.152
1593980790362591,1.715,0.61,0.152
1593980790864586,1.676,0.61,0.152
1593980791366561,1.639,0.61,0.152
1593980791868609,1.677,0.61,0.152
1593980792370620,1.677,0.61,0.152
1593980792872589,1.677,0.61,0.152
1593980793374616,1.715,0.61,0.152
1593980793876610,1.677,0.61,0.152
1593980794378611,1.677,0.61,0.152
1593980794880646,1.676,0.61,0.152
1593980795382613,1.715,0.61,0.152
1593980795884871,1.677,0.61,0.152
1593980796386925,1.639,0.61,0.152
1593980796889199,1.715,0.61,0.152
1593980797391148,1.676,0.61,0.152
1593980797893227,1.753,0.61,0.152
1593980798395201,1.715,0.61,0.152
1593980798897287,1.791,0.686,0.152
1593980799399425,1.753,0.61,0.152
1593980799901452,1.715,0.61,0.152
1593980800403543,1.715,0.61,0.152
1593980800905592,1.715,0.61,0.152
1593980801407696,1.639,0.61,0.152
1593980801909711,1.639,0.61,0.152
1593980802411716,1.676,0.61,0.152
1593980802913869,1.677,0.61,0.152
1593980803416078,1.677,0.61,0.152
1593980803918117,1.753,0.61,0.152
1593980804420070,1.715,0.61,0.152
1593980804922062,1.715,0.61,0.152
1593980805424301,1.715,0.61,0.152
1593980805926259,1.715,0.61,0.152
1593980806428287,1.677,0.61,0.152
1593980806930294,1.639,0.61,0.152
1593980807432334,1.715,0.61,0.152
1593980807934368,1.715,0.61,0.152
1593980808436680,1.677,0.61,0.152
1593980808938813,1.753,0.61,0.152
1593980809440910,1.677,0.61,0.152
1593980809942817,1.753,0.61,0.152
1593980810444883,1.715,0.61,0.152
1593980810946971,1.715,0.61,0.152
1593980811449262,1.715,0.61,0.152
1593980811951255,1.676,0.61,0.152
1593980812453408,1.677,0.61,0.152
1593980812955521,1.677,0.61,0.152
1593980813457512,1.677,0.61,0.152
1593980813959519,1.715,0.61,0.152
1593980814461573,1.715,0.61,0.152
1593980814963528,1.677,0.61,0.152
1593980815465568,1.753,0.61,0.152
1593980815968024,1.715,0.61,0.152
1593980816470086,1.753,0.61,0.152
1593980816972072,1.677,0.61,0.152
1593980817474261,1.676,0.61,0.152
1593980817976407,1.639,0.61,0.152
1593980818478397,1.715,0.61,0.152
1593980818980536,1.677,0.61,0.152
1593980819482586,1.677,0.61,0.152
1593980819984538,1.753,0.61,0.152
1593980820486662,1.677,0.61,0.152
1593980820988657,1.715,0.61,0.152
1593980821490626,1.677,0.61,0.152
1593980821992633,1.753,0.61,0.152
1593980822494667,1.715,0.61,0.152
1593980822996733,1.715,0.61,0.152
1593980823498728,1.753,0.61,0.152
1593980824000841,1.753,0.61,0.152
1593980824502833,1.677,0.61,0.152
1593980825005342,1.753,0.61,0.152
1593980825507660,1.981,0.61,0.152
1593980826009650,2.058,0.61,0.152
1593980826511705,2.096,0.61,0.152
1593980827013755,1.867,0.61,0.152
1593980827515755,1.715,0.61,0.152
1593980828017751,1.677,0.61,0.152
1593980828519776,1.677,0.61,0.152
1593980829021764,1.715,0.61,0.152
1593980829523894,1.677,0.61,0.152
1593980830026046,1.677,0.61,0.152
1593980830528054,1.753,0.61,0.152
1593980831030079,1.676,0.61,0.152
1593980831532197,1.676,0.61,0.152
1593980832034363,1.715,0.61,0.152
1593980832536369,1.715,0.61,0.152
1593980833045205,1.639,0.61,0.152
1593980833547163,1.677,0.61,0.152
1593980834049528,1.677,0.61,0.152
1593980834551480,1.677,0.61,0.152
1593980835053652,1.753,0.61,0.152
1593980835555653,1.791,0.686,0.152
1593980836057611,1.715,0.61,0.152
1593980836559694,1.753,0.61,0.152
1593980837061641,1.715,0.61,0.152
1593980837563690,1.715,0.61,0.152
1593980838065729,1.677,0.61,0.152
1593980838567785,1.677,0.61,0.152
1593980839069918,1.676,0.61,0.152
1593980839572026,1.715,0.61,0.152
1593980840074061,1.677,0.61,0.152
1593980840576234,1.639,0.61,0.152
1593980841078278,1.677,0.61,0.152
1593980841580445,1.677,0.61,0.152
1593980842082584,1.677,0.61,0.152
1593980842584688,1.677,0.61,0.152
1593980843086668,1.677,0.61,0.152
1593980843588801,1.677,0.61,0.152
1593980844090854,1.677,0.61,0.152
1593980844592970,1.677,0.61,0.152
1593980845095080,1.753,0.61,0.152
1593980845601126,1.715,0.61,0.152
1593980846103035,1.753,0.686,0.152
1593980846605291,1.753,0.61,0.152
1593980847107476,1.715,0.61,0.152
1593980847609389,1.677,0.61,0.152
1593980848111362,1.715,0.61,0.152
1593980848613406,1.753,0.686,0.152
1593980849115707,1.715,0.61,0.152
1593980849617790,1.753,0.61,0.152
1593980850119952,1.715,0.61,0.152
1593980850622129,1.677,0.61,0.152
1593980851124304,1.677,0.61,0.152
1593980851626337,1.715,0.61,0.152
1593980852128344,1.676,0.61,0.152
1593980852630318,1.715,0.61,0.152
1593980853132526,1.677,0.61,0.152
1593980853634504,1.639,0.61,0.152
1593980854136658,1.639,0.61,0.152
1593980854638590,1.715,0.61,0.152
1593980855140838,1.715,0.61,0.152
1593980855642893,1.715,0.61,0.152
1593980856144951,1.715,0.61,0.152
1593980856646948,1.753,0.61,0.152
1593980857156391,1.715,0.61,0.152
1593980857658349,1.677,0.61,0.152
1593980858160410,1.753,0.61,0.152
1593980858662499,1.677,0.61,0.152
1593980859164672,1.715,0.61,0.152
1593980859666635,1.715,0.61,0.152
1593980860168601,1.715,0.61,0.152
1593980860670594,1.753,0.61,0.152
1593980861172613,1.715,0.61,0.152
1593980861674627,1.753,0.61,0.152
1593980862176864,1.715,0.61,0.152
1593980862678838,1.715,0.61,0.152
1593980863181012,1.677,0.61,0.152
1593980863683025,1.677,0.61,0.152
1593980864185140,1.639,0.61,0.152
1593980864687132,1.677,0.61,0.152
1593980865189260,1.677,0.61,0.152
1593980865691242,1.677,0.61,0.152
1593980866193269,1.753,0.61,0.152
1593980866695296,1.715,0.61,0.152
1593980867197422,1.715,0.61,0.152
1593980867699632,1.677,0.61,0.152
1593980868201707,1.753,0.61,0.152
1593980868703772,1.715,0.61,0.152
1593980869205769,1.715,0.61,0.152
1593980869707805,1.677,0.61,0.152
1593980870209850,1.715,0.61,0.152
1593980870711914,1.715,0.61,0.152
1593980871213975,1.677,0.61,0.152
1593980871716058,1.677,0.61,0.152
1593980872218018,1.715,0.61,0.152
1593980872720082,1.677,0.61,0.152
1593980873222096,1.715,0.61,0.152
1593980873724219,1.677,0.61,0.152
1593980874226279,1.639,0.61,0.152
1593980874728319,1.677,0.61,0.152
1593980875230367,1.677,0.61,0.152
1593980875732655,1.676,0.61,0.152
1593980876234658,1.677,0.61,0.152
1593980876736767,1.677,0.61,0.152
1593980877238737,1.639,0.61,0.152
1593980877741043,1.677,0.61,0.152
1593980878243096,1.677,0.61,0.152
1593980878745160,1.677,0.61,0.152
1593980879247183,1.639,0.61,0.152
1593980879749217,1.639,0.61,0.152
1593980880251411,1.715,0.61,0.152
1593980880753375,1.715,0.61,0.152
1593980881255360,1.715,0.61,0.152
1593980881757306,1.715,0.61,0.152
1593980882259283,1.791,0.686,0.152
1593980882761526,1.829,0.686,0.152
1593980883263534,1.715,0.61,0.152
1593980883765579,1.715,0.61,0.152
1593980884267799,1.753,0.61,0.152
1593980884769807,1.715,0.61,0.152
1593980885271894,1.791,0.686,0.152
1593980885773998,1.715,0.61,0.152
1593980886276139,1.715,0.61,0.152
1593980886778229,1.715,0.61,0.152
1593980887280261,1.791,0.686,0.152
1593980887782305,1.715,0.61,0.152
1593980888285007,1.981,0.61,0.152
1593980888787792,2.096,0.61,0.152
1593980889289714,2.21,0.686,0.152
1593980889798106,2.096,0.686,0.152
1593980890300196,1.829,0.61,0.152
1593980890802222,1.715,0.61,0.152
1593980891304424,1.715,0.61,0.152
1593980891806545,1.791,0.686,0.152
1593980892308574,1.753,0.686,0.152
1593980892810627,1.715,0.61,0.152
1593980893313143,1.715,0.61,0.152
1593980893815182,1.791,0.686,0.152
1593980894317322,1.753,0.686,0.152
1593980894819276,1.791,0.686,0.152
1593980895321597,1.867,0.686,0.152
1593980895823863,1.905,0.762,0.152
1593980896325858,1.829,0.686,0.152
1593980896827982,1.867,0.762,0.152
1593980897330100,1.829,0.686,0.152
1593980897832291,1.753,0.61,0.152
1593980898334265,1.753,0.61,0.152
1593980898836404,1.715,0.61,0.152
1593980899338391,1.715,0.61,0.152
1593980899840571,1.715,0.61,0.152
1593980900342705,1.791,0.61,0.152
1593980900844909,1.715,0.61,0.152
1593980901346960,1.753,0.61,0.152
1593980901849038,1.715,0.61,0.152
1593980902351092,1.753,0.61,0.152
1593980902853142,1.715,0.61,0.152
1593980903355145,1.676,0.61,0.152
1593980903857223,1.715,0.61,0.152
1593980904359543,1.677,0.61,0.152
1593980904861469,1.753,0.61,0.152
1593980905363488,1.791,0.686,0.152
1593980905865626,1.715,0.61,0.152
1593980906367713,1.715,0.61,0.152
1593980906869677,1.715,0.61,0.152
1593980907371888,1.677,0.61,0.152
1593980907873956,1.753,0.61,0.152
1593980908376022,1.677,0.61,0.152
1593980908878037,1.639,0.61,0.152
1593980909380073,1.677,0.61,0.152
1593980909882063,1.753,0.61,0.152
1593980910384063,1.677,0.61,0.152
1593980910886108,1.676,0.61,0.152
1593980911388322,1.677,0.61,0.152
1593980911890280,1.677,0.61,0.152
1593980912392341,1.715,0.61,0.152
1593980912894349,1.715,0.61,0.152
1593980913396488,1.677,0.61,0.152
1593980913898634,1.715,0.61,0.152
1593980914400733,1.715,0.61,0.152
1593980914902769,1.753,0.61,0.152
1593980915404850,1.677,0.61,0.152
1593980915906873,1.677,0.61,0.152
1593980916408968,1.715,0.61,0.152
1593980916911076,1.791,0.686,0.152
1593980917413199,1.715,0.61,0.152
1593980917915276,1.753,0.61,0.152
1593980918417488,1.677,0.61,0.152
1593980918919595,1.676,0.61,0.152
1593980919421627,1.715,0.61,0.152
1593980919923799,1.715,0.61,0.152
1593980920425931,1.753,0.61,0.152
1593980920928071,1.715,0.61,0.152
1593980921430056,1.715,0.61,0.152
1593980921932041,1.753,0.61,0.152
1593980922433993,1.677,0.61,0.152
1593980922936020,1.715,0.61,0.152
1593980923438302,1.676,0.61,0.152
1593980923940373,1.676,0.61,0.152
1593980924442374,1.715,0.61,0.152
1593980924945047,1.676,0.61,0.152
1593980925446990,1.753,0.686,0.152
1593980925949014,1.791,0.61,0.152
1593980926451088,1.715,0.61,0.152
1593980926952998,1.753,0.686,0.152
1593980927454968,1.715,0.61,0.152
1593980927957156,1.715,0.61,0.152
1593980928459180,1.791,0.686,0.152
1593980928961188,1.753,0.61,0.152
1593980929463219,1.715,0.61,0.152
1593980929965299,1.677,0.61,0.152
1593980930467774,1.753,0.61,0.152
1593980930969920,1.715,0.61,0.152
1593980931472023,1.677,0.61,0.152
1593980931974198,1.715,0.61,0.152
1593980932476402,1.677,0.61,0.152
1593980932978394,1.677,0.61,0.152
1593980933480623,1.715,0.61,0.152
1593980933982555,1.753,0.61,0.152
1593980934484651,1.715,0.61,0.152
1593980934986719,1.753,0.61,0.152
1593980935488802,1.715,0.61,0.152
1593980935990943,1.676,0.61,0.152
1593980936493032,1.753,0.61,0.152
1593980936995169,1.677,0.61,0.152
1593980937497176,1.753,0.686,0.152
1593980937999296,1.791,0.61,0.152
1593980938501343,1.715,0.61,0.152
1593980939003397,1.677,0.61,0.152
1593980939505406,1.715,0.61,0.152
1593980940008329,1.677,0.61,0.152
1593980940510393,1.677,0.61,0.152
1593980941012446,1.753,0.61,0.152
1593980941514424,1.677,0.61,0.152
1593980942016626,1.677,0.61,0.152
1593980942518700,1.715,0.61,0.152
1593980943020737,1.677,0.61,0.152
1593980943522685,1.715,0.61,0.152
1593980944024678,1.753,0.686,0.152
1593980944526775,1.715,0.61,0.152
1593980945030421,1.753,0.61,0.152
1593980945532529,1.715,0.61,0.152
1593980946034503,1.677,0.61,0.152
1593980946536605,1.715,0.61,0.152
1593980947038653,1.715,0.61,0.152
1593980947540915,1.676,0.61,0.152
1593980948042973,1.753,0.61,0.152
1593980948545127,1.677,0.61,0.152
1593980949047176,1.715,0.61,0.152
1593980949549397,1.715,0.61,0.152
1593980950051496,1.715,0.61,0.152
1593980950553685,1.753,0.61,0.152
1593980951055738,1.753,0.61,0.152
1593980951557810,1.981,0.61,0.152
1593980952060081,2.096,0.61,0.152
1593980952562006,2.172,0.61,0.152
1593980953063936,1.867,0.61,0.152
1593980953565976,1.791,0.61,0.152
1593980954068446,1.791,0.61,0.152
1593980954570448,1.753,0.61,0.152
1593980955072626,1.677,0.61,0.152
1593980955574617,1.715,0.61,0.152
1593980956076968,1.639,0.61,0.152
1593980956579080,1.676,0.61,0.152
1593980957081276,1.753,0.61,0.152
1593980957583369,1.715,0.61,0.152
1593980958086655,1.676,0.61,0.152
1593980958588822,1.676,0.61,0.152
1593980959092959,1.677,0.61,0.152
1593980959595017,1.677,0.61,0.152
1593980960097093,1.715,0.61,0.152
1593980960599115,1.677,0.61,0.152
1593980961101287,1.715,0.61,0.152
1593980961603279,1.715,0.61,0.152
1593980962105358,1.715,0.61,0.152
1593980962607281,1.715,0.61,0.152
1593980963109413,1.791,0.686,0.152
1593980963621289,1.715,0.61,0.152
1593980964123282,1.715,0.61,0.152
1593980964625428,1.677,0.61,0.152
1593980965127475,1.639,0.61,0.152
1593980965629576,1.715,0.61,0.152
1593980966131668,1.715,0.61,0.152
1593980966633657,1.677,0.61,0.152
1593980967135750,1.677,0.61,0.152
1593980967637830,1.638,0.61,0.152
1593980968140050,1.676,0.61,0.152
1593980968641958,1.753,0.61,0.152
1593980969143910,1.753,0.61,0.152
1593980969645922,1.715,0.61,0.152
1593980970148091,1.677,0.61,0.152
1593980970650129,1.753,0.61,0.152
1593980971152204,1.677,0.61,0.152
1593980971654204,1.753,0.61,0.152
1593980972156263,1.677,0.61,0.152
1593980972658354,1.715,0.61,0.152
1593980973160460,1.715,0.61,0.152
1593980973662494,1.715,0.61,0.152
1593980974164653,1.715,0.61,0.152
1593980974668130,1.791,0.686,0.152
1593980975170189,1.715,0.61,0.152
1593980975672258,1.753,0.61,0.152
1593980976174182,1.677,0.61,0.152
1593980976676169,1.715,0.61,0.152
1593980977178269,1.677,0.61,0.152
1593980977680394,1.753,0.61,0.152
1593980978182436,1.715,0.61,0.152
1593980978684552,1.677,0.61,0.152
1593980979186609,1.677,0.61,0.152
1593980979688718,1.677,0.61,0.152
1593980980190659,1.715,0.61,0.152
1593980980692590,1.715,0.61,0.152
1593980981194595,1.791,0.61,0.152
1593980981696770,1.715,0.61,0.152
1593980982198669,1.753,0.61,0.152
1593980982700745,1.791,0.686,0.152
1593980983202870,1.715,0.61,0.152
1593980983705149,1.753,0.61,0.152
1593980984208303,1.715,0.61,0.152
1593980984710309,1.753,0.61,0.152
1593980985212253,1.715,0.61,0.152
1593980985714161,1.753,0.686,0.152
1593980986216438,1.753,0.61,0.152
1593980986718421,1.715,0.61,0.152
1593980987220550,1.791,0.686,0.152
1593980987722570,1.791,0.686,0.152
1593980988224515,1.676,0.61,0.152
1593980988728302,1.753,0.61,0.152
1593980989230247,1.791,0.686,0.152
1593980989733462,1.715,0.61,0.152
1593980990235454,1.753,0.61,0.152
1593980990737630,1.677,0.61,0.152
1593980991239732,1.753,0.61,0.152
1593980991741733,1.715,0.61,0.152
1593980992244843,1.753,0.61,0.152
1593980992746858,1.677,0.61,0.152
1593980993248945,1.677,0.61,0.152
1593980993751099,1.753,0.61,0.152
1593980994253061,1.715,0.61,0.152
1593980994754841,1.753,0.686,0.152
1593980995256755,1.715,0.61,0.152
1593980995758464,1.715,0.61,0.152
1593980996260352,1.715,0.61,0.152
1593980996762049,1.677,0.61,0.152
1593980997263873,1.677,0.61,0.152
1593980997765499,1.677,0.61,0.152
1593980998267163,1.677,0.61,0.152
1593980998772326,1.791,0.61,0.152
1593980999274086,1.715,0.61,0.152
1593980999775934,1.715,0.61,0.152
1593981000277697,1.677,0.61,0.152
1593981000779446,1.792,0.686,0.152
1593981001281165,1.715,0.61,0.152
1593981001782904,1.715,0.61,0.152
1593981002284656,1.677,0.61,0.152
1593981002786447,1.753,0.61,0.152
1593981003288138,1.715,0.61,0.152
1593981003792543,1.677,0.61,0.152
1593981004294242,1.715,0.61,0.152
1593981004796009,1.677,0.61,0.152
1593981005297722,1.753,0.61,0.152
1593981005799481,1.715,0.61,0.152
1593981006301159,1.639,0.61,0.152
1593981006802818,1.677,0.61,0.152
1593981007304571,1.677,0.61,0.152
1593981007806282,1.677,0.61,0.152
1593981008308022,1.715,0.61,0.152
1593981008812546,1.677,0.61,0.152
1593981009314147,1.677,0.61,0.152
1593981009816686,1.753,0.61,0.152
1593981010318464,1.715,0.61,0.152
1593981010820146,1.639,0.61,0.152
1593981011321884,1.677,0.61,0.152
1593981011823653,1.639,0.61,0.152
1593981012325427,1.677,0.61,0.152
1593981012827202,1.715,0.61,0.152
1593981013329107,1.715,0.61,0.152
1593981013830871,1.715,0.61,0.152
1593981014332703,1.905,0.61,0.152
1593981014834558,2.134,0.61,0.152
1593981015336323,2.172,0.686,0.152
1593981015851447,1.943,0.61,0.152
1593981016353216,1.753,0.61,0.152
1593981016855029,1.791,0.61,0.152
1593981017356760,1.753,0.61,0.152
1593981017858481,1.677,0.61,0.152
1593981018360214,1.677,0.61,0.152
1593981018864572,1.677,0.61,0.152
1593981019366251,1.677,0.61,0.152
1593981019868466,1.791,0.61,0.152
1593981020370209,1.677,0.61,0.152
1593981020871926,1.715,0.61,0.152
1593981021373562,1.715,0.61,0.152
1593981021875441,1.753,0.61,0.152
1593981022377153,1.677,0.61,0.152
1593981022878847,1.677,0.61,0.152
1593981023380494,1.677,0.61,0.152
1593981023885015,1.677,0.61,0.152
1593981024386722,1.715,0.61,0.152
1593981024888556,1.753,0.61,0.152
1593981025390330,1.791,0.61,0.152
1593981025892095,1.715,0.61,0.152
1593981026393898,1.753,0.61,0.152
1593981026895641,1.715,0.61,0.152
1593981027397320,1.677,0.61,0.152
1593981027898918,1.639,0.61,0.152
1593981028400631,1.677,0.61,0.152
1593981028905175,1.753,0.61,0.152
1593981029406892,1.715,0.61,0.152
1593981029908626,1.753,0.61,0.152
1593981030410340,1.715,0.61,0.152
1593981030912072,1.753,0.61,0.152
1593981031413862,1.715,0.61,0.152
1593981031915711,1.753,0.61,0.152
1593981032417556,1.715,0.61,0.152
1593981032919331,1.715,0.61,0.152
1593981033421110,1.753,0.61,0.152
1593981033925610,1.715,0.61,0.152
1593981034428991,1.677,0.61,0.152
1593981034930905,1.753,0.61,0.152
1593981035432660,1.715,0.61,0.152
1593981035934981,1.677,0.61,0.152
1593981036436790,1.753,0.61,0.152
1593981036938569,1.715,0.61,0.152
1593981037440326,1.753,0.61,0.152
1593981037942077,1.676,0.61,0.152
1593981038444047,1.677,0.61,0.152
1593981038952641,1.753,0.61,0.152
1593981039454343,1.677,0.61,0.152
1593981039956078,1.677,0.61,0.152
1593981040457796,1.677,0.61,0.152
1593981040959453,1.639,0.61,0.152
1593981041461121,1.676,0.61,0.152
1593981041962818,1.753,0.61,0.152
1593981042468823,1.791,0.686,0.152
1593981042970539,1.715,0.61,0.152
1593981043472325,1.715,0.61,0.152
1593981043976955,1.753,0.61,0.152
1593981044478748,1.677,0.61,0.152
1593981044980500,1.715,0.61,0.152
1593981045482148,1.677,0.61,0.152
1593981045983904,1.677,0.61,0.152
1593981046485618,1.753,0.686,0.152
1593981046987450,1.715,0.61,0.152
1593981047489121,1.715,0.61,0.152
1593981047990877,1.676,0.61,0.152
1593981048492646,1.791,0.686,0.152
1593981048997166,1.677,0.61,0.152
1593981049498942,1.715,0.61,0.152
1593981050000724,1.715,0.61,0.152
1593981050502457,1.676,0.61,0.152
1593981051004205,1.753,0.61,0.152
1593981051506078,1.753,0.61,0.152
1593981052007849,1.715,0.61,0.152
1593981052509610,1.753,0.61,0.152
1593981053011372,1.715,0.61,0.152
1593981053513137,1.753,0.61,0.152
1593981054017886,1.715,0.61,0.152
1593981054519660,1.677,0.61,0.152
1593981055021473,1.753,0.61,0.152
1593981055523194,1.715,0.61,0.152
1593981056025193,1.753,0.686,0.152
1593981056527026,1.753,0.61,0.152
1593981057028876,1.715,0.61,0.152
1593981057530585,1.791,0.61,0.152
1593981058032332,1.715,0.61,0.152
1593981058534036,1.753,0.61,0.152
1593981059038498,1.791,0.686,0.152
1593981059540250,1.715,0.61,0.152
1593981060042008,1.753,0.61,0.152
1593981060543770,1.677,0.61,0.152
1593981061045519,1.715,0.61,0.152
1593981061547212,1.715,0.61,0.152
1593981062049150,1.677,0.61,0.152
1593981062550882,1.715,0.61,0.152
1593981063052632,1.791,0.686,0.152
1593981063554490,1.753,0.61,0.152
1593981064059442,1.753,0.61,0.152
1593981064561200,1.791,0.686,0.152
1593981065063024,1.715,0.61,0.152
1593981065564812,1.715,0.61,0.152
1593981066066518,1.715,0.61,0.152
1593981066568309,1.753,0.61,0.152
1593981067072810,1.791,0.686,0.152
1593981067574534,1.715,0.61,0.152
1593981068076398,1.753,0.61,0.152
1593981068578394,1.715,0.61,0.152
1593981069082962,1.677,0.61,0.152
1593981069584805,1.715,0.61,0.152
1593981070086515,1.715,0.61,0.152
1593981070588235,1.677,0.61,0.152
1593981071089983,1.715,0.61,0.152
1593981071591902,1.753,0.61,0.152
1593981072093608,1.715,0.61,0.152
1593981072595380,1.715,0.61,0.152
1593981073097061,1.677,0.61,0.152
1593981073598717,1.753,0.61,0.152
1593981074103216,1.715,0.61,0.152
1593981074606576,1.753,0.61,0.152
1593981075108332,1.677,0.61,0.152
1593981075610021,1.753,0.61,0.152
1593981076111689,1.715,0.61,0.152
1593981076613404,1.753,0.61,0.152
1593981077115075,1.791,0.61,0.152
1593981077616881,2.096,0.686,0.152
1593981078118556,2.096,0.61,0.152
1593981078620283,2.096,0.61,0.152
1593981079124754,1.829,0.61,0.152
1593981079626473,1.715,0.61,0.152
1593981080128213,1.677,0.61,0.152
1593981080635589,1.753,0.686,0.152
1593981081137300,1.715,0.61,0.152
1593981081639027,1.677,0.61,0.152
1593981082140579,1.677,0.61,0.152
1593981082642282,1.677,0.61,0.152
1593981083144023,1.715,0.61,0.152
1593981083645613,1.676,0.61,0.152
1593981084149975,1.677,0.61,0.152
1593981084651676,1.677,0.61,0.152
1593981085153372,1.753,0.61,0.152
1593981085655199,1.715,0.61,0.152
1593981086157038,1.715,0.61,0.152
1593981086658819,1.753,0.61,0.152
1593981087160566,1.715,0.61,0.152
1593981087662269,1.677,0.61,0.152
1593981088164058,1.715,0.61,0.152
1593981088665748,1.676,0.61,0.152
1593981089170344,1.792,0.61,0.152
1593981089672101,1.715,0.61,0.152
1593981090173845,1.791,0.686,0.152
1593981090675585,1.677,0.61,0.152
1593981091177337,1.753,0.61,0.152
1593981091679121,1.715,0.61,0.152
1593981092181097,1.791,0.61,0.152
1593981092682881,1.715,0.61,0.152
1593981093184634,1.753,0.686,0.152
1593981093686358,1.791,0.686,0.152
1593981094191296,1.715,0.61,0.152
1593981094693087,1.753,0.686,0.152
1593981095194827,1.753,0.686,0.152
1593981095696596,1.715,0.61,0.152
1593981096198409,1.791,0.61,0.152
1593981096700164,1.715,0.61,0.152
1593981097201905,1.792,0.686,0.152
1593981097703613,1.677,0.61,0.152
1593981098205295,1.676,0.61,0.152
1593981098706966,1.753,0.61,0.152
1593981099211909,1.753,0.61,0.152
1593981099713561,1.715,0.61,0.152
1593981100215223,1.677,0.61,0.152
1593981100716963,1.753,0.61,0.152
1593981101218686,1.715,0.61,0.152
1593981101720646,1.753,0.61,0.152
1593981102222348,1.715,0.61,0.152
1593981102724226,1.715,0.61,0.152
1593981103225956,1.753,0.61,0.152
1593981103727675,1.677,0.61,0.152
1593981104232358,1.715,0.61,0.152
1593981104734003,1.676,0.61,0.152
1593981105235798,1.677,0.61,0.152
1593981105737516,1.677,0.61,0.152
1593981106239252,1.677,0.61,0.152
1593981106741034,1.677,0.61,0.152
1593981107242744,1.677,0.61,0.152
1593981107744617,1.753,0.61,0.152
1593981108246353,1.715,0.61,0.152
1593981108748096,1.677,0.61,0.152
1593981109252507,1.677,0.61,0.152
1593981109754255,1.753,0.61,0.152
1593981110256010,1.715,0.61,0.152
1593981110760529,1.677,0.61,0.152
1593981111262242,1.753,0.61,0.152
1593981111764002,1.791,0.686,0.152
1593981112265740,1.715,0.61,0.152
1593981112767489,1.791,0.61,0.152
1593981113269197,1.715,0.61,0.152
1593981113770861,1.677,0.61,0.152
1593981114275360,1.677,0.61,0.152
1593981114776960,1.677,0.61,0.152
1593981115278675,1.677,0.61,0.152
1593981115780461,1.753,0.686,0.152
1593981116282273,1.753,0.61,0.152
1593981116784090,1.715,0.61,0.152
1593981117285836,1.715,0.61,0.152
1593981117787499,1.791,0.61,0.152
1593981118289202,1.715,0.61,0.152
1593981118790895,1.715,0.61,0.152
1593981119295565,1.715,0.61,0.152
1593981119797185,1.715,0.61,0.152
1593981120298893,1.753,0.61,0.152
1593981120800719,1.677,0.61,0.152
1593981121302421,1.677,0.61,0.152
1593981121804169,1.715,0.61,0.152
1593981122305910,1.791,0.686,0.152
1593981122807728,1.715,0.61,0.152
1593981123309469,1.715,0.61,0.152
1593981123811174,1.753,0.686,0.152
1593981124315500,1.715,0.61,0.152
1593981124817225,1.791,0.686,0.152
1593981125319194,1.753,0.61,0.152
1593981125821044,1.715,0.61,0.152
1593981126322768,1.753,0.686,0.152
1593981126824637,1.715,0.61,0.152
1593981127326365,1.753,0.61,0.152
1593981127828098,1.715,0.61,0.152
1593981128329889,1.753,0.61,0.152
1593981128831670,1.676,0.61,0.152
1593981129336378,1.715,0.61,0.152
1593981129838438,1.753,0.61,0.152
1593981130340177,1.715,0.61,0.152
1593981130841863,1.715,0.61,0.152
1593981131343573,1.715,0.61,0.152
1593981131845291,1.676,0.61,0.152
1593981132347061,1.715,0.61,0.152
1593981132848724,1.715,0.61,0.152
1593981133350353,1.676,0.61,0.152
1593981133852121,1.753,0.61,0.152
1593981134356792,1.715,0.61,0.152
1593981134858491,1.677,0.61,0.152
1593981135360148,1.676,0.61,0.152
1593981135861784,1.677,0.61,0.152
1593981136363494,1.676,0.61,0.152
1593981136865213,1.753,0.61,0.152
1593981137366891,1.715,0.61,0.152
1593981137868693,1.753,0.61,0.152
1593981138370446,1.715,0.61,0.152
1593981138872172,1.753,0.61,0.152
1593981139376471,1.715,0.61,0.152
1593981139880784,1.753,0.61,0.152
1593981140382442,1.943,0.61,0.152
1593981140884207,2.058,0.61,0.152
1593981141385929,2.134,0.61,0.152
1593981141887822,1.943,0.61,0.152
1593981142389532,1.753,0.61,0.152
1593981142891186,1.715,0.61,0.152
1593981143392967,1.715,0.61,0.152
1593981143894618,1.715,0.61,0.152
1593981144399066,1.753,0.61,0.152
1593981144900928,1.715,0.61,0.152
1593981145402814,1.715,0.61,0.152
1593981145907972,1.715,0.61,0.152
1593981146409672,1.753,0.61,0.152
1593981146911453,1.677,0.61,0.152
1593981147413162,1.677,0.61,0.152
1593981147914834,1.715,0.61,0.152
1593981148416570,1.677,0.61,0.152
1593981148918236,1.677,0.61,0.152
1593981149422553,1.715,0.61,0.152
1593981149924166,1.639,0.61,0.152
1593981150425750,1.677,0.61,0.152
1593981150927697,1.715,0.61,0.152
1593981151429409,1.715,0.61,0.152
1593981151931100,1.677,0.61,0.152
1593981152432780,1.715,0.61,0.152
1593981152934514,1.715,0.61,0.152
1593981153436320,1.753,0.61,0.152
1593981153938057,1.791,0.61,0.152
1593981154442847,1.753,0.61,0.152
1593981154944729,1.677,0.61,0.152
1593981155446425,1.715,0.61,0.152
1593981155948234,1.677,0.61,0.152
1593981156449917,1.639,0.61,0.152
1593981156951558,1.677,0.61,0.152
1593981157453281,1.677,0.61,0.152
1593981157955027,1.715,0.61,0.152
1593981158456736,1.677,0.61,0.152
1593981158958318,1.677,0.61,0.152
1593981159463083,1.715,0.61,0.152
1593981159964812,1.715,0.61,0.152
1593981160466526,1.715,0.61,0.152
1593981160968343,1.753,0.61,0.152
1593981161470099,1.753,0.61,0.152
1593981161972037,1.715,0.61,0.152
1593981162473797,1.792,0.686,0.152
1593981162975650,1.715,0.61,0.152
1593981163477348,1.715,0.61,0.152
1593981163978968,1.676,0.61,0.152
1593981164483435,1.753,0.61,0.152
1593981164988353,1.715,0.61,0.152
1593981165492853,1.792,0.686,0.152
1593981165994537,1.715,0.61,0.152
1593981166496254,1.753,0.61,0.152
1593981166997959,1.753,0.61,0.152
1593981167499664,1.677,0.61,0.152
1593981168001414,1.715,0.61,0.152
1593981168503147,1.791,0.686,0.152
1593981169005112,1.715,0.61,0.152
1593981169507225,1.753,0.61,0.152
1593981170009066,1.753,0.61,0.152
1593981170510823,1.715,0.61,0.152
1593981171012596,1.677,0.61,0.152
1593981171514259,1.753,0.61,0.152
1593981172016075,1.715,0.61,0.152
1593981172517718,1.677,0.61,0.152
1593981173019336,1.677,0.61,0.152
1593981173520923,1.677,0.61,0.152
1593981174022655,1.677,0.61,0.152
1593981174524451,1.753,0.61,0.152
1593981175026138,1.715,0.61,0.152
1593981175527940,1.753,0.61,0.152
1593981176029930,1.715,0.61,0.152
1593981176531699,1.753,0.61,0.152
1593981177033406,1.677,0.61,0.152
1593981177535107,1.715,0.61,0.152
1593981178036917,1.677,0.61,0.152
1593981178541883,1.677,0.61,0.152
1593981179043601,1.791,0.686,0.152
1593981179547962,1.753,0.686,0.152
1593981180049722,1.715,0.61,0.152
1593981180551518,1.791,0.61,0.152
1593981181053288,1.715,0.61,0.152
