TimeStamp,Total Power,CPU Power,GPU Power
1593967677296956,4.381,1.828,0.152
1593967677798240,3.352,0.838,0.152
1593967678299504,2.896,0.457,0.152
1593967678800717,2.744,0.381,0.152
1593967679301963,2.82,0.381,0.152
1593967679805508,2.782,0.381,0.152
1593967680306745,2.782,0.381,0.152
1593967680808016,2.858,0.457,0.152
1593967681309247,2.782,0.381,0.152
1593967681810451,2.744,0.305,0.152
1593967682311843,2.82,0.381,0.152
1593967682813076,2.744,0.305,0.152
1593967683314280,2.782,0.305,0.152
1593967683815575,3.277,0.762,0.152
1593967684316816,4.114,1.6,0.152
1593967684820092,4.419,1.828,0.152
1593967685321305,4.495,1.904,0.152
1593967685822538,4.533,1.98,0.152
1593967686323750,4.495,1.904,0.152
1593967686824970,4.495,1.904,0.152
1593967687326193,4.533,1.904,0.152
1593967687827410,4.495,1.904,0.152
1593967688328606,4.533,1.904,0.152
1593967688829833,4.495,1.904,0.152
1593967689331044,4.495,1.904,0.152
1593967689834216,4.495,1.904,0.152
1593967690335452,4.571,1.98,0.152
1593967690836665,4.495,1.904,0.152
1593967691337855,4.495,1.904,0.152
1593967691839090,4.533,1.904,0.152
1593967692340306,4.495,1.904,0.152
1593967692841522,4.495,1.904,0.152
1593967693342737,4.495,1.904,0.152
1593967693843973,4.533,1.904,0.152
1593967694345181,4.457,1.904,0.152
1593967694848418,4.495,1.904,0.152
1593967695349633,4.495,1.904,0.152
1593967695850850,4.533,1.904,0.152
1593967696352066,4.533,1.98,0.152
1593967696853302,4.533,1.98,0.152
1593967697354516,4.571,1.98,0.152
1593967697855727,4.533,1.98,0.152
1593967698356950,4.571,1.98,0.152
1593967698858158,4.495,1.904,0.152
1593967699359504,4.495,1.904,0.152
1593967699862642,4.571,1.904,0.152
1593967700363872,4.457,1.904,0.152
1593967700865108,4.533,1.904,0.152
1593967701366392,4.495,1.904,0.152
1593967701867616,4.495,1.904,0.152
1593967702368861,4.495,1.904,0.152
1593967702870088,4.533,1.904,0.152
1593967703371391,4.533,1.98,0.152
1593967703872602,4.571,1.98,0.152
1593967704373798,4.533,1.98,0.152
1593967704876841,4.533,1.98,0.152
1593967705378117,4.571,1.98,0.152
1593967705879365,4.571,1.98,0.152
1593967706380593,4.533,1.98,0.152
1593967706881803,4.571,1.98,0.152
1593967707383032,4.533,1.98,0.152
1593967707884270,4.571,1.98,0.152
1593967708385475,4.571,1.98,0.152
1593967708886670,4.533,1.98,0.152
1593967709387962,4.609,1.98,0.152
1593967709891198,4.571,1.98,0.152
1593967710392437,4.533,1.98,0.152
1593967710893657,4.571,1.98,0.152
1593967711394872,4.571,1.98,0.152
1593967711896104,4.533,1.98,0.152
1593967712397309,4.533,1.98,0.152
1593967712898534,4.495,1.904,0.152
1593967713399778,4.571,1.98,0.152
1593967713900982,4.533,1.904,0.152
1593967714402200,4.533,1.98,0.152
1593967714905480,4.609,1.98,0.152
1593967715406693,4.533,1.904,0.152
1593967715907907,4.571,1.98,0.152
1593967716409135,4.607,1.98,0.152
1593967716910339,4.533,1.904,0.152
1593967717411557,4.609,1.98,0.152
1593967717912776,4.609,1.98,0.152
1593967718414013,4.495,1.904,0.152
1593967718915271,4.571,1.98,0.152
1593967719416634,4.571,1.98,0.152
1593967719917875,4.533,1.98,0.152
1593967720419083,4.533,1.98,0.152
1593967720920290,4.495,1.98,0.152
1593967721421513,4.836,1.98,0.152
1593967721922727,4.95,1.904,0.152
1593967722423943,4.912,1.98,0.152
1593967722925163,4.798,1.98,0.152
1593967723426383,4.607,1.98,0.152
1593967723927601,4.609,1.98,0.152
1593967724428830,4.571,1.98,0.152
1593967724931954,4.495,1.904,0.152
1593967725433172,4.571,1.98,0.152
1593967725934399,4.533,1.98,0.152
1593967726435611,4.533,1.98,0.152
1593967726936793,4.609,1.98,0.152
1593967727437997,4.533,1.98,0.152
1593967727939226,4.533,1.98,0.152
1593967728440501,4.533,1.904,0.152
1593967728941736,4.533,1.98,0.152
1593967729442950,4.533,1.98,0.152
1593967729946199,4.495,1.904,0.152
1593967730447414,4.571,1.98,0.152
1593967730948629,4.571,1.98,0.152
1593967731449824,4.495,1.904,0.152
1593967731951051,4.609,1.98,0.152
1593967732452250,4.533,1.98,0.152
1593967732953455,4.457,1.904,0.152
1593967733454656,4.571,1.98,0.152
1593967733955875,4.495,1.904,0.152
1593967734457077,4.495,1.904,0.152
1593967734960291,4.571,1.98,0.152
1593967735461528,4.533,1.904,0.152
1593967735962744,4.533,1.98,0.152
1593967736464311,4.533,1.98,0.152
1593967736965543,4.571,1.98,0.152
1593967737466750,4.571,1.98,0.152
1593967737967964,4.495,1.904,0.152
1593967738469181,4.571,1.98,0.152
1593967738970403,4.457,1.904,0.152
1593967739471614,4.495,1.904,0.152
1593967739974736,4.607,1.98,0.152
1593967740475980,4.533,1.98,0.152
1593967740977185,4.533,1.98,0.152
1593967741478412,4.609,1.98,0.152
1593967741979622,4.495,1.904,0.152
1593967742480823,4.533,1.98,0.152
1593967742982081,4.609,1.98,0.152
1593967743483320,4.533,1.98,0.152
1593967743984521,4.533,1.98,0.152
1593967744485729,4.533,1.904,0.152
1593967744988912,4.571,1.98,0.152
1593967745490135,4.495,1.904,0.152
1593967745991353,4.571,1.98,0.152
1593967746492581,4.571,1.98,0.152
1593967746993801,4.495,1.904,0.152
1593967747495061,4.571,1.98,0.152
1593967747996280,4.533,1.98,0.152
1593967748497497,4.533,1.98,0.152
1593967748998684,4.533,1.98,0.152
1593967749499901,4.533,1.98,0.152
1593967750004111,4.571,1.98,0.152
1593967750505351,4.495,1.904,0.152
1593967751006581,4.609,1.98,0.152
1593967751507797,4.571,1.98,0.152
1593967752008995,4.495,1.904,0.152
1593967752510551,4.609,1.98,0.152
1593967753011775,4.533,1.98,0.152
1593967753512963,4.533,1.904,0.152
1593967754014177,4.571,1.98,0.152
1593967754515404,4.533,1.98,0.152
1593967755018565,4.533,1.98,0.152
1593967755519790,4.571,1.98,0.152
1593967756021030,4.533,1.98,0.152
1593967756522225,4.533,1.98,0.152
1593967757023450,4.533,1.98,0.152
1593967757524679,4.571,1.98,0.152
1593967758025891,4.533,1.98,0.152
1593967758527128,4.533,1.98,0.152
1593967759028358,4.609,1.98,0.152
1593967759529557,4.571,1.98,0.152
1593967760032679,4.533,1.98,0.152
1593967760533905,4.609,1.98,0.152
1593967761035125,4.533,1.98,0.152
1593967761536326,4.571,1.98,0.152
1593967762037958,4.571,1.98,0.152
1593967762539201,4.533,1.98,0.152
1593967763040497,4.533,1.98,0.152
1593967763541726,4.571,1.98,0.152
1593967764042974,4.533,1.98,0.152
1593967764544276,4.571,1.98,0.152
1593967765047409,4.533,1.904,0.152
1593967765548655,4.533,1.98,0.152
1593967766049871,4.533,1.98,0.152
1593967766551088,4.495,1.904,0.152
1593967767052311,4.571,1.98,0.152
1593967767553496,4.571,1.98,0.152
1593967768054717,4.533,1.98,0.152
1593967768555945,4.609,1.98,0.152
1593967769057157,4.533,1.98,0.152
1593967769558382,4.533,1.904,0.152
1593967770061642,4.571,1.98,0.152
1593967770562885,4.495,1.904,0.152
1593967771064110,4.533,1.904,0.152
1593967771565319,4.533,1.904,0.152
1593967772066546,4.495,1.904,0.152
1593967772567781,4.571,1.98,0.152
1593967773068998,4.533,1.904,0.152
1593967773570235,4.533,1.98,0.152
1593967774071471,4.571,1.98,0.152
1593967774572673,4.533,1.904,0.152
1593967775073891,4.571,1.98,0.152
1593967775575104,4.607,1.98,0.152
1593967776076319,4.495,1.904,0.152
1593967776577575,4.571,1.98,0.152
1593967777078842,4.571,1.98,0.152
1593967777580078,4.495,1.904,0.152
1593967778081294,4.607,1.98,0.152
1593967778582509,4.495,1.904,0.152
1593967779083748,4.533,1.98,0.152
1593967779585016,4.571,1.98,0.152
1593967780088230,4.495,1.904,0.152
1593967780589456,4.571,1.98,0.152
1593967781090673,4.495,1.904,0.152
1593967781591902,4.533,1.98,0.152
1593967782093134,4.571,1.98,0.152
1593967782594349,4.495,1.904,0.152
1593967783095578,4.571,1.98,0.152
1593967783596813,4.533,1.98,0.152
1593967784098047,4.607,1.904,0.152
1593967784599270,4.912,1.98,0.152
1593967785102071,4.95,1.98,0.152
1593967785603285,4.95,1.98,0.152
1593967786104516,4.76,1.98,0.152
1593967786605750,4.569,1.98,0.152
1593967787106960,4.533,1.904,0.152
1593967787608508,4.533,1.98,0.152
1593967788109743,4.533,1.98,0.152
1593967788610961,4.533,1.904,0.152
1593967789112163,4.457,1.904,0.152
1593967789613356,4.533,1.98,0.152
1593967790116607,4.533,1.904,0.152
1593967790617833,4.457,1.904,0.152
1593967791119113,4.571,1.98,0.152
1593967791620338,4.533,1.904,0.152
1593967792121553,4.495,1.904,0.152
1593967792622819,4.571,1.98,0.152
1593967793124061,4.495,1.904,0.152
1593967793625266,4.533,1.98,0.152
1593967794126476,4.609,1.98,0.152
1593967794627709,4.533,1.98,0.152
1593967795130964,4.571,1.98,0.152
1593967795632186,4.609,1.98,0.152
1593967796133421,4.533,1.98,0.152
1593967796634663,4.571,1.98,0.152
1593967797135950,4.533,1.98,0.152
1593967797637180,4.571,1.98,0.152
1593967798138420,4.571,1.98,0.152
1593967798639649,4.495,1.904,0.152
1593967799140875,4.571,1.98,0.152
1593967799642096,4.533,1.98,0.152
1593967800145211,4.533,1.98,0.152
1593967800646439,4.609,1.98,0.152
1593967801147673,4.533,1.98,0.152
1593967801648886,4.495,1.904,0.152
1593967802150101,4.571,1.98,0.152
1593967802651331,4.495,1.904,0.152
1593967803152518,4.533,1.98,0.152
1593967803653722,4.609,1.98,0.152
1593967804154936,4.533,1.98,0.152
1593967804656134,4.571,1.98,0.152
1593967805159499,4.533,1.904,0.152
1593967805660727,4.571,1.98,0.152
1593967806161939,4.571,1.904,0.152
1593967806663140,4.495,1.904,0.152
1593967807164346,4.533,1.904,0.152
1593967807665554,4.457,1.904,0.152
1593967808166742,4.457,1.904,0.152
1593967808667949,4.495,1.904,0.152
1593967809169159,4.495,1.904,0.152
1593967809670353,4.457,1.904,0.152
1593967810173502,4.571,1.98,0.152
1593967810674707,4.495,1.904,0.152
1593967811175914,4.457,1.904,0.152
1593967811677160,4.571,1.98,0.152
1593967812178398,4.495,1.904,0.152
1593967812679615,4.533,1.98,0.152
1593967813180831,4.495,1.98,0.152
1593967813682065,4.533,1.98,0.152
1593967814183291,4.533,1.98,0.152
1593967814684533,4.495,1.98,0.152
1593967815187664,4.571,1.98,0.152
1593967815688871,4.495,1.904,0.152
1593967816190087,4.571,1.98,0.152
1593967816691332,4.571,1.98,0.152
1593967817192538,4.457,1.904,0.152
1593967817693760,4.533,1.98,0.152
1593967818195000,4.571,1.98,0.152
1593967818696293,4.495,1.904,0.152
1593967819197548,4.571,1.98,0.152
1593967819698767,4.571,1.98,0.152
1593967820202115,4.495,1.904,0.152
1593967820703811,4.533,1.904,0.152
1593967821205061,4.533,1.904,0.152
1593967821706290,4.533,1.98,0.152
1593967822207647,4.571,1.98,0.152
1593967822708860,4.533,1.904,0.152
1593967823210090,4.571,1.98,0.152
1593967823711298,4.533,1.904,0.152
1593967824212599,4.533,1.904,0.152
1593967824713832,4.571,1.98,0.152
1593967825216989,4.495,1.904,0.152
1593967825718218,4.533,1.98,0.152
1593967826219454,4.571,1.98,0.152
1593967826720667,4.495,1.904,0.152
1593967827221893,4.571,1.98,0.152
1593967827723110,4.533,1.98,0.152
1593967828224319,4.533,1.98,0.152
1593967828725562,4.571,1.98,0.152
1593967829226776,4.571,1.98,0.152
1593967829727989,4.571,1.98,0.152
1593967830231120,4.533,1.98,0.152
1593967830732403,4.533,1.98,0.152
1593967831233643,4.533,1.904,0.152
1593967831734875,4.533,1.98,0.152
1593967832236102,4.533,1.98,0.152
1593967832737322,4.533,1.98,0.152
1593967833238533,4.571,1.98,0.152
1593967833739757,4.571,1.98,0.152
1593967834240967,4.533,1.98,0.152
1593967834742235,4.571,1.98,0.152
1593967835245480,4.571,1.98,0.152
1593967835746718,4.571,1.98,0.152
1593967836247930,4.571,1.98,0.152
1593967836749166,4.495,1.904,0.152
1593967837250403,4.571,1.98,0.152
1593967837751611,4.571,1.98,0.152
1593967838252805,4.495,1.904,0.152
1593967838754502,4.571,1.98,0.152
1593967839255743,4.533,1.98,0.152
1593967839756983,4.533,1.98,0.152
1593967840260118,4.571,1.98,0.152
1593967840761326,4.533,1.98,0.152
1593967841262542,4.533,1.98,0.152
1593967841763757,4.533,1.904,0.152
1593967842264968,4.533,1.904,0.152
1593967842766218,4.571,1.98,0.152
1593967843267451,4.533,1.904,0.152
1593967843768650,4.571,1.98,0.152
1593967844269887,4.571,1.98,0.152
1593967844771100,4.495,1.904,0.152
1593967845274437,4.571,1.98,0.152
1593967845775694,4.571,1.98,0.152
1593967846276922,4.495,1.904,0.152
1593967846778137,4.609,1.98,0.152
1593967847279401,4.76,1.98,0.152
1593967847780688,4.912,1.98,0.152
1593967848281956,4.988,1.98,0.152
1593967848783234,4.912,1.98,0.152
1593967849284476,4.645,1.98,0.152
1593967849785698,4.571,1.98,0.152
1593967850288802,4.533,1.904,0.152
1593967850790023,4.571,1.98,0.152
1593967851291243,4.495,1.904,0.152
1593967851792463,4.533,1.98,0.152
1593967852293708,4.533,1.98,0.152
1593967852794904,4.495,1.904,0.152
1593967853296107,4.571,1.98,0.152
1593967853797337,4.533,1.98,0.152
1593967854298560,4.533,1.98,0.152
1593967854799779,4.571,1.98,0.152
1593967855302920,4.533,1.98,0.152
1593967855804141,4.533,1.98,0.152
1593967856305438,4.571,1.98,0.152
1593967856806680,4.533,1.98,0.152
1593967857307887,4.533,1.904,0.152
1593967857809082,4.495,1.904,0.152
1593967858310297,4.571,1.98,0.152
1593967858811516,4.495,1.904,0.152
1593967859312708,4.495,1.904,0.152
1593967859813928,4.609,1.98,0.152
1593967860317436,4.533,1.98,0.152
1593967860818651,4.533,1.98,0.152
1593967861319877,4.495,1.904,0.152
1593967861821074,4.495,1.904,0.152
1593967862322267,4.457,1.904,0.152
1593967862823578,4.571,1.98,0.152
1593967863324806,4.533,1.904,0.152
1593967863826006,4.457,1.904,0.152
1593967864327259,4.571,1.98,0.152
1593967864828583,4.533,1.904,0.152
1593967865331797,4.495,1.904,0.152
1593967865833827,4.571,1.98,0.152
1593967866335058,4.533,1.904,0.152
1593967866836274,4.495,1.904,0.152
1593967867337467,4.533,1.904,0.152
1593967867838679,4.533,1.98,0.152
1593967868339892,4.533,1.98,0.152
1593967868841084,4.533,1.98,0.152
1593967869342291,4.571,1.98,0.152
1593967869843570,4.571,1.98,0.152
1593967870346707,4.495,1.904,0.152
1593967870847939,4.609,1.98,0.152
1593967871349163,4.533,1.98,0.152
1593967871850362,4.495,1.904,0.152
1593967872352087,4.609,1.98,0.152
1593967872853331,4.533,1.904,0.152
1593967873354550,4.533,1.98,0.152
1593967873855773,4.571,1.98,0.152
1593967874357008,4.533,1.98,0.152
1593967874858240,4.533,1.98,0.152
1593967875361422,4.798,1.98,0.152
1593967875862654,4.609,1.98,0.152
1593967876363875,4.571,1.98,0.152
1593967876865132,4.533,1.98,0.152
1593967877366361,4.571,1.98,0.152
1593967877867567,4.533,1.98,0.152
1593967878368778,4.495,1.904,0.152
1593967878869999,4.609,1.98,0.152
1593967879371215,4.495,1.904,0.152
1593967879872418,4.533,1.904,0.152
1593967880375772,4.609,1.98,0.152
1593967880876980,4.495,1.904,0.152
1593967881378184,4.533,1.98,0.152
1593967881879448,4.571,1.98,0.152
1593967882380682,4.533,1.98,0.152
1593967882881899,4.533,1.98,0.152
1593967883383116,4.571,1.98,0.152
1593967883884338,4.533,1.98,0.152
1593967884385550,4.533,1.98,0.152
1593967884886778,4.533,1.98,0.152
1593967885390062,4.571,1.98,0.152
1593967885891250,4.533,1.904,0.152
1593967886392458,4.533,1.98,0.152
1593967886893685,4.571,1.98,0.152
1593967887394895,4.495,1.904,0.152
1593967887896112,4.571,1.98,0.152
1593967888397343,4.609,1.98,0.152
1593967888898536,4.533,1.98,0.152
1593967889399762,4.571,1.98,0.152
1593967889900969,4.571,1.98,0.152
1593967890402185,4.533,1.98,0.152
1593967890903412,4.609,1.98,0.152
1593967891405081,4.533,1.98,0.152
1593967891906311,4.571,1.98,0.152
1593967892407588,4.571,1.98,0.152
1593967892908833,4.495,1.904,0.152
1593967893410075,4.571,1.98,0.152
1593967893911294,4.495,1.904,0.152
1593967894412534,4.533,1.98,0.152
1593967894913767,4.571,1.98,0.152
1593967895416992,4.533,1.98,0.152
1593967895918210,4.571,1.98,0.152
1593967896419446,4.495,1.904,0.152
1593967896920654,4.533,1.98,0.152
1593967897421858,4.571,1.98,0.152
1593967897923099,4.571,1.98,0.152
1593967898424327,4.571,1.98,0.152
1593967898925568,4.533,1.98,0.152
1593967899426836,4.571,1.98,0.152
1593967899928143,4.571,1.98,0.152
1593967900431290,4.533,1.98,0.152
1593967900932509,4.533,1.98,0.152
1593967901433727,4.533,1.98,0.152
1593967901934977,4.533,1.98,0.152
1593967902436202,4.571,1.98,0.152
1593967902937425,4.533,1.98,0.152
1593967903438663,4.571,1.98,0.152
1593967903939865,4.533,1.98,0.152
1593967904441090,4.533,1.98,0.152
1593967904942301,4.609,1.98,0.152
1593967905445765,4.533,1.904,0.152
1593967905946985,4.571,1.98,0.152
1593967906448394,4.569,1.98,0.152
1593967906949626,4.495,1.904,0.152
1593967907450834,4.609,1.98,0.152
1593967907952037,4.571,1.98,0.152
1593967908453264,4.533,1.98,0.152
1593967908954867,4.571,1.98,0.152
1593967909456093,4.533,1.98,0.152
1593967909960319,4.533,1.98,0.152
1593967910463256,4.836,1.98,0.152
1593967910964497,4.874,1.904,0.152
1593967911465728,4.95,1.98,0.152
1593967911966922,4.76,1.98,0.152
1593967912468159,4.607,1.98,0.152
1593967912969380,4.609,1.98,0.152
1593967913470595,4.495,1.904,0.152
1593967913971812,4.571,1.98,0.152
1593967914473041,4.571,1.98,0.152
1593967914974252,4.495,1.904,0.152
1593967915477709,4.609,1.98,0.152
1593967915978940,4.571,1.98,0.152
1593967916480190,4.533,1.98,0.152
1593967916981862,4.609,1.98,0.152
1593967917483097,4.533,1.98,0.152
1593967917984319,4.533,1.98,0.152
1593967918485527,4.571,1.98,0.152
1593967918986767,4.533,1.98,0.152
1593967919488001,4.533,1.98,0.152
1593967919989211,4.533,1.904,0.152
1593967920492632,4.609,1.98,0.152
1593967920993838,4.533,1.98,0.152
1593967921495037,4.495,1.904,0.152
1593967921996312,4.571,1.98,0.152
1593967922497548,4.533,1.98,0.152
1593967922998754,4.495,1.904,0.152
1593967923499973,4.571,1.98,0.152
1593967924001203,4.533,1.904,0.152
1593967924502432,4.533,1.98,0.152
1593967925003756,4.571,1.98,0.152
1593967925506989,4.533,1.98,0.152
1593967926008284,4.571,1.98,0.152
1593967926509540,4.533,1.98,0.152
1593967927010761,4.571,1.98,0.152
1593967927511983,4.533,1.98,0.152
1593967928013182,4.495,1.904,0.152
1593967928514390,4.609,1.98,0.152
1593967929015621,4.533,1.904,0.152
1593967929516825,4.533,1.904,0.152
1593967930018073,4.607,1.98,0.152
1593967930521383,4.533,1.98,0.152
1593967931022564,4.533,1.98,0.152
1593967931523773,4.607,1.98,0.152
1593967932024977,4.533,1.98,0.152
1593967932526152,4.495,1.904,0.152
1593967933027344,4.571,1.98,0.152
1593967933528577,4.571,1.98,0.152
1593967934029771,4.533,1.98,0.152
1593967934531021,4.533,1.98,0.152
1593967935032238,4.609,1.98,0.152
1593967935535376,4.533,1.904,0.152
1593967936036573,4.495,1.904,0.152
1593967936537783,4.609,1.98,0.152
1593967937038991,4.495,1.904,0.152
1593967937540194,4.533,1.98,0.152
1593967938041407,4.609,1.98,0.152
1593967938542646,4.533,1.98,0.152
1593967939043854,4.533,1.98,0.152
1593967939545088,4.609,1.98,0.152
1593967940046306,4.533,1.98,0.152
1593967940549521,4.533,1.98,0.152
1593967941050737,4.571,1.98,0.152
1593967941551954,4.571,1.98,0.152
1593967942053152,4.533,1.904,0.152
1593967942554395,4.571,1.98,0.152
1593967943055625,4.571,1.98,0.152
1593967943556826,4.495,1.904,0.152
1593967944058045,4.533,1.98,0.152
1593967944559277,4.571,1.98,0.152
1593967945060509,4.495,1.904,0.152
1593967945563631,4.571,1.98,0.152
1593967946064865,4.571,1.98,0.152
1593967946566084,4.533,1.904,0.152
1593967947067296,4.571,1.98,0.152
1593967947568685,4.571,1.98,0.152
1593967948069897,4.533,1.904,0.152
1593967948571105,4.533,1.98,0.152
1593967949072329,4.533,1.98,0.152
1593967949573544,4.533,1.98,0.152
1593967950074815,4.495,1.904,0.152
1593967950578320,4.609,1.98,0.152
1593967951079543,4.533,1.98,0.152
1593967951580743,4.457,1.904,0.152
1593967952082001,4.533,1.904,0.152
1593967952583233,4.533,1.98,0.152
1593967953084441,4.457,1.904,0.152
1593967953585654,4.571,1.98,0.152
1593967954086881,4.533,1.98,0.152
1593967954588076,4.533,1.98,0.152
1593967955089300,4.571,1.98,0.152
1593967955592587,4.533,1.98,0.152
1593967956093798,4.533,1.98,0.152
1593967956595018,4.571,1.98,0.152
1593967957096249,4.533,1.98,0.152
1593967957597465,4.571,1.98,0.152
1593967958098687,4.533,1.904,0.152
1593967958599917,4.609,1.98,0.152
1593967959101145,4.571,1.98,0.152
1593967959602366,4.533,1.98,0.152
1593967960103645,4.609,1.98,0.152
1593967960604873,4.571,1.98,0.152
1593967961106110,4.533,1.98,0.152
1593967961607332,4.533,1.98,0.152
1593967962108554,4.533,1.904,0.152
1593967962609755,4.571,1.98,0.152
1593967963110975,4.533,1.98,0.152
1593967963612190,4.495,1.904,0.152
1593967964113466,4.571,1.98,0.152
1593967964614697,4.533,1.904,0.152
1593967965115932,4.571,1.98,0.152
1593967965619244,4.533,1.98,0.152
1593967966120463,4.495,1.904,0.152
1593967966621673,4.571,1.98,0.152
1593967967122888,4.533,1.904,0.152
1593967967624109,4.533,1.904,0.152
1593967968125331,4.609,1.98,0.152
1593967968626544,4.495,1.904,0.152
1593967969127764,4.571,1.98,0.152
1593967969629467,4.533,1.98,0.152
1593967970130690,4.533,1.98,0.152
1593967970633948,4.571,1.98,0.152
1593967971135154,4.495,1.904,0.152
1593967971636364,4.571,1.98,0.152
1593967972137595,4.571,1.98,0.152
1593967972638815,4.533,1.904,0.152
1593967973140043,4.721,1.98,0.152
1593967973641285,4.874,1.98,0.152
1593967974142509,4.912,1.98,0.152
1593967974660111,4.988,1.98,0.152
1593967975161343,4.683,1.98,0.152
1593967975664490,4.571,1.98,0.152
1593967976165718,4.607,1.98,0.152
1593967976666964,4.533,1.98,0.152
1593967977168198,4.533,1.98,0.152
1593967977669447,4.533,1.98,0.152
1593967978178258,4.609,1.98,0.152
1593967978679560,4.495,1.904,0.152
1593967979180803,4.495,1.904,0.152
1593967979682072,4.571,1.98,0.152
1593967980183322,4.533,1.904,0.152
1593967980686442,4.533,1.98,0.152
1593967981187680,4.571,1.98,0.152
1593967981688923,4.533,1.98,0.152
1593967982190133,4.571,1.98,0.152
1593967982691353,4.533,1.98,0.152
1593967983192574,4.533,1.98,0.152
1593967983693790,4.571,1.98,0.152
1593967984194999,4.533,1.98,0.152
1593967984696223,4.571,1.98,0.152
1593967985197447,4.571,1.98,0.152
1593967985700538,4.571,1.98,0.152
1593967986201776,4.609,1.98,0.152
1593967986703032,4.533,1.904,0.152
1593967987204319,4.533,1.98,0.152
1593967987705552,4.609,1.98,0.152
1593967988206772,4.533,1.98,0.152
1593967988707976,4.533,1.904,0.152
1593967989209191,4.571,1.98,0.152
1593967989710409,4.495,1.904,0.152
1593967990211633,4.533,1.98,0.152
1593967990714856,4.571,1.98,0.152
1593967991216081,4.533,1.98,0.152
1593967991717261,4.533,1.98,0.152
1593967992218479,4.571,1.98,0.152
1593967992719696,4.571,1.98,0.152
1593967993220869,4.533,1.98,0.152
1593967993722117,4.571,1.98,0.152
1593967994223359,4.571,1.98,0.152
1593967994724568,4.495,1.904,0.152
1593967995225761,4.571,1.98,0.152
1593967995728965,4.571,1.98,0.152
1593967996230188,4.495,1.904,0.152
1593967996731445,4.533,1.98,0.152
1593967997232682,4.571,1.98,0.152
1593967997733893,4.495,1.904,0.152
1593967998235109,4.533,1.98,0.152
1593967998736338,4.571,1.98,0.152
1593967999237558,4.533,1.98,0.152
1593967999738733,4.533,1.904,0.152
1593968000239968,4.533,1.98,0.152
1593968000743094,4.571,1.98,0.152
1593968001244296,4.495,1.904,0.152
1593968001745512,4.571,1.98,0.152
1593968002246734,4.533,1.98,0.152
1593968002747927,4.495,1.904,0.152
1593968003249514,4.609,1.98,0.152
1593968003750744,4.571,1.98,0.152
1593968004251962,4.495,1.904,0.152
1593968004753188,4.571,1.98,0.152
1593968005254423,4.533,1.98,0.152
1593968005757621,4.533,1.98,0.152
1593968006258838,4.571,1.98,0.152
1593968006760075,4.533,1.98,0.152
1593968007261286,4.533,1.98,0.152
1593968007762543,4.495,1.904,0.152
1593968008263772,4.571,1.98,0.152
1593968008764964,4.533,1.98,0.152
1593968009266135,4.495,1.904,0.152
1593968009767324,4.571,1.98,0.152
1593968010268499,4.533,1.98,0.152
