timestamp	VIRTUAL_SCALING	CPU0_F	CPU1_F	CPU2_F	CPU3_F	CPU4_F	CPU5_F	GPU_FREQ	CPU_GOVERNOR	EMC_F	TEMP0	TEMP1	TEMP2	TEMP3	TEMP4	TEMP5	TEMP6	TEMP7
1592836403755807382	1	1113	806	806	1113	1113	1113	114750000	performance	665	33	33	31	33	29	29	100	32
1592836404014813111 	0	1113	806	806	1113	1113	1113	114750000	performance	665	33	33	31	32	29	29	100	32
1592836405922432216	1	1113	806	806	1113	1113	1113	114750000	performance	665	32	32	30	32	29	28	100	31
1592836406414347648 	0	1113	806	806	1113	1112	1112	114750000	performance	665	32	32	30	32	29	28	100	31
1592836408405491129	1	1113	806	806	1113	1113	1113	114750000	performance	665	32	32	30	32	29	28	100	31
1592836408826978970 	0	1113	806	806	1113	1113	1113	114750000	performance	665	32	32	30	32	29	28	100	31
1592836410794504631	1	1113	806	806	1113	1113	1113	114750000	performance	665	32	32	30	32	29	28	100	31
1592836411214662374 	0	1113	805	806	1113	1113	1113	114750000	performance	665	32	32	30	32	29	28	100	31
1592836413150455252	1	1113	806	806	1113	1113	1113	114750000	performance	665	31	31	30	32	29	28	100	31
1592836413438520353 	0	1113	806	806	1113	1111	1113	114750000	performance	665	32	32	29	31	29	28	100	31
1592836415514587849	1	1113	806	806	1113	1113	1113	114750000	performance	665	31	31	30	32	29	28	100	30
1592836415902857027 	0	1113	806	806	1113	1114	1115	114750000	performance	665	31	31	29	32	29	27	100	30
1592836418026350510	1	1113	806	806	1113	1113	1113	114750000	performance	665	31	31	29	31	29	27	100	31
1592836418390555738 	0	1114	806	806	1113	1113	1112	114750000	performance	665	31	31	29	31	29	27	100	31
1592836420498394774	1	1113	806	806	1113	1113	1113	114750000	performance	665	31	31	29	31	29	27	100	30
1592836420846453664 	0	1113	806	806	1113	1113	1111	114750000	performance	665	31	31	29	31	29	27	100	30
1592836422926443777	1	1113	806	806	1113	1113	1113	114750000	performance	665	31	31	29	31	29	27	100	30
1592836423418566003 	0	1114	806	806	1114	1113	1113	114750000	performance	665	31	31	29	31	29	27	100	30
1592836425506357276	1	1113	806	806	1113	1113	1113	114750000	performance	665	31	31	30	31	29	27	100	30
1592836425990341115 	0	1113	805	806	1113	1113	1113	114750000	performance	665	31	31	29	31	29	27	100	30
1592836428110413674	1	1113	806	806	1113	1113	1113	114750000	performance	665	31	31	29	31	29	27	100	30
1592836428582413508 	0	1114	806	806	1114	1113	1113	114750000	performance	665	31	31	29	31	29	27	100	30
1592836430678392262	1	1113	806	806	1113	1113	1113	114750000	performance	665	31	31	29	31	29	27	100	30
1592836431158487218 	0	1113	806	806	1113	1113	1115	114750000	performance	665	31	31	29	31	29	27	100	30
1592836433250360154	1	1113	806	806	1113	1113	1113	114750000	performance	665	31	31	29	31	29	27	100	30
1592836433742587601 	0	1113	806	806	1113	1112	1113	114750000	performance	665	31	31	29	31	29	27	100	30
1592836435722224294	1	1113	806	806	1113	1113	1113	114750000	performance	665	31	31	29	31	29	27	100	30
1592836436250395021 	0	1112	806	806	1114	1112	1113	114750000	performance	665	31	31	29	31	29	27	100	30
1592836438398511463	1	1113	806	806	1113	1113	1113	114750000	performance	665	31	31	29	31	29	27	100	30
1592836438898680203 	0	1114	806	806	1113	1113	1113	114750000	performance	665	31	31	29	31	29	27	100	30
1592836440962482546	1	1113	806	806	1113	1113	1113	114750000	performance	665	31	31	29	31	28	27	100	30
1592836441474474134 	0	1113	805	806	1112	1114	1114	114750000	performance	665	31	31	29	31	28	27	100	30
1592836443338454008	1	1113	806	806	1113	1113	1113	114750000	performance	665	31	31	29	31	28	27	100	30
1592836443774320477 	0	1114	806	807	1113	1112	1112	114750000	performance	665	31	31	29	31	28	27	100	30
1592836445678421966	1	1113	806	806	1113	1113	1113	114750000	performance	665	31	31	29	31	28	27	100	30
1592836446002505616 	0	1112	806	806	1112	1113	1113	114750000	performance	665	31	31	29	31	28	27	100	30
1592836448094682955	1	1113	806	806	1113	1113	1113	114750000	performance	665	31	31	29	31	28	27	100	30
1592836448514402446 	0	1113	806	806	1113	1113	1113	114750000	performance	665	31	31	29	31	28	27	100	30
1592836450558538386	1	1113	806	806	1113	1113	1113	114750000	performance	665	31	31	29	31	28	27	100	30
1592836450858627432 	0	1112	806	806	1114	1113	1113	114750000	performance	665	31	31	29	31	28	27	100	30
1592836452934473500	1	1113	806	806	1113	1113	1113	114750000	performance	665	31	31	29	31	28	27	100	30
1592836453422357298 	0	1113	806	806	1113	1113	1113	114750000	performance	665	31	31	29	31	28	27	100	30
1592836455486962559	1	1113	806	806	1113	1113	1113	114750000	performance	665	31	31	29	31	28	27	100	30
1592836455870392838 	0	1113	806	806	1113	1113	1113	114750000	performance	665	31	31	29	31	28	27	100	30
1592836457926568948	1	1113	806	806	1113	1113	1113	114750000	performance	665	31	31	29	31	28	27	100	30
1592836458310531024 	0	1114	806	806	1113	1113	1113	114750000	performance	665	31	31	29	30	28	27	100	30
1592836460414882782	1	1113	806	806	1113	1113	1113	114750000	performance	665	31	31	29	31	28	27	100	30
1592836460782598259 	0	1114	806	806	1113	1113	1112	114750000	performance	665	31	31	29	31	28	27	100	30
1592836462885785943	1	1113	806	806	1113	1113	1113	114750000	performance	665	31	31	29	30	28	27	100	30
1592836463366699494 	0	1114	806	806	1113	1113	1113	114750000	performance	665	31	30	29	31	28	27	100	30
