TimeStamp,Total Power,CPU Power,GPU Power
1593887744705206,1.448,0.457,0.152
1593887745207893,1.372,0.381,0.152
1593887745710753,1.372,0.381,0.152
1593887746213608,1.258,0.381,0.152
1593887746716483,1.296,0.381,0.152
1593887747219902,1.258,0.305,0.152
1593887747722670,1.372,0.381,0.152
1593887748225573,1.296,0.305,0.152
1593887748728422,1.22,0.228,0.152
1593887749231201,1.22,0.305,0.152
1593887749734373,1.296,0.381,0.152
1593887750237675,1.486,0.457,0.152
1593887750740687,1.372,0.457,0.152
1593887751243807,1.334,0.457,0.152
1593887751747110,1.41,0.457,0.152
1593887752250012,1.448,0.457,0.152
1593887752753329,1.486,0.534,0.152
1593887753256298,1.525,0.534,0.152
1593887753759453,1.525,0.534,0.152
1593887754262445,1.525,0.534,0.152
1593887754765518,1.448,0.457,0.152
1593887755268629,1.486,0.534,0.152
1593887755771892,1.448,0.534,0.152
1593887756275144,1.448,0.534,0.152
1593887756778036,1.486,0.457,0.152
1593887757281175,1.486,0.534,0.152
1593887757784301,1.486,0.534,0.152
1593887758287473,1.486,0.534,0.152
1593887758790988,1.486,0.534,0.152
1593887759294081,1.486,0.534,0.152
1593887759797235,1.448,0.457,0.152
1593887760301743,1.448,0.457,0.152
1593887760804829,1.486,0.534,0.152
1593887761308560,1.41,0.457,0.152
1593887761811686,1.448,0.457,0.152
1593887762315277,1.486,0.534,0.152
1593887762818417,1.448,0.534,0.152
1593887763324107,1.486,0.457,0.152
1593887763827664,1.448,0.457,0.152
1593887764330528,1.486,0.534,0.152
1593887764833408,1.486,0.534,0.152
1593887765336861,1.448,0.457,0.152
1593887765839160,1.639,0.534,0.152
1593887766341118,1.677,0.534,0.152
1593887766843094,1.525,0.457,0.152
1593887767345025,1.525,0.534,0.152
1593887767849011,1.486,0.534,0.152
1593887768354124,1.486,0.534,0.152
1593887768855941,1.448,0.457,0.152
1593887769357785,1.486,0.534,0.152
1593887769859670,1.41,0.457,0.152
1593887770361474,1.372,0.457,0.152
1593887770863194,1.486,0.457,0.152
1593887771365153,1.486,0.457,0.152
1593887771867731,1.486,0.534,0.152
1593887772369571,1.525,0.534,0.152
1593887772871438,1.486,0.534,0.152
1593887773375988,1.525,0.534,0.152
1593887773877775,1.448,0.534,0.152
1593887774379598,1.41,0.457,0.152
1593887774881358,1.448,0.534,0.152
1593887775383226,1.448,0.457,0.152
1593887775885123,1.486,0.534,0.152
1593887776386907,1.486,0.534,0.152
1593887776888814,1.486,0.457,0.152
1593887777399496,1.525,0.534,0.152
1593887777901796,1.486,0.534,0.152
1593887778404334,1.525,0.534,0.152
1593887778906122,1.41,0.457,0.152
1593887779407908,1.448,0.534,0.152
1593887779909765,1.448,0.534,0.152
1593887780411693,1.41,0.457,0.152
1593887780913518,1.486,0.534,0.152
1593887781415241,1.41,0.457,0.152
1593887781918017,1.525,0.534,0.152
1593887782421260,1.486,0.534,0.152
1593887782924160,1.448,0.457,0.152
1593887783432056,1.448,0.457,0.152
1593887783937272,1.372,0.457,0.152
1593887784441056,1.372,0.457,0.152
1593887784944263,1.486,0.457,0.152
1593887785447160,1.486,0.534,0.152
1593887785957944,1.525,0.534,0.152
1593887786461359,1.525,0.534,0.152
1593887786965020,1.486,0.534,0.152
1593887787467944,1.525,0.534,0.152
1593887787970882,1.525,0.534,0.152
1593887788477432,1.448,0.534,0.152
1593887788979948,1.448,0.457,0.152
1593887789481748,1.486,0.534,0.152
1593887789983564,1.448,0.457,0.152
1593887790485492,1.486,0.534,0.152
1593887790987544,1.486,0.534,0.152
1593887791489396,1.486,0.534,0.152
1593887791991263,1.525,0.534,0.152
1593887792493079,1.525,0.534,0.152
1593887792994710,1.41,0.457,0.152
1593887793496443,1.41,0.457,0.152
1593887793998301,1.486,0.534,0.152
1593887794500129,1.448,0.534,0.152
1593887795002024,1.448,0.457,0.152
1593887795503947,1.486,0.534,0.152
1593887796005796,1.486,0.457,0.152
1593887796507676,1.525,0.534,0.152
1593887797009478,1.448,0.534,0.152
1593887797511368,1.486,0.534,0.152
1593887798013117,1.41,0.457,0.152
1593887798514836,1.448,0.457,0.152
1593887799016698,1.486,0.534,0.152
1593887799518502,1.486,0.534,0.152
1593887800020397,1.486,0.534,0.152
1593887800522244,1.448,0.457,0.152
1593887801024152,1.486,0.534,0.152
1593887801525902,1.486,0.534,0.152
1593887802031717,1.41,0.457,0.152
1593887802533489,1.486,0.534,0.152
1593887803035275,1.448,0.534,0.152
1593887803538558,1.525,0.534,0.152
1593887804041580,1.486,0.534,0.152
1593887804547945,1.486,0.534,0.152
1593887805050879,1.525,0.534,0.152
1593887805553650,1.563,0.534,0.152
1593887806056722,1.486,0.534,0.152
1593887806559625,1.41,0.457,0.152
1593887807063027,1.486,0.534,0.152
1593887807566667,1.525,0.534,0.152
1593887808072083,1.563,0.534,0.152
1593887808575052,1.486,0.534,0.152
1593887809078300,1.525,0.534,0.152
1593887809584884,1.486,0.534,0.152
1593887810087961,1.525,0.534,0.152
1593887810591261,1.525,0.534,0.152
1593887811094261,1.525,0.534,0.152
1593887811597635,1.448,0.534,0.152
1593887812100641,1.41,0.457,0.152
1593887812604063,1.486,0.534,0.152
1593887813106931,1.486,0.534,0.152
1593887813610168,1.486,0.534,0.152
1593887814116312,1.486,0.534,0.152
1593887814622784,1.525,0.534,0.152
1593887815125752,1.486,0.534,0.152
1593887815628795,1.525,0.534,0.152
1593887816131781,1.448,0.534,0.152
1593887816635062,1.41,0.457,0.152
1593887817137933,1.486,0.534,0.152
1593887817640873,1.486,0.534,0.152
1593887818144139,1.486,0.457,0.152
1593887818647233,1.525,0.534,0.152
1593887819157994,1.486,0.534,0.152
1593887819664467,1.525,0.534,0.152
1593887820167419,1.486,0.534,0.152
1593887820670402,1.486,0.534,0.152
1593887821173462,1.41,0.457,0.152
1593887821676459,1.486,0.457,0.152
1593887822179503,1.486,0.534,0.152
1593887822682439,1.448,0.457,0.152
1593887823185620,1.525,0.534,0.152
1593887823688970,1.486,0.534,0.152
1593887824192063,1.525,0.457,0.152
1593887824700316,1.486,0.534,0.152
1593887825203260,1.525,0.534,0.152
1593887825706291,1.448,0.534,0.152
1593887826209267,1.486,0.534,0.152
1593887826712149,1.525,0.534,0.152
1593887827214994,1.525,0.534,0.152
1593887827718022,1.486,0.534,0.152
1593887828220959,1.525,0.534,0.152
1593887828722828,1.486,0.534,0.152
1593887829224755,1.525,0.534,0.152
1593887829726610,1.486,0.534,0.152
1593887830229905,1.525,0.534,0.152
1593887830731936,1.525,0.534,0.152
1593887831233790,1.486,0.534,0.152
1593887831735759,1.448,0.534,0.152
1593887832237624,1.525,0.534,0.152
1593887832739486,1.525,0.534,0.152
1593887833241342,1.486,0.534,0.152
1593887833743092,1.525,0.534,0.152
1593887834244873,1.448,0.457,0.152
1593887834746644,1.486,0.534,0.152
1593887835248393,1.41,0.457,0.152
1593887835750253,1.372,0.457,0.152
1593887836252175,1.448,0.457,0.152
1593887836753998,1.486,0.534,0.152
1593887837255953,1.486,0.534,0.152
1593887837757775,1.486,0.534,0.152
1593887838265041,1.448,0.457,0.152
1593887838767044,1.525,0.534,0.152
1593887839268887,1.486,0.534,0.152
1593887839770648,1.448,0.534,0.152
1593887840272453,1.486,0.534,0.152
1593887840774204,1.448,0.457,0.152
1593887841276182,1.486,0.457,0.152
1593887841778049,1.486,0.457,0.152
1593887842279838,1.41,0.457,0.152
1593887842781584,1.486,0.457,0.152
1593887843283428,1.486,0.534,0.152
1593887843785266,1.41,0.457,0.152
1593887844287086,1.448,0.457,0.152
1593887844788817,1.41,0.457,0.152
1593887845290631,1.448,0.457,0.152
1593887845792634,1.525,0.534,0.152
1593887846294581,1.525,0.534,0.152
1593887846796448,1.525,0.534,0.152
1593887847298394,1.563,0.534,0.152
1593887847800267,1.525,0.534,0.152
1593887848302082,1.448,0.534,0.152
1593887848803926,1.448,0.534,0.152
1593887849305653,1.41,0.457,0.152
1593887849807483,1.448,0.457,0.152
1593887850309340,1.486,0.457,0.152
1593887850811199,1.486,0.534,0.152
1593887851320730,1.525,0.534,0.152
1593887851823608,1.486,0.534,0.152
1593887852329247,1.486,0.534,0.152
1593887852832595,1.486,0.534,0.152
1593887853335561,1.41,0.457,0.152
1593887853838532,1.486,0.534,0.152
1593887854341546,1.41,0.457,0.152
1593887854844541,1.41,0.457,0.152
1593887855347638,1.486,0.534,0.152
1593887855850635,1.486,0.457,0.152
1593887856353735,1.639,0.534,0.152
1593887856856779,1.753,0.533,0.152
1593887857360040,1.639,0.457,0.152
1593887857863493,1.525,0.534,0.152
1593887858366759,1.448,0.457,0.152
1593887858869963,1.525,0.534,0.152
1593887859372893,1.486,0.534,0.152
1593887859875879,1.525,0.534,0.152
1593887860378804,1.486,0.534,0.152
1593887860882286,1.525,0.534,0.152
1593887861385173,1.486,0.534,0.152
1593887861888156,1.448,0.457,0.152
1593887862395093,1.486,0.534,0.152
1593887862898041,1.372,0.457,0.152
1593887863401005,1.486,0.534,0.152
1593887863904315,1.486,0.534,0.152
1593887864407227,1.486,0.534,0.152
1593887864910413,1.486,0.534,0.152
1593887865413587,1.448,0.534,0.152
1593887865921062,1.525,0.534,0.152
1593887866424159,1.448,0.457,0.152
1593887866927525,1.486,0.534,0.152
1593887867434293,1.486,0.534,0.152
1593887867942905,1.563,0.534,0.152
1593887868446372,1.525,0.534,0.152
1593887868949573,1.525,0.534,0.152
1593887869452714,1.486,0.534,0.152
1593887869955837,1.448,0.534,0.152
1593887870458389,1.525,0.534,0.152
1593887870961456,1.486,0.534,0.152
1593887871464384,1.486,0.534,0.152
1593887871967485,1.41,0.457,0.152
1593887872473899,1.448,0.457,0.152
1593887872977009,1.448,0.534,0.152
1593887873480057,1.448,0.534,0.152
1593887873982875,1.525,0.534,0.152
1593887874485932,1.448,0.457,0.152
1593887874989040,1.525,0.534,0.152
1593887875492047,1.486,0.534,0.152
1593887875995143,1.486,0.534,0.152
1593887876498326,1.448,0.534,0.152
1593887877001253,1.41,0.457,0.152
1593887877509835,1.486,0.457,0.152
1593887878013088,1.486,0.534,0.152
1593887878516001,1.486,0.534,0.152
1593887879018894,1.525,0.534,0.152
1593887879521794,1.563,0.534,0.152
1593887880025012,1.563,0.534,0.152
1593887880527892,1.448,0.457,0.152
1593887881031045,1.486,0.534,0.152
1593887881533987,1.41,0.457,0.152
1593887882036269,1.372,0.457,0.152
1593887882540866,1.486,0.534,0.152
1593887883042722,1.448,0.457,0.152
1593887883545784,1.525,0.534,0.152
1593887884047519,1.486,0.534,0.152
1593887884560800,1.486,0.457,0.152
1593887885062658,1.677,0.534,0.152
1593887885564692,1.639,0.457,0.152
1593887886066528,1.753,0.457,0.152
1593887886568502,1.639,0.534,0.152
1593887887070447,1.563,0.534,0.152
1593887887572352,1.486,0.534,0.152
1593887888074268,1.448,0.457,0.152
1593887888576182,1.486,0.457,0.152
1593887889077978,1.639,0.534,0.152
1593887889579935,1.563,0.457,0.152
1593887890081799,1.639,0.457,0.152
1593887890583676,1.563,0.534,0.152
1593887891085448,1.448,0.457,0.152
1593887891587238,1.41,0.534,0.152
1593887892089169,1.525,0.457,0.152
1593887892591125,1.792,0.457,0.152
1593887893093067,1.83,0.533,0.152
1593887893594922,1.677,0.533,0.152
1593887894096626,1.563,0.534,0.152
1593887894598468,1.525,0.534,0.152
1593887895100400,1.525,0.534,0.152
1593887895602241,1.486,0.534,0.152
1593887896104147,1.486,0.534,0.152
1593887896605992,1.448,0.534,0.152
1593887897107876,1.448,0.457,0.152
1593887897609730,1.525,0.534,0.152
1593887898111750,1.525,0.534,0.152
1593887898613588,1.525,0.534,0.152
1593887899115614,1.525,0.534,0.152
1593887899617463,1.525,0.534,0.152
1593887900119359,1.448,0.534,0.152
1593887900621218,1.448,0.534,0.152
1593887901122948,1.41,0.457,0.152
1593887901626267,1.448,0.457,0.152
1593887902129612,1.486,0.534,0.152
1593887902632603,1.486,0.534,0.152
1593887903141322,1.486,0.534,0.152
1593887903647139,1.525,0.534,0.152
1593887904154289,1.486,0.534,0.152
1593887904657577,1.448,0.457,0.152
1593887905166000,1.372,0.457,0.152
1593887905669132,1.41,0.457,0.152
1593887906186024,1.486,0.457,0.152
1593887906689158,1.525,0.534,0.152
1593887907192288,1.525,0.534,0.152
1593887907695107,1.486,0.534,0.152
1593887908198275,1.486,0.534,0.152
1593887908701467,1.525,0.534,0.152
1593887909204266,1.41,0.457,0.152
1593887909706465,1.448,0.534,0.152
1593887910208474,1.448,0.457,0.152
1593887910710394,1.41,0.457,0.152
1593887911212314,1.486,0.534,0.152
1593887911714171,1.448,0.457,0.152
1593887912216121,1.486,0.457,0.152
1593887912717901,1.448,0.457,0.152
1593887913221302,1.372,0.457,0.152
1593887913726764,1.448,0.457,0.152
1593887914229694,1.486,0.534,0.152
1593887914732607,1.41,0.457,0.152
1593887915235754,1.448,0.457,0.152
1593887915738633,1.41,0.457,0.152
1593887916241598,1.448,0.457,0.152
1593887916744573,1.486,0.534,0.152
1593887917247718,1.486,0.534,0.152
1593887917750379,1.525,0.534,0.152
1593887918253211,1.41,0.457,0.152
1593887918756493,1.486,0.534,0.152
1593887919260750,1.448,0.457,0.152
1593887919763878,1.41,0.457,0.152
1593887920266789,1.448,0.534,0.152
1593887920769894,1.41,0.457,0.152
1593887921272943,1.525,0.534,0.152
1593887921781269,1.486,0.534,0.152
1593887922284256,1.448,0.457,0.152
1593887922787579,1.486,0.534,0.152
1593887923290583,1.486,0.534,0.152
1593887923796473,1.486,0.534,0.152
1593887924299513,1.448,0.534,0.152
1593887924802563,1.41,0.457,0.152
1593887925305437,1.486,0.534,0.152
1593887925808327,1.448,0.457,0.152
1593887926311175,1.486,0.534,0.152
1593887926814177,1.525,0.534,0.152
1593887927316995,1.525,0.534,0.152
1593887927820058,1.525,0.534,0.152
1593887928322967,1.486,0.457,0.152
1593887928825918,1.525,0.534,0.152
1593887929329043,1.486,0.534,0.152
1593887929832035,1.448,0.534,0.152
1593887930334979,1.486,0.534,0.152
1593887930838613,1.525,0.534,0.152
1593887931341499,1.448,0.457,0.152
1593887931844484,1.486,0.457,0.152
1593887932347671,1.486,0.534,0.152
1593887932850535,1.41,0.457,0.152
1593887933353575,1.525,0.457,0.152
1593887933856467,1.448,0.457,0.152
1593887934359637,1.448,0.457,0.152
1593887934862522,1.448,0.457,0.152
1593887935365553,1.448,0.457,0.152
1593887935868469,1.525,0.457,0.152
1593887936371521,1.486,0.534,0.152
1593887936874503,1.486,0.534,0.152
1593887937377449,1.486,0.534,0.152
1593887937880699,1.486,0.534,0.152
1593887938383615,1.525,0.457,0.152
1593887938886508,1.448,0.457,0.152
1593887939389321,1.486,0.534,0.152
1593887939892285,1.41,0.457,0.152
1593887940397775,1.448,0.457,0.152
1593887940900792,1.525,0.534,0.152
1593887941402934,1.448,0.457,0.152
1593887941905217,1.525,0.534,0.152
1593887942406920,1.486,0.534,0.152
1593887942908992,1.486,0.534,0.152
1593887943410834,1.486,0.534,0.152
1593887943912867,1.486,0.534,0.152
1593887944414685,1.448,0.534,0.152
1593887944917403,1.486,0.534,0.152
1593887945420366,1.525,0.534,0.152
1593887945929013,1.486,0.534,0.152
1593887946432285,1.525,0.534,0.152
1593887946935235,1.486,0.534,0.152
1593887947438235,1.525,0.534,0.152
1593887947941482,1.41,0.457,0.152
1593887948444556,1.372,0.457,0.152
1593887948947695,1.448,0.457,0.152
1593887949453647,1.486,0.534,0.152
1593887949956702,1.525,0.534,0.152
1593887950459585,1.486,0.534,0.152
1593887950962644,1.486,0.534,0.152
1593887951465095,1.525,0.534,0.152
1593887951968461,1.448,0.457,0.152
1593887952471514,1.525,0.534,0.152
1593887952974964,1.448,0.457,0.152
1593887953477949,1.372,0.457,0.152
1593887953980982,1.448,0.457,0.152
1593887954486442,1.448,0.457,0.152
1593887954989371,1.448,0.457,0.152
1593887955492363,1.486,0.534,0.152
1593887955995269,1.486,0.534,0.152
1593887956498232,1.525,0.534,0.152
1593887957001364,1.41,0.457,0.152
1593887957504630,1.372,0.457,0.152
1593887958007588,1.372,0.457,0.152
1593887958511481,1.486,0.457,0.152
1593887959014498,1.448,0.457,0.152
1593887959517775,1.486,0.457,0.152
1593887960020559,1.486,0.534,0.152
1593887960524010,1.448,0.457,0.152
1593887961026839,1.486,0.534,0.152
1593887961529823,1.448,0.534,0.152
1593887962032879,1.41,0.457,0.152
1593887962535798,1.448,0.457,0.152
1593887963038545,1.41,0.457,0.152
1593887963541495,1.525,0.534,0.152
1593887964044329,1.525,0.534,0.152
1593887964547296,1.486,0.457,0.152
1593887965049681,1.525,0.534,0.152
1593887965551622,1.486,0.534,0.152
1593887966053481,1.525,0.534,0.152
1593887966555269,1.448,0.534,0.152
1593887967057352,1.486,0.534,0.152
1593887967559131,1.41,0.457,0.152
1593887968061137,1.486,0.457,0.152
1593887968562955,1.486,0.534,0.152
1593887969065856,1.448,0.457,0.152
1593887969568876,1.486,0.534,0.152
1593887970072177,1.525,0.534,0.152
1593887970575077,1.525,0.534,0.152
1593887971078143,1.486,0.534,0.152
1593887971587640,1.41,0.457,0.152
1593887972090578,1.486,0.534,0.152
1593887972592887,1.486,0.534,0.152
1593887973094722,1.525,0.534,0.152
1593887973596638,1.448,0.457,0.152
1593887974098618,1.448,0.457,0.152
1593887974600477,1.486,0.534,0.152
1593887975105295,1.486,0.534,0.152
1593887975607046,1.448,0.457,0.152
1593887976108681,1.41,0.457,0.152
1593887976610349,1.372,0.457,0.152
1593887977112397,1.639,0.457,0.152
1593887977614261,1.601,0.534,0.152
1593887978116151,1.486,0.457,0.152
1593887978617957,1.525,0.534,0.152
1593887979120001,1.486,0.534,0.152
1593887979623177,1.448,0.457,0.152
1593887980126136,1.525,0.534,0.152
1593887980629320,1.41,0.457,0.152
1593887981132298,1.448,0.457,0.152
1593887981635185,1.448,0.457,0.152
1593887982138310,1.486,0.457,0.152
1593887982641469,1.486,0.534,0.152
1593887983144365,1.448,0.457,0.152
1593887983647276,1.525,0.534,0.152
1593887984150257,1.525,0.534,0.152
1593887984653249,1.448,0.457,0.152
1593887985165805,1.486,0.534,0.152
1593887985668902,1.41,0.457,0.152
1593887986172890,1.448,0.534,0.152
1593887986676034,1.486,0.534,0.152
1593887987179054,1.486,0.534,0.152
1593887987682021,1.486,0.457,0.152
1593887988185055,1.525,0.534,0.152
1593887988687973,1.525,0.534,0.152
1593887989191504,1.486,0.534,0.152
1593887989695855,1.525,0.534,0.152
1593887990201975,1.486,0.534,0.152
1593887990704982,1.486,0.534,0.152
1593887991213931,1.448,0.534,0.152
1593887991716873,1.448,0.534,0.152
1593887992219889,1.525,0.534,0.152
1593887992722671,1.448,0.457,0.152
1593887993225611,1.486,0.534,0.152
1593887993728832,1.486,0.534,0.152
1593887994231992,1.486,0.457,0.152
1593887994734836,1.486,0.534,0.152
1593887995241091,1.448,0.534,0.152
1593887995744093,1.448,0.534,0.152
1593887996246973,1.41,0.457,0.152
1593887996749486,1.448,0.457,0.152
1593887997251382,1.486,0.534,0.152
1593887997753191,1.486,0.534,0.152
1593887998254974,1.486,0.534,0.152
1593887998756917,1.486,0.534,0.152
1593887999258864,1.525,0.534,0.152
1593887999760739,1.486,0.534,0.152
1593888000262785,1.486,0.534,0.152
1593888000764654,1.448,0.534,0.152
1593888001266496,1.41,0.457,0.152
1593888001768379,1.486,0.534,0.152
1593888002270280,1.486,0.534,0.152
1593888002772192,1.486,0.534,0.152
1593888003274006,1.486,0.534,0.152
1593888003775878,1.448,0.534,0.152
1593888004277747,1.486,0.457,0.152
1593888004779638,1.486,0.534,0.152
1593888005281411,1.486,0.534,0.152
1593888005783212,1.41,0.534,0.152
1593888006285079,1.486,0.534,0.152
1593888006786868,1.525,0.534,0.152
1593888007288679,1.753,0.533,0.152
1593888007790444,1.601,0.534,0.152
1593888008292226,1.486,0.457,0.152
1593888008793978,1.486,0.534,0.152
1593888009295835,1.448,0.457,0.152
1593888009797696,1.486,0.534,0.152
1593888010299470,1.448,0.457,0.152
1593888010801304,1.41,0.457,0.152
1593888011303130,1.486,0.534,0.152
1593888011805043,1.486,0.534,0.152
1593888012308018,1.525,0.534,0.152
1593888012809865,1.486,0.534,0.152
1593888013311818,1.486,0.534,0.152
1593888013813668,1.486,0.534,0.152
1593888014315591,1.41,0.457,0.152
1593888014817410,1.448,0.457,0.152
1593888015319231,1.41,0.457,0.152
1593888015821152,1.448,0.457,0.152
1593888016322898,1.486,0.457,0.152
1593888016824791,1.448,0.457,0.152
1593888017326738,1.601,0.534,0.152
1593888017828594,1.753,0.457,0.152
1593888018330406,1.792,0.533,0.152
1593888018832377,1.753,0.457,0.152
1593888019334138,1.525,0.457,0.152
1593888019835915,1.372,0.457,0.152
1593888020337635,1.41,0.457,0.152
1593888020839504,1.486,0.534,0.152
1593888021341307,1.41,0.457,0.152
1593888021847485,1.525,0.534,0.152
1593888022349276,1.486,0.534,0.152
1593888022851071,1.448,0.534,0.152
1593888023352980,1.525,0.534,0.152
1593888023854826,1.486,0.534,0.152
1593888024356648,1.486,0.457,0.152
1593888024858485,1.41,0.457,0.152
1593888025360269,1.372,0.457,0.152
1593888025862224,1.448,0.457,0.152
1593888026364140,1.486,0.534,0.152
1593888026866072,1.486,0.534,0.152
1593888027367915,1.525,0.534,0.152
1593888027869777,1.448,0.457,0.152
1593888028371647,1.486,0.534,0.152
1593888028873475,1.448,0.534,0.152
1593888029375221,1.486,0.534,0.152
1593888029877209,1.486,0.534,0.152
1593888030378994,1.525,0.534,0.152
1593888030881712,1.525,0.534,0.152
1593888031384545,1.448,0.457,0.152
1593888031887567,1.525,0.534,0.152
1593888032390643,1.525,0.534,0.152
1593888032893723,1.525,0.534,0.152
1593888033396652,1.448,0.534,0.152
1593888033901540,1.41,0.457,0.152
1593888034403438,1.448,0.457,0.152
1593888034905179,1.486,0.534,0.152
1593888035407018,1.525,0.534,0.152
1593888035908838,1.525,0.534,0.152
1593888036410665,1.448,0.457,0.152
1593888036912518,1.563,0.534,0.152
1593888037415172,1.715,0.533,0.152
1593888037918237,1.563,0.534,0.152
1593888038421331,1.448,0.534,0.152
1593888038924322,1.41,0.457,0.152
1593888039427652,1.486,0.534,0.152
1593888039930465,1.486,0.534,0.152
1593888040433582,1.525,0.534,0.152
1593888040936697,1.486,0.534,0.152
1593888041439613,1.525,0.534,0.152
1593888041942646,1.525,0.534,0.152
1593888042450011,1.525,0.534,0.152
1593888042952825,1.486,0.534,0.152
1593888043456248,1.41,0.534,0.152
1593888043965839,1.486,0.534,0.152
1593888044468872,1.486,0.534,0.152
1593888044978247,1.525,0.534,0.152
1593888045481261,1.448,0.457,0.152
1593888045984280,1.448,0.457,0.152
1593888046487246,1.525,0.534,0.152
1593888046990355,1.448,0.457,0.152
1593888047498219,1.41,0.457,0.152
1593888048001158,1.486,0.534,0.152
1593888048504327,1.448,0.457,0.152
1593888049007281,1.486,0.534,0.152
1593888049510602,1.448,0.534,0.152
1593888050014077,1.486,0.534,0.152
1593888050518184,1.486,0.534,0.152
1593888051021095,1.448,0.534,0.152
1593888051524093,1.486,0.534,0.152
1593888052027027,1.486,0.534,0.152
1593888052533401,1.525,0.534,0.152
1593888053036317,1.448,0.534,0.152
1593888053539109,1.525,0.534,0.152
1593888054042028,1.448,0.457,0.152
1593888054544602,1.486,0.457,0.152
1593888055046479,1.486,0.534,0.152
1593888055548383,1.448,0.457,0.152
1593888056050187,1.486,0.534,0.152
1593888056551956,1.448,0.534,0.152
1593888057053703,1.448,0.457,0.152
1593888057558142,1.448,0.457,0.152
1593888058060035,1.486,0.534,0.152
1593888058561903,1.525,0.534,0.152
1593888059063975,1.525,0.534,0.152
1593888059565895,1.525,0.534,0.152
1593888060067913,1.563,0.534,0.152
1593888060569750,1.525,0.534,0.152
1593888061071588,1.448,0.534,0.152
1593888061573483,1.486,0.534,0.152
1593888062075286,1.486,0.534,0.152
1593888062578281,1.525,0.534,0.152
1593888063081361,1.448,0.457,0.152
1593888063584354,1.448,0.457,0.152
1593888064087271,1.486,0.534,0.152
1593888064590229,1.486,0.534,0.152
1593888065093545,1.486,0.534,0.152
1593888065596672,1.486,0.534,0.152
1593888066099635,1.525,0.534,0.152
1593888066602647,1.41,0.457,0.152
1593888067105601,1.334,0.457,0.152
1593888067608483,1.639,0.457,0.152
1593888068110767,1.83,0.533,0.152
1593888068612617,1.525,0.457,0.152
1593888069114479,1.525,0.534,0.152
1593888069616390,1.486,0.534,0.152
1593888070118216,1.525,0.534,0.152
1593888070620137,1.486,0.534,0.152
1593888071122017,1.525,0.534,0.152
1593888071623822,1.448,0.534,0.152
1593888072125572,1.41,0.457,0.152
1593888072627479,1.486,0.534,0.152
1593888073130672,1.486,0.457,0.152
1593888073634153,1.486,0.534,0.152
1593888074136995,1.525,0.534,0.152
1593888074640009,1.486,0.534,0.152
1593888075142845,1.486,0.534,0.152
1593888075645857,1.486,0.534,0.152
1593888076148860,1.486,0.534,0.152
1593888076651803,1.41,0.457,0.152
1593888077155977,1.486,0.534,0.152
1593888077658956,1.486,0.534,0.152
1593888078162222,1.525,0.534,0.152
1593888078665193,1.525,0.534,0.152
1593888079168182,1.448,0.457,0.152
1593888079671115,1.486,0.457,0.152
1593888080174295,1.486,0.534,0.152
1593888080677314,1.448,0.534,0.152
1593888081180239,1.448,0.534,0.152
1593888081683195,1.41,0.534,0.152
1593888082186425,1.486,0.457,0.152
1593888082689486,1.486,0.534,0.152
1593888083192818,1.486,0.534,0.152
1593888083698899,1.486,0.534,0.152
1593888084202255,1.525,0.534,0.152
1593888084720637,1.525,0.534,0.152
1593888085223609,1.448,0.457,0.152
1593888085725998,1.486,0.534,0.152
1593888086227926,1.448,0.534,0.152
1593888086729752,1.372,0.457,0.152
1593888087231618,1.448,0.457,0.152
1593888087733407,1.486,0.534,0.152
1593888088235220,1.448,0.457,0.152
1593888088737095,1.525,0.534,0.152
1593888089238908,1.448,0.457,0.152
1593888089740705,1.525,0.534,0.152
1593888090242609,1.525,0.534,0.152
1593888090744411,1.448,0.534,0.152
1593888091246223,1.486,0.534,0.152
1593888091748029,1.41,0.457,0.152
1593888092249750,1.41,0.457,0.152
1593888092751681,1.486,0.534,0.152
1593888093253558,1.486,0.534,0.152
1593888093755439,1.525,0.534,0.152
1593888094257193,1.41,0.457,0.152
1593888094759092,1.448,0.457,0.152
1593888095261009,1.486,0.457,0.152
1593888095762841,1.486,0.534,0.152
1593888096264681,1.486,0.534,0.152
1593888096766531,1.41,0.534,0.152
1593888097268604,1.486,0.534,0.152
1593888097770440,1.677,0.533,0.152
1593888098272546,1.792,0.533,0.152
1593888098774477,1.601,0.534,0.152
1593888099276371,1.525,0.534,0.152
1593888099778153,1.486,0.534,0.152
1593888100279801,1.372,0.457,0.152
1593888100781288,1.334,0.457,0.152
1593888101283067,1.448,0.457,0.152
1593888101785060,1.448,0.457,0.152
1593888102286847,1.448,0.457,0.152
1593888102788659,1.525,0.534,0.152
1593888103290490,1.448,0.457,0.152
1593888103792384,1.525,0.534,0.152
1593888104294136,1.486,0.534,0.152
1593888104795944,1.525,0.534,0.152
1593888105297693,1.448,0.534,0.152
1593888105799739,1.41,0.457,0.152
1593888106301585,1.486,0.457,0.152
1593888106803465,1.486,0.534,0.152
1593888107305273,1.486,0.457,0.152
1593888107807082,1.486,0.534,0.152
1593888108309144,1.525,0.534,0.152
1593888108810952,1.486,0.534,0.152
1593888109312856,1.486,0.534,0.152
1593888109814613,1.486,0.534,0.152
1593888110316404,1.41,0.457,0.152
1593888110818156,1.448,0.534,0.152
1593888111320108,1.486,0.534,0.152
1593888111821936,1.448,0.457,0.152
1593888112323691,1.486,0.457,0.152
1593888112825455,1.448,0.457,0.152
1593888113327659,1.486,0.534,0.152
1593888113829474,1.448,0.534,0.152
1593888114331372,1.486,0.534,0.152
1593888114833274,1.486,0.457,0.152
1593888115335060,1.41,0.457,0.152
1593888115836698,1.334,0.457,0.152
1593888116338510,1.448,0.457,0.152
1593888116840365,1.486,0.534,0.152
1593888117342324,1.486,0.534,0.152
1593888117844203,1.525,0.534,0.152
1593888118346109,1.486,0.534,0.152
1593888118847970,1.486,0.534,0.152
1593888119349827,1.486,0.534,0.152
1593888119851652,1.486,0.457,0.152
1593888120353484,1.41,0.457,0.152
1593888120858308,1.41,0.457,0.152
1593888121360148,1.486,0.457,0.152
1593888121861978,1.448,0.457,0.152
1593888122363945,1.448,0.457,0.152
1593888122865786,1.486,0.534,0.152
1593888123367886,1.486,0.534,0.152
1593888123869666,1.525,0.534,0.152
1593888124371543,1.486,0.534,0.152
1593888124873317,1.486,0.534,0.152
1593888125375083,1.448,0.457,0.152
1593888125881475,1.372,0.457,0.152
1593888126384937,1.486,0.534,0.152
1593888126888001,1.448,0.534,0.152
1593888127391095,1.448,0.457,0.152
1593888127893994,1.601,0.534,0.152
1593888128397333,1.525,0.534,0.152
1593888128900361,1.525,0.534,0.152
1593888129403299,1.525,0.534,0.152
1593888129906324,1.486,0.457,0.152
1593888130409323,1.41,0.457,0.152
1593888130914857,1.448,0.457,0.152
1593888131418278,1.486,0.457,0.152
1593888131947745,1.486,0.534,0.152
1593888132450715,1.525,0.534,0.152
1593888132953760,1.486,0.534,0.152
1593888133456605,1.448,0.457,0.152
1593888133959864,1.525,0.534,0.152
1593888134462762,1.486,0.534,0.152
1593888134965846,1.486,0.534,0.152
1593888135468608,1.486,0.534,0.152
1593888135971854,1.525,0.534,0.152
1593888136474706,1.486,0.534,0.152
1593888136977702,1.486,0.534,0.152
1593888137481239,1.486,0.534,0.152
1593888137984354,1.525,0.534,0.152
1593888138487125,1.486,0.534,0.152
1593888138989500,1.486,0.534,0.152
1593888139491288,1.486,0.534,0.152
1593888139993104,1.448,0.457,0.152
1593888140494914,1.486,0.534,0.152
1593888140996721,1.41,0.457,0.152
1593888141498643,1.448,0.457,0.152
1593888142000710,1.486,0.534,0.152
1593888142502539,1.448,0.457,0.152
1593888143004448,1.486,0.534,0.152
1593888143506241,1.525,0.534,0.152
1593888144008118,1.525,0.534,0.152
1593888144509931,1.448,0.457,0.152
1593888145011717,1.486,0.534,0.152
1593888145513463,1.41,0.457,0.152
1593888146015369,1.41,0.457,0.152
1593888146520046,1.486,0.534,0.152
1593888147021878,1.448,0.534,0.152
1593888147523757,1.525,0.534,0.152
1593888148025627,1.486,0.534,0.152
1593888148527477,1.525,0.534,0.152
1593888149029308,1.486,0.534,0.152
1593888149531185,1.486,0.534,0.152
1593888150033342,1.486,0.534,0.152
1593888150535098,1.41,0.457,0.152
1593888151036871,1.486,0.534,0.152
1593888151541271,1.486,0.534,0.152
1593888152043031,1.486,0.534,0.152
1593888152545052,1.486,0.534,0.152
1593888153046916,1.448,0.457,0.152
1593888153549461,1.486,0.534,0.152
1593888154052655,1.448,0.534,0.152
1593888154555735,1.448,0.534,0.152
1593888155064329,1.372,0.457,0.152
1593888155567278,1.372,0.457,0.152
1593888156070319,1.486,0.457,0.152
1593888156573487,1.448,0.457,0.152
1593888157076611,1.486,0.534,0.152
1593888157579803,1.525,0.534,0.152
1593888158089847,1.715,0.457,0.152
1593888158592569,1.601,0.534,0.152
1593888159095598,1.448,0.457,0.152
1593888159598667,1.486,0.534,0.152
1593888160101727,1.41,0.457,0.152
1593888160604613,1.486,0.534,0.152
1593888161107637,1.525,0.534,0.152
1593888161610785,1.525,0.534,0.152
1593888162113605,1.486,0.534,0.152
1593888162616443,1.525,0.534,0.152
1593888163119452,1.525,0.534,0.152
1593888163622268,1.525,0.534,0.152
1593888164125479,1.525,0.534,0.152
1593888164628483,1.486,0.534,0.152
1593888165131449,1.41,0.457,0.152
1593888165634572,1.448,0.457,0.152
1593888166137618,1.486,0.534,0.152
1593888166640637,1.448,0.534,0.152
1593888167143913,1.486,0.534,0.152
1593888167646895,1.486,0.534,0.152
1593888168149884,1.525,0.534,0.152
1593888168652796,1.486,0.534,0.152
1593888169155910,1.486,0.534,0.152
1593888169658778,1.41,0.457,0.152
1593888170161680,1.334,0.457,0.152
1593888170664862,1.41,0.457,0.152
1593888171167741,1.486,0.534,0.152
1593888171670770,1.525,0.534,0.152
1593888172174057,1.486,0.534,0.152
1593888172677179,1.448,0.534,0.152
1593888173180261,1.525,0.534,0.152
1593888173683120,1.448,0.457,0.152
1593888174193830,1.525,0.534,0.152
1593888174697076,1.448,0.534,0.152
1593888175200647,1.448,0.534,0.152
1593888175703539,1.486,0.534,0.152
1593888176212338,1.486,0.534,0.152
1593888176715268,1.486,0.534,0.152
1593888177221017,1.448,0.457,0.152
1593888177724193,1.525,0.534,0.152
1593888178227266,1.486,0.534,0.152
1593888178729558,1.41,0.457,0.152
1593888179231415,1.448,0.534,0.152
1593888179733272,1.41,0.457,0.152
1593888180235110,1.486,0.534,0.152
1593888180736983,1.486,0.534,0.152
1593888181238920,1.486,0.534,0.152
1593888181740795,1.486,0.534,0.152
1593888182249766,1.448,0.534,0.152
1593888182752642,1.486,0.534,0.152
1593888183255803,1.372,0.457,0.152
1593888183758767,1.372,0.457,0.152
1593888184261817,1.448,0.457,0.152
1593888184764737,1.486,0.534,0.152
1593888185268496,1.715,0.534,0.152
1593888185772126,1.486,0.457,0.152
1593888186276234,1.639,0.457,0.152
1593888186779133,1.525,0.457,0.152
1593888187282191,1.677,0.457,0.152
1593888187785355,1.525,0.457,0.152
1593888188289127,1.486,0.534,0.152
1593888188793254,1.372,0.457,0.152
1593888189300342,1.563,0.457,0.152
1593888189802183,1.525,0.457,0.152
1593888190305015,1.715,0.457,0.152
1593888190808324,1.639,0.534,0.152
1593888191310669,1.525,0.534,0.152
1593888191812671,1.525,0.534,0.152
1593888192318691,1.525,0.534,0.152
1593888192821674,1.372,0.457,0.152
1593888193324668,1.486,0.457,0.152
1593888193827001,1.715,0.457,0.152
1593888194328915,1.753,0.457,0.152
1593888194830794,1.639,0.534,0.152
1593888195332766,1.563,0.534,0.152
1593888195834679,1.486,0.534,0.152
1593888196336546,1.525,0.457,0.152
1593888196843240,1.448,0.457,0.152
1593888197349174,1.486,0.534,0.152
1593888197852263,1.448,0.457,0.152
1593888198355445,1.486,0.534,0.152
1593888198858288,1.486,0.534,0.152
1593888199360525,1.486,0.534,0.152
1593888199862356,1.486,0.534,0.152
1593888200364144,1.448,0.534,0.152
1593888200866027,1.486,0.534,0.152
1593888201367827,1.525,0.534,0.152
1593888201869633,1.677,0.457,0.152
1593888202374146,1.792,0.533,0.152
1593888202876006,1.563,0.534,0.152
1593888203377848,1.525,0.457,0.152
1593888203879777,1.448,0.457,0.152
1593888204381638,1.486,0.457,0.152
1593888204883512,1.486,0.534,0.152
1593888205385376,1.448,0.457,0.152
1593888205887287,1.486,0.534,0.152
1593888206389225,1.486,0.534,0.152
1593888206891012,1.448,0.457,0.152
1593888207392814,1.448,0.534,0.152
1593888207894570,1.41,0.534,0.152
1593888208396577,1.486,0.457,0.152
1593888208898421,1.486,0.534,0.152
1593888209400425,1.525,0.534,0.152
1593888209902265,1.486,0.534,0.152
1593888210404193,1.486,0.534,0.152
1593888210906020,1.525,0.534,0.152
1593888211407910,1.486,0.534,0.152
1593888211909687,1.448,0.534,0.152
1593888212414129,1.41,0.534,0.152
1593888212916196,1.486,0.534,0.152
1593888213418024,1.448,0.534,0.152
1593888213919957,1.448,0.457,0.152
1593888214421738,1.525,0.534,0.152
1593888214923761,1.448,0.457,0.152
1593888215425609,1.486,0.457,0.152
1593888215927448,1.525,0.534,0.152
1593888216429326,1.639,0.534,0.152
1593888216931093,1.525,0.534,0.152
1593888217435680,1.486,0.534,0.152
1593888217937538,1.486,0.457,0.152
1593888218439286,1.486,0.534,0.152
1593888218941259,1.448,0.534,0.152
1593888219443082,1.486,0.534,0.152
1593888219944993,1.486,0.534,0.152
1593888220446844,1.525,0.534,0.152
1593888220948742,1.486,0.534,0.152
1593888221450534,1.486,0.534,0.152
1593888221952311,1.448,0.457,0.152
1593888222457703,1.372,0.457,0.152
1593888222960767,1.486,0.457,0.152
1593888223463703,1.486,0.534,0.152
1593888223966677,1.486,0.534,0.152
1593888224469779,1.525,0.534,0.152
1593888224973187,1.486,0.534,0.152
1593888225476350,1.525,0.534,0.152
1593888225985638,1.448,0.457,0.152
1593888226488730,1.448,0.457,0.152
1593888226991592,1.448,0.457,0.152
1593888227494947,1.448,0.457,0.152
1593888227997898,1.486,0.457,0.152
1593888228501171,1.486,0.457,0.152
1593888229004365,1.486,0.534,0.152
1593888229507261,1.525,0.534,0.152
1593888230011825,1.486,0.457,0.152
1593888230514927,1.525,0.534,0.152
1593888231017881,1.525,0.534,0.152
1593888231525740,1.486,0.534,0.152
1593888232028831,1.41,0.457,0.152
1593888232532042,1.486,0.534,0.152
1593888233034986,1.525,0.534,0.152
1593888233538716,1.525,0.534,0.152
1593888234041722,1.525,0.534,0.152
1593888234544896,1.448,0.457,0.152
1593888235048189,1.486,0.534,0.152
1593888235551082,1.448,0.457,0.152
1593888236058013,1.486,0.457,0.152
1593888236561124,1.41,0.457,0.152
1593888237064141,1.372,0.457,0.152
1593888237567143,1.486,0.457,0.152
1593888238070218,1.486,0.534,0.152
1593888238573226,1.448,0.534,0.152
1593888239076380,1.486,0.534,0.152
1593888239581829,1.448,0.457,0.152
1593888240084883,1.448,0.457,0.152
1593888240591599,1.448,0.457,0.152
1593888241094087,1.372,0.457,0.152
1593888241595913,1.372,0.457,0.152
1593888242097766,1.486,0.457,0.152
1593888242599661,1.486,0.534,0.152
1593888243101503,1.525,0.534,0.152
1593888243603374,1.486,0.534,0.152
1593888244105251,1.525,0.534,0.152
1593888244607053,1.486,0.534,0.152
1593888245108831,1.486,0.534,0.152
1593888245610590,1.448,0.534,0.152
1593888246112403,1.448,0.457,0.152
1593888246614221,1.486,0.457,0.152
1593888247116100,1.486,0.534,0.152
1593888247617944,1.448,0.457,0.152
1593888248119863,1.486,0.534,0.152
1593888248621698,1.563,0.534,0.152
1593888249123594,1.563,0.534,0.152
1593888249625367,1.486,0.534,0.152
1593888250127180,1.41,0.457,0.152
1593888250629017,1.448,0.534,0.152
1593888251130761,1.372,0.457,0.152
1593888251632603,1.448,0.457,0.152
1593888252134420,1.525,0.534,0.152
1593888252636360,1.486,0.534,0.152
1593888253138210,1.525,0.534,0.152
1593888253640022,1.486,0.534,0.152
1593888254141797,1.525,0.534,0.152
1593888254643576,1.448,0.534,0.152
1593888255145335,1.41,0.457,0.152
1593888255647088,1.41,0.457,0.152
1593888256148934,1.448,0.534,0.152
1593888256650866,1.486,0.534,0.152
1593888257152672,1.486,0.534,0.152
1593888257654358,1.486,0.534,0.152
1593888258160150,1.563,0.534,0.152
1593888258661938,1.486,0.534,0.152
1593888259163940,1.486,0.534,0.152
1593888259665712,1.41,0.534,0.152
1593888260167751,1.41,0.457,0.152
1593888260669593,1.486,0.534,0.152
1593888261171570,1.448,0.457,0.152
1593888261673406,1.525,0.534,0.152
1593888262175268,1.486,0.534,0.152
1593888262677303,1.486,0.534,0.152
1593888263183982,1.486,0.534,0.152
1593888263686803,1.448,0.457,0.152
1593888264189934,1.525,0.534,0.152
1593888264693171,1.41,0.457,0.152
1593888265196183,1.486,0.534,0.152
1593888265698997,1.486,0.534,0.152
1593888266201576,1.525,0.534,0.152
1593888266703365,1.448,0.534,0.152
1593888267205202,1.448,0.457,0.152
1593888267707049,1.486,0.534,0.152
1593888268212040,1.486,0.457,0.152
1593888268714910,1.486,0.457,0.152
1593888269216731,1.448,0.534,0.152
1593888269718491,1.41,0.457,0.152
1593888270220446,1.448,0.457,0.152
1593888270722319,1.448,0.534,0.152
1593888271224195,1.525,0.534,0.152
1593888271726058,1.486,0.534,0.152
1593888272227941,1.448,0.457,0.152
1593888272729711,1.486,0.534,0.152
1593888273234232,1.486,0.534,0.152
1593888273736298,1.486,0.457,0.152
1593888274238110,1.448,0.457,0.152
1593888274740050,1.486,0.534,0.152
1593888275241900,1.448,0.534,0.152
1593888275743736,1.448,0.457,0.152
1593888276245549,1.525,0.534,0.152
1593888276747426,1.486,0.534,0.152
1593888277249275,1.486,0.534,0.152
1593888277750994,1.486,0.534,0.152
1593888278256182,1.448,0.457,0.152
1593888278758040,1.486,0.457,0.152
1593888279259908,1.41,0.457,0.152
1593888279761716,1.448,0.534,0.152
1593888280263453,1.372,0.457,0.152
1593888280765288,1.448,0.457,0.152
1593888281267107,1.486,0.534,0.152
1593888281768860,1.448,0.457,0.152
1593888282270752,1.486,0.534,0.152
1593888282772615,1.486,0.534,0.152
1593888283274558,1.448,0.457,0.152
1593888283777777,1.525,0.534,0.152
1593888284279666,1.448,0.534,0.152
1593888284781504,1.486,0.534,0.152
1593888285283285,1.448,0.534,0.152
1593888285785147,1.448,0.457,0.152
1593888286286979,1.486,0.534,0.152
1593888286788860,1.448,0.534,0.152
1593888287290569,1.525,0.534,0.152
1593888287792384,1.525,0.534,0.152
1593888288294152,1.525,0.534,0.152
1593888288800735,1.525,0.534,0.152
1593888289302519,1.448,0.534,0.152
1593888289804504,1.486,0.534,0.152
1593888290306290,1.525,0.534,0.152
1593888290808141,1.486,0.534,0.152
1593888291310022,1.525,0.534,0.152
1593888291811907,1.525,0.534,0.152
1593888292313727,1.448,0.534,0.152
1593888292815478,1.525,0.534,0.152
1593888293317265,1.448,0.457,0.152
1593888293819027,1.486,0.534,0.152
1593888294320958,1.448,0.534,0.152
1593888294822682,1.41,0.457,0.152
1593888295324605,1.486,0.457,0.152
1593888295826448,1.486,0.534,0.152
1593888296328448,1.525,0.534,0.152
1593888296830341,1.525,0.534,0.152
1593888297332117,1.448,0.457,0.152
1593888297833842,1.486,0.534,0.152
1593888298335701,1.525,0.534,0.152
1593888298837560,1.525,0.534,0.152
1593888299339530,1.448,0.534,0.152
1593888299841442,1.486,0.534,0.152
1593888300343407,1.525,0.534,0.152
1593888300845314,1.525,0.534,0.152
1593888301347235,1.525,0.534,0.152
1593888301849241,1.486,0.534,0.152
1593888302351087,1.486,0.534,0.152
1593888302852983,1.486,0.534,0.152
1593888303354793,1.448,0.534,0.152
1593888303856706,1.525,0.534,0.152
1593888304358598,1.41,0.457,0.152
1593888304860456,1.486,0.534,0.152
1593888305362459,1.486,0.534,0.152
1593888305864494,1.486,0.534,0.152
1593888306366360,1.525,0.534,0.152
1593888306869091,1.448,0.457,0.152
1593888307370880,1.486,0.534,0.152
1593888307872791,1.486,0.534,0.152
1593888308374582,1.525,0.534,0.152
1593888308876450,1.448,0.534,0.152
1593888309378190,1.486,0.534,0.152
1593888309879978,1.448,0.534,0.152
1593888310381701,1.486,0.534,0.152
1593888310883608,1.448,0.457,0.152
1593888311385467,1.486,0.534,0.152
1593888311887445,1.525,0.534,0.152
1593888312389294,1.525,0.534,0.152
1593888312891142,1.525,0.534,0.152
1593888313393040,1.486,0.534,0.152
1593888313894811,1.486,0.534,0.152
1593888314396883,1.41,0.457,0.152
1593888314898640,1.448,0.457,0.152
1593888315400458,1.486,0.534,0.152
1593888315902318,1.448,0.457,0.152
1593888316404130,1.525,0.534,0.152
1593888316905934,1.486,0.534,0.152
1593888317407796,1.486,0.534,0.152
1593888317909589,1.486,0.534,0.152
1593888318411409,1.486,0.534,0.152
1593888318913177,1.486,0.534,0.152
1593888319414986,1.41,0.534,0.152
1593888319916981,1.486,0.534,0.152
1593888320418828,1.448,0.457,0.152
1593888320920630,1.448,0.457,0.152
1593888321422383,1.525,0.534,0.152
1593888321924657,1.448,0.457,0.152
1593888322426495,1.486,0.534,0.152
1593888322928410,1.486,0.457,0.152
1593888323430264,1.525,0.534,0.152
1593888323932167,1.486,0.534,0.152
1593888324433973,1.486,0.534,0.152
1593888324935779,1.486,0.534,0.152
1593888325440309,1.486,0.534,0.152
1593888325942109,1.448,0.534,0.152
1593888326444319,1.525,0.534,0.152
1593888326946148,1.525,0.534,0.152
1593888327448113,1.486,0.534,0.152
1593888327949909,1.41,0.457,0.152
1593888328451656,1.372,0.457,0.152
1593888328953459,1.41,0.457,0.152
1593888329455384,1.486,0.534,0.152
1593888329957113,1.448,0.457,0.152
1593888330461708,1.448,0.457,0.152
1593888330963483,1.486,0.534,0.152
1593888331465332,1.486,0.534,0.152
1593888331967171,1.525,0.534,0.152
1593888332468999,1.486,0.534,0.152
1593888332970603,1.372,0.457,0.152
1593888333472217,1.41,0.457,0.152
1593888333973982,1.372,0.457,0.152
1593888334475907,1.41,0.457,0.152
1593888334977717,1.486,0.534,0.152
1593888335482211,1.448,0.534,0.152
1593888335984198,1.525,0.534,0.152
1593888336486062,1.486,0.534,0.152
1593888336987998,1.525,0.534,0.152
1593888337496698,1.486,0.534,0.152
1593888337998597,1.486,0.534,0.152
1593888338500478,1.448,0.534,0.152
1593888339002274,1.41,0.457,0.152
1593888339504092,1.486,0.534,0.152
1593888340005904,1.448,0.457,0.152
1593888340511408,1.486,0.534,0.152
1593888341014389,1.486,0.534,0.152
1593888341518088,1.448,0.457,0.152
1593888342021183,1.525,0.534,0.152
1593888342524131,1.448,0.534,0.152
1593888343027156,1.486,0.534,0.152
1593888343530383,1.448,0.534,0.152
1593888344034013,1.448,0.534,0.152
1593888344537166,1.486,0.534,0.152
1593888345040229,1.41,0.457,0.152
1593888345548266,1.372,0.457,0.152
1593888346051281,1.486,0.457,0.152
1593888346554412,1.448,0.457,0.152
1593888347057754,1.486,0.457,0.152
1593888347560876,1.41,0.457,0.152
1593888348065672,1.372,0.457,0.152
1593888348568792,1.41,0.457,0.152
1593888349080907,1.448,0.457,0.152
1593888349591873,1.448,0.534,0.152
1593888350093648,1.486,0.534,0.152
1593888350598853,1.486,0.534,0.152
1593888351100750,1.525,0.534,0.152
1593888351602579,1.448,0.457,0.152
1593888352104422,1.486,0.534,0.152
1593888352606200,1.486,0.457,0.152
1593888353107901,1.41,0.457,0.152
1593888353609527,1.372,0.457,0.152
1593888354111495,1.448,0.457,0.152
1593888354613345,1.486,0.534,0.152
1593888355115123,1.486,0.534,0.152
1593888355620085,1.525,0.534,0.152
1593888356121912,1.486,0.534,0.152
1593888356623898,1.486,0.457,0.152
1593888357125705,1.486,0.534,0.152
1593888357627598,1.448,0.534,0.152
1593888358129415,1.486,0.534,0.152
1593888358631218,1.448,0.534,0.152
1593888359133003,1.486,0.534,0.152
1593888359634867,1.486,0.534,0.152
1593888360136704,1.525,0.534,0.152
1593888360638596,1.525,0.534,0.152
1593888361140433,1.525,0.534,0.152
1593888361642348,1.525,0.534,0.152
1593888362144139,1.41,0.457,0.152
1593888362645924,1.448,0.534,0.152
1593888363147818,1.41,0.457,0.152
1593888363649555,1.486,0.534,0.152
1593888364151444,1.486,0.534,0.152
1593888364653193,1.41,0.457,0.152
1593888365154996,1.486,0.534,0.152
1593888365657855,1.448,0.534,0.152
1593888366160665,1.525,0.534,0.152
1593888366663680,1.486,0.534,0.152
1593888367166602,1.486,0.534,0.152
1593888367669814,1.448,0.534,0.152
1593888368173031,1.41,0.457,0.152
1593888368676134,1.525,0.457,0.152
1593888369185301,1.525,0.457,0.152
1593888369687124,1.486,0.457,0.152
1593888370189045,1.486,0.534,0.152
1593888370690889,1.486,0.457,0.152
1593888371197715,1.525,0.534,0.152
1593888371700770,1.41,0.457,0.152
1593888372203897,1.486,0.534,0.152
1593888372706851,1.41,0.457,0.152
1593888373209752,1.486,0.457,0.152
1593888373712530,1.486,0.534,0.152
1593888374215491,1.448,0.534,0.152
1593888374718437,1.486,0.534,0.152
1593888375221483,1.486,0.534,0.152
1593888375729873,1.525,0.534,0.152
1593888376237137,1.486,0.534,0.152
1593888376741410,1.486,0.534,0.152
1593888377244323,1.448,0.534,0.152
1593888377747839,1.41,0.457,0.152
1593888378254038,1.448,0.457,0.152
1593888378756851,1.486,0.534,0.152
1593888379259766,1.525,0.534,0.152
1593888379762714,1.486,0.534,0.152
1593888380265632,1.486,0.534,0.152
1593888380768692,1.486,0.534,0.152
1593888381275555,1.448,0.534,0.152
1593888381778507,1.486,0.534,0.152
1593888382281468,1.372,0.457,0.152
1593888382789739,1.41,0.457,0.152
1593888383292465,1.486,0.534,0.152
1593888383794371,1.486,0.534,0.152
1593888384296200,1.525,0.534,0.152
1593888384798103,1.486,0.534,0.152
1593888385299945,1.486,0.534,0.152
1593888385801671,1.448,0.534,0.152
1593888386303506,1.448,0.457,0.152
1593888386805285,1.486,0.534,0.152
1593888387307142,1.448,0.534,0.152
1593888387809089,1.486,0.534,0.152
1593888388310803,1.486,0.534,0.152
1593888388812763,1.486,0.534,0.152
1593888389314584,1.525,0.534,0.152
1593888389816425,1.486,0.534,0.152
1593888390318182,1.486,0.457,0.152
1593888390819814,1.372,0.457,0.152
1593888391321544,1.448,0.457,0.152
1593888391823439,1.486,0.457,0.152
1593888392325281,1.486,0.534,0.152
1593888392827128,1.448,0.457,0.152
1593888393329141,1.486,0.534,0.152
1593888393830978,1.448,0.457,0.152
1593888394332762,1.486,0.534,0.152
1593888394834586,1.448,0.457,0.152
1593888395336424,1.448,0.457,0.152
1593888395838183,1.486,0.534,0.152
1593888396339947,1.448,0.457,0.152
1593888396841783,1.41,0.457,0.152
1593888397343704,1.486,0.534,0.152
1593888397845597,1.486,0.534,0.152
1593888398347452,1.525,0.534,0.152
1593888398849195,1.448,0.457,0.152
1593888399351053,1.639,0.534,0.152
1593888399852962,1.563,0.534,0.152
1593888400354721,1.525,0.534,0.152
1593888400856553,1.41,0.534,0.152
1593888401358450,1.525,0.534,0.152
1593888401860309,1.525,0.534,0.152
1593888402362080,1.486,0.534,0.152
1593888402863937,1.486,0.534,0.152
1593888403365735,1.486,0.534,0.152
1593888403867716,1.525,0.534,0.152
1593888404369484,1.448,0.457,0.152
1593888404871140,1.334,0.457,0.152
1593888405373244,1.448,0.457,0.152
1593888405875131,1.41,0.457,0.152
1593888406377282,1.486,0.534,0.152
1593888406879056,1.486,0.534,0.152
1593888407380880,1.448,0.534,0.152
1593888407882658,1.486,0.534,0.152
1593888408384622,1.525,0.534,0.152
1593888408886464,1.525,0.534,0.152
1593888409388371,1.448,0.534,0.152
1593888409890200,1.41,0.457,0.152
1593888410392019,1.448,0.534,0.152
1593888410893863,1.41,0.457,0.152
1593888411395743,1.448,0.457,0.152
1593888411897586,1.486,0.534,0.152
1593888412399499,1.448,0.534,0.152
1593888412901379,1.525,0.534,0.152
1593888413403198,1.486,0.534,0.152
1593888413906063,1.486,0.534,0.152
1593888414408892,1.525,0.534,0.152
1593888414912004,1.448,0.457,0.152
1593888415414855,1.372,0.457,0.152
1593888415917765,1.372,0.457,0.152
1593888416420849,1.448,0.457,0.152
1593888416923905,1.486,0.534,0.152
1593888417426866,1.448,0.457,0.152
1593888417929823,1.486,0.534,0.152
1593888418432795,1.486,0.534,0.152
1593888418936267,1.525,0.534,0.152
1593888419439014,1.486,0.534,0.152
1593888419943425,1.486,0.534,0.152
1593888420446467,1.448,0.534,0.152
1593888420949560,1.448,0.534,0.152
1593888421452780,1.486,0.534,0.152
1593888421955587,1.448,0.457,0.152
1593888422458505,1.525,0.534,0.152
1593888422961350,1.486,0.534,0.152
1593888423468330,1.448,0.457,0.152
1593888423971536,1.486,0.534,0.152
1593888424474514,1.41,0.457,0.152
1593888424977478,1.448,0.457,0.152
1593888425480348,1.486,0.534,0.152
1593888425983428,1.448,0.457,0.152
1593888426486323,1.486,0.457,0.152
1593888426989382,1.525,0.534,0.152
1593888427492285,1.525,0.534,0.152
1593888427995141,1.448,0.457,0.152
1593888428502549,1.486,0.457,0.152
1593888429005595,1.41,0.457,0.152
1593888429510171,1.41,0.457,0.152
1593888430012658,1.677,0.457,0.152
1593888430514539,1.715,0.534,0.152
1593888431016463,1.525,0.534,0.152
1593888431518350,1.525,0.534,0.152
1593888432021286,1.525,0.534,0.152
1593888432526312,1.525,0.534,0.152
1593888433028148,1.486,0.534,0.152
1593888433530076,1.486,0.534,0.152
1593888434031973,1.486,0.534,0.152
1593888434533863,1.486,0.534,0.152
1593888435035727,1.448,0.457,0.152
1593888435537638,1.486,0.534,0.152
1593888436039615,1.486,0.534,0.152
1593888436541444,1.41,0.457,0.152
1593888437043367,1.486,0.457,0.152
1593888437545132,1.486,0.534,0.152
1593888438046953,1.486,0.457,0.152
1593888438548834,1.486,0.534,0.152
1593888439050684,1.448,0.457,0.152
1593888439552636,1.486,0.457,0.152
1593888440054430,1.448,0.457,0.152
1593888440556447,1.486,0.534,0.152
1593888441058317,1.486,0.534,0.152
1593888441560164,1.448,0.457,0.152
1593888442062011,1.525,0.534,0.152
1593888442563900,1.448,0.457,0.152
1593888443065626,1.486,0.534,0.152
1593888443567407,1.448,0.457,0.152
1593888444069151,1.41,0.457,0.152
1593888444573505,1.486,0.457,0.152
1593888445075446,1.486,0.534,0.152
1593888445577327,1.448,0.534,0.152
1593888446079164,1.486,0.534,0.152
1593888446581056,1.486,0.534,0.152
1593888447082889,1.486,0.534,0.152
1593888447587262,1.486,0.534,0.152
1593888448089292,1.486,0.534,0.152
1593888448591085,1.448,0.534,0.152
1593888449092995,1.448,0.457,0.152
1593888449597675,1.486,0.534,0.152
1593888450099432,1.448,0.457,0.152
1593888450601301,1.486,0.534,0.152
1593888451103142,1.486,0.534,0.152
1593888451605111,1.486,0.534,0.152
1593888452107014,1.486,0.534,0.152
1593888452608888,1.486,0.534,0.152
1593888453110680,1.486,0.534,0.152
1593888453612643,1.41,0.534,0.152
1593888454114418,1.486,0.534,0.152
1593888454619034,1.486,0.534,0.152
1593888455121075,1.486,0.534,0.152
1593888455622944,1.525,0.534,0.152
1593888456124801,1.486,0.534,0.152
1593888456626650,1.525,0.534,0.152
1593888457128641,1.486,0.534,0.152
1593888457630379,1.486,0.534,0.152
1593888458132137,1.448,0.534,0.152
1593888458633887,1.41,0.457,0.152
1593888459135810,1.486,0.534,0.152
1593888459640679,1.601,0.457,0.152
1593888460142492,1.563,0.534,0.152
1593888460644300,1.486,0.534,0.152
1593888461146208,1.486,0.457,0.152
1593888461648006,1.486,0.534,0.152
1593888462149765,1.41,0.457,0.152
1593888462651647,1.448,0.534,0.152
1593888463153402,1.448,0.534,0.152
1593888463655148,1.372,0.457,0.152
1593888464157091,1.486,0.457,0.152
1593888464661655,1.486,0.534,0.152
1593888465163635,1.486,0.534,0.152
1593888465665491,1.525,0.534,0.152
1593888466167459,1.525,0.534,0.152
1593888466669361,1.525,0.534,0.152
1593888467171126,1.486,0.534,0.152
1593888467672818,1.372,0.457,0.152
1593888468174474,1.372,0.457,0.152
1593888468676425,1.601,0.457,0.152
1593888469178270,1.486,0.534,0.152
1593888469682706,1.486,0.457,0.152
1593888470184580,1.525,0.534,0.152
1593888470686423,1.448,0.457,0.152
1593888471188333,1.525,0.534,0.152
1593888471690212,1.448,0.457,0.152
1593888472192166,1.372,0.457,0.152
1593888472693928,1.41,0.457,0.152
1593888473195743,1.448,0.457,0.152
1593888473697525,1.448,0.534,0.152
1593888474199282,1.525,0.534,0.152
1593888474702137,1.525,0.534,0.152
1593888475205223,1.525,0.534,0.152
1593888475714094,1.486,0.534,0.152
1593888476217964,1.525,0.534,0.152
1593888476720838,1.448,0.534,0.152
1593888477233300,1.41,0.457,0.152
1593888477740550,1.486,0.534,0.152
1593888478243712,1.448,0.457,0.152
1593888478746620,1.525,0.534,0.152
1593888479249611,1.525,0.534,0.152
1593888479752995,1.525,0.534,0.152
1593888480255803,1.486,0.534,0.152
1593888480758785,1.525,0.534,0.152
1593888481261810,1.41,0.457,0.152
1593888481764892,1.334,0.457,0.152
1593888482267635,1.448,0.457,0.152
1593888482770511,1.448,0.457,0.152
1593888483273487,1.448,0.457,0.152
1593888483776522,1.486,0.534,0.152
1593888484279300,1.486,0.534,0.152
1593888484782233,1.525,0.534,0.152
1593888485285227,1.448,0.534,0.152
1593888485788225,1.448,0.457,0.152
1593888486296328,1.677,0.534,0.152
1593888486799463,1.563,0.457,0.152
1593888487302358,1.639,0.457,0.152
1593888487805137,1.525,0.534,0.152
1593888488308425,1.601,0.534,0.152
1593888488817864,1.792,0.457,0.152
1593888489320765,1.83,0.457,0.152
1593888489824058,1.639,0.534,0.152
1593888490327185,1.753,0.533,0.152
1593888490830249,1.486,0.457,0.152
1593888491333106,1.372,0.457,0.152
1593888491836240,1.41,0.457,0.152
1593888492338512,1.486,0.457,0.152
1593888492840530,1.486,0.534,0.152
1593888493342262,1.525,0.534,0.152
1593888493844143,1.486,0.534,0.152
1593888494346062,1.525,0.534,0.152
1593888494847922,1.486,0.534,0.152
1593888495352547,1.41,0.457,0.152
1593888495854333,1.448,0.534,0.152
1593888496356143,1.372,0.457,0.152
1593888496857866,1.448,0.457,0.152
1593888497359727,1.486,0.457,0.152
1593888497861521,1.448,0.457,0.152
1593888498364847,1.486,0.457,0.152
1593888498866704,1.525,0.534,0.152
1593888499368583,1.448,0.457,0.152
1593888499871636,1.525,0.534,0.152
1593888500377141,1.486,0.534,0.152
1593888500880163,1.486,0.534,0.152
1593888501383233,1.525,0.534,0.152
1593888501886118,1.525,0.534,0.152
1593888502389118,1.486,0.534,0.152
1593888502892182,1.486,0.534,0.152
1593888503395028,1.486,0.534,0.152
1593888503898301,1.486,0.534,0.152
1593888504401482,1.525,0.534,0.152
1593888504904360,1.486,0.534,0.152
1593888505407709,1.486,0.534,0.152
1593888505910688,1.41,0.457,0.152
1593888506413605,1.448,0.534,0.152
1593888506917086,1.448,0.534,0.152
1593888507420419,1.448,0.457,0.152
1593888507923422,1.525,0.534,0.152
1593888508426180,1.448,0.534,0.152
1593888508929231,1.486,0.534,0.152
1593888509432229,1.525,0.534,0.152
1593888509935129,1.525,0.534,0.152
1593888510439381,1.525,0.534,0.152
1593888510942361,1.448,0.534,0.152
1593888511445458,1.448,0.534,0.152
1593888511948399,1.486,0.534,0.152
1593888512451257,1.486,0.534,0.152
1593888512954379,1.486,0.534,0.152
1593888513457170,1.486,0.534,0.152
1593888513960282,1.486,0.534,0.152
1593888514463205,1.486,0.534,0.152
1593888514966222,1.525,0.534,0.152
1593888515472309,1.448,0.534,0.152
1593888515975116,1.448,0.457,0.152
1593888516477974,1.525,0.534,0.152
1593888516980949,1.486,0.534,0.152
1593888517484048,1.525,0.534,0.152
1593888517986296,1.486,0.534,0.152
1593888518488155,1.372,0.457,0.152
1593888518990045,1.486,0.534,0.152
1593888519497392,1.486,0.534,0.152
1593888520000373,1.715,0.533,0.152
1593888520503471,1.753,0.533,0.152
1593888521006214,1.601,0.534,0.152
1593888521510399,1.563,0.534,0.152
1593888522014606,1.486,0.534,0.152
1593888522517686,1.525,0.534,0.152
1593888523021305,1.525,0.534,0.152
1593888523524104,1.448,0.534,0.152
1593888524026942,1.486,0.534,0.152
1593888524529996,1.525,0.534,0.152
1593888525032925,1.486,0.534,0.152
1593888525538305,1.525,0.534,0.152
1593888526041191,1.486,0.534,0.152
1593888526545259,1.486,0.534,0.152
1593888527048254,1.486,0.534,0.152
1593888527551090,1.486,0.534,0.152
1593888528054063,1.563,0.534,0.152
1593888528557245,1.486,0.534,0.152
1593888529060291,1.525,0.534,0.152
1593888529563130,1.525,0.534,0.152
1593888530066026,1.486,0.534,0.152
1593888530577073,1.525,0.534,0.152
1593888531079963,1.41,0.457,0.152
1593888531582867,1.448,0.457,0.152
1593888532086034,1.448,0.457,0.152
1593888532589069,1.486,0.534,0.152
1593888533092200,1.486,0.534,0.152
1593888533595299,1.486,0.534,0.152
1593888534098289,1.448,0.457,0.152
1593888534601394,1.525,0.534,0.152
1593888535104302,1.486,0.534,0.152
1593888535610073,1.486,0.534,0.152
1593888536113816,1.41,0.457,0.152
1593888536616273,1.486,0.457,0.152
1593888537118101,1.486,0.534,0.152
1593888537619984,1.486,0.534,0.152
1593888538121829,1.486,0.534,0.152
1593888538623670,1.486,0.534,0.152
1593888539125494,1.525,0.534,0.152
1593888539627219,1.448,0.457,0.152
1593888540129044,1.486,0.457,0.152
1593888540634604,1.448,0.534,0.152
1593888541138020,1.41,0.457,0.152
1593888541641108,1.486,0.534,0.152
1593888542143961,1.486,0.534,0.152
1593888542646801,1.486,0.534,0.152
1593888543149801,1.448,0.457,0.152
1593888543652760,1.448,0.457,0.152
1593888544155605,1.486,0.534,0.152
1593888544658424,1.41,0.457,0.152
1593888545161504,1.41,0.457,0.152
1593888545664795,1.41,0.457,0.152
1593888546167830,1.486,0.457,0.152
1593888546670821,1.486,0.534,0.152
1593888547173665,1.525,0.534,0.152
1593888547676593,1.486,0.534,0.152
1593888548179474,1.525,0.534,0.152
1593888548682471,1.448,0.457,0.152
1593888549185547,1.448,0.457,0.152
1593888549688516,1.448,0.457,0.152
1593888550191961,1.639,0.534,0.152
1593888550695080,1.677,0.533,0.152
1593888551199469,1.563,0.534,0.152
1593888551705741,1.525,0.534,0.152
1593888552208901,1.525,0.534,0.152
1593888552712627,1.486,0.534,0.152
1593888553215627,1.448,0.457,0.152
1593888553718533,1.41,0.457,0.152
1593888554221403,1.372,0.457,0.152
1593888554723610,1.486,0.534,0.152
1593888555225482,1.448,0.534,0.152
1593888555730010,1.525,0.534,0.152
1593888556231970,1.448,0.457,0.152
1593888556733811,1.448,0.457,0.152
1593888557235714,1.486,0.534,0.152
1593888557737507,1.448,0.534,0.152
1593888558239433,1.486,0.534,0.152
1593888558741278,1.41,0.457,0.152
1593888559243113,1.525,0.534,0.152
1593888559744908,1.486,0.534,0.152
1593888560246855,1.525,0.534,0.152
1593888560751668,1.486,0.534,0.152
1593888561253541,1.486,0.534,0.152
1593888561755489,1.525,0.534,0.152
1593888562257241,1.41,0.457,0.152
1593888562759136,1.448,0.457,0.152
1593888563261076,1.448,0.534,0.152
1593888563762769,1.486,0.534,0.152
1593888564264614,1.525,0.534,0.152
1593888564766462,1.486,0.534,0.152
1593888565268355,1.525,0.534,0.152
1593888565773209,1.486,0.534,0.152
1593888566275035,1.486,0.534,0.152
1593888566776883,1.41,0.457,0.152
1593888567278610,1.448,0.457,0.152
1593888567780441,1.448,0.457,0.152
1593888568282204,1.486,0.534,0.152
1593888568788510,1.486,0.534,0.152
1593888569290373,1.486,0.534,0.152
1593888569792309,1.525,0.534,0.152
1593888570294076,1.486,0.457,0.152
1593888570797970,1.448,0.457,0.152
1593888571299916,1.486,0.534,0.152
1593888571801725,1.448,0.534,0.152
1593888572303541,1.486,0.534,0.152
1593888572805303,1.486,0.534,0.152
1593888573307183,1.486,0.534,0.152
1593888573809036,1.486,0.534,0.152
1593888574310895,1.448,0.534,0.152
1593888574812714,1.448,0.457,0.152
1593888575314473,1.41,0.457,0.152
1593888575819040,1.486,0.457,0.152
1593888576321269,1.525,0.534,0.152
1593888576823050,1.486,0.534,0.152
1593888577325013,1.525,0.534,0.152
1593888577826846,1.486,0.534,0.152
1593888578328712,1.525,0.534,0.152
1593888578830485,1.486,0.534,0.152
1593888579332468,1.448,0.534,0.152
1593888579834246,1.448,0.457,0.152
1593888580336630,1.41,0.457,0.152
1593888580841442,1.486,0.534,0.152
1593888581343381,1.486,0.534,0.152
1593888581845243,1.486,0.534,0.152
1593888582347098,1.525,0.534,0.152
1593888582848933,1.486,0.534,0.152
1593888583350702,1.486,0.534,0.152
1593888583852522,1.41,0.457,0.152
1593888584354376,1.486,0.534,0.152
1593888584856138,1.486,0.534,0.152
1593888585358078,1.486,0.534,0.152
1593888585862865,1.525,0.534,0.152
1593888586364624,1.448,0.534,0.152
1593888586866445,1.525,0.534,0.152
1593888587368843,1.486,0.534,0.152
1593888587870593,1.448,0.457,0.152
1593888588372355,1.41,0.457,0.152
1593888588874025,1.41,0.457,0.152
1593888589375936,1.448,0.457,0.152
1593888589877641,1.486,0.534,0.152
1593888590379682,1.486,0.457,0.152
1593888590884498,1.525,0.534,0.152
1593888591386356,1.486,0.534,0.152
1593888591888213,1.486,0.534,0.152
1593888592390012,1.41,0.457,0.152
1593888592891800,1.448,0.457,0.152
1593888593393522,1.41,0.457,0.152
1593888593895429,1.41,0.457,0.152
1593888594397297,1.486,0.457,0.152
1593888594899137,1.486,0.534,0.152
1593888595401125,1.486,0.534,0.152
1593888595905809,1.525,0.534,0.152
1593888596407705,1.448,0.534,0.152
1593888596909417,1.448,0.457,0.152
1593888597411170,1.41,0.457,0.152
1593888597913069,1.41,0.457,0.152
1593888598414909,1.486,0.534,0.152
1593888598916846,1.486,0.534,0.152
1593888599418677,1.525,0.534,0.152
1593888599924796,1.486,0.534,0.152
1593888600429104,1.563,0.534,0.152
1593888600932224,1.448,0.534,0.152
1593888601435254,1.372,0.457,0.152
1593888601938281,1.41,0.457,0.152
1593888602441405,1.41,0.457,0.152
1593888602944442,1.448,0.457,0.152
1593888603450431,1.486,0.457,0.152
1593888603953479,1.486,0.534,0.152
1593888604456652,1.486,0.534,0.152
1593888604958499,1.486,0.534,0.152
1593888605460373,1.448,0.457,0.152
1593888605966230,1.525,0.534,0.152
1593888606469157,1.448,0.457,0.152
1593888606972148,1.448,0.457,0.152
1593888607480630,1.486,0.534,0.152
1593888607983587,1.486,0.534,0.152
1593888608486735,1.525,0.534,0.152
1593888608988635,1.486,0.534,0.152
1593888609490575,1.525,0.534,0.152
1593888609992509,1.525,0.534,0.152
1593888610494311,1.486,0.534,0.152
1593888610998820,1.448,0.457,0.152
1593888611500743,1.486,0.534,0.152
1593888612002478,1.486,0.534,0.152
1593888612504412,1.41,0.457,0.152
1593888613006180,1.448,0.457,0.152
1593888613508091,1.486,0.457,0.152
1593888614009926,1.448,0.457,0.152
1593888614511690,1.448,0.457,0.152
1593888615013318,1.372,0.457,0.152
1593888615514990,1.41,0.457,0.152
1593888616019372,1.486,0.534,0.152
1593888616521130,1.448,0.457,0.152
1593888617022917,1.486,0.534,0.152
1593888617524795,1.486,0.534,0.152
1593888618026600,1.448,0.457,0.152
1593888618528366,1.525,0.534,0.152
1593888619030146,1.448,0.534,0.152
1593888619531914,1.41,0.457,0.152
1593888620033671,1.41,0.457,0.152
1593888620535522,1.41,0.457,0.152
1593888621040184,1.525,0.534,0.152
1593888621541980,1.486,0.534,0.152
1593888622043809,1.448,0.457,0.152
1593888622545629,1.486,0.457,0.152
1593888623047503,1.486,0.534,0.152
1593888623549338,1.486,0.534,0.152
1593888624051123,1.486,0.534,0.152
1593888624552938,1.448,0.534,0.152
1593888625054758,1.486,0.534,0.152
1593888625556618,1.486,0.457,0.152
1593888626063204,1.525,0.534,0.152
1593888626565136,1.448,0.457,0.152
1593888627066998,1.486,0.534,0.152
1593888627568998,1.525,0.534,0.152
1593888628073210,1.525,0.534,0.152
1593888628575127,1.448,0.457,0.152
1593888629076940,1.448,0.534,0.152
1593888629578784,1.41,0.534,0.152
1593888630080817,1.486,0.534,0.152
1593888630582643,1.486,0.534,0.152
1593888631087247,1.486,0.534,0.152
1593888631589106,1.525,0.534,0.152
1593888632090924,1.486,0.534,0.152
1593888632593757,1.525,0.534,0.152
1593888633096622,1.525,0.534,0.152
1593888633599586,1.525,0.534,0.152
1593888634102672,1.486,0.534,0.152
1593888634605687,1.41,0.457,0.152
1593888635108819,1.448,0.534,0.152
1593888635610620,1.448,0.534,0.152
1593888636115058,1.486,0.457,0.152
1593888636616887,1.486,0.534,0.152
1593888637118599,1.486,0.534,0.152
1593888637620438,1.486,0.534,0.152
1593888638122257,1.486,0.534,0.152
1593888638624095,1.486,0.534,0.152
1593888639125935,1.448,0.534,0.152
1593888639627853,1.486,0.534,0.152
1593888640129567,1.448,0.534,0.152
1593888640631378,1.601,0.457,0.152
1593888641136228,1.525,0.534,0.152
1593888641638061,1.486,0.534,0.152
1593888642139966,1.563,0.534,0.152
1593888642641879,1.486,0.534,0.152
1593888643143817,1.486,0.534,0.152
1593888643646106,1.41,0.457,0.152
1593888644148347,1.41,0.457,0.152
1593888644650208,1.486,0.534,0.152
1593888645152165,1.486,0.534,0.152
1593888645654009,1.486,0.534,0.152
1593888646158802,1.486,0.534,0.152
1593888646660704,1.486,0.534,0.152
1593888647162492,1.448,0.534,0.152
1593888647664307,1.41,0.534,0.152
1593888648166012,1.448,0.457,0.152
1593888648667944,1.601,0.534,0.152
1593888649169832,1.525,0.534,0.152
1593888649671801,1.525,0.534,0.152
1593888650173634,1.448,0.457,0.152
1593888650676608,1.486,0.534,0.152
1593888651181212,1.486,0.534,0.152
1593888651683048,1.486,0.534,0.152
1593888652185138,1.448,0.534,0.152
1593888652686965,1.41,0.457,0.152
1593888653188852,1.486,0.534,0.152
1593888653690634,1.448,0.457,0.152
1593888654192457,1.525,0.534,0.152
1593888654694337,1.486,0.534,0.152
1593888655196951,1.448,0.457,0.152
1593888655699922,1.486,0.534,0.152
1593888656202829,1.41,0.457,0.152
1593888656706038,1.486,0.534,0.152
1593888657208925,1.41,0.457,0.152
1593888657712131,1.448,0.534,0.152
1593888658215096,1.486,0.534,0.152
1593888658718548,1.41,0.457,0.152
1593888659221009,1.448,0.457,0.152
1593888659728882,1.486,0.534,0.152
1593888660230740,1.486,0.534,0.152
1593888660732626,1.525,0.534,0.152
1593888661234477,1.448,0.534,0.152
1593888661736307,1.486,0.457,0.152
1593888662238005,1.41,0.457,0.152
1593888662739916,1.41,0.457,0.152
1593888663241759,1.486,0.457,0.152
1593888663743708,1.486,0.534,0.152
1593888664245617,1.486,0.534,0.152
1593888664747482,1.486,0.534,0.152
1593888665249289,1.486,0.534,0.152
1593888665751221,1.486,0.457,0.152
1593888666253142,1.486,0.534,0.152
1593888666757711,1.525,0.534,0.152
1593888667259513,1.525,0.534,0.152
1593888667761338,1.486,0.534,0.152
1593888668263175,1.486,0.534,0.152
1593888668768773,1.486,0.534,0.152
1593888669270590,1.448,0.457,0.152
1593888669772409,1.525,0.534,0.152
1593888670274215,1.448,0.534,0.152
1593888670776177,1.639,0.534,0.152
1593888671278008,1.486,0.457,0.152
1593888671786700,1.448,0.457,0.152
1593888672289825,1.525,0.457,0.152
1593888672792813,1.486,0.534,0.152
1593888673295863,1.486,0.534,0.152
1593888673798769,1.525,0.534,0.152
1593888674301714,1.448,0.534,0.152
1593888674804615,1.448,0.457,0.152
1593888675307537,1.41,0.457,0.152
1593888675810598,1.372,0.457,0.152
1593888676313560,1.486,0.457,0.152
1593888676820541,1.525,0.534,0.152
1593888677323506,1.525,0.534,0.152
1593888677826582,1.525,0.534,0.152
1593888678329697,1.525,0.534,0.152
1593888678832658,1.486,0.534,0.152
1593888679335778,1.41,0.534,0.152
1593888679838611,1.448,0.534,0.152
1593888680341633,1.41,0.457,0.152
1593888680844575,1.41,0.457,0.152
1593888681347693,1.486,0.534,0.152
1593888681850779,1.486,0.534,0.152
1593888682353769,1.525,0.534,0.152
1593888682856937,1.486,0.534,0.152
1593888683360039,1.486,0.534,0.152
1593888683862891,1.486,0.534,0.152
1593888684365936,1.41,0.457,0.152
1593888684868900,1.448,0.534,0.152
1593888685371887,1.448,0.534,0.152
1593888685874123,1.525,0.534,0.152
1593888686376012,1.486,0.534,0.152
1593888686877934,1.486,0.534,0.152
1593888687379818,1.525,0.534,0.152
1593888687881707,1.448,0.457,0.152
1593888688383664,1.525,0.534,0.152
1593888688885615,1.486,0.534,0.152
1593888689387529,1.486,0.534,0.152
1593888689889421,1.486,0.534,0.152
1593888690391176,1.486,0.534,0.152
1593888690893050,1.486,0.534,0.152
1593888691394885,1.486,0.457,0.152
1593888691896764,1.486,0.534,0.152
1593888692401368,1.525,0.534,0.152
1593888692903370,1.525,0.534,0.152
1593888693405199,1.486,0.534,0.152
1593888693907040,1.525,0.534,0.152
1593888694408767,1.486,0.534,0.152
1593888694910613,1.525,0.534,0.152
1593888695412465,1.448,0.534,0.152
1593888695914254,1.486,0.534,0.152
1593888696416169,1.486,0.457,0.152
1593888696918052,1.486,0.534,0.152
1593888697422553,1.448,0.534,0.152
1593888697924433,1.41,0.457,0.152
1593888698426308,1.486,0.534,0.152
1593888698928127,1.486,0.534,0.152
1593888699430008,1.448,0.534,0.152
1593888699932414,1.486,0.534,0.152
1593888700435494,1.525,0.534,0.152
1593888700938396,1.639,0.534,0.152
1593888701442080,1.753,0.533,0.152
1593888701944911,1.639,0.534,0.152
1593888702448045,1.486,0.457,0.152
1593888702950737,1.525,0.534,0.152
1593888703453286,1.486,0.534,0.152
1593888703956430,1.486,0.534,0.152
1593888704459647,1.525,0.534,0.152
1593888704965397,1.486,0.534,0.152
1593888705468357,1.486,0.534,0.152
1593888705971551,1.41,0.457,0.152
1593888706474481,1.486,0.534,0.152
1593888706976760,1.486,0.534,0.152
1593888707481715,1.486,0.534,0.152
1593888707983646,1.525,0.534,0.152
1593888708485468,1.448,0.457,0.152
1593888708987488,1.677,0.457,0.152
1593888709489313,1.525,0.534,0.152
1593888709991192,1.41,0.457,0.152
1593888710493059,1.448,0.534,0.152
1593888710994993,1.486,0.534,0.152
1593888711496920,1.525,0.534,0.152
1593888711998639,1.486,0.534,0.152
1593888712504569,1.525,0.534,0.152
1593888713007529,1.525,0.534,0.152
1593888713511937,1.486,0.534,0.152
1593888714014871,1.448,0.457,0.152
1593888714517986,1.372,0.457,0.152
1593888715021119,1.372,0.457,0.152
1593888715524213,1.448,0.457,0.152
1593888716026951,1.486,0.534,0.152
1593888716529967,1.525,0.534,0.152
1593888717032981,1.486,0.534,0.152
1593888717536088,1.486,0.534,0.152
1593888718038850,1.486,0.534,0.152
1593888718542219,1.486,0.534,0.152
1593888719049367,1.41,0.457,0.152
1593888719552367,1.448,0.457,0.152
1593888720055428,1.525,0.534,0.152
1593888720558359,1.486,0.534,0.152
1593888721061251,1.525,0.534,0.152
1593888721564376,1.486,0.534,0.152
1593888722067582,1.525,0.534,0.152
1593888722570505,1.486,0.534,0.152
1593888723073665,1.448,0.457,0.152
1593888723576956,1.486,0.534,0.152
1593888724079971,1.448,0.457,0.152
1593888724582744,1.525,0.534,0.152
1593888725085665,1.486,0.534,0.152
1593888725588923,1.525,0.534,0.152
1593888726091824,1.525,0.534,0.152
1593888726594786,1.486,0.534,0.152
1593888727097781,1.448,0.457,0.152
1593888727600619,1.372,0.457,0.152
1593888728103572,1.486,0.534,0.152
1593888728606492,1.486,0.534,0.152
1593888729110012,1.448,0.457,0.152
1593888729612171,1.486,0.534,0.152
1593888730113944,1.486,0.457,0.152
1593888730615852,1.525,0.534,0.152
1593888731117652,1.448,0.457,0.152
1593888731619587,1.486,0.534,0.152
1593888732121426,1.486,0.534,0.152
1593888732623158,1.448,0.457,0.152
1593888733125434,1.448,0.457,0.152
1593888733631910,1.486,0.534,0.152
1593888734134774,1.525,0.534,0.152
1593888734637667,1.525,0.534,0.152
1593888735140575,1.525,0.534,0.152
1593888735643691,1.525,0.534,0.152
1593888736146425,1.486,0.457,0.152
1593888736649251,1.448,0.534,0.152
1593888737152306,1.525,0.534,0.152
1593888737654510,1.486,0.534,0.152
1593888738156443,1.525,0.534,0.152
1593888738658332,1.525,0.534,0.152
1593888739160085,1.448,0.457,0.152
1593888739661847,1.486,0.534,0.152
1593888740163655,1.41,0.457,0.152
1593888740665474,1.448,0.457,0.152
1593888741167295,1.448,0.457,0.152
1593888741669126,1.486,0.534,0.152
1593888742170988,1.525,0.534,0.152
1593888742673473,1.486,0.534,0.152
1593888743175288,1.525,0.534,0.152
1593888743677107,1.448,0.534,0.152
1593888744181722,1.486,0.534,0.152
1593888744683638,1.41,0.457,0.152
1593888745185466,1.41,0.457,0.152
1593888745687405,1.486,0.534,0.152
1593888746189185,1.448,0.457,0.152
1593888746691007,1.448,0.534,0.152
1593888747192926,1.525,0.534,0.152
1593888747694774,1.486,0.534,0.152
1593888748196619,1.486,0.534,0.152
1593888748698469,1.41,0.457,0.152
1593888749202983,1.486,0.534,0.152
1593888749706226,1.486,0.534,0.152
1593888750209686,1.525,0.534,0.152
1593888750712478,1.525,0.534,0.152
1593888751215555,1.486,0.534,0.152
1593888751717903,1.486,0.534,0.152
1593888752219801,1.41,0.457,0.152
1593888752721641,1.486,0.534,0.152
1593888753223479,1.448,0.457,0.152
1593888753725173,1.448,0.457,0.152
1593888754229695,1.448,0.457,0.152
1593888754731479,1.448,0.534,0.152
1593888755233206,1.486,0.534,0.152
1593888755735038,1.486,0.534,0.152
1593888756236991,1.448,0.457,0.152
1593888756738857,1.486,0.457,0.152
1593888757240626,1.448,0.457,0.152
1593888757742539,1.448,0.534,0.152
1593888758244400,1.448,0.534,0.152
1593888758746250,1.448,0.457,0.152
1593888759250778,1.486,0.457,0.152
1593888759752654,1.486,0.534,0.152
1593888760254584,1.486,0.534,0.152
1593888760756485,1.486,0.534,0.152
1593888761258258,1.486,0.534,0.152
1593888761760133,1.601,0.534,0.152
1593888762261959,1.448,0.457,0.152
1593888762764062,1.486,0.457,0.152
1593888763265900,1.525,0.534,0.152
1593888763767735,1.486,0.534,0.152
1593888764272444,1.525,0.534,0.152
1593888764774202,1.486,0.534,0.152
1593888765276022,1.486,0.457,0.152
1593888765777851,1.41,0.457,0.152
1593888766288809,1.41,0.457,0.152
1593888766790633,1.486,0.534,0.152
1593888767292464,1.448,0.534,0.152
1593888767794301,1.525,0.534,0.152
1593888768296270,1.486,0.534,0.152
1593888768798019,1.448,0.457,0.152
1593888769302601,1.448,0.534,0.152
1593888769805322,1.448,0.457,0.152
1593888770307039,1.41,0.457,0.152
1593888770808825,1.486,0.534,0.152
1593888771310664,1.448,0.457,0.152
1593888771812600,1.486,0.534,0.152
1593888772314428,1.486,0.534,0.152
1593888772816317,1.486,0.534,0.152
1593888773318087,1.486,0.534,0.152
1593888773819980,1.486,0.534,0.152
1593888774324732,1.486,0.534,0.152
1593888774826494,1.372,0.457,0.152
1593888775328794,1.448,0.457,0.152
1593888775831752,1.486,0.534,0.152
1593888776333565,1.486,0.534,0.152
1593888776835464,1.525,0.534,0.152
1593888777337307,1.486,0.534,0.152
1593888777840171,1.525,0.534,0.152
1593888778341929,1.448,0.534,0.152
1593888778844029,1.448,0.534,0.152
1593888779349625,1.448,0.534,0.152
1593888779852556,1.448,0.457,0.152
1593888780355687,1.486,0.457,0.152
1593888780858880,1.525,0.534,0.152
1593888781361586,1.525,0.534,0.152
1593888781864560,1.525,0.534,0.152
1593888782367573,1.486,0.534,0.152
1593888782870363,1.41,0.457,0.152
1593888783373212,1.486,0.534,0.152
1593888783876487,1.525,0.534,0.152
1593888784379576,1.525,0.534,0.152
1593888784882231,1.486,0.534,0.152
1593888785384158,1.753,0.533,0.152
1593888785885935,1.563,0.457,0.152
1593888786388285,1.639,0.457,0.152
1593888786890160,1.563,0.534,0.152
1593888787392011,1.715,0.533,0.152
1593888787893796,1.639,0.457,0.152
1593888788395676,1.486,0.457,0.152
1593888788897489,1.525,0.534,0.152
1593888789402232,1.753,0.533,0.152
1593888789904063,1.639,0.534,0.152
1593888790405782,1.715,0.457,0.152
1593888790907656,1.715,0.533,0.152
1593888791409543,1.639,0.533,0.152
1593888791911514,1.639,0.457,0.152
1593888792413477,1.563,0.534,0.152
1593888792915388,1.486,0.534,0.152
1593888793417362,1.448,0.457,0.152
1593888793919174,1.486,0.534,0.152
1593888794424592,1.525,0.534,0.152
1593888794927425,1.525,0.534,0.152
1593888795430283,1.486,0.534,0.152
1593888795933224,1.525,0.534,0.152
1593888796435655,1.41,0.457,0.152
1593888796937505,1.41,0.457,0.152
1593888797439436,1.486,0.534,0.152
1593888797941346,1.486,0.534,0.152
1593888798443402,1.563,0.534,0.152
1593888798945235,1.525,0.534,0.152
1593888799449844,1.486,0.534,0.152
1593888799951730,1.486,0.534,0.152
1593888800453495,1.448,0.534,0.152
1593888800955228,1.448,0.534,0.152
1593888801457182,1.41,0.457,0.152
1593888801958906,1.486,0.457,0.152
1593888802460875,1.486,0.534,0.152
1593888802962683,1.525,0.534,0.152
1593888803464584,1.486,0.534,0.152
1593888803966539,1.525,0.534,0.152
1593888804471967,1.525,0.534,0.152
1593888804974831,1.525,0.534,0.152
1593888805476602,1.41,0.457,0.152
1593888805978319,1.372,0.457,0.152
1593888806480295,1.486,0.457,0.152
1593888806982149,1.486,0.534,0.152
1593888807484054,1.525,0.534,0.152
1593888807985812,1.486,0.534,0.152
1593888808487848,1.486,0.457,0.152
1593888808989779,1.525,0.534,0.152
1593888809495067,1.525,0.534,0.152
1593888809996941,1.525,0.534,0.152
1593888810498750,1.525,0.534,0.152
1593888811000618,1.486,0.534,0.152
1593888811502460,1.525,0.534,0.152
1593888812004343,1.525,0.534,0.152
1593888812506233,1.525,0.534,0.152
1593888813008153,1.41,0.457,0.152
1593888813509690,1.334,0.457,0.152
1593888814011454,1.41,0.457,0.152
1593888814516670,1.486,0.457,0.152
1593888815018486,1.448,0.457,0.152
1593888815520440,1.486,0.457,0.152
1593888816022651,1.486,0.457,0.152
1593888816524683,1.486,0.534,0.152
1593888817026553,1.486,0.534,0.152
1593888817528397,1.41,0.457,0.152
1593888818030036,1.334,0.457,0.152
1593888818531751,1.41,0.457,0.152
1593888819033591,1.448,0.534,0.152
1593888819538785,1.486,0.534,0.152
1593888820040812,1.525,0.534,0.152
1593888820542656,1.448,0.534,0.152
1593888821044487,1.486,0.534,0.152
1593888821546192,1.601,0.457,0.152
1593888822047991,1.486,0.457,0.152
1593888822549897,1.486,0.534,0.152
1593888823051676,1.525,0.534,0.152
1593888823553442,1.448,0.534,0.152
1593888824055902,1.448,0.534,0.152
1593888824562259,1.525,0.534,0.152
1593888825065446,1.448,0.534,0.152
1593888825568535,1.525,0.534,0.152
1593888826071665,1.486,0.534,0.152
1593888826574623,1.525,0.534,0.152
1593888827077616,1.448,0.534,0.152
1593888827580538,1.41,0.457,0.152
1593888828082880,1.448,0.534,0.152
1593888828584771,1.448,0.457,0.152
1593888829086626,1.525,0.534,0.152
1593888829593014,1.525,0.534,0.152
1593888830095905,1.525,0.534,0.152
1593888830598194,1.486,0.534,0.152
1593888831100112,1.448,0.457,0.152
1593888831601980,1.486,0.534,0.152
1593888832103943,1.486,0.534,0.152
1593888832605775,1.486,0.534,0.152
1593888833107734,1.41,0.457,0.152
1593888833609451,1.486,0.534,0.152
1593888834111285,1.486,0.534,0.152
1593888834616417,1.486,0.534,0.152
1593888835118261,1.486,0.534,0.152
1593888835620260,1.486,0.534,0.152
1593888836122066,1.486,0.534,0.152
1593888836623954,1.486,0.534,0.152
1593888837125879,1.486,0.534,0.152
1593888837627702,1.448,0.534,0.152
1593888838129504,1.41,0.457,0.152
1593888838631402,1.448,0.457,0.152
1593888839133307,1.448,0.457,0.152
1593888839635200,1.486,0.534,0.152
1593888840137205,1.525,0.534,0.152
1593888840639192,1.525,0.534,0.152
1593888841141174,1.525,0.534,0.152
1593888841642917,1.448,0.457,0.152
1593888842144767,1.486,0.534,0.152
1593888842646583,1.41,0.534,0.152
1593888843148392,1.448,0.457,0.152
1593888843650229,1.486,0.534,0.152
1593888844152038,1.486,0.534,0.152
1593888844657087,1.486,0.534,0.152
1593888845158862,1.448,0.534,0.152
1593888845660682,1.486,0.534,0.152
1593888846162548,1.486,0.534,0.152
1593888846664516,1.448,0.534,0.152
1593888847166148,1.372,0.457,0.152
1593888847669503,1.372,0.457,0.152
1593888848171464,1.486,0.457,0.152
1593888848673319,1.486,0.534,0.152
1593888849175163,1.486,0.534,0.152
1593888849677087,1.525,0.534,0.152
1593888850178935,1.525,0.534,0.152
1593888850680927,1.525,0.534,0.152
1593888851183154,1.486,0.534,0.152
1593888851685092,1.639,0.534,0.152
1593888852186876,1.486,0.534,0.152
1593888852688720,1.486,0.457,0.152
1593888853193586,1.486,0.534,0.152
1593888853695471,1.448,0.457,0.152
1593888854197187,1.486,0.534,0.152
1593888854698997,1.486,0.457,0.152
1593888855200847,1.486,0.534,0.152
1593888855702670,1.486,0.534,0.152
1593888856204594,1.41,0.457,0.152
1593888856706440,1.486,0.534,0.152
1593888857208384,1.486,0.534,0.152
1593888857710148,1.448,0.457,0.152
1593888858211978,1.525,0.534,0.152
1593888858717528,1.525,0.534,0.152
1593888859219438,1.525,0.534,0.152
1593888859721142,1.448,0.457,0.152
1593888860225507,1.486,0.534,0.152
1593888860727432,1.448,0.534,0.152
1593888861229217,1.41,0.457,0.152
1593888861731053,1.448,0.534,0.152
1593888862232988,1.486,0.534,0.152
1593888862734892,1.525,0.534,0.152
1593888863236704,1.486,0.534,0.152
1593888863738601,1.448,0.534,0.152
1593888864240442,1.525,0.534,0.152
1593888864742295,1.448,0.534,0.152
1593888865246962,1.525,0.534,0.152
1593888865748986,1.448,0.457,0.152
1593888866250788,1.372,0.457,0.152
1593888866752515,1.41,0.457,0.152
1593888867254357,1.448,0.457,0.152
1593888867756150,1.486,0.534,0.152
1593888868258028,1.525,0.534,0.152
1593888868759923,1.486,0.534,0.152
1593888869261801,1.486,0.534,0.152
1593888869763645,1.486,0.534,0.152
1593888870265514,1.525,0.534,0.152
1593888870767239,1.41,0.457,0.152
1593888871270239,1.41,0.457,0.152
1593888871773687,1.486,0.534,0.152
1593888872276776,1.486,0.534,0.152
1593888872780062,1.525,0.534,0.152
1593888873281930,1.486,0.534,0.152
1593888873783732,1.448,0.534,0.152
1593888874285551,1.486,0.457,0.152
1593888874787269,1.41,0.457,0.152
1593888875289115,1.486,0.457,0.152
1593888875790748,1.372,0.457,0.152
1593888876292395,1.372,0.457,0.152
1593888876794199,1.41,0.457,0.152
1593888877296158,1.448,0.457,0.152
1593888877797983,1.486,0.534,0.152
1593888878299867,1.525,0.534,0.152
1593888878801704,1.486,0.534,0.152
1593888879303576,1.525,0.534,0.152
1593888879805422,1.448,0.457,0.152
1593888880307461,1.448,0.457,0.152
1593888880813131,1.448,0.534,0.152
1593888881315900,1.448,0.457,0.152
1593888881824695,1.601,0.534,0.152
1593888882327583,1.525,0.457,0.152
1593888882830733,1.525,0.534,0.152
1593888883333785,1.486,0.534,0.152
1593888883837327,1.448,0.457,0.152
1593888884340247,1.486,0.457,0.152
1593888884843187,1.486,0.534,0.152
1593888885346124,1.448,0.534,0.152
1593888885849382,1.41,0.457,0.152
1593888886352297,1.448,0.457,0.152
1593888886855254,1.486,0.534,0.152
1593888887358430,1.486,0.534,0.152
1593888887861478,1.525,0.534,0.152
1593888888364601,1.486,0.534,0.152
1593888888867559,1.525,0.534,0.152
1593888889370335,1.486,0.534,0.152
1593888889873305,1.41,0.457,0.152
1593888890376356,1.448,0.457,0.152
1593888890882115,1.448,0.457,0.152
1593888891384799,1.486,0.534,0.152
1593888891887854,1.486,0.534,0.152
1593888892390744,1.486,0.534,0.152
1593888892893817,1.525,0.534,0.152
1593888893396731,1.448,0.457,0.152
1593888893899875,1.448,0.534,0.152
1593888894402743,1.448,0.534,0.152
1593888894907791,1.486,0.534,0.152
1593888895410028,1.486,0.534,0.152
1593888895912833,1.448,0.457,0.152
1593888896415916,1.486,0.534,0.152
1593888896918652,1.486,0.534,0.152
1593888897421186,1.448,0.457,0.152
1593888897922954,1.448,0.534,0.152
1593888898424749,1.372,0.457,0.152
1593888898926576,1.372,0.457,0.152
1593888899428420,1.448,0.457,0.152
1593888899930242,1.448,0.534,0.152
1593888900432185,1.525,0.534,0.152
1593888900934046,1.525,0.534,0.152
1593888901439128,1.525,0.534,0.152
1593888901941090,1.525,0.534,0.152
1593888902442967,1.525,0.534,0.152
1593888902944817,1.486,0.534,0.152
1593888903446666,1.41,0.534,0.152
1593888903948613,1.486,0.534,0.152
1593888904450456,1.448,0.457,0.152
1593888904952324,1.486,0.457,0.152
1593888905454171,1.486,0.534,0.152
1593888905956174,1.525,0.534,0.152
1593888906461701,1.525,0.534,0.152
1593888906964630,1.525,0.534,0.152
1593888907466921,1.448,0.534,0.152
1593888907969809,1.372,0.457,0.152
1593888908472923,1.448,0.457,0.152
1593888908976136,1.486,0.534,0.152
1593888909478963,1.448,0.457,0.152
1593888909982358,1.448,0.457,0.152
1593888910485174,1.448,0.457,0.152
1593888910988318,1.448,0.457,0.152
1593888911491915,1.525,0.534,0.152
1593888911994740,1.715,0.533,0.152
1593888912497795,1.792,0.533,0.152
1593888913001182,1.639,0.534,0.152
1593888913503033,1.563,0.534,0.152
1593888914004796,1.525,0.534,0.152
1593888914506646,1.448,0.457,0.152
1593888915009250,1.486,0.534,0.152
1593888915512215,1.448,0.457,0.152
1593888916015084,1.525,0.534,0.152
1593888916518463,1.486,0.534,0.152
1593888917021539,1.448,0.457,0.152
1593888917524442,1.41,0.457,0.152
1593888918029881,1.372,0.457,0.152
1593888918533506,1.486,0.457,0.152
1593888919036386,1.525,0.534,0.152
1593888919539298,1.448,0.457,0.152
1593888920042534,1.486,0.534,0.152
1593888920545879,1.448,0.457,0.152
1593888921048936,1.486,0.534,0.152
1593888921551967,1.448,0.534,0.152
1593888922054842,1.41,0.457,0.152
1593888922557853,1.486,0.534,0.152
1593888923060101,1.41,0.457,0.152
1593888923562068,1.41,0.457,0.152
1593888924063977,1.486,0.534,0.152
1593888924565795,1.486,0.534,0.152
1593888925067668,1.525,0.534,0.152
1593888925569548,1.448,0.457,0.152
1593888926071641,1.486,0.534,0.152
1593888926573484,1.41,0.457,0.152
1593888927078166,1.372,0.457,0.152
1593888927580053,1.486,0.457,0.152
1593888928081911,1.486,0.534,0.152
1593888928583827,1.486,0.534,0.152
1593888929085675,1.525,0.534,0.152
1593888929587579,1.448,0.534,0.152
1593888930089369,1.563,0.534,0.152
1593888930591196,1.486,0.534,0.152
1593888931093053,1.486,0.534,0.152
1593888931594760,1.486,0.457,0.152
1593888932099163,1.715,0.457,0.152
1593888932602276,1.906,0.533,0.152
1593888933105214,1.906,0.533,0.152
1593888933608369,1.944,0.533,0.152
1593888934111454,1.753,0.533,0.152
1593888934614425,1.525,0.457,0.152
1593888935117283,1.486,0.534,0.152
1593888935620274,1.41,0.457,0.152
1593888936123070,1.448,0.534,0.152
1593888936626076,1.448,0.457,0.152
1593888937131591,1.448,0.534,0.152
1593888937634378,1.486,0.534,0.152
1593888938137261,1.448,0.457,0.152
1593888938639798,1.525,0.534,0.152
1593888939141539,1.486,0.534,0.152
1593888939643510,1.486,0.534,0.152
1593888940145288,1.448,0.534,0.152
1593888940655642,1.41,0.457,0.152
1593888941157468,1.448,0.457,0.152
1593888941662295,1.448,0.457,0.152
1593888942166638,1.525,0.534,0.152
1593888942668527,1.486,0.534,0.152
1593888943170362,1.486,0.534,0.152
1593888943672554,1.525,0.534,0.152
1593888944174341,1.448,0.534,0.152
1593888944676104,1.486,0.534,0.152
1593888945177890,1.372,0.457,0.152
1593888945679632,1.372,0.457,0.152
1593888946181467,1.448,0.457,0.152
1593888946683298,1.448,0.457,0.152
1593888947188067,1.448,0.534,0.152
1593888947689871,1.486,0.534,0.152
1593888948191663,1.486,0.457,0.152
1593888948693491,1.525,0.534,0.152
1593888949195383,1.486,0.534,0.152
1593888949697166,1.448,0.457,0.152
1593888950200377,1.486,0.534,0.152
1593888950703554,1.41,0.457,0.152
1593888951206434,1.525,0.534,0.152
1593888951709503,1.486,0.534,0.152
1593888952215207,1.525,0.534,0.152
1593888952717051,1.486,0.534,0.152
1593888953218979,1.525,0.534,0.152
1593888953720899,1.525,0.534,0.152
1593888954222770,1.448,0.457,0.152
1593888954724405,1.486,0.534,0.152
1593888955225920,1.372,0.457,0.152
1593888955736922,1.41,0.457,0.152
1593888956239131,1.448,0.457,0.152
1593888956741012,1.448,0.457,0.152
1593888957246256,1.486,0.457,0.152
1593888957749229,1.486,0.534,0.152
1593888958252211,1.486,0.534,0.152
1593888958755162,1.525,0.534,0.152
1593888959258205,1.525,0.534,0.152
1593888959761085,1.448,0.534,0.152
1593888960264081,1.448,0.457,0.152
1593888960767182,1.486,0.534,0.152
1593888961270247,1.486,0.534,0.152
1593888961773564,1.525,0.534,0.152
1593888962276551,1.486,0.534,0.152
1593888962779572,1.486,0.534,0.152
1593888963282394,1.525,0.534,0.152
1593888963785403,1.525,0.534,0.152
1593888964288324,1.486,0.534,0.152
1593888964791219,1.41,0.457,0.152
1593888965293929,1.448,0.534,0.152
1593888965795737,1.448,0.534,0.152
1593888966297553,1.525,0.534,0.152
1593888966799498,1.486,0.534,0.152
1593888967301223,1.448,0.534,0.152
1593888967805717,1.525,0.534,0.152
1593888968307470,1.448,0.457,0.152
1593888968809264,1.41,0.457,0.152
1593888969311097,1.486,0.534,0.152
1593888969812991,1.448,0.457,0.152
1593888970314852,1.486,0.534,0.152
1593888970816679,1.486,0.534,0.152
1593888971318588,1.486,0.534,0.152
1593888971820430,1.486,0.534,0.152
1593888972322322,1.486,0.534,0.152
1593888972824103,1.486,0.534,0.152
1593888973325986,1.448,0.534,0.152
1593888973827864,1.486,0.534,0.152
1593888974334162,1.448,0.534,0.152
1593888974836344,1.486,0.534,0.152
1593888975338170,1.486,0.457,0.152
1593888975840001,1.41,0.457,0.152
1593888976341818,1.486,0.534,0.152
1593888976843689,1.448,0.534,0.152
1593888977346284,1.448,0.534,0.152
1593888977848127,1.448,0.534,0.152
1593888978349905,1.41,0.457,0.152
1593888978851798,1.486,0.534,0.152
1593888979353626,1.448,0.457,0.152
1593888979855432,1.448,0.534,0.152
1593888980357257,1.525,0.534,0.152
1593888980859203,1.448,0.457,0.152
1593888981361081,1.525,0.534,0.152
1593888981862859,1.448,0.457,0.152
1593888982364657,1.486,0.457,0.152
1593888982866441,1.486,0.534,0.152
1593888983368483,1.448,0.534,0.152
1593888983870352,1.486,0.534,0.152
1593888984372171,1.525,0.534,0.152
1593888984874010,1.448,0.457,0.152
1593888985375996,1.486,0.457,0.152
1593888985877848,1.486,0.457,0.152
1593888986379707,1.486,0.534,0.152
1593888986881550,1.525,0.534,0.152
1593888987383372,1.486,0.534,0.152
1593888987885102,1.486,0.457,0.152
1593888988386971,1.448,0.534,0.152
1593888988888822,1.41,0.457,0.152
1593888989390629,1.448,0.457,0.152
1593888989892381,1.41,0.457,0.152
1593888990397155,1.448,0.457,0.152
1593888990899042,1.525,0.534,0.152
1593888991400888,1.448,0.457,0.152
1593888991902719,1.486,0.534,0.152
1593888992404548,1.448,0.534,0.152
1593888992906285,1.448,0.457,0.152
1593888993411018,1.486,0.457,0.152
1593888993912884,1.448,0.534,0.152
1593888994414704,1.486,0.534,0.152
1593888994917470,1.486,0.534,0.152
1593888995420518,1.448,0.457,0.152
1593888995927448,1.486,0.534,0.152
1593888996430503,1.486,0.534,0.152
1593888996933455,1.486,0.534,0.152
1593888997436306,1.41,0.457,0.152
1593888997939418,1.448,0.457,0.152
1593888998444980,1.486,0.534,0.152
1593888998948226,1.448,0.534,0.152
1593888999453834,1.448,0.457,0.152
1593888999961023,1.448,0.457,0.152
1593889000463893,1.486,0.457,0.152
1593889000966758,1.486,0.534,0.152
1593889001469878,1.486,0.534,0.152
1593889001972896,1.486,0.534,0.152
1593889002475868,1.639,0.457,0.152
1593889002978699,1.601,0.457,0.152
1593889003482079,1.486,0.457,0.152
1593889003984877,1.448,0.457,0.152
1593889004488190,1.486,0.534,0.152
1593889004991478,1.486,0.534,0.152
1593889005494322,1.525,0.534,0.152
1593889005997176,1.486,0.534,0.152
1593889006500172,1.486,0.534,0.152
1593889007003085,1.448,0.534,0.152
1593889007505936,1.41,0.457,0.152
1593889008009096,1.486,0.457,0.152
1593889008514682,1.486,0.534,0.152
1593889009018122,1.486,0.534,0.152
1593889009521609,1.486,0.534,0.152
1593889010028236,1.486,0.534,0.152
1593889010531088,1.525,0.534,0.152
1593889011034194,1.486,0.534,0.152
1593889011538238,1.486,0.534,0.152
1593889012040729,1.448,0.534,0.152
1593889012542594,1.448,0.534,0.152
1593889013044446,1.525,0.534,0.152
1593889013549436,1.486,0.534,0.152
1593889014051264,1.525,0.534,0.152
1593889014553191,1.486,0.534,0.152
1593889015055179,1.525,0.534,0.152
1593889015557105,1.486,0.534,0.152
1593889016058989,1.486,0.534,0.152
1593889016560789,1.41,0.457,0.152
1593889017062411,1.334,0.457,0.152
1593889017564119,1.372,0.457,0.152
1593889018065981,1.486,0.457,0.152
1593889018570847,1.486,0.534,0.152
1593889019072697,1.525,0.534,0.152
1593889019574544,1.448,0.534,0.152
1593889020076419,1.525,0.457,0.152
1593889020578265,1.486,0.534,0.152
1593889021080177,1.525,0.534,0.152
1593889021582029,1.448,0.534,0.152
1593889022084123,1.41,0.457,0.152
1593889022585986,1.448,0.457,0.152
1593889023087913,1.448,0.457,0.152
1593889023592562,1.448,0.457,0.152
1593889024094319,1.448,0.457,0.152
1593889024596275,1.448,0.457,0.152
1593889025098230,1.486,0.534,0.152
1593889025600057,1.486,0.534,0.152
