timestamp	VIRTUAL_SCALING	CPU0_F	CPU1_F	CPU2_F	CPU3_F	CPU4_F	CPU5_F	GPU_FREQ	CPU_GOVERNOR	EMC_F	TEMP0	TEMP1	TEMP2	TEMP3	TEMP4	TEMP5	TEMP6	TEMP7
1593887745421289567	1	499	345	345	499	499	499	114750000	performance	408	28	27	26	28	25	24	100	27
1593887745840782270 	0	499	345	345	497	498	498	114750000	performance	408	28	28	26	27	25	24	100	27
1593887747561058297	1	499	345	345	499	499	499	114750000	performance	408	28	28	26	28	25	24	100	27
1593887747869393915 	0	498	345	345	499	499	498	114750000	performance	408	28	28	26	28	25	24	100	27
1593887749548348303	1	499	345	345	499	499	499	114750000	performance	408	28	28	26	28	25	24	100	27
1593887750132603727 	0	499	345	345	500	499	498	114750000	performance	408	28	28	26	27	25	24	100	27
1593887753289275077	1	499	345	345	499	499	499	114750000	performance	408	28	28	26	27	25	24	100	27
1593887754402439352 	0	498	345	345	499	499	499	114750000	performance	408	28	28	26	27	25	24	100	27
1593887758054322225	1	499	345	345	499	499	499	114750000	performance	408	28	28	26	28	25	24	100	27
1593887759236427816 	0	499	345	345	499	499	498	114750000	performance	408	28	28	26	28	25	24	100	27
1593887762694720060	1	499	345	345	499	499	499	114750000	performance	408	28	28	26	28	25	24	100	27
1593887764259558757 	0	498	345	345	499	499	499	114750000	performance	408	28	27	26	28	25	24	100	27
1593887767712640445	1	499	345	345	499	499	499	114750000	performance	408	28	28	26	28	25	24	100	27
1593887769032737917 	0	499	345	345	499	499	498	114750000	performance	408	28	28	26	28	25	24	100	27
1593887772127996457	1	499	345	345	499	499	499	114750000	performance	408	28	28	26	28	25	24	100	27
1593887773470228511 	0	499	345	345	499	498	499	114750000	performance	408	28	28	26	28	25	24	100	27
1593887776561158819	1	499	345	345	499	499	499	114750000	performance	408	28	28	26	28	25	24	100	27
1593887778112293577 	0	499	345	345	499	500	499	114750000	performance	408	28	28	26	28	25	24	100	27
1593887781273335595	1	499	345	345	499	499	499	114750000	performance	408	28	28	26	28	25	24	100	27
1593887782763544448 	0	499	345	345	498	499	499	114750000	performance	408	28	28	26	28	25	24	100	27
1593887785780094924	1	499	345	345	499	499	499	114750000	performance	408	28	28	26	28	25	24	100	27
1593887787172571576 	0	498	345	345	499	498	499	114750000	performance	408	28	28	26	28	25	24	100	27
1593887790337069574	1	499	345	345	499	499	499	114750000	performance	408	28	28	26	28	25	24	100	27
1593887791669325496 	0	499	345	345	499	499	500	114750000	performance	408	28	28	26	28	25	24	100	27
1593887795090461090	1	499	345	345	499	499	499	114750000	performance	408	28	28	26	28	25	24	100	27
1593887796284427159 	0	499	345	345	499	499	499	114750000	performance	408	27	28	26	28	25	24	100	27
1593887799577920061	1	499	345	345	499	499	499	114750000	performance	408	28	28	26	27	25	24	100	27
1593887800999682076 	0	499	345	346	499	499	498	114750000	performance	408	28	28	26	28	25	24	100	27
1593887804130399983	1	499	345	345	499	499	499	114750000	performance	408	28	28	26	28	25	24	100	27
1593887805497946324 	0	499	345	345	499	499	499	114750000	performance	408	28	28	26	28	25	24	100	27
1593887808702985780	1	499	345	345	499	499	499	114750000	performance	408	28	28	26	28	25	24	100	27
1593887810453923181 	0	499	345	345	499	499	498	114750000	performance	408	28	28	26	27	25	24	100	27
1593887813957299699	1	499	345	345	499	499	499	114750000	performance	408	28	27	26	28	25	24	100	27
1593887815255073924 	0	499	345	345	499	499	499	114750000	performance	408	28	28	26	27	25	24	100	26
1593887818379699955	1	499	345	345	499	499	499	114750000	performance	408	28	28	26	28	25	24	100	27
1593887819839223856 	0	499	345	345	499	499	499	114750000	performance	408	28	28	26	28	25	24	100	27
1593887823464286206	1	499	345	345	499	499	499	114750000	performance	408	28	28	26	28	25	24	100	27
1593887825046954115 	0	500	345	345	499	499	499	114750000	performance	408	28	28	26	28	25	24	100	27
1593887828486430127	1	499	345	345	499	499	499	114750000	performance	408	28	28	26	28	25	24	100	27
1593887829655556485 	0	498	345	345	499	499	499	114750000	performance	408	28	28	26	28	25	24	100	27
1593887833195777195	1	499	345	345	499	499	499	114750000	performance	408	28	28	26	28	25	24	100	27
1593887834421350922 	0	500	345	345	499	498	499	114750000	performance	408	28	28	26	28	25	24	100	27
1593887837151905751	1	499	345	345	499	499	499	114750000	performance	408	28	28	26	28	25	24	100	27
1593887838325504098 	0	499	345	345	499	498	499	114750000	performance	408	28	28	26	28	25	24	100	26
1593887841672799261	1	499	345	345	499	499	499	114750000	performance	408	28	28	26	28	25	24	100	27
1593887843334598923 	0	499	345	345	499	499	499	114750000	performance	408	28	28	26	28	25	24	100	27
1593887846498682533	1	499	345	345	499	499	499	114750000	performance	408	28	28	26	28	25	24	100	27
1593887847862610642 	0	498	345	345	499	499	498	114750000	performance	408	28	28	26	28	25	24	100	27
1593887851126727187	1	499	345	345	499	499	499	114750000	performance	408	28	28	26	28	25	24	100	27
1593887852573446227 	0	499	345	345	499	499	499	114750000	performance	408	27	28	26	28	25	24	100	27
1593887855631451813	1	499	345	345	499	499	499	114750000	performance	408	27	28	26	28	25	23	100	26
1593887856835860310 	0	499	345	345	499	499	499	114750000	performance	408	28	28	26	28	25	24	100	26
1593887859898335327	1	499	345	345	499	499	499	114750000	performance	408	28	28	26	28	25	24	100	27
1593887861294522113 	0	499	345	345	499	499	499	114750000	performance	408	28	27	26	28	25	24	100	26
1593887864440967386	1	499	345	345	499	499	499	114750000	performance	408	28	28	26	28	25	24	100	27
1593887865983886152 	0	499	345	345	498	499	498	114750000	performance	408	28	28	26	28	25	24	100	27
1593887869291559803	1	499	345	345	499	499	499	114750000	performance	408	28	28	26	28	25	24	100	27
1593887870698588208 	0	499	346	345	499	499	498	114750000	performance	408	27	28	26	28	25	24	100	27
1593887874085139331	1	499	345	345	499	499	499	114750000	performance	408	28	28	26	28	25	24	100	27
1593887875729054958 	0	498	345	345	498	499	499	114750000	performance	408	28	28	26	28	25	23	100	27
1593887879174465212	1	499	345	345	499	499	499	114750000	performance	408	28	28	26	28	25	24	100	27
1593887880697418506 	0	499	345	345	499	499	499	114750000	performance	408	28	28	26	28	25	23	100	27
1593887883700371861	1	499	345	345	499	499	499	114750000	performance	408	28	28	26	28	25	24	100	27
1593887885063265897 	0	499	345	345	499	499	499	114750000	performance	408	28	28	26	28	25	23	100	27
1593887888656891492	1	499	345	345	499	499	499	114750000	performance	408	28	28	26	28	25	24	100	27
1593887890424906264 	0	499	345	345	499	498	499	114750000	performance	408	28	28	26	28	25	24	100	27
1593887893747715251	1	499	345	345	499	499	499	114750000	performance	408	28	28	26	28	25	24	100	27
1593887894940614485 	0	499	345	345	499	499	499	114750000	performance	408	28	28	26	28	25	24	100	27
1593887898144607399	1	499	345	345	499	499	499	114750000	performance	408	28	28	26	28	25	24	100	27
1593887899691969123 	0	499	345	345	499	499	498	114750000	performance	408	28	28	26	28	25	23	100	27
1593887902861969629	1	499	345	345	499	499	499	114750000	performance	408	28	27	26	28	25	23	100	26
1593887903961246854 	0	499	345	345	499	498	499	114750000	performance	408	28	28	26	28	25	24	100	27
1593887907339203794	1	499	345	345	499	499	499	114750000	performance	408	28	28	26	28	25	24	100	27
1593887908776223844 	0	499	345	345	499	500	499	114750000	performance	408	27	27	26	27	25	23	100	26
1593887912261633799	1	499	345	345	499	499	499	114750000	performance	408	27	27	26	27	25	24	100	26
1593887913837102948 	0	498	345	345	499	498	498	114750000	performance	408	28	27	26	28	25	23	100	27
1593887917346846443	1	499	345	345	499	499	499	114750000	performance	408	27	28	26	28	25	24	100	27
1593887918747645412 	0	499	345	345	499	498	499	114750000	performance	408	28	28	26	28	25	24	100	27
1593887922123081860	1	499	345	345	499	499	499	114750000	performance	408	28	28	26	27	25	23	100	27
1593887923654978292 	0	499	345	345	499	499	499	114750000	performance	408	28	28	26	28	25	23	100	26
1593887926937158134	1	499	345	345	499	499	499	114750000	performance	408	27	27	26	27	25	24	100	26
1593887928248075886 	0	499	345	345	499	498	499	114750000	performance	408	28	28	26	28	25	24	100	27
1593887931816907997	1	499	345	345	499	499	499	114750000	performance	408	28	27	26	27	25	24	100	27
1593887933633959246 	0	499	345	345	500	498	500	114750000	performance	408	27	28	26	28	25	24	100	27
1593887936994914112	1	499	345	345	499	499	499	114750000	performance	408	27	28	26	27	25	23	100	26
1593887938414707582 	0	499	345	345	499	499	499	114750000	performance	408	27	27	26	28	25	24	100	26
1593887941465593984	1	499	345	345	499	499	499	114750000	performance	408	27	27	26	27	25	23	100	26
1593887942810362459 	0	499	345	345	499	498	499	114750000	performance	408	27	28	26	27	25	24	100	26
1593887946264170341	1	499	345	345	499	499	499	114750000	performance	408	27	27	26	27	25	24	100	26
1593887947563851069 	0	499	345	345	498	498	498	114750000	performance	408	27	27	26	27	25	23	100	26
1593887951284325581	1	499	345	345	499	499	499	114750000	performance	408	28	27	26	28	25	24	100	27
1593887952546290488 	0	499	345	345	498	498	499	114750000	performance	408	27	28	26	28	25	24	100	27
1593887955510515459	1	499	345	345	499	499	499	114750000	performance	408	28	27	26	28	25	24	100	26
1593887956521744551 	0	499	345	346	499	499	499	114750000	performance	408	27	27	26	28	25	23	100	26
1593887959218814625	1	499	345	345	499	499	499	114750000	performance	408	28	28	26	28	25	24	100	27
1593887960775132236 	0	498	345	345	499	499	499	114750000	performance	408	27	28	26	28	25	23	100	27
1593887963738111663	1	499	345	345	499	499	499	114750000	performance	408	27	27	26	27	25	24	100	26
1593887965272945789 	0	499	345	345	499	499	499	114750000	performance	408	27	27	26	27	25	23	100	27
1593887968747727821	1	499	345	345	499	499	499	114750000	performance	408	27	28	26	27	25	23	100	26
1593887970304903701 	0	499	345	345	499	498	499	114750000	performance	408	27	27	26	27	25	24	100	26
1593887973457898477	1	499	345	345	499	499	499	114750000	performance	408	27	28	26	27	25	24	100	27
1593887975103598355 	0	499	345	345	499	499	498	114750000	performance	408	27	27	26	27	25	23	100	26
1593887978527475627	1	499	345	345	499	499	499	114750000	performance	408	28	28	26	27	25	24	100	27
1593887979968143495 	0	498	345	345	499	498	498	114750000	performance	408	28	28	26	27	25	24	100	27
1593887983095182205	1	499	345	345	499	499	499	114750000	performance	408	27	28	26	27	25	23	100	27
1593887984855633904 	0	499	345	345	499	499	499	114750000	performance	408	28	28	26	27	25	23	100	27
1593887988437636529	1	499	345	345	499	499	499	114750000	performance	408	28	28	26	28	25	23	100	27
1593887989765354074 	0	499	345	345	499	499	498	114750000	performance	408	28	28	26	28	25	24	100	27
1593887993179689900	1	499	345	345	499	499	499	114750000	performance	408	28	28	26	28	25	24	100	27
1593887994859023293 	0	499	345	345	499	499	499	114750000	performance	408	28	28	26	28	25	23	100	27
1593887998170712751	1	499	345	345	499	499	499	114750000	performance	408	27	28	26	28	25	24	100	27
1593887999490002069 	0	499	345	345	499	498	499	114750000	performance	408	28	28	26	28	25	24	100	27
1593888002731876721	1	499	345	345	499	499	499	114750000	performance	408	28	28	26	28	25	24	100	27
1593888004412404412 	0	499	345	345	499	499	498	114750000	performance	408	27	28	26	28	25	23	100	27
1593888007767113972	1	499	345	345	499	499	499	114750000	performance	408	28	28	26	27	25	23	100	27
1593888009473805805 	0	498	345	345	498	498	498	114750000	performance	408	27	28	26	28	25	24	100	26
1593888012797675447	1	499	345	345	499	499	499	114750000	performance	408	28	28	26	28	25	24	100	27
1593888013760442356 	0	499	345	345	499	499	499	114750000	performance	408	28	28	26	28	25	23	100	27
1593888017598526931	1	499	345	345	499	499	499	114750000	performance	408	28	27	26	28	25	24	100	27
1593888018773316664 	0	499	345	345	499	499	499	114750000	performance	408	28	28	26	28	25	23	100	27
1593888022017485622	1	499	345	345	499	499	499	114750000	performance	408	28	28	26	28	25	23	100	27
1593888023556731902 	0	499	345	345	500	498	499	114750000	performance	408	28	28	26	28	25	23	100	27
1593888026676197726	1	499	345	345	499	499	499	114750000	performance	408	28	28	26	27	25	24	100	26
1593888027542422776 	0	498	345	345	498	499	499	114750000	performance	408	28	27	26	27	25	23	100	27
1593888030818378673	1	499	345	345	499	499	499	114750000	performance	408	28	28	26	28	25	24	100	27
1593888032328955565 	0	499	345	345	499	499	499	114750000	performance	408	28	28	26	28	25	24	100	26
1593888035637218228	1	499	345	345	499	499	499	114750000	performance	408	27	27	26	28	25	23	100	27
1593888037186934900 	0	499	345	345	499	498	499	114750000	performance	408	27	28	26	28	25	24	100	27
1593888040583195625	1	499	345	345	499	499	499	114750000	performance	408	28	27	26	27	25	23	100	27
1593888042096206160 	0	498	345	345	499	499	499	114750000	performance	408	28	27	26	28	25	24	100	27
1593888045544088325	1	499	345	345	499	499	499	114750000	performance	408	28	27	26	27	25	24	100	26
1593888046797919541 	0	499	345	345	499	499	499	114750000	performance	408	28	28	26	28	25	24	100	27
1593888049898258880	1	499	345	345	499	499	499	114750000	performance	408	28	27	26	28	25	24	100	27
1593888051386899566 	0	499	345	345	498	499	499	114750000	performance	408	27	27	26	28	25	23	100	27
1593888054488933224	1	499	345	345	499	499	499	114750000	performance	408	28	28	26	28	25	24	100	27
1593888055805500712 	0	499	345	345	498	498	500	114750000	performance	408	28	27	26	27	25	23	100	26
1593888058998301166	1	499	345	345	499	499	499	114750000	performance	408	28	28	26	28	25	24	100	27
1593888060443770824 	0	499	345	345	498	498	499	114750000	performance	408	27	28	26	27	25	23	100	27
1593888064021918428	1	499	345	345	499	499	499	114750000	performance	408	27	27	26	28	25	23	100	27
1593888065528858447 	0	499	345	345	499	499	499	114750000	performance	408	27	27	26	28	25	23	100	26
1593888069124957039	1	499	345	345	499	499	499	114750000	performance	408	28	27	26	28	25	23	100	27
1593888070624028346 	0	500	345	345	499	498	499	114750000	performance	408	27	27	26	28	25	24	100	27
1593888073997050889	1	499	345	345	499	499	499	114750000	performance	408	28	28	26	28	25	23	100	27
1593888075476404195 	0	498	345	345	498	499	499	114750000	performance	408	27	28	26	28	25	23	100	27
1593888078887039630	1	499	345	345	499	499	499	114750000	performance	408	28	27	26	28	25	24	100	26
1593888080363447820 	0	499	345	345	499	499	499	114750000	performance	408	27	28	26	28	25	23	100	26
1593888084036132442	1	499	345	345	499	499	499	114750000	performance	408	28	28	26	28	25	23	100	27
1593888085575116935 	0	499	345	345	499	499	499	114750000	performance	408	28	28	26	28	25	23	100	27
1593888088936402785	1	499	345	345	499	499	499	114750000	performance	408	28	28	26	28	25	24	100	27
1593888090414825072 	0	499	345	345	498	499	499	114750000	performance	408	28	28	26	28	25	24	100	27
1593888093456418452	1	499	345	345	499	499	499	114750000	performance	408	28	28	26	28	25	23	100	27
1593888095383523864 	0	498	345	345	499	499	498	114750000	performance	408	28	27	26	28	25	23	100	27
1593888098429494031	1	499	345	345	499	499	499	114750000	performance	408	28	28	26	28	25	23	100	27
1593888099570508316 	0	498	345	345	499	499	499	114750000	performance	408	27	27	26	27	25	23	100	26
1593888103035990565	1	499	345	345	499	499	499	114750000	performance	408	28	27	26	27	25	24	100	26
1593888104430872968 	0	499	345	345	499	498	499	114750000	performance	408	28	27	26	28	25	24	100	27
1593888107912328041	1	499	345	345	499	499	499	114750000	performance	408	28	28	26	28	25	23	100	26
1593888109230267093 	0	498	345	345	499	499	499	114750000	performance	408	27	27	26	28	25	23	100	26
1593888112858569565	1	499	345	345	499	499	499	114750000	performance	408	28	28	26	28	25	23	100	27
1593888114168340355 	0	499	345	345	499	499	499	114750000	performance	408	27	28	26	28	25	24	100	26
1593888117714223757	1	499	345	345	499	499	499	114750000	performance	408	28	28	26	27	25	24	100	27
1593888119117172159 	0	499	345	345	499	499	498	114750000	performance	408	28	27	26	28	25	24	100	27
1593888122721706408	1	499	345	345	499	499	499	114750000	performance	408	27	28	26	28	25	24	100	27
1593888124326625912 	0	499	345	345	499	500	499	114750000	performance	408	28	27	26	28	25	23	100	26
1593888127536244025	1	499	345	345	499	499	499	114750000	performance	408	27	28	26	28	25	24	100	27
1593888129256580717 	0	499	345	345	499	500	499	114750000	performance	408	27	27	26	28	25	23	100	26
1593888132840833333	1	499	345	345	499	499	499	114750000	performance	408	28	28	26	28	25	23	100	27
1593888134274436976 	0	499	345	345	499	499	498	114750000	performance	408	27	27	26	28	25	23	100	27
1593888137799077972	1	499	345	345	499	499	499	114750000	performance	408	27	28	26	28	25	23	100	26
1593888139402686007 	0	499	345	345	499	499	499	114750000	performance	408	27	28	26	28	25	23	100	26
1593888142810305991	1	499	345	345	499	499	499	114750000	performance	408	27	27	26	28	25	24	100	27
1593888144237054027 	0	499	345	345	499	499	499	114750000	performance	408	27	28	26	27	25	23	100	26
1593888147419603264	1	499	345	345	499	499	499	114750000	performance	408	28	28	26	28	25	23	100	26
1593888149119738997 	0	499	345	345	498	499	498	114750000	performance	408	27	27	26	28	25	23	100	26
1593888152280280689	1	499	345	345	499	499	499	114750000	performance	408	28	28	26	28	25	24	100	27
1593888153725219355 	0	499	345	345	499	498	499	114750000	performance	408	28	27	26	27	25	23	100	27
1593888157268708427	1	499	345	345	499	499	499	114750000	performance	408	28	28	26	28	25	24	100	27
1593888158622429527 	0	498	346	345	499	499	498	114750000	performance	408	27	27	26	27	25	23	100	26
1593888162226518771	1	499	345	345	499	499	499	114750000	performance	408	28	27	26	27	25	23	100	26
1593888163793836383 	0	499	345	345	499	498	499	114750000	performance	408	28	27	26	28	25	23	100	26
1593888167040376225	1	499	345	345	499	499	499	114750000	performance	408	28	27	26	27	25	23	100	26
1593888168585369081 	0	498	345	345	499	497	498	114750000	performance	408	27	28	26	27	25	23	100	26
1593888172181076283	1	499	345	345	499	499	499	114750000	performance	408	28	27	26	27	25	23	100	26
1593888173427539281 	0	498	345	345	499	499	499	114750000	performance	408	27	28	26	27	25	24	100	26
1593888176298919196	1	499	345	345	499	499	499	114750000	performance	408	28	28	26	28	25	24	100	27
1593888177905711119 	0	499	345	345	498	498	499	114750000	performance	408	28	28	26	27	25	23	100	27
1593888181445346595	1	499	345	345	499	499	499	114750000	performance	408	27	28	26	27	25	23	100	27
1593888182549813837 	0	500	345	345	498	499	499	114750000	performance	408	28	27	26	28	25	23	100	26
1593888185526179798	1	499	345	345	499	499	499	114750000	performance	408	28	27	26	27	25	23	100	26
1593888187580126722 	0	499	345	345	499	499	499	114750000	performance	408	27	27	26	27	25	23	100	26
1593888190781312920	1	499	345	345	499	499	499	114750000	performance	408	27	27	26	27	25	23	100	27
1593888192289680089 	0	498	345	344	499	499	499	114750000	performance	408	27	27	26	27	25	24	100	26
1593888195480598980	1	499	345	345	499	499	499	114750000	performance	408	27	27	26	28	25	23	100	26
1593888196803550497 	0	498	345	345	498	499	499	114750000	performance	408	27	27	26	27	25	23	100	26
1593888200373308845	1	499	345	345	499	499	499	114750000	performance	408	27	27	26	27	25	23	100	26
1593888202011542628 	0	499	345	345	499	499	499	114750000	performance	408	27	27	26	27	25	23	100	26
1593888205328924964	1	499	345	345	499	499	499	114750000	performance	408	27	27	26	27	25	23	100	26
1593888206720423091 	0	499	345	345	498	499	499	114750000	performance	408	27	27	26	28	25	24	100	26
1593888209685678022	1	499	345	345	499	499	499	114750000	performance	408	28	28	26	28	25	23	100	26
1593888211072909831 	0	499	345	345	499	499	499	114750000	performance	408	27	27	26	28	25	24	100	27
1593888213974907602	1	499	345	345	499	499	499	114750000	performance	408	28	28	26	28	25	24	100	27
1593888216027984854 	0	499	345	345	499	498	499	114750000	performance	408	27	28	26	28	25	23	100	26
1593888219514127804	1	499	345	345	499	499	499	114750000	performance	408	27	27	26	27	25	23	100	26
1593888220977810080 	0	499	345	345	500	497	499	114750000	performance	408	28	27	26	28	25	23	100	26
1593888224412029106	1	499	345	345	499	499	499	114750000	performance	408	27	27	26	28	25	23	100	26
1593888225886553190 	0	498	345	345	499	499	499	114750000	performance	408	27	27	26	27	25	24	100	26
1593888228633479155	1	499	345	345	499	499	499	114750000	performance	408	27	27	26	27	25	23	100	26
1593888230323027197 	0	499	345	345	498	499	499	114750000	performance	408	27	27	26	27	25	23	100	26
1593888233959219180	1	499	345	345	499	499	499	114750000	performance	408	27	27	26	27	25	24	100	26
1593888235512477230 	0	499	345	345	498	499	499	114750000	performance	408	27	27	26	27	25	23	100	26
1593888239183826140	1	499	345	345	499	499	499	114750000	performance	408	27	28	26	28	25	23	100	26
1593888240634962314 	0	498	345	345	499	498	499	114750000	performance	408	27	28	26	28	25	23	100	26
1593888243428449690	1	499	345	345	499	499	499	114750000	performance	408	27	27	26	27	25	24	100	26
1593888244783924402 	0	499	345	346	499	499	498	114750000	performance	408	28	28	26	28	25	23	100	27
1593888248080575600	1	499	345	345	499	499	499	114750000	performance	408	28	28	26	28	25	24	100	26
1593888249409866271 	0	498	345	345	498	500	499	114750000	performance	408	27	28	26	28	25	23	100	26
1593888252369596750	1	499	345	345	499	499	499	114750000	performance	408	27	27	26	27	25	23	100	26
1593888253983639418 	0	499	345	345	499	498	499	114750000	performance	408	28	27	26	28	25	23	100	26
1593888257137958517	1	499	345	345	499	499	499	114750000	performance	408	27	27	26	28	25	23	100	26
1593888258476409316 	0	498	345	345	498	498	499	114750000	performance	408	28	28	26	28	25	23	100	27
1593888261812910574	1	499	345	345	499	499	499	114750000	performance	408	27	27	26	27	25	23	100	26
1593888263523728168 	0	499	345	345	499	499	498	114750000	performance	408	28	27	26	28	25	23	100	26
1593888266922857839	1	499	345	345	499	499	499	114750000	performance	408	28	28	26	27	25	23	100	27
1593888268803238400 	0	500	345	345	497	500	498	114750000	performance	408	27	28	26	28	25	23	100	26
1593888272104298729	1	499	345	345	499	499	499	114750000	performance	408	28	28	26	27	25	24	100	27
1593888273642552851 	0	498	345	345	499	498	499	114750000	performance	408	28	27	26	28	25	23	100	26
1593888277066600118	1	499	345	345	499	499	499	114750000	performance	408	28	28	26	28	25	23	100	27
1593888278678827933 	0	499	345	345	499	499	499	114750000	performance	408	27	27	26	27	25	23	100	26
1593888282191167954	1	499	345	345	499	499	499	114750000	performance	408	28	27	26	27	25	23	100	27
1593888283819418165 	0	498	345	345	500	499	499	114750000	performance	408	27	27	26	28	25	24	100	26
1593888287101209012	1	499	345	345	499	499	499	114750000	performance	408	28	27	26	28	25	23	100	27
1593888288866645565 	0	498	345	345	499	498	499	114750000	performance	408	27	27	26	27	25	23	100	27
1593888291993849132	1	499	345	345	499	499	499	114750000	performance	408	27	28	26	28	25	23	100	26
1593888293494385702 	0	500	345	345	499	499	499	114750000	performance	408	27	27	26	28	25	23	100	26
1593888296603268318	1	499	345	345	499	499	499	114750000	performance	408	28	28	26	28	25	23	100	27
1593888298115542755 	0	499	345	345	498	499	499	114750000	performance	408	27	28	26	28	25	23	100	26
1593888301521993303	1	499	345	345	499	499	499	114750000	performance	408	27	27	26	27	25	23	100	27
1593888303081706125 	0	498	345	345	498	498	499	114750000	performance	408	27	27	26	27	25	23	100	26
1593888306652794761	1	499	345	345	499	499	499	114750000	performance	408	27	28	25	28	25	23	100	27
1593888308046211752 	0	498	345	345	499	499	499	114750000	performance	408	28	27	26	27	25	23	100	26
1593888311614385064	1	499	345	345	499	499	499	114750000	performance	408	27	27	26	27	25	23	100	26
1593888313225187662 	0	499	345	345	498	498	499	114750000	performance	408	27	28	26	28	25	23	100	27
1593888316426113938	1	499	345	345	499	499	499	114750000	performance	408	27	28	26	27	25	23	100	26
1593888318216871968 	0	499	345	345	498	499	499	114750000	performance	408	27	27	26	27	25	23	100	26
1593888321557680495	1	499	345	345	499	499	499	114750000	performance	408	27	27	26	27	25	23	100	26
1593888323402976643 	0	499	345	345	499	499	499	114750000	performance	408	27	27	26	27	25	24	100	26
1593888326141253127	1	499	345	345	499	499	499	114750000	performance	408	27	27	26	28	25	23	100	26
1593888327443256041 	0	498	345	345	499	499	499	114750000	performance	408	27	27	26	27	25	24	100	26
1593888330805853824	1	499	345	345	499	499	499	114750000	performance	408	28	28	26	27	25	23	100	27
1593888332603041906 	0	498	345	345	498	499	499	114750000	performance	408	27	27	26	27	25	24	100	26
1593888335865940570	1	499	345	345	499	499	499	114750000	performance	408	27	27	26	28	25	23	100	26
1593888337419034240 	0	499	345	345	499	499	499	114750000	performance	408	27	28	26	27	25	23	100	26
1593888340697320392	1	499	345	345	499	499	499	114750000	performance	408	27	27	26	27	25	23	100	26
1593888341942370143 	0	499	345	345	499	499	499	114750000	performance	408	27	27	26	27	25	23	100	26
1593888345248000110	1	499	345	345	499	499	499	114750000	performance	408	28	28	26	28	25	23	100	26
1593888347154709199 	0	499	345	345	499	499	498	114750000	performance	408	27	28	25	28	25	23	100	27
1593888350566632560	1	499	345	345	499	499	499	114750000	performance	408	28	28	26	28	25	24	100	27
1593888352289917228 	0	499	345	345	499	499	499	114750000	performance	408	27	27	26	28	25	23	100	26
1593888355712138274	1	499	345	345	499	499	499	114750000	performance	408	28	28	26	27	25	23	100	27
1593888357248878649 	0	498	345	345	498	499	498	114750000	performance	408	28	28	26	27	25	23	100	26
1593888360543694688	1	499	345	345	499	499	499	114750000	performance	408	28	28	25	28	25	24	100	27
1593888361655437835 	0	499	345	345	499	499	499	114750000	performance	408	28	28	26	27	25	23	100	27
1593888364984533976	1	499	345	345	499	499	499	114750000	performance	408	28	28	26	28	25	23	100	27
1593888366543734666 	0	498	345	345	498	499	499	114750000	performance	408	28	28	26	28	25	23	100	27
1593888369669739136	1	499	345	345	499	499	499	114750000	performance	408	28	28	26	27	25	23	100	27
1593888371168318475 	0	499	345	345	499	499	499	114750000	performance	408	27	28	26	28	25	23	100	27
1593888374663166615	1	499	345	345	499	499	499	114750000	performance	408	28	28	26	27	25	23	100	26
1593888376083412083 	0	498	345	345	499	499	498	114750000	performance	408	28	28	26	28	25	23	100	27
1593888379786484355	1	499	345	345	499	499	499	114750000	performance	408	28	28	26	28	25	23	100	27
1593888380944295189 	0	499	345	345	498	499	499	114750000	performance	408	27	27	26	28	25	24	100	27
1593888384017548636	1	499	345	345	499	499	499	114750000	performance	408	27	27	26	28	25	23	100	26
1593888385367766488 	0	499	345	345	499	498	498	114750000	performance	408	27	28	26	28	25	24	100	26
1593888388597133955	1	499	345	345	499	499	499	114750000	performance	408	28	28	26	27	25	23	100	27
1593888389976161331 	0	499	345	345	498	498	498	114750000	performance	408	27	27	26	27	25	23	100	26
1593888393567503357	1	499	345	345	499	499	499	114750000	performance	408	27	27	26	27	25	23	100	26
1593888395228593903 	0	499	345	345	499	499	499	114750000	performance	408	28	27	26	27	25	24	100	27
1593888398207144338	1	499	345	345	499	499	499	114750000	performance	408	28	28	26	28	25	24	100	27
1593888399515762818 	0	499	345	345	500	499	499	114750000	performance	408	27	27	26	28	25	24	100	26
1593888402746880390	1	499	345	345	499	499	499	114750000	performance	408	28	27	26	28	25	24	100	26
1593888404093305199 	0	499	345	345	499	499	499	114750000	performance	408	27	28	26	28	25	23	100	27
1593888407577344870	1	499	345	345	499	499	499	114750000	performance	408	27	27	26	27	25	23	100	26
1593888408883152278 	0	499	345	345	499	498	499	114750000	performance	408	27	28	26	27	25	23	100	26
1593888412604125927	1	499	345	345	499	499	499	114750000	performance	408	27	27	26	27	25	23	100	26
1593888414220080021 	0	498	345	345	499	499	499	114750000	performance	408	27	27	26	27	25	23	100	26
1593888417880406878	1	499	345	345	499	499	499	114750000	performance	408	28	28	26	27	25	23	100	26
1593888419472084619 	0	498	345	345	499	499	499	114750000	performance	408	27	27	26	28	25	23	100	26
1593888422399205308	1	499	345	345	499	499	499	114750000	performance	408	28	28	26	27	25	23	100	27
1593888423224991453 	0	499	345	345	499	500	499	114750000	performance	408	27	28	26	28	25	23	100	27
1593888426862276355	1	499	345	345	499	499	499	114750000	performance	408	28	28	26	28	25	23	100	27
1593888428282873644 	0	498	345	345	499	498	500	114750000	performance	408	28	28	26	28	25	23	100	27
1593888431613993706	1	499	345	345	499	499	499	114750000	performance	408	28	27	26	28	25	23	100	27
1593888433176507051 	0	499	345	345	498	498	499	114750000	performance	408	28	28	26	28	25	23	100	27
1593888436864100198	1	499	345	345	499	499	499	114750000	performance	408	28	28	26	28	25	23	100	27
1593888438153997920 	0	498	345	345	498	500	499	114750000	performance	408	27	28	26	27	25	23	100	27
1593888441486689428	1	499	345	345	499	499	499	114750000	performance	408	28	28	26	27	25	23	100	26
1593888442924868458 	0	498	345	345	499	499	499	114750000	performance	408	27	27	26	27	25	23	100	26
1593888446117967827	1	499	345	345	499	499	499	114750000	performance	408	28	27	26	27	25	23	100	27
1593888447690791663 	0	498	345	345	499	499	499	114750000	performance	408	27	27	26	27	25	23	100	26
1593888450791815575	1	499	345	345	499	499	499	114750000	performance	408	27	28	26	28	25	23	100	26
1593888452293405977 	0	498	345	345	499	499	499	114750000	performance	408	27	28	26	28	25	23	100	26
1593888455715992714	1	499	345	345	499	499	499	114750000	performance	408	27	27	26	28	25	23	100	26
1593888457285966211 	0	499	345	345	498	499	499	114750000	performance	408	27	28	26	27	25	23	100	26
1593888460345237087	1	499	345	345	499	499	499	114750000	performance	408	27	27	26	27	25	23	100	26
1593888461746349402 	0	499	345	345	499	499	499	114750000	performance	408	27	27	26	27	25	23	100	26
1593888465272438530	1	499	345	345	499	499	499	114750000	performance	408	27	27	26	27	25	23	100	26
1593888466399656165 	0	499	345	345	499	499	499	114750000	performance	408	27	27	26	27	25	23	100	26
1593888469898680263	1	499	345	345	499	499	499	114750000	performance	408	27	27	26	27	25	23	100	26
1593888471175817425 	0	499	345	345	499	498	499	114750000	performance	408	27	27	26	27	25	23	100	26
1593888474172387396	1	499	345	345	499	499	499	114750000	performance	408	27	27	26	27	25	23	100	26
1593888475832555160 	0	500	345	345	498	499	497	114750000	performance	408	27	27	26	27	25	23	100	26
1593888478858831958	1	499	345	345	499	499	499	114750000	performance	408	28	28	26	27	25	23	100	26
1593888480335477121 	0	499	345	345	499	499	498	114750000	performance	408	27	27	26	27	25	23	100	26
1593888483796177043	1	499	345	345	499	499	499	114750000	performance	408	27	27	26	27	25	23	100	26
1593888485530066124 	0	499	345	345	498	501	499	114750000	performance	408	27	28	26	27	25	23	100	26
1593888488729456587	1	499	345	345	499	499	499	114750000	performance	408	27	27	26	27	25	23	100	26
1593888490411129317 	0	498	345	345	499	498	499	114750000	performance	408	28	27	26	27	25	23	100	26
1593888493623268479	1	499	345	345	499	499	499	114750000	performance	408	27	27	26	27	25	23	100	26
1593888494651979112 	0	499	345	345	499	498	499	114750000	performance	408	27	27	26	27	25	23	100	26
1593888498468906697	1	499	345	345	499	499	499	114750000	performance	408	27	27	26	27	25	23	100	26
1593888500001390836 	0	499	345	345	498	498	499	114750000	performance	408	27	27	26	27	25	23	100	26
1593888503554606063	1	499	345	345	499	499	499	114750000	performance	408	27	27	26	27	25	23	100	26
1593888504956841799 	0	498	345	345	499	499	499	114750000	performance	408	27	27	26	27	25	23	100	26
1593888508231569658	1	499	345	345	499	499	499	114750000	performance	408	27	27	26	27	25	23	100	26
1593888509440405652 	0	498	345	345	499	499	498	114750000	performance	408	27	27	26	27	25	23	100	26
1593888512383091695	1	499	345	345	499	499	499	114750000	performance	408	27	27	26	27	25	23	100	26
1593888513790495798 	0	500	345	345	499	498	499	114750000	performance	408	27	27	26	27	25	23	100	26
1593888516802737596	1	499	345	345	499	499	499	114750000	performance	408	27	27	26	27	25	23	100	27
1593888517622475880 	0	498	345	346	499	499	499	114750000	performance	408	27	27	26	27	25	23	100	27
1593888520592294697	1	499	345	345	499	499	499	114750000	performance	408	27	27	26	27	25	23	100	26
1593888521749341373 	0	499	345	345	500	499	498	114750000	performance	408	27	27	26	27	25	23	100	26
1593888524780527455	1	499	345	345	499	499	499	114750000	performance	408	28	27	26	27	25	23	100	26
1593888526128013910 	0	499	345	345	500	498	499	114750000	performance	408	27	27	26	27	25	23	100	26
1593888529361967257	1	499	345	345	499	499	499	114750000	performance	408	27	28	26	27	25	24	100	26
1593888530421748962 	0	499	345	345	500	499	499	114750000	performance	408	27	27	26	27	25	23	100	27
1593888533439974928	1	499	345	345	499	499	499	114750000	performance	408	27	27	26	27	25	23	100	26
1593888534730611227 	0	499	345	345	498	498	499	114750000	performance	408	27	27	26	27	25	23	100	26
1593888537909193770	1	499	345	345	499	499	499	114750000	performance	408	27	27	26	27	25	23	100	26
1593888539346391073 	0	499	345	345	499	498	499	114750000	performance	408	27	27	26	28	25	23	100	26
1593888542564047897	1	499	345	345	499	499	499	114750000	performance	408	27	27	26	27	25	23	100	26
1593888544035231022 	0	498	345	345	499	499	499	114750000	performance	408	27	27	26	27	25	23	100	26
1593888547101786123	1	499	345	345	499	499	499	114750000	performance	408	27	27	26	27	25	23	100	26
1593888548149945265 	0	499	345	345	499	499	499	114750000	performance	408	27	27	26	27	25	23	100	26
1593888551565591614	1	499	345	345	499	499	499	114750000	performance	408	27	27	26	27	25	23	100	26
1593888552526795757 	0	498	345	345	499	499	499	114750000	performance	408	27	27	26	27	25	23	100	26
1593888555372950911	1	499	345	345	499	499	499	114750000	performance	408	27	27	26	27	25	23	100	26
1593888556733284597 	0	498	345	345	499	499	499	114750000	performance	408	27	27	26	27	25	23	100	26
1593888559851689757	1	499	345	345	499	499	499	114750000	performance	408	27	27	26	27	25	23	100	26
1593888561499009615 	0	499	345	345	499	500	499	114750000	performance	408	27	27	26	27	25	23	100	26
1593888564313375351	1	499	345	345	499	499	499	114750000	performance	408	27	27	26	28	25	23	100	26
1593888565616340870 	0	499	345	345	499	499	499	114750000	performance	408	27	27	26	27	25	23	100	26
1593888568693963419	1	499	345	345	499	499	499	114750000	performance	408	27	27	26	27	25	23	100	26
1593888570134201527 	0	499	345	345	499	499	499	114750000	performance	408	27	27	26	27	25	23	100	26
1593888572995634997	1	499	345	345	499	499	499	114750000	performance	408	27	27	26	27	25	23	100	26
1593888573854628879 	0	498	345	345	498	499	498	114750000	performance	408	27	27	26	27	25	23	100	26
1593888577109940268	1	499	345	345	499	499	499	114750000	performance	408	27	27	25	27	25	23	100	26
1593888578608318379 	0	499	345	345	499	499	498	114750000	performance	408	27	27	26	27	25	23	100	26
1593888581509623402	1	499	345	345	499	499	499	114750000	performance	408	27	27	26	27	25	23	100	26
1593888582728044873 	0	499	345	345	498	498	499	114750000	performance	408	27	27	26	27	25	23	100	26
1593888585665312053	1	499	345	345	499	499	499	114750000	performance	408	27	27	26	27	25	23	100	26
1593888587135037540 	0	499	345	345	500	499	499	114750000	performance	408	27	27	26	27	25	23	100	26
1593888590394449026	1	499	345	345	499	499	499	114750000	performance	408	27	27	26	27	25	23	100	26
1593888591639795630 	0	499	345	345	499	498	499	114750000	performance	408	27	27	26	27	25	23	100	26
1593888595075253350	1	499	345	345	499	499	499	114750000	performance	408	27	27	25	28	25	23	100	26
1593888596251299330 	0	499	345	345	499	498	499	114750000	performance	408	27	27	26	27	25	23	100	26
1593888599288996802	1	499	345	345	499	499	499	114750000	performance	408	27	27	26	27	25	23	100	26
1593888600558677329 	0	498	345	345	498	498	498	114750000	performance	408	27	27	26	27	25	23	100	26
1593888603824182704	1	499	345	345	499	499	499	114750000	performance	408	27	27	26	27	25	23	100	26
1593888605010116613 	0	499	345	345	499	499	498	114750000	performance	408	27	27	26	27	25	23	100	27
1593888608225898186	1	499	345	345	499	499	499	114750000	performance	408	28	27	26	27	25	23	100	26
1593888609427999735 	0	498	345	345	498	499	499	114750000	performance	408	27	27	26	27	25	23	100	26
1593888612482380393	1	499	345	345	499	499	499	114750000	performance	408	27	27	26	27	25	23	100	26
1593888614049615266 	0	498	345	345	498	499	499	114750000	performance	408	27	27	26	27	25	23	100	26
1593888617244914888	1	499	345	345	499	499	499	114750000	performance	408	28	27	25	27	25	23	100	26
1593888618686957083 	0	499	345	345	499	499	498	114750000	performance	408	27	27	26	27	25	23	100	26
1593888622286322009	1	499	345	345	499	499	499	114750000	performance	408	27	27	26	27	25	23	100	26
1593888623556691941 	0	498	345	345	499	499	499	114750000	performance	408	27	27	26	28	25	23	100	26
1593888626909207272	1	499	345	345	499	499	499	114750000	performance	408	27	28	26	28	25	23	100	26
1593888628153837632 	0	498	345	345	499	499	499	114750000	performance	408	27	27	25	27	25	23	100	26
1593888631708800107	1	499	345	345	499	499	499	114750000	performance	408	27	27	26	27	25	23	100	26
1593888633370786673 	0	498	345	345	499	499	498	114750000	performance	408	27	28	26	27	25	23	100	26
1593888636334833433	1	499	345	345	499	499	499	114750000	performance	408	27	27	26	27	25	23	100	26
1593888637885922720 	0	498	345	345	498	498	499	114750000	performance	408	27	27	26	27	25	23	100	26
1593888641384927856	1	499	345	345	499	499	499	114750000	performance	408	27	27	26	27	25	23	100	26
1593888642452336602 	0	500	345	345	499	499	499	114750000	performance	408	27	27	26	27	25	23	100	26
1593888645318516189	1	499	345	345	499	499	499	114750000	performance	408	27	27	26	27	25	23	100	26
1593888646604370349 	0	499	345	345	500	499	499	114750000	performance	408	27	27	26	27	25	23	100	26
1593888649805951325	1	499	345	345	499	499	499	114750000	performance	408	27	27	26	27	25	23	100	26
1593888651141784838 	0	499	345	345	499	499	499	114750000	performance	408	27	27	25	27	25	23	100	26
1593888654358166204	1	499	345	345	499	499	499	114750000	performance	408	27	27	25	27	25	23	100	26
1593888655752264775 	0	499	345	345	499	499	498	114750000	performance	408	27	27	26	27	25	24	100	26
1593888659293387855	1	499	345	345	499	499	499	114750000	performance	408	27	27	26	27	25	23	100	26
1593888660780843536 	0	498	345	345	499	499	498	114750000	performance	408	27	27	26	27	25	23	100	26
1593888664132216748	1	499	345	345	499	499	499	114750000	performance	408	27	27	25	27	25	23	100	26
1593888665595681798 	0	499	345	345	499	499	498	114750000	performance	408	27	27	26	27	25	23	100	26
1593888668709206697	1	499	345	345	499	499	499	114750000	performance	408	27	27	25	27	25	23	100	26
1593888669913429321 	0	499	345	345	499	499	499	114750000	performance	408	27	27	26	27	25	23	100	26
1593888673016510904	1	499	345	345	499	499	499	114750000	performance	408	27	27	26	27	25	23	100	26
1593888674378853134 	0	499	345	345	499	498	499	114750000	performance	408	27	27	25	27	25	23	100	26
1593888677291670519	1	499	345	345	499	499	499	114750000	performance	408	27	27	26	27	25	23	100	26
1593888678479998497 	0	498	345	345	499	498	499	114750000	performance	408	27	27	26	27	25	23	100	26
1593888681835113570	1	499	345	345	499	499	499	114750000	performance	408	27	27	26	27	25	23	100	26
1593888683263546158 	0	499	345	346	499	499	498	114750000	performance	408	27	27	26	27	25	23	100	26
1593888686288941359	1	499	345	345	499	499	499	114750000	performance	408	27	27	26	27	25	23	100	26
1593888687412736951 	0	498	345	345	498	499	499	114750000	performance	408	27	27	26	27	25	23	100	26
1593888690056120920	1	499	345	345	499	499	499	114750000	performance	408	27	27	26	27	25	23	100	26
1593888691654150211 	0	499	345	346	499	499	498	114750000	performance	408	27	27	26	27	25	23	100	26
1593888694936525912	1	499	345	345	499	499	499	114750000	performance	408	27	27	26	27	25	23	100	26
1593888696277279506 	0	498	346	345	499	499	499	114750000	performance	408	27	27	26	27	25	23	100	26
1593888699345772276	1	499	345	345	499	499	499	114750000	performance	408	27	27	25	27	25	23	100	26
1593888700625995459 	0	499	345	345	499	499	499	114750000	performance	408	27	27	26	27	25	23	100	26
1593888703801885674	1	499	345	345	499	499	499	114750000	performance	408	27	27	25	27	25	23	100	26
1593888704566912672 	0	499	345	345	499	499	499	114750000	performance	408	27	27	26	27	25	23	100	26
1593888707490709377	1	499	345	345	499	499	499	114750000	performance	408	27	27	26	27	25	23	100	26
1593888709011953929 	0	499	345	345	499	498	499	114750000	performance	408	27	27	26	27	25	23	100	26
1593888712206421871	1	499	345	345	499	499	499	114750000	performance	408	27	27	26	27	25	23	100	26
1593888713274987513 	0	498	345	345	499	499	499	114750000	performance	408	27	27	26	27	25	23	100	26
1593888716289948530	1	499	345	345	499	499	499	114750000	performance	408	27	27	26	27	25	23	100	26
1593888717449728265 	0	499	345	345	499	499	499	114750000	performance	408	27	27	26	27	25	23	100	26
1593888720636979301	1	499	345	345	499	499	499	114750000	performance	408	27	27	26	27	25	23	100	26
1593888721537098308 	0	498	345	345	499	499	499	114750000	performance	408	27	27	26	27	25	23	100	26
1593888724493690747	1	499	345	345	499	499	499	114750000	performance	408	27	27	26	27	25	23	100	26
1593888725945989652 	0	499	345	345	499	498	499	114750000	performance	408	27	27	26	27	25	23	100	26
1593888729204316399	1	499	345	345	499	499	499	114750000	performance	408	27	27	26	27	25	23	100	26
1593888730224781260 	0	498	345	345	499	499	498	114750000	performance	408	27	28	26	27	25	23	100	26
1593888733831614052	1	499	345	345	499	499	499	114750000	performance	408	27	27	26	27	25	23	100	26
1593888735101228422 	0	499	345	345	499	499	499	114750000	performance	408	27	27	26	27	25	23	100	26
1593888737787525172	1	499	345	345	499	499	499	114750000	performance	408	27	27	26	27	25	23	100	26
1593888739016482332 	0	498	345	345	498	498	499	114750000	performance	408	27	27	25	27	25	23	100	26
1593888742118619020	1	499	345	345	499	499	499	114750000	performance	408	27	27	26	27	25	23	100	26
1593888743271689513 	0	499	345	345	499	498	498	114750000	performance	408	27	27	25	27	25	23	100	27
1593888746414907150	1	499	345	345	499	499	499	114750000	performance	408	27	27	26	27	25	23	100	26
1593888747380489381 	0	499	345	345	498	498	499	114750000	performance	408	27	27	25	27	25	23	100	26
1593888750463239524	1	499	345	345	499	499	499	114750000	performance	408	27	27	26	27	25	23	100	26
1593888751835185861 	0	499	345	345	499	499	498	114750000	performance	408	27	27	25	27	25	23	100	26
1593888754897698684	1	499	345	345	499	499	499	114750000	performance	408	27	27	26	27	25	23	100	26
1593888756696589069 	0	499	346	345	499	499	499	114750000	performance	408	27	27	26	27	25	23	100	26
1593888759895794457	1	499	345	345	499	499	499	114750000	performance	408	27	27	26	27	25	23	100	26
1593888760996968501 	0	498	345	345	499	499	499	114750000	performance	408	27	27	26	27	25	23	100	26
1593888763479735597	1	499	345	345	499	499	499	114750000	performance	408	27	27	25	27	25	23	100	26
1593888764566553245 	0	499	345	345	499	498	499	114750000	performance	408	27	27	25	27	25	23	100	26
1593888767517541497	1	499	345	345	499	499	499	114750000	performance	408	27	27	25	27	25	23	100	26
1593888768817896545 	0	499	345	345	499	499	499	114750000	performance	408	27	27	26	27	25	23	100	26
1593888771784202142	1	499	345	345	499	499	499	114750000	performance	408	27	27	25	27	25	23	100	26
1593888773204379979 	0	499	345	345	498	499	498	114750000	performance	408	27	27	25	27	25	23	100	26
1593888776544868669	1	499	345	345	499	499	499	114750000	performance	408	27	27	26	27	25	23	100	26
1593888777889468249 	0	499	345	345	498	498	499	114750000	performance	408	27	27	26	27	25	23	100	26
1593888781166652252	1	499	345	345	499	499	499	114750000	performance	408	27	27	25	27	25	23	100	26
1593888782124838435 	0	499	345	345	499	499	499	114750000	performance	408	27	27	25	27	25	23	100	26
1593888785388470611	1	499	345	345	499	499	499	114750000	performance	408	27	27	26	27	25	23	100	26
1593888786767716392 	0	499	345	345	499	499	499	114750000	performance	408	27	27	25	27	25	23	100	26
1593888790015760153	1	499	345	345	499	499	499	114750000	performance	408	27	27	26	27	25	23	100	26
1593888791399687491 	0	499	345	345	498	499	498	114750000	performance	408	27	27	25	27	25	23	100	26
1593888794501282416	1	499	345	345	499	499	499	114750000	performance	408	27	27	26	27	25	23	100	26
1593888795597305637 	0	499	345	345	499	499	499	114750000	performance	408	27	27	26	27	25	23	100	26
1593888798520209039	1	499	345	345	499	499	499	114750000	performance	408	27	27	25	27	25	23	100	26
1593888799603175628 	0	499	345	345	499	498	499	114750000	performance	408	27	27	25	27	25	23	100	26
1593888802998171476	1	499	345	345	499	499	499	114750000	performance	408	27	27	26	27	25	23	100	26
1593888804262187514 	0	500	345	345	499	498	499	114750000	performance	408	27	27	25	27	25	23	100	26
1593888807548265581	1	499	345	345	499	499	499	114750000	performance	408	27	27	26	27	25	23	100	26
1593888808620153276 	0	499	345	345	499	499	499	114750000	performance	408	27	27	26	27	25	23	100	26
1593888811497631774	1	499	345	345	499	499	499	114750000	performance	408	27	27	26	27	25	23	100	26
1593888812587866191 	0	499	345	345	499	499	499	114750000	performance	408	27	27	25	27	25	23	100	26
1593888815720153981	1	499	345	345	499	499	499	114750000	performance	408	27	27	25	27	25	23	100	26
1593888817148437083 	0	498	345	345	498	499	498	114750000	performance	408	27	27	25	27	25	23	100	26
1593888820155918264	1	499	345	345	499	499	499	114750000	performance	408	27	27	25	27	25	23	100	26
1593888821747692661 	0	499	345	345	499	499	498	114750000	performance	408	27	27	26	27	25	23	100	26
1593888824980901389	1	499	345	345	499	499	499	114750000	performance	408	27	27	26	27	25	23	100	26
1593888826589543643 	0	499	345	345	499	499	498	114750000	performance	408	27	27	25	27	25	23	100	26
1593888829939161211	1	499	345	345	499	499	499	114750000	performance	408	27	27	26	27	25	23	100	26
1593888831748564710 	0	499	345	345	499	499	499	114750000	performance	408	27	27	25	27	25	23	100	26
1593888835178143568	1	499	345	345	499	499	499	114750000	performance	408	27	27	26	27	25	23	100	26
1593888836811719842 	0	499	345	345	499	499	499	114750000	performance	408	27	27	25	27	25	23	100	26
1593888840112176236	1	499	345	345	499	499	499	114750000	performance	408	27	27	25	27	25	23	100	26
1593888841365571940 	0	499	345	345	498	500	498	114750000	performance	408	27	27	26	27	25	23	100	26
1593888844585562353	1	499	345	345	499	499	499	114750000	performance	408	27	27	26	27	25	23	100	26
1593888845782742032 	0	498	345	345	498	498	499	114750000	performance	408	27	27	25	27	25	23	100	26
1593888849269597293	1	499	345	345	499	499	499	114750000	performance	408	27	27	26	27	25	23	100	26
1593888851045009792 	0	499	345	345	499	499	498	114750000	performance	408	27	27	26	27	25	23	100	26
1593888853867188938	1	499	345	345	499	499	499	114750000	performance	408	27	27	26	27	25	23	100	26
1593888855226152700 	0	499	344	345	499	499	499	114750000	performance	408	27	27	26	27	25	23	100	26
1593888858474040711	1	499	345	345	499	499	499	114750000	performance	408	27	27	26	27	25	23	100	26
1593888860052610355 	0	499	345	345	498	499	499	114750000	performance	408	27	27	25	27	25	23	100	26
1593888863649366780	1	499	345	345	499	499	499	114750000	performance	408	27	27	25	27	25	23	100	26
1593888865069914639 	0	499	345	345	499	499	499	114750000	performance	408	27	27	26	27	25	23	100	26
1593888868129148159	1	499	345	345	499	499	499	114750000	performance	408	27	27	25	27	25	23	100	26
1593888869520317730 	0	499	345	345	499	498	499	114750000	performance	408	27	27	26	27	25	23	100	26
1593888872816957812	1	499	345	345	499	499	499	114750000	performance	408	27	27	25	27	25	23	100	26
1593888874401024935 	0	499	345	345	498	499	499	114750000	performance	408	27	27	25	27	25	23	100	26
1593888877939285199	1	499	345	345	499	499	499	114750000	performance	408	27	27	25	27	25	23	100	26
1593888879280280475 	0	499	345	345	499	499	498	114750000	performance	408	27	27	25	27	25	23	100	26
1593888882710892805	1	499	345	345	499	499	499	114750000	performance	408	27	27	25	27	25	23	100	26
1593888884156046174 	0	498	345	345	499	499	499	114750000	performance	408	27	27	26	27	25	23	100	26
1593888887354717172	1	499	345	345	499	499	499	114750000	performance	408	27	27	26	27	25	23	100	26
1593888888713453293 	0	499	345	345	499	499	499	114750000	performance	408	27	27	26	27	25	23	100	26
1593888891509673327	1	499	345	345	499	499	499	114750000	performance	408	27	27	26	27	25	23	100	26
1593888892865326088 	0	498	345	345	499	499	499	114750000	performance	408	27	27	25	27	25	23	100	26
1593888896124182542	1	499	345	345	499	499	499	114750000	performance	408	27	27	25	27	25	23	100	26
1593888897590993542 	0	499	345	345	499	499	499	114750000	performance	408	27	27	25	27	25	23	100	26
1593888900650195298	1	499	345	345	499	499	499	114750000	performance	408	27	27	26	27	25	23	100	26
1593888901844543683 	0	499	345	345	499	498	497	114750000	performance	408	27	27	26	27	25	23	100	26
1593888905505370337	1	499	345	345	499	499	499	114750000	performance	408	27	27	25	27	25	23	100	26
1593888906852031000 	0	498	345	345	498	499	499	114750000	performance	408	27	27	25	27	25	23	100	26
1593888910333757079	1	499	345	345	499	499	499	114750000	performance	408	27	27	25	27	25	23	100	26
1593888911742919237 	0	499	345	345	498	499	499	114750000	performance	408	27	27	26	27	25	23	100	26
1593888915043748727	1	499	345	345	499	499	499	114750000	performance	408	27	27	26	27	25	23	100	26
1593888916468135496 	0	499	345	345	498	499	499	114750000	performance	408	27	27	25	27	25	23	100	26
1593888919780221766	1	499	345	345	499	499	499	114750000	performance	408	27	27	25	27	25	23	100	26
1593888921219213183 	0	499	345	345	499	499	499	114750000	performance	408	27	27	25	27	25	23	100	26
1593888924586892828	1	499	345	345	499	499	499	114750000	performance	408	27	27	25	27	25	23	100	26
1593888925656966662 	0	499	345	345	499	499	498	114750000	performance	408	27	27	25	27	25	23	100	26
1593888928819612497	1	499	345	345	499	499	499	114750000	performance	408	27	27	26	27	25	23	100	26
1593888930144856421 	0	498	345	345	500	499	499	114750000	performance	408	27	27	26	27	25	23	100	26
1593888933323582474	1	499	345	345	499	499	499	114750000	performance	408	27	27	25	27	25	23	100	26
1593888934714203259 	0	499	345	345	499	499	499	114750000	performance	408	27	27	25	27	25	23	100	26
1593888938041058604	1	499	345	345	499	499	499	114750000	performance	408	27	27	26	27	25	23	100	26
1593888939382998904 	0	499	345	345	499	499	499	114750000	performance	408	27	27	26	27	25	23	100	26
1593888942778910397	1	499	345	345	499	499	499	114750000	performance	408	27	27	26	27	25	23	100	26
1593888944199554522 	0	499	345	345	499	498	499	114750000	performance	408	27	27	25	27	25	23	100	26
1593888947458818119	1	499	345	345	499	499	499	114750000	performance	408	27	27	26	27	25	23	100	26
1593888949067632262 	0	499	345	345	499	499	499	114750000	performance	408	27	27	26	27	25	23	100	26
1593888952070369462	1	499	345	345	499	499	499	114750000	performance	408	27	27	26	27	25	23	100	26
1593888953744600846 	0	499	345	345	498	499	499	114750000	performance	408	27	27	25	27	25	23	100	26
1593888957694544934	1	499	345	345	499	499	499	114750000	performance	408	27	27	26	27	25	23	100	26
1593888958793211883 	0	499	345	345	498	499	498	114750000	performance	408	27	27	26	27	25	23	100	26
1593888961950151741	1	499	345	345	499	499	499	114750000	performance	408	27	27	25	27	25	23	100	26
1593888963467934123 	0	498	345	345	499	498	499	114750000	performance	408	27	27	26	27	25	23	100	26
1593888966600838550	1	499	345	345	499	499	499	114750000	performance	408	27	27	25	27	25	23	100	26
1593888967872652537 	0	498	345	345	499	499	499	114750000	performance	408	27	27	25	27	25	23	100	26
1593888970930317136	1	499	345	345	499	499	499	114750000	performance	408	27	27	25	27	25	23	100	26
1593888972602311040 	0	499	345	345	498	498	499	114750000	performance	408	27	27	25	27	25	23	100	26
1593888976240020347	1	499	345	345	499	499	499	114750000	performance	408	27	27	26	27	25	23	100	26
1593888977605248022 	0	499	345	345	499	499	499	114750000	performance	408	27	27	26	27	25	23	100	26
1593888981156079702	1	499	345	345	499	499	499	114750000	performance	408	27	27	26	27	25	23	100	26
1593888982592991562 	0	499	345	345	499	499	498	114750000	performance	408	27	27	25	27	25	23	100	26
1593888986017875811	1	499	345	345	499	499	499	114750000	performance	408	27	27	25	27	25	23	100	26
1593888987256634620 	0	498	345	345	499	498	498	114750000	performance	408	27	27	26	27	25	23	100	26
1593888990591839767	1	499	345	345	499	499	499	114750000	performance	408	27	27	26	27	25	23	100	26
1593888992086072985 	0	498	345	345	498	499	499	114750000	performance	408	27	27	25	27	25	23	100	26
1593888994879702442	1	499	345	345	499	499	499	114750000	performance	408	27	27	25	27	25	23	100	26
1593888996630771981 	0	499	345	345	499	498	499	114750000	performance	408	27	27	25	27	25	23	100	26
1593889000048995576	1	499	345	345	499	499	499	114750000	performance	408	27	27	25	27	25	23	100	26
1593889001589523008 	0	498	345	345	499	499	499	114750000	performance	408	27	27	25	27	25	23	100	26
1593889004978497466	1	499	345	345	499	499	499	114750000	performance	408	27	27	25	27	25	23	100	26
1593889006309339102 	0	498	345	345	499	498	499	114750000	performance	408	27	27	25	27	25	23	100	26
1593889009329029289	1	499	345	345	499	499	499	114750000	performance	408	27	27	25	27	25	23	100	26
1593889010741400993 	0	499	345	345	499	499	499	114750000	performance	408	27	27	25	27	25	23	100	26
1593889014069765871	1	499	345	345	499	499	499	114750000	performance	408	27	27	26	27	25	23	100	26
1593889015684820979 	0	499	345	345	499	499	499	114750000	performance	408	27	27	26	27	25	23	100	26
1593889019201742687	1	499	345	345	499	499	499	114750000	performance	408	27	27	25	27	25	23	100	26
1593889020708383558 	0	499	345	345	499	498	499	114750000	performance	408	27	27	25	27	25	23	100	26
1593889024118923808	1	499	345	345	499	499	499	114750000	performance	408	27	27	25	27	25	23	100	26
1593889025387049806 	0	498	345	345	499	499	498	114750000	performance	408	27	27	26	27	25	23	100	26
