TimeStamp,A7 Voltage(V),A7 Current(A),A7 Power(W),A15 Voltage(V),A15 Current(A),A15 Power(W),GPU Power(W)
1606784955462537644,1.100000,0.525000,0.620000,0.900000,1.090000,0.986000,0.086000
1606784956007741270,1.100000,0.527000,0.622000,0.900000,1.816000,1.708000,0.088000
1606784956547635643,1.100000,0.534000,0.630000,1.000000,3.152000,3.457000,0.091000
1606784957097907383,1.100000,0.538000,0.634000,1.100000,3.545000,4.012000,0.094000
1606784957637953376,1.100000,0.542000,0.640000,1.100000,3.577000,4.049000,0.097000
1606784958179284657,1.100000,0.544000,0.641000,1.100000,3.594000,4.068000,0.100000
1606784958722380016,1.100000,0.546000,0.644000,1.100000,3.575000,4.046000,0.102000
1606784959262693667,1.100000,0.547000,0.646000,1.100000,3.622000,4.103000,0.104000
1606784959803041647,1.100000,0.549000,0.648000,1.100000,3.630000,4.112000,0.105000
1606784960342185999,1.100000,0.549000,0.648000,1.100000,3.646000,4.130000,0.107000
1606784960888082720,1.100000,0.550000,0.649000,1.100000,3.629000,4.111000,0.109000
1606784961429642813,1.100000,0.524000,0.618000,1.100000,3.632000,4.115000,0.110000
1606784961977359401,1.100000,0.553000,0.652000,1.100000,3.663000,4.150000,0.111000
1606784962522310777,1.100000,0.553000,0.652000,1.100000,3.673000,4.161000,0.113000
1606784963062561031,1.100000,0.552000,0.651000,1.100000,3.640000,4.124000,0.114000
1606784963603691528,1.100000,0.554000,0.653000,1.100000,3.673000,4.161000,0.115000
1606784964147505147,1.100000,0.554000,0.653000,1.100000,3.688000,4.178000,0.116000
1606784964687327390,1.100000,0.555000,0.654000,1.100000,3.696000,4.187000,0.117000
1606784965242386577,1.100000,0.556000,0.656000,1.100000,3.671000,4.159000,0.118000
1606784965782385647,1.100000,0.557000,0.657000,1.100000,3.701000,4.193000,0.119000
1606784966322369047,1.100000,0.555000,0.654000,1.100000,3.636000,4.119000,0.119000
1606784966862556403,1.100000,0.558000,0.658000,1.100000,3.715000,4.209000,0.120000
1606784967409288374,1.100000,0.557000,0.657000,1.100000,3.687000,4.177000,0.121000
1606784967957384550,1.100000,0.557000,0.657000,1.100000,3.694000,4.185000,0.121000
1606784968502397683,1.100000,0.559000,0.659000,1.100000,3.723000,4.225000,0.122000
1606784969042727568,1.100000,0.559000,0.659000,1.100000,3.727000,4.222000,0.122000
1606784969582965239,1.100000,0.559000,0.659000,1.100000,3.691000,4.181000,0.123000
1606784970123662201,1.100000,0.560000,0.660000,1.100000,3.707000,4.200000,0.123000
1606784970669043362,1.100000,0.559000,0.659000,1.100000,3.734000,4.230000,0.124000
1606784971208313984,1.100000,0.560000,0.660000,1.100000,3.736000,4.232000,0.124000
1606784971752371433,1.100000,0.558000,0.658000,1.100000,3.694000,4.185000,0.124000
1606784972287616844,1.100000,0.559000,0.659000,1.100000,3.715000,4.209000,0.124000
1606784972822109711,1.100000,0.559000,0.659000,1.100000,3.740000,4.237000,0.124000
1606784973362820028,1.100000,0.560000,0.660000,1.100000,3.715000,4.209000,0.125000
1606784973918326996,1.100000,0.559000,0.659000,1.100000,3.727000,4.222000,0.125000
1606784974462627094,1.100000,0.561000,0.661000,1.100000,3.725000,4.220000,0.125000
1606784975002998319,1.100000,0.562000,0.663000,1.100000,3.754000,4.253000,0.126000
1606784975542279873,1.100000,0.563000,0.664000,1.100000,3.755000,4.261000,0.127000
1606784976083019467,1.100000,0.561000,0.661000,1.100000,3.734000,4.230000,0.127000
1606784976623618681,1.100000,0.562000,0.663000,1.100000,3.748000,4.246000,0.127000
1606784977169063805,1.100000,0.564000,0.666000,1.100000,3.760000,4.260000,0.128000
1606784977707515349,1.100000,0.562000,0.663000,1.100000,3.763000,4.271000,0.128000
1606784978247376305,1.100000,0.564000,0.665000,1.100000,3.738000,4.235000,0.128000
1606784978798035831,1.100000,0.564000,0.665000,1.100000,3.757000,4.256000,0.129000
1606784979337402573,1.100000,0.563000,0.664000,1.100000,3.764000,4.272000,0.129000
1606784979880343226,1.100000,0.565000,0.666000,1.100000,3.759000,4.258000,0.129000
1606784980425177623,1.100000,0.563000,0.664000,1.100000,3.765000,4.273000,0.130000
1606784980962534400,1.100000,0.563000,0.664000,1.100000,3.735000,4.239000,0.130000
1606784981502967877,1.100000,0.563000,0.664000,1.100000,3.772000,4.273000,0.130000
1606784982042357480,1.100000,0.564000,0.665000,1.100000,3.771000,4.272000,0.131000
1606784982592319484,1.100000,0.563000,0.664000,1.100000,3.771000,4.272000,0.131000
1606784983134669535,1.100000,0.564000,0.665000,1.100000,3.748000,4.253000,0.131000
1606784983678771081,1.100000,0.564000,0.665000,1.100000,3.775000,4.284000,0.131000
1606784984227363078,1.100000,0.565000,0.666000,1.100000,3.781000,4.291000,0.132000
1606784984763175501,1.100000,0.565000,0.666000,1.100000,3.750000,4.256000,0.132000
1606784985307393995,1.100000,0.565000,0.666000,1.100000,3.758000,4.265000,0.132000
1606784985843016871,1.100000,0.565000,0.666000,1.100000,3.784000,4.294000,0.132000
1606784986382363281,1.100000,0.565000,0.666000,1.100000,3.779000,4.289000,0.133000
1606784986924316436,1.100000,0.566000,0.667000,1.100000,3.757000,4.264000,0.133000
1606784987462517758,1.100000,0.566000,0.667000,1.100000,3.769000,4.277000,0.133000
1606784988003130534,1.100000,0.567000,0.669000,1.100000,3.789000,4.300000,0.134000
1606784988547362092,1.100000,0.566000,0.667000,1.100000,3.761000,4.268000,0.134000
1606784989098073393,1.100000,0.566000,0.667000,1.100000,3.789000,4.300000,0.134000
1606784989642855237,1.100000,0.564000,0.665000,1.100000,3.766000,4.274000,0.134000
1606784990187591079,1.100000,0.554000,0.654000,1.100000,3.637000,4.127000,0.134000
1606784990727516172,1.100000,0.567000,0.669000,1.100000,3.793000,4.305000,0.134000
1606784991262350394,1.100000,0.566000,0.667000,1.100000,3.798000,4.310000,0.135000
1606784991802996772,1.100000,0.565000,0.666000,1.100000,3.737000,4.241000,0.135000
1606784992342383732,1.100000,0.567000,0.669000,1.100000,3.800000,4.313000,0.135000
1606784992888058433,1.100000,0.566000,0.667000,1.100000,3.800000,4.313000,0.135000
1606784993429486343,1.100000,0.567000,0.669000,1.100000,3.775000,4.284000,0.136000
1606784993977380202,1.100000,0.566000,0.667000,1.100000,3.775000,4.284000,0.136000
1606784994522358685,1.100000,0.567000,0.669000,1.100000,3.805000,4.318000,0.136000
1606784995062570797,1.100000,0.567000,0.669000,1.100000,3.794000,4.306000,0.136000
1606784995603122195,1.100000,0.568000,0.670000,1.100000,3.793000,4.305000,0.137000
1606784996147877420,1.100000,0.567000,0.669000,1.100000,3.777000,4.286000,0.137000
1606784996687629064,1.100000,0.569000,0.671000,1.100000,3.785000,4.295000,0.137000
1606784997227359497,1.100000,0.569000,0.671000,1.100000,3.808000,4.322000,0.137000
1606784997762650181,1.100000,0.568000,0.670000,1.100000,3.806000,4.319000,0.137000
1606784998303001982,1.100000,0.566000,0.667000,1.100000,3.762000,4.269000,0.138000
1606784998842382699,1.100000,0.567000,0.669000,1.100000,3.800000,4.313000,0.138000
1606784999382343077,1.100000,0.569000,0.671000,1.100000,3.811000,4.325000,0.139000
1606784999919424707,1.100000,0.557000,0.657000,1.100000,3.799000,4.311000,0.138000
1606785000457582748,1.100000,0.567000,0.669000,1.100000,3.780000,4.290000,0.139000
1606785001002395905,1.100000,0.568000,0.670000,1.100000,3.815000,4.330000,0.139000
1606785001542376146,1.100000,0.567000,0.669000,1.100000,3.815000,4.330000,0.140000
1606785002082243178,1.100000,0.569000,0.671000,1.100000,3.812000,4.326000,0.139000
1606785002623647245,1.100000,0.569000,0.671000,1.100000,3.803000,4.316000,0.139000
1606785003168924014,1.100000,0.568000,0.670000,1.100000,3.815000,4.330000,0.140000
1606785003707383995,1.100000,0.569000,0.671000,1.100000,3.807000,4.320000,0.140000
1606785004245419142,1.100000,0.568000,0.670000,1.100000,3.820000,4.335000,0.140000
1606785004787659280,1.100000,0.568000,0.670000,1.100000,3.793000,4.305000,0.140000
1606785005322902299,1.100000,0.571000,0.673000,1.100000,3.801000,4.314000,0.140000
1606785005862529018,1.100000,0.569000,0.671000,1.100000,3.824000,4.340000,0.141000
1606785006404183106,1.100000,0.570000,0.672000,1.100000,3.825000,4.341000,0.141000
1606785006947760982,1.100000,0.570000,0.672000,1.100000,3.774000,4.283000,0.141000
1606785007497951928,1.100000,0.569000,0.671000,1.100000,3.815000,4.330000,0.141000
1606785008037336678,1.100000,0.569000,0.671000,1.100000,3.829000,4.349000,0.141000
1606785008584394080,1.100000,0.570000,0.672000,1.100000,3.803000,4.316000,0.141000
1606785009124428073,1.100000,0.569000,0.671000,1.100000,3.804000,4.317000,0.141000
1606785009669125223,1.100000,0.570000,0.672000,1.100000,3.808000,4.322000,0.142000
1606785010207554212,1.100000,0.571000,0.673000,1.100000,3.810000,4.324000,0.142000
1606785010747385737,1.100000,0.570000,0.672000,1.100000,3.833000,4.354000,0.142000
1606785011298429329,1.100000,0.569000,0.671000,1.100000,3.816000,4.331000,0.142000
1606785011842503010,1.100000,0.570000,0.672000,1.100000,3.798000,4.310000,0.143000
1606785012382399318,1.100000,0.571000,0.673000,1.100000,3.836000,4.353000,0.142000
1606785012929590990,1.100000,0.570000,0.672000,1.100000,3.831000,4.348000,0.143000
1606785013478466446,1.100000,0.569000,0.671000,1.100000,3.817000,4.332000,0.143000
1606785014027399319,1.100000,0.570000,0.672000,1.100000,3.808000,4.322000,0.143000
1606785014562507162,1.100000,0.570000,0.672000,1.100000,3.837000,4.358000,0.143000
1606785015103053664,1.100000,0.571000,0.673000,1.100000,3.811000,4.329000,0.143000
1606785015642882746,1.100000,0.571000,0.673000,1.100000,3.825000,4.345000,0.143000
1606785016187607987,1.100000,0.570000,0.672000,1.100000,3.817000,4.332000,0.144000
1606785016727290147,1.100000,0.571000,0.673000,1.100000,3.842000,4.364000,0.144000
1606785017262508685,1.100000,0.571000,0.673000,1.100000,3.836000,4.357000,0.144000
1606785017803033339,1.100000,0.570000,0.672000,1.100000,3.831000,4.348000,0.144000
1606785018342283658,1.100000,0.571000,0.673000,1.100000,3.817000,4.332000,0.144000
1606785018882368432,1.100000,0.570000,0.672000,1.100000,3.826000,4.346000,0.144000
1606785019429612150,1.100000,0.571000,0.673000,1.100000,3.843000,4.361000,0.144000
1606785019977290784,1.100000,0.571000,0.673000,1.100000,3.836000,4.357000,0.144000
1606785020522388291,1.100000,0.570000,0.672000,1.100000,3.794000,4.306000,0.144000
1606785021062537595,1.100000,0.572000,0.674000,1.100000,3.846000,4.369000,0.145000
1606785021603000561,1.100000,0.572000,0.674000,1.100000,3.845000,4.367000,0.145000
1606785022142842068,1.100000,0.571000,0.673000,1.100000,3.808000,4.325000,0.145000
1606785022687655773,1.100000,0.571000,0.673000,1.100000,3.819000,4.338000,0.145000
1606785023227389607,1.100000,0.572000,0.674000,1.100000,3.846000,4.369000,0.145000
1606785023762512612,1.100000,0.572000,0.674000,1.100000,3.825000,4.345000,0.145000
1606785024317275086,1.100000,0.572000,0.674000,1.100000,3.839000,4.357000,0.145000
1606785024862542696,1.100000,0.572000,0.674000,1.100000,3.822000,4.337000,0.146000
1606785025398568191,1.100000,0.572000,0.674000,1.100000,3.836000,4.357000,0.146000
1606785025942383381,1.100000,0.572000,0.674000,1.100000,3.849000,4.372000,0.146000
1606785026482269405,1.100000,0.571000,0.673000,1.100000,3.848000,4.371000,0.146000
1606785027022371929,1.100000,0.571000,0.673000,1.100000,3.814000,4.332000,0.146000
1606785027562589530,1.100000,0.571000,0.673000,1.100000,3.850000,4.373000,0.146000
1606785028102992255,1.100000,0.573000,0.676000,1.100000,3.856000,4.380000,0.146000
1606785028643183310,1.100000,0.573000,0.676000,1.100000,3.855000,4.379000,0.146000
1606785029187559399,1.100000,0.568000,0.670000,1.100000,3.800000,4.313000,0.146000
1606785029727360991,1.100000,0.573000,0.676000,1.100000,3.856000,4.380000,0.146000
1606785030262532128,1.100000,0.573000,0.676000,1.100000,3.857000,4.381000,0.146000
1606785030803059130,1.100000,0.573000,0.676000,1.100000,3.859000,4.383000,0.147000
1606785031347363624,1.100000,0.573000,0.676000,1.100000,3.822000,4.341000,0.147000
1606785031887538871,1.100000,0.573000,0.676000,1.100000,3.858000,4.382000,0.147000
1606785032429693237,1.100000,0.573000,0.676000,1.100000,3.855000,4.379000,0.147000
1606785032977737301,1.100000,0.574000,0.677000,1.100000,3.858000,4.382000,0.147000
1606785033522330365,1.100000,0.573000,0.676000,1.100000,3.838000,4.359000,0.147000
1606785034062124852,1.100000,0.574000,0.677000,1.100000,3.830000,4.350000,0.147000
1606785034603235833,1.100000,0.572000,0.674000,1.100000,3.862000,4.387000,0.148000
1606785035147585266,1.100000,0.573000,0.676000,1.100000,3.863000,4.388000,0.148000
1606785035687388951,1.100000,0.574000,0.677000,1.100000,3.823000,4.342000,0.148000
1606785036242356904,1.100000,0.574000,0.677000,1.100000,3.863000,4.388000,0.148000
1606785036782405126,1.100000,0.574000,0.677000,1.100000,3.863000,4.388000,0.148000
1606785037296545009,1.100000,0.404000,0.479000,1.100000,2.583000,2.913000,0.148000
