timestamp	VIRTUAL_SCALING	CPU0_F	CPU1_F	CPU2_F	CPU3_F	CPU4_F	CPU5_F	GPU_FREQ	CPU_GOVERNOR	EMC_F	TEMP0	TEMP1	TEMP2	TEMP3	TEMP4	TEMP5	TEMP6	TEMP7
1592836766781606850	1	1113	960	960	1113	1113	1113	114750000	performance	665	32	32	30	31	29	28	100	31
1592836766847442407 	0	1113	959	959	1113	1113	1113	114750000	performance	665	31	31	30	31	29	28	100	30
1592836769006675107	1	1113	960	960	1113	1113	1113	114750000	performance	665	31	31	29	31	28	27	100	30
1592836769453423101 	0	1112	959	960	1113	1113	1113	114750000	performance	665	31	31	29	31	28	27	100	30
1592836771528849823	1	1113	960	960	1113	1113	1113	114750000	performance	665	31	31	29	31	28	27	100	30
1592836771994556422 	0	1114	959	959	1113	1113	1113	114750000	performance	665	31	31	29	31	28	27	100	30
1592836774001507930	1	1113	960	960	1113	1113	1113	114750000	performance	665	31	31	29	31	28	27	100	30
1592836774386509939 	0	1113	959	960	1112	1113	1113	114750000	performance	665	31	31	29	31	28	27	100	30
1592836776414591853	1	1113	960	960	1113	1113	1113	114750000	performance	665	31	31	29	31	28	27	100	30
1592836776834488682 	0	1112	960	960	1113	1114	1113	114750000	performance	665	31	31	29	31	28	27	100	30
1592836778828704104	1	1113	960	960	1113	1113	1113	114750000	performance	665	31	31	29	31	28	27	100	30
1592836779220786261 	0	1113	959	958	1113	1114	1113	114750000	performance	665	31	31	29	31	28	27	100	30
1592836781154500462	1	1113	960	960	1113	1113	1113	114750000	performance	665	31	31	29	31	28	27	100	30
1592836781565581086 	0	1113	960	959	1113	1114	1113	114750000	performance	665	31	31	29	31	28	27	100	30
1592836783546528301	1	1113	960	960	1113	1113	1113	114750000	performance	665	31	31	29	31	28	27	100	30
1592836783952711128 	0	1113	959	959	1113	1113	1113	114750000	performance	665	31	31	29	31	28	27	100	30
1592836785965111776	1	1113	960	960	1113	1113	1113	114750000	performance	665	31	31	29	31	28	27	100	30
1592836786360795530 	0	1112	960	960	1113	1114	1113	114750000	performance	665	31	31	29	31	28	27	100	30
1592836788358773962	1	1113	960	960	1113	1113	1113	114750000	performance	665	31	31	29	31	28	27	100	30
1592836788774609996 	0	1113	959	959	1112	1112	1113	114750000	performance	665	31	31	29	31	28	27	100	30
1592836790774629024	1	1113	960	960	1113	1113	1113	114750000	performance	665	31	31	29	31	28	27	100	29
1592836791154540746 	0	1112	960	960	1113	1112	1113	114750000	performance	665	31	31	29	31	28	27	100	29
1592836793161649031	1	1113	960	960	1113	1113	1113	114750000	performance	665	30	30	29	30	28	27	100	30
1592836793646761074 	0	1113	960	959	1116	1113	1112	114750000	performance	665	30	30	29	30	28	27	100	30
1592836795614534240	1	1113	960	960	1113	1113	1113	114750000	performance	665	31	31	29	30	28	26	100	29
1592836796052737705 	0	1113	959	959	1114	1113	1113	114750000	performance	665	30	30	29	30	28	27	100	29
1592836798070522236	1	1113	960	960	1113	1113	1113	114750000	performance	665	30	31	29	31	28	27	100	29
1592836798525723987 	0	1113	960	960	1113	1113	1112	114750000	performance	665	31	30	29	30	28	27	100	30
1592836800589018104	1	1113	960	960	1113	1113	1113	114750000	performance	665	30	30	29	30	28	26	100	29
1592836801077508147 	0	1112	959	960	1113	1112	1113	114750000	performance	665	31	31	29	31	28	26	100	29
1592836803209062051	1	1113	960	960	1113	1113	1113	114750000	performance	665	30	30	29	30	28	26	100	29
1592836803658705991 	0	1113	960	959	1113	1113	1114	114750000	performance	665	30	31	29	30	28	26	100	29
1592836805745377835	1	1113	960	960	1113	1113	1113	114750000	performance	665	30	30	28	30	28	27	100	29
1592836806200795195 	0	1113	960	960	1113	1114	1114	114750000	performance	665	30	30	29	30	28	27	100	29
1592836808217814008	1	1113	960	960	1113	1113	1113	114750000	performance	665	30	30	28	30	28	26	100	29
1592836808598579933 	0	1113	960	959	1113	1113	1112	114750000	performance	665	30	30	29	30	28	26	100	29
1592836810542516474	1	1113	960	960	1113	1113	1113	114750000	performance	665	30	30	29	30	28	26	100	29
1592836810934536406 	0	1113	960	959	1113	1113	1113	114750000	performance	665	30	30	28	30	28	26	100	29
1592836812933516771	1	1113	960	960	1113	1113	1113	114750000	performance	665	30	30	29	30	28	26	100	29
1592836813389417295 	0	1113	960	960	1113	1113	1114	114750000	performance	665	30	30	29	30	28	26	100	29
1592836815330466813	1	1113	960	960	1113	1113	1113	114750000	performance	665	30	30	29	30	28	26	100	29
1592836815702708290 	0	1113	959	960	1113	1112	1114	114750000	performance	665	30	30	28	30	28	26	100	29
1592836817713413853	1	1113	960	960	1113	1113	1113	114750000	performance	665	30	30	28	30	28	26	100	29
1592836818177016444 	0	1114	959	959	1113	1113	1113	114750000	performance	665	30	30	28	30	28	26	100	29
1592836820196812846	1	1113	960	960	1113	1113	1113	114750000	performance	665	30	30	28	30	28	26	100	29
1592836820610482455 	0	1114	959	960	1113	1113	1113	114750000	performance	665	30	30	29	30	28	26	100	29
1592836822556704320	1	1113	960	960	1113	1113	1113	114750000	performance	665	30	30	28	30	28	26	100	29
1592836822981314732 	0	1114	959	959	1114	1113	1112	114750000	performance	665	30	30	28	30	28	26	100	29
1592836824958500914	1	1113	960	960	1113	1113	1113	114750000	performance	665	30	30	28	30	28	26	100	29
1592836825352927531 	0	1113	959	959	1113	1113	1113	114750000	performance	665	30	30	28	30	28	26	100	29
