timestamp	VIRTUAL_SCALING	CPU0_F	CPU1_F	CPU2_F	CPU3_F	CPU4_F	CPU5_F	GPU_FREQ	CPU_GOVERNOR	EMC_F	TEMP0	TEMP1	TEMP2	TEMP3	TEMP4	TEMP5	TEMP6	TEMP7
1592953098987226706	1	345	1881	1881	345	345	345	114750000	performance	1866	30	30	29	30	27	26	100	29
1592953099294976910 	0	345	1232	1234	345	345	345	114750000	performance	1866	30	30	28	30	27	26	100	29
1592953101148012491	1	345	1881	1881	345	345	345	114750000	performance	1866	31	31	29	31	27	26	100	30
1592953101304472785 	0	345	1880	1844	345	345	345	114750000	performance	1866	31	31	28	31	27	26	100	30
1592953103001521002	1	345	1881	1881	345	345	345	114750000	performance	1866	31	31	29	31	27	26	100	30
1592953103158014064 	0	345	1880	1881	345	345	345	114750000	performance	1866	31	31	29	31	27	26	100	30
1592953104853790340	1	345	1881	1881	345	345	345	114750000	performance	1866	31	31	29	31	28	26	100	30
1592953105015529915 	0	345	1848	1843	345	345	346	114750000	performance	1866	31	31	29	31	27	26	100	30
1592953106710819662	1	345	1881	1881	345	345	345	114750000	performance	1866	31	31	29	31	28	27	100	30
1592953106868118967 	0	345	1881	1882	345	345	345	114750000	performance	1866	31	31	29	31	28	27	100	30
1592953108565901202	1	345	1881	1881	345	345	345	114750000	performance	1866	31	31	29	31	28	26	100	30
1592953108722025271 	0	345	1881	1881	345	345	345	114750000	performance	1866	31	31	29	31	28	27	100	30
1592953110417977260	1	345	1881	1881	345	345	345	114750000	performance	1866	31	31	29	31	28	27	100	30
1592953110577009402 	0	345	1881	1880	345	345	345	114750000	performance	1866	31	31	29	31	28	27	100	30
1592953112272190733	1	345	1881	1881	345	345	345	114750000	performance	1866	31	31	29	31	28	26	100	30
1592953112429329237 	0	345	1880	1883	345	345	345	114750000	performance	1866	31	31	29	31	28	27	100	30
1592953114128816117	1	345	1881	1881	345	345	345	114750000	performance	1866	31	31	29	31	28	26	100	30
1592953114478220882 	0	345	1848	1853	345	345	345	114750000	performance	1866	31	31	29	31	28	27	100	30
1592953116455078352	1	345	1881	1881	345	345	345	114750000	performance	1866	31	31	29	31	28	27	100	30
1592953116684077432 	0	345	1850	1881	346	345	345	114750000	performance	1866	31	31	29	31	28	27	100	30
1592953118493791310	1	345	1881	1881	345	345	345	114750000	performance	1866	31	31	29	31	28	27	100	30
1592953118651988218 	0	345	1881	1880	345	345	345	114750000	performance	1866	31	31	29	31	28	27	100	30
1592953120346625067	1	345	1881	1881	345	345	345	114750000	performance	1866	31	31	29	31	28	27	100	30
1592953120504041012 	0	345	1851	1848	345	345	345	114750000	performance	1866	31	31	29	31	28	27	100	30
1592953122200941100	1	345	1881	1881	345	345	345	114750000	performance	1866	31	31	29	31	28	27	100	30
1592953122358304309 	0	345	1846	1841	345	345	345	114750000	performance	1866	31	31	29	31	28	27	100	30
1592953124054232938	1	345	1881	1881	345	345	345	114750000	performance	1866	31	31	29	31	28	27	100	30
1592953124234991356 	0	345	1881	1881	345	345	345	114750000	performance	1866	31	31	29	31	28	27	100	30
1592953126072520361	1	345	1881	1881	345	345	345	114750000	performance	1866	31	31	29	31	28	27	100	30
1592953126232347097 	0	345	1881	1881	345	345	345	114750000	performance	1866	31	31	29	31	28	27	100	30
1592953127946083941	1	345	1881	1881	345	345	345	114750000	performance	1866	31	31	29	31	28	27	100	30
1592953128106126359 	0	345	1881	1881	345	345	345	114750000	performance	1866	31	31	29	31	28	27	100	30
1592953129801400490	1	345	1881	1881	345	345	345	114750000	performance	1866	31	31	29	31	28	27	100	30
1592953129957899696 	0	345	1852	1848	345	345	345	114750000	performance	1866	31	31	29	31	28	27	100	30
1592953131654956841	1	345	1881	1881	345	345	345	114750000	performance	1866	31	31	29	31	28	27	100	30
1592953131811978960 	0	345	1881	1882	345	345	345	114750000	performance	1866	31	31	29	31	28	27	100	30
1592953133507814981	1	345	1881	1881	345	345	345	114750000	performance	1866	31	31	29	31	28	27	100	30
1592953133674831948 	0	345	1846	1852	345	345	345	114750000	performance	1866	31	31	29	31	28	27	100	30
1592953135383863914	1	345	1881	1881	345	345	345	114750000	performance	1866	31	31	29	31	28	27	100	30
1592953135725593712 	0	345	1880	1848	345	345	345	114750000	performance	1866	31	31	29	31	28	27	100	30
1592953137635141820	1	345	1881	1881	345	345	345	114750000	performance	1866	31	31	29	31	28	27	100	30
1592953137957919303 	0	345	1880	1881	345	345	345	114750000	performance	1866	31	31	29	31	28	27	100	30
1592953139811233477	1	345	1881	1881	345	345	345	114750000	performance	1866	31	31	29	31	28	27	100	30
1592953139984878241 	0	345	1846	1846	345	345	345	114750000	performance	1866	31	31	29	31	28	27	100	30
1592953141683005692	1	345	1881	1881	345	345	345	114750000	performance	1866	31	31	29	31	28	27	100	30
1592953141839069921 	0	345	1852	1846	345	345	345	114750000	performance	1866	31	31	29	31	28	27	100	30
