TimeStamp,Total Power,CPU Power,GPU Power
1592953568088051,4.228,1.6,0.152
1592953568589382,4.228,1.6,0.152
1592953569090693,4.304,1.676,0.152
1592953569591992,4.342,1.676,0.152
1592953570093337,4.419,1.676,0.152
1592953570594618,4.342,1.676,0.152
1592953571095930,4.304,1.676,0.152
1592953571597238,4.342,1.676,0.152
1592953572098527,4.342,1.676,0.152
