TimeStamp,Total Power,CPU Power,GPU Power
1593904004455094,4.912,2.285,0.152
1593904004956591,4.19,1.6,0.152
1593904005458039,3.771,1.219,0.152
1593904005959556,3.847,1.295,0.152
1593904006461023,4.571,1.98,0.152
1593904006962445,4.836,2.209,0.152
1593904007464088,4.836,2.285,0.152
1593904007965726,4.798,2.209,0.152
1593904008467425,4.798,2.209,0.152
1593904008969121,4.836,2.285,0.152
1593904009470801,4.798,2.209,0.152
1593904009972498,4.836,2.285,0.152
1593904010474136,4.95,2.285,0.152
1593904010975825,4.912,2.285,0.152
1593904011477456,4.836,2.285,0.152
1593904011979098,4.874,2.285,0.152
1593904012480744,4.95,2.361,0.152
1593904012982340,4.95,2.361,0.152
1593904013484027,4.874,2.285,0.152
1593904013985633,4.836,2.209,0.152
1593904014487423,4.95,2.209,0.152
1593904014989131,5.14,2.285,0.152
1593904015490767,5.064,2.285,0.152
1593904015992425,4.836,2.209,0.152
1593904016494076,5.026,2.285,0.152
1593904016995788,5.026,2.285,0.152
1593904017497501,4.912,2.285,0.152
1593904017999188,4.798,2.209,0.152
1593904018500862,4.76,2.209,0.152
1593904019002566,4.836,2.285,0.152
1593904019504283,4.874,2.285,0.152
1593904020005945,5.026,2.361,0.152
1593904020507746,4.836,2.285,0.152
1593904021009424,4.874,2.285,0.152
1593904021511113,4.798,2.209,0.152
1593904022012791,4.836,2.285,0.152
1593904022514445,4.798,2.209,0.152
1593904023016155,4.798,2.209,0.152
1593904023517767,4.836,2.285,0.152
1593904024023109,4.798,2.209,0.152
1593904024524862,4.798,2.209,0.152
1593904025026483,4.874,2.285,0.152
1593904025528657,4.874,2.285,0.152
1593904026031099,4.798,2.209,0.152
1593904026532558,4.836,2.209,0.152
1593904027034388,4.836,2.285,0.152
1593904027535947,4.836,2.285,0.152
1593904028037378,4.874,2.285,0.152
1593904028539178,4.836,2.209,0.152
1593904029040740,4.912,2.285,0.152
1593904029542200,4.874,2.285,0.152
1593904030044105,4.95,2.361,0.152
1593904030545514,4.912,2.285,0.152
1593904031046935,4.912,2.285,0.152
1593904031549504,4.912,2.361,0.152
1593904032050974,5.064,2.438,0.152
1593904032552389,4.988,2.361,0.152
1593904033053785,4.95,2.361,0.152
1593904033557490,4.874,2.285,0.152
1593904034058992,4.836,2.209,0.152
1593904034560407,4.874,2.285,0.152
1593904035063945,4.874,2.285,0.152
1593904035565667,4.836,2.285,0.152
1593904036067457,4.874,2.285,0.152
1593904036569090,4.874,2.285,0.152
1593904037070739,4.874,2.285,0.152
1593904037572431,4.912,2.361,0.152
1593904038074053,4.836,2.285,0.152
1593904038575734,4.912,2.361,0.152
1593904039077437,4.874,2.285,0.152
1593904039579104,4.874,2.285,0.152
1593904040080813,4.798,2.209,0.152
1593904040582490,4.988,2.361,0.152
1593904041084119,5.102,2.514,0.152
1593904041588401,5.14,2.514,0.152
1593904042091063,5.102,2.438,0.152
1593904042592507,4.95,2.361,0.152
1593904043093897,4.912,2.285,0.152
1593904043597710,4.874,2.285,0.152
1593904044099090,4.874,2.285,0.152
1593904044600527,4.874,2.285,0.152
1593904045101959,4.912,2.285,0.152
1593904045603437,4.874,2.285,0.152
1593904046104870,4.836,2.209,0.152
1593904046606314,4.836,2.285,0.152
1593904047107763,4.95,2.361,0.152
1593904047609173,4.912,2.285,0.152
1593904048110591,4.836,2.209,0.152
1593904048614637,4.836,2.209,0.152
1593904049116165,4.836,2.285,0.152
1593904049617637,4.836,2.285,0.152
1593904050119086,4.76,2.209,0.152
1593904050620567,4.836,2.285,0.152
1593904051122025,4.836,2.285,0.152
1593904051623482,4.912,2.285,0.152
1593904052124925,4.874,2.285,0.152
1593904052626812,4.874,2.285,0.152
1593904053128310,4.836,2.285,0.152
1593904053632184,4.798,2.209,0.152
1593904054133775,4.912,2.285,0.152
1593904054635384,4.912,2.285,0.152
1593904055137485,4.836,2.285,0.152
1593904055638945,4.836,2.285,0.152
1593904056140489,4.836,2.285,0.152
1593904056641943,4.798,2.285,0.152
1593904057143637,4.836,2.285,0.152
1593904057645323,4.798,2.209,0.152
1593904058147051,4.836,2.285,0.152
1593904058648780,4.912,2.285,0.152
1593904059151755,4.874,2.285,0.152
1593904059653414,4.836,2.285,0.152
1593904060155095,4.836,2.285,0.152
1593904060656761,4.874,2.285,0.152
1593904061158502,4.988,2.438,0.152
1593904061660208,4.912,2.361,0.152
1593904062161837,4.912,2.285,0.152
1593904062663487,4.874,2.285,0.152
1593904063165143,4.988,2.361,0.152
1593904063666828,4.95,2.361,0.152
1593904064168542,4.874,2.285,0.152
1593904064670259,4.874,2.285,0.152
1593904065171947,4.874,2.285,0.152
1593904065673616,4.874,2.285,0.152
1593904066175346,4.836,2.285,0.152
1593904066677918,4.836,2.285,0.152
1593904067179602,4.874,2.285,0.152
1593904067681252,4.874,2.285,0.152
1593904068182918,4.912,2.285,0.152
1593904068684760,4.912,2.285,0.152
1593904069186467,4.836,2.285,0.152
1593904069688179,4.874,2.285,0.152
1593904070189903,4.912,2.285,0.152
1593904070691602,4.836,2.285,0.152
1593904071193294,4.798,2.209,0.152
1593904071695026,4.836,2.285,0.152
1593904072196662,4.798,2.285,0.152
1593904072698308,4.836,2.285,0.152
1593904073199972,5.026,2.438,0.152
1593904073701639,4.95,2.361,0.152
1593904074203297,4.95,2.361,0.152
1593904074704948,4.912,2.285,0.152
1593904075206564,5.102,2.438,0.152
1593904075708281,5.064,2.438,0.152
1593904076209910,4.95,2.361,0.152
1593904076711553,4.798,2.209,0.152
1593904077213288,4.836,2.209,0.152
1593904077714933,4.836,2.285,0.152
1593904078216599,4.836,2.285,0.152
1593904078718197,4.912,2.285,0.152
1593904079219979,4.912,2.285,0.152
1593904079721675,4.874,2.285,0.152
1593904080224154,4.874,2.285,0.152
1593904080725758,4.874,2.285,0.152
1593904081227430,4.912,2.361,0.152
1593904081729097,4.874,2.285,0.152
1593904082230755,4.76,2.209,0.152
1593904082732499,4.798,2.209,0.152
1593904083234128,4.874,2.285,0.152
1593904083735906,4.912,2.285,0.152
1593904084237619,4.874,2.285,0.152
1593904084739244,4.988,2.361,0.152
1593904085240995,5.102,2.285,0.152
1593904085742620,4.912,2.285,0.152
1593904086244303,4.988,2.361,0.152
1593904086745916,5.255,2.361,0.152
1593904087247587,5.064,2.285,0.152
1593904087749233,4.912,2.285,0.152
1593904088250851,4.874,2.285,0.152
1593904088752567,5.026,2.285,0.152
1593904089254190,5.102,2.285,0.152
1593904089756016,4.95,2.285,0.152
1593904090257637,5.064,2.209,0.152
1593904090759263,5.14,2.209,0.152
1593904091260931,5.102,2.285,0.152
1593904091762576,4.95,2.285,0.152
1593904092264362,4.988,2.209,0.152
1593904092765995,5.102,2.209,0.152
1593904093267648,5.14,2.361,0.152
1593904093769285,5.064,2.438,0.152
1593904094271004,4.874,2.285,0.152
1593904094772625,4.912,2.285,0.152
1593904095274326,4.874,2.285,0.152
1593904095776031,4.874,2.285,0.152
1593904096277660,4.912,2.285,0.152
1593904096779419,4.874,2.285,0.152
1593904097281073,5.064,2.285,0.152
1593904097782753,5.102,2.285,0.152
1593904098284379,4.988,2.285,0.152
1593904098786010,4.912,2.285,0.152
1593904099287728,5.064,2.285,0.152
1593904099789362,4.988,2.209,0.152
1593904100290993,5.14,2.285,0.152
1593904100792603,5.216,2.285,0.152
1593904101294323,5.178,2.285,0.152
1593904101795998,4.95,2.285,0.152
1593904102297637,4.874,2.285,0.152
1593904102799347,4.874,2.285,0.152
1593904103301100,4.836,2.285,0.152
1593904103802718,4.836,2.285,0.152
1593904104304433,4.836,2.209,0.152
1593904104806081,4.874,2.285,0.152
1593904105307724,4.836,2.285,0.152
1593904105809370,4.798,2.209,0.152
1593904106310986,4.874,2.285,0.152
1593904106812704,4.874,2.285,0.152
1593904107314371,4.836,2.285,0.152
1593904107816086,4.76,2.209,0.152
1593904108317788,4.836,2.285,0.152
1593904108819528,4.836,2.285,0.152
1593904109321228,4.988,2.361,0.152
1593904109822799,4.874,2.285,0.152
1593904110324258,4.874,2.285,0.152
1593904110825762,4.874,2.285,0.152
1593904111327154,4.798,2.209,0.152
1593904111828620,4.874,2.285,0.152
1593904112330034,4.874,2.285,0.152
1593904112831763,4.836,2.209,0.152
1593904113333246,4.798,2.209,0.152
1593904113834727,4.874,2.285,0.152
1593904114336185,4.798,2.209,0.152
1593904114837616,4.836,2.285,0.152
1593904115339070,4.836,2.285,0.152
1593904115840586,4.836,2.285,0.152
1593904116342021,4.836,2.285,0.152
1593904116843432,4.874,2.285,0.152
1593904117344873,4.95,2.361,0.152
1593904117846695,5.064,2.438,0.152
1593904118348203,5.064,2.438,0.152
1593904118849650,5.026,2.438,0.152
1593904119351034,4.95,2.361,0.152
1593904119852482,4.874,2.285,0.152
1593904120356172,5.026,2.438,0.152
1593904120857647,4.874,2.285,0.152
1593904121359061,4.988,2.361,0.152
1593904121860534,5.064,2.438,0.152
1593904122362291,5.178,2.513,0.152
1593904122863793,4.95,2.285,0.152
1593904123365197,4.95,2.361,0.152
1593904123866595,4.874,2.285,0.152
1593904124367987,4.836,2.285,0.152
1593904124869414,4.798,2.209,0.152
1593904125373537,4.836,2.285,0.152
1593904125875039,4.836,2.285,0.152
1593904126376541,4.798,2.209,0.152
1593904126878001,4.912,2.285,0.152
1593904127379433,4.912,2.285,0.152
1593904127880839,4.798,2.209,0.152
1593904128382893,4.76,2.209,0.152
1593904128884360,4.798,2.209,0.152
1593904129385773,4.836,2.285,0.152
1593904129887430,4.874,2.285,0.152
1593904130391538,4.836,2.285,0.152
1593904130892948,4.912,2.285,0.152
1593904131399580,4.874,2.285,0.152
1593904131901273,4.912,2.361,0.152
1593904132402834,4.836,2.285,0.152
1593904132904228,4.874,2.285,0.152
1593904133405625,4.836,2.285,0.152
1593904133907399,4.836,2.285,0.152
1593904134409026,4.874,2.285,0.152
1593904134910442,4.912,2.285,0.152
1593904135414123,4.988,2.285,0.152
1593904135915537,4.912,2.285,0.152
1593904136416963,4.836,2.209,0.152
1593904136918403,4.874,2.285,0.152
1593904137419840,4.836,2.285,0.152
1593904137921237,4.912,2.285,0.152
1593904138422685,4.95,2.361,0.152
1593904138924156,4.874,2.285,0.152
1593904139425544,4.874,2.285,0.152
1593904139926927,4.836,2.285,0.152
1593904140432292,4.912,2.285,0.152
1593904140933728,4.874,2.285,0.152
1593904141436007,4.874,2.285,0.152
1593904141937435,4.912,2.361,0.152
1593904142438824,4.798,2.209,0.152
1593904142940373,4.836,2.285,0.152
1593904143441814,4.874,2.285,0.152
1593904143943218,4.912,2.361,0.152
1593904144444656,4.988,2.361,0.152
1593904144946485,4.836,2.285,0.152
1593904145450078,4.874,2.285,0.152
1593904145952178,4.874,2.285,0.152
1593904146453604,4.798,2.209,0.152
1593904146955034,4.798,2.209,0.152
1593904147456490,4.874,2.285,0.152
1593904147957934,4.874,2.285,0.152
1593904148459417,4.836,2.285,0.152
1593904148961926,4.874,2.285,0.152
1593904149463393,4.874,2.285,0.152
1593904149964801,4.798,2.285,0.152
1593904150468826,4.874,2.285,0.152
1593904150970613,4.836,2.285,0.152
1593904151472343,4.836,2.285,0.152
1593904151973751,4.874,2.285,0.152
1593904152476117,4.988,2.361,0.152
1593904152977809,4.912,2.361,0.152
1593904153479545,4.836,2.285,0.152
1593904153981210,4.874,2.285,0.152
1593904154482810,4.874,2.285,0.152
1593904154984492,4.76,2.209,0.152
1593904155486151,4.912,2.361,0.152
1593904155987829,4.874,2.285,0.152
1593904156489551,4.874,2.285,0.152
1593904156991225,5.026,2.438,0.152
1593904157492922,4.95,2.361,0.152
1593904157994492,4.874,2.285,0.152
1593904158496170,4.798,2.209,0.152
1593904158997766,4.95,2.361,0.152
1593904159499440,4.874,2.285,0.152
1593904160001150,4.798,2.209,0.152
1593904160502869,4.874,2.285,0.152
1593904161004692,4.874,2.285,0.152
1593904161506300,4.874,2.285,0.152
1593904162007946,4.988,2.361,0.152
1593904162509402,4.95,2.361,0.152
1593904163011064,4.874,2.285,0.152
1593904163515033,4.836,2.285,0.152
1593904164016637,4.836,2.209,0.152
1593904164518332,4.874,2.285,0.152
1593904165020070,4.988,2.361,0.152
1593904165522776,5.026,2.361,0.152
1593904166024468,5.064,2.361,0.152
1593904166526136,5.064,2.438,0.152
1593904167027854,4.874,2.285,0.152
1593904167529491,4.798,2.209,0.152
1593904168031085,4.874,2.285,0.152
1593904168532929,4.798,2.209,0.152
1593904169034507,4.874,2.285,0.152
1593904169536159,4.836,2.209,0.152
1593904170037786,4.798,2.209,0.152
1593904170539524,4.836,2.285,0.152
1593904171041240,4.874,2.285,0.152
1593904171543637,4.836,2.285,0.152
1593904172045252,4.798,2.209,0.152
1593904172546871,4.912,2.285,0.152
1593904173048491,4.912,2.361,0.152
1593904173550152,4.76,2.209,0.152
1593904174052065,4.798,2.209,0.152
1593904174553702,4.912,2.361,0.152
1593904175055367,4.874,2.285,0.152
1593904175558248,4.836,2.285,0.152
1593904176059916,4.874,2.285,0.152
1593904176561563,4.912,2.361,0.152
1593904177063264,4.836,2.285,0.152
1593904177564982,4.836,2.285,0.152
1593904178066585,4.874,2.285,0.152
1593904178568353,4.76,2.209,0.152
1593904179069965,4.874,2.285,0.152
1593904179571664,4.874,2.285,0.152
1593904180073339,4.874,2.285,0.152
1593904180574893,4.912,2.285,0.152
1593904181076665,4.874,2.285,0.152
1593904181578270,4.912,2.285,0.152
1593904182079903,4.874,2.285,0.152
1593904182581559,4.874,2.285,0.152
1593904183084488,4.836,2.285,0.152
1593904183586140,4.912,2.285,0.152
1593904184087835,4.912,2.361,0.152
1593904184589437,4.912,2.361,0.152
1593904185091111,4.798,2.209,0.152
1593904185592865,4.912,2.361,0.152
1593904186094469,4.988,2.438,0.152
1593904186596219,5.064,2.514,0.152
1593904187097882,4.988,2.361,0.152
1593904187599585,4.798,2.209,0.152
1593904188101208,4.874,2.285,0.152
1593904188602852,4.874,2.285,0.152
1593904189104636,4.76,2.209,0.152
1593904189606311,4.836,2.285,0.152
1593904190107905,4.95,2.361,0.152
1593904190609562,4.912,2.361,0.152
1593904191111153,4.874,2.285,0.152
1593904191612772,4.912,2.285,0.152
1593904192114418,4.798,2.209,0.152
1593904192616113,4.836,2.285,0.152
1593904193124626,4.836,2.209,0.152
1593904193626033,4.836,2.285,0.152
1593904194127453,4.874,2.285,0.152
1593904194628830,4.874,2.285,0.152
1593904195132773,4.874,2.285,0.152
1593904195634249,4.95,2.285,0.152
1593904196135823,5.102,2.438,0.152
1593904196637304,5.026,2.361,0.152
1593904197138771,4.912,2.285,0.152
1593904197640259,4.874,2.285,0.152
1593904198141716,4.912,2.361,0.152
1593904198643164,4.988,2.361,0.152
1593904199144630,4.912,2.361,0.152
1593904199646101,4.874,2.285,0.152
1593904200147544,4.874,2.285,0.152
1593904200650318,4.95,2.285,0.152
1593904201151784,4.912,2.285,0.152
1593904201653196,4.912,2.285,0.152
1593904202157143,4.798,2.285,0.152
1593904202658569,4.721,2.133,0.152
1593904203160260,4.798,2.285,0.152
1593904203661701,4.836,2.285,0.152
1593904204163092,4.836,2.209,0.152
1593904204664518,4.798,2.209,0.152
1593904205165918,4.836,2.285,0.152
1593904205667358,4.798,2.209,0.152
1593904206168785,4.798,2.209,0.152
1593904206670183,4.874,2.285,0.152
1593904207174041,4.874,2.285,0.152
1593904207675460,4.836,2.285,0.152
1593904208176874,4.836,2.209,0.152
1593904208678321,4.912,2.285,0.152
1593904209181503,4.874,2.285,0.152
1593904209683136,4.912,2.361,0.152
1593904210184794,4.874,2.285,0.152
1593904210686496,4.874,2.285,0.152
1593904211188178,4.912,2.361,0.152
1593904211689897,4.912,2.361,0.152
1593904212191571,4.988,2.361,0.152
1593904212693186,4.988,2.361,0.152
1593904213194801,4.95,2.361,0.152
1593904213696429,4.874,2.285,0.152
1593904214198087,4.721,2.133,0.152
1593904214699832,4.874,2.285,0.152
1593904215201465,4.912,2.361,0.152
1593904215703135,4.874,2.285,0.152
1593904216204825,4.988,2.361,0.152
1593904216706499,4.95,2.361,0.152
1593904217208182,4.912,2.361,0.152
1593904217709826,4.874,2.285,0.152
1593904218211443,4.836,2.285,0.152
1593904218713087,4.912,2.285,0.152
1593904219217993,4.836,2.209,0.152
1593904219719430,4.874,2.285,0.152
1593904220220858,4.874,2.285,0.152
1593904220722412,4.912,2.285,0.152
1593904221223914,4.95,2.361,0.152
1593904221725338,4.874,2.285,0.152
1593904222226790,4.798,2.209,0.152
1593904222728243,4.874,2.285,0.152
1593904223229676,4.912,2.361,0.152
1593904223731143,5.026,2.361,0.152
1593904224232585,4.95,2.361,0.152
1593904224734036,4.95,2.361,0.152
1593904225235475,4.912,2.361,0.152
1593904225736883,4.988,2.361,0.152
1593904226238477,4.874,2.209,0.152
1593904226739986,4.912,2.285,0.152
1593904227241656,4.912,2.361,0.152
1593904227743512,4.912,2.285,0.152
1593904228245189,4.798,2.209,0.152
1593904228746825,4.874,2.285,0.152
1593904229248464,5.064,2.514,0.152
1593904229750155,4.95,2.361,0.152
1593904230251894,4.912,2.285,0.152
1593904230753604,4.95,2.361,0.152
1593904231255271,4.95,2.361,0.152
1593904231756959,4.874,2.285,0.152
1593904232258598,4.912,2.361,0.152
1593904232760328,4.95,2.361,0.152
1593904233261867,4.912,2.361,0.152
1593904233763402,5.064,2.438,0.152
1593904234264843,5.102,2.514,0.152
1593904234766279,4.988,2.438,0.152
1593904235267758,4.912,2.361,0.152
1593904235769199,4.988,2.361,0.152
1593904236270590,4.988,2.361,0.152
1593904236771988,4.95,2.361,0.152
1593904237273393,4.95,2.361,0.152
1593904237774833,4.874,2.285,0.152
1593904238276273,4.95,2.361,0.152
1593904238777697,4.95,2.361,0.152
1593904239279142,4.798,2.285,0.152
1593904239780704,4.798,2.209,0.152
1593904240282139,4.874,2.285,0.152
1593904240783561,4.912,2.361,0.152
1593904241285076,4.874,2.285,0.152
1593904241786726,4.912,2.209,0.152
1593904242288288,5.14,2.361,0.152
1593904242792261,5.026,2.285,0.152
1593904243293820,5.064,2.285,0.152
1593904243795226,4.95,2.133,0.152
1593904244296733,5.026,2.209,0.152
1593904244798899,4.76,1.98,0.152
1593904245300431,4.874,2.057,0.152
1593904245801859,5.102,2.285,0.152
1593904246303597,4.988,2.133,0.152
1593904246805268,5.064,2.209,0.152
1593904247307058,4.912,2.057,0.152
1593904247809061,4.874,1.98,0.152
1593904248310680,4.798,1.98,0.152
1593904248812368,4.836,2.133,0.152
1593904249314046,4.874,2.209,0.152
1593904249815682,4.95,2.361,0.152
1593904250317378,4.912,2.361,0.152
1593904250819013,4.912,2.361,0.152
1593904251320712,5.026,2.438,0.152
1593904251822423,5.026,2.438,0.152
1593904252324044,4.95,2.361,0.152
1593904252825657,4.95,2.361,0.152
1593904253327471,4.95,2.285,0.152
1593904253829133,4.912,2.285,0.152
1593904254330773,4.912,2.361,0.152
1593904254832397,4.798,2.209,0.152
1593904255334099,4.76,2.133,0.152
1593904255835791,4.874,2.285,0.152
1593904256337424,4.912,2.285,0.152
1593904256839070,4.874,2.285,0.152
1593904257340762,4.798,2.209,0.152
1593904257842436,4.912,2.285,0.152
1593904258344165,4.95,2.361,0.152
1593904258845823,4.836,2.285,0.152
1593904259347502,4.798,2.209,0.152
1593904259849118,4.76,2.133,0.152
1593904260350747,4.874,2.285,0.152
1593904260852448,4.874,2.285,0.152
1593904261354046,4.95,2.285,0.152
1593904261861466,4.95,2.361,0.152
1593904262363112,4.95,2.361,0.152
1593904262864792,4.95,2.361,0.152
1593904263366479,4.798,2.209,0.152
1593904263868163,4.836,2.209,0.152
1593904264369896,4.912,2.285,0.152
1593904264871682,4.95,2.361,0.152
1593904265373264,4.95,2.285,0.152
1593904265874982,4.912,2.361,0.152
1593904266376701,4.95,2.361,0.152
1593904266878312,4.874,2.361,0.152
1593904267379949,4.836,2.285,0.152
1593904267881558,4.874,2.285,0.152
1593904268383193,4.836,2.285,0.152
1593904268884922,4.836,2.285,0.152
1593904269386553,4.912,2.285,0.152
1593904269888173,4.988,2.361,0.152
1593904270389832,4.988,2.361,0.152
1593904270891435,4.95,2.361,0.152
1593904271393088,4.988,2.361,0.152
1593904271894757,4.95,2.361,0.152
1593904272396356,4.95,2.361,0.152
1593904272897976,5.026,2.361,0.152
1593904273399617,5.026,2.361,0.152
1593904273901295,4.988,2.438,0.152
1593904274402928,4.95,2.361,0.152
1593904274904592,4.95,2.285,0.152
1593904275406249,4.95,2.361,0.152
1593904275907906,4.912,2.361,0.152
1593904276409549,4.95,2.361,0.152
1593904276911161,4.988,2.361,0.152
1593904277412825,5.026,2.438,0.152
1593904277914480,4.95,2.361,0.152
1593904278417430,4.874,2.285,0.152
1593904278919069,4.798,2.209,0.152
1593904279420837,4.874,2.285,0.152
1593904279922481,4.912,2.285,0.152
1593904280424156,4.874,2.285,0.152
1593904280925761,4.836,2.209,0.152
1593904281427546,4.874,2.285,0.152
1593904281929219,4.912,2.361,0.152
1593904282430841,5.064,2.514,0.152
1593904282932539,4.988,2.361,0.152
1593904283434207,4.988,2.361,0.152
1593904283935901,4.95,2.361,0.152
1593904284437570,4.874,2.285,0.152
1593904284939252,4.912,2.285,0.152
1593904285441082,5.026,2.438,0.152
1593904285942793,4.988,2.361,0.152
1593904286444690,4.95,2.285,0.152
1593904286946344,4.95,2.285,0.152
1593904287448063,4.912,2.285,0.152
1593904287949787,4.912,2.361,0.152
1593904288451674,4.912,2.285,0.152
1593904288954706,4.912,2.285,0.152
1593904289456441,4.912,2.361,0.152
1593904289958143,4.912,2.361,0.152
1593904290460029,4.912,2.285,0.152
1593904290961902,4.95,2.361,0.152
1593904291463715,4.912,2.361,0.152
1593904291965342,4.912,2.361,0.152
1593904292467014,4.836,2.209,0.152
1593904292968668,4.874,2.285,0.152
1593904293470348,4.95,2.361,0.152
1593904293971973,4.912,2.361,0.152
1593904294473572,4.988,2.361,0.152
1593904294975202,5.14,2.514,0.152
1593904295476971,5.026,2.438,0.152
1593904295978610,4.912,2.361,0.152
1593904296480288,4.874,2.285,0.152
1593904296981939,4.95,2.361,0.152
1593904297483594,5.026,2.438,0.152
1593904297985175,5.178,2.589,0.152
1593904298486850,5.064,2.438,0.152
1593904298988580,5.14,2.514,0.152
1593904299490232,5.102,2.514,0.152
1593904299991886,4.912,2.361,0.152
1593904300493533,4.95,2.361,0.152
1593904300995123,4.912,2.361,0.152
1593904301496941,4.912,2.361,0.152
1593904301998583,4.874,2.285,0.152
1593904302500263,4.912,2.285,0.152
1593904303001848,4.988,2.361,0.152
1593904303503472,5.14,2.514,0.152
1593904304005145,4.988,2.361,0.152
1593904304506849,4.912,2.285,0.152
1593904305008543,4.912,2.361,0.152
1593904305510217,4.912,2.361,0.152
1593904306011868,4.95,2.285,0.152
1593904306513593,4.912,2.285,0.152
