timestamp	VIRTUAL_SCALING	CPU0_F	CPU1_F	CPU2_F	CPU3_F	CPU4_F	CPU5_F	GPU_FREQ	CPU_GOVERNOR	EMC_F	TEMP0	TEMP1	TEMP2	TEMP3	TEMP4	TEMP5	TEMP6	TEMP7
1593970184291649111	1	345	1881	1881	345	345	345	114750000	performance	1866	30	30	29	30	27	27	100	30
1593970184505148554 	0	345	1231	1234	345	345	345	114750000	performance	1866	30	30	29	30	27	27	100	30
1593970186204253103	1	345	1881	1881	345	345	345	114750000	performance	1866	31	31	29	31	27	26	100	29
1593970186364529198 	0	345	1881	1880	345	345	345	114750000	performance	1866	31	31	29	31	27	27	100	29
1593970188060752386	1	345	1881	1881	345	345	345	114750000	performance	1866	31	31	29	31	27	27	100	30
1593970188218442706 	0	345	1881	1881	345	345	345	114750000	performance	1866	31	31	29	31	27	27	100	30
1593970189917067700	1	345	1881	1881	345	345	345	114750000	performance	1866	31	31	29	31	27	27	100	30
1593970190073854463 	0	345	1881	1880	345	345	345	114750000	performance	1866	31	31	29	31	27	27	100	30
1593970191770616982	1	345	1881	1881	345	345	345	114750000	performance	1866	31	31	29	31	27	27	100	30
1593970191929447724 	0	345	1880	1840	345	345	345	114750000	performance	1866	31	31	29	31	27	27	100	30
1593970193627713804	1	345	1881	1881	345	345	345	114750000	performance	1866	31	31	29	31	27	27	100	30
1593970193784600120 	0	345	1881	1881	345	345	345	114750000	performance	1866	31	31	29	31	27	27	100	30
1593970195482060627	1	345	1881	1881	345	345	345	114750000	performance	1866	31	31	29	31	27	27	100	30
1593970195641854255 	0	345	1886	1847	345	345	345	114750000	performance	1866	31	31	29	31	27	27	100	30
1593970197342440924	1	345	1881	1881	345	345	345	114750000	performance	1866	31	31	29	31	27	27	100	30
1593970197501492180 	0	345	1881	1881	345	345	345	114750000	performance	1866	31	31	29	31	27	27	100	30
1593970199198737646	1	345	1881	1881	345	345	345	114750000	performance	1866	31	31	29	31	27	27	100	30
1593970199403036236 	0	345	1881	1846	345	345	345	114750000	performance	1866	31	31	29	31	27	27	100	30
1593970201143630144	1	345	1881	1881	345	345	345	114750000	performance	1866	31	31	29	31	27	27	100	30
1593970201502592925 	0	345	1881	1882	345	345	345	114750000	performance	1866	31	31	29	31	27	27	100	30
1593970203426858712	1	345	1881	1881	345	345	345	114750000	performance	1866	31	31	29	31	27	27	100	30
1593970203586473651 	0	345	1881	1880	345	345	345	114750000	performance	1866	31	31	29	31	27	27	100	30
1593970205312783605	1	345	1881	1881	345	345	345	114750000	performance	1866	31	31	29	31	27	27	100	30
1593970205472445009 	0	345	1881	1881	345	345	345	114750000	performance	1866	31	31	29	31	27	27	100	30
1593970207167997185	1	345	1881	1881	345	345	345	114750000	performance	1866	31	31	29	31	27	27	100	30
1593970207325162990 	0	345	1881	1878	345	345	345	114750000	performance	1866	31	31	29	31	27	27	100	30
1593970209022932875	1	345	1881	1881	345	345	345	114750000	performance	1866	31	31	29	31	27	27	100	30
1593970209180398106 	0	346	1838	1884	345	345	345	114750000	performance	1866	31	31	29	31	27	27	100	30
1593970210877500595	1	345	1881	1881	345	345	345	114750000	performance	1866	31	31	29	31	27	27	100	30
1593970211036712780 	0	345	1879	1881	345	345	345	114750000	performance	1866	31	31	29	31	27	27	100	30
1593970212734121414	1	345	1881	1881	345	345	345	114750000	performance	1866	31	31	29	31	27	27	100	30
1593970212892637691 	0	345	1881	1839	345	345	345	114750000	performance	1866	31	31	29	31	27	27	100	30
1593970214592309283	1	345	1881	1881	345	345	345	114750000	performance	1866	31	31	29	31	27	27	100	30
1593970214750310965 	0	345	1881	1881	345	345	345	114750000	performance	1866	31	31	29	31	27	27	100	30
1593970216448907575	1	345	1881	1881	345	345	345	114750000	performance	1866	31	31	29	31	27	27	100	30
1593970216610897184 	0	345	1879	1841	345	345	345	114750000	performance	1866	31	31	29	31	27	27	100	30
1593970218307846296	1	345	1881	1881	345	345	345	114750000	performance	1866	31	31	29	31	27	27	100	30
1593970218466737231 	0	345	1881	1881	345	345	345	114750000	performance	1866	31	31	29	31	27	27	100	30
1593970220163976841	1	345	1881	1881	345	345	345	114750000	performance	1866	31	31	29	31	27	27	100	30
1593970220322146716 	0	345	1880	1792	345	345	345	114750000	performance	1866	31	31	29	31	27	27	100	30
1593970222019292341	1	345	1881	1881	345	345	345	114750000	performance	1866	31	31	29	31	27	27	100	30
1593970222237929830 	0	345	1837	1836	345	345	345	114750000	performance	1866	31	31	29	31	27	27	100	30
1593970224008803145	1	345	1881	1881	345	345	345	114750000	performance	1866	31	31	29	31	27	27	100	30
1593970224345193795 	0	345	1877	1881	345	345	345	114750000	performance	1866	31	31	29	31	27	27	100	30
1593970226238410155	1	345	1881	1881	345	345	345	114750000	performance	1866	31	31	29	31	27	27	100	30
1593970226397358946 	0	345	1881	1879	345	345	345	114750000	performance	1866	31	31	29	31	27	27	100	30
1593970228105509723	1	345	1881	1881	345	345	345	114750000	performance	1866	31	31	29	31	27	27	100	30
1593970228263515149 	0	345	1881	1881	345	345	345	114750000	performance	1866	31	31	29	31	27	27	100	30
1593970229966626121	1	345	1881	1881	345	345	345	114750000	performance	1866	31	31	29	31	27	27	100	30
1593970230124619387 	0	345	1880	1881	345	345	345	114750000	performance	1866	31	31	29	31	27	27	100	30
1593970231821506674	1	345	1881	1881	345	345	345	114750000	performance	1866	31	31	29	31	27	27	100	30
1593970231978451582 	0	345	1881	1840	345	345	345	114750000	performance	1866	31	31	29	31	27	27	100	30
1593970233678455656	1	345	1881	1881	345	345	345	114750000	performance	1866	31	31	29	31	27	27	100	30
1593970233836528250 	0	345	1881	1880	345	345	345	114750000	performance	1866	31	31	29	31	27	27	100	30
1593970235534571929	1	345	1881	1881	345	345	345	114750000	performance	1866	31	31	29	31	27	27	100	30
1593970235694363349 	0	345	1880	1794	345	345	345	114750000	performance	1866	31	31	29	31	27	27	100	30
1593970237389881893	1	345	1881	1881	345	345	345	114750000	performance	1866	31	31	29	31	27	27	100	30
1593970237552658451 	0	345	1881	1882	345	345	345	114750000	performance	1866	31	31	29	31	27	27	100	30
1593970239250963794	1	345	1881	1881	345	345	345	114750000	performance	1866	31	31	29	31	27	27	100	30
1593970239409867658 	0	345	1879	1881	345	345	345	114750000	performance	1866	31	31	29	31	27	27	100	30
1593970241128892001	1	345	1881	1881	345	345	345	114750000	performance	1866	31	31	29	31	27	27	100	30
1593970241294962530 	0	345	1880	1881	345	345	345	114750000	performance	1866	31	31	29	31	27	27	100	30
1593970243106250224	1	345	1881	1881	345	345	345	114750000	performance	1866	31	31	29	31	27	27	100	30
1593970243355856883 	0	345	1880	1842	345	345	345	114750000	performance	1866	31	31	29	31	27	27	100	30
1593970245153757108	1	345	1881	1881	345	345	345	114750000	performance	1866	31	31	29	31	27	27	100	30
1593970245459185722 	0	345	1881	1881	345	345	345	114750000	performance	1866	31	31	29	31	27	27	100	30
1593970247332794128	1	345	1881	1881	345	345	345	114750000	performance	1866	31	31	29	31	27	27	100	30
1593970247490420640 	0	345	1882	1881	345	345	345	114750000	performance	1866	31	31	29	31	27	27	100	30
1593970249189451876	1	345	1881	1881	345	345	345	114750000	performance	1866	31	31	29	31	27	27	100	30
1593970249346970483 	0	345	1880	1843	345	345	345	114750000	performance	1866	31	31	29	31	27	27	100	30
1593970251044385614	1	345	1881	1881	345	345	345	114750000	performance	1866	31	31	29	31	27	27	100	30
1593970251204588717 	0	345	1841	1881	345	345	345	114750000	performance	1866	31	31	29	31	27	27	100	30
1593970252899705690	1	345	1881	1881	345	345	345	114750000	performance	1866	31	31	29	31	27	27	100	30
1593970253058341104 	0	345	1881	1881	345	345	345	114750000	performance	1866	31	31	29	31	27	27	100	30
1593970254758438522	1	345	1881	1881	345	345	345	114750000	performance	1866	31	31	29	31	27	27	100	30
1593970254916702286 	0	345	1842	1841	345	345	345	114750000	performance	1866	31	31	29	31	27	27	100	30
1593970256615061486	1	345	1881	1881	345	345	345	114750000	performance	1866	31	31	29	31	27	27	100	30
1593970256775059308 	0	345	1881	1882	345	345	345	114750000	performance	1866	31	31	29	31	27	27	100	30
1593970258471863811	1	345	1881	1881	345	345	345	114750000	performance	1866	31	31	29	31	27	27	100	30
1593970258631776672 	0	345	1842	1843	345	345	345	114750000	performance	1866	31	31	29	31	27	27	100	30
1593970260330468066	1	345	1881	1881	345	345	345	114750000	performance	1866	31	31	29	31	27	27	100	30
1593970260522693530 	0	345	1840	1881	345	345	345	114750000	performance	1866	31	31	29	31	27	27	100	30
1593970262221172155	1	345	1881	1881	345	345	345	114750000	performance	1866	31	31	29	31	27	27	100	30
1593970262380453844 	0	345	1881	1881	345	345	345	114750000	performance	1866	31	31	29	31	27	27	100	30
1593970264077639854	1	345	1881	1881	345	345	345	114750000	performance	1866	31	31	29	31	27	27	100	30
1593970264239831416 	0	345	1880	1881	345	345	345	114750000	performance	1866	31	31	29	31	27	27	100	30
1593970265936986961	1	345	1881	1881	345	345	345	114750000	performance	1866	31	31	29	31	27	27	100	30
1593970266228503688 	0	345	1881	1881	345	345	345	114750000	performance	1866	31	31	29	31	27	27	100	30
1593970268077808529	1	345	1881	1881	345	345	345	114750000	performance	1866	31	31	29	31	27	27	100	30
1593970268330135237 	0	345	1878	1882	345	345	345	114750000	performance	1866	31	31	29	31	27	27	100	30
1593970270238197442	1	345	1881	1881	345	345	345	114750000	performance	1866	31	31	29	31	27	27	100	30
1593970270395733585 	0	345	1880	1881	345	345	345	114750000	performance	1866	31	31	29	31	27	27	100	30
1593970272092216711	1	345	1881	1881	345	345	345	114750000	performance	1866	31	31	29	31	27	27	100	30
1593970272251615201 	0	345	1882	1849	345	345	345	114750000	performance	1866	31	31	29	31	27	27	100	30
1593970273948062486	1	345	1881	1881	345	345	345	114750000	performance	1866	31	31	29	31	27	27	100	30
1593970274105839719 	0	345	1836	1881	345	345	345	114750000	performance	1866	31	31	29	31	27	27	100	30
1593970275805449806	1	345	1881	1881	345	345	345	114750000	performance	1866	31	31	29	31	27	27	100	30
1593970275963159550 	0	345	1881	1881	345	346	345	114750000	performance	1866	31	31	29	31	27	27	100	30
1593970277660240343	1	345	1881	1881	345	345	345	114750000	performance	1866	31	31	29	31	27	27	100	30
1593970277823702697 	0	345	1843	1881	345	345	345	114750000	performance	1866	31	31	29	31	27	27	100	30
1593970279521306853	1	345	1881	1881	345	345	345	114750000	performance	1866	31	31	29	31	27	27	100	30
1593970279678416433 	0	345	1882	1882	345	345	345	114750000	performance	1866	31	31	29	31	27	27	100	30
1593970281379093919	1	345	1881	1881	345	345	345	114750000	performance	1866	31	31	29	31	27	27	100	30
1593970281538296280 	0	345	1879	1844	345	345	345	114750000	performance	1866	31	31	29	31	27	27	100	30
1593970283236507351	1	345	1881	1881	345	345	345	114750000	performance	1866	31	31	29	31	27	27	100	30
1593970283393847526 	0	345	1881	1881	345	345	345	114750000	performance	1866	31	31	29	31	27	27	100	30
1593970285091293121	1	345	1881	1881	345	345	345	114750000	performance	1866	31	31	29	31	27	27	100	30
1593970285250727291 	0	345	1877	1881	345	345	345	114750000	performance	1866	31	31	29	31	27	27	100	30
1593970286948315703	1	345	1881	1881	345	345	345	114750000	performance	1866	31	31	29	31	27	27	100	30
1593970287105426755 	0	345	1881	1881	345	345	345	114750000	performance	1866	31	31	29	31	27	27	100	30
1593970288813627709	1	345	1881	1881	345	345	345	114750000	performance	1866	31	31	29	31	27	27	100	30
1593970289152851495 	0	345	1877	1881	345	345	345	114750000	performance	1866	31	31	29	31	27	27	100	30
1593970291059189530	1	345	1881	1881	345	345	345	114750000	performance	1866	31	31	29	31	27	27	100	30
1593970291260835593 	0	345	1881	1880	345	345	345	114750000	performance	1866	31	31	29	31	27	27	100	30
1593970293051587807	1	345	1881	1881	345	345	345	114750000	performance	1866	31	31	29	31	27	27	100	30
1593970293208808909 	0	345	1880	1881	345	345	345	114750000	performance	1866	31	31	29	31	27	27	100	30
1593970294908445012	1	345	1881	1881	345	345	345	114750000	performance	1866	31	31	29	31	27	27	100	30
1593970295067487756 	0	345	1881	1881	345	345	345	114750000	performance	1866	31	31	29	31	27	27	100	30
1593970296768176282	1	345	1881	1881	345	345	345	114750000	performance	1866	31	31	29	31	27	27	100	30
1593970296927243250 	0	345	1846	1881	345	345	345	114750000	performance	1866	31	31	29	31	27	27	100	30
1593970298625651315	1	345	1881	1881	345	345	345	114750000	performance	1866	31	31	29	31	27	27	100	30
1593970298787870077 	0	345	1841	1845	345	345	345	114750000	performance	1866	31	31	29	31	27	27	100	30
1593970300508437214	1	345	1881	1881	345	345	345	114750000	performance	1866	31	31	29	31	27	27	100	30
1593970300677859282 	0	345	1880	1881	345	345	345	114750000	performance	1866	31	31	29	31	27	27	100	30
1593970302376891702	1	345	1881	1881	345	345	345	114750000	performance	1866	31	31	29	31	27	27	100	30
1593970302540215431 	0	345	1842	1881	345	345	345	114750000	performance	1866	31	31	29	31	27	27	100	30
1593970304247593851	1	345	1881	1881	345	345	345	114750000	performance	1866	31	31	29	31	27	27	100	30
1593970304415814952 	0	345	1881	1882	345	345	345	114750000	performance	1866	31	31	29	31	27	27	100	30
1593970306139821117	1	345	1881	1881	345	345	345	114750000	performance	1866	31	31	29	31	27	27	100	30
1593970306300663103 	0	345	1881	1881	345	345	345	114750000	performance	1866	31	31	29	31	27	27	100	30
1593970308001177164	1	345	1881	1881	345	345	345	114750000	performance	1866	31	31	29	31	27	27	100	30
1593970308159853346 	0	345	1881	1878	345	345	345	114750000	performance	1866	31	31	29	31	27	27	100	30
1593970309860986226	1	345	1881	1881	345	345	345	114750000	performance	1866	31	31	29	31	27	27	100	30
1593970310143632501 	0	345	1879	1879	345	345	345	114750000	performance	1866	31	31	29	31	27	27	100	30
1593970311983787530	1	345	1881	1881	345	345	345	114750000	performance	1866	31	31	29	31	27	27	100	30
1593970312243036293 	0	345	1880	1880	345	345	345	114750000	performance	1866	31	31	29	31	27	27	100	30
1593970314081787666	1	345	1881	1881	345	345	345	114750000	performance	1866	31	31	29	31	27	27	100	30
1593970314241148396 	0	345	1880	1843	345	345	345	114750000	performance	1866	31	31	29	31	27	27	100	30
1593970315940433873	1	345	1881	1881	345	345	345	114750000	performance	1866	31	31	29	31	27	27	100	30
1593970316098111617 	0	345	1881	1879	345	345	345	114750000	performance	1866	31	31	29	31	27	27	100	30
1593970317797351271	1	345	1881	1881	345	345	345	114750000	performance	1866	31	31	29	31	27	27	100	30
1593970317960446838 	0	345	1884	1880	345	345	345	114750000	performance	1866	31	31	29	31	27	27	100	30
1593970319661367365	1	345	1881	1881	345	345	345	114750000	performance	1866	31	31	29	31	27	27	100	30
1593970319822076871 	0	345	1840	1881	345	345	345	114750000	performance	1866	31	31	29	31	27	27	100	30
1593970321521918832	1	345	1881	1881	345	345	345	114750000	performance	1866	31	31	29	31	27	27	100	30
1593970321680482245 	0	345	1881	1882	345	345	345	114750000	performance	1866	31	31	29	31	27	27	100	30
1593970323378688612	1	345	1881	1881	345	345	345	114750000	performance	1866	31	31	29	31	27	27	100	30
1593970323539293413 	0	345	1881	1884	345	345	345	114750000	performance	1866	31	31	29	31	27	27	100	30
1593970325237244899	1	345	1881	1881	345	345	345	114750000	performance	1866	31	31	29	31	27	27	100	30
1593970325398706889 	0	345	1837	1842	345	345	345	114750000	performance	1866	31	31	29	31	27	27	100	30
1593970327096226724	1	345	1881	1881	345	345	345	114750000	performance	1866	31	31	29	31	27	27	100	30
1593970327254898938 	0	345	1838	1846	345	345	345	114750000	performance	1866	31	31	29	31	27	27	100	30
1593970328957839349	1	345	1881	1881	345	345	345	114750000	performance	1866	31	31	29	31	27	27	100	30
1593970329116935021 	0	345	1883	1834	345	345	345	114750000	performance	1866	31	31	29	31	27	27	100	30
1593970330816794934	1	345	1881	1881	345	345	345	114750000	performance	1866	31	31	29	31	27	27	100	30
1593970330977593208 	0	345	1879	1880	345	345	345	114750000	performance	1866	31	31	29	31	27	27	100	30
1593970332676071737	1	345	1881	1881	345	345	345	114750000	performance	1866	31	31	29	31	27	27	100	30
1593970332990978487 	0	345	1841	1881	345	345	345	114750000	performance	1866	31	31	29	31	27	27	100	30
1593970334887287024	1	345	1881	1881	345	345	345	114750000	performance	1866	31	31	29	31	27	27	100	30
1593970335108482800 	0	346	1880	1875	345	345	345	114750000	performance	1866	31	31	29	31	27	27	100	30
1593970336912528371	1	345	1881	1881	345	345	345	114750000	performance	1866	31	31	29	31	28	27	100	30
1593970337074040090 	0	345	1838	1837	345	345	345	114750000	performance	1866	31	31	29	31	27	27	100	30
1593970338771046546	1	345	1881	1881	345	345	345	114750000	performance	1866	31	31	29	31	28	27	100	30
1593970338932567352 	0	345	1881	1880	345	345	345	114750000	performance	1866	31	31	29	31	27	27	100	30
1593970340665411776	1	345	1881	1881	345	345	345	114750000	performance	1866	31	31	29	31	27	27	100	30
1593970340825136572 	0	345	1842	1882	345	345	345	114750000	performance	1866	31	31	29	31	28	27	100	30
1593970342524954885	1	345	1881	1881	345	345	345	114750000	performance	1866	31	31	29	31	28	27	100	30
1593970342683775292 	0	345	1880	1881	345	345	345	114750000	performance	1866	31	31	29	31	28	27	100	30
1593970344380982677	1	345	1881	1881	345	345	345	114750000	performance	1866	31	31	29	31	28	27	100	30
1593970344542330330 	0	345	1881	1882	345	345	345	114750000	performance	1866	31	31	29	31	28	27	100	30
1593970346240418457	1	345	1881	1881	345	345	345	114750000	performance	1866	31	31	29	31	28	27	100	30
1593970346398218730 	0	345	1881	1880	345	345	345	114750000	performance	1866	31	31	29	31	28	27	100	30
1593970348099770845	1	345	1881	1881	345	345	345	114750000	performance	1866	31	31	29	31	28	27	100	30
1593970348257087211 	0	345	1840	1880	345	345	345	114750000	performance	1866	31	31	29	31	28	27	100	30
1593970349956733010	1	345	1881	1881	345	345	345	114750000	performance	1866	31	31	29	31	28	27	100	30
1593970350117460660 	0	345	1881	1880	345	345	345	114750000	performance	1866	31	31	29	31	28	27	100	30
1593970351814465677	1	345	1881	1881	345	345	345	114750000	performance	1866	31	31	29	31	28	27	100	30
1593970351980287020 	0	345	1842	1843	345	345	345	114750000	performance	1866	31	31	29	31	28	27	100	30
1593970353679759986	1	345	1881	1881	345	345	345	114750000	performance	1866	31	31	29	31	28	27	100	30
1593970353883837743 	0	345	1839	1882	345	345	345	114750000	performance	1866	31	31	29	31	28	27	100	30
1593970355627133203	1	345	1881	1881	345	345	345	114750000	performance	1866	31	31	29	31	28	27	100	30
1593970355990546985 	0	345	1840	1880	345	345	345	114750000	performance	1866	31	31	29	31	28	27	100	30
1593970357914260289	1	345	1881	1881	345	345	345	114750000	performance	1866	31	31	29	31	28	27	100	30
1593970358076782349 	0	345	1881	1880	345	345	345	114750000	performance	1866	31	31	29	31	28	27	100	30
1593970359804646648	1	345	1881	1881	345	345	345	114750000	performance	1866	31	31	29	31	28	27	100	30
1593970359964772054 	0	345	1881	1879	345	345	345	114750000	performance	1866	31	31	29	31	28	27	100	30
1593970361664248573	1	345	1881	1881	345	345	345	114750000	performance	1866	31	31	29	31	28	27	100	30
1593970361822144559 	0	345	1842	1882	345	345	345	114750000	performance	1866	31	31	29	31	28	27	100	30
1593970363519115847	1	345	1881	1881	345	345	345	114750000	performance	1866	31	31	29	31	28	27	100	30
1593970363679210565 	0	345	1882	1881	345	346	345	114750000	performance	1866	31	31	29	31	28	27	100	30
1593970365376063740	1	345	1881	1881	345	345	345	114750000	performance	1866	31	31	29	31	28	27	100	30
1593970365534172623 	0	345	1841	1880	345	345	345	114750000	performance	1866	31	31	29	31	28	27	100	30
1593970367240761439	1	345	1881	1881	345	345	345	114750000	performance	1866	31	31	29	31	28	27	100	30
1593970367407162721 	0	345	1881	1843	345	345	345	114750000	performance	1866	31	31	29	31	28	27	100	30
1593970369106680232	1	345	1881	1881	345	345	345	114750000	performance	1866	31	31	29	31	28	27	100	30
1593970369265414527 	0	345	1844	1881	345	345	345	114750000	performance	1866	31	31	29	31	28	27	100	30
1593970370964540963	1	345	1881	1881	345	345	345	114750000	performance	1866	31	31	29	31	28	27	100	30
1593970371124402528 	0	345	1881	1842	345	345	345	114750000	performance	1866	31	31	29	31	28	27	100	30
1593970372821815963	1	345	1881	1881	345	345	345	114750000	performance	1866	31	31	29	31	28	27	100	30
1593970372981973177 	0	345	1881	1881	345	345	345	114750000	performance	1866	31	31	29	31	28	27	100	30
1593970374680754204	1	345	1881	1881	345	345	345	114750000	performance	1866	31	31	29	31	28	27	100	30
1593970374838934895 	0	345	1881	1794	345	345	345	114750000	performance	1866	31	31	29	31	28	27	100	30
1593970376537943667	1	345	1881	1881	345	345	345	114750000	performance	1866	31	31	29	31	28	27	100	30
1593970376778944133 	0	345	1839	1881	345	345	345	114750000	performance	1866	31	31	29	31	28	27	100	30
1593970378571043843	1	345	1881	1881	345	345	345	114750000	performance	1866	31	31	29	31	28	27	100	30
1593970378889393045 	0	345	1842	1841	345	346	345	114750000	performance	1866	31	31	29	31	28	27	100	30
1593970380800716517	1	345	1881	1881	345	345	345	114750000	performance	1866	31	31	29	31	28	27	100	30
1593970380962076907 	0	345	1840	1845	345	345	345	114750000	performance	1866	31	31	29	31	28	27	100	30
1593970382662848697	1	345	1881	1881	345	345	345	114750000	performance	1866	31	31	29	31	28	27	100	30
1593970382823088664 	0	345	1881	1881	345	345	345	114750000	performance	1866	31	31	29	31	28	27	100	30
1593970384520054544	1	345	1881	1881	345	345	345	114750000	performance	1866	31	31	29	31	28	27	100	30
1593970384680588113 	0	345	1838	1839	345	345	345	114750000	performance	1866	31	31	29	31	28	27	100	30
1593970386378099468	1	345	1881	1881	345	345	345	114750000	performance	1866	31	31	29	31	28	27	100	30
1593970386538295979 	0	345	1882	1841	345	345	345	114750000	performance	1866	31	31	29	31	28	27	100	30
1593970388239699036	1	345	1881	1881	345	345	345	114750000	performance	1866	31	31	29	31	28	27	100	30
1593970388398926165 	0	345	1881	1879	345	345	345	114750000	performance	1866	31	31	29	31	28	27	100	30
1593970390183913483	1	345	1881	1881	345	345	345	114750000	performance	1866	31	31	29	31	28	27	100	30
1593970390342460448 	0	345	1881	1881	345	345	345	114750000	performance	1866	31	31	29	31	28	27	100	30
1593970392040828768	1	345	1881	1881	345	345	345	114750000	performance	1866	31	31	29	31	28	27	100	30
1593970392199972729 	0	345	1839	1843	345	345	345	114750000	performance	1866	31	31	29	31	28	27	100	30
1593970393897695669	1	345	1881	1881	345	345	345	114750000	performance	1866	31	31	29	31	28	27	100	30
1593970394057563890 	0	345	1881	1879	345	345	345	114750000	performance	1866	31	31	29	31	28	27	100	30
1593970395756699575	1	345	1881	1881	345	345	345	114750000	performance	1866	31	31	29	31	28	27	100	30
1593970395917062487 	0	345	1878	1880	345	345	345	114750000	performance	1866	31	31	29	31	28	27	100	30
1593970397615694744	1	345	1881	1881	345	345	345	114750000	performance	1866	31	31	29	31	28	27	100	30
1593970397819997590 	0	345	1880	1880	345	345	345	114750000	performance	1866	31	31	29	31	28	27	100	30
1593970399546030135	1	345	1881	1881	345	345	345	114750000	performance	1866	31	31	29	31	28	27	100	30
1593970399922604505 	0	345	1882	1881	345	345	345	114750000	performance	1866	31	31	29	31	28	27	100	30
1593970401849147329	1	345	1881	1881	345	345	345	114750000	performance	1866	31	31	29	31	28	27	100	30
1593970402010273637 	0	345	1881	1845	345	345	345	114750000	performance	1866	31	31	29	31	28	27	100	30
1593970403737988143	1	345	1881	1881	345	345	345	114750000	performance	1866	31	31	29	31	28	27	100	30
1593970403900238426 	0	345	1880	1880	345	345	345	114750000	performance	1866	31	31	29	31	28	27	100	30
1593970405597784245	1	345	1881	1881	345	345	345	114750000	performance	1866	31	31	29	31	28	27	100	30
1593970405758152725 	0	345	1881	1881	345	345	345	114750000	performance	1866	31	31	29	31	28	27	100	30
1593970407458724866	1	345	1881	1881	345	345	345	114750000	performance	1866	31	31	29	31	28	27	100	30
1593970407618769056 	0	345	1880	1879	345	345	345	114750000	performance	1866	31	31	29	31	28	27	100	30
1593970409317730179	1	345	1881	1881	345	345	345	114750000	performance	1866	31	31	29	31	28	27	100	30
1593970409477344671 	0	345	1879	1880	345	345	345	114750000	performance	1866	31	31	29	31	28	27	100	30
1593970411175607454	1	345	1881	1881	345	345	345	114750000	performance	1866	31	31	29	31	28	27	100	30
1593970411336902531 	0	345	1880	1879	345	345	345	114750000	performance	1866	31	31	29	31	28	27	100	30
1593970413042430541	1	345	1881	1881	345	345	345	114750000	performance	1866	31	31	29	31	28	27	100	30
1593970413201017859 	0	345	1881	1881	345	345	345	114750000	performance	1866	31	31	29	31	28	27	100	30
1593970414900295464	1	345	1881	1881	345	345	345	114750000	performance	1866	31	31	29	31	28	27	100	30
1593970415061363052 	0	345	1840	1879	345	345	345	114750000	performance	1866	31	31	29	31	28	27	100	30
1593970416758707686	1	345	1881	1881	345	345	345	114750000	performance	1866	31	31	29	31	28	27	100	30
1593970416920409806 	0	345	1880	1844	345	345	345	114750000	performance	1866	31	31	29	31	28	27	100	30
1593970418619226833	1	345	1881	1881	345	345	345	114750000	performance	1866	31	31	29	31	28	27	100	30
1593970418779981042 	0	345	1881	1843	345	345	345	114750000	performance	1866	31	31	29	31	28	27	100	30
1593970420478870646	1	345	1881	1881	345	345	345	114750000	performance	1866	31	31	29	31	28	27	100	30
1593970420757154399 	0	345	1881	1881	345	345	345	114750000	performance	1866	31	31	29	31	28	27	100	30
1593970422543031034	1	345	1881	1881	345	345	345	114750000	performance	1866	31	31	29	31	28	27	100	30
1593970422862429426 	0	345	1881	1881	345	345	345	114750000	performance	1866	31	31	29	31	28	27	100	30
1593970424738919416	1	345	1881	1881	345	345	345	114750000	performance	1866	31	31	29	31	28	27	100	30
1593970424899252984 	0	345	1881	1882	345	345	345	114750000	performance	1866	31	31	29	31	28	27	100	30
1593970426599911941	1	345	1881	1881	345	345	345	114750000	performance	1866	31	31	29	31	28	27	100	30
1593970426758227193 	0	345	1879	1878	345	345	345	114750000	performance	1866	31	31	29	31	28	27	100	30
1593970428460353807	1	345	1881	1881	345	345	345	114750000	performance	1866	31	31	29	31	28	27	100	30
1593970428620348173 	0	345	1881	1882	345	345	345	114750000	performance	1866	31	31	29	31	28	27	100	30
1593970430324910609	1	345	1881	1881	345	345	345	114750000	performance	1866	31	31	29	31	28	27	100	30
1593970430496491025 	0	345	1881	1843	345	345	345	114750000	performance	1866	31	31	29	31	28	27	100	30
1593970432199163978	1	345	1881	1881	345	345	345	114750000	performance	1866	31	31	29	31	28	27	100	30
1593970432358633029 	0	345	1881	1880	345	345	345	114750000	performance	1866	31	31	29	31	28	27	100	30
1593970434060589818	1	345	1881	1881	345	345	345	114750000	performance	1866	31	31	29	31	28	27	100	30
1593970434220842329 	0	345	1880	1842	345	345	345	114750000	performance	1866	31	31	29	31	28	27	100	30
1593970435920008126	1	345	1881	1881	345	345	345	114750000	performance	1866	31	31	29	31	28	27	100	30
1593970436080919553 	0	345	1882	1881	345	345	345	114750000	performance	1866	31	31	29	31	28	27	100	30
1593970437778363452	1	345	1881	1881	345	345	345	114750000	performance	1866	31	31	29	31	28	27	100	30
1593970437939525024 	0	345	1882	1881	345	345	345	114750000	performance	1866	31	31	29	31	28	27	100	30
1593970439636820442	1	345	1881	1881	345	345	345	114750000	performance	1866	31	31	29	31	28	27	100	30
1593970439795135022 	0	345	1879	1879	345	345	345	114750000	performance	1866	31	31	29	31	28	27	100	30
1593970441494273875	1	345	1881	1881	345	345	345	114750000	performance	1866	31	31	29	31	28	27	100	30
1593970441653589356 	0	345	1840	1881	345	345	345	114750000	performance	1866	31	31	29	31	28	27	100	30
1593970443351054695	1	345	1881	1881	345	345	345	114750000	performance	1866	32	31	29	31	28	27	100	31
1593970443559263804 	0	345	1839	1881	345	345	345	114750000	performance	1866	31	31	29	31	28	27	100	30
1593970445293762637	1	345	1881	1881	345	345	345	114750000	performance	1866	31	31	29	31	28	27	100	30
1593970445663766217 	0	345	1840	1881	345	345	345	114750000	performance	1866	31	31	29	31	28	27	100	30
1593970447582451972	1	345	1881	1881	345	345	345	114750000	performance	1866	31	31	29	31	28	27	100	30
1593970447742522082 	0	345	1882	1879	345	345	345	114750000	performance	1866	31	31	29	31	28	27	100	30
1593970449472591738	1	345	1881	1881	345	345	345	114750000	performance	1866	31	31	29	31	28	27	100	30
1593970449631917971 	0	345	1842	1881	345	345	345	114750000	performance	1866	31	31	29	31	28	27	100	30
1593970451330587413	1	345	1881	1881	345	345	345	114750000	performance	1866	31	31	29	31	28	27	100	30
1593970451490536498 	0	345	1881	1880	345	345	345	114750000	performance	1866	31	31	29	31	28	27	100	30
1593970453189531990	1	345	1881	1881	345	345	345	114750000	performance	1866	31	31	29	31	28	27	100	30
1593970453349132626 	0	345	1880	1843	345	345	345	114750000	performance	1866	31	31	29	31	28	27	100	30
1593970455050030177	1	345	1881	1881	345	345	345	114750000	performance	1866	31	31	29	31	28	27	100	30
1593970455209355546 	0	345	1881	1882	345	345	345	114750000	performance	1866	31	31	29	31	28	27	100	30
1593970456908569503	1	345	1881	1881	345	345	345	114750000	performance	1866	31	31	29	31	28	27	100	30
1593970457070291719 	0	345	1881	1840	345	345	345	114750000	performance	1866	31	31	29	31	28	27	100	30
1593970458767730370	1	345	1881	1881	345	345	345	114750000	performance	1866	31	31	29	31	28	27	100	30
1593970458926075990 	0	345	1838	1882	345	345	345	114750000	performance	1866	31	31	29	31	28	27	100	30
