TimeStamp,Total Power,CPU Power,GPU Power
1592831281079391,3.315,0.991,0.152
1592831281581728,4.076,1.676,0.152
1592831282084668,4.342,1.905,0.152
1592831282587124,4.419,1.981,0.152
1592831283089825,4.457,2.058,0.152
1592831283592496,4.457,2.057,0.152
1592831284094992,4.457,2.058,0.152
1592831284597757,4.457,2.058,0.152
1592831285100275,4.457,2.058,0.152
1592831285605305,4.457,2.058,0.152
1592831286107778,4.457,2.057,0.152
1592831286610250,4.495,2.057,0.152
1592831287112764,4.495,2.057,0.152
1592831287615210,4.495,2.057,0.152
1592831288118432,4.457,2.058,0.152
1592831288620976,4.457,2.058,0.152
1592831289123507,4.457,2.058,0.152
1592831289626053,4.457,2.057,0.152
1592831290128549,4.457,2.057,0.152
1592831290635167,4.457,2.058,0.152
1592831291137804,4.457,2.058,0.152
1592831291640196,4.571,2.057,0.152
1592831292142663,4.495,2.058,0.152
1592831292645191,4.495,2.058,0.152
1592831293147505,4.457,2.058,0.152
1592831293650018,4.457,2.057,0.152
1592831294152544,4.495,2.058,0.152
1592831294654923,4.495,2.058,0.152
1592831295157377,4.457,2.057,0.152
1592831295661844,4.609,2.057,0.152
1592831296164198,4.533,2.057,0.152
1592831296666887,4.495,2.058,0.152
1592831297169332,4.495,2.057,0.152
1592831297671695,4.571,2.057,0.152
1592831298174093,4.647,2.057,0.152
1592831298676607,4.533,2.057,0.152
1592831299178928,4.495,2.058,0.152
1592831299681427,4.533,2.057,0.152
1592831300183835,4.647,2.057,0.152
1592831300688088,4.533,2.058,0.152
1592831301190769,4.495,2.058,0.152
1592831301693409,4.457,2.058,0.152
1592831302195743,4.571,2.057,0.152
1592831302697556,4.533,2.057,0.152
1592831303198719,4.495,2.058,0.152
1592831303699878,4.457,2.058,0.152
1592831304201160,4.495,2.057,0.152
1592831304702323,4.495,2.058,0.152
1592831305203493,4.457,2.058,0.152
1592831305706534,4.457,2.058,0.152
1592831306207688,4.457,2.058,0.152
1592831306708930,4.495,2.058,0.152
1592831307210083,4.457,2.058,0.152
1592831307711231,4.495,2.057,0.152
1592831308212382,4.495,2.058,0.152
1592831308713527,4.495,2.057,0.152
1592831309214674,4.457,2.058,0.152
1592831309715818,4.457,2.058,0.152
1592831310216968,4.457,2.058,0.152
1592831310721237,4.457,2.058,0.152
1592831311223630,4.457,2.058,0.152
1592831311727138,4.495,2.058,0.152
1592831312229612,4.495,2.058,0.152
1592831312732052,4.495,2.058,0.152
1592831313234561,4.457,2.058,0.152
1592831313737078,4.457,2.057,0.152
1592831314239453,4.457,2.058,0.152
1592831314742013,4.495,2.057,0.152
1592831315244701,4.495,2.057,0.152
1592831315749039,4.495,2.058,0.152
1592831316251446,4.495,2.058,0.152
1592831316753990,4.495,2.058,0.152
1592831317256491,4.457,2.058,0.152
1592831317759038,4.457,2.058,0.152
1592831318261471,4.457,2.058,0.152
1592831318763834,4.495,2.057,0.152
1592831319267006,4.495,2.058,0.152
1592831319769362,4.457,2.058,0.152
1592831320271832,4.495,2.057,0.152
1592831320775903,4.457,2.057,0.152
1592831321277723,4.457,2.058,0.152
1592831321778899,4.571,2.057,0.152
1592831322280056,4.495,2.058,0.152
1592831322781222,4.495,2.057,0.152
1592831323282383,4.457,2.058,0.152
1592831323783534,4.457,2.058,0.152
1592831324284690,4.457,2.058,0.152
1592831324785859,4.457,2.057,0.152
1592831325287013,4.495,2.058,0.152
1592831325791269,4.495,2.057,0.152
1592831326292443,4.495,2.058,0.152
1592831326793607,4.495,2.058,0.152
1592831327294756,4.495,2.058,0.152
1592831327795903,4.457,2.057,0.152
1592831328297049,4.495,2.058,0.152
1592831328798197,4.495,2.057,0.152
1592831329299353,4.495,2.058,0.152
1592831329800508,4.495,2.058,0.152
1592831330301664,4.495,2.057,0.152
1592831330804689,4.495,2.058,0.152
1592831331305839,4.457,2.058,0.152
1592831331806994,4.495,2.058,0.152
1592831332308149,4.495,2.058,0.152
1592831332809308,4.495,2.058,0.152
1592831333310444,4.495,2.058,0.152
1592831333811584,4.457,2.058,0.152
1592831334312737,4.457,2.058,0.152
1592831334813904,4.457,2.058,0.152
1592831335315076,4.457,2.058,0.152
1592831335818109,4.457,2.057,0.152
1592831336319271,4.723,2.057,0.152
1592831336820426,4.647,2.057,0.152
1592831337321585,4.571,2.057,0.152
1592831337822736,4.609,2.057,0.152
1592831338323883,4.533,2.057,0.152
1592831338825023,4.495,2.057,0.152
1592831339326171,4.609,2.057,0.152
1592831339827319,4.495,2.057,0.152
1592831340328489,4.495,2.058,0.152
1592831340831618,4.495,2.058,0.152
