TimeStamp,Total Power,CPU Power,GPU Power
1594008433420134,2.096,0.838,0.152
1594008433921612,1.639,0.533,0.152
1594008434423002,1.525,0.381,0.152
1594008434924436,1.448,0.305,0.152
1594008435425954,1.715,0.533,0.152
1594008435927557,1.943,0.762,0.152
1594008436429032,2.019,0.838,0.152
1594008436930496,2.058,0.838,0.152
1594008437431953,2.058,0.838,0.152
1594008437933387,2.058,0.838,0.152
1594008438434929,2.058,0.838,0.152
1594008438936484,2.058,0.838,0.152
1594008439438036,2.058,0.838,0.152
1594008439939563,2.096,0.838,0.152
1594008440441117,2.096,0.838,0.152
1594008440942613,2.058,0.838,0.152
1594008441444128,2.096,0.838,0.152
1594008441946221,2.058,0.838,0.152
1594008442447747,2.058,0.838,0.152
1594008442949244,2.058,0.838,0.152
1594008443450698,2.058,0.838,0.152
1594008443952210,2.058,0.838,0.152
1594008444453752,2.096,0.838,0.152
1594008444955261,2.096,0.838,0.152
1594008445456812,2.058,0.838,0.152
1594008445958313,2.058,0.838,0.152
1594008446459835,2.058,0.838,0.152
1594008446961297,2.058,0.838,0.152
1594008447462772,2.058,0.838,0.152
1594008447964253,2.096,0.838,0.152
1594008448465806,2.058,0.838,0.152
1594008448967275,2.058,0.838,0.152
1594008449468758,2.096,0.838,0.152
1594008449970241,2.096,0.915,0.152
1594008450471775,2.096,0.838,0.152
1594008450973243,2.058,0.838,0.152
1594008451474743,2.096,0.838,0.152
1594008451976279,2.096,0.838,0.152
1594008452477781,2.096,0.838,0.152
1594008452979269,2.096,0.838,0.152
1594008453480797,2.096,0.838,0.152
1594008453982278,2.058,0.838,0.152
1594008454483793,2.096,0.838,0.152
1594008454985284,2.096,0.838,0.152
1594008455486797,2.058,0.838,0.152
1594008455988344,2.096,0.838,0.152
1594008456489828,2.096,0.838,0.152
1594008456991396,2.058,0.838,0.152
1594008457492849,2.096,0.915,0.152
1594008457994360,2.058,0.838,0.152
1594008458495831,2.096,0.838,0.152
1594008458997343,2.096,0.838,0.152
1594008459498825,2.096,0.838,0.152
1594008460000385,2.058,0.838,0.152
1594008460501834,2.058,0.838,0.152
1594008461003288,2.096,0.838,0.152
1594008461504858,2.058,0.838,0.152
1594008462006322,2.058,0.838,0.152
1594008462507848,2.096,0.838,0.152
1594008463009343,2.096,0.838,0.152
1594008463510789,2.058,0.838,0.152
1594008464012331,2.096,0.915,0.152
1594008464513782,2.096,0.838,0.152
1594008465017707,2.096,0.838,0.152
1594008465519257,2.096,0.838,0.152
1594008466020752,2.058,0.838,0.152
1594008466522261,2.058,0.838,0.152
1594008467023785,2.096,0.838,0.152
1594008467525264,2.096,0.838,0.152
1594008468026755,2.058,0.838,0.152
1594008468528278,2.058,0.838,0.152
1594008469029783,2.058,0.838,0.152
1594008469531290,2.058,0.838,0.152
1594008470035196,2.058,0.838,0.152
1594008470536757,2.058,0.838,0.152
1594008471038265,2.058,0.838,0.152
1594008471547712,2.019,0.838,0.152
1594008472049179,2.058,0.838,0.152
1594008472550657,2.096,0.838,0.152
1594008473052215,2.058,0.838,0.152
1594008473553679,2.096,0.838,0.152
1594008474055155,2.058,0.838,0.152
1594008474556605,2.058,0.838,0.152
1594008475058312,2.096,0.838,0.152
1594008475559827,2.096,0.838,0.152
1594008476064401,2.058,0.838,0.152
1594008476565946,2.058,0.838,0.152
1594008477067458,2.096,0.838,0.152
1594008477568916,2.096,0.838,0.152
1594008478070413,2.096,0.915,0.152
1594008478571907,2.096,0.838,0.152
1594008479073474,2.058,0.838,0.152
1594008479574978,2.096,0.838,0.152
1594008480078612,2.096,0.838,0.152
1594008480580182,2.096,0.915,0.152
1594008481081656,2.058,0.838,0.152
1594008481583334,2.096,0.838,0.152
1594008482084798,2.21,0.838,0.152
1594008482586273,2.401,0.838,0.152
1594008483087831,2.477,0.838,0.152
1594008483589314,2.477,0.838,0.152
1594008484090800,2.248,0.838,0.152
1594008484592334,2.134,0.838,0.152
1594008485093880,2.096,0.838,0.152
1594008485595375,2.096,0.838,0.152
1594008486096837,2.058,0.838,0.152
1594008486598408,2.096,0.838,0.152
1594008487099881,2.096,0.838,0.152
1594008487601321,2.058,0.838,0.152
1594008488102831,2.096,0.838,0.152
1594008488604343,2.058,0.838,0.152
1594008489105919,2.058,0.838,0.152
1594008489607386,2.096,0.838,0.152
1594008490108859,2.096,0.838,0.152
1594008490610304,2.058,0.838,0.152
1594008491111800,2.096,0.838,0.152
1594008491613412,2.058,0.838,0.152
1594008492114889,2.096,0.838,0.152
1594008492616464,2.096,0.838,0.152
1594008493117973,2.096,0.838,0.152
1594008493619486,2.058,0.838,0.152
1594008494121004,2.058,0.838,0.152
1594008494622511,2.058,0.838,0.152
1594008495124014,2.096,0.838,0.152
1594008495628048,2.096,0.838,0.152
1594008496129506,2.096,0.838,0.152
1594008496631002,2.058,0.838,0.152
1594008497132592,2.058,0.838,0.152
1594008497634047,2.096,0.838,0.152
1594008498139757,2.058,0.838,0.152
1594008498641242,2.096,0.915,0.152
1594008499142671,2.096,0.838,0.152
1594008499644164,2.058,0.838,0.152
1594008500146013,2.096,0.838,0.152
1594008500649260,2.096,0.838,0.152
1594008501150718,2.096,0.915,0.152
1594008501652247,2.096,0.838,0.152
1594008502153798,2.096,0.838,0.152
1594008502655268,2.096,0.838,0.152
1594008503156744,2.058,0.838,0.152
1594008503658296,2.096,0.838,0.152
1594008504159898,2.058,0.838,0.152
1594008504661364,2.058,0.838,0.152
1594008505162844,2.058,0.838,0.152
1594008505666525,2.096,0.838,0.152
1594008506168235,2.096,0.838,0.152
1594008506669757,2.096,0.838,0.152
1594008507171331,2.096,0.838,0.152
1594008507672785,2.058,0.838,0.152
1594008508174270,2.058,0.838,0.152
1594008508675795,2.134,0.838,0.152
1594008509177250,2.096,0.838,0.152
1594008509678737,2.058,0.838,0.152
1594008510180350,2.058,0.838,0.152
1594008510684318,2.096,0.838,0.152
1594008511185825,2.096,0.838,0.152
1594008511687355,2.058,0.915,0.152
1594008512188888,2.058,0.838,0.152
1594008512690467,2.096,0.838,0.152
1594008513191951,2.058,0.838,0.152
1594008513693446,2.096,0.838,0.152
1594008514194943,2.058,0.838,0.152
1594008514696682,2.096,0.915,0.152
1594008515198203,2.096,0.838,0.152
1594008515701830,2.058,0.838,0.152
1594008516203390,2.058,0.838,0.152
1594008516704887,2.096,0.838,0.152
1594008517206374,2.096,0.915,0.152
1594008517707863,2.096,0.838,0.152
1594008518212631,2.058,0.838,0.152
1594008518714086,2.096,0.838,0.152
1594008519215673,2.058,0.838,0.152
1594008519717159,2.058,0.838,0.152
1594008520218705,2.096,0.838,0.152
1594008520722419,2.058,0.838,0.152
1594008521223892,2.058,0.838,0.152
1594008521725468,2.096,0.838,0.152
1594008522227016,2.096,0.838,0.152
1594008522728507,2.058,0.838,0.152
1594008523230022,2.096,0.838,0.152
1594008523731555,2.096,0.838,0.152
1594008524233061,2.096,0.838,0.152
1594008524734565,2.096,0.838,0.152
1594008525236048,2.058,0.838,0.152
1594008525739888,2.096,0.838,0.152
1594008526241432,2.058,0.838,0.152
1594008526742959,2.058,0.838,0.152
1594008527244558,2.058,0.838,0.152
1594008527746051,2.058,0.838,0.152
1594008528247659,2.096,0.838,0.152
1594008528749126,2.058,0.838,0.152
1594008529250603,2.058,0.838,0.152
1594008529752225,2.096,0.838,0.152
1594008530253713,2.058,0.838,0.152
1594008530757466,2.096,0.838,0.152
1594008531258930,2.096,0.838,0.152
1594008531760787,2.058,0.838,0.152
1594008532262244,2.058,0.838,0.152
1594008532763746,2.096,0.838,0.152
1594008533265361,2.096,0.838,0.152
1594008533766830,2.096,0.838,0.152
1594008534268364,2.096,0.838,0.152
1594008534769819,2.096,0.838,0.152
1594008535271416,2.058,0.838,0.152
1594008535775139,2.058,0.838,0.152
1594008536276718,2.096,0.838,0.152
1594008536778217,2.058,0.838,0.152
1594008537279760,2.058,0.838,0.152
1594008537781270,2.058,0.838,0.152
1594008538288799,2.058,0.838,0.152
1594008538790298,2.058,0.838,0.152
1594008539291859,2.096,0.838,0.152
1594008539793369,2.058,0.838,0.152
1594008540294821,2.058,0.838,0.152
1594008540796422,2.096,0.838,0.152
1594008541297870,2.096,0.838,0.152
1594008541799473,2.058,0.838,0.152
1594008542301051,2.058,0.838,0.152
1594008542802523,2.058,0.838,0.152
1594008543304058,2.058,0.838,0.152
1594008543805612,2.058,0.838,0.152
1594008544307191,2.058,0.838,0.152
1594008544808736,2.058,0.838,0.152
1594008545310216,2.286,0.838,0.152
1594008545811749,2.477,0.838,0.152
1594008546313191,2.477,0.838,0.152
1594008546814679,2.362,0.838,0.152
1594008547316221,2.172,0.838,0.152
1594008547817687,2.096,0.838,0.152
1594008548319162,2.096,0.838,0.152
1594008548820666,2.096,0.838,0.152
1594008549322170,2.096,0.838,0.152
1594008549823692,2.058,0.838,0.152
1594008550325417,2.096,0.838,0.152
1594008550826914,2.096,0.838,0.152
1594008551328487,2.096,0.838,0.152
1594008551829983,2.058,0.838,0.152
1594008552331477,2.096,0.838,0.152
1594008552833105,2.058,0.838,0.152
1594008553334595,2.058,0.838,0.152
1594008553836120,2.096,0.838,0.152
1594008554337621,2.058,0.838,0.152
1594008554839126,2.058,0.838,0.152
1594008555340604,2.096,0.838,0.152
1594008555842052,2.096,0.838,0.152
1594008556345960,2.096,0.838,0.152
1594008556847417,2.096,0.915,0.152
1594008557348881,2.096,0.838,0.152
1594008557850364,2.096,0.838,0.152
1594008558351861,2.096,0.838,0.152
1594008558853314,2.096,0.838,0.152
1594008559354781,2.058,0.838,0.152
1594008559856304,2.096,0.915,0.152
1594008560357781,2.096,0.838,0.152
1594008560859231,2.058,0.838,0.152
1594008561363094,2.058,0.838,0.152
1594008561864567,2.058,0.838,0.152
1594008562366028,2.058,0.838,0.152
1594008562867567,2.058,0.838,0.152
1594008563369081,2.096,0.838,0.152
1594008563870580,2.058,0.838,0.152
1594008564372251,2.058,0.838,0.152
1594008564873692,2.096,0.838,0.152
1594008565375197,2.058,0.838,0.152
1594008565876758,2.058,0.838,0.152
1594008566380450,2.096,0.838,0.152
1594008566882017,2.096,0.838,0.152
1594008567383564,2.058,0.838,0.152
1594008567885120,2.096,0.838,0.152
1594008568386617,2.096,0.838,0.152
1594008568888164,2.058,0.838,0.152
1594008569389655,2.096,0.838,0.152
1594008569891200,2.096,0.915,0.152
1594008570392717,2.096,0.838,0.152
1594008570894331,2.096,0.838,0.152
1594008571398266,2.096,0.838,0.152
1594008571899757,2.058,0.838,0.152
1594008572402897,2.058,0.838,0.152
1594008572904397,2.096,0.838,0.152
1594008573406008,2.058,0.838,0.152
1594008573907470,2.096,0.838,0.152
1594008574409021,2.096,0.838,0.152
1594008574910500,2.058,0.838,0.152
1594008575411956,2.058,0.838,0.152
1594008575913471,2.096,0.838,0.152
1594008576417152,2.096,0.915,0.152
1594008576918660,2.096,0.838,0.152
1594008577420303,2.058,0.838,0.152
1594008577921801,2.096,0.915,0.152
1594008578423254,2.096,0.838,0.152
1594008578924836,2.096,0.838,0.152
1594008579426303,2.096,0.838,0.152
1594008579927801,2.058,0.838,0.152
1594008580429316,2.058,0.838,0.152
1594008580930800,2.096,0.838,0.152
1594008581434646,2.058,0.838,0.152
1594008581936229,2.058,0.838,0.152
1594008582437678,2.096,0.838,0.152
1594008582939178,2.096,0.838,0.152
1594008583440708,2.058,0.838,0.152
1594008583942220,2.058,0.838,0.152
1594008584443785,2.096,0.838,0.152
1594008584945278,2.096,0.838,0.152
1594008585446748,2.058,0.838,0.152
1594008585948218,2.096,0.915,0.152
1594008586449840,2.096,0.838,0.152
1594008586951334,2.058,0.838,0.152
1594008587452827,2.096,0.838,0.152
1594008587954270,2.058,0.838,0.152
1594008588455772,2.058,0.838,0.152
1594008588957431,2.096,0.838,0.152
1594008589458920,2.058,0.838,0.152
1594008589960437,2.058,0.838,0.152
1594008590461889,2.096,0.838,0.152
1594008590963375,2.058,0.838,0.152
1594008591464835,2.096,0.838,0.152
1594008591966332,2.096,0.915,0.152
1594008592467862,2.096,0.838,0.152
1594008592969300,2.058,0.838,0.152
1594008593470760,2.058,0.838,0.152
1594008593972283,2.096,0.838,0.152
1594008594473805,2.096,0.915,0.152
1594008594979826,2.058,0.838,0.152
1594008595481406,2.096,0.838,0.152
1594008595982883,2.096,0.838,0.152
1594008596484405,2.096,0.838,0.152
1594008596985882,2.096,0.838,0.152
1594008597487400,2.058,0.838,0.152
1594008597988944,2.058,0.838,0.152
1594008598490399,2.096,0.915,0.152
1594008598991977,2.096,0.838,0.152
1594008599493536,2.058,0.838,0.152
1594008599995066,2.096,0.838,0.152
1594008600496538,2.096,0.838,0.152
1594008600998026,2.096,0.915,0.152
1594008601499488,2.058,0.838,0.152
1594008602003149,2.096,0.838,0.152
1594008602504633,2.096,0.915,0.152
1594008603006111,2.058,0.838,0.152
1594008603507769,2.096,0.915,0.152
1594008604009219,2.058,0.838,0.152
1594008604510658,2.096,0.838,0.152
1594008605012177,2.096,0.838,0.152
1594008605513658,2.058,0.838,0.152
1594008606015164,2.058,0.838,0.152
1594008606516723,2.096,0.838,0.152
1594008607020473,2.096,0.838,0.152
1594008607521984,2.096,0.915,0.152
1594008608023483,2.134,0.838,0.152
1594008608525002,2.401,0.838,0.152
1594008609026544,2.477,0.838,0.152
1594008609528032,2.477,0.838,0.152
1594008610029575,2.248,0.838,0.152
1594008610531021,2.134,0.838,0.152
1594008611037703,2.058,0.838,0.152
1594008611539220,2.096,0.838,0.152
1594008612042943,2.096,0.838,0.152
1594008612544474,2.096,0.915,0.152
1594008613045963,2.096,0.838,0.152
1594008613547589,2.096,0.838,0.152
1594008614049078,2.058,0.838,0.152
1594008614550526,2.096,0.838,0.152
1594008615057814,2.096,0.838,0.152
1594008615559359,2.058,0.838,0.152
1594008616060933,2.096,0.838,0.152
1594008616562427,2.096,0.838,0.152
1594008617066045,2.058,0.838,0.152
1594008617567561,2.058,0.838,0.152
1594008618069044,2.058,0.838,0.152
1594008618570507,2.058,0.838,0.152
1594008619072008,2.058,0.838,0.152
1594008619573471,2.096,0.838,0.152
1594008620074937,2.058,0.838,0.152
1594008620576450,2.096,0.838,0.152
1594008621077936,2.096,0.838,0.152
1594008621579439,2.058,0.838,0.152
1594008622083103,2.058,0.838,0.152
1594008622584619,2.096,0.838,0.152
1594008623087430,2.096,0.838,0.152
1594008623588906,2.096,0.838,0.152
1594008624093672,2.096,0.838,0.152
1594008624595140,2.096,0.838,0.152
1594008625096681,2.058,0.838,0.152
1594008625598167,2.058,0.838,0.152
1594008626099647,2.058,0.838,0.152
1594008626603763,2.058,0.838,0.152
1594008627105252,2.096,0.838,0.152
1594008627606727,2.096,0.838,0.152
1594008628108301,2.096,0.838,0.152
1594008628609793,2.096,0.838,0.152
1594008629111441,2.096,0.838,0.152
1594008629612953,2.096,0.838,0.152
1594008630114471,2.058,0.838,0.152
1594008630615942,2.096,0.915,0.152
1594008631122003,2.058,0.838,0.152
1594008631623553,2.058,0.838,0.152
1594008632127465,2.096,0.838,0.152
1594008632628910,2.096,0.838,0.152
1594008633130441,2.058,0.838,0.152
1594008633631987,2.096,0.838,0.152
1594008634133529,2.096,0.838,0.152
1594008634635019,2.096,0.838,0.152
1594008635136508,2.058,0.838,0.152
1594008635638055,2.096,0.838,0.152
1594008636139582,2.058,0.838,0.152
1594008636641067,2.058,0.838,0.152
1594008637145140,2.096,0.838,0.152
1594008637646649,2.096,0.915,0.152
1594008638148179,2.096,0.838,0.152
1594008638649671,2.096,0.915,0.152
1594008639151156,2.096,0.838,0.152
1594008639652743,2.058,0.838,0.152
1594008640154246,2.096,0.915,0.152
1594008640655752,2.096,0.838,0.152
1594008641157243,2.058,0.838,0.152
1594008641658760,2.058,0.838,0.152
1594008642162657,2.096,0.838,0.152
1594008642664148,2.058,0.838,0.152
1594008643165620,2.096,0.838,0.152
1594008643667256,2.096,0.838,0.152
1594008644168836,2.058,0.838,0.152
1594008644670348,2.096,0.838,0.152
1594008645171862,2.096,0.915,0.152
1594008645673351,2.096,0.838,0.152
1594008646174966,2.058,0.838,0.152
1594008646680438,2.096,0.838,0.152
1594008647184190,2.096,0.838,0.152
1594008647685698,2.096,0.838,0.152
1594008648187207,2.096,0.838,0.152
1594008648688783,2.058,0.838,0.152
1594008649190272,2.058,0.838,0.152
1594008649691850,2.058,0.838,0.152
1594008650193410,2.058,0.838,0.152
1594008650694941,2.058,0.838,0.152
1594008651196424,2.058,0.838,0.152
1594008651697910,2.096,0.838,0.152
1594008652201588,2.058,0.838,0.152
1594008652703103,2.096,0.838,0.152
1594008653204619,2.096,0.838,0.152
1594008653706137,2.058,0.838,0.152
1594008654207675,2.058,0.838,0.152
1594008654709198,2.096,0.838,0.152
1594008655210846,2.096,0.838,0.152
1594008655712442,2.058,0.838,0.152
1594008656213968,2.096,0.838,0.152
1594008656715449,2.096,0.838,0.152
1594008657219276,2.058,0.838,0.152
1594008657720843,2.096,0.838,0.152
1594008658222317,2.096,0.838,0.152
1594008658723793,2.096,0.838,0.152
1594008659225251,2.058,0.838,0.152
1594008659726757,2.096,0.838,0.152
1594008660228246,2.096,0.838,0.152
1594008660729790,2.096,0.838,0.152
1594008661231341,2.096,0.838,0.152
1594008661732802,2.058,0.838,0.152
1594008662234975,2.096,0.838,0.152
1594008662736453,2.058,0.838,0.152
1594008663237979,2.058,0.838,0.152
1594008663739472,2.058,0.838,0.152
1594008664241029,2.096,0.838,0.152
1594008664742550,2.096,0.838,0.152
1594008665244095,2.058,0.838,0.152
1594008665745649,2.096,0.838,0.152
1594008666247126,2.096,0.838,0.152
1594008666748553,2.058,0.838,0.152
1594008667250030,2.096,0.838,0.152
1594008667751573,2.096,0.838,0.152
1594008668253049,2.096,0.915,0.152
1594008668754530,2.058,0.838,0.152
1594008669256137,2.096,0.838,0.152
1594008669757637,2.058,0.838,0.152
1594008670259179,2.096,0.838,0.152
1594008670760857,2.096,0.915,0.152
1594008671262390,2.324,0.838,0.152
1594008671764136,2.439,0.838,0.152
1594008672265662,2.515,0.838,0.152
1594008672767287,2.439,0.838,0.152
1594008673268850,2.172,0.838,0.152
1594008673770331,2.134,0.838,0.152
1594008674271802,2.096,0.838,0.152
1594008674773337,2.058,0.838,0.152
1594008675274884,2.096,0.838,0.152
1594008675776421,2.096,0.838,0.152
1594008676277958,2.096,0.838,0.152
1594008676779591,2.096,0.838,0.152
1594008677281087,2.096,0.838,0.152
1594008677782561,2.096,0.838,0.152
1594008678284033,2.058,0.838,0.152
1594008678785511,2.096,0.838,0.152
1594008679287046,2.096,0.838,0.152
1594008679788579,2.096,0.838,0.152
1594008680293421,2.096,0.838,0.152
1594008680794897,2.058,0.838,0.152
1594008681296427,2.058,0.838,0.152
1594008681797902,2.096,0.838,0.152
1594008682299646,2.096,0.915,0.152
1594008682801141,2.096,0.915,0.152
1594008683305554,2.096,0.838,0.152
1594008683807050,2.096,0.838,0.152
1594008684308567,2.096,0.838,0.152
1594008684810033,2.096,0.838,0.152
1594008685311547,2.058,0.838,0.152
1594008685813009,2.058,0.838,0.152
1594008686314497,2.058,0.838,0.152
1594008686816017,2.096,0.838,0.152
1594008687317521,2.058,0.838,0.152
1594008687819009,2.058,0.838,0.152
1594008688322755,2.096,0.838,0.152
1594008688824278,2.058,0.838,0.152
1594008689325789,2.058,0.838,0.152
1594008689827352,2.096,0.838,0.152
1594008690328858,2.096,0.838,0.152
1594008690830329,2.096,0.838,0.152
1594008691331841,2.058,0.838,0.152
1594008691833308,2.096,0.838,0.152
1594008692334785,2.096,0.838,0.152
1594008692836312,2.058,0.838,0.152
1594008693340036,2.096,0.838,0.152
1594008693841666,2.058,0.838,0.152
1594008694343162,2.058,0.838,0.152
1594008694844671,2.096,0.838,0.152
1594008695346173,2.096,0.915,0.152
1594008695847739,2.096,0.838,0.152
1594008696349393,2.096,0.915,0.152
1594008696850867,2.096,0.838,0.152
1594008697352347,2.058,0.838,0.152
1594008697853817,2.096,0.838,0.152
1594008698357570,2.058,0.838,0.152
1594008698859142,2.058,0.838,0.152
1594008699360611,2.096,0.838,0.152
1594008699862093,2.096,0.838,0.152
1594008700363685,2.058,0.838,0.152
1594008700875640,2.096,0.838,0.152
1594008701377204,2.058,0.838,0.152
1594008701878707,2.096,0.838,0.152
1594008702380189,2.058,0.838,0.152
1594008702881776,2.096,0.838,0.152
1594008703385607,2.096,0.915,0.152
1594008703887038,2.058,0.838,0.152
1594008704388555,2.096,0.838,0.152
1594008704890053,2.058,0.838,0.152
1594008705391654,2.058,0.838,0.152
1594008705893157,2.096,0.915,0.152
1594008706394630,2.096,0.838,0.152
1594008706896184,2.058,0.838,0.152
1594008707397699,2.096,0.838,0.152
1594008707899159,2.096,0.838,0.152
1594008708402926,2.058,0.838,0.152
1594008708904436,2.058,0.838,0.152
1594008709406019,2.058,0.838,0.152
1594008709907557,2.096,0.838,0.152
1594008710409065,2.058,0.838,0.152
1594008710910542,2.096,0.838,0.152
1594008711412053,2.058,0.838,0.152
1594008711913653,2.096,0.838,0.152
1594008712415181,2.096,0.838,0.152
1594008712916655,2.058,0.838,0.152
1594008713420559,2.096,0.838,0.152
1594008713922055,2.096,0.838,0.152
1594008714423685,2.096,0.838,0.152
1594008714925150,2.058,0.838,0.152
1594008715426610,2.096,0.838,0.152
1594008715928112,2.058,0.838,0.152
1594008716429576,2.058,0.838,0.152
1594008716931115,2.058,0.838,0.152
1594008717432734,2.096,0.915,0.152
1594008717934225,2.058,0.838,0.152
1594008718437956,2.096,0.838,0.152
1594008718939490,2.096,0.838,0.152
1594008719441010,2.058,0.838,0.152
1594008719942493,2.058,0.838,0.152
1594008720444005,2.096,0.838,0.152
1594008720945576,2.096,0.838,0.152
1594008721447046,2.096,0.838,0.152
1594008721948484,2.096,0.838,0.152
1594008722449950,2.096,0.838,0.152
1594008722951467,2.058,0.838,0.152
1594008723452981,2.096,0.838,0.152
1594008723954456,2.058,0.838,0.152
1594008724456001,2.058,0.838,0.152
1594008724957471,2.058,0.838,0.152
1594008725458947,2.058,0.838,0.152
1594008725960453,2.096,0.838,0.152
1594008726461993,2.058,0.838,0.152
1594008726963456,2.058,0.838,0.152
1594008727464978,2.058,0.838,0.152
1594008727966456,2.058,0.838,0.152
1594008728468027,2.096,0.838,0.152
1594008728969528,2.058,0.838,0.152
1594008729470985,2.058,0.838,0.152
1594008729972577,2.096,0.838,0.152
1594008730474104,2.096,0.838,0.152
1594008730975629,2.096,0.838,0.152
1594008731477165,2.096,0.838,0.152
1594008731978606,2.058,0.838,0.152
1594008732480248,2.096,0.838,0.152
1594008732981764,2.058,0.838,0.152
1594008733483266,2.096,0.838,0.152
1594008733985969,2.096,0.838,0.152
1594008734487482,2.362,0.838,0.152
1594008734989061,2.477,0.838,0.152
1594008735490513,2.477,0.838,0.152
1594008735992043,2.248,0.838,0.152
1594008736493555,2.172,0.838,0.152
1594008736995038,2.096,0.838,0.152
1594008737496657,2.058,0.838,0.152
1594008737998110,2.096,0.838,0.152
1594008738499611,2.096,0.838,0.152
1594008739001126,2.096,0.915,0.152
1594008739502597,2.096,0.838,0.152
1594008740004172,2.058,0.838,0.152
1594008740505693,2.058,0.838,0.152
1594008741007207,2.096,0.838,0.152
1594008741508847,2.096,0.915,0.152
1594008742010345,2.058,0.838,0.152
1594008742512117,2.058,0.838,0.152
1594008743013676,2.096,0.838,0.152
1594008743515223,2.058,0.838,0.152
1594008744018940,2.058,0.838,0.152
1594008744520440,2.058,0.838,0.152
1594008745022015,2.058,0.838,0.152
1594008745523543,2.096,0.838,0.152
1594008746025035,2.096,0.838,0.152
1594008746526653,2.058,0.838,0.152
1594008747028313,2.058,0.838,0.152
1594008747529773,2.096,0.838,0.152
1594008748031275,2.096,0.838,0.152
1594008748532761,2.096,0.838,0.152
1594008749036810,2.096,0.838,0.152
1594008749538308,2.096,0.838,0.152
1594008750039801,2.058,0.838,0.152
1594008750541249,2.058,0.838,0.152
1594008751042721,2.096,0.838,0.152
1594008751544354,2.058,0.838,0.152
1594008752045822,2.058,0.838,0.152
1594008752550913,2.096,0.838,0.152
1594008753056294,2.058,0.838,0.152
1594008753557804,2.058,0.838,0.152
1594008754061782,2.096,0.838,0.152
1594008754563257,2.058,0.838,0.152
1594008755064812,2.058,0.838,0.152
1594008755566450,2.096,0.838,0.152
1594008756067962,2.096,0.915,0.152
1594008756569473,2.058,0.838,0.152
1594008757070922,2.096,0.838,0.152
1594008757572390,2.096,0.838,0.152
1594008758073937,2.058,0.838,0.152
1594008758575458,2.096,0.838,0.152
1594008759079173,2.096,0.838,0.152
1594008759580672,2.058,0.838,0.152
1594008760082115,2.058,0.838,0.152
1594008760583555,2.096,0.838,0.152
1594008761085082,2.096,0.838,0.152
1594008761586584,2.058,0.838,0.152
1594008762088371,2.096,0.915,0.152
1594008762589837,2.096,0.838,0.152
