timestamp	VIRTUAL_SCALING	CPU0_F	CPU1_F	CPU2_F	CPU3_F	CPU4_F	CPU5_F	CPU6_F	CPU7_F	GPU_FREQ	CPU_GOVERNOR	EMC_F	TEMP0
1606796768884507748	1	1400	1400	1400	1400	1800	1800	1800	1800	600	performance	-	46
1606796768942308275 	0	1400	1400	1400	1400	1800	1800	1800	1800	600	performance	-	46
1606796770517572334	1	1400	1400	1400	1400	1800	1800	1800	1800	600	performance	-	45
1606796770577866846 	0	1400	1400	1400	1400	1800	1800	1800	1800	600	performance	-	46
1606796772153928649	1	1400	1400	1400	1400	1800	1800	1800	1800	600	performance	-	46
1606796772213766788 	0	1400	1400	1400	1400	1800	1800	1800	1800	600	performance	-	46
1606796773789626842	1	1400	1400	1400	1400	1800	1800	1800	1800	600	performance	-	46
1606796773849462231 	0	1400	1400	1400	1400	1800	1800	1800	1800	600	performance	-	47
1606796775425438908	1	1400	1400	1400	1400	1800	1800	1800	1800	600	performance	-	46
1606796775485229840 	0	1400	1400	1400	1400	1800	1800	1800	1800	600	performance	-	47
1606796777061111058	1	1400	1400	1400	1400	1800	1800	1800	1800	600	performance	-	46
1606796777120715782 	0	1400	1400	1400	1400	1800	1800	1800	1800	600	performance	-	47
1606796778696435917	1	1400	1400	1400	1400	1800	1800	1800	1800	600	performance	-	47
1606796778756515597 	0	1400	1400	1400	1400	1800	1800	1800	1800	600	performance	-	47
1606796780332301231	1	1400	1400	1400	1400	1800	1800	1800	1800	600	performance	-	47
1606796780392359119 	0	1400	1400	1400	1400	1800	1800	1800	1800	600	performance	-	48
1606796781968257793	1	1400	1400	1400	1400	1800	1800	1800	1800	600	performance	-	47
1606796782028216516 	0	1400	1400	1400	1400	1800	1800	1800	1800	600	performance	-	47
1606796783604258605	1	1400	1400	1400	1400	1800	1800	1800	1800	600	performance	-	47
1606796783664785115 	0	1400	1400	1400	1400	1800	1800	1800	1800	600	performance	-	48
1606796785241328451	1	1400	1400	1400	1400	1800	1800	1800	1800	600	performance	-	47
1606796785301136299 	0	1400	1400	1400	1400	1800	1800	1800	1800	600	performance	-	48
1606796786877229678	1	1400	1400	1400	1400	1800	1800	1800	1800	600	performance	-	47
1606796786937522523 	0	1400	1400	1400	1400	1800	1800	1800	1800	600	performance	-	48
1606796788513731484	1	1400	1400	1400	1400	1800	1800	1800	1800	600	performance	-	48
1606796788573880955 	0	1400	1400	1400	1400	1800	1800	1800	1800	600	performance	-	48
1606796790149883708	1	1400	1400	1400	1400	1800	1800	1800	1800	600	performance	-	47
1606796790209551473 	0	1400	1400	1400	1400	1800	1800	1800	1800	600	performance	-	48
1606796791785851432	1	1400	1400	1400	1400	1800	1800	1800	1800	600	performance	-	47
1606796791845557697 	0	1400	1400	1400	1400	1800	1800	1800	1800	600	performance	-	48
1606796793421543824	1	1400	1400	1400	1400	1800	1800	1800	1800	600	performance	-	47
1606796793481317422 	0	1400	1400	1400	1400	1800	1800	1800	1800	600	performance	-	47
1606796795057132091	1	1400	1400	1400	1400	1800	1800	1800	1800	600	performance	-	48
1606796795117369477 	0	1400	1400	1400	1400	1800	1800	1800	1800	600	performance	-	48
1606796796694075640	1	1400	1400	1400	1400	1800	1800	1800	1800	600	performance	-	48
1606796796754031654 	0	1400	1400	1400	1400	1800	1800	1800	1800	600	performance	-	48
1606796798330374026	1	1400	1400	1400	1400	1800	1800	1800	1800	600	performance	-	47
1606796798389831251 	0	1400	1400	1400	1400	1800	1800	1800	1800	600	performance	-	48
1606796799965572584	1	1400	1400	1400	1400	1800	1800	1800	1800	600	performance	-	48
1606796800025851638 	0	1400	1400	1400	1400	1800	1800	1800	1800	600	performance	-	48
1606796801601626512	1	1400	1400	1400	1400	1800	1800	1800	1800	600	performance	-	47
1606796801661306277 	0	1400	1400	1400	1400	1800	1800	1800	1800	600	performance	-	48
1606796803236935443	1	1400	1400	1400	1400	1800	1800	1800	1800	600	performance	-	48
1606796803298470155 	0	1400	1400	1400	1400	1800	1800	1800	1800	600	performance	-	48
1606796804877916214	1	1400	1400	1400	1400	1800	1800	1800	1800	600	performance	-	48
1606796804941199374 	0	1400	1400	1400	1400	1800	1800	1800	1800	600	performance	-	48
1606796806519707063	1	1400	1400	1400	1400	1800	1800	1800	1800	600	performance	-	48
1606796806580126282 	0	1400	1400	1400	1400	1800	1800	1800	1800	600	performance	-	48
1606796808155931237	1	1400	1400	1400	1400	1800	1800	1800	1800	600	performance	-	48
1606796808215850251 	0	1400	1400	1400	1400	1800	1800	1800	1800	600	performance	-	48
1606796809791438539	1	1400	1400	1400	1400	1800	1800	1800	1800	600	performance	-	47
1606796809851280053 	0	1400	1400	1400	1400	1800	1800	1800	1800	600	performance	-	48
1606796811426966382	1	1400	1400	1400	1400	1800	1800	1800	1800	600	performance	-	47
1606796811487499725 	0	1400	1400	1400	1400	1800	1800	1800	1800	600	performance	-	48
1606796813063494260	1	1400	1400	1400	1400	1800	1800	1800	1800	600	performance	-	48
1606796813122933401 	0	1400	1400	1400	1400	1800	1800	1800	1800	600	performance	-	48
1606796814698637603	1	1400	1400	1400	1400	1800	1800	1800	1800	600	performance	-	48
1606796814757913871 	0	1400	1400	1400	1400	1800	1800	1800	1800	600	performance	-	48
1606796816333844612	1	1400	1400	1400	1400	1800	1800	1800	1800	600	performance	-	48
1606796816393726001 	0	1400	1400	1400	1400	1800	1800	1800	1800	600	performance	-	48
1606796817969401286	1	1400	1400	1400	1400	1800	1800	1800	1800	600	performance	-	48
1606796818028811135 	0	1400	1400	1400	1400	1800	1800	1800	1800	600	performance	-	48
1606796819604565127	1	1400	1400	1400	1400	1800	1800	1800	1800	600	performance	-	48
1606796819664115934 	0	1400	1400	1400	1400	1800	1800	1800	1800	600	performance	-	48
1606796821239555469	1	1400	1400	1400	1400	1800	1800	1800	1800	600	performance	-	48
1606796821298878819 	0	1400	1400	1400	1400	1800	1800	1800	1800	600	performance	-	48
1606796822874576351	1	1400	1400	1400	1400	1800	1800	1800	1800	600	performance	-	48
1606796822934534322 	0	1400	1400	1400	1400	1800	1800	1800	1800	600	performance	-	48
1606796824510730892	1	1400	1400	1400	1400	1800	1800	1800	1800	600	performance	-	47
1606796824570532365 	0	1400	1400	1400	1400	1800	1800	1800	1800	600	performance	-	48
1606796826146043230	1	1400	1400	1400	1400	1800	1800	1800	1800	600	performance	-	48
1606796826206197784 	0	1400	1400	1400	1400	1800	1800	1800	1800	600	performance	-	49
1606796827781641398	1	1400	1400	1400	1400	1800	1800	1800	1800	600	performance	-	48
1606796827841690619 	0	1400	1400	1400	1400	1800	1800	1800	1800	600	performance	-	49
1606796829417054484	1	1400	1400	1400	1400	1800	1800	1800	1800	600	performance	-	48
1606796829477219829 	0	1400	1400	1400	1400	1800	1800	1800	1800	600	performance	-	49
1606796831052932858	1	1400	1400	1400	1400	1800	1800	1800	1800	600	performance	-	48
1606796831112681747 	0	1400	1400	1400	1400	1800	1800	1800	1800	600	performance	-	49
1606796832688480482	1	1400	1400	1400	1400	1800	1800	1800	1800	600	performance	-	48
1606796832748716785 	0	1400	1400	1400	1400	1800	1800	1800	1800	600	performance	-	49
1606796834324318605	1	1400	1400	1400	1400	1800	1800	1800	1800	600	performance	-	48
1606796834384320076 	0	1400	1400	1400	1400	1800	1800	1800	1800	600	performance	-	49
1606796835959934978	1	1400	1400	1400	1400	1800	1800	1800	1800	600	performance	-	48
1606796836019603243 	0	1400	1400	1400	1400	1800	1800	1800	1800	600	performance	-	49
1606796837595377226	1	1400	1400	1400	1400	1800	1800	1800	1800	600	performance	-	48
1606796837655363031 	0	1400	1400	1400	1400	1800	1800	1800	1800	600	performance	-	49
1606796839229771980	1	1400	1400	1400	1400	1800	1800	1800	1800	600	performance	-	48
1606796839289020539 	0	1400	1400	1400	1400	1800	1800	1800	1800	600	performance	-	49
1606796840864615148	1	1400	1400	1400	1400	1800	1800	1800	1800	600	performance	-	48
1606796840927901057 	0	1400	1400	1400	1400	1800	1800	1800	1800	600	performance	-	50
1606796842505502319	1	1400	1400	1400	1400	1800	1800	1800	1800	600	performance	-	49
1606796842564275381 	0	1400	1400	1400	1400	1800	1800	1800	1800	600	performance	-	48
1606796844138017749	1	1400	1400	1400	1400	1800	1800	1800	1800	600	performance	-	48
1606796844196196856 	0	1400	1400	1400	1400	1800	1800	1800	1800	600	performance	-	48
1606796845770060848	1	1400	1400	1400	1400	1800	1800	1800	1800	600	performance	-	48
1606796845828394829 	0	1400	1400	1400	1400	1800	1800	1800	1800	600	performance	-	48
1606796847402249570	1	1400	1400	1400	1400	1800	1800	1800	1800	600	performance	-	48
1606796847460561468 	0	1400	1400	1400	1400	1800	1800	1800	1800	600	performance	-	49
1606796849034020086	1	1400	1400	1400	1400	1800	1800	1800	1800	600	performance	-	48
1606796849092262401 	0	1400	1400	1400	1400	1800	1800	1800	1800	600	performance	-	49
1606796850665593186	1	1400	1400	1400	1400	1800	1800	1800	1800	600	performance	-	48
1606796850723496336 	0	1400	1400	1400	1400	1800	1800	1800	1800	600	performance	-	49
1606796852297229701	1	1400	1400	1400	1400	1800	1800	1800	1800	600	performance	-	48
1606796852355638556 	0	1400	1400	1400	1400	1800	1800	1800	1800	600	performance	-	48
1606796853929642627	1	1400	1400	1400	1400	1800	1800	1800	1800	600	performance	-	48
1606796853988318189 	0	1400	1400	1400	1400	1800	1800	1800	1800	600	performance	-	49
1606796855562200677	1	1400	1400	1400	1400	1800	1800	1800	1800	600	performance	-	48
1606796855620401117 	0	1400	1400	1400	1400	1800	1800	1800	1800	600	performance	-	49
1606796857193977439	1	1400	1400	1400	1400	1800	1800	1800	1800	600	performance	-	49
1606796857251994880 	0	1400	1400	1400	1400	1800	1800	1800	1800	600	performance	-	48
1606796858825461244	1	1400	1400	1400	1400	1800	1800	1800	1800	600	performance	-	49
1606796858883527727 	0	1400	1400	1400	1400	1800	1800	1800	1800	600	performance	-	49
1606796860457647169	1	1400	1400	1400	1400	1800	1800	1800	1800	600	performance	-	49
1606796860516058775 	0	1400	1400	1400	1400	1800	1800	1800	1800	600	performance	-	49
1606796862089961551	1	1400	1400	1400	1400	1800	1800	1800	1800	600	performance	-	49
1606796862148477823 	0	1400	1400	1400	1400	1800	1800	1800	1800	600	performance	-	49
1606796863721968976	1	1400	1400	1400	1400	1800	1800	1800	1800	600	performance	-	48
1606796863780486122 	0	1400	1400	1400	1400	1800	1800	1800	1800	600	performance	-	49
1606796865354061192	1	1400	1400	1400	1400	1800	1800	1800	1800	600	performance	-	48
1606796865412043716 	0	1400	1400	1400	1400	1800	1800	1800	1800	600	performance	-	49
1606796866985763450	1	1400	1400	1400	1400	1800	1800	1800	1800	600	performance	-	49
1606796867043970098 	0	1400	1400	1400	1400	1800	1800	1800	1800	600	performance	-	49
1606796868618376578	1	1400	1400	1400	1400	1800	1800	1800	1800	600	performance	-	49
1606796868676540393 	0	1400	1400	1400	1400	1800	1800	1800	1800	600	performance	-	49
1606796870249885753	1	1400	1400	1400	1400	1800	1800	1800	1800	600	performance	-	49
1606796870308286316 	0	1400	1400	1400	1400	1800	1800	1800	1800	600	performance	-	49
1606796871881799925	1	1400	1400	1400	1400	1800	1800	1800	1800	600	performance	-	48
1606796871940323488 	0	1400	1400	1400	1400	1800	1800	1800	1800	600	performance	-	49
1606796873514096552	1	1400	1400	1400	1400	1800	1800	1800	1800	600	performance	-	48
1606796873571935244 	0	1400	1400	1400	1400	1800	1800	1800	1800	600	performance	-	49
1606796875145396602	1	1400	1400	1400	1400	1800	1800	1800	1800	600	performance	-	49
1606796875203378793 	0	1400	1400	1400	1400	1800	1800	1800	1800	600	performance	-	49
1606796876776837317	1	1400	1400	1400	1400	1800	1800	1800	1800	600	performance	-	48
1606796876835243963 	0	1400	1400	1400	1400	1800	1800	1800	1800	600	performance	-	49
1606796878408525487	1	1400	1400	1400	1400	1800	1800	1800	1800	600	performance	-	49
1606796878470275905 	0	1400	1400	1400	1400	1800	1800	1800	1800	600	performance	-	49
1606796880047645613	1	1400	1400	1400	1400	1800	1800	1800	1800	600	performance	-	50
1606796880107991789 	0	1400	1400	1400	1400	1800	1800	1800	1800	600	performance	-	50
1606796881682871094	1	1400	1400	1400	1400	1800	1800	1800	1800	600	performance	-	49
1606796881741242574 	0	1400	1400	1400	1400	1800	1800	1800	1800	600	performance	-	49
1606796883314651846	1	1400	1400	1400	1400	1800	1800	1800	1800	600	performance	-	48
1606796883375860850 	0	1400	1400	1400	1400	1800	1800	1800	1800	600	performance	-	49
1606796884958730522	1	1400	1400	1400	1400	1800	1800	1800	1800	600	performance	-	48
1606796885024268584 	0	1400	1400	1400	1400	1800	1800	1800	1800	600	performance	-	49
1606796886865753274	1	1400	1400	1400	1400	1800	1800	1800	1800	600	performance	-	66
1606796887205720675 	0	1400	1400	1400	1400	1800	1800	1800	1800	600	performance	-	67
1606796889080762660	1	1400	1400	1400	1400	1800	1800	1800	1800	600	performance	-	72
1606796889348603081 	0	1400	1400	1400	1400	1800	1800	1800	1800	600	performance	-	72
1606796891260759757	1	1400	1400	1400	1400	1800	1800	1800	1800	600	performance	-	74
1606796891580731571 	0	1400	1400	1400	1400	1800	1800	1800	1800	600	performance	-	75
1606796893430747997	1	1400	1400	1400	1400	1800	1800	1800	1800	600	performance	-	76
1606796893715748522 	0	1400	1400	1400	1400	1800	1800	1800	1800	600	performance	-	76
1606796895630725638	1	1400	1400	1400	1400	1800	1800	1800	1800	600	performance	-	77
1606796895920745966 	0	1400	1400	1400	1400	1800	1800	1800	1800	600	performance	-	77
1606796897753682702	1	1400	1400	1400	1400	1800	1800	1800	1800	600	performance	-	78
1606796897995750237 	0	1400	1400	1400	1400	1800	1800	1800	1800	600	performance	-	78
1606796899805834069	1	1400	1400	1400	1400	1800	1800	1800	1800	600	performance	-	79
1606796900055754347 	0	1400	1400	1400	1400	1800	1800	1800	1800	600	performance	-	79
1606796901908681711	1	1400	1400	1400	1400	1800	1800	1800	1800	600	performance	-	80
1606796902215729810 	0	1400	1400	1400	1400	1800	1800	1800	1800	600	performance	-	80
1606796904090725956	1	1400	1400	1400	1400	1800	1800	1800	1800	600	performance	-	80
1606796904373534744 	0	1400	1400	1400	1400	1800	1800	1800	1800	600	performance	-	81
1606796906258629036	1	1400	1400	1400	1400	1800	1800	1800	1800	600	performance	-	81
1606796906565739967 	0	1400	1400	1400	1400	1800	1800	1800	1800	600	performance	-	81
1606796908430743797	1	1400	1400	1400	1400	1800	1800	1800	1800	600	performance	-	81
1606796908708643614 	0	1400	1400	1400	1400	1800	1800	1800	1800	600	performance	-	81
1606796910563626545	1	1400	1400	1400	1400	1800	1800	1800	1800	600	performance	-	82
1606796910855778025 	0	1400	1400	1400	1400	1800	1800	1800	1800	600	performance	-	82
1606796912705770652	1	1400	1400	1400	1400	1800	1800	1800	1800	600	performance	-	82
1606796912993623241 	0	1400	1400	1400	1400	1800	1800	1800	1800	600	performance	-	82
1606796914838661647	1	1400	1400	1400	1400	1800	1800	1800	1800	600	performance	-	83
1606796915125754783 	0	1400	1400	1400	1400	1800	1800	1800	1800	600	performance	-	82
1606796917040734640	1	1400	1400	1400	1400	1800	1800	1800	1800	600	performance	-	83
1606796917385776132 	0	1400	1400	1400	1400	1800	1800	1800	1800	600	performance	-	83
1606796919290739298	1	1400	1400	1400	1400	1800	1800	1800	1800	600	performance	-	83
1606796919635732541 	0	1400	1400	1400	1400	1800	1800	1800	1800	600	performance	-	83
1606796921570756274	1	1400	1400	1400	1400	1800	1800	1800	1800	600	performance	-	84
1606796921910732922 	0	1400	1400	1400	1400	1800	1800	1800	1800	600	performance	-	84
1606796923830801203	1	1400	1400	1400	1400	1800	1800	1800	1800	600	performance	-	84
1606796924145875127 	0	1400	1400	1400	1400	1800	1800	1800	1800	600	performance	-	84
1606796926080911608	1	1400	1400	1400	1400	1800	1800	1800	1800	600	performance	-	84
1606796926440729594 	0	1400	1400	1400	1400	1800	1800	1800	1800	600	performance	-	84
1606796928360731123	1	1400	1400	1400	1400	1800	1800	1800	1800	600	performance	-	85
1606796928710725502 	0	1400	1400	1400	1400	1800	1800	1800	1800	600	performance	-	85
1606796930585751345	1	1400	1400	1400	1400	1800	1800	1800	1800	600	performance	-	85
1606796930855738167 	0	1400	1400	1400	1400	1800	1800	1800	1800	600	performance	-	85
1606796932725759580	1	1400	1400	1400	1400	1800	1800	1800	1800	600	performance	-	85
1606796933067175136 	0	1400	1400	1400	1400	1800	1800	1800	1800	600	performance	-	85
1606796935000726080	1	1400	1400	1400	1400	1800	1800	1800	1800	600	performance	-	85
1606796935282230248 	0	1400	1400	1400	1400	1800	1800	1800	1800	600	performance	-	85
1606796937128538679	1	1400	1400	1400	1400	1800	1800	1800	1800	600	performance	-	86
1606796937370737002 	0	1400	1400	1400	1400	1800	1800	1800	1800	600	performance	-	86
1606796939190734675	1	1400	1400	1400	1400	1800	1800	1800	1800	600	performance	-	86
1606796939440753284 	0	1400	1400	1400	1400	1800	1800	1800	1800	600	performance	-	86
1606796941343628579	1	1400	1400	1400	1400	1800	1800	1800	1800	600	performance	-	86
1606796941655736769 	0	1400	1400	1400	1400	1800	1800	1800	1800	600	performance	-	86
1606796943540764088	1	1400	1400	1400	1400	1800	1800	1800	1800	600	performance	-	86
1606796943798597149 	0	1400	1400	1400	1400	1800	1800	1800	1800	600	performance	-	86
1606796945655787552	1	1400	1400	1400	1400	1800	1800	1800	1800	600	performance	-	86
1606796945970775100 	0	1400	1400	1400	1400	1800	1800	1800	1800	600	performance	-	86
1606796947872214317	1	1400	1400	1400	1400	1800	1800	1800	1800	600	performance	-	87
1606796948150779545 	0	1400	1400	1400	1400	1800	1800	1800	1800	600	performance	-	87
1606796950035780194	1	1400	1400	1400	1400	1800	1800	1800	1800	600	performance	-	87
1606796950330693238 	0	1400	1400	1400	1400	1800	1800	1800	1800	600	performance	-	87
1606796952180764557	1	1400	1400	1400	1400	1800	1800	1800	1800	600	performance	-	87
1606796952465795078 	0	1400	1400	1400	1400	1800	1800	1800	1800	600	performance	-	87
1606796954385757597	1	1400	1400	1400	1400	1800	1800	1800	1800	600	performance	-	87
1606796954685750693 	0	1400	1400	1400	1400	1800	1800	1800	1800	600	performance	-	87
1606796956570770132	1	1400	1400	1400	1400	1800	1800	1800	1800	600	performance	-	87
1606796956860757331 	0	1400	1400	1400	1400	1800	1800	1800	1800	600	performance	-	87
1606796958705747928	1	1400	1400	1400	1400	1800	1800	1800	1800	600	performance	-	88
1606796959010786993 	0	1400	1400	1400	1400	1800	1800	1800	1800	600	performance	-	87
1606796960868675595	1	1400	1400	1400	1400	1800	1800	1800	1800	600	performance	-	88
1606796961175786314 	0	1400	1400	1400	1400	1800	1800	1800	1800	600	performance	-	88
1606796963075730118	1	1400	1400	1400	1400	1800	1800	1800	1800	600	performance	-	88
1606796963355759877 	0	1400	1400	1400	1400	1800	1800	1800	1800	600	performance	-	88
1606796965245752615	1	1400	1400	1400	1400	1800	1800	1800	1800	600	performance	-	88
1606796965560798453 	0	1400	1400	1400	1400	1800	1800	1800	1800	600	performance	-	88
1606796967152308252	1	1400	1400	1400	1400	1800	1800	1800	1800	600	performance	-	80
1606796967214796997 	0	1400	1400	1400	1400	1800	1800	1800	1800	600	performance	-	80
1606796968793546373	1	1400	1400	1400	1400	1800	1800	1800	1800	600	performance	-	69
1606796968856109327 	0	1400	1400	1400	1400	1800	1800	1800	1800	600	performance	-	69
1606796970434432246	1	1400	1400	1400	1400	1800	1800	1800	1800	600	performance	-	66
1606796970494128509 	0	1400	1400	1400	1400	1800	1800	1800	1800	600	performance	-	65
1606796972069825194	1	1400	1400	1400	1400	1800	1800	1800	1800	600	performance	-	62
1606796972130310993 	0	1400	1400	1400	1400	1800	1800	1800	1800	600	performance	-	62
1606796973705995094	1	1400	1400	1400	1400	1800	1800	1800	1800	600	performance	-	60
1606796973766249145 	0	1400	1400	1400	1400	1800	1800	1800	1800	600	performance	-	60
1606796975341920371	1	1400	1400	1400	1400	1800	1800	1800	1800	600	performance	-	59
1606796975401636008 	0	1400	1400	1400	1400	1800	1800	1800	1800	600	performance	-	59
1606796976977721273	1	1400	1400	1400	1400	1800	1800	1800	1800	600	performance	-	58
1606796977037849533 	0	1400	1400	1400	1400	1800	1800	1800	1800	600	performance	-	58
1606796978613439716	1	1400	1400	1400	1400	1800	1800	1800	1800	600	performance	-	57
1606796978673735308 	0	1400	1400	1400	1400	1800	1800	1800	1800	600	performance	-	58
1606796980249597990	1	1400	1400	1400	1400	1800	1800	1800	1800	600	performance	-	57
1606796980309605917 	0	1400	1400	1400	1400	1800	1800	1800	1800	600	performance	-	57
1606796981885563680	1	1400	1400	1400	1400	1800	1800	1800	1800	600	performance	-	57
1606796981945912772 	0	1400	1400	1400	1400	1800	1800	1800	1800	600	performance	-	57
1606796983521574662	1	1400	1400	1400	1400	1800	1800	1800	1800	600	performance	-	56
1606796983581821546 	0	1400	1400	1400	1400	1800	1800	1800	1800	600	performance	-	57
1606796985157349770	1	1400	1400	1400	1400	1800	1800	1800	1800	600	performance	-	56
1606796985217695945 	0	1400	1400	1400	1400	1800	1800	1800	1800	600	performance	-	57
1606796986793965955	1	1400	1400	1400	1400	1800	1800	1800	1800	600	performance	-	56
1606796986853507260 	0	1400	1400	1400	1400	1800	1800	1800	1800	600	performance	-	56
1606796988429639521	1	1400	1400	1400	1400	1800	1800	1800	1800	600	performance	-	55
1606796988489628198 	0	1400	1400	1400	1400	1800	1800	1800	1800	600	performance	-	56
1606796990065693500	1	1400	1400	1400	1400	1800	1800	1800	1800	600	performance	-	55
1606796990126203132 	0	1400	1400	1400	1400	1800	1800	1800	1800	600	performance	-	55
1606796991702086893	1	1400	1400	1400	1400	1800	1800	1800	1800	600	performance	-	55
1606796991762216153 	0	1400	1400	1400	1400	1800	1800	1800	1800	600	performance	-	56
1606796993337785749	1	1400	1400	1400	1400	1800	1800	1800	1800	600	performance	-	54
1606796993397800051 	0	1400	1400	1400	1400	1800	1800	1800	1800	600	performance	-	55
1606796994974041475	1	1400	1400	1400	1400	1800	1800	1800	1800	600	performance	-	55
1606796995033726363 	0	1400	1400	1400	1400	1800	1800	1800	1800	600	performance	-	55
1606796996610029120	1	1400	1400	1400	1400	1800	1800	1800	1800	600	performance	-	54
1606796996670285337 	0	1400	1400	1400	1400	1800	1800	1800	1800	600	performance	-	55
1606796998246004097	1	1400	1400	1400	1400	1800	1800	1800	1800	600	performance	-	54
1606796998305876400 	0	1400	1400	1400	1400	1800	1800	1800	1800	600	performance	-	54
1606796999887536748	1	1400	1400	1400	1400	1800	1800	1800	1800	600	performance	-	54
1606796999947977422 	0	1400	1400	1400	1400	1800	1800	1800	1800	600	performance	-	54
1606797001523795639	1	1400	1400	1400	1400	1800	1800	1800	1800	600	performance	-	53
1606797001586173552 	0	1400	1400	1400	1400	1800	1800	1800	1800	600	performance	-	54
1606797003168214147	1	1400	1400	1400	1400	1800	1800	1800	1800	600	performance	-	54
1606797003229165360 	0	1400	1400	1400	1400	1800	1800	1800	1800	600	performance	-	54
1606797004805161366	1	1400	1400	1400	1400	1800	1800	1800	1800	600	performance	-	54
1606797004870318053 	0	1400	1400	1400	1400	1800	1800	1800	1800	600	performance	-	54
