TimeStamp,Total Power,CPU Power,GPU Power
1593926103946875,2.248,0.915,0.152
1593926104448816,3.161,1.067,0.152
1593926104950572,3.39,0.99,0.152
1593926105452371,3.314,0.838,0.152
1593926105955018,4.038,1.447,0.152
1593926106457049,4.342,1.752,0.152
1593926106958956,4.381,1.828,0.152
1593926107460545,4.381,1.828,0.152
1593926107963268,4.381,1.828,0.152
1593926108464977,4.381,1.828,0.152
1593926108966491,4.381,1.828,0.152
1593926109468215,4.381,1.828,0.152
1593926109969702,4.381,1.828,0.152
1593926110471145,4.381,1.828,0.152
1593926110972690,4.419,1.828,0.152
1593926111474530,4.381,1.904,0.152
1593926111976535,4.419,1.828,0.152
1593926112478452,4.419,1.828,0.152
1593926112980616,4.381,1.828,0.152
1593926113482840,4.419,1.904,0.152
1593926113985048,4.381,1.828,0.152
1593926114486907,4.381,1.828,0.152
1593926114988756,4.419,1.828,0.152
1593926115490810,4.381,1.828,0.152
1593926115992836,4.381,1.828,0.152
1593926116494811,4.381,1.828,0.152
1593926116996751,4.381,1.828,0.152
1593926117498606,4.457,1.904,0.152
1593926118000622,4.419,1.828,0.152
1593926118502778,4.381,1.828,0.152
1593926119004867,4.342,1.828,0.152
1593926119506883,4.342,1.828,0.152
1593926120008766,4.342,1.752,0.152
1593926120510634,4.381,1.828,0.152
1593926121012866,4.419,1.828,0.152
1593926121514911,4.342,1.828,0.152
1593926122016846,4.457,1.828,0.152
1593926122518789,4.342,1.828,0.152
1593926123020921,4.381,1.828,0.152
1593926123522770,4.381,1.828,0.152
1593926124024946,4.381,1.828,0.152
1593926124526891,4.342,1.828,0.152
1593926125029249,4.381,1.828,0.152
1593926125531297,4.381,1.828,0.152
1593926126033331,4.381,1.828,0.152
1593926126535246,4.381,1.828,0.152
1593926127037198,4.304,1.752,0.152
1593926127539210,4.342,1.828,0.152
1593926128041276,4.419,1.904,0.152
1593926128543249,4.381,1.828,0.152
1593926129045297,4.342,1.828,0.152
1593926129547242,4.381,1.828,0.152
1593926130049149,4.381,1.828,0.152
1593926130553559,4.381,1.828,0.152
1593926131055476,4.419,1.904,0.152
1593926131557374,4.457,1.904,0.152
1593926132059452,4.381,1.828,0.152
1593926132561285,4.381,1.828,0.152
1593926133063273,4.381,1.828,0.152
1593926133565332,4.381,1.828,0.152
1593926134067382,4.419,1.828,0.152
1593926134569384,4.419,1.828,0.152
1593926135071268,4.381,1.828,0.152
1593926135576376,4.381,1.828,0.152
1593926136078402,4.381,1.828,0.152
1593926136580365,4.419,1.904,0.152
1593926137082359,4.419,1.828,0.152
1593926137584632,4.419,1.828,0.152
1593926138086617,4.457,1.904,0.152
1593926138588563,4.381,1.828,0.152
1593926139090468,4.342,1.828,0.152
1593926139601193,4.342,1.828,0.152
1593926140103034,4.381,1.828,0.152
1593926140605148,4.381,1.828,0.152
1593926141106964,4.457,1.828,0.152
1593926141609074,4.721,1.904,0.152
1593926142110527,4.798,1.828,0.152
1593926142612504,4.798,1.828,0.152
1593926143114540,4.493,1.828,0.152
1593926143616689,4.381,1.752,0.152
1593926144118647,4.342,1.752,0.152
1593926144620614,4.342,1.828,0.152
1593926145122706,4.381,1.828,0.152
1593926145625017,4.419,1.828,0.152
1593926146127025,4.419,1.828,0.152
1593926146629361,4.381,1.828,0.152
1593926147131462,4.342,1.828,0.152
1593926147633353,4.304,1.752,0.152
1593926148135472,4.381,1.828,0.152
1593926148637459,4.419,1.828,0.152
1593926149139409,4.381,1.828,0.152
1593926149641394,4.457,1.904,0.152
1593926150143484,4.457,1.904,0.152
1593926150645357,4.419,1.904,0.152
1593926151147520,4.419,1.904,0.152
1593926151649474,4.419,1.828,0.152
1593926152151407,4.381,1.828,0.152
1593926152653298,4.381,1.828,0.152
1593926153155177,4.381,1.828,0.152
1593926153657237,4.419,1.828,0.152
1593926154159195,4.381,1.828,0.152
1593926154661279,4.342,1.828,0.152
1593926155163254,4.381,1.828,0.152
1593926155665342,4.381,1.828,0.152
1593926156169839,4.419,1.828,0.152
1593926156671765,4.419,1.904,0.152
1593926157173716,4.419,1.904,0.152
1593926157675747,4.381,1.828,0.152
1593926158177806,4.419,1.828,0.152
1593926158679809,4.457,1.904,0.152
1593926159181688,4.457,1.904,0.152
1593926159683735,4.457,1.904,0.152
1593926160185752,4.419,1.828,0.152
1593926160687633,4.419,1.904,0.152
1593926161189673,4.381,1.828,0.152
1593926161691683,4.381,1.828,0.152
1593926162193781,4.342,1.828,0.152
1593926162695711,4.381,1.828,0.152
1593926163197943,4.381,1.828,0.152
1593926163700067,4.419,1.828,0.152
1593926164202035,4.419,1.904,0.152
1593926164704052,4.419,1.904,0.152
1593926165205974,4.419,1.904,0.152
1593926165708105,4.381,1.828,0.152
1593926166210037,4.419,1.904,0.152
1593926166712020,4.419,1.904,0.152
1593926167213976,4.457,1.904,0.152
1593926167715991,4.457,1.828,0.152
1593926168217990,4.419,1.828,0.152
1593926168719995,4.381,1.828,0.152
1593926169221965,4.342,1.828,0.152
1593926169723978,4.381,1.828,0.152
1593926170225825,4.381,1.828,0.152
1593926170727808,4.419,1.904,0.152
1593926171229774,4.457,1.904,0.152
1593926171731783,4.419,1.828,0.152
1593926172233677,4.381,1.828,0.152
1593926172736013,4.419,1.904,0.152
1593926173238052,4.381,1.828,0.152
1593926173740027,4.419,1.828,0.152
1593926174241881,4.381,1.828,0.152
1593926174743734,4.381,1.828,0.152
1593926175245572,4.381,1.828,0.152
1593926175747675,4.419,1.828,0.152
1593926176249701,4.419,1.828,0.152
1593926176751685,4.381,1.828,0.152
1593926177253839,4.342,1.828,0.152
1593926177756044,4.457,1.904,0.152
1593926178258035,4.419,1.828,0.152
1593926178760117,4.419,1.904,0.152
1593926179262057,4.381,1.828,0.152
1593926179764017,4.381,1.828,0.152
1593926180266134,4.419,1.904,0.152
1593926180768201,4.381,1.828,0.152
1593926181270230,4.419,1.828,0.152
1593926181772271,4.419,1.828,0.152
1593926182274243,4.381,1.828,0.152
1593926182776213,4.419,1.904,0.152
1593926183278136,4.381,1.828,0.152
1593926183780026,4.457,1.904,0.152
1593926184281936,4.419,1.828,0.152
1593926184783977,4.419,1.904,0.152
1593926185285863,4.419,1.828,0.152
1593926185787916,4.419,1.828,0.152
1593926186289831,4.419,1.904,0.152
1593926186794189,4.419,1.904,0.152
1593926187296250,4.381,1.828,0.152
1593926187798247,4.381,1.828,0.152
1593926188300446,4.381,1.828,0.152
1593926188802480,4.381,1.828,0.152
1593926189304479,4.381,1.828,0.152
1593926189806415,4.381,1.828,0.152
1593926190308598,4.381,1.828,0.152
1593926190810598,4.381,1.828,0.152
1593926191312635,4.419,1.828,0.152
1593926191817164,4.419,1.828,0.152
1593926192319251,4.342,1.828,0.152
1593926192821306,4.342,1.828,0.152
1593926193323711,4.381,1.828,0.152
1593926193825665,4.342,1.828,0.152
1593926194327699,4.342,1.828,0.152
1593926194829678,4.381,1.828,0.152
1593926195331763,4.342,1.828,0.152
1593926195833766,4.419,1.828,0.152
1593926196335814,4.419,1.828,0.152
1593926196840852,4.381,1.828,0.152
1593926197342824,4.381,1.828,0.152
1593926197844872,4.419,1.828,0.152
1593926198346784,4.381,1.828,0.152
1593926198848810,4.381,1.828,0.152
1593926199350760,4.381,1.828,0.152
1593926199853012,4.419,1.828,0.152
1593926200355107,4.381,1.828,0.152
1593926200857147,4.381,1.828,0.152
1593926201359153,4.342,1.752,0.152
1593926201861077,4.381,1.828,0.152
1593926202363016,4.381,1.828,0.152
1593926202865236,4.381,1.828,0.152
1593926203367196,4.381,1.828,0.152
1593926203869343,4.342,1.828,0.152
1593926204371237,4.645,1.828,0.152
1593926204872753,4.798,1.828,0.152
1593926205375478,4.76,1.828,0.152
1593926205877714,4.607,1.828,0.152
1593926206379755,4.457,1.828,0.152
1593926206884693,4.419,1.828,0.152
1593926207386676,4.419,1.828,0.152
1593926207888804,4.419,1.828,0.152
1593926208390777,4.419,1.904,0.152
1593926208893044,4.342,1.828,0.152
1593926209394941,4.381,1.828,0.152
1593926209897018,4.419,1.904,0.152
1593926210404291,4.419,1.904,0.152
1593926210906221,4.381,1.828,0.152
1593926211408207,4.381,1.828,0.152
1593926211912916,4.342,1.828,0.152
1593926212414866,4.342,1.828,0.152
1593926212916789,4.381,1.828,0.152
1593926213418894,4.342,1.828,0.152
1593926213920934,4.457,1.904,0.152
1593926214422922,4.419,1.828,0.152
1593926214924947,4.342,1.752,0.152
1593926215426801,4.342,1.828,0.152
1593926215928585,4.381,1.828,0.152
1593926216430451,4.342,1.828,0.152
1593926216932435,4.419,1.828,0.152
1593926217434528,4.381,1.828,0.152
1593926217936567,4.457,1.904,0.152
1593926218438566,4.381,1.828,0.152
1593926218940812,4.457,1.828,0.152
1593926219442854,4.381,1.828,0.152
1593926219944863,4.495,1.904,0.152
1593926220446944,4.419,1.904,0.152
1593926220949239,4.419,1.828,0.152
1593926221451297,4.419,1.828,0.152
1593926221953528,4.419,1.828,0.152
1593926222455486,4.419,1.904,0.152
1593926222957780,4.419,1.828,0.152
1593926223459925,4.381,1.828,0.152
1593926223962204,4.419,1.828,0.152
1593926224464206,4.342,1.828,0.152
1593926224966138,4.419,1.828,0.152
1593926225468185,4.381,1.828,0.152
1593926225970226,4.381,1.828,0.152
1593926226476885,4.419,1.904,0.152
1593926226979063,4.457,1.904,0.152
1593926227481125,4.419,1.828,0.152
1593926227983482,4.342,1.752,0.152
1593926228485487,4.342,1.752,0.152
1593926228987479,4.342,1.828,0.152
1593926229489497,4.381,1.828,0.152
1593926229991484,4.381,1.828,0.152
1593926230494127,4.419,1.828,0.152
1593926230995732,4.457,1.904,0.152
1593926231497651,4.419,1.904,0.152
1593926231999716,4.457,1.828,0.152
1593926232501845,4.457,1.828,0.152
1593926233003932,4.381,1.828,0.152
1593926233505996,4.419,1.904,0.152
1593926234008008,4.457,1.904,0.152
1593926234509973,4.495,1.904,0.152
1593926235011926,4.419,1.904,0.152
1593926235513875,4.419,1.828,0.152
1593926236016039,4.381,1.828,0.152
1593926236518068,4.381,1.828,0.152
1593926237020021,4.457,1.904,0.152
1593926237521960,4.419,1.904,0.152
1593926238024004,4.342,1.828,0.152
1593926238526095,4.381,1.828,0.152
1593926239028202,4.342,1.752,0.152
1593926239530403,4.342,1.828,0.152
1593926240032326,4.342,1.828,0.152
1593926240534393,4.419,1.828,0.152
1593926241036618,4.342,1.752,0.152
1593926241538471,4.342,1.752,0.152
1593926242040534,4.381,1.828,0.152
1593926242545294,4.419,1.828,0.152
1593926243047272,4.381,1.828,0.152
1593926243549323,4.381,1.828,0.152
1593926244051472,4.342,1.828,0.152
1593926244553516,4.381,1.828,0.152
1593926245055407,4.342,1.752,0.152
1593926245557294,4.381,1.828,0.152
1593926246059490,4.419,1.904,0.152
1593926246561543,4.457,1.904,0.152
1593926247067237,4.381,1.828,0.152
1593926247570623,4.381,1.828,0.152
1593926248072911,4.381,1.828,0.152
1593926248574931,4.419,1.828,0.152
1593926249076918,4.381,1.828,0.152
1593926249578839,4.381,1.828,0.152
1593926250080695,4.381,1.828,0.152
1593926250582911,4.342,1.752,0.152
1593926251084836,4.342,1.828,0.152
1593926251587145,4.342,1.828,0.152
1593926252089251,4.381,1.828,0.152
1593926252593726,4.381,1.828,0.152
1593926253095855,4.381,1.828,0.152
1593926253597849,4.381,1.828,0.152
1593926254099904,4.419,1.828,0.152
1593926254601956,4.419,1.828,0.152
1593926255103967,4.381,1.828,0.152
1593926255605836,4.342,1.828,0.152
1593926256107725,4.381,1.828,0.152
1593926256609705,4.419,1.828,0.152
1593926257111742,4.381,1.828,0.152
1593926257616198,4.381,1.828,0.152
1593926258118190,4.381,1.828,0.152
1593926258620294,4.381,1.828,0.152
1593926259122312,4.304,1.752,0.152
1593926259625882,4.304,1.752,0.152
1593926260127967,4.381,1.828,0.152
1593926260630717,4.419,1.828,0.152
1593926261132222,4.419,1.904,0.152
1593926261634144,4.342,1.828,0.152
1593926262136174,4.419,1.828,0.152
1593926262638214,4.381,1.828,0.152
1593926263140257,4.381,1.828,0.152
1593926263642213,4.381,1.904,0.152
1593926264144258,4.457,1.904,0.152
1593926264646194,4.419,1.828,0.152
1593926265148226,4.419,1.904,0.152
1593926265650184,4.381,1.828,0.152
1593926266152270,4.419,1.828,0.152
1593926266654239,4.381,1.828,0.152
1593926267156149,4.533,1.828,0.152
1593926267658052,4.645,1.752,0.152
1593926268162528,4.76,1.828,0.152
1593926268664493,4.76,1.828,0.152
1593926269166375,4.493,1.828,0.152
1593926269668485,4.419,1.828,0.152
1593926270170523,4.419,1.828,0.152
1593926270672459,4.419,1.828,0.152
1593926271174501,4.381,1.828,0.152
1593926271676479,4.342,1.828,0.152
1593926272178362,4.381,1.828,0.152
1593926272680184,4.381,1.828,0.152
1593926273192523,4.381,1.828,0.152
1593926273694486,4.419,1.828,0.152
1593926274196454,4.381,1.828,0.152
1593926274698361,4.381,1.828,0.152
1593926275200206,4.342,1.828,0.152
1593926275702131,4.419,1.828,0.152
1593926276204030,4.419,1.828,0.152
1593926276706283,4.342,1.828,0.152
1593926277208219,4.381,1.828,0.152
1593926277710260,4.381,1.828,0.152
1593926278212318,4.381,1.828,0.152
1593926278714234,4.342,1.828,0.152
1593926279216381,4.381,1.828,0.152
1593926279718372,4.381,1.828,0.152
1593926280220626,4.419,1.828,0.152
1593926280722656,4.381,1.828,0.152
1593926281224655,4.419,1.904,0.152
1593926281726650,4.381,1.828,0.152
1593926282228949,4.342,1.752,0.152
1593926282731030,4.381,1.828,0.152
1593926283233133,4.304,1.752,0.152
1593926283735286,4.381,1.828,0.152
1593926284237443,4.381,1.828,0.152
1593926284743623,4.419,1.828,0.152
1593926285246879,4.342,1.828,0.152
1593926285749722,4.381,1.828,0.152
1593926286251230,4.381,1.828,0.152
1593926286752751,4.419,1.828,0.152
1593926287254313,4.381,1.828,0.152
1593926287757077,4.381,1.828,0.152
1593926288259013,4.381,1.828,0.152
1593926288761247,4.381,1.828,0.152
1593926289263241,4.381,1.828,0.152
1593926289765187,4.419,1.828,0.152
1593926290267083,4.419,1.828,0.152
1593926290769164,4.419,1.828,0.152
1593926291271218,4.381,1.828,0.152
1593926291773191,4.381,1.828,0.152
1593926292275179,4.419,1.828,0.152
1593926292777178,4.381,1.828,0.152
1593926293279117,4.381,1.828,0.152
1593926293781326,4.381,1.828,0.152
1593926294283264,4.342,1.828,0.152
1593926294785308,4.381,1.828,0.152
1593926295287116,4.381,1.828,0.152
1593926295789084,4.419,1.828,0.152
1593926296291033,4.381,1.828,0.152
1593926296792999,4.419,1.828,0.152
1593926297294897,4.342,1.828,0.152
1593926297804593,4.381,1.828,0.152
1593926298306543,4.419,1.828,0.152
1593926298810959,4.495,1.904,0.152
1593926299312943,4.457,1.904,0.152
1593926299814988,4.419,1.828,0.152
1593926300317007,4.495,1.904,0.152
1593926300818953,4.419,1.904,0.152
1593926301320964,4.457,1.904,0.152
1593926301822789,4.495,1.904,0.152
1593926302324860,4.457,1.904,0.152
1593926302826840,4.419,1.904,0.152
1593926303328842,4.457,1.904,0.152
1593926303833675,4.495,1.904,0.152
1593926304335744,4.457,1.904,0.152
1593926304837623,4.419,1.904,0.152
1593926305339700,4.419,1.904,0.152
1593926305841640,4.457,1.904,0.152
1593926306343673,4.419,1.904,0.152
1593926306845501,4.457,1.904,0.152
1593926307347455,4.419,1.828,0.152
1593926307849584,4.419,1.828,0.152
1593926308351696,4.457,1.904,0.152
1593926308856301,4.457,1.904,0.152
1593926309358344,4.457,1.904,0.152
1593926309860387,4.495,1.904,0.152
1593926310362266,4.419,1.828,0.152
1593926310864147,4.342,1.828,0.152
1593926311366041,4.342,1.828,0.152
1593926311868032,4.381,1.828,0.152
1593926312369987,4.342,1.828,0.152
1593926312871923,4.381,1.828,0.152
1593926313373883,4.419,1.904,0.152
1593926313878964,4.381,1.828,0.152
1593926314380999,4.457,1.904,0.152
1593926314882875,4.419,1.904,0.152
1593926315384902,4.342,1.828,0.152
1593926315886814,4.381,1.828,0.152
1593926316388752,4.419,1.904,0.152
1593926316890587,4.419,1.904,0.152
1593926317392570,4.457,1.904,0.152
1593926317894848,4.457,1.904,0.152
1593926318396933,4.419,1.904,0.152
1593926318901570,4.342,1.828,0.152
1593926319403542,4.381,1.828,0.152
1593926319905442,4.419,1.904,0.152
1593926320407378,4.419,1.904,0.152
1593926320909877,4.419,1.828,0.152
1593926321412017,4.342,1.828,0.152
1593926321913949,4.342,1.828,0.152
1593926322416044,4.381,1.828,0.152
1593926322918051,4.457,1.828,0.152
1593926323420087,4.419,1.828,0.152
1593926323925203,4.419,1.752,0.152
1593926324427153,4.381,1.752,0.152
1593926324929372,4.381,1.828,0.152
1593926325436834,4.381,1.752,0.152
1593926325938812,4.342,1.828,0.152
1593926326440938,4.381,1.828,0.152
1593926326942804,4.381,1.828,0.152
1593926327445117,4.419,1.828,0.152
1593926327947013,4.419,1.828,0.152
1593926328449268,4.419,1.828,0.152
1593926328954485,4.419,1.828,0.152
1593926329456574,4.419,1.828,0.152
1593926329959095,4.495,1.904,0.152
1593926330461140,4.721,1.828,0.152
1593926330963018,4.76,1.828,0.152
1593926331464686,4.798,1.828,0.152
1593926331966177,4.569,1.828,0.152
1593926332468009,4.495,1.904,0.152
1593926332969985,4.495,1.904,0.152
1593926333480047,4.419,1.828,0.152
1593926333983411,4.381,1.828,0.152
1593926334485588,4.419,1.828,0.152
1593926334987502,4.381,1.828,0.152
1593926335494209,4.419,1.828,0.152
1593926335996240,4.457,1.904,0.152
1593926336498113,4.419,1.828,0.152
1593926336999800,4.342,1.828,0.152
1593926337501687,4.419,1.828,0.152
1593926338003748,4.495,1.904,0.152
1593926338505736,4.419,1.904,0.152
1593926339010465,4.381,1.828,0.152
1593926339512484,4.495,1.904,0.152
1593926340014389,4.419,1.828,0.152
1593926340516374,4.419,1.904,0.152
1593926341018254,4.381,1.828,0.152
1593926341520476,4.419,1.828,0.152
1593926342022477,4.381,1.828,0.152
1593926342524568,4.381,1.828,0.152
1593926343026510,4.381,1.828,0.152
1593926343528386,4.381,1.828,0.152
1593926344030414,4.495,1.904,0.152
1593926344532485,4.457,1.904,0.152
1593926345034629,4.381,1.828,0.152
1593926345536940,4.419,1.828,0.152
1593926346038914,4.381,1.828,0.152
1593926346541262,4.381,1.828,0.152
1593926347043300,4.381,1.828,0.152
1593926347545366,4.419,1.828,0.152
1593926348046975,4.381,1.828,0.152
1593926348548888,4.342,1.828,0.152
1593926349054100,4.381,1.828,0.152
1593926349556086,4.419,1.828,0.152
1593926350058292,4.381,1.828,0.152
1593926350560325,4.342,1.828,0.152
1593926351062502,4.419,1.828,0.152
1593926351564550,4.419,1.828,0.152
1593926352066746,4.419,1.828,0.152
1593926352568886,4.419,1.904,0.152
1593926353071071,4.457,1.828,0.152
1593926353573237,4.457,1.904,0.152
1593926354077879,4.419,1.904,0.152
1593926354579745,4.419,1.904,0.152
1593926355081296,4.457,1.904,0.152
1593926355582882,4.457,1.904,0.152
1593926356085034,4.419,1.904,0.152
1593926356586997,4.419,1.904,0.152
1593926357089366,4.419,1.828,0.152
1593926357591398,4.495,1.904,0.152
1593926358093449,4.419,1.904,0.152
1593926358595423,4.419,1.904,0.152
1593926359097394,4.457,1.904,0.152
1593926359599255,4.419,1.828,0.152
1593926360101088,4.419,1.828,0.152
1593926360604907,4.381,1.828,0.152
1593926361106473,4.419,1.828,0.152
1593926361608404,4.457,1.904,0.152
1593926362110416,4.419,1.828,0.152
1593926362612740,4.381,1.828,0.152
1593926363114784,4.419,1.828,0.152
1593926363616838,4.419,1.904,0.152
1593926364118918,4.419,1.828,0.152
1593926364620806,4.419,1.828,0.152
1593926365122791,4.457,1.828,0.152
1593926365624675,4.419,1.904,0.152
1593926366126632,4.419,1.904,0.152
1593926366628598,4.419,1.904,0.152
1593926367130613,4.457,1.904,0.152
1593926367632594,4.457,1.904,0.152
1593926368134467,4.419,1.904,0.152
1593926368636794,4.381,1.828,0.152
1593926369141828,4.419,1.828,0.152
1593926369648451,4.419,1.904,0.152
1593926370150280,4.419,1.904,0.152
1593926370664754,4.381,1.828,0.152
1593926371166746,4.381,1.828,0.152
1593926371668790,4.381,1.828,0.152
1593926372173417,4.419,1.904,0.152
1593926372679763,4.419,1.904,0.152
1593926373181724,4.495,1.904,0.152
1593926373684327,4.419,1.828,0.152
1593926374186659,4.495,1.904,0.152
1593926374688624,4.419,1.904,0.152
1593926375190404,4.381,1.828,0.152
1593926375692816,4.381,1.828,0.152
1593926376194896,4.381,1.828,0.152
1593926376696893,4.419,1.904,0.152
1593926377198818,4.457,1.904,0.152
1593926377701023,4.381,1.828,0.152
1593926378203014,4.419,1.828,0.152
1593926378705316,4.419,1.904,0.152
1593926379207430,4.419,1.828,0.152
1593926379709419,4.419,1.904,0.152
1593926380211417,4.419,1.828,0.152
1593926380713370,4.381,1.828,0.152
1593926381215624,4.381,1.828,0.152
1593926381717631,4.419,1.904,0.152
1593926382219796,4.419,1.828,0.152
1593926382721627,4.457,1.904,0.152
1593926383231454,4.419,1.828,0.152
1593926383733448,4.381,1.828,0.152
1593926384235473,4.419,1.828,0.152
1593926384737467,4.419,1.828,0.152
1593926385239483,4.419,1.828,0.152
1593926385741358,4.381,1.828,0.152
1593926386243447,4.381,1.828,0.152
1593926386745406,4.419,1.904,0.152
1593926387247475,4.381,1.828,0.152
1593926387749385,4.342,1.752,0.152
1593926388251514,4.304,1.752,0.152
1593926388753368,4.457,1.828,0.152
1593926389255445,4.419,1.828,0.152
1593926389757425,4.419,1.828,0.152
1593926390259479,4.419,1.828,0.152
1593926390761420,4.457,1.904,0.152
1593926391263442,4.419,1.904,0.152
1593926391765394,4.342,1.828,0.152
1593926392267403,4.381,1.828,0.152
1593926392769363,4.381,1.828,0.152
1593926393271483,4.607,1.828,0.152
1593926393773559,4.721,1.828,0.152
1593926394275518,4.798,1.828,0.152
1593926394777444,4.683,1.828,0.152
1593926395279385,4.419,1.828,0.152
1593926395781394,4.342,1.752,0.152
1593926396283471,4.381,1.828,0.152
1593926396785529,4.419,1.828,0.152
1593926397287514,4.419,1.904,0.152
1593926397789580,4.381,1.828,0.152
1593926398291554,4.419,1.904,0.152
1593926398793542,4.457,1.828,0.152
1593926399295538,4.419,1.828,0.152
1593926399797566,4.381,1.828,0.152
1593926400299475,4.381,1.828,0.152
1593926400801393,4.419,1.828,0.152
1593926401303290,4.381,1.828,0.152
1593926401805301,4.381,1.828,0.152
1593926402307418,4.381,1.828,0.152
1593926402809414,4.419,1.828,0.152
1593926403311429,4.419,1.828,0.152
1593926403813389,4.457,1.904,0.152
1593926404316693,4.457,1.904,0.152
1593926404818495,4.457,1.904,0.152
1593926405321016,4.381,1.828,0.152
1593926405823065,4.381,1.828,0.152
1593926406325132,4.381,1.828,0.152
1593926406827059,4.419,1.828,0.152
1593926407329232,4.457,1.904,0.152
1593926407831178,4.419,1.904,0.152
1593926408333070,4.419,1.904,0.152
1593926408834875,4.457,1.904,0.152
1593926409336963,4.419,1.828,0.152
1593926409838953,4.419,1.828,0.152
1593926410340755,4.457,1.828,0.152
1593926410844540,4.381,1.828,0.152
1593926411346160,4.381,1.828,0.152
1593926411847969,4.419,1.828,0.152
1593926412349435,4.342,1.828,0.152
1593926412851022,4.381,1.828,0.152
1593926413352528,4.381,1.828,0.152
1593926413853965,4.419,1.828,0.152
1593926414355908,4.419,1.828,0.152
1593926414857892,4.457,1.904,0.152
1593926415359879,4.381,1.828,0.152
1593926415861702,4.457,1.904,0.152
1593926416363519,4.419,1.828,0.152
1593926416865479,4.419,1.828,0.152
1593926417367490,4.381,1.828,0.152
1593926417869412,4.342,1.828,0.152
1593926418371475,4.381,1.828,0.152
1593926418873500,4.342,1.828,0.152
1593926419375479,4.381,1.828,0.152
1593926419877354,4.381,1.828,0.152
1593926420379254,4.381,1.828,0.152
1593926420881336,4.381,1.828,0.152
1593926421383275,4.381,1.828,0.152
1593926421885178,4.381,1.828,0.152
1593926422387004,4.381,1.828,0.152
1593926422888986,4.381,1.828,0.152
1593926423390813,4.381,1.828,0.152
1593926423892902,4.381,1.828,0.152
1593926424394772,4.381,1.828,0.152
1593926424896723,4.419,1.904,0.152
1593926425398706,4.419,1.904,0.152
1593926425901113,4.381,1.828,0.152
1593926426403041,4.419,1.828,0.152
1593926426905188,4.342,1.828,0.152
1593926427407127,4.342,1.828,0.152
1593926427909083,4.381,1.828,0.152
1593926428410961,4.419,1.828,0.152
1593926428912978,4.419,1.904,0.152
1593926429414953,4.495,1.904,0.152
1593926429921704,4.457,1.904,0.152
1593926430423286,4.381,1.828,0.152
1593926430924876,4.342,1.828,0.152
1593926431428803,4.342,1.828,0.152
1593926431931239,4.381,1.828,0.152
1593926432433266,4.381,1.828,0.152
1593926432940515,4.381,1.828,0.152
1593926433442364,4.419,1.904,0.152
1593926433944480,4.419,1.828,0.152
1593926434446410,4.457,1.904,0.152
1593926434948439,4.457,1.904,0.152
1593926435449984,4.381,1.828,0.152
1593926435951633,4.381,1.828,0.152
1593926436453109,4.381,1.828,0.152
1593926436954694,4.419,1.828,0.152
1593926437456585,4.419,1.828,0.152
1593926437958312,4.381,1.828,0.152
1593926438460031,4.381,1.828,0.152
1593926438961857,4.342,1.828,0.152
1593926439463430,4.342,1.828,0.152
1593926439964943,4.419,1.828,0.152
1593926440466446,4.381,1.828,0.152
1593926440972431,4.342,1.828,0.152
1593926441475403,4.381,1.828,0.152
1593926441977022,4.419,1.828,0.152
1593926442478526,4.342,1.828,0.152
1593926442980039,4.381,1.828,0.152
1593926443481517,4.342,1.828,0.152
1593926443982987,4.419,1.828,0.152
1593926444484545,4.381,1.828,0.152
1593926444986379,4.419,1.828,0.152
1593926445488017,4.342,1.828,0.152
1593926445989570,4.342,1.828,0.152
1593926446496479,4.342,1.828,0.152
1593926446998430,4.342,1.828,0.152
1593926447500481,4.342,1.828,0.152
1593926448002272,4.419,1.828,0.152
1593926448504273,4.342,1.752,0.152
1593926449006445,4.304,1.752,0.152
1593926449508499,4.342,1.828,0.152
1593926450010345,4.381,1.828,0.152
1593926450514922,4.419,1.828,0.152
1593926451016811,4.419,1.828,0.152
1593926451518741,4.381,1.828,0.152
1593926452020782,4.419,1.828,0.152
1593926452522752,4.381,1.828,0.152
1593926453024792,4.381,1.828,0.152
1593926453533199,4.381,1.828,0.152
1593926454035185,4.457,1.828,0.152
1593926454537249,4.419,1.828,0.152
1593926455039109,4.457,1.904,0.152
1593926455543671,4.419,1.904,0.152
1593926456045481,4.495,1.828,0.152
1593926456547501,4.76,1.904,0.152
1593926457049333,4.836,1.904,0.152
1593926457551219,4.798,1.904,0.152
1593926458053393,4.645,1.904,0.152
1593926458555227,4.533,1.904,0.152
1593926459057234,4.419,1.828,0.152
1593926459558811,4.419,1.904,0.152
1593926460060548,4.457,1.904,0.152
1593926460562227,4.419,1.904,0.152
1593926461064266,4.457,1.904,0.152
1593926461566156,4.419,1.904,0.152
1593926462068424,4.419,1.828,0.152
1593926462570322,4.419,1.828,0.152
