TimeStamp,Total Power,CPU Power,GPU Power
1592953856280258,1.83,0.534,0.152
1592953856781798,1.753,0.534,0.152
1592953857283337,1.753,0.61,0.152
1592953857784835,1.792,0.61,0.152
1592953858286371,1.868,0.61,0.152
1592953858787947,1.868,0.61,0.152
1592953859289448,1.868,0.61,0.152
1592953859790949,1.868,0.61,0.152
1592953860292453,1.83,0.61,0.152
1592953860793952,1.792,0.61,0.152
1592953861295463,1.792,0.61,0.152
1592953861796993,1.868,0.61,0.152
