TimeStamp,Total Power,CPU Power,GPU Power
1592951516649088,4,1.372,0.152
1592951517150576,4.114,1.448,0.152
1592951517652004,4,1.448,0.152
1592951518153427,4,1.448,0.152
1592951518654852,4,1.448,0.152
1592951519156281,4.038,1.448,0.152
1592951519657684,4,1.448,0.152
1592951520159118,4,1.448,0.152
1592951520660561,3.961,1.448,0.152
1592951521161981,3.961,1.448,0.152
1592951521663388,4,1.448,0.152
1592951522164800,4.038,1.448,0.152
1592951522666223,3.961,1.448,0.152
1592951523167630,3.961,1.372,0.152
1592951523669023,4,1.448,0.152
1592951524170437,4.038,1.448,0.152
1592951524671895,4,1.448,0.152
1592951525173351,3.961,1.372,0.152
1592951525674805,4,1.448,0.152
1592951526176297,4,1.448,0.152
1592951526677722,4.038,1.448,0.152
1592951527179139,4,1.448,0.152
1592951527680618,4,1.448,0.152
1592951528182065,3.961,1.448,0.152
1592951528683520,4,1.448,0.152
1592951529185127,4.038,1.448,0.152
1592951529686556,3.961,1.372,0.152
