timestamp	VIRTUAL_SCALING	CPU0_F	CPU1_F	CPU2_F	CPU3_F	CPU4_F	CPU5_F	GPU_FREQ	CPU_GOVERNOR	EMC_F	TEMP0	TEMP1	TEMP2	TEMP3	TEMP4	TEMP5	TEMP6	TEMP7
1592953334907938276	1	345	960	960	345	345	345	114750000	performance	665	30	30	29	30	28	26	100	29
1592953335186822790 	0	345	959	959	345	345	345	114750000	performance	665	30	30	29	30	28	26	100	29
1592953337278465545	1	345	960	960	345	345	345	114750000	performance	665	30	30	29	30	28	26	100	29
1592953337782170598 	0	345	960	960	345	345	345	114750000	performance	665	30	30	28	30	28	26	100	29
1592953339914122181	1	345	960	960	345	345	345	114750000	performance	665	30	30	28	30	28	26	100	29
1592953340432232207 	0	346	959	960	345	345	345	114750000	performance	665	30	30	28	30	28	26	100	29
1592953342558232380	1	345	960	960	345	345	345	114750000	performance	665	30	30	28	30	28	26	100	29
1592953343067986796 	0	345	959	959	345	345	345	114750000	performance	665	30	30	28	29	28	26	100	29
1592953345186235489	1	345	960	960	345	345	345	114750000	performance	665	29	30	28	30	28	26	100	29
1592953345666218484 	0	345	960	960	345	345	345	114750000	performance	665	30	30	28	30	28	26	100	29
1592953347773987401	1	345	960	960	345	345	345	114750000	performance	665	30	30	28	30	28	26	100	29
1592953348286631458 	0	345	959	959	345	345	345	114750000	performance	665	30	30	28	30	28	26	100	29
1592953350406894685	1	345	960	960	345	345	345	114750000	performance	665	30	30	28	29	28	26	100	28
1592953350913997221 	0	345	960	960	345	345	346	114750000	performance	665	29	29	28	29	28	26	100	29
1592953353034054943	1	345	960	960	345	345	345	114750000	performance	665	30	29	28	29	27	26	100	28
1592953353543877903 	0	345	960	961	345	345	345	114750000	performance	665	29	29	28	29	27	26	100	28
1592953355673919817	1	345	960	960	345	345	345	114750000	performance	665	29	29	28	29	27	25	100	28
1592953356172370390 	0	345	960	960	345	345	345	114750000	performance	665	29	29	28	29	27	26	100	28
1592953358296393981	1	345	960	960	345	345	345	114750000	performance	665	29	29	28	29	27	25	100	28
1592953358812104991 	0	345	960	960	345	345	345	114750000	performance	665	29	29	28	29	27	26	100	28
1592953360953107611	1	345	960	960	345	345	345	114750000	performance	665	29	29	28	29	27	25	100	28
1592953361464791729 	0	345	959	959	345	345	345	114750000	performance	665	29	29	28	29	27	25	100	28
1592953363575946704	1	345	960	960	345	345	345	114750000	performance	665	29	29	28	29	27	25	100	28
1592953364074203484 	0	345	959	959	345	345	345	114750000	performance	665	29	29	28	29	27	25	100	28
1592953365827045634	1	345	960	960	345	345	345	114750000	performance	665	29	29	28	29	27	25	100	28
