timestamp	VIRTUAL_SCALING	CPU0_F	CPU1_F	CPU2_F	CPU3_F	CPU4_F	CPU5_F	GPU_FREQ	CPU_GOVERNOR	EMC_F	TEMP0	TEMP1	TEMP2	TEMP3	TEMP4	TEMP5	TEMP6	TEMP7
1592951186684657284	1	499	345	345	499	499	499	114750000	performance	408	38	38	36	38	35	35	100	37
1592951186859852861 	0	498	345	345	499	499	499	114750000	performance	408	38	38	36	38	35	35	100	37
1592951190877342718	1	499	345	345	499	499	499	114750000	performance	408	37	37	36	37	35	34	100	36
1592951192232451888 	0	498	345	345	499	499	499	114750000	performance	408	37	37	35	37	35	34	100	36
1592951195368635580	1	499	345	345	499	499	499	114750000	performance	408	37	37	35	37	35	34	100	36
1592951197621128796 	0	498	345	345	499	499	498	114750000	performance	408	36	36	35	37	35	33	100	36
1592951201440667270	1	499	345	345	499	499	499	114750000	performance	408	36	36	35	36	35	33	100	35
1592951202891968724 	0	499	345	345	499	498	498	114750000	performance	408	36	36	35	36	35	33	100	35
