timestamp	VIRTUAL_SCALING	CPU0_F	CPU1_F	CPU2_F	CPU3_F	CPU4_F	CPU5_F	GPU_FREQ	CPU_GOVERNOR	EMC_F	TEMP0	TEMP1	TEMP2	TEMP3	TEMP4	TEMP5	TEMP6	TEMP7
1592831341286205745	1	1728	1113	1113	1728	1728	1728	114750000	performance	1866	31	31	29	31	28	27	100	30
1592831341572880810 	0	1728	1112	1113	1726	1727	1727	114750000	performance	1866	31	31	29	31	28	27	100	30
1592831343872580275	1	1728	1113	1113	1728	1728	1728	114750000	performance	1866	31	31	29	31	28	27	100	30
1592831344368222935 	0	1728	1112	1114	1728	1727	1729	114750000	performance	1866	31	31	29	31	28	27	100	30
1592831346660555502	1	1728	1113	1113	1728	1728	1728	114750000	performance	1866	31	31	29	31	28	27	100	30
1592831347132259341 	0	1728	1113	1113	1727	1729	1726	114750000	performance	1866	31	31	29	31	28	27	100	30
1592831349310246390	1	1728	1113	1113	1728	1728	1728	114750000	performance	1866	31	31	29	31	28	27	100	30
1592831349784365725 	0	1727	1113	1113	1729	1727	1729	114750000	performance	1866	31	31	29	31	28	27	100	30
1592831351918173590	1	1728	1113	1113	1728	1728	1728	114750000	performance	1866	31	31	29	31	28	27	100	30
1592831352383964276 	0	1728	1113	1114	1727	1729	1729	114750000	performance	1866	31	31	29	31	28	27	100	30
1592831354478071279	1	1728	1113	1113	1728	1728	1728	114750000	performance	1866	31	31	29	31	28	27	100	30
1592831354964354614 	0	1728	1113	1114	1730	1729	1728	114750000	performance	1866	31	31	29	31	28	27	100	30
1592831357072399518	1	1728	1113	1113	1728	1728	1728	114750000	performance	1866	31	31	29	31	28	27	100	30
1592831357532364985 	0	1727	1113	1113	1728	1725	1729	114750000	performance	1866	31	31	29	31	28	27	100	30
1592831359590133459	1	1728	1113	1113	1728	1728	1728	114750000	performance	1866	31	31	29	31	28	27	100	30
1592831360056221837 	0	1729	1113	1113	1728	1731	1733	114750000	performance	1866	31	31	29	31	28	27	100	30
1592831362154277119	1	1728	1113	1113	1728	1728	1728	114750000	performance	1866	31	31	29	31	28	27	100	30
1592831362628290182 	0	1728	1114	1113	1729	1729	1730	114750000	performance	1866	31	31	29	31	28	27	100	30
1592831364714303798	1	1728	1113	1113	1728	1728	1728	114750000	performance	1866	31	31	29	31	28	27	100	30
1592831365188443261 	0	1727	1113	1113	1729	1729	1728	114750000	performance	1866	31	31	29	31	28	27	100	30
1592831367280422222	1	1728	1113	1113	1728	1728	1728	114750000	performance	1866	31	31	29	31	28	27	100	30
1592831367758389996 	0	1730	1113	1113	1729	1728	1728	114750000	performance	1866	31	31	29	31	28	27	100	30
1592831369864283275	1	1728	1113	1113	1728	1728	1728	114750000	performance	1866	31	31	29	31	28	27	100	30
1592831370424515304 	0	1731	1113	1113	1728	1729	1728	114750000	performance	1866	31	31	29	31	28	27	100	30
1592831372530360391	1	1728	1113	1113	1728	1728	1728	114750000	performance	1866	31	31	29	31	28	27	100	30
1592831373104041079 	0	1729	1113	1113	1728	1727	1730	114750000	performance	1866	31	31	29	31	28	27	100	30
1592831375203234748	1	1728	1113	1113	1728	1728	1728	114750000	performance	1866	31	31	29	31	28	27	100	30
1592831375792498472 	0	1728	1113	1114	1728	1728	1731	114750000	performance	1866	31	31	29	31	28	27	100	30
1592831377948377497	1	1728	1113	1113	1728	1728	1728	114750000	performance	1866	31	31	29	31	28	27	100	30
1592831378534519654 	0	1728	1113	1113	1728	1731	1731	114750000	performance	1866	31	31	29	31	28	27	100	30
1592831380720659641	1	1728	1113	1113	1728	1728	1728	114750000	performance	1866	31	31	29	31	28	27	100	30
1592831381316480479 	0	1729	1114	1113	1728	1728	1728	114750000	performance	1866	31	31	29	31	28	27	100	30
1592831383556762041	1	1728	1113	1113	1728	1728	1728	114750000	performance	1866	31	31	29	31	28	27	100	30
1592831384144435222 	0	1730	1113	1113	1729	1729	1727	114750000	performance	1866	31	31	29	31	28	27	100	30
1592831386420488119	1	1728	1113	1113	1728	1728	1728	114750000	performance	1866	31	31	29	31	28	27	100	30
1592831386984382990 	0	1728	1113	1113	1730	1729	1730	114750000	performance	1866	31	31	29	31	28	27	100	30
1592831389248494125	1	1728	1113	1113	1728	1728	1728	114750000	performance	1866	31	31	29	31	28	27	100	31
1592831389790229164 	0	1728	1114	1113	1728	1728	1727	114750000	performance	1866	31	31	29	31	28	27	100	30
1592831392069412813	1	1728	1113	1113	1728	1728	1728	114750000	performance	1866	32	31	29	31	28	27	100	30
1592831392550270349 	0	1727	1113	1113	1729	1729	1730	114750000	performance	1866	31	31	29	31	28	27	100	30
1592831394740457557	1	1728	1113	1113	1728	1728	1728	114750000	performance	1866	31	31	30	31	28	27	100	31
1592831395182272879 	0	1728	1113	1113	1729	1730	1729	114750000	performance	1866	31	32	29	31	28	27	100	31
1592831397350283361	1	1728	1113	1113	1728	1728	1728	114750000	performance	1866	32	31	29	31	28	27	100	30
1592831397844560660 	0	1727	1113	1113	1727	1727	1728	114750000	performance	1866	31	31	29	31	28	27	100	30
1592831399972282541	1	1728	1113	1113	1728	1728	1728	114750000	performance	1866	31	31	30	31	28	27	100	30
1592831400470621301 	0	1728	1113	1113	1727	1727	1727	114750000	performance	1866	31	31	29	31	28	27	100	30
