TimeStamp,Total Power,CPU Power,GPU Power
1592833402724719,6.359,3.884,0.152
1592833403226029,6.168,3.655,0.152
1592833403727338,6.473,3.96,0.152
1592833404228565,6.549,4.036,0.152
1592833404730896,6.625,4.036,0.152
1592833405232230,6.549,4.036,0.152
1592833405733533,6.549,4.112,0.152
1592833406234754,6.664,4.112,0.152
1592833406738527,6.587,4.112,0.152
1592833407239851,6.702,4.036,0.152
1592833407741108,6.587,4.036,0.152
1592833408242375,6.549,4.112,0.152
1592833408743613,6.549,4.112,0.152
1592833409245014,6.511,4.036,0.152
1592833409746397,6.511,3.96,0.152
1592833410247745,6.511,4.036,0.152
1592833410748984,6.549,4.112,0.152
1592833411250157,6.549,4.112,0.152
1592833411753336,6.549,4.036,0.152
1592833412254631,6.511,4.036,0.152
1592833412755900,6.549,4.112,0.152
1592833413257184,6.549,4.112,0.152
1592833413758515,6.549,4.036,0.152
1592833414259824,6.511,3.96,0.152
1592833414761056,6.511,4.036,0.152
1592833415262258,6.549,4.112,0.152
1592833415763427,6.549,4.112,0.152
1592833416264716,6.587,4.036,0.152
1592833416766079,6.74,3.96,0.152
1592833417267290,6.625,4.036,0.152
1592833417768494,6.587,4.112,0.152
1592833418269651,6.549,4.112,0.152
1592833418770828,6.702,4.036,0.152
1592833419272037,6.587,4.036,0.152
1592833419773225,6.549,4.112,0.152
1592833420274387,6.549,4.112,0.152
1592833420775545,6.511,4.036,0.152
1592833421276737,6.511,4.036,0.152
1592833421779816,6.549,4.036,0.152
1592833422280975,6.549,4.112,0.152
1592833422782138,6.549,4.036,0.152
1592833423283303,6.549,4.036,0.152
1592833423784483,6.587,4.036,0.152
1592833424285641,6.549,4.036,0.152
1592833424786787,6.549,4.112,0.152
1592833425287964,6.549,4.036,0.152
1592833425789272,6.549,4.036,0.152
1592833426290613,6.549,4.036,0.152
1592833426791958,6.549,4.112,0.152
1592833427293299,6.587,4.036,0.152
1592833427794662,6.549,4.036,0.152
1592833428295991,6.664,4.036,0.152
1592833428797335,6.625,4.036,0.152
1592833429298664,6.549,4.112,0.152
1592833429799991,6.549,4.036,0.152
1592833430301290,6.74,4.036,0.152
1592833430802587,6.587,4.036,0.152
1592833431303902,6.587,4.036,0.152
1592833431805264,6.549,4.036,0.152
1592833432308692,6.511,4.036,0.152
1592833432809862,6.549,4.036,0.152
1592833433311016,6.511,4.036,0.152
1592833433812181,6.511,4.036,0.152
1592833434313404,6.549,4.036,0.152
1592833434814608,6.549,4.036,0.152
1592833435315800,6.549,4.112,0.152
1592833435816965,6.511,4.036,0.152
1592833436318147,6.549,4.036,0.152
1592833436819348,6.587,4.036,0.152
1592833437320540,6.74,4.112,0.152
1592833437821711,6.587,4.112,0.152
1592833438322929,6.587,4.036,0.152
1592833438824140,6.778,4.036,0.152
1592833439326470,6.892,4.112,0.152
1592833439827695,6.702,4.112,0.152
1592833440328993,6.702,4.036,0.152
1592833440830348,6.664,3.96,0.152
1592833441331630,6.664,4.036,0.152
1592833441832908,6.587,4.112,0.152
1592833442334188,6.587,4.112,0.152
1592833442837569,6.511,4.036,0.152
1592833443338762,6.511,3.96,0.152
1592833443839939,6.549,4.112,0.152
1592833444341102,6.549,4.112,0.152
1592833444842251,6.549,4.112,0.152
1592833445343415,6.511,4.036,0.152
1592833445844624,6.625,4.036,0.152
1592833446345814,6.587,4.112,0.152
1592833446846990,6.587,4.112,0.152
1592833447348199,6.549,4.112,0.152
1592833447851320,6.511,4.036,0.152
1592833448352514,6.511,4.036,0.152
1592833448853671,6.587,4.112,0.152
1592833449354810,6.74,4.112,0.152
1592833449855975,6.702,4.036,0.152
1592833450357172,6.549,3.96,0.152
1592833450858345,6.549,4.036,0.152
1592833451359491,6.664,4.112,0.152
1592833451860658,6.74,4.112,0.152
1592833452361858,6.587,4.036,0.152
1592833452864983,6.549,4.036,0.152
1592833453366159,6.549,4.112,0.152
1592833453867317,6.549,4.112,0.152
1592833454368513,6.549,4.112,0.152
1592833454869699,6.511,4.036,0.152
1592833455370882,6.511,4.036,0.152
1592833455872040,6.549,4.036,0.152
1592833456373209,6.549,4.112,0.152
1592833456874380,6.549,4.036,0.152
1592833457375583,6.511,4.036,0.152
1592833457876810,6.511,4.036,0.152
1592833458377980,6.549,4.112,0.152
1592833458879168,6.549,4.112,0.152
1592833459380375,6.549,4.036,0.152
1592833459881569,6.511,4.036,0.152
1592833460382753,6.549,4.036,0.152
1592833460883918,6.549,4.112,0.152
1592833461385106,6.549,4.112,0.152
1592833461886297,6.549,4.036,0.152
1592833462387506,6.664,4.036,0.152
1592833462890716,6.664,4.112,0.152
