TimeStamp,Total Power,CPU Power,GPU Power
1593972043543780,3.885,1.295,0.152
1593972044045032,3.428,0.838,0.152
1593972044547986,3.238,0.686,0.152
1593972045049216,3.657,1.143,0.152
1593972045550443,3.809,1.219,0.152
1593972046051705,3.809,1.295,0.152
1593972046552932,3.847,1.295,0.152
1593972047054167,3.847,1.295,0.152
1593972047555424,3.847,1.295,0.152
1593972048056659,3.847,1.295,0.152
1593972048557925,3.847,1.295,0.152
1593972049059158,3.847,1.295,0.152
1593972049560425,3.847,1.295,0.152
1593972050061684,3.809,1.295,0.152
1593972050562915,3.847,1.295,0.152
1593972051064194,3.847,1.295,0.152
1593972051565444,3.847,1.295,0.152
1593972052066734,3.847,1.295,0.152
1593972052567972,3.847,1.295,0.152
1593972053070530,3.809,1.295,0.152
1593972053571777,3.847,1.295,0.152
1593972054073029,3.847,1.295,0.152
1593972054574265,3.847,1.295,0.152
1593972055075507,3.847,1.295,0.152
1593972055576731,3.847,1.295,0.152
1593972056077972,3.847,1.295,0.152
1593972056579269,3.809,1.219,0.152
1593972057080524,3.809,1.295,0.152
1593972057581783,3.809,1.295,0.152
1593972058083020,3.847,1.295,0.152
1593972058586155,3.809,1.295,0.152
1593972059087403,3.847,1.295,0.152
1593972059588627,3.847,1.295,0.152
1593972060089866,3.847,1.295,0.152
1593972060591095,3.847,1.295,0.152
1593972061092360,3.847,1.295,0.152
1593972061593597,3.809,1.295,0.152
1593972062094844,3.809,1.295,0.152
1593972062596091,3.847,1.295,0.152
1593972063097354,3.847,1.295,0.152
1593972063600622,3.847,1.295,0.152
1593972064101878,3.847,1.295,0.152
1593972064603104,3.847,1.295,0.152
1593972065104334,3.847,1.295,0.152
1593972065605573,3.847,1.295,0.152
1593972066106824,3.847,1.295,0.152
1593972066608067,3.847,1.295,0.152
1593972067109298,3.847,1.295,0.152
1593972067610530,3.847,1.295,0.152
1593972068111761,3.961,1.295,0.152
1593972068614555,4.19,1.295,0.152
1593972069115788,4.228,1.295,0.152
1593972069617031,4.19,1.219,0.152
1593972070118251,3.961,1.219,0.152
1593972070619501,3.885,1.295,0.152
1593972071120761,3.847,1.295,0.152
1593972071622005,3.809,1.295,0.152
1593972072123352,3.847,1.295,0.152
1593972072624577,3.847,1.295,0.152
1593972073125803,3.809,1.295,0.152
1593972073628912,3.847,1.295,0.152
1593972074130148,3.847,1.295,0.152
1593972074631388,3.847,1.295,0.152
1593972075132622,3.847,1.295,0.152
1593972075633849,3.847,1.295,0.152
1593972076135071,3.809,1.295,0.152
1593972076636324,3.847,1.295,0.152
1593972077137567,3.847,1.295,0.152
1593972077638834,3.847,1.295,0.152
1593972078140072,3.847,1.295,0.152
1593972078643642,3.809,1.295,0.152
1593972079144873,3.847,1.295,0.152
1593972079646130,3.809,1.295,0.152
1593972080147392,3.847,1.295,0.152
1593972080648592,3.847,1.295,0.152
1593972081149906,3.809,1.219,0.152
1593972081651136,3.847,1.295,0.152
1593972082152358,3.809,1.295,0.152
1593972082653634,3.847,1.295,0.152
1593972083154873,3.847,1.295,0.152
1593972083658044,3.847,1.295,0.152
1593972084159297,3.847,1.295,0.152
1593972084660550,3.847,1.295,0.152
1593972085161775,3.847,1.295,0.152
1593972085663031,3.847,1.295,0.152
1593972086164269,3.809,1.295,0.152
1593972086665538,3.809,1.295,0.152
1593972087166760,3.847,1.295,0.152
1593972087668060,3.847,1.295,0.152
1593972088169287,3.847,1.295,0.152
1593972088672430,3.809,1.295,0.152
1593972089173666,3.847,1.295,0.152
1593972089674907,3.847,1.295,0.152
1593972090176207,3.847,1.295,0.152
1593972090677457,3.847,1.295,0.152
1593972091178701,3.847,1.295,0.152
1593972091679950,3.847,1.295,0.152
1593972092181184,3.847,1.295,0.152
1593972092682447,3.847,1.295,0.152
1593972093183703,3.847,1.295,0.152
1593972093686847,3.847,1.295,0.152
1593972094188094,3.847,1.295,0.152
1593972094689339,3.847,1.295,0.152
1593972095190629,3.847,1.295,0.152
1593972095691911,3.809,1.295,0.152
1593972096193151,3.809,1.295,0.152
1593972096694378,3.847,1.295,0.152
1593972097195618,3.847,1.295,0.152
1593972097696868,3.847,1.295,0.152
1593972098198092,3.847,1.295,0.152
1593972098701220,3.847,1.295,0.152
1593972099202482,3.847,1.295,0.152
1593972099703729,3.847,1.295,0.152
1593972100204960,3.847,1.295,0.152
1593972100706252,3.847,1.295,0.152
1593972101207510,3.847,1.295,0.152
1593972101708809,3.847,1.295,0.152
1593972102210037,3.847,1.295,0.152
1593972102711276,3.809,1.295,0.152
1593972103212564,3.847,1.295,0.152
1593972103713815,3.847,1.295,0.152
1593972104215040,3.847,1.295,0.152
1593972104716288,3.847,1.295,0.152
1593972105217535,3.847,1.295,0.152
1593972105718749,3.847,1.295,0.152
1593972106219972,3.847,1.295,0.152
1593972106721202,3.847,1.295,0.152
1593972107222479,3.847,1.295,0.152
1593972107723745,3.847,1.295,0.152
1593972108225015,3.847,1.295,0.152
1593972108726240,3.847,1.295,0.152
1593972109227507,3.847,1.295,0.152
1593972109728757,3.847,1.295,0.152
1593972110229991,3.847,1.295,0.152
1593972110731215,3.847,1.295,0.152
1593972111232437,3.809,1.295,0.152
1593972111733727,3.847,1.295,0.152
1593972112234964,3.847,1.295,0.152
1593972112736321,3.847,1.295,0.152
1593972113237574,3.809,1.295,0.152
1593972113738819,3.847,1.295,0.152
1593972114240056,3.847,1.295,0.152
1593972114741334,3.847,1.295,0.152
1593972115242561,3.847,1.295,0.152
1593972115743802,3.847,1.295,0.152
1593972116245029,3.847,1.295,0.152
1593972116746254,3.847,1.295,0.152
1593972117247499,3.847,1.295,0.152
1593972117748741,3.847,1.295,0.152
1593972118250032,3.847,1.295,0.152
1593972118751283,3.847,1.295,0.152
1593972119254923,3.847,1.295,0.152
1593972119756148,3.847,1.295,0.152
1593972120257375,3.809,1.295,0.152
1593972120758607,3.847,1.295,0.152
1593972121259876,3.847,1.295,0.152
1593972121761114,3.847,1.295,0.152
1593972122262345,3.847,1.295,0.152
1593972122767719,3.847,1.295,0.152
1593972123268965,3.847,1.295,0.152
1593972123770203,3.847,1.295,0.152
1593972124273571,3.847,1.295,0.152
1593972124774828,3.809,1.219,0.152
1593972125276063,3.809,1.295,0.152
1593972125777308,3.809,1.295,0.152
1593972126278548,3.847,1.295,0.152
1593972126779791,3.847,1.295,0.152
1593972127281029,3.847,1.295,0.152
1593972127782269,3.847,1.295,0.152
1593972128283515,3.847,1.295,0.152
1593972128784741,3.771,1.219,0.152
1593972129287967,3.809,1.295,0.152
1593972129789199,3.847,1.295,0.152
1593972130290443,3.847,1.295,0.152
1593972130791725,3.847,1.295,0.152
1593972131292964,4.076,1.295,0.152
1593972131794211,4.19,1.295,0.152
1593972132295464,4.228,1.295,0.152
1593972132796715,4.114,1.219,0.152
1593972133297945,3.923,1.219,0.152
1593972133799177,3.847,1.295,0.152
1593972134302397,3.847,1.295,0.152
1593972134803822,3.847,1.295,0.152
1593972135305097,3.847,1.295,0.152
1593972135806320,3.847,1.295,0.152
1593972136307604,3.847,1.295,0.152
1593972136808829,3.847,1.295,0.152
1593972137310108,3.847,1.295,0.152
1593972137811372,3.847,1.295,0.152
1593972138313885,3.847,1.295,0.152
1593972138815140,3.847,1.295,0.152
1593972139318465,3.847,1.295,0.152
1593972139819775,3.847,1.295,0.152
1593972140320998,3.847,1.295,0.152
1593972140822222,3.847,1.295,0.152
1593972141323472,3.809,1.295,0.152
1593972141824714,3.847,1.295,0.152
1593972142325953,3.847,1.295,0.152
1593972142827221,3.847,1.295,0.152
1593972143328429,3.847,1.295,0.152
1593972143829707,3.847,1.295,0.152
1593972144332848,3.809,1.295,0.152
1593972144834131,3.809,1.295,0.152
1593972145335385,3.847,1.295,0.152
1593972145836687,3.847,1.295,0.152
1593972146337925,3.847,1.295,0.152
1593972146839157,3.847,1.295,0.152
1593972147340441,3.847,1.295,0.152
1593972147841680,3.809,1.295,0.152
1593972148342911,3.847,1.295,0.152
1593972148844146,3.847,1.295,0.152
1593972149347326,3.847,1.295,0.152
1593972149848593,3.847,1.295,0.152
1593972150349863,3.847,1.295,0.152
1593972150851091,3.847,1.295,0.152
1593972151352348,3.847,1.295,0.152
1593972151853590,3.847,1.295,0.152
1593972152354825,3.809,1.295,0.152
1593972152856093,3.847,1.295,0.152
1593972153357341,3.847,1.295,0.152
1593972153858595,3.847,1.295,0.152
1593972154361791,3.847,1.295,0.152
1593972154863023,3.847,1.295,0.152
1593972155364255,3.847,1.295,0.152
1593972155865524,3.847,1.295,0.152
1593972156366770,3.847,1.295,0.152
1593972156868060,3.847,1.295,0.152
1593972157369298,3.847,1.295,0.152
1593972157870549,3.847,1.295,0.152
1593972158371780,3.847,1.295,0.152
1593972158873072,3.847,1.295,0.152
1593972159376260,3.847,1.295,0.152
1593972159877535,3.847,1.295,0.152
1593972160378810,3.847,1.295,0.152
1593972160880093,3.847,1.295,0.152
1593972161381359,3.847,1.295,0.152
1593972161882635,3.847,1.295,0.152
1593972162383954,3.847,1.295,0.152
1593972162885213,3.809,1.295,0.152
1593972163386415,3.847,1.295,0.152
1593972163887767,3.847,1.295,0.152
1593972164390993,3.847,1.295,0.152
1593972164892261,3.847,1.295,0.152
1593972165393501,3.847,1.295,0.152
1593972165894745,3.847,1.295,0.152
1593972166395968,3.847,1.295,0.152
1593972166897193,3.809,1.219,0.152
1593972167398481,3.809,1.295,0.152
1593972167899708,3.809,1.295,0.152
1593972168400969,3.847,1.295,0.152
1593972168902197,3.847,1.295,0.152
1593972169403469,3.847,1.295,0.152
1593972169904704,3.847,1.295,0.152
1593972170405931,3.847,1.295,0.152
1593972170907168,3.847,1.295,0.152
1593972171408426,3.847,1.295,0.152
1593972171909693,3.847,1.295,0.152
1593972172410966,3.809,1.295,0.152
1593972172912235,3.847,1.295,0.152
1593972173413479,3.847,1.295,0.152
1593972173914757,3.847,1.295,0.152
1593972174418134,3.847,1.295,0.152
1593972174919409,3.847,1.295,0.152
1593972175420656,3.847,1.295,0.152
1593972175921916,3.847,1.295,0.152
1593972176423152,3.847,1.295,0.152
1593972176924424,3.847,1.295,0.152
1593972177425653,3.847,1.295,0.152
1593972177926889,3.847,1.295,0.152
1593972178428148,3.809,1.219,0.152
1593972178929393,3.847,1.295,0.152
1593972179432519,3.847,1.295,0.152
1593972179933761,3.847,1.295,0.152
1593972180435001,3.847,1.295,0.152
1593972180936260,3.847,1.295,0.152
1593972181437517,3.847,1.295,0.152
1593972181938757,3.847,1.295,0.152
1593972182439973,3.847,1.295,0.152
1593972182941207,3.847,1.295,0.152
1593972183442459,3.847,1.295,0.152
1593972183943719,3.847,1.295,0.152
1593972184446865,3.847,1.295,0.152
1593972184948100,3.847,1.295,0.152
1593972185449340,3.847,1.295,0.152
1593972185950579,3.847,1.295,0.152
1593972186451817,3.847,1.295,0.152
1593972186953074,3.847,1.295,0.152
1593972187454316,3.847,1.295,0.152
1593972187955546,3.847,1.295,0.152
1593972188456766,3.847,1.295,0.152
1593972188958005,3.847,1.295,0.152
1593972189461144,3.847,1.295,0.152
1593972189962394,3.847,1.295,0.152
1593972190463643,3.847,1.295,0.152
1593972190964870,3.847,1.295,0.152
1593972191466119,3.847,1.295,0.152
1593972191967365,3.847,1.295,0.152
1593972192468601,3.847,1.295,0.152
1593972192969829,3.847,1.295,0.152
1593972193471063,3.847,1.295,0.152
1593972193972366,3.885,1.295,0.152
1593972194475676,4.114,1.295,0.152
1593972194976890,4.19,1.295,0.152
1593972195478115,4.228,1.295,0.152
1593972195979362,4,1.295,0.152
1593972196480609,3.885,1.295,0.152
1593972196981828,3.847,1.295,0.152
1593972197488260,3.847,1.295,0.152
1593972197989494,3.847,1.295,0.152
1593972198490738,3.847,1.295,0.152
1593972198991931,3.847,1.295,0.152
1593972199495095,3.847,1.295,0.152
1593972199996356,3.847,1.295,0.152
1593972200497650,3.847,1.295,0.152
1593972200998876,3.847,1.295,0.152
1593972201500156,3.847,1.295,0.152
1593972202001384,3.847,1.295,0.152
1593972202502680,3.847,1.295,0.152
1593972203003944,3.847,1.295,0.152
1593972203505186,3.809,1.295,0.152
1593972204006448,3.847,1.295,0.152
1593972204509622,3.847,1.295,0.152
1593972205010848,3.847,1.295,0.152
1593972205512104,3.847,1.295,0.152
1593972206013344,3.847,1.295,0.152
1593972206514595,3.847,1.295,0.152
1593972207015826,3.847,1.295,0.152
1593972207517061,3.847,1.295,0.152
1593972208018320,3.847,1.295,0.152
1593972208519551,3.847,1.295,0.152
1593972209020833,3.847,1.295,0.152
1593972209523995,3.847,1.295,0.152
1593972210025281,3.847,1.295,0.152
1593972210526518,3.847,1.295,0.152
1593972211027813,3.847,1.295,0.152
1593972211529044,3.847,1.295,0.152
1593972212030276,3.847,1.295,0.152
1593972212531522,3.847,1.295,0.152
1593972213032766,3.847,1.295,0.152
1593972213533989,3.847,1.295,0.152
1593972214035224,3.847,1.295,0.152
1593972214538414,3.847,1.295,0.152
1593972215039635,3.847,1.295,0.152
1593972215540865,3.847,1.295,0.152
1593972216042099,3.847,1.295,0.152
1593972216543332,3.847,1.295,0.152
1593972217044565,3.847,1.295,0.152
1593972217545801,3.847,1.295,0.152
1593972218047034,3.847,1.295,0.152
1593972218548348,3.847,1.295,0.152
1593972219049612,3.847,1.295,0.152
1593972219552820,3.847,1.295,0.152
1593972220054045,3.847,1.295,0.152
1593972220555351,3.847,1.295,0.152
1593972221056586,3.847,1.295,0.152
1593972221557907,3.847,1.295,0.152
1593972222059149,3.809,1.219,0.152
1593972222560405,3.809,1.295,0.152
1593972223062976,3.847,1.295,0.152
1593972223564246,3.809,1.295,0.152
1593972224065472,3.847,1.295,0.152
1593972224566729,3.847,1.295,0.152
1593972225067982,3.847,1.295,0.152
1593972225569230,3.809,1.295,0.152
1593972226070513,3.847,1.295,0.152
1593972226571758,3.809,1.295,0.152
1593972227073034,3.809,1.219,0.152
1593972227574257,3.847,1.295,0.152
1593972228075486,3.847,1.295,0.152
1593972228576731,3.847,1.295,0.152
1593972229077955,3.847,1.295,0.152
1593972229579172,3.847,1.295,0.152
1593972230080423,3.847,1.295,0.152
1593972230581669,3.847,1.295,0.152
1593972231082874,3.847,1.295,0.152
1593972231584120,3.847,1.295,0.152
1593972232085352,3.847,1.295,0.152
1593972232586581,3.847,1.295,0.152
1593972233087810,3.847,1.295,0.152
1593972233589119,3.809,1.295,0.152
1593972234090347,3.847,1.295,0.152
1593972234591627,3.847,1.295,0.152
1593972235092851,3.847,1.295,0.152
1593972235594092,3.847,1.295,0.152
1593972236095333,3.847,1.295,0.152
1593972236596580,3.809,1.295,0.152
1593972237097809,3.847,1.295,0.152
1593972237599050,3.847,1.295,0.152
1593972238100300,3.847,1.295,0.152
1593972238601547,3.809,1.295,0.152
1593972239102783,3.847,1.295,0.152
1593972239604041,3.847,1.295,0.152
1593972240105310,3.847,1.295,0.152
1593972240606548,3.847,1.295,0.152
1593972241107820,3.847,1.295,0.152
1593972241609047,3.847,1.295,0.152
1593972242110304,3.809,1.295,0.152
1593972242611547,3.847,1.295,0.152
1593972243112789,3.847,1.295,0.152
1593972243614011,3.847,1.295,0.152
1593972244115238,3.847,1.295,0.152
1593972244616483,3.847,1.295,0.152
1593972245117708,3.847,1.295,0.152
1593972245618958,3.847,1.295,0.152
1593972246120221,3.847,1.295,0.152
1593972246621472,3.847,1.295,0.152
1593972247122730,3.847,1.295,0.152
1593972247624006,3.847,1.295,0.152
1593972248125246,3.847,1.295,0.152
1593972248626518,3.847,1.295,0.152
1593972249127769,3.847,1.295,0.152
1593972249629034,3.847,1.295,0.152
1593972250130266,3.847,1.295,0.152
1593972250631557,3.847,1.295,0.152
1593972251132781,3.847,1.295,0.152
1593972251633994,3.847,1.295,0.152
1593972252135233,3.847,1.295,0.152
1593972252636420,3.847,1.295,0.152
1593972253137675,3.847,1.295,0.152
1593972253638934,3.847,1.295,0.152
1593972254140174,3.847,1.295,0.152
1593972254641436,3.809,1.295,0.152
1593972255142697,3.847,1.295,0.152
1593972255643930,3.847,1.295,0.152
1593972256145184,3.809,1.295,0.152
1593972256646423,3.809,1.295,0.152
1593972257147691,3.961,1.295,0.152
1593972257648915,4.19,1.295,0.152
1593972258150139,4.228,1.295,0.152
1593972258658474,4.228,1.219,0.152
1593972259159716,3.961,1.295,0.152
1593972259660973,3.885,1.295,0.152
1593972260162210,3.847,1.295,0.152
1593972260665277,3.847,1.295,0.152
1593972261166507,3.847,1.295,0.152
1593972261667766,3.847,1.295,0.152
1593972262169011,3.847,1.295,0.152
1593972262670262,3.847,1.295,0.152
1593972263171458,3.847,1.295,0.152
1593972263672700,3.847,1.295,0.152
1593972264173917,3.847,1.295,0.152
1593972264675157,3.847,1.295,0.152
1593972265176413,3.847,1.295,0.152
1593972265677672,3.847,1.295,0.152
1593972266178916,3.847,1.295,0.152
1593972266680149,3.847,1.295,0.152
1593972267181439,3.847,1.295,0.152
1593972267682686,3.847,1.295,0.152
1593972268183987,3.847,1.295,0.152
1593972268685220,3.847,1.295,0.152
1593972269186457,3.809,1.295,0.152
1593972269687774,3.847,1.295,0.152
1593972270188996,3.847,1.295,0.152
1593972270690232,3.847,1.295,0.152
1593972271191471,3.847,1.295,0.152
1593972271692711,3.847,1.295,0.152
1593972272193953,3.809,1.295,0.152
1593972272695189,3.847,1.295,0.152
1593972273196463,3.847,1.295,0.152
1593972273697696,3.847,1.295,0.152
1593972274198936,3.847,1.295,0.152
1593972274700244,3.847,1.295,0.152
1593972275201477,3.847,1.295,0.152
1593972275702735,3.809,1.295,0.152
1593972276203966,3.847,1.295,0.152
1593972276705183,3.847,1.295,0.152
1593972277206411,3.847,1.295,0.152
1593972277707660,3.847,1.295,0.152
1593972278208924,3.847,1.295,0.152
1593972278710146,3.847,1.295,0.152
1593972279211402,3.847,1.295,0.152
1593972279712667,3.847,1.295,0.152
1593972280213894,3.847,1.295,0.152
1593972280715150,3.847,1.295,0.152
1593972281218266,3.847,1.295,0.152
1593972281719527,3.847,1.295,0.152
1593972282220780,3.847,1.295,0.152
1593972282722024,3.847,1.295,0.152
1593972283223273,3.847,1.295,0.152
1593972283724541,3.847,1.295,0.152
1593972284225769,3.847,1.295,0.152
1593972284727006,3.847,1.295,0.152
1593972285228291,3.847,1.295,0.152
1593972285729535,3.847,1.295,0.152
1593972286232742,3.847,1.295,0.152
1593972286733990,3.847,1.295,0.152
1593972287235220,3.847,1.295,0.152
1593972287736423,3.847,1.295,0.152
1593972288237648,3.809,1.295,0.152
1593972288738880,3.847,1.295,0.152
1593972289240113,3.847,1.295,0.152
1593972289741358,3.847,1.295,0.152
1593972290242620,3.809,1.295,0.152
1593972290743966,3.809,1.295,0.152
1593972291247144,3.847,1.295,0.152
1593972291748448,3.847,1.295,0.152
1593972292249963,3.847,1.295,0.152
1593972292751255,3.847,1.295,0.152
1593972293252520,3.847,1.295,0.152
1593972293753764,3.847,1.295,0.152
1593972294254990,3.847,1.295,0.152
1593972294756247,3.847,1.295,0.152
1593972295257480,3.847,1.295,0.152
1593972295758717,3.847,1.295,0.152
1593972296261978,3.847,1.295,0.152
1593972296763224,3.809,1.295,0.152
1593972297264429,3.847,1.295,0.152
1593972297765719,3.847,1.295,0.152
1593972298266966,3.847,1.295,0.152
1593972298768222,3.847,1.295,0.152
1593972299269495,3.847,1.295,0.152
1593972299770726,3.847,1.295,0.152
1593972300271979,3.847,1.295,0.152
1593972300773209,3.847,1.295,0.152
1593972301276355,3.809,1.295,0.152
1593972301777608,3.847,1.295,0.152
1593972302278857,3.847,1.295,0.152
1593972302780087,3.847,1.295,0.152
1593972303281315,3.847,1.295,0.152
1593972303782558,3.847,1.295,0.152
1593972304283803,3.847,1.295,0.152
1593972304787624,3.847,1.295,0.152
1593972305288864,3.847,1.295,0.152
1593972305790086,3.847,1.295,0.152
1593972306293213,3.847,1.295,0.152
1593972306794452,3.847,1.295,0.152
1593972307295787,3.847,1.295,0.152
1593972307797036,3.847,1.295,0.152
1593972308298277,3.809,1.295,0.152
1593972308799634,3.847,1.295,0.152
1593972309300876,3.847,1.295,0.152
1593972309802153,3.847,1.295,0.152
1593972310303431,3.847,1.295,0.152
1593972310804697,3.847,1.295,0.152
1593972311307886,3.847,1.295,0.152
1593972311809122,3.809,1.295,0.152
1593972312310354,3.847,1.295,0.152
1593972312811577,3.809,1.295,0.152
1593972313312808,3.847,1.295,0.152
1593972313814061,3.847,1.295,0.152
1593972314315290,3.847,1.295,0.152
1593972314816554,3.847,1.295,0.152
1593972315317798,3.847,1.295,0.152
1593972315819018,3.847,1.295,0.152
1593972316322221,3.847,1.295,0.152
1593972316823450,3.847,1.295,0.152
1593972317324714,3.847,1.295,0.152
1593972317826153,3.847,1.295,0.152
1593972318327424,3.847,1.295,0.152
1593972318828660,3.847,1.295,0.152
1593972319329951,3.847,1.295,0.152
1593972319831201,3.847,1.295,0.152
1593972320332418,4.076,1.295,0.152
1593972320833640,4.19,1.295,0.152
1593972321336784,4.228,1.295,0.152
1593972321838046,4.076,1.219,0.152
1593972322339288,3.923,1.295,0.152
1593972322840606,3.847,1.295,0.152
1593972323341837,3.847,1.295,0.152
1593972323843068,3.847,1.295,0.152
1593972324344298,3.847,1.295,0.152
1593972324845539,3.809,1.295,0.152
1593972325346782,3.847,1.295,0.152
1593972325848121,3.847,1.295,0.152
1593972326351411,3.847,1.295,0.152
1593972326852663,3.847,1.295,0.152
1593972327353882,3.847,1.295,0.152
1593972327855111,3.847,1.295,0.152
1593972328356364,3.847,1.295,0.152
1593972328857594,3.847,1.295,0.152
1593972329358865,3.847,1.295,0.152
1593972329860107,3.847,1.295,0.152
1593972330361385,3.847,1.295,0.152
1593972330862646,3.847,1.295,0.152
1593972331365948,3.847,1.295,0.152
1593972331867196,3.847,1.295,0.152
1593972332368469,3.847,1.295,0.152
1593972332869689,3.847,1.295,0.152
1593972333370984,3.809,1.295,0.152
1593972333872272,3.847,1.295,0.152
1593972334373511,3.847,1.295,0.152
1593972334874740,3.847,1.295,0.152
1593972335375986,3.847,1.295,0.152
1593972335877230,3.847,1.295,0.152
1593972336380370,3.847,1.295,0.152
1593972336881655,3.847,1.295,0.152
1593972337382921,3.847,1.295,0.152
1593972337884156,3.847,1.295,0.152
1593972338385383,3.847,1.295,0.152
1593972338886612,3.847,1.295,0.152
1593972339387858,3.847,1.295,0.152
1593972339889094,3.847,1.295,0.152
1593972340390340,3.809,1.295,0.152
1593972340891578,3.847,1.295,0.152
1593972341394748,3.847,1.295,0.152
1593972341895985,3.847,1.295,0.152
1593972342397223,3.847,1.295,0.152
1593972342898464,3.847,1.295,0.152
1593972343399713,3.847,1.295,0.152
1593972343900983,3.847,1.295,0.152
1593972344402230,3.847,1.295,0.152
1593972344903565,3.847,1.295,0.152
1593972345404795,3.847,1.295,0.152
1593972345906040,3.809,1.295,0.152
1593972346409278,3.847,1.295,0.152
1593972346910521,3.847,1.295,0.152
1593972347411757,3.847,1.295,0.152
1593972347912999,3.847,1.295,0.152
1593972348414221,3.847,1.295,0.152
1593972348915455,3.847,1.295,0.152
1593972349416697,3.847,1.295,0.152
1593972349917917,3.847,1.295,0.152
1593972350419162,3.847,1.295,0.152
1593972350920425,3.847,1.295,0.152
1593972351423711,3.885,1.295,0.152
1593972351924945,3.847,1.295,0.152
1593972352426209,3.847,1.295,0.152
1593972352927462,3.847,1.295,0.152
1593972353428733,3.847,1.295,0.152
1593972353929991,3.847,1.295,0.152
1593972354431293,3.809,1.295,0.152
1593972354932557,3.847,1.295,0.152
1593972355433824,3.847,1.295,0.152
1593972355935060,3.847,1.295,0.152
1593972356438414,3.847,1.295,0.152
1593972356939640,3.847,1.295,0.152
1593972357440858,3.847,1.295,0.152
1593972357942112,3.847,1.295,0.152
1593972358443352,3.847,1.295,0.152
1593972358944585,3.847,1.295,0.152
1593972359445816,3.847,1.295,0.152
1593972359947069,3.847,1.295,0.152
1593972360448294,3.809,1.295,0.152
1593972360949607,3.847,1.295,0.152
1593972361453419,3.847,1.295,0.152
1593972361954640,3.847,1.295,0.152
1593972362455884,3.847,1.295,0.152
1593972362957106,3.809,1.295,0.152
1593972363458359,3.847,1.295,0.152
1593972363959604,3.847,1.295,0.152
1593972364460844,3.847,1.295,0.152
1593972364962069,3.847,1.295,0.152
1593972365463298,3.847,1.295,0.152
1593972365964617,3.847,1.295,0.152
1593972366467755,3.847,1.295,0.152
1593972366968991,3.847,1.295,0.152
1593972367470247,3.847,1.295,0.152
1593972367971603,3.847,1.295,0.152
1593972368472839,3.847,1.295,0.152
1593972368974074,3.847,1.295,0.152
1593972369475373,3.847,1.295,0.152
1593972369976602,3.847,1.295,0.152
1593972370477884,3.809,1.295,0.152
1593972370979118,3.847,1.295,0.152
1593972371482490,3.847,1.295,0.152
1593972371983738,3.847,1.295,0.152
1593972372484968,3.847,1.295,0.152
1593972372986186,3.847,1.295,0.152
1593972373487422,3.847,1.295,0.152
1593972373988650,3.847,1.295,0.152
1593972374489894,3.847,1.295,0.152
1593972374991138,3.847,1.295,0.152
1593972375492388,3.847,1.295,0.152
1593972375993630,3.847,1.295,0.152
1593972376494899,3.847,1.295,0.152
1593972376996139,3.847,1.295,0.152
1593972377497374,3.847,1.295,0.152
1593972377998613,3.847,1.295,0.152
1593972378499874,3.847,1.295,0.152
1593972379001133,3.847,1.295,0.152
1593972379502374,3.847,1.295,0.152
1593972380003644,3.847,1.295,0.152
1593972380504872,3.847,1.295,0.152
1593972381006167,3.847,1.295,0.152
1593972381507615,3.847,1.295,0.152
1593972382008860,3.847,1.295,0.152
1593972382510094,3.847,1.295,0.152
1593972383011422,3.847,1.295,0.152
1593972383512658,4.152,1.295,0.152
1593972384013871,4.228,1.295,0.152
1593972384515099,4.228,1.295,0.152
1593972385016371,4,1.295,0.152
1593972385517608,3.885,1.295,0.152
1593972386018852,3.847,1.295,0.152
1593972386520121,3.847,1.295,0.152
1593972387023525,3.847,1.295,0.152
1593972387524824,3.847,1.295,0.152
1593972388026056,3.847,1.295,0.152
1593972388527346,3.847,1.295,0.152
1593972389028743,3.847,1.295,0.152
1593972389529990,3.809,1.295,0.152
1593972390031219,3.847,1.295,0.152
1593972390532529,3.847,1.295,0.152
1593972391033757,3.847,1.295,0.152
1593972391534979,3.809,1.295,0.152
1593972392038091,3.847,1.295,0.152
1593972392539473,3.809,1.295,0.152
1593972393040695,3.847,1.295,0.152
1593972393541936,3.809,1.295,0.152
1593972394043224,3.847,1.295,0.152
1593972394544440,3.847,1.295,0.152
1593972395045722,3.847,1.295,0.152
1593972395547003,3.847,1.295,0.152
1593972396048291,3.847,1.295,0.152
1593972396549531,3.847,1.295,0.152
1593972397052663,3.847,1.295,0.152
1593972397553895,3.847,1.295,0.152
1593972398055137,3.847,1.295,0.152
1593972398556372,3.847,1.295,0.152
1593972399057605,3.847,1.295,0.152
1593972399558853,3.847,1.295,0.152
1593972400060142,3.847,1.295,0.152
1593972400561375,3.809,1.295,0.152
1593972401062609,3.847,1.295,0.152
1593972401565718,3.847,1.295,0.152
1593972402066974,3.847,1.295,0.152
1593972402568250,3.847,1.295,0.152
1593972403069533,3.847,1.295,0.152
1593972403570816,3.847,1.295,0.152
1593972404072095,3.923,1.371,0.152
