timestamp	VIRTUAL_SCALING	CPU0_F	CPU1_F	CPU2_F	CPU3_F	CPU4_F	CPU5_F	GPU_FREQ	CPU_GOVERNOR	EMC_F	TEMP0	TEMP1	TEMP2	TEMP3	TEMP4	TEMP5	TEMP6	TEMP7
1592951204088197377	1	499	345	345	499	499	499	114750000	performance	408	36	36	34	36	35	33	100	35
1592951204259943374 	0	499	345	345	499	499	499	114750000	performance	408	36	36	34	36	35	33	100	35
1592951207843845941	1	499	345	345	499	499	499	114750000	performance	408	36	36	34	36	34	32	100	35
1592951209684985898 	0	498	345	345	499	499	499	114750000	performance	408	35	36	34	36	34	32	100	34
1592951213676038276	1	499	345	345	499	499	499	114750000	performance	408	35	35	34	35	34	32	100	34
1592951215324348082 	0	499	345	345	499	499	499	114750000	performance	408	35	35	33	35	34	32	100	34
1592951219006144191	1	499	345	345	499	499	499	114750000	performance	408	35	35	33	35	34	31	100	34
1592951220383892266 	0	499	345	345	498	499	499	114750000	performance	408	35	35	33	35	33	31	100	34
