timestamp	VIRTUAL_SCALING	CPU0_F	CPU1_F	CPU2_F	CPU3_F	CPU4_F	CPU5_F	GPU_FREQ	CPU_GOVERNOR	EMC_F	TEMP0	TEMP1	TEMP2	TEMP3	TEMP4	TEMP5	TEMP6	TEMP7
1592951349878906859	1	345	1420	1420	345	345	345	114750000	performance	1866	31	31	29	31	29	27	100	30
1592951350160644422 	0	345	1421	1430	345	345	345	114750000	performance	1866	31	31	29	31	29	27	100	30
1592951352245302321	1	345	1420	1420	345	345	345	114750000	performance	1866	31	31	29	31	29	27	100	30
1592951352664739655 	0	345	1367	1422	345	345	345	114750000	performance	1866	31	31	29	31	29	27	100	30
1592951354672757484	1	345	1420	1420	345	345	345	114750000	performance	1866	31	31	29	31	29	27	100	30
1592951355125345738 	0	345	1421	1418	345	345	345	114750000	performance	1866	31	31	29	31	29	27	100	30
1592951357247056395	1	345	1420	1420	345	345	345	114750000	performance	1866	31	31	29	31	29	27	100	30
1592951357710953221 	0	345	1423	1421	345	345	345	114750000	performance	1866	31	31	29	31	29	27	100	30
1592951359733291087	1	345	1420	1420	345	345	345	114750000	performance	1866	31	31	29	31	29	27	100	30
1592951360143108127 	0	345	1368	1424	345	345	345	114750000	performance	1866	31	31	29	31	29	27	100	30
1592951362185725963	1	345	1420	1420	345	345	345	114750000	performance	1866	31	31	29	31	29	27	100	30
1592951362728414291 	0	345	1422	1421	345	345	345	114750000	performance	1866	31	31	29	31	29	27	100	30
1592951364714695357	1	345	1420	1420	345	345	345	114750000	performance	1866	31	31	29	31	29	27	100	30
1592951364891002637 	0	345	1422	1420	345	345	345	114750000	performance	1866	31	31	29	31	29	27	100	30
