Timestamp,Voltage(V),Ampere(A),Power(W),Watt Hour
1606783503356606437,5.025,0.885,4.450,0.000
1606783503419503316,5.017,0.773,3.878,0.000
1606783503662339246,5.015,1.019,5.115,0.000
1606783503943806237,5.025,1.780,8.947,0.000
1606783504168546418,5.023,1.789,8.989,0.000
1606783504407913422,5.024,1.788,8.985,0.000
1606783504662529828,5.025,1.802,9.057,0.000
1606783504907348574,5.026,1.815,9.130,0.000
1606783505162496684,5.025,1.807,9.084,0.000
1606783505407514471,5.024,1.803,9.061,0.000
1606783505662539790,5.021,1.831,9.199,0.000
1606783505907513619,5.021,1.831,9.199,0.000
1606783506162908102,5.007,1.840,9.218,0.000
1606783506407766433,5.007,1.842,9.229,0.000
1606783506668933572,5.007,1.839,9.214,0.000
1606783506907514960,5.003,1.843,9.222,0.000
1606783507162311325,4.999,1.855,9.279,0.000
1606783507407521236,4.997,1.860,9.298,0.000
1606783507662543016,4.996,1.863,9.313,0.000
1606783507907330181,4.996,1.863,9.313,0.000
1606783508162501126,4.996,1.864,9.317,0.000
1606783508407298542,4.995,1.868,9.332,0.000
1606783508662982942,4.997,1.863,9.313,0.000
1606783508907316404,4.997,1.863,9.313,0.000
1606783509162387976,4.997,1.869,9.344,0.000
1606783509407365016,4.994,1.875,9.367,0.000
1606783509662315048,4.992,1.880,9.393,0.000
1606783509913766362,4.992,1.875,9.367,0.000
1606783510162494909,4.991,1.883,9.405,0.000
1606783510407372201,4.991,1.886,9.420,0.000
1606783510662498899,4.992,1.883,9.405,0.000
1606783510907331941,4.994,1.880,9.397,0.000
1606783511162366849,4.992,1.881,9.397,0.000
1606783511407545930,4.992,1.884,9.412,0.000
1606783511662496630,4.991,1.894,9.458,0.000
1606783511907389673,4.991,1.894,9.458,0.000
1606783512162401456,4.991,1.896,9.470,0.000
1606783512407506081,4.991,1.895,9.462,0.000
1606783512662359449,4.991,1.898,9.477,0.000
1606783512907604281,4.991,1.895,9.466,0.000
1606783513154955552,4.992,1.886,9.420,0.000
1606783513407820606,4.991,1.893,9.454,0.000
1606783513667643346,4.991,1.901,9.496,0.000
1606783513907592394,4.991,1.902,9.496,0.000
1606783514162513847,4.991,1.901,9.493,0.000
1606783514407512515,4.991,1.905,9.512,0.000
1606783514662302719,4.990,1.900,9.485,0.000
1606783514907392596,4.990,1.900,9.485,0.000
1606783515162647504,4.991,1.904,9.508,0.000
1606783515407238636,4.990,1.899,9.485,0.000
1606783515662385004,4.991,1.899,9.481,0.000
1606783515907655046,4.990,1.907,9.519,0.000
1606783516162266378,4.990,1.908,9.527,0.000
1606783516413781905,4.990,1.906,9.519,0.000
1606783516662377043,4.990,1.906,9.515,0.000
1606783516907371421,4.990,1.910,9.535,0.000
1606783517162155461,4.990,1.908,9.527,0.000
1606783517407354963,4.990,1.905,9.512,0.000
1606783517657575878,4.990,1.906,9.515,0.000
1606783517902164928,4.990,1.906,9.515,0.000
1606783518161538885,4.990,1.911,9.542,0.000
1606783518407393799,4.990,1.908,9.523,0.000
1606783518662336755,4.990,1.914,9.557,0.000
1606783518907272427,4.990,1.915,9.561,0.000
1606783519162367174,4.990,1.916,9.565,0.000
1606783519407269930,4.990,1.914,9.554,0.000
1606783519668050958,4.990,1.911,9.538,0.000
1606783519907533098,4.990,1.903,9.500,0.000
1606783520162400556,4.990,1.918,9.577,0.000
1606783520407372230,4.990,1.920,9.588,0.000
1606783520662513435,4.990,1.922,9.596,0.000
1606783520907383401,4.990,1.922,9.596,0.000
1606783521162523441,4.990,1.923,9.599,0.000
1606783521407303700,4.990,1.923,9.603,0.000
1606783521662803403,4.990,1.914,9.557,0.000
1606783521907676370,4.990,1.875,9.363,0.000
1606783522162536496,4.990,1.918,9.573,0.000
1606783522407227966,4.990,1.924,9.603,0.000
1606783522667597917,4.990,1.926,9.615,0.000
1606783522913764998,4.990,1.927,9.622,0.000
1606783523162565222,4.990,1.924,9.603,0.000
1606783523408068268,4.990,1.927,9.622,0.000
1606783523662217776,4.990,1.923,9.599,0.000
1606783523907688948,4.990,1.923,9.599,0.000
1606783524162556575,4.990,1.923,9.599,0.000
1606783524407336045,4.990,1.924,9.603,0.000
1606783524662331880,4.990,1.930,9.638,0.000
1606783524907530763,4.990,1.927,9.622,0.000
1606783525162547640,4.990,1.926,9.619,0.000
1606783525407301903,4.990,1.931,9.641,0.000
1606783525662277781,4.990,1.931,9.645,0.000
1606783525907816328,4.990,1.926,9.615,0.000
1606783526157730086,4.990,1.925,9.611,0.000
1606783526407387388,4.990,1.929,9.630,0.000
1606783526667395012,4.990,1.925,9.611,0.000
1606783526907395777,4.990,1.925,9.611,0.000
1606783527157314911,4.990,1.934,9.657,0.000
1606783527417389285,4.990,1.934,9.653,0.000
1606783527660866477,4.990,1.934,9.657,0.000
1606783527907282768,4.991,1.934,9.657,0.000
1606783528257829733,4.991,1.927,9.622,0.000
1606783528407639907,4.990,1.918,9.573,0.000
1606783528662329165,4.990,1.931,9.641,0.000
1606783528907550717,4.991,1.934,9.660,0.000
1606783529162581680,4.991,1.935,9.660,0.000
1606783529412559357,4.991,1.935,9.660,0.000
1606783529662550283,4.991,1.936,9.668,0.000
1606783529907654171,4.991,1.936,9.668,0.000
1606783530162691301,4.990,1.933,9.649,0.000
1606783530407331111,4.990,1.926,9.619,0.000
1606783530662511490,4.991,1.926,9.619,0.000
1606783530907386214,4.991,1.938,9.676,0.000
1606783531162266347,4.991,1.937,9.676,0.000
1606783531407542859,4.991,1.938,9.676,0.000
1606783531662603324,4.991,1.936,9.672,0.000
1606783531907336342,4.991,1.936,9.668,0.000
1606783532157397228,4.991,1.934,9.657,0.000
1606783532407801027,4.991,1.933,9.649,0.000
1606783532664104690,4.991,1.933,9.653,0.000
1606783532907536345,4.991,1.933,9.653,0.000
1606783533163187306,4.991,1.940,9.691,0.000
1606783533407202290,4.991,1.943,9.702,0.000
1606783533662551712,4.991,1.937,9.672,0.000
1606783533907506312,4.991,1.943,9.702,0.000
1606783534162249282,4.991,1.945,9.714,0.000
1606783534407740045,4.991,1.942,9.699,0.000
1606783534662731971,4.991,1.938,9.672,0.000
1606783534907660572,4.991,1.937,9.676,0.000
1606783535162382709,4.990,1.940,9.683,0.000
1606783535407707641,4.991,1.946,9.714,0.000
1606783535662573777,4.991,1.945,9.714,0.000
1606783535913965404,4.991,1.945,9.714,0.000
1606783536162548348,4.991,1.947,9.725,0.000
1606783536407303952,4.991,1.947,9.722,0.000
1606783536662897833,4.991,1.945,9.710,0.000
1606783536907696812,4.990,1.936,9.664,0.000
1606783537162944404,4.991,1.939,9.683,0.000
1606783537407398929,4.991,1.946,9.718,0.000
1606783537662226484,4.991,1.949,9.733,0.000
1606783537907684874,4.991,1.949,9.733,0.000
1606783538162544054,4.991,1.949,9.733,0.000
1606783538407265868,4.990,1.948,9.729,0.000
1606783538662389380,4.990,1.945,9.710,0.000
1606783538907233276,4.990,1.945,9.710,0.000
1606783539167236702,4.990,1.942,9.699,0.000
1606783539407525432,4.990,1.946,9.714,0.000
1606783539657584407,4.990,1.948,9.725,0.000
1606783539902664552,4.991,1.950,9.737,0.000
1606783540157616733,4.990,1.949,9.733,0.000
1606783540407354337,4.990,1.945,9.710,0.000
1606783540662540766,4.991,1.951,9.741,0.000
1606783540907786994,4.990,1.948,9.729,0.000
1606783541162385720,4.990,1.945,9.706,0.000
1606783541407370076,4.990,1.947,9.722,0.000
1606783541662568005,4.990,1.951,9.741,0.000
1606783541907990649,4.990,1.951,9.741,0.000
1606783542162544377,4.990,1.945,9.706,0.000
1606783542412554021,4.990,1.952,9.748,0.000
1606783542662532374,4.990,1.953,9.752,0.000
1606783542907668562,4.990,1.953,9.748,0.000
1606783543162779994,4.990,1.952,9.748,0.000
1606783543407150065,4.990,1.949,9.729,0.000
1606783543662571078,4.989,1.939,9.676,0.000
1606783543907495435,4.995,1.844,9.214,0.000
1606783544162561577,4.990,1.951,9.741,0.000
1606783544407522226,4.990,1.951,9.741,0.000
1606783544662557077,4.990,1.954,9.756,0.000
1606783544907297645,4.990,1.954,9.756,0.000
1606783545162825741,4.990,1.954,9.756,0.000
1606783545407699893,4.989,1.944,9.706,0.000
1606783545662553662,4.990,1.948,9.725,0.000
1606783545907270190,4.990,1.950,9.737,0.000
1606783546162065085,4.989,1.957,9.767,0.000
1606783546417801930,4.990,1.959,9.779,0.000
1606783546674027562,4.989,1.959,9.779,0.000
1606783546907554984,4.989,1.952,9.741,0.000
1606783547162570545,4.989,1.960,9.783,0.000
1606783547407317365,4.989,1.956,9.764,0.000
1606783547662603465,4.989,1.954,9.752,0.000
1606783547907529534,4.989,1.955,9.752,0.000
1606783548162691844,4.989,1.955,9.756,0.000
1606783548407589164,4.989,1.961,9.790,0.000
1606783548662741600,4.989,1.957,9.767,0.000
1606783548917628954,4.989,1.960,9.783,0.000
1606783549162358734,4.989,1.963,9.798,0.000
1606783549424478732,4.989,1.960,9.783,0.000
1606783549662554657,4.987,1.960,9.783,0.000
1606783549907340062,4.987,1.958,9.771,0.000
1606783550162752496,4.987,1.954,9.752,0.000
1606783550407505027,4.987,1.958,9.775,0.000
1606783550662497257,4.989,1.964,9.802,0.000
1606783550907535619,4.989,1.963,9.802,0.000
1606783551162570849,4.989,1.963,9.798,0.000
1606783551408086957,4.987,1.965,9.809,0.000
1606783551662269612,4.987,1.966,9.809,0.000
1606783551907558597,4.987,1.959,9.775,0.000
1606783552167393034,4.989,1.914,9.550,0.000
1606783552407399318,4.987,1.957,9.764,0.000
1606783552662583506,4.987,1.963,9.798,0.000
1606783552907562745,4.987,1.964,9.802,0.000
1606783553162544186,4.987,1.964,9.802,0.000
1606783553407560258,4.987,1.964,9.798,0.000
1606783553662401158,4.990,1.915,9.554,0.000
1606783553907827102,4.990,1.959,9.554,0.000
1606783554162064967,4.987,1.959,9.775,0.000
1606783554407556911,4.987,1.956,9.760,0.000
1606783554662402978,4.987,1.960,9.783,0.000
1606783554907380927,4.987,1.965,9.806,0.000
1606783555162360869,4.987,1.964,9.802,0.000
1606783555407547816,4.986,1.958,9.767,0.000
1606783555662555633,4.987,1.966,9.809,0.000
1606783555914329104,4.987,1.967,9.813,0.000
1606783556162763064,4.986,1.964,9.798,0.000
1606783556407594724,4.986,1.961,9.786,0.000
1606783556662567042,4.986,1.962,9.790,0.000
1606783556907530533,4.986,1.962,9.790,0.000
1606783557162401811,4.986,1.962,9.786,0.000
1606783557407581302,4.986,1.966,9.809,0.000
1606783557662561829,4.987,1.969,9.821,0.000
1606783557907609570,4.987,1.969,9.825,0.000
1606783558162778596,4.987,1.969,9.825,0.000
1606783558407326135,4.986,1.966,9.806,0.000
1606783558662367578,4.986,1.960,9.775,0.000
1606783558907334738,4.986,1.959,9.775,0.000
1606783559162604389,4.986,1.970,9.828,0.000
1606783559407528758,4.986,1.971,9.836,0.000
1606783559662305163,4.986,1.972,9.836,0.000
1606783559907518905,4.986,1.972,9.836,0.000
1606783560162871805,4.986,1.972,9.840,0.000
1606783560407389637,4.986,1.973,9.840,0.000
1606783560662129252,4.986,1.965,9.798,0.000
1606783560908204695,4.986,1.964,9.798,0.000
1606783561162352149,4.986,1.967,9.817,0.000
1606783561407560767,4.986,1.973,9.844,0.000
1606783561662636962,4.986,1.978,9.870,0.000
1606783561907646957,4.987,1.951,9.733,0.000
1606783562162343574,4.986,1.968,9.817,0.000
1606783562417248646,4.986,1.973,9.840,0.000
1606783562662337391,4.986,1.972,9.836,0.000
1606783562908112630,4.986,1.969,9.836,0.000
1606783563162386876,4.985,1.969,9.825,0.000
1606783563407561412,4.986,1.966,9.806,0.000
1606783563662668026,4.986,1.976,9.855,0.000
1606783563907537107,4.986,1.969,9.821,0.000
1606783564162568263,4.986,1.973,9.844,0.000
1606783564407569593,4.986,1.975,9.851,0.000
1606783564662338836,4.986,1.974,9.848,0.000
1606783564907565706,4.985,1.971,9.832,0.000
1606783565162261574,4.985,1.970,9.828,0.000
1606783565407523070,4.985,1.963,9.790,0.000
1606783565662973015,4.985,1.970,9.828,0.000
1606783565907575849,4.985,1.977,9.828,0.000
1606783566162389593,4.985,1.977,9.863,0.000
1606783566407531340,4.986,1.976,9.859,0.000
1606783566662390458,4.985,1.976,9.855,0.000
1606783566907291124,4.985,1.976,9.855,0.000
1606783567162605238,4.985,1.970,9.825,0.000
1606783567411662284,4.985,1.974,9.844,0.000
1606783567662391648,4.985,1.950,9.725,0.000
1606783567907313315,4.985,1.972,9.836,0.000
1606783568162321849,4.985,1.975,9.851,0.000
1606783568407608305,4.985,1.976,9.855,0.000
1606783568662328175,4.985,1.976,9.855,0.000
1606783568907295800,4.985,1.976,9.855,0.000
1606783569162322627,4.984,1.968,9.817,0.000
1606783569413976068,4.985,1.975,9.851,0.000
1606783569662792326,4.984,1.970,9.825,0.000
1606783569907563287,4.985,1.970,9.825,0.000
1606783570162392782,4.986,1.976,9.855,0.000
1606783570407989070,4.986,1.978,9.867,0.000
1606783570662372612,4.985,1.972,9.836,0.000
1606783570907573819,4.986,1.962,9.786,0.000
1606783571162370150,4.986,1.979,9.870,0.000
1606783571407401818,4.985,1.978,9.863,0.000
1606783571662704769,4.984,1.974,9.840,0.000
1606783571907267775,4.984,1.974,9.840,0.000
1606783572162193188,4.984,1.973,9.836,0.000
1606783572407550937,4.984,1.971,9.828,0.000
1606783572667567013,4.984,1.978,9.867,0.000
1606783572907500353,4.984,1.980,9.870,0.000
1606783573162606140,4.983,1.979,9.867,0.000
1606783573407554435,4.984,1.980,9.874,0.000
1606783573662204602,4.983,1.980,9.870,0.000
1606783573907153689,4.981,1.971,9.825,0.000
1606783574162320476,4.983,1.976,9.848,0.000
1606783574407563145,4.983,1.979,9.863,0.000
1606783574662276853,4.983,1.983,9.886,0.000
1606783574907536230,4.983,1.983,9.886,0.000
1606783575162692643,4.983,1.983,9.886,0.000
1606783575407192069,4.981,1.983,9.882,0.000
1606783575662375898,4.981,1.981,9.874,0.000
1606783575907761483,4.981,1.982,9.874,0.000
1606783576162898980,4.980,1.977,9.851,0.000
1606783576407889277,4.980,1.978,9.859,0.000
1606783576662582487,4.980,1.945,9.687,0.000
1606783576907523076,4.980,1.985,9.890,0.000
1606783577162385244,4.979,1.984,9.882,0.000
1606783577407642789,4.979,1.983,9.878,0.000
1606783577662563706,4.977,1.987,9.893,0.000
1606783577907910167,4.977,1.987,9.893,0.000
1606783578162280506,4.977,1.985,9.886,0.000
1606783578407378970,4.977,1.978,9.851,0.000
1606783578662624760,4.979,1.978,9.851,0.000
1606783578907607059,4.979,1.984,9.882,0.000
1606783579167668430,4.979,1.980,9.863,0.000
1606783579407532276,4.979,1.986,9.893,0.000
1606783579669030051,4.979,1.987,9.897,0.000
1606783579908059696,4.979,1.987,9.901,0.000
1606783580162163414,4.977,1.987,9.893,0.000
1606783580407992206,4.977,1.982,9.870,0.000
1606783580662393380,4.977,1.949,9.710,0.000
1606783580907550595,4.977,1.949,9.710,0.000
1606783581162246808,4.977,1.987,9.897,0.000
1606783581407565605,4.977,1.987,9.897,0.000
1606783581662526775,4.977,1.987,9.897,0.000
1606783581907515575,4.976,1.988,9.897,0.000
1606783582162933657,4.976,1.987,9.893,0.000
1606783582407363589,4.975,1.976,9.840,0.000
1606783582662701464,4.975,1.979,9.851,0.000
1606783582914130040,4.974,1.985,9.878,0.000
1606783583162399229,4.974,1.989,9.897,0.000
1606783583407539571,4.972,1.990,9.905,0.000
1606783583662292119,4.974,1.989,9.897,0.000
1606783583907607210,4.974,1.989,9.897,0.000
1606783584167356380,4.972,1.986,9.882,0.000
1606783584412251725,4.971,1.988,9.890,0.000
1606783584674684454,4.970,1.985,9.874,0.000
1606783584907558490,4.970,1.983,9.863,0.000
1606783585162591245,4.970,1.992,9.905,0.000
1606783585407638256,4.969,1.993,9.909,0.000
