TimeStamp,Total Power,CPU Power,GPU Power
1593916754211672,3.352,0.838,0.152
1593916754713167,2.324,0.533,0.152
1593916755214589,2.019,0.457,0.152
1593916755720710,1.905,0.533,0.152
1593916756222339,1.715,0.533,0.152
1593916756723839,1.563,0.457,0.152
1593916757225250,1.525,0.457,0.152
1593916757729380,1.639,0.533,0.152
1593916758230876,1.639,0.61,0.152
1593916758732409,1.563,0.533,0.152
1593916759233961,1.677,0.61,0.152
1593916759736368,1.639,0.61,0.152
1593916760237842,1.677,0.61,0.152
1593916760739251,1.601,0.533,0.152
1593916761240793,1.563,0.533,0.152
1593916761742286,1.639,0.61,0.152
1593916762243845,1.601,0.61,0.152
1593916762747587,1.601,0.533,0.152
1593916763249114,1.677,0.61,0.152
1593916763750529,1.563,0.533,0.152
1593916764252023,1.639,0.61,0.152
1593916764753605,1.639,0.61,0.152
1593916765254962,1.601,0.61,0.152
1593916765756546,1.677,0.61,0.152
1593916766258039,1.601,0.533,0.152
1593916766759674,1.639,0.61,0.152
1593916767261119,1.601,0.61,0.152
1593916767764976,1.601,0.533,0.152
1593916768266527,1.715,0.61,0.152
1593916768768012,1.601,0.533,0.152
1593916769269495,1.639,0.61,0.152
1593916769770962,1.601,0.61,0.152
1593916770272425,1.601,0.533,0.152
1593916770773920,1.677,0.61,0.152
1593916771275463,1.563,0.533,0.152
1593916771777049,1.639,0.61,0.152
1593916772278507,1.677,0.61,0.152
1593916772782256,1.563,0.533,0.152
1593916773284244,1.639,0.61,0.152
1593916773785839,1.639,0.61,0.152
1593916774287352,1.563,0.533,0.152
1593916774788809,1.639,0.61,0.152
1593916775290262,1.639,0.61,0.152
1593916775791762,1.601,0.61,0.152
1593916776293217,1.601,0.61,0.152
1593916776794622,1.639,0.61,0.152
1593916777296234,1.677,0.61,0.152
1593916777800013,1.601,0.61,0.152
1593916778302514,1.563,0.533,0.152
1593916778804040,1.677,0.61,0.152
1593916779305486,1.563,0.533,0.152
1593916779806920,1.639,0.533,0.152
1593916780308597,1.677,0.61,0.152
1593916780810209,1.601,0.61,0.152
1593916781311704,1.601,0.61,0.152
1593916781813274,1.601,0.61,0.152
1593916782314767,1.677,0.61,0.152
1593916782818591,1.601,0.61,0.152
1593916783320026,1.563,0.533,0.152
1593916783821487,1.715,0.61,0.152
1593916784322997,1.601,0.533,0.152
1593916784824417,1.639,0.533,0.152
1593916785325961,1.639,0.61,0.152
1593916785827459,1.639,0.61,0.152
1593916786328879,1.639,0.61,0.152
1593916786830300,1.563,0.533,0.152
1593916787331824,1.715,0.61,0.152
1593916787835819,1.639,0.61,0.152
1593916788337204,1.601,0.533,0.152
1593916788838777,1.677,0.61,0.152
1593916789340291,1.601,0.61,0.152
1593916789841739,1.639,0.61,0.152
1593916790343377,1.639,0.61,0.152
1593916790844841,1.639,0.61,0.152
1593916791346309,1.639,0.61,0.152
1593916791847846,1.563,0.533,0.152
1593916792350339,1.677,0.61,0.152
1593916792854234,1.639,0.61,0.152
1593916793355892,1.563,0.533,0.152
1593916793857367,1.639,0.61,0.152
1593916794358868,1.601,0.61,0.152
1593916794860457,1.639,0.533,0.152
1593916795361922,1.639,0.61,0.152
1593916795863641,1.601,0.533,0.152
1593916796365102,1.639,0.61,0.152
1593916796866539,1.639,0.61,0.152
1593916797368076,1.601,0.61,0.152
1593916797871960,1.639,0.61,0.152
1593916798373549,1.563,0.533,0.152
1593916798874964,1.677,0.61,0.152
1593916799376483,1.639,0.61,0.152
1593916799877939,1.601,0.533,0.152
1593916800379419,1.639,0.61,0.152
1593916800881182,1.639,0.61,0.152
1593916801382668,1.639,0.61,0.152
1593916801884208,1.639,0.61,0.152
1593916802385761,1.563,0.533,0.152
1593916802887235,1.639,0.61,0.152
1593916803388740,1.601,0.61,0.152
1593916803890229,1.639,0.61,0.152
1593916804391727,1.639,0.61,0.152
1593916804893345,1.601,0.61,0.152
1593916805394782,1.639,0.61,0.152
1593916805896329,1.601,0.61,0.152
1593916806397809,1.639,0.61,0.152
1593916806899347,1.601,0.61,0.152
1593916807400814,1.563,0.533,0.152
1593916807904641,1.639,0.61,0.152
1593916808406147,1.601,0.61,0.152
1593916808907759,1.639,0.533,0.152
1593916809409176,1.677,0.61,0.152
1593916809910681,1.639,0.61,0.152
1593916810412191,1.639,0.61,0.152
1593916810913774,1.563,0.533,0.152
1593916811415410,1.677,0.61,0.152
1593916811916946,1.601,0.61,0.152
1593916812418402,1.563,0.533,0.152
1593916812922319,1.677,0.61,0.152
1593916813423816,1.601,0.61,0.152
1593916813925360,1.639,0.533,0.152
1593916814428453,1.639,0.61,0.152
1593916814929960,1.601,0.61,0.152
1593916815431420,1.639,0.61,0.152
1593916815932820,1.563,0.533,0.152
1593916816434277,1.715,0.61,0.152
1593916816935759,1.601,0.61,0.152
1593916817437258,1.867,0.533,0.152
1593916817941100,2.096,0.61,0.152
1593916818442613,2.019,0.61,0.152
1593916818944026,1.905,0.61,0.152
1593916819445511,1.677,0.61,0.152
1593916819946981,1.639,0.61,0.152
1593916820448435,1.601,0.533,0.152
1593916820949814,1.601,0.533,0.152
1593916821451411,1.639,0.61,0.152
1593916821952905,1.677,0.61,0.152
1593916822454360,1.563,0.533,0.152
1593916822958253,1.601,0.533,0.152
1593916823459791,1.639,0.61,0.152
1593916823961241,1.563,0.533,0.152
1593916824462645,1.639,0.533,0.152
1593916824964309,1.677,0.61,0.152
1593916825465701,1.601,0.61,0.152
1593916825967027,1.601,0.61,0.152
1593916826468462,1.563,0.533,0.152
1593916826969952,1.677,0.61,0.152
1593916827471407,1.563,0.533,0.152
1593916827975183,1.601,0.61,0.152
1593916828476727,1.677,0.61,0.152
1593916828978173,1.563,0.533,0.152
1593916829479830,1.677,0.61,0.152
1593916829981418,1.639,0.61,0.152
1593916830482929,1.601,0.61,0.152
1593916830984388,1.601,0.61,0.152
1593916831485847,1.601,0.533,0.152
1593916831987360,1.639,0.61,0.152
1593916832488849,1.601,0.533,0.152
1593916832992519,1.601,0.61,0.152
1593916833493975,1.677,0.61,0.152
1593916833995424,1.563,0.533,0.152
1593916834496886,1.677,0.61,0.152
1593916834998469,1.601,0.61,0.152
1593916835499992,1.601,0.61,0.152
1593916836001577,1.639,0.61,0.152
1593916836503076,1.563,0.533,0.152
1593916837004723,1.677,0.61,0.152
1593916837506160,1.563,0.533,0.152
1593916838010226,1.601,0.533,0.152
1593916838512400,1.677,0.61,0.152
1593916839013885,1.563,0.533,0.152
1593916839515384,1.639,0.61,0.152
1593916840016836,1.563,0.533,0.152
1593916840518288,1.601,0.61,0.152
1593916841019795,1.639,0.61,0.152
1593916841521260,1.563,0.533,0.152
1593916842022712,1.677,0.61,0.152
1593916842524309,1.639,0.61,0.152
1593916843028188,1.601,0.533,0.152
1593916843530292,1.639,0.61,0.152
1593916844031778,1.563,0.533,0.152
1593916844533280,1.639,0.61,0.152
1593916845034728,1.563,0.533,0.152
1593916845536196,1.639,0.61,0.152
1593916846037707,1.639,0.61,0.152
1593916846539182,1.563,0.533,0.152
1593916847040951,1.677,0.61,0.152
1593916847542462,1.639,0.61,0.152
1593916848046363,1.563,0.533,0.152
1593916848547788,1.601,0.61,0.152
1593916849049246,1.639,0.61,0.152
1593916849550683,1.677,0.61,0.152
1593916850052222,1.601,0.533,0.152
1593916850553750,1.639,0.61,0.152
1593916851055260,1.639,0.61,0.152
1593916851556809,1.563,0.533,0.152
1593916852059147,1.677,0.61,0.152
1593916852560656,1.639,0.61,0.152
1593916853064455,1.563,0.533,0.152
1593916853565868,1.601,0.61,0.152
1593916854068362,1.677,0.61,0.152
1593916854569775,1.677,0.61,0.152
1593916855071138,1.601,0.533,0.152
1593916855572874,1.563,0.533,0.152
1593916856074363,1.677,0.61,0.152
1593916856575830,1.563,0.533,0.152
1593916857077252,1.639,0.533,0.152
1593916857578756,1.677,0.61,0.152
1593916858080223,1.563,0.533,0.152
1593916858581638,1.639,0.533,0.152
1593916859083210,1.601,0.61,0.152
1593916859584794,1.601,0.61,0.152
1593916860086220,1.601,0.61,0.152
1593916860587829,1.601,0.533,0.152
1593916861089328,1.677,0.61,0.152
1593916861590780,1.601,0.533,0.152
1593916862092196,1.563,0.533,0.152
1593916862593717,1.677,0.61,0.152
1593916863095200,1.563,0.533,0.152
1593916863596685,1.639,0.61,0.152
1593916864098159,1.601,0.533,0.152
1593916864599688,1.601,0.61,0.152
1593916865101098,1.601,0.61,0.152
1593916865602565,1.601,0.533,0.152
1593916866104074,1.677,0.61,0.152
1593916866605534,1.563,0.533,0.152
1593916867107017,1.639,0.61,0.152
1593916867608560,1.639,0.61,0.152
1593916868112457,1.601,0.533,0.152
1593916868613991,1.639,0.61,0.152
1593916869115495,1.601,0.533,0.152
1593916869616986,1.639,0.61,0.152
1593916870118502,1.639,0.61,0.152
1593916870620028,1.601,0.533,0.152
1593916871122046,1.677,0.61,0.152
1593916871623637,1.601,0.533,0.152
1593916872125136,1.601,0.61,0.152
1593916872626598,1.601,0.61,0.152
1593916873130682,1.601,0.533,0.152
1593916873632247,1.677,0.61,0.152
1593916874133697,1.563,0.533,0.152
1593916874635149,1.639,0.61,0.152
1593916875136866,1.639,0.61,0.152
1593916875638403,1.563,0.533,0.152
1593916876140096,1.639,0.61,0.152
1593916876641623,1.601,0.533,0.152
1593916877143118,1.601,0.61,0.152
1593916877644580,1.601,0.61,0.152
1593916878148652,1.601,0.533,0.152
1593916878650148,1.677,0.61,0.152
1593916879151610,1.563,0.533,0.152
1593916879653953,1.639,0.61,0.152
1593916880155485,1.83,0.61,0.152
1593916880657299,1.943,0.533,0.152
1593916881158711,2.019,0.61,0.152
1593916881662935,2.019,0.61,0.152
1593916882164447,1.753,0.61,0.152
1593916882665938,1.639,0.61,0.152
1593916883169947,1.639,0.61,0.152
1593916883671455,1.677,0.61,0.152
1593916884172855,1.563,0.533,0.152
1593916884675162,1.601,0.61,0.152
1593916885176690,1.677,0.61,0.152
1593916885678095,1.563,0.533,0.152
1593916886179471,1.601,0.61,0.152
1593916886681031,1.639,0.61,0.152
1593916887182541,1.601,0.61,0.152
1593916887684009,1.601,0.61,0.152
1593916888188404,1.639,0.61,0.152
1593916888689893,1.677,0.61,0.152
1593916889191356,1.563,0.533,0.152
1593916889694423,1.563,0.533,0.152
1593916890195916,1.677,0.61,0.152
1593916890697421,1.563,0.533,0.152
1593916891198831,1.601,0.533,0.152
1593916891700556,1.677,0.61,0.152
1593916892202058,1.601,0.61,0.152
1593916892703558,1.601,0.61,0.152
1593916893207345,1.563,0.533,0.152
1593916893708838,1.715,0.61,0.152
1593916894210281,1.601,0.533,0.152
1593916894711740,1.601,0.533,0.152
1593916895213289,1.677,0.61,0.152
1593916895714779,1.563,0.533,0.152
1593916896216230,1.639,0.61,0.152
1593916896717645,1.601,0.61,0.152
1593916897219131,1.639,0.61,0.152
1593916897720584,1.601,0.61,0.152
1593916898224751,1.563,0.533,0.152
1593916898726240,1.715,0.61,0.152
1593916899227671,1.601,0.533,0.152
1593916899729083,1.563,0.533,0.152
1593916900230737,1.639,0.61,0.152
1593916900732215,1.601,0.533,0.152
1593916901233656,1.639,0.61,0.152
1593916901735125,1.601,0.61,0.152
1593916902236623,1.639,0.61,0.152
1593916902738050,1.601,0.61,0.152
1593916903242146,1.601,0.61,0.152
1593916903743961,1.677,0.61,0.152
1593916904245440,1.601,0.533,0.152
1593916904747007,1.601,0.61,0.152
1593916905248579,1.601,0.61,0.152
1593916905750076,1.601,0.533,0.152
1593916906251473,1.639,0.61,0.152
1593916906752939,1.601,0.533,0.152
1593916907254442,1.639,0.61,0.152
1593916907755902,1.601,0.61,0.152
1593916908259792,1.601,0.533,0.152
1593916908761593,1.639,0.61,0.152
1593916909263120,1.601,0.533,0.152
1593916909764677,1.639,0.61,0.152
1593916910266134,1.601,0.533,0.152
1593916910767629,1.601,0.533,0.152
1593916911269199,1.677,0.61,0.152
1593916911770705,1.601,0.61,0.152
1593916912272373,1.601,0.61,0.152
1593916912773854,1.639,0.61,0.152
1593916913277654,1.601,0.533,0.152
1593916913779164,1.639,0.533,0.152
1593916914280637,1.639,0.61,0.152
1593916914782137,1.601,0.61,0.152
1593916915283597,1.601,0.61,0.152
1593916915785049,1.601,0.61,0.152
1593916916286514,1.677,0.61,0.152
1593916916787987,1.601,0.61,0.152
1593916917289517,1.601,0.533,0.152
1593916917791109,1.677,0.61,0.152
1593916918295025,1.601,0.533,0.152
1593916918796489,1.639,0.533,0.152
1593916919297943,1.639,0.61,0.152
1593916919799441,1.601,0.533,0.152
1593916920300924,1.601,0.61,0.152
1593916920803174,1.601,0.61,0.152
1593916921304724,1.677,0.61,0.152
1593916921806184,1.601,0.533,0.152
1593916922307627,1.563,0.533,0.152
1593916922809094,1.677,0.61,0.152
1593916923313120,1.563,0.533,0.152
1593916923814537,1.639,0.533,0.152
1593916924316173,1.677,0.61,0.152
1593916924817677,1.563,0.533,0.152
1593916925319137,1.601,0.533,0.152
1593916925820773,1.563,0.533,0.152
1593916926322266,1.715,0.61,0.152
1593916926823803,1.601,0.533,0.152
1593916927325204,1.563,0.533,0.152
1593916927826723,1.715,0.61,0.152
1593916928330610,1.601,0.533,0.152
1593916928832094,1.639,0.61,0.152
1593916929333644,1.601,0.61,0.152
1593916929835147,1.639,0.61,0.152
1593916930336663,1.639,0.61,0.152
1593916930838139,1.563,0.533,0.152
1593916931339603,1.677,0.61,0.152
1593916931841058,1.601,0.61,0.152
1593916932342498,1.563,0.533,0.152
1593916932844142,1.639,0.61,0.152
1593916933348299,1.601,0.61,0.152
1593916933849755,1.639,0.533,0.152
1593916934351192,1.639,0.61,0.152
1593916934852826,1.601,0.61,0.152
1593916935354262,1.639,0.61,0.152
1593916935855886,1.601,0.61,0.152
1593916936357447,1.677,0.61,0.152
1593916936858932,1.601,0.61,0.152
1593916937360371,1.563,0.533,0.152
1593916937861822,1.639,0.61,0.152
1593916938365614,1.601,0.61,0.152
1593916938867062,1.639,0.533,0.152
1593916939368529,1.639,0.61,0.152
1593916939870022,1.639,0.61,0.152
1593916940371477,1.639,0.61,0.152
1593916940872956,1.601,0.61,0.152
1593916941374497,1.677,0.61,0.152
1593916941876009,1.601,0.61,0.152
1593916942377480,1.601,0.61,0.152
1593916942878997,1.601,0.533,0.152
1593916943382836,1.905,0.61,0.152
1593916943884416,1.943,0.533,0.152
1593916944385911,2.019,0.61,0.152
1593916944887614,1.905,0.61,0.152
1593916945389068,1.753,0.61,0.152
1593916945890534,1.639,0.61,0.152
1593916946391975,1.601,0.533,0.152
1593916946893425,1.639,0.61,0.152
1593916947394913,1.601,0.61,0.152
1593916947896393,1.639,0.533,0.152
1593916948400313,1.639,0.61,0.152
1593916948901775,1.639,0.61,0.152
1593916949403228,1.601,0.61,0.152
1593916949904678,1.563,0.533,0.152
1593916950406223,1.677,0.61,0.152
1593916950907851,1.601,0.533,0.152
1593916951409304,1.601,0.533,0.152
1593916951910763,1.639,0.61,0.152
1593916952412269,1.601,0.61,0.152
1593916952913734,1.601,0.533,0.152
1593916953418470,1.601,0.533,0.152
1593916953919983,1.639,0.61,0.152
1593916954421443,1.601,0.533,0.152
1593916954922853,1.563,0.533,0.152
1593916955424370,1.715,0.61,0.152
1593916955925788,1.601,0.533,0.152
1593916956427201,1.601,0.533,0.152
1593916956928826,1.677,0.61,0.152
1593916957430332,1.601,0.533,0.152
1593916957931795,1.639,0.61,0.152
1593916958435805,1.563,0.533,0.152
1593916958937256,1.677,0.61,0.152
1593916959438699,1.601,0.61,0.152
1593916959940240,1.563,0.533,0.152
1593916960442459,1.677,0.61,0.152
1593916960943950,1.601,0.61,0.152
1593916961445390,1.601,0.533,0.152
1593916961946923,1.601,0.61,0.152
1593916962448420,1.639,0.61,0.152
1593916962949866,1.639,0.61,0.152
1593916963453563,1.563,0.533,0.152
1593916963956509,1.639,0.61,0.152
1593916964457951,1.601,0.61,0.152
1593916964959412,1.563,0.533,0.152
1593916965464704,1.639,0.61,0.152
1593916965966238,1.601,0.61,0.152
1593916966467684,1.563,0.533,0.152
1593916966969143,1.639,0.61,0.152
1593916967470627,1.639,0.61,0.152
1593916967972082,1.639,0.61,0.152
1593916968476218,1.601,0.533,0.152
1593916968977766,1.639,0.61,0.152
1593916969479221,1.601,0.61,0.152
1593916969980794,1.563,0.533,0.152
1593916970482265,1.639,0.61,0.152
1593916970983770,1.601,0.61,0.152
1593916971485223,1.601,0.533,0.152
1593916971986690,1.639,0.61,0.152
1593916972488411,1.601,0.61,0.152
1593916972989896,1.639,0.61,0.152
1593916973493849,1.601,0.61,0.152
1593916973995351,1.601,0.533,0.152
1593916974496708,1.639,0.61,0.152
1593916974998316,1.601,0.61,0.152
1593916975499816,1.639,0.61,0.152
1593916976001305,1.639,0.61,0.152
1593916976502733,1.639,0.61,0.152
1593916977004195,1.601,0.61,0.152
1593916977505770,1.601,0.533,0.152
1593916978007294,1.639,0.61,0.152
1593916978511235,1.601,0.533,0.152
1593916979012832,1.601,0.533,0.152
1593916979514293,1.639,0.61,0.152
1593916980015816,1.601,0.61,0.152
1593916980517232,1.639,0.61,0.152
1593916981020184,1.639,0.61,0.152
1593916981521760,1.677,0.61,0.152
1593916982023269,1.601,0.61,0.152
1593916982526297,1.563,0.533,0.152
1593916983027772,1.639,0.61,0.152
1593916983531691,1.601,0.533,0.152
1593916984033151,1.639,0.533,0.152
1593916984534616,1.639,0.61,0.152
1593916985036271,1.601,0.533,0.152
1593916985537680,1.639,0.61,0.152
1593916986040231,1.601,0.61,0.152
1593916986541764,1.639,0.61,0.152
1593916987043196,1.601,0.61,0.152
1593916987544620,1.563,0.533,0.152
1593916988046036,1.715,0.61,0.152
1593916988550241,1.601,0.533,0.152
1593916989051662,1.601,0.533,0.152
1593916989553201,1.677,0.61,0.152
1593916990054742,1.639,0.61,0.152
1593916990556225,1.639,0.61,0.152
1593916991058653,1.563,0.533,0.152
1593916991560276,1.677,0.61,0.152
1593916992061742,1.601,0.61,0.152
1593916992563156,1.563,0.533,0.152
1593916993064850,1.715,0.61,0.152
1593916993568856,1.601,0.61,0.152
1593916994070316,1.601,0.533,0.152
1593916994571735,1.601,0.61,0.152
1593916995073169,1.639,0.61,0.152
1593916995574609,1.639,0.61,0.152
1593916996076013,1.563,0.533,0.152
1593916996578305,1.677,0.61,0.152
1593916997079809,1.639,0.61,0.152
1593916997581241,1.563,0.533,0.152
1593916998082695,1.639,0.61,0.152
1593916998586609,1.601,0.61,0.152
1593916999088072,1.601,0.533,0.152
1593916999589627,1.639,0.61,0.152
1593917000091131,1.639,0.61,0.152
1593917000592577,1.639,0.61,0.152
1593917001093986,1.563,0.533,0.152
1593917001595706,1.677,0.61,0.152
1593917002097205,1.639,0.61,0.152
1593917002598611,1.563,0.533,0.152
1593917003100247,1.639,0.61,0.152
1593917003604213,1.601,0.61,0.152
1593917004105669,1.601,0.533,0.152
1593917004607144,1.639,0.61,0.152
1593917005109541,1.639,0.61,0.152
1593917005610938,1.639,0.61,0.152
1593917006112552,1.792,0.61,0.152
1593917006614017,1.981,0.61,0.152
1593917007115490,2.019,0.61,0.152
1593917007624366,1.943,0.533,0.152
1593917008125875,1.792,0.61,0.152
1593917008629677,1.715,0.61,0.152
1593917009131135,1.563,0.533,0.152
1593917009632633,1.677,0.61,0.152
1593917010134245,1.601,0.61,0.152
1593917010635767,1.601,0.61,0.152
1593917011137334,1.639,0.61,0.152
1593917011638832,1.563,0.533,0.152
1593917012140321,1.639,0.61,0.152
1593917012641764,1.563,0.533,0.152
1593917013143219,1.601,0.61,0.152
1593917013647111,1.677,0.61,0.152
1593917014148681,1.563,0.533,0.152
1593917014650146,1.639,0.61,0.152
1593917015151894,1.563,0.533,0.152
1593917015653367,1.639,0.61,0.152
1593917016154879,1.639,0.61,0.152
1593917016656370,1.563,0.533,0.152
1593917017157822,1.677,0.61,0.152
1593917017659443,1.639,0.61,0.152
1593917018160877,1.601,0.533,0.152
1593917018664934,1.639,0.61,0.152
1593917019166537,1.563,0.533,0.152
1593917019668036,1.639,0.61,0.152
1593917020169456,1.563,0.533,0.152
1593917020670904,1.639,0.61,0.152
1593917021172408,1.639,0.61,0.152
1593917021673845,1.563,0.533,0.152
1593917022175293,1.677,0.61,0.152
1593917022676788,1.601,0.61,0.152
1593917023178210,1.601,0.533,0.152
1593917023682371,1.601,0.61,0.152
1593917024183836,1.639,0.61,0.152
1593917024685342,1.639,0.61,0.152
1593917025186761,1.563,0.533,0.152
1593917025688418,1.677,0.61,0.152
1593917026189946,1.639,0.61,0.152
1593917026691426,1.563,0.533,0.152
1593917027193857,1.677,0.61,0.152
1593917027695372,1.601,0.61,0.152
1593917028196832,1.601,0.533,0.152
1593917028700784,1.601,0.533,0.152
1593917029202251,1.639,0.61,0.152
1593917029703750,1.639,0.61,0.152
1593917030205152,1.563,0.533,0.152
1593917030706680,1.639,0.61,0.152
1593917031208188,1.639,0.61,0.152
1593917031709659,1.563,0.533,0.152
1593917032211070,1.639,0.61,0.152
1593917032712569,1.639,0.61,0.152
1593917033214051,1.601,0.533,0.152
1593917033717782,1.601,0.61,0.152
1593917034219298,1.639,0.61,0.152
1593917034720875,1.639,0.61,0.152
1593917035222279,1.563,0.533,0.152
1593917035723863,1.639,0.61,0.152
1593917036225348,1.639,0.61,0.152
1593917036726804,1.563,0.533,0.152
1593917037228382,1.639,0.61,0.152
1593917037731735,1.677,0.61,0.152
1593917038233196,1.601,0.533,0.152
1593917038737064,1.601,0.533,0.152
1593917039238864,1.563,0.533,0.152
1593917039740415,1.601,0.533,0.152
1593917040241892,1.601,0.61,0.152
1593917040743387,1.601,0.533,0.152
1593917041244885,1.677,0.61,0.152
1593917041746339,1.563,0.533,0.152
1593917042247823,1.601,0.61,0.152
1593917042749404,1.677,0.61,0.152
1593917043250918,1.563,0.533,0.152
1593917043754808,1.639,0.61,0.152
1593917044256322,1.601,0.533,0.152
1593917044757828,1.601,0.61,0.152
1593917045259275,1.601,0.61,0.152
1593917045760650,1.563,0.533,0.152
1593917046262108,1.677,0.61,0.152
1593917046763576,1.601,0.533,0.152
1593917047265052,1.601,0.533,0.152
1593917047767830,1.601,0.61,0.152
1593917048269319,1.563,0.533,0.152
1593917048773349,1.677,0.61,0.152
1593917049274802,1.563,0.533,0.152
1593917049776303,1.601,0.61,0.152
1593917050277880,1.677,0.61,0.152
1593917050779407,1.563,0.533,0.152
1593917051280964,1.677,0.61,0.152
1593917051782458,1.601,0.61,0.152
1593917052283969,1.601,0.61,0.152
1593917052785477,1.601,0.61,0.152
1593917053286934,1.601,0.533,0.152
1593917053790742,1.677,0.61,0.152
1593917054292205,1.563,0.533,0.152
1593917054793670,1.639,0.61,0.152
1593917055295165,1.677,0.61,0.152
1593917055796626,1.563,0.533,0.152
1593917056298193,1.639,0.61,0.152
1593917056799961,1.639,0.61,0.152
1593917057301454,1.601,0.533,0.152
1593917057802913,1.601,0.61,0.152
1593917058304510,1.601,0.533,0.152
1593917058808399,1.677,0.61,0.152
1593917059309850,1.563,0.533,0.152
1593917059812291,1.639,0.61,0.152
1593917060313793,1.639,0.61,0.152
1593917060815257,1.563,0.533,0.152
1593917061316801,1.639,0.533,0.152
1593917061818267,1.639,0.61,0.152
1593917062319764,1.563,0.533,0.152
1593917062821176,1.601,0.61,0.152
1593917063322736,1.639,0.61,0.152
1593917063826760,1.677,0.61,0.152
1593917064328256,1.563,0.533,0.152
1593917064829642,1.563,0.533,0.152
1593917065331095,1.677,0.61,0.152
1593917065832555,1.563,0.533,0.152
1593917066333913,1.639,0.533,0.152
1593917066835505,1.639,0.61,0.152
1593917067336996,1.601,0.61,0.152
1593917067838444,1.601,0.61,0.152
1593917068340152,1.601,0.533,0.152
1593917068844069,1.677,0.61,0.152
1593917069345516,1.867,0.533,0.152
1593917069848632,1.943,0.533,0.152
1593917070350045,2.096,0.61,0.152
1593917070851575,1.905,0.61,0.152
1593917071353042,1.715,0.61,0.152
1593917071854610,1.639,0.61,0.152
1593917072356147,1.601,0.61,0.152
1593917072857561,1.601,0.61,0.152
1593917073359016,1.601,0.533,0.152
1593917073862901,1.677,0.61,0.152
1593917074364483,1.601,0.533,0.152
1593917074866031,1.601,0.61,0.152
1593917075367650,1.677,0.61,0.152
1593917075869138,1.563,0.533,0.152
1593917076370576,1.639,0.61,0.152
1593917076872075,1.601,0.533,0.152
1593917077373572,1.601,0.61,0.152
1593917077874986,1.601,0.61,0.152
1593917078376471,1.563,0.533,0.152
1593917078880276,1.677,0.61,0.152
1593917079381712,1.601,0.533,0.152
1593917079883131,1.601,0.61,0.152
1593917080384777,1.639,0.61,0.152
1593917080886272,1.563,0.533,0.152
1593917081388000,1.677,0.61,0.152
1593917081889477,1.563,0.533,0.152
1593917082390940,1.601,0.533,0.152
1593917082892623,1.639,0.61,0.152
1593917083394108,1.601,0.533,0.152
1593917083898885,1.639,0.61,0.152
1593917084400411,1.601,0.61,0.152
1593917084901887,1.563,0.533,0.152
1593917085403255,1.601,0.61,0.152
1593917085904790,1.601,0.61,0.152
1593917086406298,1.639,0.61,0.152
1593917086907958,1.601,0.61,0.152
1593917087409391,1.601,0.61,0.152
1593917087910850,1.677,0.61,0.152
1593917088412322,1.601,0.533,0.152
1593917088913856,1.639,0.61,0.152
1593917089415485,1.639,0.61,0.152
1593917089916996,1.563,0.533,0.152
1593917090418451,1.601,0.61,0.152
1593917090919940,1.601,0.61,0.152
1593917091421447,1.639,0.61,0.152
1593917091922913,1.601,0.61,0.152
1593917092425169,1.601,0.61,0.152
1593917092926683,1.677,0.61,0.152
1593917093428237,1.563,0.533,0.152
1593917093932036,1.601,0.533,0.152
1593917094433473,1.677,0.61,0.152
1593917094934883,1.563,0.533,0.152
1593917095436283,1.601,0.61,0.152
1593917095937815,1.639,0.61,0.152
1593917096439343,1.639,0.61,0.152
1593917096940798,1.601,0.61,0.152
1593917097442326,1.563,0.533,0.152
1593917097943829,1.677,0.61,0.152
1593917098445279,1.563,0.533,0.152
1593917098949005,1.601,0.533,0.152
1593917099450560,1.715,0.61,0.152
1593917099952079,1.601,0.533,0.152
1593917100453550,1.639,0.61,0.152
1593917100955141,1.563,0.533,0.152
1593917101456646,1.677,0.61,0.152
1593917101958099,1.601,0.61,0.152
1593917102459556,1.563,0.533,0.152
1593917102961054,1.715,0.61,0.152
1593917103462464,1.601,0.533,0.152
1593917103966175,1.601,0.533,0.152
1593917104467920,1.639,0.61,0.152
1593917104969403,1.601,0.533,0.152
1593917105470894,1.601,0.61,0.152
1593917105972398,1.601,0.61,0.152
1593917106473892,1.639,0.61,0.152
1593917106975356,1.601,0.61,0.152
1593917107476887,1.563,0.533,0.152
1593917107979395,1.677,0.61,0.152
1593917108480865,1.601,0.533,0.152
1593917108984776,1.601,0.533,0.152
1593917109486261,1.601,0.61,0.152
1593917109987888,1.601,0.61,0.152
1593917110489414,1.639,0.61,0.152
1593917110990935,1.601,0.61,0.152
1593917111492678,1.677,0.61,0.152
1593917111994122,1.601,0.61,0.152
1593917112495601,1.601,0.61,0.152
1593917112998079,1.639,0.61,0.152
1593917113499579,1.601,0.533,0.152
1593917114004145,1.639,0.61,0.152
1593917114505627,1.601,0.61,0.152
1593917115007126,1.601,0.61,0.152
1593917115508567,1.639,0.61,0.152
1593917116010022,1.601,0.533,0.152
1593917116513162,1.677,0.61,0.152
1593917117014648,1.601,0.61,0.152
1593917117516185,1.601,0.61,0.152
1593917118017677,1.601,0.61,0.152
1593917118519136,1.601,0.61,0.152
1593917119023298,1.677,0.61,0.152
1593917119524793,1.601,0.61,0.152
1593917120026246,1.601,0.61,0.152
1593917120527922,1.677,0.61,0.152
1593917121029431,1.601,0.533,0.152
1593917121531028,1.639,0.61,0.152
1593917122032544,1.601,0.61,0.152
1593917122534037,1.563,0.533,0.152
1593917123035548,1.601,0.533,0.152
1593917123537013,1.601,0.61,0.152
1593917124040932,1.639,0.61,0.152
1593917124542400,1.601,0.61,0.152
1593917125044109,1.601,0.61,0.152
1593917125545621,1.677,0.61,0.152
1593917126047028,1.563,0.533,0.152
1593917126548383,1.601,0.533,0.152
1593917127049933,1.677,0.61,0.152
1593917127551433,1.563,0.533,0.152
1593917128052880,1.601,0.61,0.152
1593917128554369,1.601,0.61,0.152
1593917129058258,1.639,0.61,0.152
1593917129559743,1.601,0.533,0.152
1593917130061253,1.601,0.533,0.152
1593917130562760,1.677,0.61,0.152
1593917131064294,1.563,0.533,0.152
1593917131565665,1.639,0.533,0.152
1593917132067381,1.792,0.61,0.152
1593917132568838,1.905,0.533,0.152
1593917133070250,2.019,0.533,0.152
1593917133573150,1.981,0.533,0.152
1593917134077070,1.905,0.61,0.152
1593917134578522,1.677,0.61,0.152
1593917135079925,1.563,0.533,0.152
1593917135581441,1.677,0.61,0.152
1593917136082943,1.601,0.61,0.152
1593917136584408,1.639,0.533,0.152
1593917137085819,1.563,0.533,0.152
1593917137587268,1.639,0.61,0.152
1593917138088889,1.639,0.61,0.152
1593917138590290,1.563,0.533,0.152
1593917139094388,1.715,0.61,0.152
1593917139595872,1.601,0.61,0.152
1593917140097312,1.563,0.533,0.152
1593917140598820,1.639,0.61,0.152
1593917141100320,1.601,0.61,0.152
1593917141601743,1.639,0.533,0.152
1593917142103292,1.639,0.61,0.152
1593917142604799,1.639,0.61,0.152
1593917143106259,1.639,0.61,0.152
1593917143607962,1.563,0.533,0.152
1593917144112594,1.677,0.61,0.152
1593917144614133,1.601,0.61,0.152
1593917145115601,1.563,0.533,0.152
1593917145617037,1.639,0.61,0.152
1593917146118540,1.601,0.61,0.152
1593917146620002,1.639,0.61,0.152
1593917147121470,1.639,0.61,0.152
1593917147624552,1.639,0.61,0.152
1593917148126018,1.639,0.61,0.152
1593917148627468,1.601,0.61,0.152
1593917149131351,1.639,0.61,0.152
1593917149632818,1.639,0.61,0.152
1593917150134401,1.563,0.533,0.152
1593917150636024,1.601,0.61,0.152
1593917151137517,1.601,0.61,0.152
1593917151638960,1.639,0.61,0.152
1593917152140463,1.601,0.61,0.152
1593917152642024,1.601,0.533,0.152
1593917153143571,1.639,0.61,0.152
1593917153645077,1.601,0.533,0.152
1593917154148977,1.639,0.61,0.152
1593917154650443,1.639,0.61,0.152
1593917155151985,1.601,0.61,0.152
1593917155653462,1.601,0.61,0.152
1593917156155030,1.601,0.61,0.152
1593917156656623,1.677,0.61,0.152
1593917157158132,1.601,0.533,0.152
1593917157659625,1.563,0.533,0.152
1593917158161085,1.639,0.61,0.152
1593917158662590,1.563,0.533,0.152
1593917159166571,1.639,0.533,0.152
1593917159668033,1.639,0.61,0.152
1593917160169495,1.601,0.61,0.152
1593917160670950,1.601,0.61,0.152
1593917161173462,1.601,0.533,0.152
1593917161674969,1.677,0.61,0.152
1593917162176474,1.601,0.533,0.152
1593917162677889,1.563,0.533,0.152
1593917163179432,1.677,0.61,0.152
1593917163680977,1.563,0.533,0.152
1593917164184809,1.639,0.533,0.152
1593917164686393,1.639,0.61,0.152
1593917165187889,1.601,0.61,0.152
1593917165689366,1.601,0.61,0.152
1593917166190740,1.563,0.533,0.152
1593917166692232,1.715,0.61,0.152
1593917167193700,1.601,0.533,0.152
1593917167695124,1.563,0.533,0.152
1593917168196798,1.677,0.61,0.152
1593917168698287,1.601,0.533,0.152
1593917169202055,1.639,0.533,0.152
1593917169703465,1.563,0.533,0.152
1593917170204913,1.677,0.61,0.152
1593917170706320,1.639,0.61,0.152
1593917171207748,1.563,0.533,0.152
1593917171709304,1.677,0.61,0.152
1593917172210799,1.601,0.61,0.152
1593917172712267,1.563,0.533,0.152
1593917173213722,1.639,0.61,0.152
1593917173715211,1.601,0.61,0.152
1593917174219367,1.639,0.61,0.152
1593917174720910,1.601,0.533,0.152
1593917175223232,1.639,0.61,0.152
1593917175724846,1.639,0.61,0.152
1593917176226275,1.563,0.533,0.152
1593917176727786,1.639,0.61,0.152
1593917177229183,1.601,0.61,0.152
1593917177730532,1.563,0.533,0.152
1593917178232023,1.639,0.61,0.152
1593917178733520,1.601,0.61,0.152
1593917179237388,1.639,0.61,0.152
1593917179738872,1.601,0.61,0.152
1593917180240474,1.601,0.61,0.152
1593917180741971,1.639,0.61,0.152
1593917181243613,1.601,0.533,0.152
1593917181745115,1.639,0.61,0.152
1593917182246596,1.601,0.61,0.152
1593917182748017,1.563,0.533,0.152
1593917183249480,1.601,0.61,0.152
1593917183751053,1.639,0.61,0.152
1593917184252532,1.639,0.61,0.152
1593917184754046,1.601,0.61,0.152
1593917185255718,1.563,0.533,0.152
1593917185757103,1.639,0.61,0.152
1593917186258618,1.601,0.533,0.152
1593917186760090,1.601,0.533,0.152
1593917187261542,1.639,0.61,0.152
1593917187763126,1.601,0.61,0.152
1593917188264641,1.639,0.61,0.152
1593917188766334,1.601,0.61,0.152
1593917189268034,1.639,0.61,0.152
1593917189769537,1.601,0.61,0.152
1593917190270997,1.563,0.533,0.152
1593917190772465,1.639,0.61,0.152
1593917191274035,1.601,0.61,0.152
1593917191775482,1.639,0.533,0.152
1593917192276882,1.639,0.61,0.152
1593917192778380,1.601,0.61,0.152
1593917193279847,1.639,0.61,0.152
1593917193781385,1.563,0.533,0.152
1593917194285415,1.677,0.61,0.152
1593917194786877,1.601,0.61,0.152
1593917195288736,1.791,0.533,0.152
1593917195790349,2.058,0.61,0.152
1593917196291861,2.019,0.533,0.152
1593917196798386,1.981,0.61,0.152
1593917197300032,1.753,0.61,0.152
1593917197801532,1.639,0.61,0.152
1593917198302984,1.639,0.61,0.152
1593917198804405,1.563,0.533,0.152
1593917199308255,1.715,0.61,0.152
1593917199809705,1.601,0.61,0.152
1593917200311115,1.563,0.533,0.152
1593917200813150,1.677,0.61,0.152
1593917201314647,1.601,0.61,0.152
1593917201816088,1.639,0.533,0.152
1593917202317484,1.601,0.533,0.152
1593917202818932,1.639,0.61,0.152
1593917203320401,1.639,0.61,0.152
1593917203821847,1.563,0.533,0.152
1593917204326550,1.677,0.61,0.152
1593917204828028,1.639,0.61,0.152
1593917205329446,1.563,0.533,0.152
1593917205831026,1.677,0.61,0.152
1593917206332554,1.639,0.61,0.152
1593917206834011,1.639,0.533,0.152
1593917207335455,1.601,0.533,0.152
1593917207837022,1.639,0.61,0.152
1593917208338508,1.639,0.61,0.152
1593917208839953,1.563,0.533,0.152
1593917209344069,1.639,0.61,0.152
1593917209845566,1.639,0.61,0.152
1593917210347027,1.563,0.533,0.152
1593917210848544,1.639,0.61,0.152
1593917211350044,1.639,0.61,0.152
1593917211851531,1.601,0.533,0.152
1593917212353175,1.639,0.61,0.152
1593917212854731,1.601,0.61,0.152
1593917213356238,1.639,0.61,0.152
1593917213857788,1.563,0.533,0.152
1593917214361579,1.601,0.533,0.152
1593917214863077,1.677,0.61,0.152
1593917215364538,1.563,0.533,0.152
1593917215866013,1.639,0.61,0.152
1593917216367706,1.639,0.61,0.152
1593917216869196,1.601,0.533,0.152
1593917217370708,1.639,0.61,0.152
1593917217872146,1.563,0.533,0.152
1593917218373501,1.639,0.61,0.152
1593917218874955,1.601,0.61,0.152
1593917219379200,1.601,0.533,0.152
1593917219880667,1.639,0.61,0.152
1593917220382250,1.563,0.533,0.152
1593917220883763,1.639,0.61,0.152
1593917221386301,1.601,0.533,0.152
1593917221887801,1.639,0.61,0.152
1593917222389301,1.639,0.61,0.152
1593917222890745,1.563,0.533,0.152
1593917223392169,1.639,0.61,0.152
1593917223893669,1.601,0.61,0.152
1593917224397457,1.639,0.533,0.152
1593917224899780,1.639,0.61,0.152
1593917225401290,1.601,0.61,0.152
1593917225902690,1.639,0.61,0.152
1593917226404088,1.563,0.533,0.152
1593917226905639,1.677,0.61,0.152
1593917227407152,1.601,0.61,0.152
1593917227908602,1.563,0.533,0.152
1593917228410045,1.639,0.61,0.152
1593917228911551,1.601,0.61,0.152
1593917229415580,1.639,0.61,0.152
1593917229917105,1.601,0.61,0.152
1593917230418613,1.639,0.61,0.152
1593917230920074,1.601,0.533,0.152
1593917231421484,1.563,0.533,0.152
1593917231922917,1.753,0.61,0.152
1593917232424410,1.601,0.61,0.152
1593917232925827,1.563,0.533,0.152
1593917233427405,1.601,0.61,0.152
1593917233928894,1.639,0.61,0.152
1593917234432780,1.639,0.533,0.152
1593917234934192,1.563,0.533,0.152
1593917235435873,1.677,0.61,0.152
1593917235937357,1.601,0.61,0.152
1593917236438794,1.563,0.533,0.152
1593917236940237,1.677,0.61,0.152
1593917237441733,1.639,0.61,0.152
1593917237943179,1.563,0.533,0.152
1593917238444760,1.601,0.533,0.152
1593917238946258,1.639,0.61,0.152
1593917239449991,1.639,0.61,0.152
1593917239951412,1.563,0.533,0.152
1593917240452900,1.601,0.61,0.152
1593917240954392,1.639,0.61,0.152
1593917241455839,1.563,0.533,0.152
1593917241957299,1.639,0.61,0.152
1593917242458837,1.639,0.61,0.152
1593917242960286,1.563,0.533,0.152
1593917243461795,1.639,0.61,0.152
1593917243963479,1.639,0.61,0.152
1593917244467679,1.639,0.61,0.152
1593917244969247,1.601,0.61,0.152
1593917245470756,1.601,0.533,0.152
1593917245972185,1.639,0.61,0.152
1593917246473582,1.563,0.533,0.152
1593917246975083,1.639,0.61,0.152
1593917247476604,1.639,0.61,0.152
1593917247978056,1.563,0.533,0.152
1593917248479552,1.639,0.61,0.152
1593917248981891,1.601,0.61,0.152
1593917249485907,1.677,0.61,0.152
1593917249987417,1.639,0.61,0.152
1593917250488879,1.563,0.533,0.152
1593917250990343,1.639,0.61,0.152
1593917251491918,1.601,0.61,0.152
1593917251993418,1.639,0.61,0.152
1593917252494868,1.639,0.61,0.152
1593917252996357,1.563,0.533,0.152
1593917253497824,1.639,0.61,0.152
1593917253999494,1.563,0.533,0.152
1593917254503296,1.677,0.61,0.152
1593917255004898,1.639,0.61,0.152
1593917255506317,1.563,0.533,0.152
1593917256007927,1.677,0.61,0.152
1593917256509428,1.601,0.61,0.152
1593917257010883,1.639,0.61,0.152
1593917257512509,1.639,0.61,0.152
1593917258014115,1.677,0.61,0.152
1593917258515639,1.943,0.61,0.152
1593917259017111,1.981,0.533,0.152
1593917259520882,2.096,0.61,0.152
1593917260022388,1.867,0.61,0.152
1593917260524051,1.639,0.533,0.152
1593917261025512,1.677,0.61,0.152
1593917261527004,1.601,0.61,0.152
1593917262028453,1.639,0.61,0.152
1593917262529972,1.601,0.61,0.152
1593917263031471,1.639,0.61,0.152
1593917263532923,1.639,0.61,0.152
1593917264034322,1.563,0.533,0.152
1593917264538532,1.715,0.61,0.152
1593917265040251,1.601,0.61,0.152
1593917265541678,1.563,0.533,0.152
1593917266044139,1.677,0.61,0.152
1593917266545650,1.601,0.61,0.152
1593917267047096,1.639,0.61,0.152
1593917267548519,1.563,0.533,0.152
1593917268049971,1.639,0.61,0.152
1593917268551439,1.639,0.61,0.152
1593917269053151,1.563,0.533,0.152
1593917269557127,1.715,0.61,0.152
1593917270058643,1.639,0.61,0.152
1593917270560141,1.563,0.533,0.152
1593917271061547,1.601,0.61,0.152
1593917271562991,1.639,0.61,0.152
1593917272064451,1.639,0.61,0.152
1593917272565862,1.563,0.533,0.152
1593917273067789,1.639,0.61,0.152
1593917273569323,1.639,0.61,0.152
1593917274070779,1.563,0.533,0.152
1593917274574496,1.677,0.61,0.152
1593917275076018,1.639,0.61,0.152
1593917275577470,1.563,0.533,0.152
1593917276079026,1.601,0.61,0.152
1593917276580789,1.639,0.61,0.152
1593917277082257,1.639,0.61,0.152
1593917277583726,1.563,0.533,0.152
1593917278085278,1.601,0.61,0.152
1593917278586746,1.639,0.61,0.152
1593917279088229,1.563,0.533,0.152
1593917279592132,1.677,0.61,0.152
1593917280093646,1.639,0.61,0.152
1593917280595095,1.563,0.533,0.152
1593917281096690,1.677,0.61,0.152
1593917281599110,1.601,0.61,0.152
1593917282100632,1.677,0.61,0.152
1593917282602247,1.639,0.61,0.152
1593917283103827,1.601,0.533,0.152
1593917283605316,1.639,0.61,0.152
1593917284106773,1.563,0.533,0.152
1593917284610843,1.677,0.61,0.152
1593917285112365,1.677,0.61,0.152
1593917285613807,1.563,0.533,0.152
1593917286115279,1.639,0.61,0.152
1593917286618100,1.563,0.533,0.152
1593917287119642,1.677,0.61,0.152
1593917287621147,1.639,0.61,0.152
1593917288122614,1.563,0.533,0.152
1593917288624061,1.677,0.61,0.152
1593917289125647,1.601,0.61,0.152
1593917289629566,1.677,0.61,0.152
1593917290131154,1.677,0.61,0.152
1593917290632638,1.601,0.61,0.152
1593917291134101,1.639,0.61,0.152
1593917291635595,1.563,0.533,0.152
1593917292137096,1.563,0.533,0.152
1593917292638644,1.639,0.61,0.152
1593917293140225,1.563,0.533,0.152
1593917293641783,1.639,0.61,0.152
1593917294143281,1.639,0.61,0.152
1593917294647090,1.563,0.533,0.152
1593917295148709,1.563,0.533,0.152
1593917295650283,1.639,0.61,0.152
1593917296151802,1.563,0.533,0.152
1593917296653251,1.639,0.533,0.152
1593917297154710,1.639,0.61,0.152
1593917297656196,1.601,0.533,0.152
1593917298157668,1.601,0.533,0.152
1593917298659252,1.601,0.61,0.152
1593917299160834,1.639,0.61,0.152
1593917299664606,1.601,0.533,0.152
1593917300165977,1.563,0.533,0.152
1593917300667434,1.715,0.61,0.152
1593917301168913,1.601,0.533,0.152
1593917301670329,1.563,0.533,0.152
1593917302172171,1.677,0.61,0.152
1593917302673669,1.601,0.61,0.152
1593917303175132,1.563,0.533,0.152
1593917303676660,1.601,0.61,0.152
1593917304178097,1.639,0.61,0.152
1593917304681898,1.639,0.61,0.152
1593917305183375,1.563,0.533,0.152
1593917305684915,1.639,0.61,0.152
1593917306186426,1.639,0.61,0.152
1593917306687884,1.563,0.533,0.152
1593917307189418,1.639,0.61,0.152
1593917307690911,1.639,0.61,0.152
1593917308192507,1.563,0.533,0.152
1593917308693886,1.601,0.61,0.152
1593917309195429,1.639,0.61,0.152
1593917309696916,1.639,0.61,0.152
1593917310198366,1.563,0.533,0.152
1593917310699845,1.601,0.61,0.152
1593917311201377,1.639,0.61,0.152
1593917311702822,1.563,0.533,0.152
1593917312204292,1.677,0.61,0.152
1593917312705736,1.639,0.61,0.152
1593917313207163,1.563,0.533,0.152
1593917313708853,1.639,0.61,0.152
1593917314210476,1.601,0.533,0.152
1593917314714425,1.563,0.533,0.152
1593917315215878,1.563,0.533,0.152
1593917315717345,1.563,0.533,0.152
1593917316218872,1.677,0.61,0.152
1593917316720459,1.601,0.533,0.152
1593917317221924,1.601,0.61,0.152
1593917317723501,1.677,0.61,0.152
1593917318224990,1.601,0.533,0.152
1593917318726490,1.677,0.61,0.152
1593917319227960,1.601,0.533,0.152
1593917319731855,1.601,0.61,0.152
1593917320233442,1.677,0.61,0.152
1593917320734949,1.563,0.533,0.152
1593917321236490,1.905,0.61,0.152
1593917321737891,1.981,0.61,0.152
1593917322239363,1.981,0.61,0.152
1593917322740996,1.981,0.61,0.152
1593917323242506,1.715,0.61,0.152
1593917323744026,1.715,0.61,0.152
1593917324245528,1.601,0.533,0.152
1593917324749275,1.639,0.61,0.152
1593917325250775,1.677,0.61,0.152
1593917325752231,1.563,0.533,0.152
1593917326253772,1.677,0.61,0.152
1593917326755507,1.639,0.61,0.152
1593917327257018,1.563,0.533,0.152
1593917327758459,1.601,0.61,0.152
1593917328260013,1.601,0.61,0.152
1593917328761514,1.639,0.61,0.152
1593917329262974,1.563,0.533,0.152
1593917329767114,1.639,0.61,0.152
1593917330268627,1.639,0.61,0.152
1593917330770082,1.563,0.533,0.152
1593917331271490,1.639,0.61,0.152
1593917331772960,1.639,0.61,0.152
1593917332274449,1.563,0.533,0.152
1593917332775863,1.601,0.61,0.152
1593917333277393,1.639,0.61,0.152
1593917333778863,1.639,0.61,0.152
1593917334280453,1.563,0.533,0.152
1593917334784620,1.601,0.533,0.152
1593917335286128,1.677,0.61,0.152
1593917335787828,1.563,0.533,0.152
1593917336289229,1.639,0.61,0.152
1593917336790790,1.677,0.61,0.152
1593917337292312,1.601,0.533,0.152
1593917337793755,1.601,0.61,0.152
1593917338295370,1.601,0.533,0.152
1593917338796833,1.677,0.61,0.152
1593917339298299,1.601,0.533,0.152
1593917339801336,1.563,0.533,0.152
1593917340302790,1.677,0.61,0.152
1593917340804220,1.563,0.533,0.152
1593917341305543,1.601,0.61,0.152
1593917341807115,1.601,0.61,0.152
1593917342308619,1.639,0.61,0.152
1593917342810060,1.601,0.61,0.152
1593917343311562,1.601,0.61,0.152
1593917343813053,1.677,0.61,0.152
1593917344314468,1.563,0.533,0.152
1593917344818153,1.677,0.61,0.152
1593917345320014,1.639,0.61,0.152
1593917345821501,1.563,0.533,0.152
1593917346323084,1.639,0.61,0.152
1593917346824619,1.563,0.533,0.152
1593917347326117,1.677,0.61,0.152
1593917347827570,1.601,0.61,0.152
1593917348329030,1.601,0.533,0.152
1593917348830491,1.677,0.61,0.152
1593917349331981,1.563,0.533,0.152
1593917349835961,1.677,0.61,0.152
1593917350337546,1.639,0.61,0.152
1593917350839044,1.601,0.61,0.152
1593917351340545,1.677,0.61,0.152
1593917351841996,1.563,0.533,0.152
1593917352343544,1.677,0.61,0.152
1593917352845107,1.601,0.61,0.152
1593917353346651,1.563,0.61,0.152
1593917353848313,1.677,0.61,0.152
1593917354349758,1.563,0.533,0.152
1593917354853590,1.677,0.61,0.152
1593917355355049,1.601,0.533,0.152
1593917355856688,1.601,0.61,0.152
1593917356358194,1.639,0.61,0.152
1593917356859661,1.563,0.533,0.152
1593917357361114,1.677,0.61,0.152
1593917357862614,1.639,0.61,0.152
1593917358364082,1.563,0.533,0.152
1593917358865599,1.639,0.61,0.152
1593917359367150,1.601,0.61,0.152
1593917359871369,1.677,0.61,0.152
1593917360372786,1.563,0.533,0.152
1593917360874241,1.601,0.61,0.152
1593917361375861,1.639,0.61,0.152
1593917361877304,1.563,0.533,0.152
1593917362378709,1.715,0.61,0.152
1593917362880204,1.639,0.61,0.152
1593917363381669,1.563,0.533,0.152
1593917363883205,1.601,0.61,0.152
1593917364384738,1.639,0.61,0.152
1593917364888437,1.639,0.61,0.152
1593917365389868,1.563,0.533,0.152
1593917365891536,1.639,0.61,0.152
1593917366393050,1.639,0.61,0.152
1593917366894494,1.563,0.533,0.152
1593917367396192,1.677,0.61,0.152
1593917367897682,1.639,0.61,0.152
1593917368399144,1.563,0.533,0.152
1593917368900706,1.601,0.533,0.152
1593917369402148,1.677,0.61,0.152
1593917369905900,1.639,0.533,0.152
1593917370407289,1.601,0.533,0.152
1593917370909105,1.601,0.533,0.152
1593917371410640,1.677,0.61,0.152
1593917371912245,1.563,0.533,0.152
1593917372413665,1.601,0.533,0.152
1593917372915122,1.677,0.61,0.152
1593917373416580,1.563,0.533,0.152
1593917373917995,1.601,0.61,0.152
1593917374419497,1.639,0.61,0.152
1593917374923454,1.639,0.61,0.152
1593917375425022,1.601,0.61,0.152
1593917375926500,1.601,0.61,0.152
1593917376428003,1.677,0.61,0.152
1593917376929405,1.563,0.533,0.152
1593917377430971,1.601,0.533,0.152
1593917377932662,1.677,0.61,0.152
1593917378434154,1.563,0.533,0.152
1593917378935602,1.639,0.61,0.152
1593917379437022,1.601,0.533,0.152
1593917379941020,1.601,0.533,0.152
1593917380442485,1.601,0.533,0.152
1593917380943961,1.563,0.533,0.152
1593917381445458,1.601,0.61,0.152
1593917381946890,1.601,0.61,0.152
1593917382448388,1.601,0.533,0.152
1593917382949962,1.677,0.61,0.152
1593917383451449,1.601,0.61,0.152
1593917383952996,1.601,0.61,0.152
1593917384454656,1.943,0.61,0.152
1593917384958237,2.019,0.61,0.152
1593917385459724,2.058,0.533,0.152
1593917385961058,1.867,0.61,0.152
1593917386462652,1.715,0.61,0.152
1593917386964167,1.639,0.61,0.152
1593917387465656,1.601,0.533,0.152
1593917387967106,1.639,0.533,0.152
1593917388468624,1.601,0.61,0.152
1593917388970078,1.601,0.61,0.152
1593917389471573,1.601,0.61,0.152
1593917389975644,1.601,0.61,0.152
1593917390477162,1.677,0.61,0.152
1593917390978663,1.601,0.61,0.152
1593917391480384,1.601,0.61,0.152
1593917391981871,1.639,0.61,0.152
1593917392483540,1.601,0.533,0.152
1593917392984996,1.639,0.533,0.152
1593917393486448,1.639,0.61,0.152
1593917393987963,1.601,0.61,0.152
1593917394489415,1.601,0.61,0.152
1593917394993389,1.639,0.61,0.152
1593917395494873,1.677,0.61,0.152
1593917395996366,1.601,0.61,0.152
1593917396497924,1.563,0.533,0.152
1593917396999586,1.677,0.61,0.152
1593917397501081,1.563,0.533,0.152
1593917398002554,1.601,0.533,0.152
1593917398504013,1.639,0.61,0.152
1593917399005473,1.601,0.533,0.152
1593917399507189,1.601,0.61,0.152
1593917400011218,1.601,0.61,0.152
1593917400513104,1.677,0.61,0.152
1593917401014559,1.601,0.61,0.152
1593917401516007,1.563,0.533,0.152
1593917402017490,1.677,0.61,0.152
1593917402518961,1.563,0.533,0.152
1593917403020379,1.601,0.533,0.152
1593917403521934,1.677,0.61,0.152
1593917404023439,1.601,0.533,0.152
1593917404524778,1.639,0.61,0.152
1593917405026116,1.563,0.533,0.152
1593917405527589,1.677,0.61,0.152
1593917406029003,1.639,0.61,0.152
1593917406530371,1.563,0.533,0.152
1593917407031938,1.677,0.61,0.152
1593917407533392,1.601,0.61,0.152
1593917408034832,1.601,0.533,0.152
1593917408536389,1.601,0.61,0.152
1593917409037884,1.601,0.61,0.152
1593917409539393,1.639,0.61,0.152
1593917410040858,1.601,0.533,0.152
1593917410544830,1.715,0.61,0.152
1593917411046319,1.639,0.61,0.152
1593917411547852,1.563,0.533,0.152
1593917412049405,1.639,0.61,0.152
1593917412550860,1.601,0.61,0.152
1593917413052344,1.601,0.533,0.152
1593917413553822,1.639,0.61,0.152
1593917414055354,1.601,0.61,0.152
1593917414556798,1.639,0.61,0.152
1593917415058343,1.601,0.61,0.152
1593917415562655,1.601,0.61,0.152
1593917416064196,1.639,0.61,0.152
1593917416565639,1.563,0.533,0.152
1593917417067110,1.639,0.61,0.152
1593917417568592,1.639,0.61,0.152
1593917418070028,1.563,0.533,0.152
1593917418571484,1.639,0.61,0.152
1593917419072926,1.639,0.61,0.152
1593917419574346,1.639,0.61,0.152
1593917420075945,1.601,0.61,0.152
1593917420579927,1.563,0.533,0.152
1593917421081414,1.639,0.61,0.152
1593917421582999,1.601,0.61,0.152
1593917422084508,1.639,0.533,0.152
1593917422585995,1.639,0.61,0.152
1593917423087436,1.563,0.533,0.152
1593917423588937,1.601,0.61,0.152
1593917424091459,1.601,0.61,0.152
1593917424592965,1.639,0.61,0.152
1593917425094426,1.601,0.61,0.152
1593917425598208,1.601,0.533,0.152
1593917426099588,1.639,0.61,0.152
1593917426601097,1.601,0.61,0.152
1593917427102562,1.639,0.61,0.152
1593917427603996,1.639,0.61,0.152
1593917428105446,1.639,0.61,0.152
1593917428606905,1.601,0.61,0.152
1593917429110000,1.563,0.533,0.152
1593917429611619,1.639,0.61,0.152
1593917430113089,1.601,0.533,0.152
1593917430617235,1.601,0.533,0.152
1593917431118706,1.639,0.61,0.152
1593917431620205,1.601,0.533,0.152
1593917432121669,1.639,0.61,0.152
1593917432623204,1.639,0.61,0.152
1593917433124815,1.639,0.61,0.152
1593917433626269,1.601,0.61,0.152
1593917434127669,1.525,0.533,0.152
1593917434629121,1.715,0.61,0.152
1593917435130574,1.601,0.533,0.152
1593917435634422,1.563,0.533,0.152
1593917436136128,1.677,0.61,0.152
1593917436637638,1.563,0.533,0.152
1593917437139092,1.639,0.61,0.152
1593917437641490,1.601,0.61,0.152
1593917438142963,1.639,0.61,0.152
1593917438644436,1.601,0.61,0.152
1593917439145836,1.563,0.533,0.152
1593917439648338,1.715,0.61,0.152
1593917440149828,1.601,0.61,0.152
1593917440653574,1.563,0.533,0.152
1593917441155134,1.601,0.61,0.152
1593917441656652,1.601,0.61,0.152
1593917442158061,1.639,0.61,0.152
1593917442659485,1.563,0.533,0.152
1593917443160904,1.677,0.61,0.152
1593917443662359,1.639,0.61,0.152
1593917444163777,1.563,0.533,0.152
1593917444665716,1.677,0.61,0.152
1593917445167245,1.601,0.533,0.152
1593917445671277,1.525,0.533,0.152
1593917446172737,1.639,0.61,0.152
1593917446674192,1.639,0.61,0.152
1593917447175719,1.753,0.533,0.152
1593917447677706,1.981,0.533,0.152
1593917448179289,2.019,0.61,0.152
1593917448680850,1.981,0.533,0.152
1593917449182351,1.753,0.533,0.152
1593917449683866,1.601,0.533,0.152
1593917450185465,1.601,0.533,0.152
1593917450686892,1.601,0.533,0.152
1593917451188453,1.601,0.533,0.152
1593917451689949,1.639,0.61,0.152
1593917452191407,1.639,0.61,0.152
1593917452692838,1.601,0.533,0.152
1593917453194411,1.639,0.61,0.152
1593917453695886,1.601,0.61,0.152
1593917454197461,1.601,0.533,0.152
1593917454699015,1.601,0.61,0.152
1593917455200504,1.601,0.61,0.152
1593917455704394,1.639,0.61,0.152
1593917456205870,1.601,0.61,0.152
1593917456707497,1.601,0.61,0.152
1593917457208970,1.639,0.61,0.152
1593917457710466,1.601,0.533,0.152
1593917458211956,1.639,0.533,0.152
1593917458713400,1.601,0.61,0.152
1593917459214900,1.639,0.61,0.152
1593917459716408,1.601,0.61,0.152
1593917460217828,1.639,0.61,0.152
1593917460721691,1.677,0.61,0.152
1593917461223204,1.601,0.533,0.152
1593917461724936,1.563,0.533,0.152
1593917462226427,1.639,0.61,0.152
1593917462728069,1.601,0.533,0.152
1593917463229531,1.601,0.533,0.152
1593917463730980,1.639,0.61,0.152
1593917464232476,1.601,0.533,0.152
1593917464733936,1.639,0.61,0.152
1593917465235624,1.601,0.61,0.152
1593917465739570,1.639,0.61,0.152
1593917466240970,1.639,0.61,0.152
1593917466742307,1.563,0.533,0.152
1593917467243917,1.715,0.61,0.152
1593917467745424,1.601,0.533,0.152
1593917468246868,1.563,0.533,0.152
1593917468748356,1.677,0.61,0.152
1593917469249891,1.601,0.533,0.152
1593917469751357,1.639,0.61,0.152
1593917470253140,1.601,0.61,0.152
1593917470757303,1.639,0.61,0.152
1593917471258751,1.601,0.61,0.152
1593917471760258,1.563,0.533,0.152
1593917472261684,1.715,0.61,0.152
1593917472763152,1.601,0.533,0.152
1593917473264602,1.563,0.533,0.152
1593917473766129,1.601,0.533,0.152
1593917474267619,1.601,0.61,0.152
1593917474769076,1.639,0.61,0.152
1593917475270477,1.563,0.533,0.152
1593917475774512,1.677,0.61,0.152
1593917476276018,1.639,0.61,0.152
1593917476777465,1.563,0.533,0.152
1593917477278929,1.677,0.61,0.152
1593917477780468,1.639,0.61,0.152
1593917478281896,1.563,0.533,0.152
1593917478783424,1.639,0.61,0.152
1593917479284923,1.639,0.61,0.152
1593917479786382,1.639,0.61,0.152
1593917480287805,1.563,0.533,0.152
1593917480791963,1.601,0.61,0.152
1593917481293457,1.639,0.61,0.152
1593917481794902,1.563,0.533,0.152
1593917482296416,1.677,0.61,0.152
1593917482797906,1.639,0.61,0.152
1593917483299354,1.563,0.533,0.152
1593917483800827,1.639,0.61,0.152
1593917484302365,1.639,0.61,0.152
1593917484803847,1.639,0.61,0.152
1593917485305413,1.601,0.61,0.152
1593917485809307,1.563,0.533,0.152
1593917486310675,1.639,0.61,0.152
1593917486812069,1.563,0.533,0.152
1593917487313542,1.677,0.61,0.152
1593917487815033,1.639,0.61,0.152
1593917488316480,1.563,0.533,0.152
1593917488817936,1.639,0.61,0.152
1593917489321336,1.601,0.61,0.152
1593917489822811,1.639,0.61,0.152
1593917490324312,1.639,0.61,0.152
1593917490828192,1.563,0.533,0.152
1593917491329654,1.639,0.61,0.152
1593917491831245,1.601,0.61,0.152
1593917492332841,1.639,0.61,0.152
1593917492834284,1.639,0.61,0.152
1593917493335881,1.563,0.533,0.152
1593917493837353,1.639,0.61,0.152
1593917494338959,1.563,0.533,0.152
1593917494840361,1.677,0.61,0.152
1593917495341867,1.639,0.61,0.152
1593917495845990,1.563,0.533,0.152
1593917496347449,1.639,0.61,0.152
1593917496848909,1.601,0.61,0.152
1593917497350375,1.639,0.61,0.152
1593917497851998,1.639,0.61,0.152
1593917498353467,1.639,0.61,0.152
1593917498854933,1.639,0.61,0.152
1593917499356629,1.563,0.533,0.152
1593917499858154,1.677,0.61,0.152
1593917500359663,1.601,0.61,0.152
1593917500863570,1.563,0.533,0.152
1593917501365058,1.677,0.61,0.152
1593917501866583,1.601,0.61,0.152
1593917502368098,1.639,0.61,0.152
1593917502870450,1.601,0.61,0.152
1593917503371998,1.601,0.61,0.152
1593917503873458,1.639,0.61,0.152
1593917504374882,1.563,0.533,0.152
1593917504876327,1.715,0.61,0.152
1593917505377777,1.601,0.61,0.152
1593917505881485,1.563,0.533,0.152
1593917506383281,1.677,0.61,0.152
1593917506884959,1.601,0.61,0.152
1593917507386423,1.639,0.61,0.152
1593917507887840,1.563,0.533,0.152
1593917508389240,1.677,0.61,0.152
1593917508890655,1.639,0.61,0.152
1593917509392088,1.563,0.533,0.152
1593917509893672,1.677,0.61,0.152
1593917510395156,1.905,0.61,0.152
1593917510898818,1.981,0.533,0.152
1593917511400261,2.019,0.61,0.152
1593917511904783,1.905,0.61,0.152
1593917512406278,1.792,0.61,0.152
1593917512907896,1.601,0.61,0.152
1593917513409353,1.601,0.61,0.152
1593917513910856,1.677,0.61,0.152
1593917514412306,1.563,0.533,0.152
1593917514913760,1.677,0.61,0.152
1593917515415416,1.639,0.61,0.152
1593917515919584,1.601,0.533,0.152
1593917516421047,1.677,0.61,0.152
1593917516922513,1.563,0.533,0.152
1593917517424294,1.677,0.61,0.152
1593917517925875,1.601,0.61,0.152
1593917518427406,1.563,0.533,0.152
1593917518928977,1.677,0.61,0.152
1593917519430439,1.601,0.533,0.152
1593917519931996,1.601,0.533,0.152
1593917520433566,1.601,0.61,0.152
1593917520937573,1.601,0.533,0.152
1593917521439083,1.677,0.61,0.152
1593917521940560,1.563,0.533,0.152
1593917522442013,1.601,0.61,0.152
1593917522943555,1.677,0.61,0.152
1593917523445022,1.563,0.533,0.152
1593917523947521,1.677,0.61,0.152
1593917524450221,1.639,0.61,0.152
1593917524951772,1.601,0.533,0.152
1593917525453243,1.601,0.61,0.152
1593917525957008,1.601,0.533,0.152
1593917526458513,1.677,0.61,0.152
1593917526959980,1.601,0.533,0.152
1593917527461402,1.639,0.61,0.152
1593917527962905,1.639,0.61,0.152
1593917528464373,1.563,0.533,0.152
1593917528965888,1.639,0.61,0.152
1593917529467498,1.639,0.61,0.152
1593917529968921,1.563,0.533,0.152
1593917530470402,1.601,0.533,0.152
1593917530974341,1.639,0.61,0.152
1593917531475913,1.601,0.533,0.152
1593917531977374,1.563,0.533,0.152
1593917532478924,1.601,0.533,0.152
1593917532980432,1.677,0.533,0.152
1593917533481892,1.563,0.533,0.152
1593917533983298,1.563,0.533,0.152
1593917534484795,1.677,0.61,0.152
1593917534986207,1.563,0.533,0.152
1593917535487616,1.563,0.533,0.152
1593917535991542,1.639,0.533,0.152
1593917536493089,1.601,0.533,0.152
1593917536994555,1.563,0.533,0.152
1593917537495988,1.563,0.533,0.152
1593917537997467,1.639,0.61,0.152
1593917538498935,1.601,0.533,0.152
1593917539000406,1.563,0.533,0.152
1593917539501939,1.601,0.533,0.152
1593917540003432,1.639,0.533,0.152
1593917540504861,1.563,0.533,0.152
1593917541008622,1.601,0.533,0.152
1593917541510122,1.677,0.61,0.152
1593917542011601,1.563,0.533,0.152
1593917542513136,1.563,0.533,0.152
1593917543014692,1.677,0.61,0.152
1593917543516215,1.563,0.533,0.152
1593917544017640,1.563,0.533,0.152
1593917544519053,1.601,0.533,0.152
1593917545020658,1.601,0.533,0.152
1593917545522111,1.563,0.533,0.152
1593917546026072,1.601,0.533,0.152
1593917546527646,1.601,0.61,0.152
1593917547029087,1.639,0.533,0.152
1593917547530544,1.601,0.61,0.152
1593917548032112,1.601,0.533,0.152
1593917548533611,1.639,0.533,0.152
1593917549035194,1.601,0.533,0.152
1593917549536922,1.563,0.533,0.152
1593917550038414,1.639,0.533,0.152
1593917550539898,1.563,0.533,0.152
1593917551043761,1.563,0.533,0.152
1593917551545210,1.639,0.61,0.152
1593917552046608,1.563,0.533,0.152
1593917552548074,1.601,0.533,0.152
1593917553050248,1.563,0.533,0.152
1593917553551780,1.563,0.533,0.152
1593917554053278,1.677,0.61,0.152
1593917554554712,1.563,0.533,0.152
1593917555056196,1.601,0.533,0.152
1593917555557813,1.639,0.533,0.152
1593917556062187,1.563,0.533,0.152
1593917556563893,1.601,0.533,0.152
1593917557065378,1.601,0.533,0.152
1593917557566876,1.563,0.533,0.152
1593917558068368,1.563,0.533,0.152
1593917558569815,1.601,0.533,0.152
1593917559071355,1.601,0.533,0.152
1593917559572779,1.639,0.533,0.152
1593917560074206,1.639,0.61,0.152
1593917560575788,1.601,0.61,0.152
1593917561079658,1.601,0.533,0.152
1593917561581977,1.563,0.533,0.152
1593917562083941,1.639,0.61,0.152
1593917562585446,1.601,0.533,0.152
1593917563086887,1.563,0.533,0.152
1593917563588385,1.601,0.533,0.152
1593917564089890,1.601,0.533,0.152
1593917564591557,1.563,0.533,0.152
1593917565094084,1.677,0.61,0.152
1593917565595601,1.601,0.61,0.152
1593917566099459,1.563,0.533,0.152
1593917566600838,1.601,0.533,0.152
1593917567102348,1.639,0.61,0.152
1593917567603845,1.563,0.533,0.152
1593917568105249,1.601,0.533,0.152
1593917568606794,1.639,0.61,0.152
1593917569108402,1.563,0.533,0.152
1593917569609863,1.563,0.533,0.152
1593917570111342,1.563,0.533,0.152
1593917570612813,1.677,0.61,0.152
1593917571116612,1.601,0.533,0.152
1593917571617983,1.525,0.533,0.152
1593917572120130,1.677,0.61,0.152
1593917572621632,1.601,0.533,0.152
1593917573123079,1.677,0.533,0.152
1593917573624762,1.981,0.533,0.152
1593917574126265,2.019,0.61,0.152
1593917574648275,1.943,0.533,0.152
1593917575149689,1.753,0.61,0.152
1593917575651151,1.677,0.61,0.152
1593917576152647,1.601,0.533,0.152
1593917576654072,1.563,0.533,0.152
1593917577155672,1.563,0.533,0.152
1593917577657201,1.677,0.533,0.152
1593917578158610,1.563,0.533,0.152
1593917578660074,1.601,0.533,0.152
1593917579161598,1.677,0.61,0.152
1593917579663055,1.563,0.533,0.152
1593917580164557,1.601,0.61,0.152
1593917580666934,1.677,0.61,0.152
1593917581168426,1.601,0.533,0.152
1593917581669994,1.563,0.533,0.152
1593917582171461,1.601,0.533,0.152
1593917582672964,1.601,0.533,0.152
1593917583174413,1.601,0.533,0.152
1593917583675884,1.601,0.533,0.152
1593917584177338,1.601,0.61,0.152
1593917584678796,1.639,0.533,0.152
1593917585180271,1.601,0.533,0.152
1593917585681848,1.563,0.533,0.152
1593917586185632,1.639,0.533,0.152
1593917586687144,1.601,0.61,0.152
1593917587188605,1.563,0.533,0.152
1593917587690025,1.639,0.61,0.152
1593917588191627,1.563,0.533,0.152
1593917588693130,1.601,0.533,0.152
1593917589194674,1.639,0.61,0.152
1593917589696291,1.563,0.533,0.152
1593917590197795,1.677,0.533,0.152
1593917590699363,1.563,0.533,0.152
1593917591203271,1.563,0.533,0.152
1593917591704813,1.639,0.533,0.152
1593917592206263,1.563,0.533,0.152
1593917592707752,1.601,0.61,0.152
1593917593209250,1.639,0.61,0.152
1593917593710712,1.563,0.533,0.152
1593917594212324,1.563,0.533,0.152
1593917594713907,1.639,0.61,0.152
1593917595215413,1.563,0.533,0.152
1593917595716875,1.601,0.533,0.152
1593917596220629,1.639,0.61,0.152
1593917596722129,1.601,0.533,0.152
1593917597223537,1.601,0.533,0.152
1593917597725091,1.601,0.61,0.152
1593917598226590,1.601,0.533,0.152
1593917598728056,1.601,0.533,0.152
1593917599229472,1.563,0.533,0.152
1593917599730920,1.639,0.61,0.152
1593917600232375,1.601,0.533,0.152
1593917600733782,1.563,0.533,0.152
1593917601237806,1.677,0.61,0.152
1593917601739384,1.601,0.533,0.152
1593917602240834,1.563,0.533,0.152
1593917602742392,1.639,0.533,0.152
1593917603243884,1.639,0.61,0.152
1593917603745341,1.563,0.533,0.152
1593917604246711,1.601,0.533,0.152
1593917604748292,1.639,0.61,0.152
1593917605249782,1.563,0.533,0.152
1593917605751195,1.601,0.533,0.152
1593917606255818,1.601,0.533,0.152
1593917606757327,1.639,0.61,0.152
1593917607258769,1.601,0.533,0.152
1593917607760089,1.563,0.533,0.152
1593917608261495,1.715,0.61,0.152
1593917608762989,1.601,0.533,0.152
1593917609264402,1.563,0.533,0.152
1593917609765929,1.639,0.533,0.152
1593917610267421,1.601,0.61,0.152
1593917610768840,1.563,0.533,0.152
1593917611272584,1.639,0.61,0.152
1593917611774079,1.639,0.61,0.152
1593917612275568,1.639,0.533,0.152
1593917612777065,1.601,0.533,0.152
1593917613278679,1.601,0.61,0.152
1593917613780298,1.639,0.533,0.152
1593917614281740,1.563,0.533,0.152
1593917614783196,1.563,0.533,0.152
1593917615284732,1.639,0.61,0.152
1593917615786089,1.563,0.533,0.152
1593917616287631,1.601,0.533,0.152
1593917616789088,1.639,0.61,0.152
1593917617290563,1.563,0.533,0.152
1593917617792032,1.639,0.533,0.152
1593917618293940,1.601,0.533,0.152
1593917618795469,1.563,0.533,0.152
1593917619297049,1.677,0.533,0.152
1593917619798559,1.563,0.533,0.152
1593917620300016,1.601,0.533,0.152
1593917620801468,1.601,0.533,0.152
1593917621302939,1.563,0.533,0.152
1593917621808331,1.601,0.61,0.152
1593917622309821,1.639,0.61,0.152
1593917622811287,1.601,0.533,0.152
1593917623312948,1.639,0.61,0.152
1593917623814404,1.639,0.61,0.152
1593917624315951,1.601,0.61,0.152
1593917624817410,1.601,0.61,0.152
1593917625318872,1.601,0.61,0.152
1593917625820547,1.677,0.61,0.152
1593917626321961,1.601,0.61,0.152
1593917626823606,1.601,0.61,0.152
1593917627325107,1.639,0.61,0.152
1593917627826612,1.563,0.533,0.152
1593917628328066,1.639,0.533,0.152
1593917628829620,1.639,0.61,0.152
1593917629331123,1.601,0.61,0.152
1593917629832602,1.601,0.61,0.152
1593917630334172,1.601,0.61,0.152
1593917630835673,1.677,0.61,0.152
1593917631337125,1.601,0.61,0.152
1593917631838531,1.563,0.533,0.152
1593917632342258,1.715,0.61,0.152
1593917632843891,1.563,0.533,0.152
1593917633345308,1.639,0.533,0.152
1593917633846881,1.639,0.61,0.152
1593917634348385,1.601,0.61,0.152
1593917634849850,1.601,0.61,0.152
1593917635351512,1.601,0.533,0.152
1593917635853017,1.715,0.61,0.152
1593917636354494,1.867,0.61,0.152
1593917636855951,1.943,0.533,0.152
1593917637360120,2.134,0.61,0.152
1593917637861594,1.905,0.61,0.152
1593917638363065,1.753,0.61,0.152
1593917638866257,1.639,0.61,0.152
1593917639367766,1.639,0.61,0.152
1593917639869221,1.639,0.61,0.152
1593917640370652,1.563,0.533,0.152
1593917640872190,1.753,0.61,0.152
1593917641373646,1.639,0.61,0.152
1593917641875061,1.563,0.533,0.152
1593917642378982,1.677,0.61,0.152
1593917642880543,1.601,0.61,0.152
1593917643381952,1.639,0.61,0.152
1593917643883496,1.639,0.61,0.152
1593917644384995,1.639,0.61,0.152
1593917644886448,1.639,0.61,0.152
1593917645387859,1.563,0.533,0.152
1593917645889384,1.715,0.61,0.152
1593917646390774,1.639,0.61,0.152
1593917646892147,1.563,0.533,0.152
1593917647393649,1.639,0.61,0.152
1593917647895146,1.601,0.61,0.152
1593917648396588,1.639,0.61,0.152
1593917648898014,1.639,0.61,0.152
1593917649399498,1.639,0.61,0.152
1593917649900920,1.639,0.61,0.152
1593917650402536,1.639,0.61,0.152
1593917650904123,1.677,0.61,0.152
1593917651405609,1.639,0.61,0.152
1593917651908621,1.563,0.533,0.152
1593917652410224,1.639,0.61,0.152
1593917652911799,1.601,0.61,0.152
1593917653413244,1.639,0.533,0.152
1593917653914702,1.639,0.61,0.152
1593917654417399,1.601,0.61,0.152
1593917654918838,1.639,0.61,0.152
1593917655420399,1.601,0.61,0.152
1593917655921864,1.639,0.533,0.152
1593917656423356,1.639,0.61,0.152
1593917656924858,1.601,0.61,0.152
1593917657426318,1.639,0.61,0.152
1593917657927775,1.639,0.61,0.152
1593917658429346,1.639,0.61,0.152
1593917658930845,1.601,0.61,0.152
1593917659432521,1.601,0.533,0.152
1593917659934008,1.639,0.61,0.152
1593917660435550,1.601,0.533,0.152
1593917660937012,1.601,0.533,0.152
1593917661438467,1.639,0.61,0.152
1593917661939994,1.601,0.61,0.152
1593917662441417,1.639,0.61,0.152
1593917662942987,1.639,0.61,0.152
1593917663444498,1.677,0.61,0.152
1593917663945966,1.601,0.61,0.152
1593917664447382,1.525,0.533,0.152
1593917664948909,1.677,0.61,0.152
1593917665450424,1.601,0.533,0.152
1593917665951885,1.563,0.533,0.152
1593917666453343,1.677,0.61,0.152
1593917666954880,1.601,0.533,0.152
1593917667456231,1.639,0.533,0.152
1593917667957757,1.601,0.533,0.152
1593917668459170,1.601,0.61,0.152
1593917668960542,1.601,0.61,0.152
1593917669461921,1.563,0.533,0.152
1593917669963426,1.715,0.61,0.152
1593917670464884,1.601,0.533,0.152
1593917670966306,1.563,0.533,0.152
1593917671467922,1.639,0.61,0.152
1593917671969408,1.601,0.533,0.152
1593917672470821,1.639,0.533,0.152
1593917672972199,1.563,0.533,0.152
1593917673476125,1.677,0.61,0.152
1593917673977614,1.639,0.61,0.152
1593917674479036,1.563,0.533,0.152
1593917674980710,1.677,0.61,0.152
1593917675482197,1.601,0.61,0.152
1593917675983656,1.563,0.533,0.152
1593917676485148,1.601,0.533,0.152
1593917676986638,1.639,0.61,0.152
1593917677488122,1.639,0.61,0.152
1593917677989543,1.563,0.533,0.152
1593917678493517,1.639,0.61,0.152
1593917678995018,1.639,0.61,0.152
1593917679496453,1.563,0.533,0.152
1593917679997906,1.639,0.61,0.152
1593917680499442,1.601,0.61,0.152
1593917681000881,1.563,0.533,0.152
1593917681502342,1.639,0.61,0.152
1593917682003967,1.639,0.61,0.152
1593917682505409,1.639,0.61,0.152
1593917683006991,1.563,0.533,0.152
1593917683510921,1.601,0.533,0.152
1593917684012527,1.639,0.61,0.152
1593917684513921,1.563,0.533,0.152
1593917685015380,1.639,0.61,0.152
1593917685516873,1.639,0.61,0.152
1593917686018334,1.563,0.533,0.152
1593917686519818,1.639,0.61,0.152
1593917687022310,1.601,0.61,0.152
1593917687523796,1.639,0.61,0.152
1593917688025244,1.639,0.61,0.152
1593917688529159,1.563,0.533,0.152
1593917689030627,1.639,0.61,0.152
1593917689532280,1.563,0.533,0.152
1593917690033805,1.639,0.61,0.152
1593917690535260,1.639,0.61,0.152
1593917691036773,1.563,0.533,0.152
1593917691538248,1.601,0.61,0.152
1593917692039884,1.563,0.533,0.152
1593917692541372,1.639,0.61,0.152
1593917693042879,1.601,0.533,0.152
1593917693546606,1.601,0.533,0.152
1593917694048063,1.639,0.61,0.152
1593917694549561,1.601,0.61,0.152
1593917695051014,1.639,0.61,0.152
1593917695552810,1.639,0.61,0.152
1593917696054403,1.639,0.61,0.152
1593917696555952,1.601,0.533,0.152
1593917697057414,1.525,0.533,0.152
1593917697558876,1.563,0.533,0.152
1593917698060420,1.639,0.61,0.152
1593917698564273,1.563,0.533,0.152
1593917699065624,1.791,0.61,0.152
1593917699567086,1.943,0.61,0.152
1593917700068825,1.981,0.533,0.152
1593917700571281,2.019,0.61,0.152
1593917701072953,1.829,0.61,0.152
1593917701574415,1.715,0.61,0.152
1593917702075831,1.601,0.533,0.152
1593917702577409,1.601,0.533,0.152
1593917703078913,1.639,0.61,0.152
1593917703582715,1.563,0.533,0.152
1593917704084202,1.601,0.533,0.152
1593917704585625,1.677,0.61,0.152
1593917705087079,1.601,0.533,0.152
1593917705588525,1.601,0.533,0.152
1593917706090614,1.601,0.533,0.152
1593917706592035,1.677,0.61,0.152
1593917707093431,1.563,0.533,0.152
1593917707594979,1.601,0.533,0.152
1593917708096479,1.677,0.61,0.152
1593917708600205,1.563,0.533,0.152
1593917709101621,1.601,0.61,0.152
1593917709603160,1.639,0.61,0.152
1593917710104775,1.639,0.61,0.152
1593917710606282,1.601,0.61,0.152
1593917711107783,1.601,0.533,0.152
1593917711609268,1.677,0.61,0.152
1593917712110711,1.563,0.533,0.152
1593917712612200,1.639,0.61,0.152
1593917713113647,1.677,0.61,0.152
1593917713617344,1.563,0.533,0.152
1593917714118903,1.639,0.61,0.152
1593917714620959,1.601,0.61,0.152
1593917715122447,1.601,0.61,0.152
1593917715623900,1.601,0.61,0.152
1593917716125351,1.563,0.533,0.152
1593917716626881,1.677,0.61,0.152
1593917717128601,1.563,0.533,0.152
1593917717630089,1.601,0.61,0.152
1593917718133082,1.677,0.61,0.152
1593917718636974,1.563,0.533,0.152
1593917719138470,1.677,0.61,0.152
1593917719639992,1.563,0.533,0.152
1593917720141443,1.601,0.61,0.152
1593917720643028,1.639,0.61,0.152
1593917721144519,1.563,0.533,0.152
1593917721646004,1.677,0.61,0.152
1593917722147478,1.601,0.533,0.152
1593917722648952,1.601,0.533,0.152
1593917723151246,1.639,0.61,0.152
1593917723655178,1.563,0.533,0.152
1593917724156712,1.677,0.61,0.152
1593917724658157,1.563,0.533,0.152
1593917725159608,1.601,0.61,0.152
1593917725661103,1.639,0.61,0.152
1593917726162518,1.563,0.533,0.152
1593917726664112,1.677,0.61,0.152
1593917727165696,1.639,0.61,0.152
1593917727667196,1.563,0.533,0.152
1593917728168785,1.601,0.533,0.152
1593917728672868,1.601,0.533,0.152
1593917729174365,1.639,0.61,0.152
1593917729675812,1.563,0.533,0.152
1593917730177251,1.639,0.61,0.152
1593917730678739,1.639,0.61,0.152
1593917731180357,1.563,0.533,0.152
1593917731682069,1.639,0.61,0.152
1593917732183673,1.639,0.61,0.152
1593917732685122,1.601,0.533,0.152
1593917733186539,1.601,0.533,0.152
1593917733690382,1.639,0.61,0.152
1593917734191845,1.639,0.61,0.152
1593917734693265,1.563,0.533,0.152
1593917735194792,1.677,0.61,0.152
1593917735696299,1.639,0.61,0.152
1593917736197721,1.563,0.533,0.152
1593917736699130,1.601,0.533,0.152
1593917737200716,1.639,0.61,0.152
1593917737702122,1.563,0.533,0.152
1593917738203563,1.601,0.533,0.152
1593917738707755,1.601,0.533,0.152
1593917739209275,1.677,0.61,0.152
1593917739710714,1.563,0.533,0.152
1593917740212201,1.563,0.533,0.152
1593917740713666,1.677,0.61,0.152
1593917741215086,1.563,0.533,0.152
1593917741716502,1.601,0.533,0.152
1593917742218039,1.639,0.61,0.152
1593917742719557,1.601,0.533,0.152
1593917743221005,1.601,0.533,0.152
1593917743724927,1.601,0.533,0.152
1593917744226420,1.639,0.61,0.152
1593917744727859,1.563,0.533,0.152
1593917745229395,1.639,0.61,0.152
1593917745730898,1.677,0.61,0.152
1593917746232517,1.563,0.533,0.152
1593917746733873,1.601,0.61,0.152
1593917747236979,1.601,0.533,0.152
1593917747738473,1.639,0.61,0.152
1593917748239968,1.601,0.533,0.152
1593917748743806,1.601,0.533,0.152
1593917749245302,1.677,0.61,0.152
1593917749746730,1.563,0.533,0.152
1593917750248188,1.677,0.61,0.152
1593917750750654,1.639,0.61,0.152
1593917751252248,1.563,0.533,0.152
1593917751753715,1.639,0.61,0.152
1593917752255191,1.563,0.533,0.152
1593917752756667,1.677,0.61,0.152
1593917753258245,1.601,0.533,0.152
1593917753762185,1.563,0.533,0.152
1593917754263680,1.677,0.61,0.152
1593917754765107,1.563,0.533,0.152
1593917755266566,1.639,0.61,0.152
1593917755769014,1.601,0.61,0.152
1593917756270515,1.563,0.533,0.152
1593917756772019,1.639,0.61,0.152
1593917757273476,1.563,0.533,0.152
1593917757774932,1.677,0.61,0.152
1593917758276445,1.639,0.61,0.152
1593917758780368,1.563,0.533,0.152
1593917759281887,1.677,0.61,0.152
1593917759783489,1.601,0.533,0.152
1593917760284996,1.639,0.61,0.152
1593917760786428,1.563,0.533,0.152
1593917761287862,1.601,0.61,0.152
1593917761789349,1.639,0.61,0.152
1593917762290825,1.829,0.533,0.152
1593917762792323,2.058,0.61,0.152
1593917763293880,2.019,0.61,0.152
1593917763798400,1.905,0.61,0.152
1593917764300129,1.753,0.61,0.152
1593917764801650,1.677,0.61,0.152
1593917765303110,1.677,0.61,0.152
1593917765804562,1.601,0.533,0.152
1593917766306109,1.639,0.61,0.152
1593917766807629,1.639,0.61,0.152
1593917767309091,1.563,0.533,0.152
1593917767810624,1.715,0.61,0.152
1593917768312173,1.639,0.61,0.152
1593917768815964,1.563,0.533,0.152
1593917769317363,1.601,0.533,0.152
1593917769818867,1.639,0.61,0.152
1593917770320369,1.677,0.61,0.152
1593917770821850,1.601,0.61,0.152
1593917771323458,1.639,0.61,0.152
1593917771824978,1.639,0.61,0.152
1593917772326426,1.563,0.533,0.152
1593917772827830,1.639,0.533,0.152
1593917773329281,1.677,0.61,0.152
1593917773833288,1.563,0.533,0.152
1593917774334709,1.601,0.61,0.152
1593917774836345,1.639,0.61,0.152
1593917775337835,1.639,0.61,0.152
1593917775839359,1.601,0.61,0.152
1593917776340788,1.601,0.61,0.152
1593917776842287,1.677,0.61,0.152
1593917777343773,1.563,0.533,0.152
1593917777845318,1.601,0.533,0.152
1593917778346810,1.677,0.61,0.152
1593917778850598,1.563,0.533,0.152
1593917779352034,1.601,0.61,0.152
1593917779853573,1.601,0.61,0.152
1593917780355069,1.601,0.533,0.152
1593917780856524,1.563,0.533,0.152
1593917781357986,1.563,0.533,0.152
1593917781859488,1.677,0.61,0.152
1593917782360936,1.601,0.61,0.152
1593917782862355,1.601,0.61,0.152
1593917783363903,1.677,0.61,0.152
1593917783867779,1.601,0.533,0.152
1593917784369346,1.639,0.533,0.152
1593917784870858,1.601,0.61,0.152
1593917785372441,1.601,0.533,0.152
1593917785873899,1.639,0.61,0.152
1593917786375546,1.601,0.533,0.152
1593917786877049,1.677,0.61,0.152
1593917787378500,1.601,0.61,0.152
1593917787879982,1.601,0.533,0.152
1593917788381561,1.639,0.61,0.152
1593917788885468,1.601,0.533,0.152
1593917789386974,1.677,0.61,0.152
1593917789888441,1.601,0.61,0.152
1593917790389865,1.601,0.61,0.152
1593917790891531,1.639,0.61,0.152
1593917791393062,1.563,0.533,0.152
1593917791895487,1.639,0.61,0.152
1593917792396981,1.601,0.61,0.152
1593917792898465,1.563,0.533,0.152
1593917793399961,1.639,0.533,0.152
1593917793903815,1.601,0.61,0.152
1593917794405319,1.601,0.61,0.152
1593917794906902,1.601,0.61,0.152
1593917795408423,1.601,0.61,0.152
1593917795909925,1.677,0.61,0.152
1593917796411378,1.601,0.533,0.152
1593917796912990,1.601,0.61,0.152
1593917797414579,1.677,0.61,0.152
1593917797916131,1.563,0.533,0.152
1593917798417581,1.639,0.61,0.152
1593917798921476,1.639,0.61,0.152
1593917799422982,1.601,0.533,0.152
1593917799924447,1.601,0.61,0.152
1593917800425968,1.639,0.61,0.152
1593917800927520,1.677,0.61,0.152
1593917801428972,1.601,0.533,0.152
1593917801930521,1.563,0.533,0.152
1593917802432001,1.677,0.61,0.152
1593917802933468,1.563,0.533,0.152
1593917803434850,1.639,0.533,0.152
1593917803938807,1.677,0.61,0.152
1593917804440314,1.563,0.61,0.152
1593917804941774,1.601,0.61,0.152
1593917805443441,1.601,0.533,0.152
1593917805944945,1.715,0.61,0.152
1593917806446326,1.601,0.61,0.152
1593917806947795,1.563,0.533,0.152
1593917807449331,1.715,0.61,0.152
1593917807950860,1.601,0.533,0.152
1593917808452312,1.639,0.533,0.152
1593917808956404,1.601,0.61,0.152
1593917809457899,1.601,0.61,0.152
1593917809959452,1.639,0.61,0.152
1593917810460818,1.563,0.533,0.152
1593917810962266,1.715,0.61,0.152
1593917811463830,1.601,0.61,0.152
1593917811965239,1.563,0.533,0.152
1593917812466817,1.677,0.61,0.152
1593917812968306,1.601,0.533,0.152
1593917813469750,1.639,0.533,0.152
1593917813973652,1.639,0.61,0.152
1593917814475148,1.601,0.61,0.152
1593917814976637,1.639,0.61,0.152
1593917815478198,1.601,0.61,0.152
1593917815980064,1.715,0.61,0.152
1593917816481555,1.601,0.61,0.152
1593917816983010,1.563,0.533,0.152
1593917817484456,1.639,0.61,0.152
1593917817985961,1.601,0.61,0.152
1593917818487430,1.639,0.533,0.152
1593917818991193,1.601,0.61,0.152
1593917819492729,1.639,0.61,0.152
1593917819994141,1.639,0.61,0.152
1593917820495612,1.601,0.61,0.152
1593917820997185,1.677,0.61,0.152
1593917821498662,1.601,0.61,0.152
1593917822000444,1.601,0.61,0.152
1593917822501913,1.601,0.61,0.152
1593917823003415,1.601,0.61,0.152
1593917823504844,1.563,0.533,0.152
1593917824008775,1.601,0.61,0.152
1593917824510353,1.639,0.61,0.152
1593917825011808,1.715,0.61,0.152
1593917825513270,1.943,0.533,0.152
1593917826014735,1.981,0.533,0.152
1593917826516111,2.019,0.61,0.152
1593917827017651,1.829,0.61,0.152
1593917827519111,1.677,0.533,0.152
1593917828020640,1.639,0.61,0.152
1593917828522236,1.601,0.533,0.152
1593917829026122,1.639,0.533,0.152
1593917829527870,1.601,0.533,0.152
1593917830029458,1.601,0.61,0.152
1593917830530980,1.639,0.533,0.152
1593917831032447,1.563,0.533,0.152
1593917831533925,1.639,0.61,0.152
1593917832035473,1.601,0.61,0.152
1593917832536927,1.563,0.533,0.152
1593917833038459,1.677,0.61,0.152
1593917833539964,1.639,0.61,0.152
1593917834043912,1.563,0.533,0.152
1593917834545454,1.601,0.533,0.152
1593917835047024,1.639,0.61,0.152
1593917835548537,1.639,0.533,0.152
1593917836049966,1.601,0.533,0.152
1593917836551442,1.601,0.533,0.152
1593917837052952,1.639,0.61,0.152
1593917837554456,1.563,0.533,0.152
1593917838056464,1.639,0.61,0.152
1593917838557960,1.639,0.61,0.152
1593917839061808,1.563,0.533,0.152
1593917839563222,1.601,0.61,0.152
1593917840064690,1.639,0.61,0.152
1593917840566172,1.601,0.533,0.152
1593917841067598,1.601,0.61,0.152
1593917841569167,1.639,0.61,0.152
1593917842070641,1.677,0.61,0.152
1593917842572155,1.563,0.533,0.152
1593917843073568,1.601,0.533,0.152
1593917843575063,1.715,0.61,0.152
1593917844078918,1.563,0.533,0.152
1593917844580456,1.601,0.61,0.152
1593917845081958,1.639,0.61,0.152
1593917845583458,1.639,0.61,0.152
1593917846084939,1.601,0.61,0.152
1593917846586483,1.563,0.533,0.152
1593917847087984,1.677,0.61,0.152
1593917847589462,1.563,0.533,0.152
1593917848090874,1.601,0.533,0.152
1593917848592606,1.677,0.61,0.152
1593917849096645,1.601,0.533,0.152
1593917849598088,1.639,0.61,0.152
1593917850099571,1.601,0.533,0.152
1593917850601061,1.639,0.61,0.152
1593917851102513,1.601,0.61,0.152
1593917851603992,1.601,0.61,0.152
1593917852105513,1.677,0.61,0.152
1593917852606952,1.601,0.533,0.152
1593917853108626,1.639,0.61,0.152
1593917853610208,1.639,0.61,0.152
1593917854114035,1.563,0.533,0.152
1593917854615510,1.601,0.61,0.152
1593917855116967,1.601,0.533,0.152
1593917855618468,1.639,0.61,0.152
1593917856119963,1.601,0.61,0.152
1593917856621425,1.601,0.533,0.152
1593917857123018,1.677,0.61,0.152
1593917857624502,1.601,0.533,0.152
1593917858125990,1.639,0.61,0.152
1593917858627439,1.601,0.61,0.152
1593917859131205,1.601,0.533,0.152
1593917859632851,1.677,0.61,0.152
1593917860134352,1.563,0.533,0.152
1593917860635851,1.639,0.61,0.152
1593917861137305,1.601,0.61,0.152
1593917861638773,1.601,0.533,0.152
1593917862140332,1.677,0.61,0.152
1593917862641824,1.601,0.533,0.152
1593917863143372,1.601,0.61,0.152
1593917863644822,1.601,0.61,0.152
1593917864148816,1.601,0.61,0.152
1593917864650320,1.677,0.61,0.152
1593917865151792,1.563,0.533,0.152
1593917865653316,1.639,0.61,0.152
1593917866155522,1.677,0.61,0.152
1593917866656916,1.601,0.533,0.152
1593917867158268,1.639,0.61,0.152
1593917867659826,1.601,0.61,0.152
1593917868161328,1.601,0.61,0.152
1593917868662782,1.601,0.61,0.152
1593917869166611,1.601,0.61,0.152
1593917869668183,1.677,0.61,0.152
1593917870169644,1.563,0.533,0.152
1593917870671174,1.563,0.533,0.152
1593917871172686,1.677,0.61,0.152
1593917871674132,1.563,0.533,0.152
1593917872175556,1.601,0.533,0.152
1593917872676985,1.677,0.61,0.152
1593917873178485,1.563,0.533,0.152
1593917873679929,1.601,0.533,0.152
1593917874183923,1.639,0.61,0.152
1593917874685428,1.639,0.61,0.152
1593917875186884,1.601,0.533,0.152
1593917875688472,1.563,0.533,0.152
1593917876189954,1.677,0.61,0.152
1593917876691407,1.563,0.533,0.152
1593917877192802,1.639,0.533,0.152
1593917877694375,1.677,0.61,0.152
1593917878195881,1.601,0.533,0.152
1593917878697329,1.601,0.61,0.152
1593917879201372,1.563,0.533,0.152
1593917879702789,1.677,0.61,0.152
1593917880204295,1.601,0.61,0.152
1593917880705721,1.563,0.533,0.152
1593917881207258,1.715,0.61,0.152
1593917881708844,1.601,0.533,0.152
1593917882210256,1.601,0.533,0.152
1593917882711769,1.639,0.61,0.152
1593917883213264,1.601,0.61,0.152
1593917883714707,1.639,0.61,0.152
1593917884218879,1.601,0.61,0.152
1593917884720391,1.677,0.61,0.152
1593917885221841,1.601,0.61,0.152
1593917885723249,1.563,0.533,0.152
1593917886225318,1.677,0.61,0.152
1593917886726725,1.601,0.61,0.152
1593917887228102,1.601,0.533,0.152
1593917887729584,1.601,0.61,0.152
1593917888231187,1.829,0.61,0.152
1593917888732679,2.019,0.61,0.152
1593917889236153,2.019,0.533,0.152
1593917889740354,1.981,0.61,0.152
1593917890241877,1.753,0.61,0.152
1593917890743412,1.639,0.61,0.152
1593917891244871,1.639,0.61,0.152
1593917891746294,1.601,0.61,0.152
1593917892248015,1.639,0.61,0.152
1593917892749657,1.601,0.61,0.152
1593917893251328,1.601,0.533,0.152
1593917893752860,1.639,0.61,0.152
1593917894256940,1.601,0.533,0.152
1593917894758391,1.639,0.533,0.152
1593917895259886,1.601,0.61,0.152
1593917895761383,1.601,0.61,0.152
1593917896262841,1.601,0.533,0.152
1593917896764361,1.639,0.61,0.152
1593917897265860,1.677,0.61,0.152
1593917897767459,1.601,0.533,0.152
1593917898269028,1.563,0.533,0.152
1593917898770599,1.639,0.61,0.152
1593917899274445,1.563,0.533,0.152
1593917899775941,1.639,0.533,0.152
1593917900277348,1.639,0.61,0.152
1593917900778845,1.601,0.533,0.152
1593917901280397,1.601,0.533,0.152
1593917901781954,1.601,0.533,0.152
1593917902283460,1.677,0.61,0.152
1593917902784915,1.601,0.533,0.152
1593917903286335,1.563,0.533,0.152
1593917903787817,1.677,0.61,0.152
1593917904291677,1.563,0.533,0.152
1593917904793098,1.639,0.533,0.152
1593917905294634,1.677,0.61,0.152
1593917905796173,1.601,0.61,0.152
1593917906297634,1.601,0.61,0.152
1593917906798960,1.563,0.533,0.152
1593917907300463,1.715,0.61,0.152
1593917907801904,1.601,0.61,0.152
1593917908303343,1.563,0.533,0.152
1593917908804866,1.677,0.61,0.152
1593917909308796,1.601,0.61,0.152
1593917909810239,1.639,0.533,0.152
1593917910311856,1.601,0.533,0.152
1593917910813346,1.601,0.61,0.152
1593917911314808,1.639,0.61,0.152
1593917911816234,1.563,0.533,0.152
1593917912317715,1.715,0.61,0.152
1593917912819237,1.601,0.61,0.152
1593917913320712,1.563,0.533,0.152
1593917913822184,1.639,0.61,0.152
1593917914326121,1.601,0.533,0.152
1593917914827576,1.639,0.533,0.152
1593917915329039,1.639,0.61,0.152
1593917915830539,1.639,0.61,0.152
1593917916332004,1.639,0.61,0.152
1593917916833547,1.563,0.533,0.152
1593917917335134,1.677,0.61,0.152
1593917917836597,1.601,0.61,0.152
1593917918338075,1.563,0.533,0.152
1593917918839570,1.639,0.61,0.152
1593917919343356,1.601,0.61,0.152
1593917919844759,1.639,0.61,0.152
1593917920346223,1.639,0.61,0.152
1593917920847873,1.639,0.61,0.152
1593917921349334,1.639,0.61,0.152
1593917921850858,1.601,0.61,0.152
1593917922353990,1.639,0.61,0.152
1593917922855481,1.639,0.61,0.152
1593917923357088,1.601,0.61,0.152
1593917923858606,1.639,0.61,0.152
1593917924362414,1.639,0.61,0.152
1593917924863899,1.639,0.61,0.152
1593917925365372,1.601,0.61,0.152
1593917925866948,1.601,0.61,0.152
1593917926368428,1.639,0.61,0.152
1593917926869884,1.601,0.533,0.152
1593917927371358,1.639,0.533,0.152
1593917927872824,1.639,0.61,0.152
1593917928374362,1.639,0.61,0.152
1593917928875820,1.639,0.61,0.152
1593917929379736,1.639,0.61,0.152
1593917929881332,1.677,0.61,0.152
1593917930382866,1.601,0.61,0.152
1593917930884558,1.563,0.533,0.152
1593917931386035,1.639,0.61,0.152
1593917931887573,1.601,0.533,0.152
1593917932389035,1.639,0.533,0.152
1593917932890460,1.639,0.61,0.152
1593917933392081,1.601,0.61,0.152
1593917933893496,1.601,0.61,0.152
1593917934397260,1.601,0.61,0.152
1593917934898757,1.715,0.61,0.152
1593917935400150,1.601,0.61,0.152
1593917935901533,1.563,0.533,0.152
1593917936403962,1.715,0.61,0.152
1593917936905569,1.601,0.533,0.152
1593917937407020,1.563,0.533,0.152
1593917937909790,1.677,0.61,0.152
1593917938411291,1.601,0.533,0.152
1593917938912881,1.639,0.61,0.152
1593917939416818,1.601,0.533,0.152
1593917939918358,1.639,0.61,0.152
1593917940419846,1.601,0.61,0.152
1593917940921294,1.563,0.533,0.152
1593917941423834,1.715,0.61,0.152
1593917941925333,1.601,0.61,0.152
1593917942426824,1.563,0.533,0.152
1593917942928404,1.601,0.61,0.152
1593917943429850,1.601,0.61,0.152
1593917943931292,1.639,0.61,0.152
1593917944435247,1.563,0.533,0.152
1593917944936846,1.677,0.61,0.152
1593917945438364,1.639,0.61,0.152
1593917945939789,1.563,0.533,0.152
1593917946441202,1.639,0.61,0.152
1593917946942738,1.639,0.61,0.152
1593917947444192,1.601,0.533,0.152
1593917947945748,1.601,0.61,0.152
1593917948447252,1.639,0.61,0.152
1593917948948857,1.639,0.533,0.152
1593917949452666,1.563,0.533,0.152
1593917949954258,1.601,0.61,0.152
1593917950455796,1.639,0.61,0.152
1593917950962690,1.563,0.533,0.152
1593917951464197,1.943,0.533,0.152
1593917951966318,2.058,0.61,0.152
1593917952467879,1.981,0.533,0.152
1593917952969303,1.905,0.61,0.152
1593917953470915,1.677,0.61,0.152
1593917953972373,1.601,0.533,0.152
1593917954473970,1.601,0.533,0.152
1593917954975552,1.601,0.533,0.152
1593917955477041,1.639,0.61,0.152
1593917955978488,1.601,0.533,0.152
1593917956479994,1.563,0.533,0.152
1593917956981447,1.677,0.61,0.152
1593917957482904,1.563,0.533,0.152
1593917957984368,1.601,0.533,0.152
1593917958485942,1.601,0.61,0.152
1593917958987432,1.563,0.533,0.152
1593917959491375,1.677,0.61,0.152
1593917959992827,1.563,0.533,0.152
1593917960494268,1.601,0.61,0.152
1593917960995938,1.639,0.61,0.152
1593917961497440,1.563,0.533,0.152
1593917961999018,1.677,0.61,0.152
1593917962500469,1.601,0.533,0.152
1593917963001959,1.639,0.61,0.152
1593917963503418,1.601,0.61,0.152
1593917964004877,1.601,0.533,0.152
1593917964508666,1.677,0.61,0.152
1593917965010109,1.563,0.533,0.152
1593917965511546,1.677,0.61,0.152
1593917966013045,1.639,0.61,0.152
1593917966514512,1.563,0.533,0.152
1593917967017040,1.639,0.61,0.152
1593917967518628,1.639,0.61,0.152
1593917968020183,1.601,0.61,0.152
1593917968521656,1.601,0.61,0.152
1593917969023121,1.601,0.61,0.152
1593917969527059,1.639,0.61,0.152
1593917970028549,1.563,0.533,0.152
1593917970530067,1.639,0.61,0.152
1593917971031578,1.639,0.61,0.152
1593917971533036,1.563,0.533,0.152
1593917972034407,1.601,0.61,0.152
1593917972535857,1.639,0.61,0.152
1593917973037347,1.601,0.533,0.152
1593917973538766,1.601,0.533,0.152
1593917974041257,1.639,0.61,0.152
1593917974545395,1.639,0.61,0.152
1593917975046838,1.563,0.533,0.152
1593917975548268,1.601,0.533,0.152
1593917976049722,1.639,0.61,0.152
1593917976551180,1.563,0.533,0.152
1593917977052610,1.601,0.533,0.152
1593917977554886,1.639,0.61,0.152
1593917978056392,1.639,0.61,0.152
1593917978558164,1.601,0.533,0.152
1593917979059687,1.563,0.533,0.152
1593917979563619,1.677,0.61,0.152
1593917980065055,1.563,0.533,0.152
1593917980566465,1.639,0.533,0.152
1593917981067883,1.677,0.61,0.152
1593917981569336,1.563,0.533,0.152
1593917982070745,1.601,0.533,0.152
1593917982572330,1.601,0.533,0.152
1593917983073860,1.639,0.61,0.152
1593917983575349,1.601,0.61,0.152
1593917984076807,1.601,0.61,0.152
1593917984580681,1.677,0.61,0.152
1593917985082136,1.563,0.533,0.152
1593917985583992,1.677,0.61,0.152
1593917986085997,1.639,0.61,0.152
1593917986587478,1.563,0.533,0.152
1593917987088861,1.601,0.61,0.152
1593917987590367,1.563,0.533,0.152
1593917988091872,1.677,0.61,0.152
1593917988593322,1.563,0.533,0.152
1593917989094796,1.563,0.533,0.152
1593917989598558,1.677,0.61,0.152
1593917990100000,1.563,0.533,0.152
1593917990601498,1.639,0.61,0.152
1593917991103049,1.601,0.533,0.152
1593917991604532,1.563,0.533,0.152
1593917992106134,1.639,0.61,0.152
1593917992607611,1.563,0.533,0.152
1593917993109093,1.677,0.61,0.152
1593917993611625,1.563,0.533,0.152
1593917994113143,1.563,0.533,0.152
1593917994618318,1.639,0.61,0.152
1593917995119817,1.563,0.533,0.152
1593917995621309,1.639,0.61,0.152
1593917996122749,1.563,0.533,0.152
1593917996624202,1.601,0.533,0.152
1593917997125710,1.639,0.61,0.152
1593917997627166,1.563,0.533,0.152
1593917998128945,1.677,0.61,0.152
1593917998630394,1.639,0.61,0.152
1593917999131851,1.563,0.533,0.152
1593917999635686,1.601,0.61,0.152
1593918000137297,1.601,0.533,0.152
1593918000638803,1.639,0.61,0.152
1593918001140248,1.563,0.533,0.152
1593918001641807,1.639,0.61,0.152
1593918002143295,1.639,0.61,0.152
1593918002644796,1.563,0.533,0.152
1593918003146348,1.677,0.61,0.152
1593918003647860,1.601,0.61,0.152
1593918004149296,1.601,0.533,0.152
1593918004653520,1.563,0.533,0.152
1593918005155010,1.639,0.61,0.152
1593918005656465,1.601,0.61,0.152
1593918006157878,1.563,0.533,0.152
1593918006659567,1.715,0.61,0.152
1593918007161088,1.639,0.61,0.152
1593918007662544,1.563,0.533,0.152
1593918008164080,1.639,0.61,0.152
1593918008665626,1.601,0.61,0.152
1593918009167099,1.639,0.533,0.152
1593918009670867,1.601,0.533,0.152
1593918010172490,1.677,0.61,0.152
1593918010673993,1.677,0.61,0.152
1593918011175457,1.563,0.533,0.152
1593918011676862,1.639,0.533,0.152
1593918012178323,1.677,0.61,0.152
1593918012679773,1.563,0.533,0.152
1593918013181174,1.601,0.61,0.152
1593918013682698,1.639,0.61,0.152
1593918014184107,1.829,0.61,0.152
1593918014685484,1.981,0.61,0.152
1593918015186944,2.019,0.61,0.152
1593918015690064,2.058,0.61,0.152
1593918016191610,1.715,0.61,0.152
1593918016693197,1.677,0.61,0.152
1593918017194736,1.677,0.61,0.152
1593918017696193,1.563,0.533,0.152
1593918018197594,1.601,0.533,0.152
1593918018699118,1.601,0.61,0.152
1593918019200617,1.601,0.533,0.152
1593918019702096,1.601,0.533,0.152
1593918020206053,1.563,0.533,0.152
1593918020707547,1.677,0.61,0.152
1593918021209022,1.563,0.533,0.152
1593918021710498,1.601,0.61,0.152
1593918022212183,1.677,0.61,0.152
1593918022713806,1.563,0.533,0.152
1593918023215429,1.639,0.61,0.152
1593918023716931,1.563,0.533,0.152
1593918024218426,1.639,0.61,0.152
1593918024719872,1.601,0.533,0.152
1593918025223680,1.563,0.533,0.152
1593918025725175,1.677,0.61,0.152
1593918026226606,1.563,0.533,0.152
1593918026728084,1.677,0.61,0.152
1593918027229646,1.639,0.61,0.152
1593918027731140,1.563,0.533,0.152
1593918028232649,1.639,0.61,0.152
1593918028734062,1.563,0.533,0.152
1593918029235574,1.639,0.61,0.152
1593918029737145,1.639,0.61,0.152
1593918030238631,1.563,0.533,0.152
1593918030740283,1.677,0.61,0.152
1593918031243031,1.601,0.533,0.152
1593918031744554,1.639,0.61,0.152
1593918032246021,1.601,0.61,0.152
1593918032747516,1.601,0.533,0.152
1593918033249023,1.639,0.61,0.152
1593918033750437,1.563,0.533,0.152
1593918034251898,1.677,0.61,0.152
1593918034753398,1.639,0.61,0.152
1593918035257502,1.563,0.533,0.152
1593918035759032,1.639,0.61,0.152
1593918036260533,1.639,0.61,0.152
1593918036761999,1.639,0.61,0.152
1593918037263452,1.601,0.61,0.152
1593918037764989,1.601,0.61,0.152
1593918038266470,1.639,0.61,0.152
1593918038768052,1.563,0.533,0.152
1593918039269451,1.677,0.61,0.152
1593918039770948,1.639,0.61,0.152
1593918040275027,1.563,0.533,0.152
1593918040777712,1.601,0.61,0.152
1593918041279206,1.639,0.61,0.152
1593918041780760,1.639,0.533,0.152
1593918042282163,1.601,0.533,0.152
1593918042783706,1.677,0.61,0.152
1593918043285205,1.639,0.61,0.152
1593918043786603,1.563,0.533,0.152
1593918044289079,1.601,0.533,0.152
1593918044790568,1.677,0.61,0.152
1593918045294465,1.563,0.533,0.152
1593918045795881,1.601,0.533,0.152
1593918046297384,1.639,0.61,0.152
1593918046798782,1.639,0.61,0.152
1593918047300165,1.601,0.61,0.152
1593918047801655,1.601,0.61,0.152
1593918048303181,1.677,0.61,0.152
1593918048804620,1.563,0.533,0.152
1593918049306143,1.563,0.533,0.152
1593918049807647,1.677,0.61,0.152
1593918050311437,1.563,0.533,0.152
1593918050812854,1.601,0.533,0.152
1593918051314386,1.639,0.61,0.152
1593918051815788,1.601,0.533,0.152
1593918052317179,1.601,0.533,0.152
1593918052818654,1.601,0.533,0.152
1593918053320375,1.677,0.61,0.152
1593918053821823,1.601,0.533,0.152
1593918054323241,1.601,0.61,0.152
1593918054824858,1.677,0.61,0.152
1593918055328857,1.563,0.533,0.152
1593918055830436,1.639,0.61,0.152
1593918056332075,1.601,0.533,0.152
1593918056833571,1.601,0.533,0.152
1593918057335045,1.601,0.533,0.152
1593918057836572,1.563,0.533,0.152
1593918058338069,1.677,0.61,0.152
1593918058839557,1.563,0.533,0.152
1593918059341027,1.601,0.533,0.152
1593918059842630,1.639,0.61,0.152
1593918060346386,1.601,0.533,0.152
1593918060847906,1.677,0.61,0.152
1593918061349378,1.563,0.533,0.152
1593918061850850,1.601,0.61,0.152
1593918062352586,1.639,0.61,0.152
1593918062854133,1.563,0.533,0.152
1593918063355971,1.677,0.61,0.152
1593918063857444,1.601,0.533,0.152
1593918064358927,1.601,0.533,0.152
1593918064860366,1.601,0.61,0.152
1593918065365466,1.601,0.533,0.152
1593918065866935,1.677,0.61,0.152
1593918066368372,1.563,0.533,0.152
1593918066869842,1.639,0.61,0.152
1593918067371360,1.677,0.61,0.152
1593918067872813,1.563,0.533,0.152
1593918068374359,1.677,0.61,0.152
1593918068876071,1.639,0.61,0.152
1593918069377581,1.601,0.533,0.152
1593918069879025,1.601,0.61,0.152
1593918070383219,1.639,0.61,0.152
1593918070884748,1.677,0.61,0.152
1593918071386212,1.563,0.533,0.152
1593918071887871,1.601,0.61,0.152
1593918072389379,1.639,0.61,0.152
1593918072890828,1.563,0.533,0.152
1593918073392239,1.639,0.533,0.152
1593918073893740,1.677,0.61,0.152
1593918074395214,1.563,0.533,0.152
1593918074896749,1.601,0.533,0.152
1593918075400871,1.639,0.61,0.152
1593918075902387,1.677,0.61,0.152
1593918076403835,1.563,0.533,0.152
1593918076905456,1.525,0.533,0.152
1593918077406904,1.981,0.61,0.152
1593918077908389,1.981,0.533,0.152
1593918078409797,2.019,0.533,0.152
1593918078911419,1.905,0.61,0.152
1593918079412934,1.677,0.61,0.152
1593918079914337,1.639,0.61,0.152
1593918080418112,1.563,0.533,0.152
1593918080919581,1.677,0.61,0.152
1593918081421037,1.563,0.533,0.152
1593918081922455,1.563,0.533,0.152
1593918082424909,1.677,0.61,0.152
1593918082926396,1.601,0.533,0.152
1593918083427955,1.601,0.533,0.152
1593918083929425,1.601,0.61,0.152
1593918084430963,1.601,0.61,0.152
1593918084932422,1.601,0.533,0.152
1593918085436307,1.601,0.533,0.152
1593918085937804,1.677,0.61,0.152
1593918086439261,1.601,0.533,0.152
1593918086940751,1.563,0.533,0.152
1593918087442337,1.639,0.61,0.152
1593918087943833,1.601,0.61,0.152
1593918088445289,1.563,0.533,0.152
1593918088946792,1.601,0.533,0.152
1593918089448324,1.639,0.61,0.152
1593918089949784,1.601,0.533,0.152
1593918090453602,1.601,0.61,0.152
1593918090955887,1.601,0.61,0.152
1593918091457372,1.639,0.533,0.152
1593918091958963,1.601,0.61,0.152
1593918092460463,1.563,0.533,0.152
1593918092961954,1.715,0.61,0.152
