TimeStamp,A7 Voltage(V),A7 Current(A),A7 Power(W),A15 Voltage(V),A15 Current(A),A15 Power(W),GPU Power(W)
1610494119805751208,1.000000,0.249000,0.254000,1.000000,1.042000,1.048000,0.128000
1610494120348927692,1.000000,0.258000,0.263000,1.000000,0.931000,0.936000,0.128000
1610494120885664949,1.000000,0.221000,0.225000,1.000000,0.921000,0.926000,0.127000
