Timestamp,Voltage(V),Ampere(A),Power(W),Watt Hour
1610494119415427330,5.066,0.923,4.679,0.000
1610494119661677044,5.068,0.941,4.771,0.000
1610494119915572593,5.069,0.962,4.882,0.000
1610494120161199818,5.069,0.962,4.878,0.000
1610494120416652260,5.069,0.954,4.836,0.000
1610494120667033951,5.069,0.952,4.828,0.000
1610494120910205176,5.068,0.950,4.821,0.000
1610494121173067874,5.069,0.959,4.863,0.000
