timestamp	VIRTUAL_SCALING	CPU0_F	CPU1_F	CPU2_F	CPU4_F	GPU_FREQ	CPU_GOVERNOR	EMC_F	TEMP0
1610494118773096792	1	1000	1000	1000	1500	600	performance	-	59
1610494118877882758 	0	1000	1000	1000	1500	600	performance	-	60
1610494120690701401	1	1000	1000	1000	1500	600	performance	-	60
1610494120825204804 	0	1000	1000	1000	1500	600	performance	-	60
