TimeStamp,Total Power,CPU Power,GPU Power
1592836947465490,4.571,2.438,0.152
1592836947968757,2.744,1.296,0.152
1592836948470728,2.249,1.067,0.152
1592836948972715,2.058,0.991,0.152
1592836949474726,2.02,0.991,0.152
1592836949976795,2.02,0.991,0.152
1592836950478771,2.058,0.915,0.152
1592836950980781,2.02,0.991,0.152
1592836951482953,1.982,0.991,0.152
1592836951984695,1.982,0.991,0.152
1592836952486444,2.02,0.991,0.152
1592836952988527,2.02,0.991,0.152
1592836953490366,2.135,0.915,0.152
1592836953992270,2.058,0.991,0.152
1592836954494024,1.982,0.991,0.152
1592836954995969,1.982,0.991,0.152
1592836955501095,2.02,0.991,0.152
1592836956003131,2.02,0.915,0.152
1592836956504932,2.058,0.915,0.152
1592836957006660,2.02,0.991,0.152
1592836957508362,1.982,0.991,0.152
1592836958010125,1.982,0.991,0.152
1592836958511905,2.02,0.915,0.152
1592836959018160,2.02,0.915,0.152
1592836959520354,2.02,0.915,0.152
1592836960022201,1.982,0.991,0.152
1592836960523916,1.982,0.991,0.152
1592836961025752,1.982,0.991,0.152
1592836961527728,2.02,0.915,0.152
1592836962029719,2.02,0.915,0.152
1592836962531583,2.02,0.915,0.152
1592836963033507,1.982,0.991,0.152
1592836963535361,1.982,0.991,0.152
1592836964040445,2.02,0.991,0.152
1592836964542326,2.02,0.915,0.152
1592836965044138,2.02,0.915,0.152
1592836965546014,2.02,0.991,0.152
1592836966047800,1.982,0.991,0.152
1592836966549692,1.982,0.991,0.152
1592836967051548,1.982,0.991,0.152
1592836967553581,2.02,0.991,0.152
1592836968055471,2.02,0.991,0.152
1592836968557345,2.02,0.991,0.152
1592836969061933,2.02,0.991,0.152
1592836969563791,2.02,0.991,0.152
1592836970065970,2.02,0.991,0.152
1592836970567793,1.982,0.991,0.152
1592836971069631,1.982,0.991,0.152
1592836971571511,1.982,0.991,0.152
1592836972075750,2.02,0.915,0.152
1592836972577698,1.982,0.991,0.152
1592836973079517,1.982,0.991,0.152
1592836973581566,1.982,0.991,0.152
1592836974083400,1.982,0.991,0.152
1592836974587871,2.02,0.915,0.152
1592836975089690,2.02,0.915,0.152
1592836975591554,1.982,0.991,0.152
1592836976093317,1.982,0.991,0.152
1592836976595318,1.982,0.991,0.152
1592836977097971,2.02,0.991,0.152
1592836977599958,2.02,0.915,0.152
1592836978102007,2.02,0.915,0.152
1592836978603944,1.982,0.991,0.152
1592836979105836,1.982,0.991,0.152
1592836979607809,1.982,0.991,0.152
1592836980109899,2.02,0.915,0.152
1592836980611894,2.02,0.915,0.152
1592836981113863,2.02,0.915,0.152
1592836981615779,1.982,0.991,0.152
1592836982117714,1.982,0.991,0.152
1592836982619597,1.982,0.991,0.152
1592836983121597,2.02,0.915,0.152
1592836983623582,2.02,0.915,0.152
1592836984125549,1.982,0.915,0.152
1592836984627433,1.982,0.991,0.152
1592836985129325,1.982,0.991,0.152
1592836985631276,2.02,0.991,0.152
1592836986133353,2.02,0.915,0.152
1592836986635335,2.02,0.915,0.152
1592836987137355,2.02,0.991,0.152
1592836987639305,1.982,0.991,0.152
1592836988141274,1.982,0.991,0.152
1592836988643245,1.982,0.991,0.152
1592836989145305,2.02,0.915,0.152
1592836989647253,2.02,0.915,0.152
1592836990149293,2.02,0.915,0.152
1592836990651212,1.982,0.991,0.152
1592836991153227,2.02,0.991,0.152
1592836991655246,2.02,0.991,0.152
1592836992159201,1.982,0.991,0.152
1592836992661243,2.02,0.991,0.152
1592836993163199,1.982,0.991,0.152
1592836993665198,1.982,0.991,0.152
1592836994167188,1.982,0.991,0.152
1592836994669274,1.982,0.991,0.152
1592836995171294,2.02,0.991,0.152
1592836995673316,2.02,0.991,0.152
1592836996175301,2.02,0.915,0.152
1592836996677285,2.097,0.991,0.152
1592836997179243,2.02,0.991,0.152
1592836997681256,2.02,0.991,0.152
1592836998183328,1.982,0.991,0.152
1592836998685348,2.02,0.991,0.152
1592836999187326,2.02,0.915,0.152
1592836999689333,2.02,0.915,0.152
1592837000191344,1.982,0.991,0.152
1592837000693201,1.982,0.991,0.152
1592837001195118,1.982,0.991,0.152
1592837001696967,2.02,0.991,0.152
1592837002199017,2.02,0.915,0.152
1592837002700987,2.02,0.915,0.152
1592837003202802,1.982,0.991,0.152
1592837003704575,1.982,0.991,0.152
1592837004206384,1.982,0.991,0.152
1592837004708470,2.02,0.915,0.152
1592837005210506,2.02,0.915,0.152
1592837005712377,1.982,0.991,0.152
1592837006214149,1.982,0.991,0.152
1592837006716348,1.982,0.991,0.152
1592837007218359,1.982,0.991,0.152
1592837007720477,2.02,0.915,0.152
