TimeStamp,Total Power,CPU Power,GPU Power
1594007783374415,2.134,0.838,0.152
1594007783875921,1.639,0.533,0.152
1594007784377335,1.525,0.381,0.152
1594007784878772,1.448,0.305,0.152
1594007785380219,1.715,0.533,0.152
1594007785881736,1.981,0.762,0.152
1594007786383219,2.019,0.838,0.152
1594007786884725,2.058,0.838,0.152
1594007787386311,2.058,0.838,0.152
1594007787887789,2.058,0.838,0.152
1594007788389253,2.096,0.838,0.152
1594007788890731,2.058,0.838,0.152
1594007789392318,2.324,0.838,0.152
1594007789893895,2.477,0.838,0.152
1594007790395383,2.477,0.838,0.152
1594007790896823,2.324,0.838,0.152
1594007791398366,2.134,0.838,0.152
1594007791899842,2.096,0.838,0.152
1594007792401302,2.096,0.838,0.152
1594007792902836,2.058,0.838,0.152
1594007793404304,2.096,0.838,0.152
1594007793905813,2.096,0.838,0.152
1594007794407296,2.058,0.838,0.152
1594007794908798,2.096,0.838,0.152
1594007795410277,2.058,0.915,0.152
1594007795911790,2.058,0.838,0.152
1594007796413379,2.096,0.838,0.152
1594007796914836,2.096,0.838,0.152
1594007797416269,2.058,0.838,0.152
1594007797917710,2.058,0.838,0.152
1594007798419209,2.058,0.838,0.152
1594007798920741,2.096,0.838,0.152
1594007799422264,2.096,0.838,0.152
1594007799923785,2.058,0.838,0.152
1594007800425300,2.096,0.838,0.152
1594007800926790,2.058,0.915,0.152
1594007801428295,2.096,0.838,0.152
1594007801929920,2.096,0.838,0.152
1594007802431409,2.058,0.838,0.152
1594007802932890,2.096,0.838,0.152
1594007803434363,2.058,0.838,0.152
1594007803935849,2.058,0.838,0.152
1594007804437408,2.096,0.838,0.152
1594007804938892,2.058,0.838,0.152
1594007805440365,2.058,0.838,0.152
1594007805942003,2.096,0.838,0.152
1594007806443554,2.058,0.838,0.152
1594007806945011,2.058,0.838,0.152
1594007807446509,2.096,0.838,0.152
1594007807947998,2.096,0.838,0.152
1594007808449448,2.096,0.838,0.152
1594007808950998,2.096,0.915,0.152
1594007809452522,2.096,0.838,0.152
1594007809954014,2.096,0.838,0.152
1594007810456039,2.058,0.838,0.152
1594007810957540,2.058,0.838,0.152
1594007811459019,2.096,0.838,0.152
1594007811960480,2.096,0.915,0.152
1594007812461945,2.096,0.838,0.152
1594007812963418,2.096,0.838,0.152
1594007813464923,2.096,0.915,0.152
1594007813966382,2.096,0.915,0.152
1594007814467909,2.096,0.838,0.152
1594007814969394,2.096,0.915,0.152
1594007815470911,2.096,0.915,0.152
1594007815972498,2.096,0.838,0.152
1594007816474014,2.058,0.838,0.152
1594007816975521,2.058,0.838,0.152
1594007817477153,2.096,0.838,0.152
1594007817978690,2.096,0.838,0.152
1594007818480177,2.096,0.838,0.152
1594007818981692,2.096,0.915,0.152
1594007819483160,2.096,0.915,0.152
1594007819984666,2.096,0.838,0.152
1594007820486158,2.096,0.915,0.152
1594007820987609,2.096,0.838,0.152
1594007821489132,2.058,0.838,0.152
1594007821990670,2.096,0.838,0.152
1594007822492140,2.096,0.838,0.152
1594007822993706,2.058,0.838,0.152
1594007823495164,2.096,0.838,0.152
1594007823996637,2.096,0.838,0.152
1594007824498132,2.058,0.838,0.152
1594007824999667,2.096,0.838,0.152
1594007825501151,2.058,0.838,0.152
1594007826002604,2.058,0.838,0.152
1594007826504152,2.058,0.838,0.152
1594007827005612,2.058,0.838,0.152
1594007827507298,2.058,0.838,0.152
1594007828008947,2.058,0.838,0.152
1594007828510440,2.096,0.838,0.152
1594007829011867,2.058,0.838,0.152
1594007829513369,2.058,0.838,0.152
1594007830014884,2.096,0.838,0.152
1594007830516402,2.096,0.838,0.152
1594007831017898,2.096,0.915,0.152
1594007831519297,2.096,0.915,0.152
1594007832020872,2.096,0.838,0.152
1594007832522360,2.058,0.838,0.152
1594007833023853,2.096,0.838,0.152
1594007833525387,2.096,0.838,0.152
1594007834026853,2.058,0.838,0.152
1594007834528368,2.096,0.838,0.152
1594007835029822,2.096,0.838,0.152
1594007835531347,2.096,0.915,0.152
1594007836032842,2.096,0.915,0.152
1594007836534325,2.096,0.915,0.152
1594007837035759,2.096,0.915,0.152
1594007837537196,2.058,0.838,0.152
1594007838038651,2.096,0.838,0.152
1594007838540181,2.096,0.915,0.152
1594007839041977,2.096,0.838,0.152
1594007839544964,2.096,0.915,0.152
1594007840046469,2.096,0.915,0.152
1594007840550041,2.096,0.838,0.152
1594007841051571,2.096,0.838,0.152
1594007841553056,2.058,0.838,0.152
1594007842054581,2.096,0.838,0.152
1594007842556069,2.096,0.915,0.152
1594007843057542,2.096,0.838,0.152
1594007843559021,2.096,0.838,0.152
1594007844060498,2.096,0.915,0.152
1594007844561978,2.096,0.915,0.152
1594007845063517,2.096,0.838,0.152
1594007845569467,2.096,0.838,0.152
1594007846070951,2.096,0.838,0.152
1594007846572490,2.096,0.838,0.152
1594007847073941,2.096,0.915,0.152
1594007847575401,2.096,0.915,0.152
1594007848076911,2.096,0.838,0.152
1594007848578379,2.096,0.915,0.152
1594007849080401,2.096,0.838,0.152
1594007849581875,2.096,0.838,0.152
1594007850083393,2.058,0.915,0.152
1594007850587071,2.096,0.915,0.152
1594007851088581,2.096,0.838,0.152
1594007851590082,2.096,0.915,0.152
1594007852091540,2.21,0.838,0.152
1594007852593113,2.439,0.838,0.152
1594007853094660,2.477,0.838,0.152
1594007853596179,2.477,0.838,0.152
1594007854097754,2.248,0.915,0.152
1594007854599228,2.134,0.915,0.152
1594007855100712,2.096,0.838,0.152
1594007855602224,2.096,0.838,0.152
1594007856103730,2.058,0.838,0.152
1594007856605264,2.096,0.838,0.152
1594007857106769,2.096,0.915,0.152
1594007857608279,2.058,0.838,0.152
1594007858109739,2.096,0.838,0.152
1594007858611297,2.096,0.838,0.152
1594007859112800,2.096,0.838,0.152
1594007859614394,2.058,0.838,0.152
1594007860115913,2.096,0.838,0.152
1594007860617987,2.096,0.838,0.152
1594007861119625,2.058,0.838,0.152
1594007861621086,2.096,0.838,0.152
1594007862122569,2.096,0.915,0.152
1594007862624201,2.058,0.915,0.152
1594007863125702,2.058,0.915,0.152
1594007863627199,2.096,0.915,0.152
1594007864128718,2.096,0.838,0.152
1594007864630184,2.096,0.915,0.152
1594007865131682,2.096,0.838,0.152
1594007865635484,2.058,0.838,0.152
1594007866136935,2.058,0.915,0.152
1594007866638432,2.096,0.838,0.152
1594007867139877,2.096,0.915,0.152
1594007867641362,2.096,0.915,0.152
1594007868142861,2.096,0.915,0.152
1594007868644394,2.096,0.915,0.152
1594007869145914,2.058,0.838,0.152
1594007869647451,2.058,0.838,0.152
1594007870148975,2.096,0.915,0.152
1594007870652716,2.058,0.915,0.152
1594007871154253,2.096,0.915,0.152
1594007871656205,2.134,0.915,0.152
1594007872157665,2.058,0.838,0.152
1594007872659120,2.096,0.838,0.152
1594007873160639,2.096,0.915,0.152
1594007873662086,2.096,0.838,0.152
1594007874163562,2.096,0.838,0.152
1594007874665029,2.096,0.915,0.152
1594007875166540,2.096,0.915,0.152
1594007875670352,2.096,0.838,0.152
1594007876171863,2.096,0.915,0.152
1594007876673338,2.096,0.838,0.152
1594007877174877,2.096,0.838,0.152
1594007877676413,2.058,0.838,0.152
1594007878177910,2.096,0.838,0.152
1594007878679375,2.058,0.838,0.152
1594007879180854,2.096,0.915,0.152
1594007879682360,2.096,0.838,0.152
1594007880183828,2.096,0.915,0.152
1594007880687480,2.096,0.915,0.152
1594007881188973,2.096,0.838,0.152
1594007881690421,2.058,0.838,0.152
1594007882191944,2.096,0.915,0.152
1594007882693412,2.134,0.838,0.152
1594007883194904,2.096,0.915,0.152
1594007883696434,2.058,0.915,0.152
1594007884198034,2.096,0.838,0.152
1594007884699543,2.096,0.915,0.152
1594007885201036,2.096,0.915,0.152
1594007885704824,2.096,0.838,0.152
1594007886206324,2.096,0.915,0.152
1594007886707812,2.058,0.838,0.152
1594007887209227,2.096,0.838,0.152
1594007887710722,2.096,0.838,0.152
1594007888212260,2.058,0.838,0.152
1594007888713869,2.058,0.838,0.152
1594007889224644,2.096,0.915,0.152
1594007889726123,2.096,0.838,0.152
1594007890227670,2.096,0.838,0.152
1594007890729239,2.134,0.915,0.152
1594007891230773,2.096,0.838,0.152
1594007891732229,2.096,0.838,0.152
1594007892233681,2.058,0.838,0.152
1594007892735193,2.096,0.838,0.152
1594007893236794,2.096,0.915,0.152
1594007893738274,2.058,0.838,0.152
1594007894239797,2.096,0.838,0.152
1594007894741287,2.096,0.838,0.152
1594007895242764,2.096,0.915,0.152
1594007895744389,2.096,0.915,0.152
1594007896245905,2.096,0.915,0.152
1594007896747444,2.096,0.915,0.152
1594007897249069,2.096,0.915,0.152
1594007897750568,2.058,0.915,0.152
1594007898252062,2.096,0.915,0.152
1594007898753674,2.096,0.915,0.152
1594007899255138,2.096,0.838,0.152
1594007899756620,2.058,0.838,0.152
1594007900258112,2.058,0.838,0.152
1594007900759596,2.096,0.838,0.152
1594007901261115,2.096,0.838,0.152
1594007901762568,2.096,0.915,0.152
1594007902264035,2.058,0.838,0.152
1594007902765507,2.058,0.838,0.152
1594007903266994,2.096,0.915,0.152
1594007903768442,2.096,0.838,0.152
1594007904270067,2.096,0.838,0.152
1594007904771596,2.096,0.838,0.152
1594007905273072,2.096,0.838,0.152
1594007905774673,2.058,0.838,0.152
1594007906278641,2.096,0.915,0.152
1594007906780119,2.096,0.838,0.152
1594007907281615,2.058,0.838,0.152
1594007907783124,2.096,0.915,0.152
1594007908284628,2.096,0.838,0.152
1594007908791406,2.058,0.838,0.152
1594007909292897,2.058,0.838,0.152
1594007909794383,2.058,0.838,0.152
1594007910295883,2.058,0.838,0.152
1594007910797346,2.058,0.838,0.152
1594007911301324,2.058,0.838,0.152
1594007911802809,2.096,0.838,0.152
1594007912304251,2.058,0.838,0.152
1594007912805767,2.058,0.838,0.152
1594007913307371,2.096,0.915,0.152
1594007913808849,2.096,0.915,0.152
1594007914310394,2.096,0.838,0.152
1594007914811908,2.096,0.915,0.152
1594007915313753,2.324,0.838,0.152
1594007915815236,2.477,0.915,0.152
1594007916319349,2.515,0.915,0.152
1594007916820923,2.362,0.838,0.152
1594007917322423,2.172,0.838,0.152
1594007917823972,2.134,0.838,0.152
1594007918325443,2.096,0.838,0.152
1594007918826938,2.096,0.915,0.152
1594007919328437,2.096,0.838,0.152
1594007919829914,2.058,0.838,0.152
1594007920331419,2.058,0.838,0.152
1594007920832943,2.096,0.838,0.152
1594007921336765,2.096,0.915,0.152
1594007921838233,2.096,0.838,0.152
1594007922339747,2.096,0.838,0.152
1594007922841213,2.096,0.838,0.152
1594007923342687,2.058,0.838,0.152
1594007923844147,2.058,0.838,0.152
1594007924345667,2.096,0.838,0.152
1594007924847181,2.058,0.838,0.152
1594007925348668,2.096,0.915,0.152
1594007925850121,2.096,0.838,0.152
1594007926353831,2.096,0.838,0.152
1594007926855398,2.096,0.838,0.152
1594007927356863,2.058,0.838,0.152
1594007927858460,2.096,0.838,0.152
1594007928359964,2.096,0.838,0.152
1594007928861455,2.096,0.838,0.152
1594007929363039,2.096,0.838,0.152
1594007929864559,2.096,0.915,0.152
1594007930366038,2.096,0.838,0.152
1594007930867646,2.096,0.838,0.152
1594007931369187,2.096,0.838,0.152
1594007931870634,2.058,0.838,0.152
1594007932372132,2.096,0.838,0.152
1594007932873631,2.058,0.838,0.152
1594007933375150,2.096,0.838,0.152
1594007933876645,2.096,0.915,0.152
1594007934378102,2.058,0.838,0.152
1594007934879657,2.096,0.838,0.152
1594007935381129,2.096,0.915,0.152
1594007935882589,2.096,0.915,0.152
1594007936384072,2.096,0.838,0.152
1594007936885564,2.058,0.838,0.152
1594007937387066,2.096,0.838,0.152
1594007937888697,2.096,0.838,0.152
1594007938390184,2.096,0.838,0.152
1594007938891664,2.096,0.838,0.152
1594007939393272,2.096,0.838,0.152
1594007939894751,2.096,0.838,0.152
1594007940396231,2.096,0.838,0.152
1594007940897760,2.096,0.838,0.152
1594007941399225,2.096,0.838,0.152
1594007941900745,2.096,0.838,0.152
1594007942402247,2.058,0.838,0.152
1594007942903845,2.058,0.838,0.152
1594007943405374,2.096,0.838,0.152
1594007943906870,2.096,0.915,0.152
1594007944408719,2.096,0.915,0.152
1594007944910192,2.096,0.838,0.152
1594007945411794,2.096,0.915,0.152
1594007945913270,2.058,0.915,0.152
1594007946414882,2.096,0.838,0.152
1594007946916377,2.096,0.838,0.152
1594007947417890,2.096,0.838,0.152
1594007947919588,2.096,0.838,0.152
1594007948421079,2.134,0.915,0.152
1594007948922563,2.096,0.838,0.152
1594007949423984,2.058,0.838,0.152
1594007949925445,2.096,0.915,0.152
1594007950426938,2.096,0.838,0.152
1594007950928439,2.096,0.915,0.152
1594007951429908,2.096,0.915,0.152
1594007951933717,2.096,0.915,0.152
1594007952435281,2.096,0.915,0.152
1594007952936821,2.058,0.838,0.152
1594007953438325,2.096,0.838,0.152
1594007953939804,2.058,0.838,0.152
1594007954441312,2.096,0.915,0.152
1594007954942806,2.096,0.915,0.152
1594007955444882,2.096,0.915,0.152
1594007955946375,2.096,0.915,0.152
1594007956447881,2.096,0.915,0.152
1594007956951729,2.058,0.838,0.152
1594007957453300,2.058,0.838,0.152
1594007957954799,2.096,0.838,0.152
1594007958456296,2.058,0.838,0.152
1594007958957839,2.058,0.838,0.152
1594007959459605,2.096,0.838,0.152
1594007959961074,2.096,0.838,0.152
1594007960462559,2.096,0.838,0.152
1594007960964011,2.058,0.838,0.152
1594007961465526,2.096,0.838,0.152
1594007961969354,2.058,0.838,0.152
1594007962470841,2.058,0.838,0.152
1594007962972388,2.058,0.838,0.152
1594007963473839,2.058,0.838,0.152
1594007963976862,2.058,0.838,0.152
1594007964478379,2.096,0.838,0.152
1594007964979884,2.058,0.838,0.152
1594007965481334,2.058,0.838,0.152
1594007965982875,2.096,0.838,0.152
1594007966484480,2.058,0.838,0.152
1594007966988337,2.058,0.838,0.152
1594007967489820,2.058,0.838,0.152
1594007967995539,2.096,0.838,0.152
1594007968497027,2.058,0.838,0.152
1594007968998555,2.058,0.838,0.152
1594007969500041,2.096,0.915,0.152
1594007970001574,2.096,0.915,0.152
1594007970503034,2.096,0.915,0.152
1594007971004477,2.096,0.838,0.152
1594007971505912,2.096,0.838,0.152
1594007972009633,2.096,0.915,0.152
1594007972511109,2.096,0.915,0.152
1594007973012896,2.096,0.838,0.152
1594007973514387,2.096,0.915,0.152
1594007974015879,2.096,0.838,0.152
1594007974517428,2.096,0.915,0.152
1594007975018935,2.096,0.915,0.152
1594007975520467,2.096,0.838,0.152
1594007976022031,2.096,0.915,0.152
1594007976523573,2.058,0.915,0.152
1594007977025106,2.096,0.915,0.152
1594007977526698,2.096,0.915,0.152
1594007978028611,2.172,0.838,0.152
1594007978530076,2.401,0.838,0.152
1594007979031595,2.477,0.915,0.152
1594007979533089,2.477,0.838,0.152
1594007980034573,2.248,0.838,0.152
1594007980536121,2.172,0.915,0.152
1594007981037547,2.096,0.838,0.152
1594007981539004,2.096,0.838,0.152
1594007982042795,2.096,0.915,0.152
1594007982544249,2.096,0.838,0.152
1594007983045702,2.096,0.838,0.152
1594007983547196,2.096,0.915,0.152
1594007984048787,2.096,0.915,0.152
1594007984550386,2.058,0.838,0.152
1594007985051898,2.058,0.838,0.152
1594007985553402,2.096,0.838,0.152
1594007986054957,2.058,0.838,0.152
1594007986556469,2.096,0.838,0.152
1594007987060056,2.096,0.915,0.152
1594007987561520,2.096,0.838,0.152
1594007988063017,2.058,0.838,0.152
1594007988564492,2.096,0.838,0.152
1594007989066040,2.058,0.838,0.152
1594007989567571,2.058,0.838,0.152
1594007990069141,2.096,0.838,0.152
1594007990570701,2.058,0.838,0.152
1594007991072195,2.096,0.915,0.152
1594007991573702,2.134,0.915,0.152
1594007992075247,2.096,0.915,0.152
1594007992576795,2.096,0.915,0.152
1594007993078337,2.096,0.915,0.152
1594007993579857,2.096,0.838,0.152
1594007994081325,2.096,0.915,0.152
1594007994582856,2.058,0.838,0.152
1594007995084464,2.096,0.915,0.152
1594007995585890,2.096,0.838,0.152
1594007996087352,2.058,0.838,0.152
1594007996588826,2.096,0.915,0.152
1594007997090328,2.096,0.838,0.152
1594007997591849,2.096,0.838,0.152
1594007998093289,2.096,0.838,0.152
1594007998594791,2.096,0.838,0.152
1594007999096311,2.058,0.838,0.152
1594007999597798,2.134,0.915,0.152
1594008000099419,2.096,0.838,0.152
1594008000600900,2.096,0.915,0.152
1594008001102400,2.096,0.915,0.152
1594008001604017,2.096,0.838,0.152
1594008002105509,2.096,0.838,0.152
1594008002607026,2.058,0.838,0.152
1594008003108720,2.096,0.915,0.152
1594008003610167,2.096,0.838,0.152
1594008004111636,2.058,0.838,0.152
1594008004613264,2.096,0.838,0.152
1594008005114724,2.096,0.838,0.152
1594008005616227,2.096,0.838,0.152
1594008006117655,2.096,0.915,0.152
1594008006619178,2.096,0.838,0.152
1594008007120749,2.096,0.838,0.152
1594008007624692,2.096,0.915,0.152
1594008008126197,2.058,0.838,0.152
1594008008627808,2.058,0.838,0.152
1594008009129339,2.096,0.838,0.152
1594008009630826,2.058,0.838,0.152
1594008010132380,2.058,0.838,0.152
1594008010633853,2.096,0.915,0.152
1594008011135395,2.096,0.838,0.152
1594008011636842,2.096,0.838,0.152
1594008012138305,2.096,0.915,0.152
1594008012642090,2.096,0.838,0.152
1594008013143600,2.096,0.915,0.152
1594008013645104,2.096,0.838,0.152
1594008014146581,2.096,0.838,0.152
1594008014648096,2.096,0.915,0.152
1594008015149561,2.096,0.915,0.152
1594008015651034,2.096,0.838,0.152
1594008016152562,2.096,0.915,0.152
1594008016654046,2.058,0.838,0.152
1594008017155717,2.096,0.838,0.152
1594008017659977,2.096,0.915,0.152
1594008018161453,2.096,0.838,0.152
1594008018663076,2.096,0.838,0.152
1594008019164620,2.096,0.838,0.152
1594008019666101,2.096,0.838,0.152
1594008020167630,2.096,0.838,0.152
1594008020669119,2.096,0.915,0.152
1594008021170575,2.096,0.838,0.152
1594008021672148,2.096,0.915,0.152
1594008022173669,2.096,0.915,0.152
1594008022677526,2.096,0.838,0.152
1594008023178961,2.058,0.838,0.152
1594008023680443,2.096,0.915,0.152
1594008024181959,2.096,0.838,0.152
1594008024683441,2.096,0.915,0.152
1594008025184920,2.096,0.838,0.152
1594008025687037,2.096,0.838,0.152
1594008026188561,2.096,0.838,0.152
1594008026695597,2.096,0.838,0.152
1594008027197060,2.096,0.915,0.152
1594008027698572,2.096,0.915,0.152
1594008028200074,2.096,0.838,0.152
1594008028701645,2.096,0.915,0.152
1594008029203155,2.096,0.838,0.152
1594008029704916,2.058,0.838,0.152
1594008030206438,2.058,0.838,0.152
1594008030707976,2.058,0.838,0.152
1594008031209489,2.096,0.838,0.152
1594008031711005,2.096,0.915,0.152
1594008032212457,2.058,0.838,0.152
1594008032714061,2.096,0.838,0.152
1594008033215715,2.134,0.915,0.152
1594008033717185,2.096,0.915,0.152
1594008034218734,2.096,0.915,0.152
1594008034720264,2.096,0.838,0.152
1594008035221710,2.096,0.915,0.152
1594008035723362,2.096,0.838,0.152
1594008036224913,2.058,0.838,0.152
1594008036726378,2.096,0.838,0.152
1594008037231649,2.058,0.838,0.152
1594008037733160,2.058,0.838,0.152
1594008038234755,2.096,0.838,0.152
1594008038736337,2.058,0.838,0.152
1594008039237800,2.096,0.838,0.152
1594008039739550,2.096,0.838,0.152
1594008040241026,2.096,0.915,0.152
1594008040742516,2.096,0.838,0.152
1594008041244112,2.324,0.915,0.152
1594008041745635,2.477,0.915,0.152
1594008042247108,2.477,0.838,0.152
1594008042748656,2.401,0.838,0.152
1594008043250495,2.172,0.838,0.152
1594008043752049,2.134,0.838,0.152
1594008044253537,2.096,0.915,0.152
1594008044755046,2.096,0.915,0.152
1594008045256686,2.096,0.838,0.152
1594008045758151,2.058,0.838,0.152
1594008046259645,2.096,0.838,0.152
1594008046761169,2.058,0.838,0.152
1594008047262674,2.096,0.838,0.152
1594008047764183,2.096,0.838,0.152
1594008048265663,2.058,0.838,0.152
1594008048769259,2.058,0.838,0.152
1594008049270761,2.096,0.838,0.152
1594008049772261,2.058,0.838,0.152
1594008050273776,2.058,0.838,0.152
1594008050775392,2.096,0.838,0.152
1594008051276875,2.096,0.915,0.152
1594008051778353,2.058,0.838,0.152
1594008052279871,2.058,0.838,0.152
1594008052781365,2.058,0.838,0.152
1594008053282870,2.058,0.838,0.152
1594008053786636,2.058,0.915,0.152
1594008054288258,2.058,0.838,0.152
1594008054789806,2.096,0.838,0.152
1594008055291234,2.058,0.838,0.152
1594008055792715,2.058,0.838,0.152
1594008056294241,2.058,0.838,0.152
1594008056795775,2.058,0.838,0.152
1594008057297220,2.096,0.838,0.152
1594008057798709,2.096,0.915,0.152
1594008058300196,2.096,0.838,0.152
1594008058804032,2.096,0.915,0.152
1594008059305499,2.096,0.915,0.152
1594008059806981,2.058,0.838,0.152
1594008060308587,2.096,0.838,0.152
1594008060810036,2.096,0.915,0.152
1594008061311558,2.058,0.838,0.152
1594008061813223,2.058,0.838,0.152
1594008062314703,2.096,0.838,0.152
1594008062816208,2.096,0.838,0.152
1594008063317662,2.096,0.838,0.152
1594008063819154,2.096,0.915,0.152
1594008064320615,2.096,0.838,0.152
1594008064822213,2.096,0.915,0.152
1594008065323776,2.096,0.838,0.152
1594008065825232,2.096,0.838,0.152
1594008066326756,2.058,0.838,0.152
1594008066828248,2.096,0.838,0.152
1594008067329745,2.096,0.838,0.152
1594008067831206,2.096,0.915,0.152
1594008068332758,2.058,0.838,0.152
1594008068834246,2.096,0.838,0.152
1594008069335789,2.096,0.915,0.152
1594008069837270,2.058,0.838,0.152
1594008070338867,2.096,0.838,0.152
1594008070840437,2.096,0.838,0.152
1594008071341940,2.096,0.915,0.152
1594008071843626,2.096,0.915,0.152
1594008072345119,2.096,0.838,0.152
1594008072846578,2.058,0.838,0.152
1594008073348116,2.096,0.838,0.152
1594008073849587,2.096,0.838,0.152
1594008074353306,2.096,0.838,0.152
1594008074854774,2.096,0.838,0.152
1594008075356270,2.096,0.915,0.152
1594008075857800,2.096,0.838,0.152
1594008076359467,2.058,0.838,0.152
1594008076860963,2.096,0.915,0.152
1594008077362463,2.096,0.838,0.152
1594008077863965,2.058,0.838,0.152
1594008078365459,2.096,0.838,0.152
1594008078866960,2.096,0.838,0.152
1594008079370669,2.096,0.915,0.152
1594008079872147,2.096,0.915,0.152
1594008080373605,2.096,0.838,0.152
1594008080875099,2.096,0.915,0.152
1594008081376610,2.096,0.915,0.152
1594008081878288,2.096,0.838,0.152
1594008082379807,2.058,0.915,0.152
1594008082881286,2.096,0.915,0.152
1594008083382856,2.058,0.838,0.152
1594008083884368,2.096,0.838,0.152
1594008084385883,2.096,0.838,0.152
1594008084887493,2.096,0.838,0.152
1594008085388967,2.058,0.838,0.152
1594008085890449,2.058,0.838,0.152
1594008086391941,2.058,0.838,0.152
1594008086893413,2.058,0.838,0.152
1594008087394855,2.096,0.838,0.152
1594008087896319,2.058,0.838,0.152
1594008088397800,2.058,0.838,0.152
1594008088899407,2.096,0.838,0.152
1594008089403296,2.096,0.915,0.152
1594008089904828,2.058,0.838,0.152
1594008090406305,2.058,0.838,0.152
1594008090907821,2.096,0.838,0.152
1594008091409364,2.096,0.838,0.152
1594008091913438,2.058,0.838,0.152
1594008092414952,2.096,0.838,0.152
1594008092916431,2.096,0.838,0.152
1594008093417919,2.096,0.915,0.152
1594008093919443,2.096,0.915,0.152
1594008094423401,2.096,0.838,0.152
1594008094924891,2.096,0.915,0.152
1594008095426391,2.058,0.915,0.152
1594008095927897,2.096,0.838,0.152
1594008096429414,2.058,0.838,0.152
1594008096930927,2.096,0.915,0.152
1594008097432524,2.096,0.915,0.152
1594008097933996,2.096,0.838,0.152
1594008098435454,2.058,0.838,0.152
1594008098936955,2.096,0.915,0.152
1594008099438462,2.096,0.915,0.152
1594008099939935,2.058,0.838,0.152
1594008100441417,2.096,0.838,0.152
1594008100942914,2.058,0.838,0.152
1594008101444484,2.096,0.838,0.152
1594008101945947,2.058,0.915,0.152
1594008102447445,2.058,0.838,0.152
1594008102948915,2.096,0.838,0.152
1594008103450397,2.096,0.915,0.152
1594008103951894,2.096,0.838,0.152
1594008104455387,2.401,0.838,0.152
1594008104956889,2.477,0.915,0.152
1594008105458383,2.515,0.838,0.152
