Timestamp,Voltage(V),Ampere(A),Power(W),Watt Hour
1606698004963654545,5.019,0.851,4.275,0.000
1606698005059310857,5.020,0.850,4.267,0.000
1606698005126995417,5.016,0.827,4.149,0.000
1606698005182888421,5.006,0.705,3.531,0.000
1606698005237801681,5.019,0.929,4.668,0.000
1606698005294681638,5.007,0.732,3.668,0.000
1606698005369525489,5.006,0.704,3.527,0.000
1606698005451963295,5.005,0.701,3.508,0.000
1606698005508967168,5.005,0.695,3.481,0.000
1606698005564719673,5.005,0.696,3.489,0.000
1606698005625024568,5.007,0.734,3.676,0.000
1606698005681452652,5.006,0.699,3.504,0.000
1606698005760627061,5.006,0.697,3.489,0.000
1606698005817747142,5.006,0.696,3.485,0.000
1606698005874031977,5.016,0.832,4.179,0.000
1606698005931066391,5.010,0.752,3.771,0.000
1606698005986085901,5.010,0.752,3.771,0.000
1606698006042923774,5.005,0.690,3.454,0.000
1606698006100291644,5.005,0.689,3.450,0.000
1606698006166222963,5.006,0.695,3.481,0.000
1606698006219196359,5.012,0.808,4.054,0.000
1606698006276351814,5.014,0.822,4.122,0.000
1606698006335629506,5.005,0.689,3.450,0.000
1606698006392219256,5.005,0.686,3.435,0.000
1606698006446796101,5.005,0.687,3.443,0.000
1606698006500463492,5.007,0.698,3.496,0.000
1606698006554183259,5.007,0.698,3.496,0.000
1606698006728610897,5.019,0.946,4.752,0.000
1606698007011488604,5.005,0.687,3.439,0.000
1606698007133510425,5.005,0.685,3.428,0.000
1606698007256291116,5.006,0.688,3.443,0.000
1606698007380650507,5.006,0.692,3.470,0.000
1606698007515692043,5.005,0.685,3.431,0.000
1606698007645884732,5.005,0.684,3.424,0.000
1606698007751772898,5.005,0.684,3.424,0.000
1606698007875987956,5.005,0.685,3.428,0.000
1606698008002700291,5.007,0.725,3.630,0.000
1606698008135984294,5.005,0.690,3.454,0.000
1606698008261047763,5.005,0.693,3.473,0.000
1606698008358094314,5.014,0.854,4.286,0.000
1606698008416974965,5.010,0.770,3.859,0.000
1606698008474265793,5.006,0.701,3.512,0.000
1606698008528575805,5.005,0.685,3.431,0.000
1606698008587250250,5.005,0.685,3.431,0.000
1606698008644026872,5.005,0.685,3.428,0.000
1606698008704302432,5.009,0.729,3.653,0.000
1606698008761698468,5.016,0.893,4.481,0.000
1606698008818378591,5.005,0.688,3.447,0.000
1606698008877652698,5.005,0.685,3.431,0.000
1606698008934195864,5.005,0.683,3.420,0.000
1606698008990721613,5.005,0.691,3.462,0.000
1606698009046088285,5.019,0.927,4.657,0.000
1606698009103709735,5.019,0.686,3.439,0.000
1606698009160330108,5.005,0.686,3.431,0.000
1606698009214638703,5.005,0.683,3.424,0.000
1606698009273197231,5.005,0.683,3.420,0.000
1606698009329535939,5.005,0.686,3.435,0.000
1606698009385383775,5.019,0.928,4.664,0.000
1606698009439168039,5.005,0.691,3.458,0.000
1606698009493653967,5.006,0.687,3.443,0.000
1606698009548583183,5.006,0.689,3.450,0.000
1606698009597375685,5.006,0.688,3.447,0.000
1606698009652910398,5.016,0.879,4.416,0.000
1606698009708140237,5.014,0.801,4.019,0.000
1606698009765070025,5.006,0.701,3.515,0.000
1606698009825192460,5.005,0.680,3.408,0.000
1606698009911408783,5.005,0.680,3.405,0.000
1606698009970103185,5.010,0.762,3.821,0.000
1606698010027929051,5.014,0.830,4.164,0.000
1606698010087811320,5.005,0.681,3.412,0.000
1606698010147559091,5.006,0.683,3.420,0.000
1606698010204317962,5.006,0.685,3.435,0.000
1606698010261839163,5.006,0.685,3.431,0.000
1606698010318959865,5.006,0.696,3.485,0.000
1606698010380720874,5.021,0.962,4.836,0.000
1606698010442612298,5.006,0.686,3.431,0.000
1606698010499545127,5.005,0.680,3.405,0.000
1606698010556728996,5.005,0.680,3.405,0.000
1606698010614571903,5.006,0.680,3.405,0.000
1606698010672801265,5.020,0.942,4.733,0.000
1606698010725530328,5.005,0.679,3.401,0.000
1606698010780162753,5.005,0.679,3.401,0.000
1606698010836519711,5.006,0.682,3.412,0.000
1606698010891373218,5.005,0.679,3.401,0.000
1606698010946378767,5.005,0.679,3.401,0.000
1606698011003409054,5.009,0.730,3.657,0.000
1606698011061517333,5.005,0.681,3.408,0.000
1606698011118175246,5.005,0.681,3.412,0.000
1606698011179156467,5.005,0.681,3.408,0.000
1606698011236263961,5.011,0.799,4.008,0.000
1606698011293520079,5.012,0.797,3.996,0.000
1606698011343666031,5.012,0.797,3.996,0.000
1606698011400967566,5.005,0.688,3.447,0.000
1606698011508248970,5.005,0.680,3.405,0.000
1606698011594824330,5.005,0.681,3.408,0.000
1606698011673928276,5.006,0.691,3.462,0.000
1606698011757603571,5.016,0.913,4.584,0.000
1606698011838736339,5.005,0.680,3.405,0.000
1606698011919370734,5.005,0.681,3.412,0.000
1606698011999161677,5.005,0.683,3.420,0.000
1606698012067230188,5.006,0.686,3.439,0.000
1606698012153460050,5.017,0.911,4.576,0.000
1606698012235442062,5.006,0.697,3.492,0.000
1606698012316381413,5.006,0.681,3.408,0.000
1606698012396475312,5.005,0.682,3.412,0.000
1606698012475596507,5.005,0.678,3.397,0.000
1606698012559109635,5.019,0.906,4.550,0.000
1606698012641469770,5.005,0.680,3.405,0.000
1606698012728850083,5.005,0.678,3.397,0.000
1606698012809799434,5.006,0.680,3.405,0.000
1606698012888555299,5.006,0.679,3.401,0.000
1606698012969312568,5.017,0.861,4.321,0.000
1606698013073656738,5.010,0.732,3.668,0.000
1606698013136889861,5.006,0.677,3.389,0.000
1606698013193956187,5.006,0.679,3.397,0.000
1606698013264012728,5.005,0.679,3.397,0.000
1606698013322699003,5.011,0.748,3.752,0.000
1606698013379796704,5.007,0.710,3.557,0.000
1606698013436984822,5.006,0.677,3.393,0.000
1606698013493969274,5.006,0.677,3.393,0.000
1606698013551930886,5.005,0.677,3.389,0.000
1606698013611544989,5.006,0.677,3.389,0.000
1606698013668606441,5.017,0.890,4.470,0.000
1606698013725331061,5.006,0.685,3.431,0.000
1606698013790317674,5.006,0.677,3.389,0.000
1606698013853484589,5.005,0.676,3.382,0.000
1606698013912490570,5.006,0.675,3.382,0.000
1606698013969372648,5.020,0.860,4.325,0.000
1606698014024276903,5.010,0.730,3.657,0.000
1606698014080272694,5.010,0.730,3.657,0.000
1606698014137235312,5.005,0.675,3.382,0.000
1606698014193193270,5.006,0.686,3.435,0.000
1606698014249566141,5.006,0.683,3.424,0.000
1606698014305288975,5.016,0.880,4.420,0.000
1606698014375231974,5.011,0.760,3.813,0.000
1606698014432024427,5.006,0.684,3.428,0.000
1606698014489189252,5.006,0.684,3.424,0.000
1606698014546249453,5.006,0.684,3.428,0.000
1606698014630091702,5.010,0.756,3.790,0.000
1606698014689614847,5.016,0.878,4.408,0.000
1606698014746475924,5.006,0.682,3.416,0.000
1606698014803996872,5.006,0.677,3.389,0.000
1606698014862583814,5.005,0.678,3.397,0.000
1606698014931723443,5.006,0.684,3.424,0.000
1606698014989145767,5.017,0.899,4.519,0.000
1606698015045610512,5.006,0.683,3.424,0.000
1606698015100720808,5.006,0.677,3.389,0.000
1606698015159156542,5.005,0.677,3.393,0.000
1606698015213696882,5.006,0.679,3.401,0.000
1606698015269967296,5.005,0.678,3.397,0.000
1606698015327044246,5.020,0.924,4.645,0.000
1606698015385060191,5.016,0.814,4.084,0.000
1606698015446675947,5.006,0.682,3.416,0.000
1606698015510758689,5.006,0.682,3.416,0.000
1606698015566619022,5.006,0.679,3.397,0.000
1606698015624114094,5.016,0.883,4.431,0.000
1606698015683673571,5.006,0.678,3.393,0.000
1606698015740832688,5.006,0.675,3.382,0.000
1606698015797723306,5.006,0.675,3.382,0.000
1606698015846956678,5.006,0.675,3.382,0.000
1606698015907115110,5.006,0.676,3.386,0.000
1606698015964104519,5.012,0.809,4.061,0.000
1606698016028918631,5.006,0.679,3.405,0.000
1606698016086684494,5.006,0.674,3.374,0.000
1606698016153298386,5.006,0.674,3.378,0.000
1606698016241053027,5.006,0.685,3.428,0.000
1606698016320626592,5.020,0.921,4.630,0.000
1606698016398732833,5.006,0.680,3.405,0.000
1606698016479552057,5.006,0.680,3.405,0.000
1606698016561767648,5.006,0.673,3.370,0.000
1606698016649313165,5.006,0.675,3.378,0.000
1606698016729653184,5.006,0.676,3.386,0.000
1606698016808127089,5.007,0.689,3.450,0.000
1606698016887342906,5.006,0.674,3.378,0.000
1606698016967360552,5.006,0.675,3.378,0.000
1606698017043740927,5.006,0.674,3.378,0.000
1606698017123395949,5.017,0.896,4.496,0.000
1606698017204948044,5.017,0.896,4.496,0.000
1606698017282787452,5.006,0.677,3.389,0.000
1606698017361859602,5.006,0.678,3.393,0.000
1606698017438318060,5.006,0.676,3.386,0.000
1606698017516725298,5.014,0.811,4.069,0.000
1606698017593867252,5.010,0.767,3.844,0.000
1606698017672098491,5.006,0.677,3.393,0.000
1606698017785997016,5.006,0.676,3.386,0.000
1606698017843465588,5.006,0.676,3.382,0.000
1606698017899393211,5.006,0.676,3.382,0.000
1606698017954637379,5.010,0.719,3.603,0.000
1606698018012508116,5.016,0.864,4.340,0.000
1606698018069005318,5.006,0.683,3.420,0.000
1606698018125060148,5.006,0.682,3.412,0.000
1606698018184412999,5.006,0.682,3.416,0.000
1606698018242451192,5.007,0.683,3.424,0.000
1606698018307626092,5.020,0.873,4.382,0.000
1606698018366455489,5.006,0.679,3.401,0.000
1606698018423523604,5.006,0.674,3.378,0.000
1606698018480179514,5.006,0.674,3.378,0.000
1606698018539071743,5.006,0.674,3.374,0.000
1606698018596144442,5.021,0.881,4.428,0.000
1606698018652937601,5.006,0.681,3.412,0.000
1606698018710951294,5.006,0.673,3.370,0.000
1606698018767543746,5.006,0.673,3.370,0.000
1606698018825892770,5.006,0.673,3.370,0.000
1606698018890944004,5.021,0.911,4.580,0.000
1606698018948225410,5.007,0.700,3.508,0.000
1606698019004481947,5.006,0.673,3.370,0.000
1606698019063480050,5.006,0.673,3.370,0.000
1606698019120543790,5.006,0.673,3.370,0.000
1606698019177369448,5.006,0.671,3.363,0.000
1606698019235037310,5.017,0.855,4.298,0.000
1606698019310121983,5.009,0.707,3.546,0.000
1606698019382399631,5.006,0.673,3.366,0.000
1606698019445336503,5.006,0.673,3.370,0.000
1606698019500957460,5.006,0.672,3.366,0.000
1606698019557757368,5.012,0.779,3.908,0.000
1606698019614255694,5.016,0.826,4.145,0.000
1606698019670501106,5.010,0.725,3.634,0.000
1606698019724097700,5.006,0.675,3.382,0.000
1606698019779143286,5.006,0.674,3.374,0.000
1606698019834190329,5.006,0.674,3.374,0.000
1606698019888476336,5.019,0.921,4.626,0.000
1606698019945374660,5.006,0.675,3.378,0.000
1606698020005107759,5.006,0.676,3.382,0.000
1606698020060699591,5.006,0.675,3.382,0.000
1606698020118892657,5.006,0.674,3.374,0.000
1606698020174465072,5.006,0.677,3.389,0.000
1606698020231286104,5.019,0.905,4.546,0.000
1606698020287953013,5.006,0.679,3.401,0.000
1606698020346313953,5.006,0.674,3.374,0.000
1606698020403269360,5.006,0.673,3.370,0.000
1606698020459114565,5.006,0.677,3.393,0.000
1606698020520122155,5.019,0.885,4.447,0.000
1606698020578457637,5.007,0.695,3.481,0.000
1606698020633604347,5.006,0.675,3.382,0.000
1606698020687106982,5.006,0.673,3.374,0.000
1606698020740614160,5.006,0.673,3.374,0.000
1606698020796020118,5.006,0.674,3.374,0.000
1606698020860385813,5.014,0.828,4.157,0.000
1606698020917419386,5.006,0.678,3.397,0.000
1606698020972579387,5.006,0.673,3.374,0.000
1606698021028503675,5.006,0.673,3.370,0.000
1606698021094069404,5.006,0.672,3.366,0.000
1606698021205474398,5.009,0.713,3.573,0.000
1606698021285263750,5.006,0.677,3.393,0.000
1606698021362440659,5.006,0.674,3.374,0.000
1606698021446039238,5.006,0.674,3.374,0.000
1606698021522122529,5.006,0.672,3.366,0.000
1606698021598582234,5.007,0.677,3.389,0.000
1606698021686355662,5.019,0.900,4.523,0.000
1606698021764985688,5.006,0.672,3.363,0.000
1606698021844405625,5.006,0.671,3.359,0.000
1606698021924265143,5.006,0.671,3.363,0.000
1606698022003262750,5.020,0.902,4.531,0.000
1606698022081584735,5.014,0.767,3.847,0.000
1606698022159596846,5.014,0.767,3.847,0.000
1606698022245626076,5.006,0.672,3.363,0.000
1606698022325436802,5.006,0.672,3.366,0.000
1606698022405872233,5.006,0.671,3.359,0.000
1606698022485365794,5.010,0.722,3.618,0.000
1606698022560140175,5.006,0.676,3.386,0.000
1606698022635923884,5.006,0.672,3.363,0.000
1606698022723761186,5.006,0.674,3.374,0.000
1606698022808815630,5.010,0.745,3.737,0.000
1606698022887967402,5.010,0.867,3.737,0.000
1606698022979715972,5.016,0.867,4.351,0.000
1606698023040162190,5.006,0.672,3.366,0.000
1606698023095730812,5.006,0.673,3.370,0.000
1606698023150934228,5.006,0.674,3.374,0.000
1606698023208869835,5.007,0.681,3.412,0.000
1606698023264702872,5.006,0.677,3.389,0.000
1606698023321674277,5.006,0.673,3.370,0.000
1606698023384752395,5.006,0.674,3.374,0.000
1606698023441017888,5.006,0.673,3.370,0.000
1606698023499884698,5.006,0.674,3.370,0.000
1606698023552694087,5.021,0.917,4.607,0.000
1606698023608959371,5.016,0.801,4.019,0.000
1606698023665917360,5.006,0.674,3.374,0.000
1606698023723415720,5.006,0.674,3.378,0.000
1606698023780441000,5.006,0.673,3.374,0.000
1606698023835903039,5.016,0.873,4.386,0.000
1606698023898872783,5.009,0.712,3.565,0.000
1606698023957197305,5.006,0.677,3.389,0.000
1606698024015424119,5.006,0.672,3.366,0.000
1606698024070747992,5.006,0.672,3.363,0.000
1606698024126354446,5.006,0.672,3.366,0.000
1606698024174998485,5.012,0.774,3.882,0.000
1606698024233045633,5.014,0.808,4.057,0.000
1606698024285986062,5.006,0.671,3.363,0.000
1606698024339894527,5.006,0.671,3.363,0.000
1606698024394461779,5.006,0.670,3.359,0.000
1606698024453305422,5.007,0.688,3.447,0.000
1606698024553188108,5.019,0.892,4.481,0.000
1606698024634107743,5.006,0.671,3.363,0.000
1606698024713965634,5.006,0.671,3.363,0.000
1606698024793492152,5.006,0.671,3.363,0.000
1606698024875766361,5.006,0.673,3.370,0.000
1606698024954309135,5.020,0.914,4.592,0.000
1606698025039840574,5.006,0.683,3.424,0.000
1606698025123298526,5.006,0.674,3.378,0.000
1606698025199770520,5.006,0.672,3.366,0.000
1606698025274834147,5.006,0.672,3.366,0.000
1606698025351745680,5.017,0.886,4.447,0.000
1606698025429096961,5.007,0.702,3.519,0.000
1606698025507005904,5.006,0.674,3.374,0.000
1606698025591899430,5.006,0.671,3.363,0.000
1606698025671664154,5.006,0.672,3.366,0.000
1606698025749722722,5.014,0.806,4.046,0.000
1606698025830086401,5.012,0.792,3.977,0.000
1606698025907851970,5.006,0.672,3.366,0.000
1606698025984555880,5.006,0.674,3.374,0.000
1606698026077371274,5.006,0.673,3.370,0.000
1606698026155140967,5.009,0.684,3.428,0.000
1606698026210328465,5.017,0.891,4.477,0.000
1606698026265638920,5.006,0.678,3.397,0.000
1606698026318925346,5.006,0.676,3.382,0.000
1606698026375266587,5.006,0.674,3.374,0.000
1606698026434331686,5.006,0.676,3.389,0.000
1606698026491019717,5.023,0.931,4.679,0.000
1606698026546779544,5.010,0.724,3.630,0.000
1606698026605811560,5.006,0.672,3.366,0.000
1606698026662901171,5.006,0.670,3.359,0.000
1606698026727150822,5.006,0.670,3.359,0.000
1606698026782907733,5.006,0.671,3.363,0.000
1606698026838960976,5.019,0.894,4.489,0.000
1606698026898651654,5.010,0.719,3.603,0.000
1606698026954957729,5.006,0.671,3.363,0.000
1606698027010641473,5.006,0.670,3.355,0.000
1606698027065328307,5.006,0.671,3.363,0.000
1606698027123687827,5.015,0.835,4.191,0.000
1606698027177510082,5.007,0.679,3.401,0.000
1606698027230917132,5.007,0.673,3.370,0.000
1606698027289271860,5.007,0.673,3.370,0.000
1606698027346023473,5.006,0.670,3.359,0.000
1606698027402578295,5.006,0.675,3.382,0.000
1606698027459573406,5.015,0.803,4.031,0.000
1606698027514317864,5.009,0.708,3.550,0.000
1606698027566367047,5.006,0.674,3.378,0.000
1606698027641170883,5.006,0.672,3.366,0.000
1606698027709921131,5.009,0.681,3.412,0.000
1606698027762493853,5.019,0.909,4.569,0.000
1606698027828357868,5.006,0.675,3.382,0.000
1606698027884577609,5.006,0.675,3.382,0.000
1606698027939460275,5.006,0.673,3.374,0.000
1606698027993466113,5.006,0.672,3.366,0.000
1606698028049512313,5.006,0.675,3.378,0.000
1606698028100494752,5.020,0.841,4.221,0.000
1606698028155873581,5.009,0.701,3.512,0.000
1606698028211025369,5.006,0.673,3.370,0.000
1606698028263918005,5.006,0.672,3.363,0.000
1606698028320405911,5.006,0.672,3.366,0.000
1606698028387553418,5.020,0.893,4.489,0.000
1606698028446922931,5.020,0.893,4.489,0.000
1606698028504827036,5.006,0.673,3.370,0.000
1606698028557843712,5.006,0.672,3.366,0.000
1606698028611745092,5.006,0.672,3.366,0.000
1606698028671439395,5.006,0.672,3.366,0.000
1606698028725184858,5.007,0.692,3.470,0.000
1606698028781701139,5.006,0.676,3.386,0.000
1606698028838706624,5.006,0.671,3.363,0.000
1606698028891340970,5.006,0.671,3.359,0.000
1606698028950364360,5.006,0.671,3.359,0.000
1606698029003723701,5.015,0.823,4.134,0.000
1606698029058504033,5.010,0.733,3.672,0.000
1606698029114565899,5.006,0.671,3.359,0.000
1606698029189606399,5.006,0.670,3.359,0.000
1606698029256633157,5.006,0.670,3.355,0.000
1606698029309292543,5.009,0.702,3.515,0.000
1606698029361911722,5.019,0.897,4.508,0.000
1606698029418592376,5.006,0.671,3.359,0.000
1606698029478070137,5.006,0.671,3.363,0.000
1606698029530857732,5.006,0.671,3.359,0.000
1606698029585861771,5.006,0.668,3.347,0.000
1606698029641730388,5.007,0.674,3.378,0.000
1606698029696392845,5.019,0.905,4.546,0.000
1606698029751689841,5.007,0.674,3.374,0.000
1606698029806214966,5.006,0.670,3.359,0.000
1606698029859480808,5.006,0.670,3.355,0.000
1606698029913927600,5.006,0.670,3.355,0.000
1606698029971333541,5.019,0.887,4.454,0.000
1606698030033067247,5.006,0.678,3.397,0.000
1606698030089336361,5.006,0.678,3.397,0.000
1606698030141704791,5.006,0.676,3.386,0.000
1606698030198094363,5.006,0.673,3.370,0.000
1606698030254952806,5.006,0.672,3.366,0.000
1606698030310481800,5.011,0.738,3.699,0.000
1606698030363228686,5.006,0.675,3.382,0.000
1606698030419054011,5.006,0.674,3.374,0.000
1606698030476367827,5.006,0.676,3.389,0.000
1606698030533828267,5.010,0.736,3.691,0.000
1606698030599946238,5.019,0.982,4.931,0.000
1606698030651434840,5.019,0.982,4.931,0.000
1606698030704640806,5.009,0.691,3.466,0.000
1606698030786684012,5.024,1.812,9.107,0.000
1606698030840136352,5.021,1.820,9.141,0.000
1606698030898409329,5.006,1.843,9.229,0.000
1606698030966636620,5.006,1.844,9.237,0.000
1606698031020382999,4.997,1.852,9.260,0.000
1606698031076776987,5.016,1.651,8.286,0.000
1606698031135950958,5.016,1.718,8.622,0.000
1606698031192155030,5.016,1.722,8.641,0.000
1606698031245033123,5.016,1.722,8.641,0.000
1606698031302369772,5.017,1.728,8.676,0.000
1606698031356335649,5.021,1.501,7.538,0.000
1606698031408421289,5.031,1.000,5.034,0.000
1606698031464856485,5.031,0.990,4.981,0.000
1606698031518424990,5.031,0.988,4.973,0.000
1606698031574609937,5.031,1.025,5.160,0.000
1606698031628146651,5.023,1.250,6.283,0.000
1606698031689085319,5.019,1.386,6.958,0.000
1606698031747596086,5.020,1.366,6.863,0.000
1606698031803070121,5.020,1.367,6.867,0.000
1606698031860383562,5.017,1.391,6.985,0.000
1606698031915893305,5.016,1.410,7.076,0.000
1606698031972465292,5.020,1.623,8.153,0.000
1606698032031859969,5.020,1.773,8.905,0.000
1606698032089036327,5.020,1.776,8.920,0.000
1606698032142382583,5.021,1.781,8.947,0.000
1606698032196188836,5.019,1.809,9.084,0.000
1606698032283617841,5.015,1.511,7.580,0.000
1606698032345766335,5.016,1.491,7.481,0.000
1606698032402890610,5.015,1.542,7.737,0.000
1606698032455150247,5.016,1.496,7.508,0.000
1606698032507642342,5.016,1.492,7.489,0.000
1606698032561437887,5.015,1.606,8.057,0.000
1606698032615225557,5.015,1.709,8.577,0.000
1606698032669055893,5.015,1.711,8.584,0.000
1606698032733391457,5.015,1.707,8.565,0.000
1606698032785286597,5.015,1.710,8.584,0.000
1606698032846227098,4.992,1.858,9.279,0.000
1606698032902014589,4.992,1.858,9.279,0.000
1606698032955042931,4.989,1.857,9.267,0.000
1606698033007639816,4.990,1.857,9.271,0.000
1606698033061375819,4.989,1.855,9.260,0.000
1606698033116303024,4.990,1.885,9.409,0.000
1606698033174268376,4.992,1.881,9.393,0.000
1606698033228655000,4.989,1.903,9.496,0.000
1606698033285743316,4.989,1.903,9.500,0.000
1606698033339613985,4.989,1.910,9.535,0.000
1606698033398729080,4.991,1.934,9.657,0.000
1606698033452936622,4.991,1.934,9.657,0.000
1606698033505957588,4.991,1.920,9.584,0.000
1606698033563917107,4.992,1.915,9.565,0.000
1606698033615420874,4.991,1.939,9.683,0.000
1606698033669583874,4.991,1.941,9.691,0.000
1606698033725922903,4.989,1.916,9.561,0.000
1606698033778607746,4.987,1.886,9.412,0.000
1606698033833955198,4.987,1.888,9.424,0.000
1606698033890076520,4.987,1.891,9.435,0.000
1606698033950803063,4.987,1.889,9.424,0.000
1606698034008744582,4.987,1.889,9.424,0.000
1606698034064343365,4.987,1.889,9.424,0.000
1606698034121117724,4.991,1.941,9.695,0.000
1606698034174002815,4.991,1.945,9.710,0.000
1606698034225838872,4.992,1.951,9.748,0.000
1606698034278715296,4.991,1.948,9.729,0.000
1606698034360800875,4.991,1.941,9.695,0.000
1606698034417903315,4.987,1.898,9.470,0.000
1606698034477041243,4.989,1.917,9.569,0.000
1606698034533665686,4.987,1.894,9.451,0.000
1606698034590919250,4.987,1.894,9.451,0.000
1606698034647863275,4.989,1.918,9.573,0.000
1606698034704132970,4.991,1.955,9.764,0.000
1606698034762029198,4.992,1.951,9.741,0.000
1606698034818953431,4.991,1.951,9.741,0.000
1606698034877852235,4.992,1.955,9.767,0.000
1606698034935141924,4.991,1.950,9.741,0.000
1606698034991620785,4.990,1.938,9.676,0.000
1606698035054563814,4.990,1.938,9.680,0.000
1606698035111622754,4.990,1.930,9.638,0.000
1606698035162516399,4.989,1.922,9.592,0.000
1606698035218431804,4.990,1.936,9.664,0.000
1606698035272480054,4.992,1.965,9.817,0.000
1606698035328882624,4.992,1.969,9.836,0.000
1606698035386437561,4.992,1.967,9.828,0.000
1606698035442531090,4.992,1.960,9.786,0.000
1606698035495197182,4.990,1.949,9.729,0.000
1606698035552943951,4.990,1.924,9.607,0.000
1606698035617013015,4.990,1.945,9.706,0.000
1606698035675085907,4.990,1.944,9.706,0.000
1606698035731715558,4.990,1.948,9.729,0.000
1606698035784847106,4.990,1.947,9.718,0.000
1606698035843473661,4.991,1.950,9.741,0.000
1606698035917020083,4.991,1.964,9.809,0.000
1606698035974082356,4.992,1.964,9.809,0.000
1606698036024776169,4.992,1.972,9.848,0.000
1606698036078105715,4.992,1.976,9.874,0.000
1606698036135653318,4.992,1.973,9.855,0.000
1606698036187606289,4.990,1.949,9.729,0.000
1606698036242426701,4.990,1.949,9.729,0.000
1606698036298744478,4.989,1.946,9.714,0.000
1606698036354490384,4.989,1.941,9.687,0.000
1606698036408587342,4.989,1.947,9.718,0.000
1606698036464378915,4.989,1.954,9.752,0.000
1606698036519106702,4.991,1.978,9.878,0.000
1606698036689771441,4.991,1.981,9.893,0.000
1606698037186957579,4.990,1.972,9.848,0.000
1606698037685492332,4.991,1.973,9.851,0.000
1606698038189622965,4.991,1.975,9.863,0.000
1606698038688634127,4.991,1.985,9.909,0.000
1606698039189126862,4.990,1.985,9.912,0.000
1606698039687196651,4.989,1.969,9.828,0.000
1606698040191613523,4.990,1.990,9.935,0.000
1606698040691065507,4.990,1.991,9.939,0.000
1606698041189977576,4.990,1.994,9.954,0.000
1606698041691870332,4.989,1.973,9.848,0.000
1606698042195244285,4.990,1.992,9.943,0.000
1606698042695600963,4.990,1.996,9.966,0.000
1606698043188588894,4.989,1.988,9.924,0.000
1606698043689035066,4.989,1.986,9.912,0.000
1606698044191295101,4.989,1.991,9.939,0.000
1606698044687954543,4.990,1.999,9.977,0.000
1606698045189078498,4.989,1.986,9.912,0.000
1606698045689395079,4.989,1.993,9.951,0.000
1606698046191657022,4.989,1.995,9.958,0.000
1606698046688433747,4.989,1.988,9.924,0.000
1606698047191481555,4.989,1.996,9.962,0.000
1606698047688075110,4.989,1.999,9.981,0.000
1606698048192024909,4.989,1.991,9.935,0.000
1606698048690443572,4.987,1.971,9.836,0.000
1606698049188128531,4.989,2.003,10.000,0.000
1606698049688783218,4.989,2.006,10.012,0.000
1606698050168985282,4.987,1.997,9.966,0.000
1606698050689777630,4.987,1.996,9.958,0.000
1606698051190710851,4.987,2.004,10.004,0.000
1606698051690576368,4.987,2.007,10.012,0.000
1606698052191186337,4.985,1.975,9.851,0.000
1606698052689028654,4.986,2.007,10.008,0.000
1606698053190453822,4.985,2.010,10.023,0.000
1606698053689059505,4.985,2.010,10.023,0.000
1606698054196768920,4.983,2.003,9.985,0.000
1606698054693565110,4.983,2.003,9.989,0.000
1606698055189320347,4.983,2.014,10.042,0.000
1606698055690615796,4.981,2.002,9.977,0.000
1606698056189837840,4.981,2.016,10.046,0.000
1606698056690880911,4.980,2.009,10.012,0.000
1606698057188477711,4.979,2.015,10.038,0.000
1606698057686936420,4.979,2.011,10.019,0.000
1606698058189163895,4.976,2.024,10.077,0.000
1606698058687526308,4.975,2.012,10.015,0.000
1606698059191192061,4.975,2.019,10.050,0.000
1606698059691395041,4.975,2.020,10.054,0.000
1606698060192585472,4.975,2.024,10.073,0.000
1606698060690230632,4.971,2.016,10.027,0.000
1606698061188611993,4.970,2.013,10.008,0.000
1606698061689898708,4.969,2.026,10.077,0.000
1606698062188738854,4.969,2.028,10.080,0.000
1606698062691931720,4.967,2.030,10.088,0.000
1606698063190567530,4.967,2.012,10.000,0.000
1606698063690634786,4.966,2.030,10.084,0.000
1606698064191241120,4.965,2.032,10.092,0.000
1606698064688040102,4.965,2.020,10.035,0.000
1606698065191558330,4.964,2.023,10.046,0.000
1606698065690028005,4.964,2.031,10.088,0.000
1606698066194173100,4.963,2.034,10.099,0.000
1606698066688345048,4.961,2.032,10.088,0.000
1606698067189325368,4.961,2.027,10.061,0.000
1606698067691301095,4.961,2.036,10.103,0.000
1606698068188581935,4.960,2.030,10.077,0.000
1606698068691267070,4.960,2.038,10.115,0.000
1606698069191850384,4.959,2.030,10.073,0.000
1606698069692018822,4.959,2.036,10.099,0.000
1606698070185876884,4.959,2.041,10.126,0.000
1606698070688751926,4.959,2.044,10.138,0.000
1606698071189229899,4.959,2.043,10.138,0.000
1606698071688976624,4.959,2.028,10.057,0.000
1606698072195775010,4.957,2.046,10.149,0.000
1606698072691299008,4.959,2.049,10.164,0.000
1606698073189467988,4.957,2.044,10.138,0.000
1606698073689247163,4.957,2.030,10.073,0.000
1606698074188404132,4.957,2.044,10.138,0.000
1606698074691610614,4.956,2.047,10.153,0.000
1606698075188383803,4.959,2.045,10.145,0.000
1606698075691473823,4.957,2.037,10.103,0.000
1606698076187075224,4.956,2.046,10.145,0.000
1606698076690449738,4.956,2.047,10.153,0.000
1606698077189359154,4.957,2.034,10.092,0.000
1606698077688098986,4.957,2.043,10.134,0.000
1606698078198857405,4.957,2.041,10.122,0.000
1606698078690931568,4.957,2.046,10.149,0.000
1606698079191262926,4.957,2.054,10.191,0.000
1606698079692406942,4.957,2.018,10.008,0.000
1606698080191194764,4.957,2.046,10.149,0.000
1606698080691722947,4.956,2.042,10.126,0.000
1606698081188304655,4.960,2.060,10.222,0.000
1606698081689991451,4.957,2.053,10.183,0.000
1606698082192049077,4.956,2.039,10.115,0.000
1606698082690852305,4.957,2.052,10.180,0.000
1606698083191760809,4.956,2.053,10.180,0.000
1606698083689112626,4.956,2.054,10.187,0.000
1606698084195023301,4.959,2.036,10.099,0.000
1606698084688067726,4.956,2.048,10.157,0.000
1606698085190582503,4.956,2.057,10.199,0.000
1606698085685248413,4.957,2.060,10.218,0.000
1606698086190575167,4.959,2.021,10.027,0.000
1606698086690999035,4.956,2.049,10.161,0.000
1606698087188332922,4.956,2.060,10.214,0.000
1606698087689516864,4.956,2.052,10.176,0.000
1606698088189545229,4.956,2.059,10.210,0.000
1606698088690169421,4.957,2.053,10.183,0.000
1606698088936359711,4.957,2.053,10.183,0.000
1606698089439880338,4.956,2.058,10.202,0.000
1606698089936740468,4.956,2.059,10.206,0.000
1606698090441627124,4.956,2.059,10.210,0.000
1606698090941131232,4.956,2.050,10.168,0.000
1606698091440339005,4.956,2.054,10.183,0.000
1606698091941340099,4.956,2.059,10.210,0.000
1606698092437625054,4.956,2.063,10.229,0.000
1606698092689326841,4.956,2.059,10.210,0.000
1606698093189626017,4.956,2.043,10.134,0.000
1606698093439378149,4.956,2.059,10.214,0.000
1606698093941136688,4.956,2.063,10.229,0.000
1606698094438548711,4.956,2.064,10.233,0.000
1606698094939894958,4.956,2.055,10.191,0.000
1606698095189312296,4.956,2.046,10.145,0.000
1606698095664459213,5.012,1.190,5.954,0.000
