timestamp	VIRTUAL_SCALING	CPU0_F	CPU1_F	CPU2_F	CPU3_F	CPU4_F	CPU5_F	CPU6_F	CPU7_F	GPU_FREQ	CPU_GOVERNOR	EMC_F	TEMP0
1606785077337507003	1	1300	1300	1300	1300	600	600	600	600	600	conservative	-	43
1606785077481217107 	0	1300	1400	1400	1400	600	600	600	600	600	conservative	-	43
1606785079289825589	1	1400	1400	1400	1400	400	400	400	400	600	conservative	-	42
1606785079486941088 	0	1400	1400	1400	1400	400	400	400	400	600	conservative	-	43
1606785081254564326	1	1400	1400	1400	1400	400	400	400	400	600	conservative	-	42
1606785081451560489 	0	1400	1400	1400	1400	400	400	400	400	600	conservative	-	42
1606785083279645788	1	1400	1400	1400	1400	300	300	300	300	600	conservative	-	42
1606785083538587034 	0	1400	1400	1400	1400	300	300	300	300	600	conservative	-	42
1606785085295606231	1	1400	1400	1400	1400	400	400	400	400	600	conservative	-	42
1606785085493274761 	0	1400	1400	1400	1400	400	400	400	400	600	conservative	-	42
1606785087244449856	1	1400	1400	1400	1400	400	400	400	400	600	conservative	-	42
1606785087441176967 	0	1400	1400	1400	1400	400	400	400	400	600	conservative	-	42
1606785089266201636	1	1400	1400	1400	1400	300	300	300	300	600	conservative	-	41
1606785089526482451 	0	1400	1400	1400	1400	300	300	300	300	600	conservative	-	41
1606785091282822142	1	1400	1400	1400	1400	400	400	400	400	600	conservative	-	41
1606785091481051285 	0	1400	1400	1400	1400	400	400	400	400	600	conservative	-	42
1606785093459316455	1	1400	1400	1400	1400	200	200	200	200	600	conservative	-	41
1606785093847264335 	0	1400	1400	1400	1400	200	200	200	200	600	conservative	-	41
1606785095844229219	1	1400	1400	1400	1400	200	200	200	200	600	conservative	-	41
1606785096214389376 	0	1400	1400	1400	1400	200	200	200	300	600	conservative	-	41
1606785098160631826	1	1400	1400	1400	1400	200	200	200	300	600	conservative	-	41
1606785098360190704 	0	1400	1400	1400	1400	400	400	400	400	600	conservative	-	41
1606785100182944751	1	1400	1400	1400	1400	400	400	400	400	600	conservative	-	41
1606785100381968252 	0	1400	1400	1400	1400	400	400	400	400	600	conservative	-	41
1606785102150574132	1	1400	1400	1400	1400	400	400	400	400	600	conservative	-	41
1606785102348534632 	0	1400	1400	1400	1400	400	400	400	400	600	conservative	-	41
1606785104101746391	1	1400	1400	1400	1400	400	400	400	400	600	conservative	-	41
1606785104301428426 	0	1400	1400	1400	1400	400	400	400	400	600	conservative	-	41
1606785106054932364	1	1400	1400	1400	1400	400	400	400	400	600	conservative	-	41
1606785106252088109 	0	1400	1400	1400	1400	400	400	400	400	600	conservative	-	41
1606785108003473649	1	1400	1400	1400	1400	400	400	400	400	600	conservative	-	40
1606785108201411972 	0	1400	1400	1400	1400	400	400	400	400	600	conservative	-	40
1606785110030071024	1	1400	1400	1400	1400	300	300	300	300	600	conservative	-	40
1606785110290514417 	0	1400	1400	1400	1400	300	300	300	300	600	conservative	-	40
1606785112047672428	1	1400	1400	1400	1400	400	400	400	400	600	conservative	-	40
1606785112245239662 	0	1400	1400	1400	1400	400	400	400	400	600	conservative	-	40
1606785113998483778	1	1400	1400	1400	1400	400	400	400	400	600	conservative	-	40
1606785114196861966 	0	1400	1400	1400	1400	400	400	400	400	600	conservative	-	40
1606785116177176259	1	1400	1400	1400	1400	200	200	200	200	600	conservative	-	40
1606785116566435020 	0	1400	1400	1400	1400	200	200	200	200	600	conservative	-	40
1606785118560741243	1	1400	1400	1400	1400	200	200	200	200	600	conservative	-	39
1606785118956202484 	0	1400	1400	1400	1400	200	200	200	200	600	conservative	-	40
1606785120922058691	1	1400	1400	1400	1400	200	200	200	200	600	conservative	-	40
1606785121130423054 	0	1400	1400	1400	1400	400	400	400	400	600	conservative	-	40
1606785122966365023	1	1400	1400	1400	1400	300	400	400	400	600	conservative	-	40
1606785123162875909 	0	1400	1400	1400	1400	400	400	400	400	600	conservative	-	40
1606785124937217530	1	1400	1400	1400	1400	400	400	400	400	600	conservative	-	40
1606785125135472201 	0	1400	1400	1400	1400	400	400	400	400	600	conservative	-	40
1606785126890187090	1	1400	1400	1400	1400	400	400	400	400	600	conservative	-	39
1606785127087839176 	0	1400	1400	1400	1400	400	400	400	400	600	conservative	-	40
1606785128839783335	1	1400	1400	1400	1400	400	400	400	400	600	conservative	-	39
1606785129037780501 	0	1400	1400	1400	1400	400	400	400	400	600	conservative	-	40
1606785130789145550	1	1400	1400	1400	1400	400	400	400	400	600	conservative	-	39
1606785130986605507 	0	1400	1400	1400	1400	400	400	400	400	600	conservative	-	39
1606785132737689780	1	1400	1400	1400	1400	400	400	400	400	600	conservative	-	39
1606785132936288230 	0	1400	1400	1400	1400	400	400	400	400	600	conservative	-	39
1606785134688359724	1	1400	1400	1400	1400	400	400	400	400	600	conservative	-	39
1606785134886988797 	0	1400	1400	1400	1400	400	400	400	400	600	conservative	-	39
1606785136714044544	1	1400	1400	1400	1400	300	300	300	300	600	conservative	-	39
1606785136974900674 	0	1400	1400	1400	1400	300	300	300	300	600	conservative	-	39
1606785138732904182	1	1400	1400	1400	1400	400	400	400	400	600	conservative	-	39
1606785138931108291 	0	1400	1400	1400	1400	400	400	400	400	600	conservative	-	39
1606785140683226369	1	1400	1400	1400	1400	400	400	400	400	600	conservative	-	39
1606785140880681602 	0	1400	1400	1400	1400	400	400	400	400	600	conservative	-	39
1606785142708081097	1	1400	1400	1400	1400	300	300	300	300	600	conservative	-	39
1606785142967077677 	0	1400	1400	1400	1400	300	300	300	300	600	conservative	-	39
1606785144949425306	1	1400	1400	1400	1400	200	200	200	200	600	conservative	-	39
1606785145343549592 	0	1400	1400	1400	1400	200	200	200	200	600	conservative	-	39
1606785147344867013	1	1400	1400	1400	1400	200	200	200	200	600	conservative	-	39
1606785147628346273 	0	1400	1400	1400	1400	300	300	400	400	600	conservative	-	39
1606785149515939775	1	1400	1400	1400	1400	300	300	300	300	600	conservative	-	39
1606785149714338033 	0	1400	1400	1400	1400	400	400	400	400	600	conservative	-	39
1606785151510007151	1	1400	1400	1400	1400	400	400	400	400	600	conservative	-	39
1606785151707973115 	0	1400	1400	1400	1400	400	400	400	400	600	conservative	-	39
1606785153469947791	1	1400	1400	1400	1400	400	400	400	400	600	conservative	-	39
1606785153667384795 	0	1400	1400	1400	1400	400	400	400	400	600	conservative	-	39
1606785155419551969	1	1400	1400	1400	1400	400	400	400	400	600	conservative	-	39
1606785155617025721 	0	1400	1400	1400	1400	400	400	400	400	600	conservative	-	39
1606785157325404272	1	1400	1400	1400	1400	500	500	500	500	600	conservative	-	38
1606785157485839489 	0	1400	1400	1400	1400	500	500	500	500	600	conservative	-	39
1606785159234197998	1	1400	1400	1400	1400	400	400	400	400	600	conservative	-	38
1606785159431838160 	0	1400	1400	1400	1400	400	400	400	400	600	conservative	-	39
1606785161182846720	1	1400	1400	1400	1400	400	400	400	400	600	conservative	-	38
1606785161380197588 	0	1400	1400	1400	1400	400	400	400	400	600	conservative	-	39
1606785163133098076	1	1400	1400	1400	1400	400	400	400	400	600	conservative	-	38
1606785163330244234 	0	1400	1400	1400	1400	400	400	400	400	600	conservative	-	38
1606785165081493035	1	1400	1400	1400	1400	400	400	400	400	600	conservative	-	38
1606785165278995105 	0	1400	1400	1400	1400	400	400	400	400	600	conservative	-	38
1606785167104583436	1	1400	1400	1400	1400	300	300	300	300	600	conservative	-	38
1606785167364994506 	0	1400	1400	1400	1400	300	300	300	300	600	conservative	-	38
1606785169349845224	1	1400	1400	1400	1400	200	200	200	200	600	conservative	-	38
1606785169739463575 	0	1400	1400	1400	1400	200	200	200	200	600	conservative	-	38
1606785171733886984	1	1400	1400	1400	1400	200	200	200	200	600	conservative	-	38
1606785172104579420 	0	1400	1400	1400	1400	200	200	200	200	600	conservative	-	38
1606785174047245682	1	1400	1400	1400	1400	200	200	200	300	600	conservative	-	38
1606785174245074364 	0	1400	1400	1400	1400	400	400	400	400	600	conservative	-	39
1606785176066909002	1	1400	1400	1400	1400	300	400	400	400	600	conservative	-	39
1606785176260470442 	0	1400	1400	1400	1400	400	400	400	400	600	conservative	-	39
1606785178075069741	1	1400	1400	1400	1400	400	400	400	400	600	conservative	-	38
1606785178268417637 	0	1400	1400	1400	1400	400	400	400	400	600	conservative	-	38
1606785180076639135	1	1400	1400	1400	1400	400	400	400	400	600	conservative	-	38
1606785180271039358 	0	1400	1400	1400	1400	400	400	400	400	600	conservative	-	39
1606785182017561915	1	1400	1400	1400	1400	400	400	400	400	600	conservative	-	39
1606785182209118060 	0	1400	1400	1400	1400	400	400	400	400	600	conservative	-	38
1606785183953715514	1	1400	1400	1400	1400	400	400	400	400	600	conservative	-	38
1606785184146362029 	0	1400	1400	1400	1400	400	400	400	400	600	conservative	-	38
1606785185891426541	1	1400	1400	1400	1400	400	400	400	400	600	conservative	-	38
1606785186083242390 	0	1400	1400	1400	1400	400	400	400	400	600	conservative	-	38
1606785187828597501	1	1400	1400	1400	1400	400	400	400	400	600	conservative	-	39
1606785188021242470 	0	1400	1400	1400	1400	400	400	400	400	600	conservative	-	38
1606785189767398097	1	1400	1400	1400	1400	400	400	400	400	600	conservative	-	38
1606785189959091400 	0	1400	1400	1400	1400	400	400	400	400	600	conservative	-	39
1606785191703999965	1	1400	1400	1400	1400	400	400	400	400	600	conservative	-	39
1606785191896696220 	0	1400	1400	1400	1400	400	400	400	400	600	conservative	-	38
1606785193701249219	1	1400	1400	1400	1400	300	300	300	300	600	conservative	-	38
1606785193954890301 	0	1400	1400	1400	1400	300	300	300	300	600	conservative	-	38
1606785195939000603	1	1400	1400	1400	1400	200	200	200	200	600	conservative	-	38
1606785196330761332 	0	1400	1400	1400	1400	200	200	200	200	600	conservative	-	38
1606785198413318698	1	1400	1400	1400	1400	500	500	600	600	600	conservative	-	41
1606785198727571557 	0	1400	1400	1400	1400	900	900	900	1000	600	conservative	-	43
1606785200605789220	1	1400	1400	1400	1400	1800	1800	1800	1800	600	conservative	-	59
1606785200945751586 	0	1400	1400	1400	1400	1800	1800	1800	1800	600	conservative	-	61
1606785202838660969	1	1400	1400	1400	1400	1800	1800	1800	1800	600	conservative	-	65
1606785203145775881 	0	1400	1400	1400	1400	1800	1800	1800	1800	600	conservative	-	66
1606785205020772622	1	1400	1400	1400	1400	1800	1800	1800	1800	600	conservative	-	68
1606785205333612054 	0	1400	1400	1400	1400	1800	1800	1800	1800	600	conservative	-	68
1606785207243243667	1	1400	1400	1400	1400	1800	1800	1800	1800	600	conservative	-	70
1606785207535760445 	0	1400	1400	1400	1400	1800	1800	1800	1800	600	conservative	-	70
1606785209380803133	1	1400	1400	1400	1400	1800	1800	1800	1800	600	conservative	-	71
1606785209675848525 	0	1400	1400	1400	1400	1800	1800	1800	1800	600	conservative	-	71
1606785211555768376	1	1400	1400	1400	1400	1800	1800	1800	1800	600	conservative	-	72
1606785211880774552 	0	1400	1400	1400	1400	1800	1800	1800	1800	600	conservative	-	72
1606785213745770419	1	1400	1400	1400	1400	1800	1800	1800	1800	600	conservative	-	73
1606785214040741928 	0	1400	1400	1400	1400	1800	1800	1800	1800	600	conservative	-	73
1606785215845747278	1	1400	1400	1400	1400	1800	1800	1800	1800	600	conservative	-	74
1606785216080755334 	0	1400	1400	1400	1400	1800	1800	1800	1800	600	conservative	-	74
1606785217882055838	1	1400	1400	1400	1400	1800	1800	1800	1800	600	conservative	-	74
1606785218120807755 	0	1400	1400	1400	1400	1800	1800	1800	1800	600	conservative	-	74
1606785219950772774	1	1400	1400	1400	1400	1800	1800	1800	1800	600	conservative	-	75
1606785220218705476 	0	1400	1400	1400	1400	1800	1800	1800	1800	600	conservative	-	75
1606785222025811705	1	1400	1400	1400	1400	1800	1800	1800	1800	600	conservative	-	75
1606785222285903009 	0	1400	1400	1400	1400	1800	1800	1800	1800	600	conservative	-	75
1606785224125777948	1	1400	1400	1400	1400	1800	1800	1800	1800	600	conservative	-	76
1606785224330764540 	0	1400	1400	1400	1400	1800	1800	1800	1800	600	conservative	-	76
1606785226152295260	1	1400	1400	1400	1400	1800	1800	1800	1800	600	conservative	-	76
1606785226435766445 	0	1400	1400	1400	1400	1800	1800	1800	1800	600	conservative	-	76
1606785228305933117	1	1400	1400	1400	1400	1800	1800	1800	1800	600	conservative	-	77
1606785228620782703 	0	1400	1400	1400	1400	1800	1800	1800	1800	600	conservative	-	77
1606785230525771992	1	1400	1400	1400	1400	1800	1800	1800	1800	600	conservative	-	77
1606785230827175949 	0	1400	1400	1400	1400	1800	1800	1800	1800	600	conservative	-	77
1606785232642387694	1	1400	1400	1400	1400	1800	1800	1800	1800	600	conservative	-	77
1606785232920739425 	0	1400	1400	1400	1400	1800	1800	1800	1800	600	conservative	-	78
1606785234818668558	1	1400	1400	1400	1400	1800	1800	1800	1800	600	conservative	-	78
1606785235115747728 	0	1400	1400	1400	1400	1800	1800	1800	1800	600	conservative	-	78
1606785237020792979	1	1400	1400	1400	1400	1800	1800	1800	1800	600	conservative	-	78
1606785237310729082 	0	1400	1400	1400	1400	1800	1800	1800	1800	600	conservative	-	78
1606785239180850415	1	1400	1400	1400	1400	1800	1800	1800	1800	600	conservative	-	79
1606785239455749894 	0	1400	1400	1400	1400	1800	1800	1800	1800	600	conservative	-	79
1606785241340747988	1	1400	1400	1400	1400	1800	1800	1800	1800	600	conservative	-	79
1606785241655759465 	0	1400	1400	1400	1400	1800	1800	1800	1800	600	conservative	-	79
1606785243535761298	1	1400	1400	1400	1400	1800	1800	1800	1800	600	conservative	-	79
1606785243825777390 	0	1400	1400	1400	1400	1800	1800	1800	1800	600	conservative	-	79
1606785245675857083	1	1400	1400	1400	1400	1800	1800	1800	1800	600	conservative	-	79
1606785246025764191 	0	1400	1400	1400	1400	1800	1800	1800	1800	600	conservative	-	80
1606785247907371092	1	1400	1400	1400	1400	1800	1800	1800	1800	600	conservative	-	80
1606785248255788908 	0	1400	1400	1400	1400	1800	1800	1800	1800	600	conservative	-	80
1606785250100782107	1	1400	1400	1400	1400	1800	1800	1800	1800	600	conservative	-	80
1606785250380786844 	0	1400	1400	1400	1400	1800	1800	1800	1800	600	conservative	-	80
1606785252225951810	1	1400	1400	1400	1400	1800	1800	1800	1800	600	conservative	-	80
1606785252535811406 	0	1400	1400	1400	1400	1800	1800	1800	1800	600	conservative	-	80
1606785254415921152	1	1400	1400	1400	1400	1800	1800	1800	1800	600	conservative	-	80
1606785254675832737 	0	1400	1400	1400	1400	1800	1800	1800	1800	600	conservative	-	80
1606785256553647341	1	1400	1400	1400	1400	1800	1800	1800	1800	600	conservative	-	81
1606785256850778928 	0	1400	1400	1400	1400	1800	1800	1800	1800	600	conservative	-	81
1606785258720785032	1	1400	1400	1400	1400	1800	1800	1800	1800	600	conservative	-	81
1606785259023721347 	0	1400	1400	1400	1400	1800	1800	1800	1800	600	conservative	-	81
1606785260898616076	1	1400	1400	1400	1400	1800	1800	1800	1800	600	conservative	-	81
1606785261137638093 	0	1400	1400	1400	1400	1800	1800	1800	1800	600	conservative	-	81
1606785263000716421	1	1400	1400	1400	1400	1800	1800	1800	1800	600	conservative	-	81
1606785263275758693 	0	1400	1400	1400	1400	1800	1800	1800	1800	600	conservative	-	81
1606785265145786015	1	1400	1400	1400	1400	1800	1800	1800	1800	600	conservative	-	82
1606785265445754493 	0	1400	1400	1400	1400	1800	1800	1800	1800	600	conservative	-	82
1606785267310760307	1	1400	1400	1400	1400	1800	1800	1800	1800	600	conservative	-	82
1606785267580803339 	0	1400	1400	1400	1400	1800	1800	1800	1800	600	conservative	-	82
1606785269450754946	1	1400	1400	1400	1400	1800	1800	1800	1800	600	conservative	-	82
1606785269735693424 	0	1400	1400	1400	1400	1800	1800	1800	1800	600	conservative	-	82
1606785271580748798	1	1400	1400	1400	1400	1800	1800	1800	1800	600	conservative	-	82
1606785271855776014 	0	1400	1400	1400	1400	1800	1800	1800	1800	600	conservative	-	82
1606785273725749406	1	1400	1400	1400	1400	1800	1800	1800	1800	600	conservative	-	82
1606785273980799853 	0	1400	1400	1400	1400	1800	1800	1800	1800	600	conservative	-	82
1606785275775825262	1	1400	1400	1400	1400	1800	1800	1800	1800	600	conservative	-	83
1606785276018679037 	0	1400	1400	1400	1400	1800	1800	1800	1800	600	conservative	-	83
1606785277838694716	1	1400	1400	1400	1400	1800	1800	1800	1800	600	conservative	-	83
1606785278100779132 	0	1400	1400	1400	1400	1800	1800	1800	1800	600	conservative	-	83
1606785279958727913	1	1400	1400	1400	1400	1800	1800	1800	1800	600	conservative	-	83
1606785280132494330 	0	1400	1400	1400	1400	1800	1800	1800	1800	600	conservative	-	82
1606785281751784265	1	1400	1400	1400	1400	900	900	900	900	600	conservative	-	62
1606785281849244021 	0	1400	1400	1400	1400	900	900	900	900	600	conservative	-	61
1606785283591431734	1	1400	1400	1400	1400	400	400	400	400	600	conservative	-	56
1606785283788689860 	0	1400	1400	1400	1400	400	400	400	400	600	conservative	-	56
1606785285538698485	1	1400	1400	1400	1400	400	400	400	400	600	conservative	-	53
1606785285735473235 	0	1400	1400	1400	1400	400	400	400	400	600	conservative	-	53
1606785287485099342	1	1400	1400	1400	1400	400	400	400	400	600	conservative	-	51
1606785287682348505 	0	1400	1400	1400	1400	400	400	400	400	600	conservative	-	51
1606785289436173244	1	1400	1400	1400	1400	400	400	400	400	600	conservative	-	50
1606785289632615116 	0	1400	1400	1400	1400	400	400	400	400	600	conservative	-	50
1606785291383740095	1	1400	1400	1400	1400	400	400	400	400	600	conservative	-	49
1606785291580996837 	0	1400	1400	1400	1400	400	400	400	400	600	conservative	-	49
1606785293406096084	1	1400	1400	1400	1400	300	300	300	300	600	conservative	-	48
1606785293666437524 	0	1400	1400	1400	1400	300	300	300	300	600	conservative	-	48
1606785295498223642	1	1400	1400	1400	1400	300	300	300	300	600	conservative	-	47
1606785295756948627 	0	1400	1400	1400	1400	300	300	300	300	600	conservative	-	47
1606785297741573320	1	1400	1400	1400	1400	200	200	200	200	600	conservative	-	47
1606785298130140227 	0	1400	1400	1400	1400	200	200	200	200	600	conservative	-	47
1606785300130332340	1	1400	1400	1400	1400	200	200	200	200	600	conservative	-	46
1606785300421913703 	0	1400	1400	1400	1400	300	300	400	400	600	conservative	-	46
1606785302313173919	1	1400	1400	1400	1400	300	300	300	300	600	conservative	-	46
1606785302511757311 	0	1400	1400	1400	1400	400	400	400	400	600	conservative	-	46
1606785304298120955	1	1400	1400	1400	1400	400	400	400	400	600	conservative	-	46
1606785304459389350 	0	1400	1400	1400	1400	500	500	500	500	600	conservative	-	46
1606785306232965728	1	1400	1400	1400	1400	400	400	400	400	600	conservative	-	45
1606785306430649285 	0	1400	1400	1400	1400	400	400	400	400	600	conservative	-	45
1606785308191881478	1	1400	1400	1400	1400	400	400	400	400	600	conservative	-	45
1606785308389245075 	0	1400	1400	1400	1400	400	400	400	400	600	conservative	-	45
1606785310155552398	1	1400	1400	1400	1400	400	400	400	400	600	conservative	-	45
1606785310353320701 	0	1400	1400	1400	1400	400	400	400	400	600	conservative	-	45
1606785312080866600	1	1400	1400	1400	1400	500	500	500	500	600	conservative	-	45
1606785312243007693 	0	1400	1400	1400	1400	500	500	500	500	600	conservative	-	45
1606785313991668041	1	1400	1400	1400	1400	400	400	400	400	600	conservative	-	45
1606785314189346047 	0	1400	1400	1400	1400	400	400	400	400	600	conservative	-	44
1606785315940682075	1	1400	1400	1400	1400	400	400	400	400	600	conservative	-	45
1606785316138086706 	0	1400	1400	1400	1400	400	400	400	400	600	conservative	-	44
1606785317889171674	1	1400	1400	1400	1400	400	400	400	400	600	conservative	-	44
1606785318086422928 	0	1400	1400	1400	1400	400	400	400	400	600	conservative	-	44
1606785319801275299	1	1400	1400	1400	1400	500	500	500	600	600	conservative	-	44
