timestamp	VIRTUAL_SCALING	CPU0_F	CPU1_F	CPU2_F	CPU3_F	CPU4_F	CPU5_F	GPU_FREQ	CPU_GOVERNOR	EMC_F	TEMP0	TEMP1	TEMP2	TEMP3	TEMP4	TEMP5	TEMP6	TEMP7
1592831040889585673	1	499	345	345	499	499	499	114750000	performance	408	28	28	26	28	26	24	100	27
1592831042574496115 	0	499	345	345	499	498	499	114750000	performance	408	28	28	26	28	26	24	100	27
1592831045854960947	1	499	345	345	499	499	499	114750000	performance	408	28	28	26	28	25	24	100	27
1592831047271262373 	0	499	345	345	498	499	499	114750000	performance	408	28	28	26	28	25	24	100	27
1592831050945322042	1	499	345	345	499	499	499	114750000	performance	408	28	28	26	28	25	24	100	27
1592831052038430611 	0	499	345	345	499	498	499	114750000	performance	408	28	28	26	28	25	24	100	27
1592831055723188728	1	499	345	345	499	499	499	114750000	performance	408	28	28	26	28	25	24	100	27
1592831056943949235 	0	499	345	345	499	499	498	114750000	performance	408	28	28	26	28	25	24	100	27
1592831060615172389	1	499	345	345	499	499	499	114750000	performance	408	28	28	26	28	25	24	100	27
1592831062103769952 	0	499	345	345	499	499	499	114750000	performance	408	28	28	26	28	25	24	100	27
1592831065858876416	1	499	345	345	499	499	499	114750000	performance	408	28	28	26	28	25	24	100	27
1592831067343501444 	0	498	345	345	498	499	498	114750000	performance	408	28	28	26	28	26	24	100	27
1592831071127320951	1	499	345	345	499	499	499	114750000	performance	408	28	28	26	28	25	24	100	27
1592831072828779987 	0	499	345	345	499	499	498	114750000	performance	408	28	28	26	28	25	24	100	27
1592831076435086544	1	499	345	345	499	499	499	114750000	performance	408	28	28	26	28	25	24	100	27
1592831078160546928 	0	499	345	345	497	499	498	114750000	performance	408	28	28	26	28	25	24	100	27
1592831081823567865	1	499	345	345	499	499	499	114750000	performance	408	28	28	26	28	25	24	100	27
1592831083534572304 	0	499	345	345	499	498	499	114750000	performance	408	28	28	26	28	25	24	100	27
1592831086915612462	1	499	345	345	499	499	499	114750000	performance	408	28	28	26	28	25	24	100	27
1592831088609892918 	0	499	345	345	499	499	499	114750000	performance	408	28	28	26	28	25	24	100	27
1592831091897946118	1	499	345	345	499	499	499	114750000	performance	408	28	28	26	28	25	24	100	27
1592831093629236520 	0	499	345	345	499	499	499	114750000	performance	408	28	28	26	28	26	24	100	27
1592831096798476633	1	499	345	345	499	499	499	114750000	performance	408	28	28	26	28	26	24	100	27
1592831098454754961 	0	498	345	345	498	499	498	114750000	performance	408	28	28	26	28	26	24	100	27
