TimeStamp,Total Power,CPU Power,GPU Power
1592951424361135,1.83,0.61,0.152
1592951424863223,2.097,0.61,0.152
1592951425365547,2.135,0.61,0.152
1592951425867649,1.982,0.686,0.152
1592951426369736,1.906,0.686,0.152
1592951426871776,1.868,0.686,0.152
1592951427373802,2.097,0.686,0.152
1592951427876179,1.982,0.686,0.152
1592951428378252,2.173,0.686,0.152
1592951428880318,1.906,0.686,0.152
1592951429382364,2.02,0.686,0.152
1592951429884400,1.944,0.61,0.152
1592951430386434,1.906,0.686,0.152
1592951430888072,1.906,0.686,0.152
1592951431389566,1.868,0.686,0.152
1592951431891054,1.868,0.686,0.152
1592951432392580,1.868,0.686,0.152
1592951432894065,1.83,0.686,0.152
1592951433395586,1.83,0.686,0.152
1592951433897067,1.83,0.686,0.152
1592951434398569,1.868,0.686,0.152
1592951434900070,1.868,0.686,0.152
1592951435401547,1.868,0.686,0.152
1592951435903014,1.83,0.686,0.152
1592951436404502,1.83,0.686,0.152
1592951436905966,1.792,0.61,0.152
1592951437407366,1.715,0.61,0.152
