TimeStamp,Total Power,CPU Power,GPU Power
1593899055191677,3.542,1.067,0.152
1593899055693242,3.314,0.838,0.152
1593899056194730,3.352,0.838,0.152
1593899056696345,3.163,0.686,0.152
1593899057197810,3.39,0.838,0.152
1593899057699287,3.504,0.99,0.152
1593899058200960,3.542,0.99,0.152
1593899058702450,3.581,0.99,0.152
1593899059204002,3.542,0.99,0.152
1593899059705527,3.542,0.99,0.152
1593899060210893,3.542,0.99,0.152
1593899060712402,3.542,0.99,0.152
1593899061213867,3.542,0.99,0.152
1593899061715380,3.542,0.99,0.152
1593899062216893,3.504,0.99,0.152
1593899062718377,3.581,1.067,0.152
1593899063219971,3.657,1.067,0.152
1593899063721434,3.657,1.143,0.152
1593899064222914,3.657,1.067,0.152
1593899064724395,3.581,1.067,0.152
1593899065225888,3.581,1.067,0.152
1593899065727664,3.695,1.143,0.152
1593899066232662,3.657,1.143,0.152
1593899066734516,3.657,1.143,0.152
1593899067236509,3.657,1.143,0.152
1593899067738476,3.695,1.143,0.152
1593899068240447,3.657,1.143,0.152
1593899068742430,3.657,1.067,0.152
1593899069244455,3.733,1.143,0.152
1593899069746406,3.657,1.143,0.152
1593899070248853,3.695,1.143,0.152
1593899070750790,3.695,1.143,0.152
1593899071254714,3.695,1.143,0.152
1593899071758472,3.657,1.143,0.152
1593899072260450,3.695,1.143,0.152
1593899072762354,3.695,1.143,0.152
1593899073264288,3.657,1.067,0.152
1593899073766280,3.657,1.143,0.152
1593899074268299,3.657,1.143,0.152
1593899074770211,3.657,1.143,0.152
1593899075274013,3.885,1.067,0.152
1593899075776033,3.923,1.067,0.152
1593899076280620,3.733,1.067,0.152
1593899076782541,3.657,1.143,0.152
1593899077284573,3.657,1.067,0.152
1593899077786554,3.657,1.143,0.152
1593899078288566,3.657,1.067,0.152
1593899078790471,3.657,1.143,0.152
1593899079292479,3.657,1.067,0.152
1593899079794467,3.619,1.067,0.152
1593899080296514,3.657,1.067,0.152
1593899080798518,3.657,1.143,0.152
1593899081300549,3.657,1.067,0.152
1593899081802073,3.657,1.067,0.152
1593899082303568,3.657,1.067,0.152
1593899082805039,3.695,1.143,0.152
1593899083306572,3.657,1.067,0.152
1593899083808048,3.619,1.067,0.152
1593899084312707,3.619,1.143,0.152
1593899084814196,3.657,1.143,0.152
1593899085315740,3.695,1.143,0.152
1593899085817580,3.657,1.067,0.152
1593899086319502,3.695,1.143,0.152
1593899086821428,3.657,1.143,0.152
1593899087323424,3.657,1.143,0.152
1593899087825280,3.695,1.067,0.152
1593899088327237,3.657,1.143,0.152
1593899088829195,3.695,1.143,0.152
1593899089331116,3.695,1.143,0.152
1593899089832996,3.695,1.143,0.152
1593899090334956,3.657,1.143,0.152
1593899090837013,3.657,1.067,0.152
1593899091338919,3.695,1.143,0.152
1593899091843494,3.657,1.143,0.152
1593899092345369,3.657,1.067,0.152
1593899092847509,3.695,1.143,0.152
1593899093349493,3.657,1.143,0.152
1593899093851487,3.657,1.143,0.152
1593899094353344,3.619,1.067,0.152
1593899094855203,3.695,1.143,0.152
1593899095357345,3.657,1.143,0.152
1593899095859224,3.657,1.067,0.152
1593899096361309,3.657,1.143,0.152
1593899096866528,3.657,1.143,0.152
1593899097368490,3.657,1.143,0.152
1593899097870492,3.657,1.067,0.152
1593899098372455,3.695,1.143,0.152
1593899098874365,3.695,1.143,0.152
1593899099376324,3.657,1.143,0.152
1593899099878268,3.733,1.143,0.152
1593899100380337,3.695,1.143,0.152
1593899100882296,3.657,1.143,0.152
1593899101384163,3.657,1.143,0.152
1593899101893176,3.695,1.143,0.152
1593899102394675,3.657,1.143,0.152
1593899102896243,3.657,1.067,0.152
1593899103397829,3.619,1.067,0.152
1593899103899360,3.695,1.143,0.152
1593899104400841,3.619,1.067,0.152
1593899104902323,3.619,1.067,0.152
1593899105403784,3.809,1.067,0.152
1593899105905320,3.657,0.99,0.152
1593899106406822,3.581,0.99,0.152
1593899106908351,3.542,0.99,0.152
1593899107412647,3.542,0.99,0.152
1593899107914127,3.542,0.99,0.152
1593899108415658,3.542,0.99,0.152
1593899108917120,3.542,0.99,0.152
1593899109418612,3.542,0.99,0.152
1593899109922239,3.542,0.99,0.152
1593899110423798,3.542,0.99,0.152
1593899110925276,3.542,0.99,0.152
1593899111428352,3.542,0.99,0.152
1593899111929855,3.542,0.99,0.152
1593899112431326,3.542,0.99,0.152
1593899112932793,3.542,0.99,0.152
1593899113434294,3.542,0.99,0.152
1593899113935821,3.504,0.99,0.152
1593899114437341,3.619,1.067,0.152
1593899114938941,3.657,1.143,0.152
1593899115440536,3.657,1.067,0.152
1593899115942040,3.657,1.067,0.152
1593899116443650,3.695,1.143,0.152
1593899116945134,3.657,1.143,0.152
1593899117446707,3.657,1.143,0.152
1593899117948306,3.657,1.067,0.152
1593899118449812,3.657,1.143,0.152
1593899118951280,3.657,1.143,0.152
1593899119452920,3.657,1.143,0.152
1593899119956652,3.695,1.143,0.152
1593899120458161,3.657,1.143,0.152
1593899120959682,3.695,1.143,0.152
1593899121461152,3.619,1.067,0.152
1593899121962848,3.542,0.99,0.152
1593899122464423,3.542,0.99,0.152
1593899122965884,3.542,0.99,0.152
1593899123467393,3.542,1.067,0.152
1593899123968863,3.542,1.067,0.152
1593899124470636,3.542,0.99,0.152
1593899124972782,3.542,0.99,0.152
1593899125474655,3.542,1.067,0.152
1593899125976597,3.542,1.067,0.152
1593899126478564,3.542,0.99,0.152
1593899126980670,3.542,0.99,0.152
1593899127482629,3.542,0.99,0.152
1593899127984585,3.504,0.99,0.152
1593899128486531,3.542,0.99,0.152
1593899128988520,3.542,1.067,0.152
1593899129490492,3.542,0.99,0.152
1593899129992444,3.542,0.99,0.152
1593899130494431,3.619,1.067,0.152
1593899130996431,3.657,1.143,0.152
1593899131498338,3.619,1.143,0.152
1593899132000272,3.581,0.99,0.152
1593899132502228,3.542,0.99,0.152
1593899133004233,3.504,0.99,0.152
1593899133506168,3.504,0.99,0.152
1593899134009367,3.542,0.99,0.152
1593899134511404,3.542,0.99,0.152
1593899135013364,3.542,0.99,0.152
1593899135515385,3.581,0.99,0.152
1593899136017386,3.657,0.99,0.152
1593899136519494,3.809,0.99,0.152
1593899137021390,3.619,0.99,0.152
1593899137523549,3.581,0.99,0.152
1593899138027790,3.695,1.067,0.152
1593899138529289,3.695,1.143,0.152
1593899139030842,3.657,1.143,0.152
1593899139533284,3.619,1.067,0.152
1593899140034915,3.695,1.143,0.152
1593899140536407,3.619,1.067,0.152
1593899141037908,3.619,1.067,0.152
1593899141540415,3.619,1.067,0.152
1593899142041942,3.657,1.067,0.152
1593899142543446,3.657,1.067,0.152
1593899143045374,3.657,1.067,0.152
1593899143547363,3.657,1.067,0.152
1593899144049291,3.619,1.067,0.152
1593899144551281,3.657,1.143,0.152
1593899145053437,3.619,1.143,0.152
1593899145555464,3.619,1.067,0.152
1593899146057439,3.581,1.067,0.152
1593899146559429,3.542,0.99,0.152
1593899147061279,3.619,1.067,0.152
1593899147563169,3.619,1.143,0.152
1593899148065103,3.619,1.067,0.152
1593899148567058,3.657,1.067,0.152
1593899149068876,3.619,1.067,0.152
1593899149570466,3.657,1.143,0.152
1593899150072356,3.695,1.143,0.152
1593899150573861,3.657,1.067,0.152
1593899151076792,3.657,1.143,0.152
1593899151578690,3.657,1.067,0.152
1593899152083026,3.581,1.067,0.152
1593899152585106,3.581,0.99,0.152
1593899153087064,3.581,1.067,0.152
1593899153591176,3.542,0.99,0.152
1593899154092879,3.619,1.067,0.152
1593899154594357,3.657,1.067,0.152
1593899155098336,3.619,1.067,0.152
1593899155599901,3.657,1.143,0.152
1593899156101590,3.657,1.143,0.152
1593899156603075,3.657,1.143,0.152
1593899157104639,3.657,1.067,0.152
1593899157607262,3.581,1.067,0.152
1593899158108751,3.542,1.067,0.152
1593899158610261,3.581,1.067,0.152
1593899159116380,3.581,0.99,0.152
1593899159618161,3.542,0.99,0.152
1593899160120181,3.542,0.99,0.152
1593899160622169,3.542,1.067,0.152
1593899161124181,3.657,1.067,0.152
1593899161626072,3.657,1.067,0.152
1593899162127932,3.619,1.067,0.152
1593899162629765,3.657,1.143,0.152
1593899163131671,3.657,1.143,0.152
1593899163633560,3.657,1.143,0.152
1593899164135535,3.619,1.067,0.152
1593899164637452,3.695,1.143,0.152
1593899165139504,3.619,1.067,0.152
1593899165641412,3.809,1.067,0.152
1593899166143426,3.695,1.067,0.152
1593899166652549,3.619,1.067,0.152
1593899167154483,3.657,1.143,0.152
1593899167656458,3.657,1.143,0.152
1593899168158367,3.619,1.067,0.152
1593899168660384,3.619,1.067,0.152
1593899169164905,3.619,1.067,0.152
1593899169666822,3.657,1.143,0.152
1593899170168836,3.619,1.067,0.152
1593899170671950,3.581,0.99,0.152
1593899171174280,3.619,1.067,0.152
1593899171675812,3.619,1.067,0.152
1593899172177257,3.619,1.067,0.152
1593899172679157,3.542,0.99,0.152
1593899173181126,3.542,0.99,0.152
1593899173683007,3.542,0.99,0.152
1593899174187726,3.542,0.99,0.152
1593899174689682,3.542,0.99,0.152
1593899175191668,3.504,0.99,0.152
1593899175693601,3.504,0.99,0.152
1593899176195617,3.504,0.99,0.152
1593899176697496,3.542,1.067,0.152
1593899177199493,3.542,0.99,0.152
1593899177701390,3.542,0.99,0.152
1593899178203435,3.619,1.067,0.152
1593899178705365,3.657,1.143,0.152
1593899179209823,3.657,1.143,0.152
1593899179711744,3.619,1.067,0.152
1593899180213640,3.581,1.067,0.152
1593899180715632,3.542,0.99,0.152
1593899181217574,3.581,1.067,0.152
1593899181719637,3.695,1.067,0.152
1593899182221518,3.657,1.067,0.152
1593899182723471,3.657,1.143,0.152
1593899183225374,3.657,1.143,0.152
1593899183727251,3.619,1.143,0.152
1593899184233603,3.619,1.067,0.152
1593899184735114,3.657,1.067,0.152
1593899185236627,3.619,1.067,0.152
1593899185738124,3.619,1.067,0.152
1593899186239633,3.619,1.067,0.152
1593899186741198,3.657,1.067,0.152
1593899187242960,3.657,1.143,0.152
1593899187744883,3.657,1.143,0.152
1593899188246792,3.619,1.067,0.152
1593899188749196,3.619,1.067,0.152
1593899189251147,3.657,1.067,0.152
1593899189753142,3.657,1.067,0.152
1593899190255058,3.657,1.143,0.152
1593899190757012,3.619,1.067,0.152
1593899191258928,3.619,1.067,0.152
1593899191760985,3.619,1.067,0.152
1593899192262910,3.619,1.067,0.152
1593899192764913,3.657,1.067,0.152
1593899193266835,3.619,1.067,0.152
1593899193768882,3.619,1.067,0.152
1593899194273486,3.619,1.067,0.152
1593899194775420,3.657,1.067,0.152
1593899195277345,3.657,1.067,0.152
1593899195779244,3.619,1.067,0.152
1593899196281240,3.847,1.067,0.152
1593899196783237,3.885,1.067,0.152
1593899197285662,3.695,1.067,0.152
1593899197787668,3.695,1.143,0.152
1593899198289637,3.695,1.143,0.152
1593899198791694,3.695,1.143,0.152
1593899199296737,3.733,1.143,0.152
1593899199798665,3.695,1.143,0.152
1593899200300596,3.657,1.143,0.152
1593899200802514,3.657,1.143,0.152
1593899201304497,3.657,1.143,0.152
1593899201806385,3.695,1.143,0.152
1593899202308339,3.733,1.143,0.152
1593899202810226,3.657,1.143,0.152
1593899203312325,3.657,1.143,0.152
1593899203814343,3.581,1.067,0.152
1593899204319421,3.542,1.067,0.152
1593899204821429,3.542,1.067,0.152
1593899205323408,3.504,0.99,0.152
1593899205825379,3.619,0.99,0.152
1593899206327412,3.847,0.99,0.152
1593899206829382,3.961,1.067,0.152
1593899207331485,3.961,0.99,0.152
1593899207833495,3.961,0.99,0.152
1593899208335509,3.923,0.99,0.152
1593899208837511,3.657,0.99,0.152
1593899209339522,3.581,0.99,0.152
1593899209841488,3.581,1.067,0.152
1593899210343472,3.542,0.99,0.152
1593899210845439,3.466,0.99,0.152
1593899211347394,3.504,0.99,0.152
1593899211849351,3.542,0.99,0.152
1593899212351350,3.542,1.067,0.152
1593899212853112,3.504,0.99,0.152
1593899213355084,3.542,0.99,0.152
1593899213857057,3.542,0.99,0.152
1593899214359092,3.542,0.99,0.152
1593899214861218,3.542,0.99,0.152
1593899215363160,3.542,0.99,0.152
1593899215865169,3.581,0.99,0.152
1593899216367038,3.619,1.067,0.152
1593899216869033,3.657,1.067,0.152
1593899217370951,3.619,1.067,0.152
1593899217872854,3.542,0.99,0.152
1593899218374814,3.619,1.067,0.152
1593899218876801,3.619,1.067,0.152
1593899219378773,3.619,1.067,0.152
1593899219884034,3.581,1.067,0.152
1593899220385998,3.542,0.99,0.152
1593899220900226,3.504,0.99,0.152
1593899221402108,3.504,0.99,0.152
1593899221904084,3.581,1.067,0.152
1593899222405989,3.657,1.067,0.152
1593899222908174,3.581,1.067,0.152
1593899223410110,3.542,1.067,0.152
1593899223912062,3.542,0.99,0.152
1593899224414031,3.542,0.99,0.152
1593899224918872,3.542,0.99,0.152
1593899225420864,3.542,0.99,0.152
1593899225924566,3.733,0.99,0.152
1593899226426512,3.847,1.067,0.152
1593899226928517,3.619,0.99,0.152
1593899227430363,3.581,0.99,0.152
1593899227932353,3.542,0.99,0.152
1593899228434327,3.542,0.99,0.152
1593899228936279,3.504,0.99,0.152
1593899229438210,3.581,0.99,0.152
1593899229942787,3.657,1.067,0.152
1593899230444780,3.657,1.143,0.152
1593899230946633,3.657,1.143,0.152
1593899231448556,3.619,1.067,0.152
1593899231950509,3.581,1.067,0.152
1593899232452550,3.581,1.067,0.152
1593899232954490,3.581,1.067,0.152
1593899233456559,3.619,1.067,0.152
1593899233968059,3.657,1.067,0.152
1593899234469553,3.657,1.143,0.152
1593899234971089,3.657,1.143,0.152
1593899235472671,3.695,1.143,0.152
1593899235980603,3.695,1.067,0.152
1593899236482112,3.657,1.067,0.152
1593899236983599,3.619,1.067,0.152
1593899237485126,3.657,1.143,0.152
1593899237986646,3.695,1.143,0.152
1593899238488168,3.657,1.143,0.152
1593899238989710,3.657,1.143,0.152
1593899239491212,3.657,1.143,0.152
1593899239992742,3.657,1.143,0.152
1593899240494255,3.657,1.067,0.152
1593899240995782,3.657,1.143,0.152
1593899241498707,3.619,1.067,0.152
1593899242000617,3.619,1.067,0.152
1593899242502550,3.619,1.067,0.152
1593899243004586,3.657,1.143,0.152
1593899243506433,3.657,1.143,0.152
1593899244008472,3.657,1.067,0.152
1593899244510409,3.657,1.067,0.152
1593899245012372,3.581,1.067,0.152
1593899245514222,3.657,1.067,0.152
1593899246016218,3.657,1.143,0.152
1593899246518149,3.657,1.067,0.152
1593899247020080,3.619,1.067,0.152
1593899247522058,3.657,1.067,0.152
1593899248024145,3.657,1.143,0.152
1593899248526049,3.657,1.067,0.152
1593899249027933,3.581,1.067,0.152
1593899249529860,3.542,1.067,0.152
1593899250032063,3.581,1.067,0.152
1593899250536569,3.581,0.99,0.152
1593899251038736,3.542,0.99,0.152
1593899251540765,3.504,0.99,0.152
1593899252042734,3.542,0.99,0.152
1593899252544766,3.542,1.067,0.152
1593899253046802,3.657,1.067,0.152
1593899253548795,3.657,1.143,0.152
1593899254050699,3.657,1.067,0.152
1593899254552616,3.581,1.067,0.152
1593899255054540,3.581,0.99,0.152
1593899255565690,3.542,0.99,0.152
1593899256067249,3.619,0.99,0.152
1593899256568740,3.771,0.99,0.152
1593899257071443,3.733,1.067,0.152
1593899257573018,3.619,1.067,0.152
1593899258074495,3.619,1.067,0.152
1593899258575989,3.619,1.067,0.152
1593899259082422,3.542,1.067,0.152
1593899259584440,3.542,0.99,0.152
1593899260086398,3.619,1.067,0.152
1593899260590776,3.619,1.067,0.152
1593899261092797,3.657,1.067,0.152
1593899261594716,3.619,1.067,0.152
1593899262096869,3.657,1.067,0.152
1593899262598807,3.619,1.067,0.152
1593899263100802,3.581,1.067,0.152
1593899263602749,3.581,1.067,0.152
1593899264104715,3.619,1.067,0.152
1593899264606636,3.619,1.067,0.152
1593899265108614,3.657,1.143,0.152
1593899265613417,3.657,1.143,0.152
1593899266115431,3.619,1.067,0.152
1593899266617381,3.619,1.067,0.152
1593899267119369,3.619,1.067,0.152
1593899267621261,3.581,1.067,0.152
1593899268123262,3.657,1.143,0.152
1593899268625208,3.657,1.143,0.152
1593899269127124,3.657,1.143,0.152
1593899269629133,3.657,1.143,0.152
1593899270131160,3.657,1.143,0.152
1593899270635768,3.619,1.067,0.152
1593899271137608,3.581,1.067,0.152
1593899271639532,3.542,0.99,0.152
1593899272148534,3.542,0.99,0.152
1593899272650506,3.504,0.99,0.152
1593899273154057,3.542,0.99,0.152
1593899273656016,3.542,0.99,0.152
1593899274157960,3.542,1.067,0.152
1593899274659970,3.542,0.99,0.152
1593899275161907,3.504,0.99,0.152
1593899275663914,3.542,0.99,0.152
1593899276165789,3.657,1.143,0.152
1593899276667755,3.619,1.067,0.152
1593899277169738,3.581,1.067,0.152
1593899277671792,3.581,1.067,0.152
1593899278173716,3.581,1.067,0.152
1593899278675662,3.619,1.067,0.152
1593899279177585,3.619,1.143,0.152
1593899279679507,3.619,1.067,0.152
1593899280181423,3.581,0.99,0.152
1593899280683445,3.581,1.067,0.152
1593899281185373,3.657,1.143,0.152
1593899281687288,3.657,1.143,0.152
1593899282189276,3.619,1.067,0.152
1593899282698819,3.619,1.067,0.152
1593899283200730,3.657,1.143,0.152
1593899283702646,3.581,1.067,0.152
1593899284204578,3.619,1.067,0.152
1593899284706523,3.581,1.067,0.152
1593899285208502,3.581,1.067,0.152
1593899285710461,3.657,1.067,0.152
1593899286212572,3.885,1.143,0.152
1593899286714552,3.961,1.067,0.152
1593899287216507,3.961,1.143,0.152
1593899287718473,3.923,1.143,0.152
1593899288220449,3.733,1.143,0.152
1593899288722374,3.619,1.067,0.152
1593899289224307,3.733,0.99,0.152
1593899289726851,3.771,0.99,0.152
1593899290228811,3.733,1.067,0.152
1593899290730720,3.657,1.067,0.152
1593899291236019,3.581,0.99,0.152
1593899291738008,3.581,1.067,0.152
1593899292240040,3.581,1.067,0.152
1593899292741966,3.657,1.067,0.152
1593899293244064,3.619,1.067,0.152
1593899293746007,3.619,1.067,0.152
1593899294248108,3.619,1.067,0.152
1593899294750091,3.657,1.143,0.152
1593899295252065,3.657,1.143,0.152
1593899295753964,3.657,1.143,0.152
1593899296258929,3.619,1.143,0.152
1593899296760865,3.657,1.143,0.152
1593899297262855,3.657,1.143,0.152
1593899297764676,3.619,1.067,0.152
1593899298266549,3.581,1.067,0.152
1593899298768468,3.581,1.067,0.152
1593899299270361,3.657,1.143,0.152
1593899299772254,3.695,1.143,0.152
1593899300274197,3.581,1.067,0.152
1593899300784228,3.542,1.067,0.152
1593899301289097,3.542,0.99,0.152
1593899301791020,3.504,0.99,0.152
1593899302293111,3.581,1.067,0.152
1593899302795024,3.657,1.143,0.152
1593899303296980,3.619,1.143,0.152
1593899303798950,3.657,1.143,0.152
1593899304302199,3.581,1.067,0.152
1593899304804209,3.542,0.99,0.152
1593899305306102,3.504,0.99,0.152
1593899305808060,3.581,1.067,0.152
1593899306312758,3.619,1.067,0.152
1593899306814865,3.619,1.067,0.152
1593899307316899,3.619,1.067,0.152
1593899307818824,3.619,1.143,0.152
1593899308320782,3.619,1.067,0.152
1593899308822715,3.581,1.067,0.152
1593899309324727,3.542,0.99,0.152
1593899309826675,3.542,1.067,0.152
1593899310328711,3.542,1.067,0.152
1593899310830648,3.504,0.99,0.152
1593899311335358,3.504,0.99,0.152
1593899311837309,3.504,0.99,0.152
1593899312339158,3.504,0.99,0.152
1593899312841122,3.542,1.067,0.152
1593899313343066,3.619,1.067,0.152
1593899313845024,3.619,1.143,0.152
1593899314346971,3.581,1.067,0.152
1593899314850528,3.619,1.143,0.152
1593899315352652,3.657,1.067,0.152
1593899315854556,3.657,1.143,0.152
1593899316359207,3.657,1.067,0.152
1593899316861351,3.619,1.143,0.152
1593899317363426,3.657,1.143,0.152
1593899317865391,3.695,1.143,0.152
1593899318367509,3.657,1.143,0.152
1593899318869499,3.619,1.067,0.152
1593899319371417,3.695,1.143,0.152
1593899319873335,3.695,1.143,0.152
1593899320375219,3.619,1.143,0.152
1593899320877402,3.657,1.143,0.152
1593899321382039,3.619,1.067,0.152
1593899321884077,3.581,1.067,0.152
1593899322386101,3.581,1.067,0.152
1593899322888199,3.542,1.067,0.152
1593899323390161,3.542,0.99,0.152
1593899323892171,3.542,0.99,0.152
1593899324394129,3.542,1.067,0.152
1593899324896081,3.542,1.067,0.152
1593899325397997,3.542,1.067,0.152
1593899325900044,3.619,1.067,0.152
1593899326404858,3.657,1.067,0.152
1593899326906772,3.657,1.143,0.152
1593899327409072,3.657,1.143,0.152
1593899327912804,3.657,1.143,0.152
1593899328414775,3.657,1.143,0.152
1593899328916744,3.657,1.143,0.152
1593899329418665,3.657,1.143,0.152
1593899329920586,3.657,1.143,0.152
1593899330422500,3.619,1.067,0.152
1593899330924486,3.619,1.067,0.152
1593899331429052,3.619,1.067,0.152
1593899331934815,3.657,1.067,0.152
1593899332436715,3.581,1.067,0.152
1593899332938753,3.581,1.067,0.152
1593899333440946,3.581,1.067,0.152
1593899333943023,3.581,1.067,0.152
1593899334445000,3.542,0.99,0.152
1593899334946946,3.504,0.99,0.152
1593899335449074,3.542,0.99,0.152
1593899335951613,3.542,1.067,0.152
1593899336453554,3.542,1.067,0.152
1593899336955480,3.542,0.99,0.152
1593899337457374,3.542,0.99,0.152
1593899337959467,3.542,0.99,0.152
1593899338461310,3.581,1.067,0.152
1593899338963166,3.619,1.067,0.152
1593899339465134,3.619,1.067,0.152
1593899339967061,3.619,1.067,0.152
1593899340469010,3.619,1.067,0.152
1593899340970804,3.657,1.143,0.152
1593899341475196,3.619,1.067,0.152
1593899341977197,3.504,0.99,0.152
1593899342479096,3.619,1.067,0.152
1593899342981042,3.619,1.143,0.152
1593899343482972,3.657,1.143,0.152
1593899343985150,3.657,1.067,0.152
1593899344487069,3.657,1.143,0.152
1593899344989080,3.657,1.143,0.152
1593899345491000,3.657,1.143,0.152
1593899345992992,3.695,1.143,0.152
1593899346497027,3.619,1.067,0.152
1593899346998608,3.695,1.143,0.152
1593899347500318,3.657,1.143,0.152
1593899348001821,3.657,1.143,0.152
1593899348503718,3.657,1.143,0.152
1593899349005562,3.657,1.143,0.152
1593899349507488,3.657,1.143,0.152
1593899350009404,3.657,1.067,0.152
1593899350511426,3.581,1.067,0.152
1593899351013446,3.542,1.067,0.152
1593899351517968,3.542,0.99,0.152
1593899352020046,3.542,0.99,0.152
1593899352521940,3.657,1.067,0.152
1593899353023983,3.657,1.143,0.152
1593899353525789,3.695,1.143,0.152
1593899354027720,3.657,1.143,0.152
1593899354529634,3.619,1.067,0.152
1593899355031656,3.619,1.067,0.152
1593899355533652,3.657,1.067,0.152
1593899356035711,3.657,1.143,0.152
1593899356537221,3.657,1.143,0.152
1593899357038775,3.657,1.143,0.152
1593899357540264,3.657,1.143,0.152
1593899358041767,3.657,1.143,0.152
1593899358543262,3.657,1.067,0.152
1593899359044791,3.581,1.067,0.152
1593899359546704,3.542,1.067,0.152
1593899360048764,3.581,1.067,0.152
1593899360550673,3.657,1.067,0.152
1593899361052623,3.657,1.067,0.152
1593899361554534,3.657,1.067,0.152
1593899362056510,3.657,1.143,0.152
1593899362565700,3.657,1.143,0.152
1593899363067490,3.657,1.067,0.152
1593899363568961,3.657,1.143,0.152
1593899364070422,3.657,1.143,0.152
1593899364573738,3.657,1.143,0.152
1593899365075701,3.695,1.143,0.152
1593899365577633,3.657,1.143,0.152
1593899366079471,3.619,1.143,0.152
1593899366581428,3.657,1.143,0.152
1593899367083419,3.695,1.143,0.152
1593899367585376,3.657,1.143,0.152
1593899368087473,3.657,1.143,0.152
1593899368589384,3.657,1.143,0.152
1593899369091294,3.657,1.143,0.152
1593899369592956,3.619,1.067,0.152
1593899370102977,3.619,1.067,0.152
1593899370604672,3.657,1.143,0.152
1593899371106166,3.657,1.143,0.152
1593899371607610,3.619,1.067,0.152
1593899372109065,3.542,0.99,0.152
1593899372612897,3.542,1.067,0.152
1593899373114739,3.542,1.067,0.152
1593899373616821,3.542,0.99,0.152
1593899374118765,3.504,0.99,0.152
1593899374620785,3.542,0.99,0.152
1593899375122787,3.542,0.99,0.152
1593899375624822,3.542,1.067,0.152
1593899376126731,3.619,1.067,0.152
1593899376628672,3.733,1.067,0.152
1593899377130494,3.733,1.143,0.152
1593899377632525,3.657,1.143,0.152
1593899378134446,3.619,1.067,0.152
1593899378636465,3.657,1.143,0.152
1593899379138415,3.581,1.067,0.152
1593899379640466,3.581,1.067,0.152
1593899380142401,3.581,0.99,0.152
1593899380644516,3.542,0.99,0.152
1593899381146008,3.542,0.99,0.152
1593899381651404,3.542,1.067,0.152
1593899382152863,3.542,0.99,0.152
1593899382654383,3.504,0.99,0.152
1593899383156064,3.466,0.99,0.152
1593899383657663,3.504,0.99,0.152
1593899384159192,3.504,0.99,0.152
1593899384660748,3.504,0.99,0.152
1593899385163424,3.581,1.067,0.152
1593899385668626,3.657,1.143,0.152
1593899386170519,3.657,1.143,0.152
1593899386672492,3.657,1.143,0.152
1593899387174381,3.581,1.067,0.152
1593899387676360,3.619,1.067,0.152
1593899388178271,3.619,1.067,0.152
1593899388680231,3.619,1.067,0.152
1593899389182132,3.581,1.067,0.152
1593899389684095,3.619,1.067,0.152
1593899390185944,3.619,1.067,0.152
1593899390687933,3.657,1.143,0.152
1593899391189903,3.619,1.067,0.152
1593899391691977,3.657,1.143,0.152
1593899392193909,3.619,1.067,0.152
1593899392695915,3.657,1.143,0.152
1593899393197937,3.657,1.143,0.152
1593899393700396,3.619,1.067,0.152
1593899394202235,3.619,1.067,0.152
1593899394704335,3.657,1.143,0.152
1593899395206299,3.657,1.143,0.152
1593899395708311,3.619,1.067,0.152
1593899396210251,3.581,0.99,0.152
1593899396712227,3.581,1.067,0.152
1593899397214190,3.581,0.99,0.152
1593899397716111,3.581,1.067,0.152
1593899398220624,3.542,0.99,0.152
1593899398722574,3.542,0.99,0.152
1593899399224676,3.542,0.99,0.152
1593899399726617,3.504,0.99,0.152
1593899400228580,3.542,0.99,0.152
1593899400730594,3.504,0.99,0.152
1593899401232583,3.542,0.99,0.152
1593899401734538,3.542,0.99,0.152
1593899402236566,3.542,1.067,0.152
1593899402740048,3.542,0.99,0.152
1593899403242036,3.504,0.99,0.152
1593899403743971,3.542,0.99,0.152
1593899404245783,3.542,0.99,0.152
1593899404749185,3.542,0.99,0.152
1593899405251142,3.542,0.99,0.152
1593899405753162,3.504,0.99,0.152
1593899406255129,3.504,0.99,0.152
1593899406757043,3.619,0.99,0.152
1593899407258976,3.542,0.99,0.152
1593899407761032,3.542,0.99,0.152
1593899408262923,3.504,0.99,0.152
1593899408764926,3.542,0.99,0.152
1593899409266884,3.542,0.99,0.152
1593899409768870,3.504,0.99,0.152
1593899410271000,3.466,0.914,0.152
1593899410773032,3.504,0.99,0.152
1593899411274977,3.542,0.99,0.152
1593899411776993,3.504,0.99,0.152
1593899412278951,3.504,0.99,0.152
1593899412781012,3.542,0.99,0.152
1593899413283009,3.542,0.99,0.152
1593899413785044,3.542,0.99,0.152
1593899414286997,3.542,0.99,0.152
1593899414789012,3.542,0.99,0.152
1593899415290940,3.581,1.067,0.152
1593899415792779,3.657,1.143,0.152
1593899416294700,3.657,1.143,0.152
1593899416796630,3.657,1.067,0.152
1593899417298653,3.619,1.067,0.152
1593899417800659,3.657,1.143,0.152
1593899418302612,3.657,1.143,0.152
1593899418807502,3.619,1.067,0.152
1593899419309414,3.581,1.067,0.152
1593899419811426,3.619,1.067,0.152
1593899420313369,3.657,1.143,0.152
1593899420815269,3.619,1.067,0.152
1593899421317273,3.619,1.067,0.152
1593899421819144,3.542,0.99,0.152
1593899422321567,3.542,1.067,0.152
1593899422823542,3.542,1.067,0.152
1593899423327277,3.581,1.067,0.152
1593899423832369,3.581,1.067,0.152
1593899424334302,3.581,1.067,0.152
1593899424836637,3.581,1.067,0.152
1593899425341953,3.619,1.067,0.152
1593899425843929,3.619,1.067,0.152
1593899426345872,3.619,1.067,0.152
1593899426847945,3.619,1.067,0.152
1593899427349828,3.657,1.143,0.152
1593899427851750,3.657,1.143,0.152
1593899428353695,3.619,1.067,0.152
1593899428858264,3.619,1.067,0.152
1593899429360149,3.657,1.143,0.152
1593899429862067,3.657,1.143,0.152
1593899430364000,3.657,1.067,0.152
1593899430866014,3.657,1.143,0.152
1593899431367994,3.657,1.143,0.152
1593899431869888,3.657,1.067,0.152
1593899432371907,3.619,1.067,0.152
1593899432873986,3.657,1.143,0.152
1593899433376258,3.657,1.143,0.152
1593899433882916,3.695,1.143,0.152
1593899434384399,3.695,1.143,0.152
1593899434885874,3.657,1.067,0.152
1593899435387400,3.619,1.067,0.152
1593899435891014,3.657,1.143,0.152
1593899436392509,3.657,1.143,0.152
1593899436894011,3.771,1.067,0.152
1593899437395520,3.885,1.067,0.152
1593899437897053,3.809,1.143,0.152
1593899438400349,3.695,1.143,0.152
1593899438905473,3.733,1.143,0.152
1593899439406967,3.657,1.143,0.152
1593899439908497,3.657,1.143,0.152
1593899440409997,3.657,1.067,0.152
1593899440911452,3.581,1.067,0.152
1593899441412960,3.581,1.067,0.152
1593899441914426,3.619,1.067,0.152
1593899442415989,3.657,1.067,0.152
1593899442917514,3.657,1.067,0.152
1593899443419294,3.657,1.143,0.152
1593899443927702,3.619,1.067,0.152
1593899444429183,3.619,1.067,0.152
1593899444930664,3.619,1.067,0.152
1593899445432282,3.657,1.143,0.152
1593899445934195,3.619,1.067,0.152
1593899446437098,3.542,0.99,0.152
1593899446940606,3.542,0.99,0.152
1593899447442551,3.542,0.99,0.152
1593899447944569,3.542,0.99,0.152
1593899448446530,3.542,1.067,0.152
1593899448948588,3.542,0.99,0.152
1593899449450508,3.619,1.067,0.152
1593899449952617,3.619,1.067,0.152
1593899450454564,3.657,1.143,0.152
1593899450956566,3.657,1.067,0.152
1593899451458483,3.581,1.067,0.152
1593899451960483,3.542,1.067,0.152
1593899452462493,3.542,1.067,0.152
1593899452964518,3.542,1.067,0.152
1593899453466473,3.581,0.99,0.152
1593899453968528,3.504,0.99,0.152
1593899454470480,3.542,1.067,0.152
1593899454972585,3.542,1.067,0.152
1593899455474515,3.581,1.067,0.152
1593899455976534,3.619,1.067,0.152
1593899456478506,3.657,1.143,0.152
1593899456980485,3.657,1.143,0.152
1593899457482386,3.619,1.067,0.152
1593899457984440,3.619,1.067,0.152
1593899458486424,3.695,1.143,0.152
1593899458988356,3.619,1.143,0.152
1593899459490111,3.619,1.143,0.152
1593899459991699,3.619,1.067,0.152
1593899460493175,3.657,1.067,0.152
1593899460994643,3.619,1.067,0.152
1593899461496175,3.619,1.067,0.152
1593899461998161,3.619,1.067,0.152
1593899462500296,3.581,1.067,0.152
1593899463002265,3.619,1.067,0.152
1593899463504237,3.619,1.067,0.152
1593899464006120,3.619,1.143,0.152
1593899464508067,3.619,1.067,0.152
1593899465010049,3.542,1.067,0.152
1593899465512001,3.504,0.99,0.152
1593899466013990,3.542,0.99,0.152
1593899466515974,3.504,0.99,0.152
1593899467017881,3.733,1.067,0.152
1593899467519967,3.923,1.067,0.152
1593899468021922,3.809,1.143,0.152
1593899468523959,3.657,1.067,0.152
1593899469025947,3.619,1.067,0.152
1593899469527986,3.657,1.067,0.152
1593899470029927,3.619,1.067,0.152
1593899470531972,3.619,1.067,0.152
1593899471033889,3.619,1.067,0.152
1593899471535980,3.657,1.067,0.152
1593899472037949,3.657,1.067,0.152
1593899472539905,3.619,1.067,0.152
1593899473041803,3.619,1.067,0.152
1593899473543763,3.581,0.99,0.152
1593899474045698,3.542,1.067,0.152
1593899474547732,3.504,1.067,0.152
1593899475052802,3.809,1.067,0.152
1593899475554738,3.885,1.067,0.152
1593899476056670,3.771,1.067,0.152
1593899476559852,3.695,1.143,0.152
1593899477062331,3.657,1.067,0.152
1593899477564256,3.619,1.067,0.152
1593899478065989,3.619,1.067,0.152
1593899478567959,3.657,1.067,0.152
1593899479069855,3.657,1.143,0.152
1593899479571770,3.657,1.067,0.152
1593899480076257,3.733,1.143,0.152
1593899480578208,3.619,1.067,0.152
1593899481080212,3.657,1.143,0.152
1593899481582108,3.657,1.143,0.152
1593899482084022,3.619,1.067,0.152
1593899482585893,3.619,1.067,0.152
1593899483087954,3.619,1.067,0.152
1593899483589864,3.619,1.067,0.152
1593899484091777,3.619,1.067,0.152
1593899484593693,3.619,1.067,0.152
1593899485098286,3.619,1.067,0.152
1593899485600215,3.657,1.067,0.152
1593899486102120,3.657,1.067,0.152
1593899486604045,3.657,1.143,0.152
1593899487105858,3.619,1.067,0.152
1593899487607670,3.657,1.143,0.152
1593899488109585,3.695,1.143,0.152
1593899488611501,3.657,1.143,0.152
1593899489113372,3.619,1.067,0.152
1593899489615232,3.657,1.143,0.152
1593899490116967,3.619,1.067,0.152
1593899490618430,3.581,1.067,0.152
1593899491120093,3.542,0.99,0.152
1593899491621605,3.619,1.067,0.152
1593899492123071,3.619,1.067,0.152
1593899492624567,3.542,0.99,0.152
1593899493126027,3.542,0.99,0.152
1593899493627467,3.542,0.99,0.152
1593899494129356,3.581,1.067,0.152
1593899494631485,3.504,0.99,0.152
1593899495133455,3.504,0.99,0.152
1593899495637916,3.542,1.067,0.152
1593899496139874,3.619,1.067,0.152
1593899496641819,3.619,1.067,0.152
1593899497143782,3.657,0.99,0.152
1593899497645655,3.619,1.067,0.152
1593899498147632,3.657,1.143,0.152
1593899498649615,3.619,1.067,0.152
1593899499151703,3.581,1.067,0.152
1593899499653692,3.619,1.067,0.152
1593899500155627,3.657,1.143,0.152
1593899500660060,3.619,1.067,0.152
1593899501162057,3.581,1.067,0.152
1593899501664036,3.619,1.067,0.152
1593899502165959,3.657,1.067,0.152
1593899502667932,3.619,1.067,0.152
1593899503169897,3.619,1.067,0.152
1593899503671894,3.581,1.067,0.152
1593899504173833,3.542,0.99,0.152
1593899504684244,3.542,0.99,0.152
1593899505186152,3.504,0.99,0.152
1593899505690814,3.619,1.067,0.152
1593899506192867,3.619,1.067,0.152
1593899506694879,3.619,1.067,0.152
1593899507196839,3.847,1.143,0.152
1593899507698754,3.847,1.143,0.152
1593899508200735,3.695,1.067,0.152
1593899508702821,3.695,1.143,0.152
1593899509204765,3.657,1.143,0.152
1593899509706696,3.619,1.143,0.152
1593899510209194,3.619,1.067,0.152
1593899510711186,3.657,1.067,0.152
1593899511213068,3.581,1.067,0.152
1593899511715120,3.542,0.99,0.152
1593899512217227,3.542,0.99,0.152
1593899512719133,3.542,0.99,0.152
1593899513221101,3.504,0.99,0.152
1593899513722944,3.542,0.99,0.152
1593899514224932,3.542,1.067,0.152
1593899514726875,3.542,0.99,0.152
1593899515228826,3.542,0.99,0.152
1593899515733546,3.542,1.067,0.152
1593899516235505,3.542,0.99,0.152
1593899516737433,3.542,0.99,0.152
1593899517239442,3.504,0.99,0.152
1593899517741333,3.504,0.99,0.152
1593899518243419,3.581,1.067,0.152
1593899518745397,3.619,1.067,0.152
1593899519247297,3.619,1.067,0.152
1593899519749326,3.581,0.99,0.152
1593899520251265,3.619,1.067,0.152
1593899520755941,3.581,1.067,0.152
1593899521257941,3.542,1.067,0.152
1593899521759981,3.504,0.99,0.152
1593899522261922,3.542,0.99,0.152
1593899522763926,3.542,0.99,0.152
1593899523265869,3.542,0.99,0.152
1593899523767920,3.542,0.99,0.152
1593899524269903,3.581,1.067,0.152
1593899524772046,3.619,1.067,0.152
1593899525273557,3.619,1.067,0.152
1593899525775091,3.619,1.067,0.152
1593899526276754,3.619,1.067,0.152
1593899526779470,3.619,1.067,0.152
1593899527280938,3.581,1.067,0.152
1593899527782439,3.771,1.067,0.152
1593899528283983,3.619,0.99,0.152
1593899528785429,3.581,1.067,0.152
1593899529286863,3.581,0.99,0.152
1593899529788331,3.581,1.067,0.152
1593899530296958,3.581,1.067,0.152
1593899530798446,3.581,1.067,0.152
1593899531300036,3.542,0.99,0.152
1593899531801720,3.504,0.99,0.152
1593899532304501,3.542,0.99,0.152
1593899532805962,3.542,0.99,0.152
1593899533307454,3.542,0.99,0.152
