TimeStamp,Total Power,CPU Power,GPU Power
1593983588949813,2.667,1.448,0.152
1593983589451395,2.172,0.991,0.152
1593983589952966,1.905,0.762,0.152
1593983590454773,1.791,0.686,0.152
1593983590956451,1.981,0.762,0.152
1593983591458086,2.553,1.296,0.152
1593983591959833,2.744,1.448,0.152
1593983592461621,2.782,1.524,0.152
1593983592963220,2.782,1.524,0.152
1593983593464877,2.782,1.524,0.152
1593983593966725,2.782,1.524,0.152
1593983594468464,2.782,1.524,0.152
1593983594970125,2.782,1.524,0.152
1593983595471805,2.782,1.524,0.152
1593983595973392,2.82,1.524,0.152
1593983596475153,2.82,1.524,0.152
1593983596976906,2.896,1.524,0.152
1593983597483685,3.163,1.524,0.152
1593983597985328,3.238,1.524,0.152
1593983598486999,3.238,1.6,0.152
1593983598988720,3.01,1.524,0.152
1593983599490401,2.858,1.524,0.152
1593983599992220,2.82,1.524,0.152
1593983600493809,2.82,1.524,0.152
1593983600995473,2.782,1.524,0.152
1593983601497173,2.782,1.524,0.152
1593983601998920,2.782,1.524,0.152
1593983602500527,2.82,1.524,0.152
1593983603002206,2.82,1.524,0.152
1593983603503899,2.782,1.524,0.152
1593983604005558,2.858,1.6,0.152
1593983604507198,2.82,1.524,0.152
1593983605009734,2.744,1.448,0.152
1593983605511420,2.705,1.448,0.152
1593983606013024,2.667,1.448,0.152
1593983606514608,2.629,1.448,0.152
1593983607016363,2.705,1.448,0.152
1593983607517991,2.667,1.448,0.152
1593983608019691,2.667,1.448,0.152
1593983608521265,2.629,1.448,0.152
1593983609028368,2.667,1.448,0.152
1593983609530136,2.744,1.448,0.152
1593983610031977,2.667,1.448,0.152
1593983610533539,2.629,1.448,0.152
1593983611035151,2.744,1.524,0.152
1593983611536768,2.782,1.524,0.152
1593983612038427,2.82,1.524,0.152
1593983612540050,2.782,1.524,0.152
1593983613041756,2.782,1.524,0.152
1593983613543401,2.782,1.524,0.152
1593983614045057,2.82,1.524,0.152
1593983614546730,2.782,1.524,0.152
1593983615048343,2.82,1.524,0.152
1593983615549995,2.744,1.448,0.152
1593983616051630,2.82,1.524,0.152
1593983616553263,2.82,1.524,0.152
1593983617054806,2.82,1.6,0.152
1593983617556509,2.858,1.524,0.152
1593983618058105,2.858,1.6,0.152
1593983618559823,2.82,1.524,0.152
1593983619061559,2.82,1.6,0.152
1593983619563099,2.782,1.524,0.152
1593983620064748,2.82,1.524,0.152
1593983620566428,2.82,1.6,0.152
1593983621068044,2.82,1.6,0.152
1593983621569744,2.782,1.524,0.152
1593983622071597,2.782,1.524,0.152
1593983622573325,2.82,1.524,0.152
1593983623074889,2.858,1.6,0.152
1593983623576735,2.782,1.524,0.152
1593983624078399,2.782,1.524,0.152
1593983624580134,2.782,1.524,0.152
1593983625081787,2.82,1.524,0.152
1593983625583562,2.782,1.524,0.152
1593983626085145,2.782,1.524,0.152
1593983626586972,2.782,1.524,0.152
1593983627088728,2.82,1.524,0.152
1593983627590553,2.782,1.524,0.152
1593983628092421,2.744,1.448,0.152
1593983628594240,2.782,1.524,0.152
1593983629095895,2.782,1.524,0.152
1593983629597536,2.82,1.524,0.152
1593983630104894,2.782,1.524,0.152
1593983630606613,2.82,1.524,0.152
1593983631108285,2.82,1.6,0.152
1593983631609855,2.782,1.524,0.152
1593983632111580,2.858,1.6,0.152
1593983632613234,2.82,1.6,0.152
1593983633114819,2.82,1.524,0.152
1593983633616483,2.782,1.524,0.152
1593983634118120,2.782,1.524,0.152
1593983634619805,2.782,1.524,0.152
1593983635121433,2.82,1.524,0.152
1593983635623096,2.782,1.524,0.152
1593983636124773,2.782,1.524,0.152
1593983636626437,2.782,1.524,0.152
1593983637128109,2.82,1.524,0.152
1593983637629773,2.82,1.524,0.152
1593983638131428,2.782,1.524,0.152
1593983638633062,2.82,1.524,0.152
1593983639134724,2.82,1.6,0.152
1593983639636428,2.82,1.524,0.152
1593983640138087,2.782,1.448,0.152
1593983640639774,2.82,1.6,0.152
1593983641141371,2.82,1.524,0.152
1593983641642916,2.82,1.524,0.152
1593983642144573,2.782,1.524,0.152
1593983642646241,2.82,1.524,0.152
1593983643147881,2.82,1.524,0.152
1593983643649490,2.82,1.524,0.152
1593983644151097,2.782,1.524,0.152
1593983644652813,2.782,1.524,0.152
1593983645154376,2.82,1.524,0.152
1593983645656064,2.782,1.524,0.152
1593983646157688,2.82,1.524,0.152
1593983646659453,2.782,1.524,0.152
1593983647161102,2.782,1.524,0.152
1593983647662933,2.82,1.524,0.152
1593983648164856,2.82,1.524,0.152
1593983648666540,2.782,1.524,0.152
1593983649168072,2.782,1.524,0.152
1593983649669713,2.82,1.524,0.152
1593983650171289,2.782,1.448,0.152
1593983650673254,2.82,1.524,0.152
1593983651174946,2.82,1.524,0.152
1593983651676550,2.82,1.524,0.152
1593983652178449,2.782,1.524,0.152
1593983652680268,2.782,1.524,0.152
1593983653181897,2.82,1.524,0.152
1593983653683491,2.82,1.524,0.152
1593983654185152,2.744,1.448,0.152
1593983654686792,2.782,1.524,0.152
1593983655188452,2.782,1.524,0.152
1593983655690065,2.858,1.6,0.152
1593983656191665,2.82,1.524,0.152
1593983656693447,2.82,1.524,0.152
1593983657195166,2.82,1.524,0.152
1593983657696810,2.82,1.6,0.152
1593983658198463,2.82,1.524,0.152
1593983658700093,2.82,1.524,0.152
1593983659201717,2.782,1.524,0.152
1593983659703284,2.82,1.524,0.152
1593983660205022,3.01,1.524,0.152
1593983660706653,3.2,1.524,0.152
1593983661208327,3.238,1.524,0.152
1593983661709995,3.123,1.524,0.152
1593983662211617,2.858,1.524,0.152
1593983662713490,2.82,1.524,0.152
1593983663216657,2.782,1.524,0.152
1593983663718318,2.82,1.524,0.152
1593983664220176,2.782,1.524,0.152
1593983664721816,2.782,1.524,0.152
1593983665223513,2.782,1.524,0.152
1593983665725210,2.782,1.524,0.152
1593983666226793,2.782,1.524,0.152
1593983666728494,2.82,1.524,0.152
1593983667230304,2.82,1.524,0.152
1593983667732025,2.782,1.524,0.152
1593983668233945,2.782,1.524,0.152
1593983668735725,2.744,1.448,0.152
1593983669237275,2.782,1.524,0.152
1593983669738927,2.782,1.524,0.152
1593983670240621,2.782,1.524,0.152
1593983670744766,2.782,1.524,0.152
1593983671246420,2.82,1.524,0.152
1593983671748246,2.82,1.524,0.152
1593983672249968,2.782,1.524,0.152
1593983672751736,2.82,1.524,0.152
1593983673253382,2.82,1.524,0.152
1593983673755061,2.782,1.524,0.152
1593983674256995,2.782,1.524,0.152
1593983674758623,2.782,1.448,0.152
1593983675260339,2.782,1.524,0.152
1593983675762005,2.782,1.524,0.152
1593983676263666,2.782,1.524,0.152
1593983676765455,2.744,1.448,0.152
1593983677267282,2.782,1.524,0.152
1593983677768947,2.82,1.524,0.152
1593983678270592,2.82,1.524,0.152
1593983678772393,2.782,1.524,0.152
1593983679274230,2.782,1.524,0.152
1593983679775858,2.82,1.524,0.152
1593983680277518,2.82,1.6,0.152
1593983680779184,2.82,1.524,0.152
1593983681280966,2.82,1.524,0.152
1593983681782659,2.82,1.524,0.152
1593983682284326,2.782,1.524,0.152
1593983682785985,2.782,1.524,0.152
1593983683287678,2.82,1.524,0.152
1593983683789279,2.82,1.6,0.152
1593983684290863,2.782,1.524,0.152
1593983684792542,2.782,1.524,0.152
1593983685294174,2.82,1.524,0.152
1593983685795899,2.82,1.524,0.152
1593983686297548,2.782,1.524,0.152
1593983686799127,2.82,1.524,0.152
1593983687300798,2.782,1.524,0.152
1593983687802443,2.82,1.524,0.152
1593983688304177,2.82,1.524,0.152
1593983688805785,2.782,1.524,0.152
1593983689307442,2.782,1.524,0.152
1593983689809098,2.782,1.524,0.152
1593983690310747,2.82,1.524,0.152
1593983690815052,2.782,1.524,0.152
1593983691316874,2.782,1.524,0.152
1593983691818573,2.782,1.524,0.152
1593983692320335,2.82,1.524,0.152
1593983692821885,2.782,1.524,0.152
1593983693323613,2.782,1.524,0.152
1593983693825433,2.782,1.524,0.152
1593983694327207,2.782,1.524,0.152
1593983694828902,2.82,1.524,0.152
1593983695330600,2.82,1.524,0.152
1593983695832317,2.82,1.524,0.152
1593983696333963,2.82,1.524,0.152
1593983696835607,2.82,1.524,0.152
1593983697343658,2.744,1.448,0.152
1593983697845438,2.782,1.524,0.152
1593983698347102,2.82,1.524,0.152
1593983698848771,2.82,1.6,0.152
1593983699350470,2.82,1.524,0.152
1593983699852098,2.82,1.524,0.152
1593983700353735,2.858,1.6,0.152
1593983700855445,2.82,1.524,0.152
1593983701359615,2.82,1.524,0.152
1593983701861282,2.82,1.524,0.152
1593983702363019,2.82,1.6,0.152
1593983702864647,2.82,1.524,0.152
1593983703366436,2.82,1.524,0.152
1593983703868158,2.82,1.524,0.152
1593983704369915,2.82,1.524,0.152
1593983704872551,2.782,1.524,0.152
1593983705374330,2.782,1.524,0.152
1593983705875927,2.782,1.524,0.152
1593983706379922,2.782,1.524,0.152
1593983706881814,2.82,1.524,0.152
1593983707383938,2.82,1.524,0.152
1593983707885631,2.782,1.524,0.152
1593983708387292,2.782,1.524,0.152
1593983708888994,2.782,1.524,0.152
1593983709390632,2.782,1.524,0.152
1593983709892307,2.782,1.524,0.152
1593983710393931,2.82,1.524,0.152
1593983710895740,2.82,1.524,0.152
1593983711397368,2.782,1.448,0.152
1593983711899043,2.782,1.524,0.152
1593983712400740,2.82,1.524,0.152
1593983712902311,2.782,1.524,0.152
1593983713403890,2.782,1.524,0.152
1593983713905581,2.782,1.524,0.152
1593983714407407,2.782,1.524,0.152
1593983714909004,2.782,1.524,0.152
1593983715411213,2.82,1.524,0.152
1593983715912867,2.782,1.524,0.152
1593983716414516,2.782,1.524,0.152
1593983716916141,2.782,1.524,0.152
1593983717417915,2.858,1.524,0.152
1593983717919625,2.82,1.524,0.152
1593983718421283,2.82,1.524,0.152
1593983718922919,2.82,1.6,0.152
1593983719424590,2.82,1.524,0.152
1593983719926236,2.858,1.524,0.152
1593983720427817,2.82,1.524,0.152
1593983720929479,2.82,1.524,0.152
1593983721431434,2.82,1.524,0.152
1593983721933033,2.82,1.524,0.152
1593983722434788,2.782,1.524,0.152
1593983722936544,2.82,1.524,0.152
1593983723438223,3.125,1.6,0.152
1593983723940223,3.161,1.524,0.152
1593983724441898,3.201,1.524,0.152
1593983724943717,3.048,1.524,0.152
1593983725445339,2.858,1.524,0.152
1593983725946991,2.82,1.524,0.152
1593983726448714,2.82,1.524,0.152
1593983726952972,2.744,1.524,0.152
1593983727454653,2.82,1.524,0.152
1593983727956236,2.782,1.524,0.152
1593983728457874,2.744,1.524,0.152
1593983728959643,2.782,1.524,0.152
1593983729461286,2.782,1.524,0.152
1593983729962899,2.782,1.448,0.152
1593983730464559,2.782,1.524,0.152
1593983730966295,2.82,1.524,0.152
1593983731467964,2.82,1.524,0.152
1593983731971997,2.782,1.524,0.152
1593983732473656,2.782,1.524,0.152
1593983732975384,2.82,1.524,0.152
1593983733477029,2.82,1.524,0.152
1593983733978594,2.782,1.524,0.152
1593983734480221,2.82,1.524,0.152
1593983734981882,2.858,1.6,0.152
1593983735483601,2.82,1.6,0.152
1593983735985218,2.782,1.524,0.152
1593983736486853,2.744,1.524,0.152
1593983736992790,2.744,1.524,0.152
1593983737494438,2.705,1.448,0.152
1593983737996097,2.744,1.448,0.152
1593983738497890,2.705,1.448,0.152
1593983738999553,2.705,1.448,0.152
1593983739501171,2.667,1.448,0.152
1593983740002765,2.744,1.448,0.152
1593983740504392,2.705,1.448,0.152
1593983741006061,2.705,1.448,0.152
1593983741507934,2.705,1.448,0.152
1593983742012571,2.782,1.448,0.152
1593983742514236,2.705,1.448,0.152
1593983743015845,2.744,1.524,0.152
1593983743517433,2.782,1.524,0.152
1593983744019082,2.82,1.524,0.152
1593983744520873,2.858,1.524,0.152
1593983745022488,2.82,1.524,0.152
1593983745524135,2.82,1.524,0.152
1593983746025751,2.782,1.524,0.152
1593983746527416,2.782,1.524,0.152
1593983747031551,2.82,1.524,0.152
1593983747533349,2.82,1.524,0.152
1593983748035113,2.82,1.524,0.152
1593983748537124,2.782,1.524,0.152
1593983749038855,2.82,1.524,0.152
1593983749540567,2.82,1.524,0.152
1593983750042251,2.858,1.524,0.152
1593983750543918,2.782,1.524,0.152
1593983751045587,2.782,1.524,0.152
1593983751547199,2.82,1.6,0.152
1593983752048930,2.82,1.524,0.152
1593983752550676,2.858,1.524,0.152
1593983753052333,2.82,1.524,0.152
1593983753554020,2.858,1.6,0.152
1593983754055685,2.858,1.6,0.152
1593983754557330,2.858,1.6,0.152
1593983755058973,2.82,1.6,0.152
1593983755560506,2.858,1.6,0.152
1593983756062186,2.858,1.6,0.152
1593983756563909,2.82,1.524,0.152
1593983757065564,2.858,1.6,0.152
1593983757567158,2.82,1.524,0.152
1593983758068756,2.858,1.6,0.152
1593983758570296,2.782,1.524,0.152
1593983759071950,2.858,1.524,0.152
1593983759573641,2.82,1.524,0.152
1593983760075413,2.858,1.6,0.152
1593983760577214,2.782,1.524,0.152
1593983761079070,2.82,1.524,0.152
1593983761580747,2.82,1.6,0.152
1593983762082421,2.858,1.6,0.152
1593983762586650,2.82,1.524,0.152
1593983763088357,2.858,1.6,0.152
1593983763589921,2.82,1.6,0.152
1593983764091702,2.82,1.6,0.152
1593983764593296,2.82,1.524,0.152
1593983765094880,2.82,1.524,0.152
1593983765596554,2.82,1.6,0.152
1593983766098189,2.782,1.524,0.152
1593983766599871,2.744,1.448,0.152
1593983767101524,2.782,1.524,0.152
1593983767605619,2.82,1.524,0.152
1593983768107355,2.82,1.524,0.152
1593983768608991,2.782,1.524,0.152
1593983769110674,2.782,1.524,0.152
1593983769612298,2.782,1.524,0.152
1593983770114085,2.82,1.6,0.152
1593983770615723,2.82,1.524,0.152
1593983771119133,2.82,1.524,0.152
1593983771620757,2.82,1.524,0.152
1593983772122496,2.858,1.6,0.152
1593983772624372,2.782,1.524,0.152
1593983773125984,2.82,1.524,0.152
1593983773627734,2.82,1.6,0.152
1593983774129290,2.896,1.6,0.152
1593983774631076,2.896,1.6,0.152
1593983775132909,2.896,1.6,0.152
1593983775634580,2.896,1.6,0.152
1593983776136261,2.934,1.676,0.152
1593983776637895,2.896,1.6,0.152
1593983777139631,2.82,1.524,0.152
1593983777641363,2.896,1.6,0.152
1593983778142980,2.934,1.676,0.152
1593983778644702,2.934,1.676,0.152
1593983779146387,2.972,1.676,0.152
1593983779648072,2.934,1.676,0.152
1593983780149698,2.896,1.676,0.152
1593983780651419,2.896,1.6,0.152
1593983781153060,2.858,1.524,0.152
1593983781654702,2.896,1.6,0.152
1593983782156429,2.896,1.6,0.152
1593983782658077,2.896,1.676,0.152
1593983783159804,2.896,1.6,0.152
1593983783661488,2.858,1.524,0.152
1593983784163115,2.896,1.6,0.152
1593983784664914,2.934,1.676,0.152
1593983785166573,2.82,1.524,0.152
1593983785668267,2.858,1.6,0.152
1593983786169885,3.048,1.6,0.152
1593983786671556,3.238,1.6,0.152
1593983787173089,3.276,1.6,0.152
1593983787674762,3.276,1.6,0.152
1593983788176455,3.048,1.6,0.152
1593983788678051,2.972,1.6,0.152
1593983789179686,2.896,1.6,0.152
1593983789685887,2.858,1.6,0.152
1593983790187446,2.896,1.6,0.152
1593983790689043,2.934,1.676,0.152
1593983791190746,2.858,1.6,0.152
1593983791692339,2.82,1.524,0.152
1593983792193942,2.896,1.6,0.152
1593983792695546,2.934,1.676,0.152
1593983793197162,2.896,1.6,0.152
1593983793701150,2.934,1.6,0.152
1593983794202975,2.934,1.6,0.152
1593983794704809,2.934,1.676,0.152
1593983795206495,2.858,1.6,0.152
1593983795708188,2.934,1.6,0.152
1593983796209801,2.934,1.676,0.152
1593983796711413,2.934,1.676,0.152
1593983797212913,2.896,1.6,0.152
1593983797714532,2.896,1.6,0.152
1593983798216318,2.896,1.6,0.152
1593983798718031,2.858,1.6,0.152
1593983799219644,2.934,1.676,0.152
1593983799721453,2.858,1.524,0.152
1593983800223067,2.896,1.6,0.152
1593983800724760,2.896,1.6,0.152
1593983801226429,2.934,1.676,0.152
1593983801728131,2.858,1.524,0.152
1593983802229915,2.896,1.6,0.152
1593983802731703,2.934,1.676,0.152
1593983803233308,2.896,1.6,0.152
1593983803734968,2.858,1.524,0.152
1593983804236667,2.896,1.6,0.152
1593983804738322,2.934,1.676,0.152
1593983805240038,2.896,1.676,0.152
1593983805741642,2.896,1.6,0.152
1593983806243282,2.934,1.676,0.152
1593983806745084,2.934,1.676,0.152
1593983807246771,2.934,1.676,0.152
1593983807750217,2.82,1.524,0.152
1593983808252095,2.896,1.6,0.152
1593983808753783,2.896,1.6,0.152
1593983809255510,2.896,1.676,0.152
1593983809757119,2.896,1.6,0.152
1593983810258833,2.934,1.676,0.152
1593983810760556,2.858,1.6,0.152
1593983811262165,2.896,1.676,0.152
1593983811763881,2.858,1.6,0.152
1593983812265464,2.82,1.524,0.152
1593983812767054,2.896,1.6,0.152
1593983813268912,2.934,1.676,0.152
1593983813770636,2.858,1.6,0.152
1593983814272323,2.896,1.6,0.152
1593983814773998,2.896,1.6,0.152
1593983815275676,2.896,1.676,0.152
1593983815777313,2.934,1.6,0.152
1593983816278920,2.972,1.676,0.152
1593983816780712,2.934,1.676,0.152
1593983817282333,2.934,1.676,0.152
1593983817784047,2.858,1.6,0.152
1593983818285888,2.82,1.6,0.152
1593983818787579,2.896,1.676,0.152
1593983819289224,2.972,1.676,0.152
1593983819790927,2.896,1.6,0.152
1593983820292585,2.82,1.524,0.152
1593983820794163,2.858,1.6,0.152
1593983821295868,2.896,1.6,0.152
1593983821797620,2.896,1.6,0.152
1593983822299293,2.82,1.524,0.152
1593983822801069,2.82,1.524,0.152
1593983823302730,2.934,1.676,0.152
1593983823804454,2.896,1.6,0.152
1593983824306096,2.858,1.524,0.152
1593983824807912,2.896,1.6,0.152
1593983825309551,2.934,1.676,0.152
1593983825811072,2.934,1.676,0.152
1593983826312900,2.858,1.6,0.152
1593983826814598,2.896,1.6,0.152
1593983827316382,2.934,1.676,0.152
1593983827818029,2.858,1.6,0.152
1593983828319633,2.896,1.6,0.152
1593983828821501,2.934,1.6,0.152
1593983829323141,2.934,1.676,0.152
1593983829824856,2.896,1.6,0.152
1593983830326451,2.896,1.6,0.152
1593983830828088,2.896,1.6,0.152
1593983831329706,2.858,1.6,0.152
1593983831831398,2.934,1.676,0.152
1593983832333238,2.934,1.676,0.152
1593983832834969,2.82,1.524,0.152
1593983833336626,2.896,1.6,0.152
1593983833838349,2.934,1.676,0.152
1593983834340094,2.896,1.6,0.152
1593983834844130,2.934,1.6,0.152
1593983835345724,2.934,1.676,0.152
1593983835847494,2.896,1.676,0.152
1593983836349119,2.858,1.6,0.152
1593983836850708,2.858,1.6,0.152
1593983837352581,2.896,1.6,0.152
1593983837854246,2.934,1.676,0.152
1593983838355912,2.934,1.676,0.152
1593983838857672,2.82,1.524,0.152
1593983839359430,2.896,1.6,0.152
1593983839863596,2.896,1.6,0.152
1593983840365235,2.896,1.6,0.152
1593983840866840,2.858,1.524,0.152
1593983841368474,2.934,1.6,0.152
1593983841870093,2.896,1.6,0.152
1593983842371797,2.896,1.6,0.152
1593983842873546,2.896,1.6,0.152
1593983843375198,2.896,1.6,0.152
1593983843876915,2.934,1.676,0.152
1593983844378630,2.934,1.676,0.152
1593983844880258,2.896,1.6,0.152
1593983845381849,2.896,1.6,0.152
1593983845883655,2.896,1.6,0.152
1593983846385335,2.934,1.676,0.152
1593983846886991,2.896,1.6,0.152
1593983847388684,2.896,1.6,0.152
1593983847890323,2.934,1.676,0.152
1593983848392041,2.858,1.6,0.152
1593983848893691,2.972,1.676,0.152
1593983849395491,3.2,1.6,0.152
1593983849897199,3.352,1.676,0.152
1593983850398821,3.276,1.6,0.152
