TimeStamp,Total Power,CPU Power,GPU Power
1592834693111689,4.609,1.905,0.152
1592834693613078,3.849,1.295,0.152
1592834694114364,3.925,1.372,0.152
1592834694615623,3.961,1.372,0.152
1592834695116926,3.963,1.448,0.152
1592834695618200,3.885,1.448,0.152
1592834696119450,3.849,1.372,0.152
1592834696621088,3.923,1.448,0.152
1592834697122384,3.849,1.448,0.152
1592834697626250,3.811,1.372,0.152
1592834698127618,3.809,1.448,0.152
1592834698628922,3.887,1.448,0.152
1592834699130198,3.961,1.448,0.152
1592834699631456,3.925,1.372,0.152
1592834700132736,3.961,1.448,0.152
1592834700634029,3.849,1.448,0.152
1592834701135292,3.811,1.372,0.152
1592834701636629,3.885,1.448,0.152
1592834702137929,3.849,1.448,0.152
1592834702641414,3.849,1.448,0.152
1592834703142606,3.847,1.372,0.152
1592834703643904,4,1.448,0.152
1592834704145179,3.849,1.448,0.152
1592834704646436,3.811,1.372,0.152
1592834705147787,3.923,1.448,0.152
1592834705649085,3.849,1.448,0.152
1592834706150361,3.811,1.372,0.152
1592834706651732,3.847,1.448,0.152
1592834707153058,3.887,1.448,0.152
1592834707656594,3.811,1.448,0.152
1592834708157828,3.811,1.372,0.152
1592834708659056,3.923,1.448,0.152
1592834709160333,3.811,1.448,0.152
1592834709661553,3.811,1.372,0.152
1592834710162916,3.885,1.448,0.152
1592834710664218,3.849,1.448,0.152
1592834711165487,3.811,1.448,0.152
1592834711666731,3.811,1.372,0.152
1592834712168029,3.925,1.448,0.152
1592834712671529,3.847,1.448,0.152
1592834713172804,3.923,1.372,0.152
1592834713674686,4.114,1.448,0.152
1592834714175953,4.076,1.448,0.152
1592834714677255,3.887,1.448,0.152
1592834715178614,3.885,1.372,0.152
1592834715679915,3.961,1.448,0.152
1592834716181192,3.849,1.448,0.152
1592834716682450,3.811,1.372,0.152
1592834717183685,3.961,1.448,0.152
1592834717685006,3.849,1.448,0.152
1592834718186258,3.811,1.372,0.152
1592834718687603,3.885,1.448,0.152
1592834719188924,3.887,1.448,0.152
1592834719690206,3.811,1.448,0.152
1592834720191441,3.811,1.372,0.152
1592834720692715,3.923,1.448,0.152
1592834721193982,3.811,1.448,0.152
1592834721695222,3.811,1.372,0.152
1592834722196642,3.885,1.448,0.152
1592834722699958,3.849,1.448,0.152
1592834723201204,3.811,1.448,0.152
1592834723702408,3.811,1.372,0.152
1592834724203679,3.923,1.448,0.152
1592834724705116,3.923,1.448,0.152
1592834725206373,3.887,1.372,0.152
1592834725708406,3.961,1.448,0.152
1592834726209695,4,1.448,0.152
1592834726710944,3.887,1.372,0.152
1592834727212348,3.885,1.448,0.152
1592834727715860,3.887,1.448,0.152
1592834728217116,3.811,1.448,0.152
1592834728718349,3.811,1.372,0.152
1592834729219617,3.925,1.448,0.152
1592834729720919,3.849,1.448,0.152
1592834730222287,3.811,1.372,0.152
1592834730724353,3.885,1.448,0.152
1592834731225662,3.849,1.448,0.152
1592834731726933,3.811,1.372,0.152
1592834732228179,3.773,1.372,0.152
1592834732731542,3.885,1.448,0.152
1592834733232829,3.811,1.448,0.152
1592834733734080,3.811,1.372,0.152
1592834734235887,4,1.448,0.152
1592834734737198,3.887,1.448,0.152
1592834735238501,3.849,1.372,0.152
1592834735739854,4,1.448,0.152
1592834736241185,3.923,1.448,0.152
1592834736742481,3.849,1.448,0.152
1592834737243717,3.847,1.372,0.152
1592834737747099,4.038,1.448,0.152
1592834738248384,3.849,1.448,0.152
1592834738749628,3.811,1.372,0.152
1592834739250984,3.885,1.448,0.152
1592834739752288,3.849,1.448,0.152
1592834740253654,3.811,1.448,0.152
1592834740754900,3.811,1.372,0.152
1592834741256195,3.887,1.448,0.152
1592834741757470,3.811,1.448,0.152
1592834742258730,3.811,1.372,0.152
1592834742762283,3.923,1.448,0.152
1592834743263597,3.849,1.448,0.152
1592834743764878,3.811,1.372,0.152
1592834744266899,3.809,1.448,0.152
1592834744768205,3.887,1.448,0.152
1592834745269488,3.847,1.448,0.152
1592834745770751,3.811,1.372,0.152
1592834746271996,4.152,1.448,0.152
1592834746773276,4.114,1.448,0.152
1592834747274534,3.887,1.372,0.152
1592834747778650,3.885,1.448,0.152
1592834748279953,4.038,1.448,0.152
1592834748781235,3.887,1.448,0.152
1592834749282517,3.811,1.372,0.152
1592834749783796,3.887,1.448,0.152
1592834750285078,3.811,1.448,0.152
1592834750786320,3.811,1.372,0.152
1592834751288246,3.923,1.448,0.152
1592834751789896,3.849,1.448,0.152
1592834752291171,3.811,1.372,0.152
1592834752794538,3.811,1.372,0.152
1592834753295840,3.885,1.448,0.152
