cset: --> last message, executed args into cpuset "/user", new pid is: 26488
stress-ng: info:  [26488] dispatching hogs: 3 cpu
stress-ng: info:  [26488] successful run completed in 60.06s (1 min, 0.06 secs)
