TimeStamp,Total Power,CPU Power,GPU Power
1592953179115973,3.658,1.143,0.152
1592953179618041,2.972,0.533,0.152
1592953180119914,3.391,0.914,0.152
1592953180621668,3.961,1.448,0.152
1592953181123753,4.152,1.6,0.152
1592953181628995,4.19,1.676,0.152
1592953182130781,4.19,1.676,0.152
1592953182632715,4.19,1.676,0.152
1592953183134542,4.19,1.676,0.152
1592953183636820,4.19,1.6,0.152
1592953184138593,4.19,1.676,0.152
1592953184640588,4.381,1.676,0.152
1592953185142451,4.266,1.676,0.152
1592953185644315,4.266,1.676,0.152
1592953186146012,4.19,1.676,0.152
1592953186650179,4.228,1.676,0.152
1592953187154068,4.19,1.676,0.152
1592953187656018,4.19,1.676,0.152
1592953188157934,4.228,1.676,0.152
1592953188659835,4.19,1.676,0.152
1592953189161805,4.457,1.676,0.152
1592953189663751,4.304,1.676,0.152
1592953190165612,4.228,1.676,0.152
1592953190667543,4.19,1.676,0.152
1592953191169300,4.228,1.676,0.152
1592953191673838,4.266,1.676,0.152
1592953192175647,4.19,1.676,0.152
1592953192677498,4.19,1.676,0.152
1592953193179227,4.228,1.676,0.152
1592953193681117,4.419,1.676,0.152
1592953194182887,4.342,1.676,0.152
1592953194684861,4.228,1.676,0.152
1592953195186795,4.266,1.676,0.152
1592953195688661,4.19,1.676,0.152
1592953196190405,4.19,1.676,0.152
1592953196694700,4.342,1.676,0.152
1592953197196619,4.304,1.676,0.152
1592953197698399,4.228,1.676,0.152
1592953198200188,4.19,1.676,0.152
1592953198701937,4.152,1.6,0.152
1592953199204741,4.228,1.676,0.152
1592953199706532,4.228,1.676,0.152
1592953200208372,4.19,1.6,0.152
1592953200710328,4.19,1.6,0.152
1592953201212822,4.228,1.676,0.152
1592953201717234,4.304,1.6,0.152
1592953202218933,4.19,1.6,0.152
1592953202720976,4.19,1.676,0.152
1592953203222777,4.228,1.676,0.152
1592953203724602,4.19,1.676,0.152
1592953204226330,4.228,1.676,0.152
1592953204728352,4.381,1.676,0.152
1592953205230142,4.266,1.676,0.152
1592953205732048,4.19,1.676,0.152
1592953206233970,4.228,1.676,0.152
1592953206738382,4.228,1.676,0.152
1592953207240150,4.19,1.676,0.152
1592953207745162,4.228,1.676,0.152
1592953208246786,4.19,1.6,0.152
1592953208748787,4.381,1.676,0.152
1592953209250708,4.457,1.676,0.152
1592953209752559,4.723,1.676,0.152
1592953210254411,4.8,1.676,0.152
1592953210756195,4.838,1.752,0.152
1592953211257990,4.838,1.752,0.152
1592953211762275,4.762,1.676,0.152
1592953212264200,4.571,1.676,0.152
1592953212766131,4.495,1.676,0.152
1592953213267819,4.495,1.676,0.152
1592953213769399,4.457,1.676,0.152
1592953214271662,4.495,1.676,0.152
