timestamp	VIRTUAL_SCALING	CPU0_F	CPU1_F	CPU2_F	CPU3_F	CPU4_F	CPU5_F	GPU_FREQ	CPU_GOVERNOR	EMC_F	TEMP0	TEMP1	TEMP2	TEMP3	TEMP4	TEMP5	TEMP6	TEMP7
1592951334549339131	1	345	1420	1420	345	345	345	114750000	performance	1866	31	31	29	31	29	27	100	30
1592951334940703738 	0	345	1420	1425	345	345	345	114750000	performance	1866	31	31	29	31	29	27	100	30
1592951336993334363	1	345	1420	1420	345	345	345	114750000	performance	1866	31	31	29	31	29	27	100	30
1592951337441346830 	0	345	1421	1421	345	345	345	114750000	performance	1866	31	31	29	31	29	27	100	30
1592951339445392871	1	345	1420	1420	345	345	345	114750000	performance	1866	31	31	29	31	29	27	100	30
1592951339973661630 	0	345	1421	1423	345	345	345	114750000	performance	1866	31	31	29	31	29	27	100	30
1592951342145508763	1	345	1420	1420	345	345	345	114750000	performance	1866	31	31	29	31	29	27	100	30
1592951342567175940 	0	345	1424	1420	345	345	345	114750000	performance	1866	31	31	29	31	29	27	100	30
1592951344615695809	1	345	1420	1420	345	345	345	114750000	performance	1866	31	31	29	31	29	27	100	30
1592951345043273082 	0	345	1423	1419	345	345	345	114750000	performance	1866	31	31	29	31	29	27	100	30
1592951347167060200	1	345	1420	1420	345	345	345	114750000	performance	1866	31	31	29	31	29	27	100	30
1592951347653294588 	0	345	1420	1420	345	345	345	114750000	performance	1866	31	31	29	31	29	27	100	30
1592951349541902082	1	345	1420	1420	345	345	345	114750000	performance	1866	31	31	29	31	29	27	100	30
