timestamp	VIRTUAL_SCALING	CPU0_F	CPU1_F	CPU2_F	CPU3_F	CPU4_F	CPU5_F	GPU_FREQ	CPU_GOVERNOR	EMC_F	TEMP0	TEMP1	TEMP2	TEMP3	TEMP4	TEMP5	TEMP6	TEMP7
1592832553397044897	1	652	806	806	652	652	652	114750000	performance	665	32	32	31	32	30	29	100	32
1592832553586159772 	0	652	807	806	653	653	652	114750000	performance	665	32	32	31	32	30	29	100	31
1592832555199215034	1	652	806	806	652	652	652	114750000	performance	665	32	32	30	32	30	29	100	31
1592832555289066665 	0	652	806	806	652	653	652	114750000	performance	665	32	32	30	32	30	29	100	31
1592832556900242490	1	652	806	806	652	652	652	114750000	performance	665	32	32	30	32	30	28	100	31
1592832556988977813 	0	653	806	806	653	652	652	114750000	performance	665	32	32	30	32	30	28	100	31
1592832558602259472	1	652	806	806	652	652	652	114750000	performance	665	32	32	30	32	30	28	100	31
1592832558691379751 	0	653	806	806	653	653	652	114750000	performance	665	32	32	30	32	30	28	100	31
1592832560303547310	1	652	806	806	652	652	652	114750000	performance	665	32	32	30	32	30	28	100	31
1592832560392845091 	0	652	805	806	653	652	652	114750000	performance	665	32	32	30	32	30	28	100	31
1592832562004798156	1	652	806	806	652	652	652	114750000	performance	665	31	31	30	32	30	28	100	31
1592832562096217259 	0	652	806	806	652	652	652	114750000	performance	665	32	32	30	32	30	28	100	31
1592832563708132725	1	652	806	806	652	652	652	114750000	performance	665	32	32	30	32	30	28	100	31
1592832563797753670 	0	652	806	806	653	652	652	114750000	performance	665	32	32	30	32	30	28	100	31
1592832565410021356	1	652	806	806	652	652	652	114750000	performance	665	32	32	30	32	30	28	100	31
1592832565499285089 	0	652	806	806	653	653	652	114750000	performance	665	32	32	30	32	30	28	100	31
1592832567112913209	1	652	806	806	652	652	652	114750000	performance	665	32	32	30	32	30	28	100	31
1592832567202883783 	0	653	806	806	652	652	652	114750000	performance	665	32	32	30	32	30	28	100	31
1592832568815030254	1	652	806	806	652	652	652	114750000	performance	665	32	32	30	32	30	28	100	31
1592832568904896477 	0	652	805	806	652	653	652	114750000	performance	665	32	32	30	32	30	28	100	31
1592832570519510186	1	652	806	806	652	652	652	114750000	performance	665	32	32	30	32	30	28	100	31
1592832570612416409 	0	652	805	807	652	652	653	114750000	performance	665	32	32	30	32	30	28	100	31
1592832572225621109	1	652	806	806	652	652	652	114750000	performance	665	32	32	30	32	30	28	100	31
1592832572314850219 	0	653	806	806	653	652	652	114750000	performance	665	32	32	30	32	30	28	100	31
1592832573927182960	1	652	806	806	652	652	652	114750000	performance	665	32	32	30	32	30	28	100	31
1592832574017072575 	0	652	806	806	652	652	652	114750000	performance	665	32	32	30	32	30	28	100	31
1592832575633371035	1	652	806	806	652	652	652	114750000	performance	665	31	31	30	31	30	28	100	30
1592832575722618896 	0	652	806	806	652	652	653	114750000	performance	665	32	32	30	32	30	28	100	30
1592832577334680312	1	652	806	806	652	652	652	114750000	performance	665	32	32	30	32	30	28	100	31
1592832577424511304 	0	652	806	806	653	652	653	114750000	performance	665	32	32	30	32	30	28	100	31
1592832579038028032	1	652	806	806	652	652	652	114750000	performance	665	31	31	30	31	30	28	100	31
1592832579129014180 	0	653	806	806	652	653	652	114750000	performance	665	32	32	30	32	30	28	100	31
1592832580741458664	1	652	806	806	652	652	652	114750000	performance	665	31	31	30	31	30	28	100	31
1592832580830859676 	0	652	806	806	652	652	653	114750000	performance	665	31	31	30	31	30	28	100	31
1592832582455152099	1	652	806	806	652	652	652	114750000	performance	665	31	31	30	31	30	28	100	31
1592832582546758176 	0	652	806	806	652	652	652	114750000	performance	665	31	31	30	31	30	28	100	30
1592832584160288760	1	652	806	806	652	652	652	114750000	performance	665	32	32	30	31	29	28	100	30
1592832584250984607 	0	652	806	805	653	652	652	114750000	performance	665	32	32	30	31	29	28	100	30
1592832585863485026	1	652	806	806	652	652	652	114750000	performance	665	31	31	30	31	29	28	100	30
1592832585952171038 	0	652	806	806	652	652	652	114750000	performance	665	31	31	30	31	29	28	100	30
1592832587563967496	1	652	806	806	652	652	652	114750000	performance	665	31	31	30	31	29	28	100	30
1592832587654630799 	0	652	806	806	652	652	653	114750000	performance	665	31	31	30	31	29	28	100	30
1592832589267306897	1	652	806	806	652	652	652	114750000	performance	665	31	31	30	31	29	28	100	30
1592832589356114859 	0	653	806	806	652	652	653	114750000	performance	665	31	31	30	31	29	28	100	30
1592832590969210472	1	652	806	806	652	652	652	114750000	performance	665	31	31	30	31	29	28	100	30
1592832591058983064 	0	652	806	806	652	652	652	114750000	performance	665	31	31	30	31	29	28	100	30
1592832592672494513	1	652	806	806	652	652	652	114750000	performance	665	31	31	30	31	29	28	100	30
1592832592761668487 	0	652	806	806	652	653	652	114750000	performance	665	31	31	30	31	29	28	100	30
1592832594385010265	1	652	806	806	652	652	652	114750000	performance	665	31	31	30	31	29	28	100	30
1592832594478538465 	0	652	806	806	653	652	652	114750000	performance	665	31	31	30	31	29	28	100	30
1592832596114890666	1	652	806	806	652	652	652	114750000	performance	665	31	31	30	31	29	28	100	30
1592832596205974252 	0	652	806	806	652	653	652	114750000	performance	665	31	31	30	31	29	28	100	30
1592832597822817634	1	652	806	806	652	652	652	114750000	performance	665	31	31	30	31	29	28	100	30
1592832597915043192 	0	653	806	806	653	652	652	114750000	performance	665	31	31	30	31	29	28	100	30
1592832599527601147	1	652	806	806	652	652	652	114750000	performance	665	31	31	30	31	29	28	100	30
1592832599618185794 	0	652	805	805	652	652	653	114750000	performance	665	31	31	30	31	29	28	100	30
1592832601232875311	1	652	806	806	652	652	652	114750000	performance	665	31	31	30	31	29	28	100	30
1592832601322963803 	0	652	805	806	652	653	652	114750000	performance	665	31	31	30	31	29	28	100	30
1592832602935783675	1	652	806	806	652	652	652	114750000	performance	665	31	31	30	31	29	28	100	30
1592832603025433165 	0	652	806	806	652	653	653	114750000	performance	665	31	31	30	31	29	28	100	30
1592832604637721682	1	652	806	806	652	652	652	114750000	performance	665	31	31	30	31	29	28	100	30
1592832604729401550 	0	652	806	806	652	652	652	114750000	performance	665	31	31	30	31	29	28	100	30
1592832606341529142	1	652	806	806	652	652	652	114750000	performance	665	31	31	30	31	29	28	100	30
1592832606438335580 	0	653	806	806	652	652	652	114750000	performance	665	31	31	30	31	29	28	100	30
1592832608050961502	1	652	806	806	652	652	652	114750000	performance	665	31	31	30	31	29	28	100	30
1592832608140282195 	0	653	806	806	652	652	652	114750000	performance	665	31	31	30	31	29	28	100	30
1592832609755674264	1	652	806	806	652	652	652	114750000	performance	665	31	31	30	31	29	28	100	30
1592832609845701157 	0	653	806	806	652	652	651	114750000	performance	665	31	31	29	31	29	28	100	30
1592832611458474598	1	652	806	806	652	652	652	114750000	performance	665	31	31	30	31	29	28	100	30
1592832611547729147 	0	653	807	807	652	653	652	114750000	performance	665	31	31	30	31	29	28	100	30
1592832613160167807	1	652	806	806	652	652	652	114750000	performance	665	31	31	30	31	29	28	100	30
1592832613251819355 	0	652	806	806	652	653	653	114750000	performance	665	31	31	30	31	29	28	100	30
