TimeStamp,Total Power,CPU Power,GPU Power
1593911800448287,3.771,0.99,0.152
1593911800949533,3.619,0.762,0.152
1593911801450736,3.581,0.686,0.152
1593911801951929,3.314,0.609,0.152
1593911802453144,3.314,0.762,0.152
1593911802954348,3.239,0.762,0.152
1593911803455564,3.239,0.762,0.152
1593911803956816,3.314,0.838,0.152
1593911804458023,3.239,0.762,0.152
1593911804959191,3.239,0.762,0.152
1593911805460417,3.352,0.914,0.152
1593911805961609,3.239,0.838,0.152
1593911806462765,3.239,0.762,0.152
1593911806963936,3.39,0.914,0.152
1593911807465137,3.276,0.838,0.152
1593911807968449,3.276,0.838,0.152
1593911808469958,3.314,0.838,0.152
1593911808971172,3.314,0.838,0.152
1593911809472394,3.239,0.762,0.152
1593911809973607,3.277,0.838,0.152
1593911810474829,3.314,0.838,0.152
1593911810976030,3.239,0.838,0.152
1593911811477242,3.276,0.838,0.152
1593911811978457,3.314,0.838,0.152
1593911812479672,3.201,0.762,0.152
1593911812982902,3.276,0.838,0.152
1593911813484120,3.352,0.914,0.152
1593911813985333,3.201,0.762,0.152
1593911814486527,3.314,0.838,0.152
1593911814987794,3.39,0.914,0.152
1593911815488983,3.239,0.762,0.152
1593911815990196,3.314,0.838,0.152
1593911816491427,3.39,0.914,0.152
1593911816992622,3.239,0.838,0.152
1593911817493793,3.239,0.762,0.152
1593911817997143,3.314,0.914,0.152
1593911818498364,3.238,0.838,0.152
1593911818999569,3.239,0.762,0.152
1593911819500778,3.239,0.838,0.152
1593911820002001,3.277,0.838,0.152
1593911820503182,3.238,0.762,0.152
1593911821004461,3.239,0.762,0.152
1593911821505679,3.314,0.838,0.152
1593911822006864,3.276,0.838,0.152
1593911822508086,3.277,0.838,0.152
1593911823011500,3.352,0.914,0.152
1593911823512720,3.276,0.838,0.152
1593911824013936,3.314,0.838,0.152
1593911824515134,3.39,0.914,0.152
1593911825016314,3.314,0.838,0.152
1593911825517524,3.239,0.838,0.152
1593911826018759,3.352,0.914,0.152
1593911826519975,3.239,0.838,0.152
1593911827021186,3.277,0.838,0.152
1593911827522373,3.39,0.914,0.152
1593911828025504,3.239,0.838,0.152
1593911828526719,3.276,0.838,0.152
1593911829027971,3.314,0.838,0.152
1593911829529182,3.239,0.838,0.152
1593911830030415,3.352,0.914,0.152
1593911830531752,3.277,0.838,0.152
1593911831032956,3.277,0.838,0.152
1593911831534189,3.314,0.838,0.152
1593911832035391,3.276,0.838,0.152
1593911832536596,3.277,0.838,0.152
1593911833040064,3.352,0.914,0.152
1593911833541270,3.238,0.838,0.152
1593911834042491,3.276,0.838,0.152
1593911834543775,3.277,0.838,0.152
1593911835045008,3.238,0.838,0.152
1593911835546235,3.352,0.914,0.152
1593911836047441,3.276,0.838,0.152
1593911836548650,3.277,0.838,0.152
1593911837049903,3.352,0.914,0.152
1593911837551108,3.276,0.838,0.152
1593911838054355,3.239,0.838,0.152
1593911838555642,3.352,0.914,0.152
1593911839056855,3.277,0.838,0.152
1593911839558072,3.239,0.838,0.152
1593911840059273,3.239,0.762,0.152
1593911840560500,3.276,0.838,0.152
1593911841061718,3.239,0.838,0.152
1593911841562929,3.239,0.762,0.152
1593911842064123,3.276,0.838,0.152
1593911842565352,3.239,0.838,0.152
1593911843068516,3.239,0.838,0.152
1593911843569719,3.276,0.838,0.152
1593911844070936,3.276,0.838,0.152
1593911844572141,3.239,0.762,0.152
1593911845073336,3.276,0.838,0.152
1593911845574564,3.314,0.838,0.152
1593911846075760,3.239,0.762,0.152
1593911846576965,3.276,0.838,0.152
1593911847078171,3.314,0.838,0.152
1593911847579387,3.201,0.762,0.152
1593911848082651,3.39,0.914,0.152
1593911848583875,3.314,0.838,0.152
1593911849085069,3.239,0.838,0.152
1593911849586277,3.314,0.838,0.152
1593911850087581,3.314,0.914,0.152
1593911850588766,3.277,0.838,0.152
1593911851089943,3.277,0.762,0.152
1593911851591179,3.315,0.838,0.152
1593911852092414,3.277,0.838,0.152
1593911852593614,3.201,0.762,0.152
1593911853096737,3.276,0.838,0.152
1593911853597954,3.277,0.838,0.152
1593911854099166,3.201,0.762,0.152
1593911854600385,3.276,0.838,0.152
1593911855101623,3.276,0.838,0.152
1593911855602817,3.201,0.762,0.152
1593911856104110,3.314,0.838,0.152
1593911856605323,3.314,0.838,0.152
1593911857106515,3.201,0.762,0.152
1593911857607711,3.352,0.914,0.152
1593911858110859,3.314,0.838,0.152
1593911858612070,3.201,0.762,0.152
1593911859113284,3.352,0.914,0.152
1593911859614503,3.314,0.838,0.152
1593911860115709,3.201,0.762,0.152
1593911860616915,3.239,0.838,0.152
1593911861118123,3.314,0.838,0.152
1593911861619336,3.239,0.838,0.152
1593911862120518,3.239,0.762,0.152
1593911862621727,3.314,0.838,0.152
1593911863124797,3.466,0.838,0.152
1593911863626117,3.657,0.838,0.152
1593911864127473,3.771,0.914,0.152
1593911864629155,3.695,0.838,0.152
1593911865130357,3.428,0.838,0.152
1593911865631584,3.39,0.914,0.152
1593911866132792,3.314,0.838,0.152
1593911866633983,3.239,0.762,0.152
1593911867135194,3.39,0.914,0.152
1593911867636406,3.276,0.838,0.152
1593911868139684,3.201,0.762,0.152
1593911868641293,3.428,0.914,0.152
1593911869142504,3.314,0.838,0.152
1593911869643701,3.201,0.762,0.152
1593911870144937,3.314,0.838,0.152
1593911870646176,3.314,0.838,0.152
1593911871147373,3.2,0.762,0.152
1593911871648545,3.239,0.762,0.152
1593911872149742,3.352,0.914,0.152
1593911872650934,3.239,0.762,0.152
1593911873154120,3.239,0.762,0.152
1593911873655333,3.314,0.914,0.152
1593911874156522,3.239,0.762,0.152
1593911874657683,3.239,0.762,0.152
1593911875158876,3.352,0.914,0.152
1593911875660072,3.239,0.838,0.152
1593911876161250,3.239,0.762,0.152
1593911876662459,3.352,0.914,0.152
1593911877163775,3.276,0.838,0.152
1593911877664957,3.238,0.762,0.152
1593911878168170,3.39,0.914,0.152
1593911878669381,3.276,0.838,0.152
1593911879170569,3.276,0.762,0.152
1593911879672245,3.277,0.838,0.152
1593911880173477,3.314,0.838,0.152
1593911880674674,3.239,0.762,0.152
1593911881175891,3.276,0.838,0.152
1593911881677085,3.314,0.838,0.152
1593911882178273,3.201,0.762,0.152
1593911882679468,3.276,0.838,0.152
1593911883182992,3.314,0.914,0.152
1593911883684253,3.239,0.838,0.152
1593911884185474,3.314,0.838,0.152
1593911884686703,3.314,0.838,0.152
1593911885187916,3.239,0.762,0.152
1593911885689137,3.277,0.838,0.152
1593911886190353,3.314,0.914,0.152
1593911886691575,3.239,0.838,0.152
1593911887192753,3.238,0.762,0.152
1593911887693930,3.352,0.914,0.152
1593911888197349,3.276,0.838,0.152
1593911888698531,3.238,0.762,0.152
1593911889199793,3.315,0.838,0.152
1593911889701004,3.276,0.838,0.152
1593911890202239,3.276,0.838,0.152
1593911890703476,3.239,0.838,0.152
1593911891204686,3.315,0.838,0.152
1593911891705881,3.201,0.762,0.152
1593911892207085,3.277,0.838,0.152
1593911892708326,3.314,0.838,0.152
1593911893211596,3.201,0.762,0.152
1593911893712800,3.276,0.838,0.152
1593911894214008,3.352,0.838,0.152
1593911894715194,3.239,0.762,0.152
1593911895216415,3.314,0.838,0.152
1593911895717659,3.352,0.914,0.152
1593911896218840,3.239,0.838,0.152
1593911896720024,3.314,0.838,0.152
1593911897221251,3.352,0.914,0.152
1593911897722451,3.238,0.838,0.152
1593911898225617,3.314,0.838,0.152
1593911898726807,3.352,0.914,0.152
1593911899228027,3.239,0.838,0.152
1593911899729240,3.314,0.838,0.152
1593911900230823,3.239,0.838,0.152
1593911900732043,3.276,0.838,0.152
1593911901233254,3.352,0.838,0.152
1593911901734472,3.239,0.762,0.152
1593911902235755,3.314,0.838,0.152
1593911902736980,3.277,0.838,0.152
1593911903240301,3.238,0.838,0.152
1593911903741540,3.314,0.838,0.152
1593911904242740,3.201,0.762,0.152
1593911904743935,3.239,0.838,0.152
1593911905245148,3.314,0.838,0.152
1593911905746336,3.201,0.762,0.152
1593911906247553,3.238,0.838,0.152
1593911906748768,3.352,0.838,0.152
1593911907249972,3.239,0.762,0.152
1593911907751186,3.276,0.838,0.152
1593911908254458,3.314,0.914,0.152
1593911908755699,3.239,0.838,0.152
1593911909256921,3.276,0.838,0.152
1593911909758161,3.315,0.838,0.152
1593911910259390,3.277,0.838,0.152
1593911910760586,3.315,0.838,0.152
1593911911261774,3.201,0.762,0.152
1593911911762970,3.314,0.838,0.152
1593911912264276,3.276,0.838,0.152
1593911912765474,3.239,0.762,0.152
1593911913268591,3.314,0.838,0.152
1593911913769822,3.277,0.838,0.152
1593911914271017,3.239,0.838,0.152
1593911914772216,3.314,0.838,0.152
1593911915273453,3.276,0.838,0.152
1593911915774662,3.277,0.838,0.152
1593911916275850,3.352,0.838,0.152
1593911916777096,3.314,0.914,0.152
1593911917278298,3.276,0.838,0.152
1593911917779532,3.314,0.914,0.152
1593911918282713,3.314,0.914,0.152
1593911918783911,3.277,0.838,0.152
1593911919285075,3.352,0.914,0.152
1593911919786320,3.352,0.914,0.152
1593911920287538,3.276,0.838,0.152
1593911920788764,3.239,0.838,0.152
1593911921290570,3.276,0.838,0.152
1593911921791799,3.276,0.838,0.152
1593911922292988,3.201,0.762,0.152
1593911922794214,3.314,0.838,0.152
1593911923297492,3.277,0.838,0.152
1593911923798694,3.239,0.762,0.152
1593911924299909,3.314,0.838,0.152
1593911924801143,3.239,0.838,0.152
1593911925302354,3.239,0.838,0.152
1593911925803572,3.352,0.838,0.152
1593911926304757,3.542,0.838,0.152
1593911926805956,3.657,0.838,0.152
1593911927307162,3.733,0.914,0.152
1593911927808379,3.885,1.067,0.152
1593911928309547,3.847,0.914,0.152
1593911928810740,3.885,0.99,0.152
1593911929311944,3.771,0.914,0.152
1593911929813160,3.695,0.838,0.152
1593911930314406,3.428,0.838,0.152
1593911930815630,3.352,0.914,0.152
1593911931316829,3.277,0.838,0.152
1593911931818019,3.201,0.762,0.152
1593911932319228,3.352,0.914,0.152
1593911932820431,3.276,0.838,0.152
1593911933321618,3.201,0.762,0.152
1593911933824729,3.352,0.914,0.152
1593911934325927,3.276,0.838,0.152
1593911934827096,3.542,0.762,0.152
1593911935328300,3.885,0.99,0.152
1593911935829497,3.695,0.838,0.152
1593911936330662,3.885,0.914,0.152
1593911936831959,3.847,0.99,0.152
1593911937333158,3.619,0.838,0.152
1593911937834336,3.581,0.762,0.152
1593911938335575,3.733,0.914,0.152
1593911938838818,3.619,0.838,0.152
1593911939340092,3.581,0.838,0.152
1593911939841264,3.733,0.914,0.152
1593911940342496,3.619,0.838,0.152
1593911940843695,3.619,0.838,0.152
1593911941345194,3.581,0.838,0.152
1593911941846406,3.619,0.838,0.152
1593911942347582,3.619,0.838,0.152
1593911942848750,3.542,0.762,0.152
1593911943349950,3.695,0.914,0.152
1593911943853419,3.619,0.838,0.152
1593911944354609,3.542,0.762,0.152
1593911944855812,3.733,0.914,0.152
1593911945357003,3.619,0.838,0.152
1593911945858170,3.542,0.762,0.152
1593911946359369,3.771,0.99,0.152
1593911946860551,3.733,0.838,0.152
1593911947361711,3.771,0.838,0.152
1593911947862890,3.961,0.99,0.152
1593911948364085,3.771,0.914,0.152
1593911948865321,3.657,0.838,0.152
1593911949366815,3.581,0.914,0.152
1593911949868050,3.352,0.838,0.152
1593911950369280,3.314,0.838,0.152
1593911950870503,3.276,0.838,0.152
1593911951371710,3.314,0.838,0.152
1593911951872923,3.239,0.838,0.152
1593911952374114,3.276,0.838,0.152
1593911952875361,3.314,0.838,0.152
1593911953376544,3.581,0.838,0.152
1593911953877771,3.657,0.838,0.152
1593911954379000,3.542,0.914,0.152
1593911954880186,3.276,0.762,0.152
1593911955381327,3.238,0.762,0.152
1593911955882536,3.39,0.914,0.152
1593911956383737,3.239,0.762,0.152
1593911956884912,3.201,0.762,0.152
1593911957386125,3.39,0.914,0.152
1593911957887332,3.238,0.762,0.152
1593911958388516,3.239,0.762,0.152
1593911958890052,3.39,0.914,0.152
1593911959393314,3.239,0.838,0.152
1593911959894549,3.239,0.762,0.152
1593911960395754,3.277,0.838,0.152
1593911960896973,3.276,0.838,0.152
1593911961398167,3.238,0.838,0.152
1593911961899370,3.239,0.838,0.152
1593911962400599,3.276,0.838,0.152
1593911962901813,3.276,0.838,0.152
1593911963403032,3.276,0.838,0.152
1593911963904239,3.314,0.838,0.152
1593911964407368,3.657,0.838,0.152
1593911964908578,3.771,0.838,0.152
1593911965409801,3.809,0.914,0.152
1593911965910983,3.923,0.99,0.152
1593911966412225,3.695,0.914,0.152
1593911966913505,3.733,0.914,0.152
1593911967414702,3.619,0.838,0.152
1593911967915911,3.619,0.838,0.152
1593911968417111,3.733,0.914,0.152
1593911968918317,3.581,0.838,0.152
1593911969421567,3.657,0.838,0.152
1593911969922803,3.657,0.838,0.152
1593911970424026,3.581,0.838,0.152
1593911970925256,3.619,0.838,0.152
1593911971426485,3.581,0.838,0.152
1593911971927732,3.581,0.838,0.152
1593911972428939,3.581,0.762,0.152
1593911972930134,3.619,0.838,0.152
1593911973431374,3.619,0.838,0.152
1593911973932559,3.581,0.838,0.152
1593911974435844,3.619,0.838,0.152
1593911974937067,3.619,0.838,0.152
1593911975438250,3.619,0.838,0.152
1593911975939560,3.581,0.838,0.152
1593911976440774,3.809,0.914,0.152
1593911976941943,3.847,0.838,0.152
1593911977443159,3.733,0.838,0.152
1593911977949231,3.885,0.99,0.152
1593911978450406,3.809,0.914,0.152
1593911978951627,3.657,0.838,0.152
1593911979455013,3.657,0.838,0.152
1593911979956244,3.619,0.838,0.152
1593911980457477,3.581,0.838,0.152
1593911980958669,3.581,0.838,0.152
1593911981459877,3.619,0.838,0.152
1593911981961094,3.619,0.838,0.152
1593911982462297,3.581,0.838,0.152
1593911982963506,3.619,0.838,0.152
1593911983464743,3.657,0.838,0.152
1593911983965948,3.619,0.838,0.152
1593911984469242,3.619,0.838,0.152
1593911984970451,3.657,0.838,0.152
1593911985471671,3.619,0.838,0.152
1593911985980429,3.657,0.838,0.152
1593911986481656,3.695,0.914,0.152
1593911986982855,3.619,0.838,0.152
1593911987484056,3.657,0.838,0.152
1593911987985284,3.657,0.914,0.152
1593911988486441,3.695,0.838,0.152
1593911988987635,3.847,0.914,0.152
1593911989488821,3.809,0.838,0.152
1593911989990063,3.695,0.838,0.152
1593911990491356,3.733,0.914,0.152
1593911990992580,3.695,0.838,0.152
1593911991493789,3.39,0.838,0.152
1593911991994992,3.276,0.762,0.152
1593911992496216,3.314,0.838,0.152
1593911992997432,3.276,0.838,0.152
1593911993498615,3.238,0.838,0.152
1593911993999790,3.314,0.838,0.152
1593911994501013,3.276,0.838,0.152
1593911995002214,3.238,0.838,0.152
1593911995503426,3.314,0.838,0.152
1593911996004620,3.276,0.838,0.152
1593911996505770,3.277,0.838,0.152
1593911997006970,3.314,0.838,0.152
1593911997508282,3.314,0.838,0.152
1593911998009470,3.276,0.838,0.152
1593911998510657,3.619,0.914,0.152
1593911999011909,3.885,0.914,0.152
1593911999515022,3.733,0.838,0.152
1593912000016916,3.809,0.914,0.152
1593912000518130,3.809,0.914,0.152
1593912001019336,3.657,0.838,0.152
1593912001520503,3.619,0.762,0.152
1593912002021689,3.619,0.914,0.152
1593912002522886,3.314,0.838,0.152
1593912003025330,3.428,0.838,0.152
1593912003526555,3.809,0.99,0.152
1593912004027768,3.695,0.838,0.152
1593912004530869,3.657,0.838,0.152
1593912005032171,3.809,0.99,0.152
1593912005533384,3.352,0.838,0.152
1593912006034582,3.314,0.838,0.152
1593912006535826,3.352,0.914,0.152
1593912007037051,3.276,0.838,0.152
1593912007538266,3.238,0.838,0.152
1593912008039466,3.314,0.838,0.152
1593912008540701,3.276,0.838,0.152
1593912009041920,3.238,0.838,0.152
1593912009545185,3.352,0.914,0.152
1593912010046401,3.352,0.914,0.152
1593912010547601,3.276,0.838,0.152
1593912011049466,3.201,0.762,0.152
1593912011550677,3.352,0.838,0.152
1593912012051882,3.238,0.762,0.152
1593912012553054,3.201,0.762,0.152
1593912013054254,3.352,0.914,0.152
1593912013555449,3.239,0.838,0.152
1593912014056641,3.239,0.762,0.152
1593912014559792,3.39,0.914,0.152
1593912015060986,3.239,0.838,0.152
1593912015562148,3.239,0.762,0.152
1593912016063348,3.428,0.914,0.152
1593912016564527,3.238,0.838,0.152
1593912017065674,3.277,0.838,0.152
1593912017566843,3.428,0.914,0.152
1593912018068054,3.276,0.838,0.152
1593912018569229,3.239,0.838,0.152
1593912019070436,3.314,0.914,0.152
1593912019573584,3.276,0.838,0.152
1593912020074783,3.239,0.762,0.152
1593912020575967,3.276,0.838,0.152
1593912021077173,3.314,0.838,0.152
1593912021578366,3.239,0.762,0.152
1593912022079589,3.239,0.762,0.152
1593912022580801,3.314,0.838,0.152
1593912023082000,3.201,0.762,0.152
1593912023583217,3.239,0.762,0.152
1593912024084449,3.352,0.914,0.152
1593912024588067,3.238,0.838,0.152
1593912025089251,3.239,0.762,0.152
1593912025590444,3.352,0.914,0.152
1593912026091660,3.39,0.838,0.152
1593912026592848,3.619,0.838,0.152
1593912027094062,3.771,0.914,0.152
1593912027595257,3.657,0.838,0.152
1593912028096443,3.39,0.838,0.152
1593912028597990,3.428,0.914,0.152
1593912029099199,3.314,0.838,0.152
1593912029602425,3.201,0.762,0.152
1593912030103616,3.276,0.838,0.152
1593912030604839,3.314,0.838,0.152
1593912031106051,3.201,0.762,0.152
1593912031607247,3.314,0.838,0.152
1593912032108497,3.277,0.838,0.152
1593912032609698,3.239,0.762,0.152
1593912033110912,3.314,0.838,0.152
1593912033612122,3.276,0.838,0.152
1593912034113315,3.239,0.762,0.152
1593912034616456,3.314,0.838,0.152
1593912035117699,3.314,0.838,0.152
1593912035618893,3.239,0.838,0.152
1593912036120106,3.314,0.838,0.152
1593912036621338,3.314,0.914,0.152
1593912037122547,3.239,0.838,0.152
1593912037623731,3.314,0.914,0.152
1593912038124933,3.352,0.914,0.152
1593912038626148,3.276,0.838,0.152
1593912039127374,3.277,0.838,0.152
1593912039631002,3.314,0.838,0.152
1593912040132215,3.314,0.838,0.152
1593912040633417,3.201,0.762,0.152
1593912041134620,3.239,0.838,0.152
1593912041635914,3.314,0.838,0.152
1593912042137123,3.201,0.762,0.152
1593912042638325,3.276,0.838,0.152
1593912043139585,3.352,0.838,0.152
1593912043640798,3.239,0.762,0.152
1593912044142048,3.276,0.838,0.152
1593912044645490,3.314,0.914,0.152
1593912045146668,3.239,0.838,0.152
1593912045647879,3.277,0.838,0.152
1593912046149102,3.314,0.838,0.152
1593912046650312,3.239,0.838,0.152
1593912047151508,3.314,0.838,0.152
1593912047652728,3.314,0.914,0.152
1593912048153920,3.277,0.838,0.152
1593912048655116,3.314,0.838,0.152
1593912049156355,3.352,0.914,0.152
1593912049659499,3.276,0.838,0.152
1593912050160724,3.276,0.838,0.152
1593912050662080,3.239,0.762,0.152
1593912051163320,3.314,0.838,0.152
1593912051664535,3.276,0.838,0.152
1593912052165711,3.239,0.838,0.152
1593912052666912,3.314,0.838,0.152
1593912053168145,3.276,0.838,0.152
1593912053669319,3.239,0.838,0.152
1593912054170543,3.314,0.838,0.152
1593912054673866,3.314,0.838,0.152
1593912055175060,3.277,0.838,0.152
1593912055676256,3.276,0.838,0.152
1593912056177493,3.315,0.838,0.152
1593912056678705,3.277,0.838,0.152
1593912057179926,3.314,0.838,0.152
1593912057681111,3.238,0.838,0.152
1593912058182315,3.276,0.838,0.152
1593912058683537,3.314,0.914,0.152
1593912059184715,3.466,0.838,0.152
1593912059687798,3.695,0.838,0.152
1593912060189060,3.695,0.838,0.152
1593912060690291,3.733,0.914,0.152
1593912061191533,3.39,0.838,0.152
1593912061692743,3.277,0.762,0.152
1593912062193959,3.314,0.838,0.152
1593912062695181,3.239,0.838,0.152
1593912063196546,3.238,0.838,0.152
1593912063697770,3.314,0.838,0.152
1593912064199001,3.276,0.838,0.152
1593912064702260,3.239,0.838,0.152
1593912065203487,3.314,0.838,0.152
1593912065704701,3.276,0.838,0.152
1593912066205891,3.276,0.838,0.152
1593912066707073,3.314,0.838,0.152
1593912067208290,3.314,0.838,0.152
1593912067709504,3.277,0.838,0.152
1593912068210744,3.314,0.914,0.152
1593912068711973,3.314,0.914,0.152
1593912069213178,3.277,0.838,0.152
1593912069716280,3.352,0.914,0.152
1593912070217507,3.352,0.914,0.152
1593912070718703,3.276,0.838,0.152
1593912071220298,3.239,0.762,0.152
1593912071721527,3.39,0.914,0.152
1593912072222733,3.239,0.838,0.152
1593912072723899,3.239,0.762,0.152
1593912073225122,3.39,0.914,0.152
1593912073726332,3.239,0.838,0.152
1593912074227534,3.239,0.762,0.152
1593912074731209,3.352,0.838,0.152
1593912075232443,3.239,0.838,0.152
1593912075733641,3.239,0.838,0.152
1593912076234850,3.314,0.838,0.152
1593912076736090,3.238,0.838,0.152
1593912077237292,3.239,0.838,0.152
1593912077738489,3.314,0.838,0.152
1593912078239725,3.276,0.838,0.152
1593912078740933,3.238,0.762,0.152
1593912079242152,3.314,0.838,0.152
1593912079745653,3.314,0.838,0.152
1593912080246841,3.201,0.762,0.152
1593912080748072,3.315,0.838,0.152
1593912081249284,3.352,0.838,0.152
1593912081750484,3.201,0.762,0.152
1593912082251680,3.239,0.762,0.152
1593912082752886,3.352,0.838,0.152
1593912083254130,3.239,0.838,0.152
1593912083755334,3.239,0.762,0.152
1593912084256553,3.352,0.914,0.152
1593912084759742,3.239,0.762,0.152
1593912085260922,3.239,0.762,0.152
1593912085762132,3.314,0.914,0.152
1593912086263335,3.238,0.762,0.152
1593912086764513,3.239,0.762,0.152
1593912087265710,3.352,0.914,0.152
1593912087766905,3.277,0.838,0.152
1593912088268077,3.239,0.762,0.152
1593912088769288,3.39,0.914,0.152
1593912089270479,3.276,0.838,0.152
1593912089773596,3.277,0.838,0.152
1593912090274947,3.314,0.914,0.152
1593912090776181,3.314,0.838,0.152
1593912091277365,3.239,0.762,0.152
1593912091778551,3.201,0.762,0.152
1593912092279748,3.314,0.838,0.152
1593912092780942,3.239,0.762,0.152
1593912093282106,3.201,0.762,0.152
1593912093783332,3.352,0.914,0.152
1593912094284528,3.239,0.762,0.152
1593912094787659,3.239,0.762,0.152
1593912095288856,3.39,0.914,0.152
1593912095790062,3.239,0.838,0.152
1593912096291235,3.201,0.762,0.152
1593912096792433,3.39,0.914,0.152
1593912097293625,3.238,0.762,0.152
1593912097794811,3.239,0.762,0.152
1593912098296004,3.428,0.914,0.152
1593912098797223,3.238,0.838,0.152
1593912099298398,3.239,0.762,0.152
1593912099801914,3.314,0.914,0.152
1593912100303125,3.276,0.838,0.152
1593912100804314,3.238,0.762,0.152
1593912101305527,3.277,0.838,0.152
1593912101806763,3.314,0.838,0.152
1593912102307967,3.466,0.838,0.152
1593912102809181,3.695,0.838,0.152
1593912103310407,3.771,0.914,0.152
1593912103811645,3.581,0.838,0.152
1593912104312884,3.39,0.914,0.152
1593912104816090,3.39,0.914,0.152
1593912105317293,3.239,0.762,0.152
1593912105818460,3.314,0.838,0.152
1593912106319705,3.352,0.914,0.152
1593912106820888,3.239,0.762,0.152
1593912107322128,3.277,0.838,0.152
1593912107823346,3.39,0.914,0.152
1593912108324542,3.239,0.838,0.152
1593912108825706,3.239,0.762,0.152
1593912109326871,3.39,0.914,0.152
1593912109828086,3.238,0.838,0.152
1593912110329277,3.239,0.762,0.152
1593912110830499,3.239,0.838,0.152
1593912111331707,3.276,0.838,0.152
1593912111832913,3.276,0.838,0.152
1593912112334126,3.238,0.838,0.152
1593912112835360,3.276,0.838,0.152
1593912113336567,3.238,0.838,0.152
1593912113837777,3.238,0.838,0.152
1593912114338999,3.314,0.914,0.152
1593912114842292,3.239,0.838,0.152
1593912115343517,3.277,0.838,0.152
1593912115844723,3.352,0.914,0.152
1593912116345914,3.239,0.838,0.152
1593912116847128,3.276,0.838,0.152
1593912117348341,3.352,0.914,0.152
1593912117849533,3.239,0.762,0.152
1593912118350729,3.314,0.838,0.152
1593912118851954,3.39,0.914,0.152
1593912119353148,3.239,0.838,0.152
1593912119856289,3.314,0.838,0.152
1593912120357526,3.276,0.838,0.152
1593912120858751,3.238,0.838,0.152
1593912121359984,3.314,0.838,0.152
1593912121861199,3.201,0.762,0.152
1593912122362417,3.276,0.838,0.152
1593912122863629,3.352,0.838,0.152
1593912123364852,3.239,0.838,0.152
1593912123866087,3.314,0.838,0.152
1593912124367444,3.314,0.838,0.152
1593912124870721,3.239,0.762,0.152
1593912125371944,3.314,0.838,0.152
1593912125873129,3.201,0.838,0.152
1593912126374338,3.239,0.838,0.152
1593912126875549,3.314,0.838,0.152
1593912127376794,3.201,0.762,0.152
1593912127878020,3.238,0.838,0.152
1593912128379240,3.352,0.914,0.152
1593912128880435,3.201,0.762,0.152
1593912129381622,3.276,0.838,0.152
1593912129884742,3.39,0.914,0.152
1593912130385956,3.276,0.838,0.152
1593912130887180,3.276,0.838,0.152
1593912131388466,3.239,0.838,0.152
1593912131889700,3.276,0.838,0.152
1593912132390917,3.352,0.838,0.152
1593912132892107,3.239,0.838,0.152
1593912133393303,3.276,0.838,0.152
1593912133894515,3.314,0.838,0.152
1593912134395714,3.239,0.838,0.152
1593912134898830,3.314,0.914,0.152
1593912135400077,3.352,0.914,0.152
1593912135901277,3.277,0.838,0.152
1593912136402490,3.314,0.838,0.152
1593912136903719,3.352,0.838,0.152
1593912137404926,3.239,0.762,0.152
1593912137906136,3.314,0.914,0.152
1593912138407391,3.352,0.914,0.152
1593912138908622,3.239,0.762,0.152
1593912139409859,3.352,0.914,0.152
1593912139913178,3.39,0.914,0.152
1593912140414376,3.239,0.762,0.152
1593912140915581,3.352,0.914,0.152
1593912141417154,3.352,0.914,0.152
1593912141918360,3.239,0.838,0.152
1593912142419594,3.239,0.838,0.152
1593912142920823,3.276,0.838,0.152
1593912143422057,3.277,0.838,0.152
1593912143923250,3.277,0.838,0.152
1593912144424425,3.276,0.838,0.152
1593912144927732,3.277,0.838,0.152
1593912145428924,3.238,0.762,0.152
1593912145930116,3.276,0.838,0.152
1593912146431335,3.276,0.838,0.152
1593912146932540,3.238,0.838,0.152
1593912147433758,3.276,0.838,0.152
1593912147934987,3.314,0.838,0.152
1593912148436192,3.276,0.762,0.152
1593912148937394,3.314,0.838,0.152
1593912149438623,3.314,0.838,0.152
1593912149941771,3.238,0.762,0.152
1593912150442973,3.352,0.914,0.152
1593912150944293,3.314,0.838,0.152
1593912151445507,3.2,0.762,0.152
1593912151947012,3.239,0.838,0.152
1593912152448232,3.352,0.914,0.152
1593912152949474,3.201,0.762,0.152
1593912153450647,3.201,0.762,0.152
1593912153951866,3.352,0.914,0.152
1593912154453059,3.201,0.838,0.152
1593912154956174,3.239,0.762,0.152
1593912155457373,3.695,0.914,0.152
1593912155958555,3.657,0.838,0.152
1593912156459724,3.657,0.838,0.152
1593912156960913,3.695,0.99,0.152
1593912157462108,3.314,0.838,0.152
1593912157963273,3.276,0.838,0.152
1593912158464493,3.428,0.99,0.152
1593912158965691,3.276,0.838,0.152
1593912159466872,3.239,0.838,0.152
1593912159970127,3.352,0.914,0.152
1593912160471358,3.276,0.838,0.152
1593912160972556,3.239,0.838,0.152
1593912161473759,3.239,0.838,0.152
1593912161974977,3.314,0.838,0.152
1593912162476176,3.277,0.838,0.152
1593912162977348,3.201,0.762,0.152
1593912163478578,3.352,0.914,0.152
1593912163979779,3.276,0.838,0.152
1593912164480950,3.201,0.762,0.152
1593912164984045,3.352,0.914,0.152
1593912165485234,3.276,0.838,0.152
1593912165986399,3.201,0.762,0.152
1593912166487577,3.39,0.914,0.152
1593912166988776,3.239,0.838,0.152
1593912167489953,3.201,0.762,0.152
1593912167991192,3.428,0.99,0.152
1593912168492400,3.239,0.838,0.152
1593912168993534,3.239,0.838,0.152
1593912169495131,3.428,0.914,0.152
1593912169996324,3.277,0.838,0.152
1593912170497520,3.239,0.762,0.152
1593912170998718,3.314,0.838,0.152
1593912171499936,3.277,0.838,0.152
1593912172001140,3.239,0.838,0.152
1593912172502348,3.352,0.838,0.152
1593912173003559,3.276,0.838,0.152
1593912173504745,3.276,0.838,0.152
1593912174005937,3.314,0.838,0.152
1593912174507296,3.314,0.838,0.152
1593912175010788,3.276,0.838,0.152
1593912175512044,3.239,0.838,0.152
1593912176013277,3.314,0.838,0.152
1593912176514468,3.239,0.762,0.152
1593912177015677,3.239,0.762,0.152
1593912177516869,3.39,0.914,0.152
1593912178018057,3.276,0.838,0.152
1593912178519228,3.239,0.762,0.152
1593912179020472,3.428,0.914,0.152
1593912179521668,3.314,0.838,0.152
1593912180025139,3.277,0.838,0.152
1593912180526371,3.353,0.914,0.152
1593912181027593,3.352,0.838,0.152
1593912181528780,3.276,0.838,0.152
1593912182029965,3.314,0.838,0.152
1593912182531201,3.352,0.914,0.152
1593912183032399,3.239,0.838,0.152
1593912183533594,3.314,0.838,0.152
1593912184034828,3.352,0.914,0.152
1593912184536040,3.239,0.838,0.152
1593912185039271,3.276,0.838,0.152
1593912185540622,3.352,0.914,0.152
1593912186041822,3.201,0.762,0.152
1593912186543023,3.276,0.838,0.152
1593912187044238,3.352,0.914,0.152
1593912187545416,3.239,0.762,0.152
1593912188046617,3.314,0.838,0.152
1593912188547931,3.39,0.914,0.152
1593912189049124,3.238,0.838,0.152
1593912189550356,3.314,0.838,0.152
1593912190053849,3.39,0.914,0.152
1593912190555077,3.276,0.838,0.152
1593912191056261,3.352,0.914,0.152
1593912191557462,3.239,0.838,0.152
1593912192058658,3.276,0.838,0.152
1593912192559956,3.315,0.838,0.152
1593912193061179,3.239,0.762,0.152
1593912193562408,3.276,0.838,0.152
1593912194063672,3.276,0.838,0.152
1593912194564878,3.239,0.762,0.152
1593912195068104,3.314,0.838,0.152
1593912195569271,3.276,0.838,0.152
1593912196070464,3.239,0.838,0.152
1593912196571698,3.352,0.914,0.152
1593912197072901,3.276,0.838,0.152
1593912197574119,3.239,0.838,0.152
1593912198075351,3.352,0.914,0.152
1593912198576550,3.239,0.838,0.152
1593912199077763,3.277,0.838,0.152
1593912199578957,3.39,0.914,0.152
1593912200080151,3.239,0.838,0.152
1593912200581346,3.277,0.838,0.152
1593912201082570,3.277,0.838,0.152
1593912201583791,3.239,0.838,0.152
1593912202085000,3.276,0.838,0.152
1593912202586196,3.238,0.838,0.152
1593912203087404,3.239,0.838,0.152
1593912203588631,3.314,0.838,0.152
1593912204089849,3.276,0.762,0.152
1593912204591031,3.314,0.838,0.152
1593912205094309,3.314,0.914,0.152
1593912205595564,3.276,0.838,0.152
1593912206096773,3.276,0.838,0.152
1593912206598000,3.352,0.914,0.152
1593912207099207,3.276,0.838,0.152
1593912207600408,3.314,0.838,0.152
1593912208101613,3.352,0.914,0.152
1593912208602821,3.239,0.838,0.152
1593912209104102,3.352,0.914,0.152
1593912209605329,3.315,0.838,0.152
1593912210108661,3.239,0.838,0.152
1593912210609886,3.314,0.838,0.152
1593912211111095,3.276,0.838,0.152
1593912211612340,3.239,0.838,0.152
1593912212113543,3.201,0.762,0.152
1593912212614748,3.276,0.838,0.152
1593912213115984,3.239,0.838,0.152
1593912213617174,3.239,0.838,0.152
1593912214118358,3.314,0.838,0.152
1593912214619598,3.277,0.838,0.152
1593912215122731,3.239,0.838,0.152
1593912215623933,3.314,0.838,0.152
1593912216125165,3.276,0.838,0.152
1593912216626347,3.238,0.838,0.152
1593912217127543,3.314,0.838,0.152
1593912217628761,3.276,0.838,0.152
1593912218129967,3.428,0.838,0.152
1593912218631172,3.695,0.914,0.152
1593912219132386,3.733,0.838,0.152
1593912219635050,3.733,0.914,0.152
1593912220138138,3.504,0.914,0.152
1593912220639363,3.39,0.914,0.152
1593912221140561,3.315,0.838,0.152
1593912221642046,3.239,0.838,0.152
1593912222143279,3.352,0.914,0.152
1593912222644573,3.276,0.838,0.152
1593912223145761,3.201,0.762,0.152
1593912223646958,3.39,0.914,0.152
1593912224148179,3.276,0.838,0.152
1593912224649349,3.201,0.762,0.152
1593912225152460,3.39,0.914,0.152
1593912225653649,3.239,0.838,0.152
1593912226154805,3.239,0.762,0.152
1593912226656116,3.39,0.914,0.152
1593912227157332,3.239,0.838,0.152
1593912227658516,3.239,0.762,0.152
1593912228160295,3.352,0.914,0.152
1593912228661523,3.238,0.838,0.152
1593912229162727,3.239,0.762,0.152
1593912229663929,3.39,0.914,0.152
1593912230167171,3.276,0.838,0.152
1593912230668393,3.239,0.838,0.152
1593912231169601,3.352,0.838,0.152
1593912231670823,3.276,0.838,0.152
1593912232172031,3.239,0.838,0.152
1593912232673217,3.201,0.762,0.152
1593912233174422,3.276,0.838,0.152
1593912233675639,3.276,0.838,0.152
1593912234176808,3.201,0.762,0.152
1593912234677998,3.314,0.914,0.152
1593912235181138,3.276,0.838,0.152
1593912235682340,3.201,0.762,0.152
1593912236183557,3.352,0.914,0.152
1593912236684739,3.277,0.838,0.152
1593912237185927,3.201,0.762,0.152
1593912237687125,3.428,0.99,0.152
1593912238188488,3.314,0.838,0.152
1593912238689660,3.201,0.762,0.152
1593912239191078,3.466,0.99,0.152
1593912239692287,3.314,0.838,0.152
1593912240195448,3.239,0.762,0.152
1593912240696683,3.314,0.838,0.152
1593912241197907,3.276,0.838,0.152
1593912241699095,3.238,0.762,0.152
1593912242200278,3.314,0.914,0.152
1593912242701504,3.276,0.838,0.152
1593912243202706,3.239,0.762,0.152
1593912243703922,3.276,0.838,0.152
1593912244205138,3.314,0.838,0.152
1593912244706329,3.239,0.838,0.152
1593912245209755,3.239,0.838,0.152
1593912245710939,3.314,0.838,0.152
1593912246212135,3.277,0.838,0.152
1593912246713302,3.238,0.762,0.152
1593912247214505,3.352,0.914,0.152
1593912247715716,3.277,0.838,0.152
1593912248216917,3.239,0.762,0.152
1593912248718096,3.39,0.914,0.152
1593912249219325,3.277,0.838,0.152
1593912249720508,3.239,0.762,0.152
1593912250224709,3.352,0.914,0.152
1593912250725942,3.314,0.838,0.152
1593912251227129,3.201,0.762,0.152
1593912251728313,3.276,0.838,0.152
1593912252229547,3.314,0.838,0.152
1593912252730746,3.201,0.762,0.152
1593912253231945,3.276,0.838,0.152
1593912253733187,3.314,0.838,0.152
1593912254234372,3.239,0.762,0.152
1593912254735575,3.314,0.838,0.152
1593912255238878,3.276,0.838,0.152
1593912255740077,3.201,0.762,0.152
1593912256241293,3.314,0.838,0.152
1593912256742522,3.352,0.914,0.152
1593912257243710,3.276,0.838,0.152
1593912257744913,3.352,0.914,0.152
1593912258246103,3.39,0.914,0.152
1593912258747283,3.277,0.838,0.152
1593912259248481,3.352,0.914,0.152
1593912259749742,3.39,0.914,0.152
1593912260250948,3.276,0.838,0.152
1593912260752177,3.315,0.838,0.152
1593912261253964,3.238,0.838,0.152
1593912261755174,3.277,0.838,0.152
1593912262256376,3.276,0.838,0.152
1593912262757586,3.239,0.762,0.152
1593912263258814,3.314,0.838,0.152
1593912263760036,3.276,0.838,0.152
1593912264261247,3.239,0.838,0.152
1593912264762490,3.314,0.838,0.152
1593912265265631,3.239,0.762,0.152
1593912265766844,3.239,0.838,0.152
1593912266268090,3.352,0.838,0.152
1593912266769289,3.238,0.762,0.152
1593912267270498,3.277,0.838,0.152
1593912267771731,3.352,0.914,0.152
1593912268272925,3.239,0.838,0.152
1593912268774140,3.314,0.838,0.152
1593912269275517,3.39,0.914,0.152
1593912269776725,3.277,0.838,0.152
1593912270279897,3.276,0.838,0.152
1593912270781131,3.314,0.838,0.152
1593912271282355,3.239,0.838,0.152
1593912271783587,3.276,0.838,0.152
1593912272284793,3.239,0.762,0.152
1593912272785970,3.276,0.838,0.152
1593912273287203,3.314,0.838,0.152
1593912273788402,3.239,0.762,0.152
1593912274289613,3.276,0.838,0.152
1593912274790840,3.314,0.838,0.152
1593912275294143,3.239,0.762,0.152
1593912275795361,3.314,0.838,0.152
1593912276296549,3.314,0.838,0.152
1593912276797726,3.239,0.838,0.152
1593912277298923,3.276,0.838,0.152
1593912277800200,3.277,0.838,0.152
1593912278301430,3.277,0.838,0.152
1593912278802662,3.314,0.838,0.152
1593912279303855,3.239,0.838,0.152
1593912279805072,3.239,0.838,0.152
1593912280308686,3.352,0.914,0.152
1593912280809886,3.277,0.838,0.152
1593912281311075,3.504,0.838,0.152
1593912281812607,3.619,0.838,0.152
1593912282313816,3.695,0.838,0.152
1593912282815042,3.619,0.914,0.152
1593912283316261,3.352,0.838,0.152
1593912283817478,3.352,0.838,0.152
1593912284318715,3.277,0.838,0.152
1593912284819916,3.239,0.838,0.152
1593912285323373,3.314,0.838,0.152
1593912285824605,3.277,0.838,0.152
1593912286325802,3.239,0.838,0.152
1593912286827005,3.276,0.838,0.152
1593912287328266,3.277,0.838,0.152
1593912287829463,3.239,0.838,0.152
1593912288330669,3.314,0.838,0.152
1593912288831962,3.314,0.838,0.152
1593912289333151,3.277,0.838,0.152
1593912289834389,3.314,0.914,0.152
1593912290337652,3.314,0.838,0.152
1593912290838867,3.276,0.838,0.152
1593912291340343,3.277,0.838,0.152
1593912291841556,3.352,0.914,0.152
1593912292342755,3.276,0.838,0.152
1593912292843938,3.201,0.762,0.152
1593912293345124,3.352,0.914,0.152
1593912293846322,3.276,0.838,0.152
1593912294347496,3.201,0.762,0.152
1593912294849257,3.39,0.914,0.152
1593912295350469,3.277,0.838,0.152
1593912295851669,3.201,0.762,0.152
1593912296352891,3.314,0.838,0.152
1593912296854118,3.239,0.838,0.152
1593912297355347,3.201,0.762,0.152
1593912297856524,3.352,0.838,0.152
1593912298357772,3.277,0.838,0.152
1593912298858984,3.239,0.762,0.152
1593912299360272,3.352,0.914,0.152
1593912299861499,3.277,0.838,0.152
1593912300364706,3.239,0.838,0.152
1593912300865887,3.39,0.914,0.152
1593912301367115,3.276,0.838,0.152
1593912301868312,3.239,0.838,0.152
1593912302369521,3.239,0.762,0.152
1593912302870726,3.276,0.838,0.152
1593912303371947,3.276,0.838,0.152
1593912303873142,3.201,0.762,0.152
1593912304374335,3.314,0.838,0.152
1593912304875546,3.277,0.838,0.152
1593912305378752,3.201,0.762,0.152
1593912305879950,3.352,0.914,0.152
1593912306381126,3.276,0.838,0.152
1593912306882240,3.201,0.762,0.152
1593912307383444,3.39,0.914,0.152
1593912307884635,3.276,0.838,0.152
1593912308385813,3.201,0.762,0.152
1593912308887025,3.428,0.914,0.152
1593912309388227,3.314,0.838,0.152
1593912309889405,3.239,0.838,0.152
1593912310392893,3.39,0.914,0.152
1593912310894114,3.314,0.838,0.152
1593912311395324,3.201,0.762,0.152
1593912311896537,3.238,0.838,0.152
1593912312397749,3.314,0.838,0.152
1593912312898935,3.201,0.762,0.152
1593912313400114,3.239,0.762,0.152
1593912313901347,3.314,0.838,0.152
1593912314402527,3.239,0.762,0.152
1593912314903715,3.239,0.762,0.152
1593912315406946,3.314,0.838,0.152
1593912315908131,3.239,0.838,0.152
1593912316409295,3.239,0.762,0.152
1593912316910536,3.314,0.914,0.152
1593912317411788,3.238,0.838,0.152
1593912317912970,3.239,0.762,0.152
1593912318414173,3.352,0.914,0.152
1593912318915372,3.277,0.838,0.152
1593912319416549,3.239,0.762,0.152
1593912319918172,3.352,0.914,0.152
1593912320421320,3.276,0.838,0.152
1593912320922514,3.238,0.762,0.152
1593912321423711,3.238,0.838,0.152
1593912321924929,3.276,0.838,0.152
1593912322426122,3.239,0.762,0.152
1593912322927358,3.276,0.838,0.152
1593912323428596,3.314,0.838,0.152
1593912323929806,3.201,0.762,0.152
1593912324431011,3.276,0.838,0.152
1593912324932247,3.352,0.838,0.152
1593912325435381,3.239,0.762,0.152
1593912325936593,3.314,0.838,0.152
1593912326437805,3.352,0.838,0.152
1593912326939001,3.239,0.762,0.152
1593912327440225,3.314,0.838,0.152
1593912327941438,3.39,0.914,0.152
1593912328442629,3.239,0.762,0.152
1593912328943927,3.277,0.838,0.152
1593912329445115,3.39,0.914,0.152
1593912329946302,3.239,0.838,0.152
1593912330449532,3.239,0.838,0.152
1593912330951020,3.352,0.914,0.152
1593912331452252,3.314,0.838,0.152
1593912331953441,3.276,0.838,0.152
1593912332454638,3.314,0.838,0.152
1593912332955861,3.314,0.838,0.152
1593912333457060,3.276,0.838,0.152
1593912333958271,3.314,0.838,0.152
1593912334459620,3.314,0.914,0.152
1593912334960808,3.277,0.838,0.152
1593912335464048,3.315,0.838,0.152
1593912335965274,3.315,0.838,0.152
1593912336466464,3.239,0.762,0.152
1593912336967663,3.276,0.838,0.152
1593912337468869,3.314,0.838,0.152
1593912337970054,3.239,0.838,0.152
1593912338471262,3.314,0.838,0.152
1593912338972592,3.314,0.914,0.152
1593912339473798,3.239,0.838,0.152
1593912339974998,3.314,0.838,0.152
1593912340478203,3.352,0.914,0.152
1593912340979404,3.238,0.838,0.152
1593912341480613,3.314,0.838,0.152
1593912341981860,3.201,0.762,0.152
1593912342483062,3.276,0.838,0.152
1593912342984318,3.314,0.838,0.152
1593912343485561,3.239,0.762,0.152
1593912343986782,3.352,0.838,0.152
1593912344487971,3.619,0.838,0.152
1593912344989154,3.657,0.838,0.152
1593912345492403,3.733,0.838,0.152
1593912345993639,3.542,0.914,0.152
1593912346494834,3.314,0.838,0.152
1593912346996044,3.352,0.838,0.152
1593912347497243,3.239,0.762,0.152
1593912347998458,3.239,0.762,0.152
1593912348499693,3.352,0.914,0.152
1593912349000878,3.201,0.762,0.152
1593912349502073,3.239,0.838,0.152
1593912350003261,3.39,0.914,0.152
1593912350506348,3.238,0.762,0.152
1593912351007561,3.276,0.838,0.152
1593912351508808,3.314,0.838,0.152
1593912352010010,3.239,0.762,0.152
1593912352511225,3.277,0.838,0.152
1593912353012416,3.239,0.762,0.152
1593912353513609,3.238,0.838,0.152
1593912354014825,3.276,0.838,0.152
1593912354516036,3.201,0.762,0.152
1593912355017245,3.276,0.838,0.152
1593912355520486,3.314,0.838,0.152
1593912356021681,3.201,0.762,0.152
1593912356522875,3.314,0.838,0.152
1593912357024099,3.314,0.838,0.152
1593912357525290,3.239,0.762,0.152
1593912358026481,3.314,0.838,0.152
1593912358527696,3.352,0.838,0.152
1593912359028877,3.201,0.762,0.152
1593912359530055,3.352,0.914,0.152
1593912360031279,3.352,0.838,0.152
1593912360534486,3.239,0.762,0.152
1593912361035776,3.352,0.914,0.152
1593912361537002,3.352,0.914,0.152
1593912362038197,3.239,0.762,0.152
1593912362539413,3.239,0.838,0.152
1593912363040597,3.352,0.914,0.152
1593912363541799,3.239,0.838,0.152
1593912364042987,3.238,0.838,0.152
1593912364544242,3.277,0.838,0.152
1593912365045656,3.239,0.838,0.152
1593912365548875,3.277,0.838,0.152
1593912366050080,3.314,0.838,0.152
1593912366551297,3.314,0.838,0.152
1593912367052540,3.276,0.838,0.152
1593912367553855,3.352,0.914,0.152
1593912368055083,3.314,0.838,0.152
1593912368556268,3.277,0.838,0.152
1593912369057473,3.39,0.914,0.152
1593912369558707,3.314,0.914,0.152
1593912370059951,3.314,0.838,0.152
1593912370563295,3.428,0.914,0.152
1593912371064536,3.352,0.914,0.152
1593912371565730,3.277,0.838,0.152
1593912372067057,3.352,0.914,0.152
1593912372568275,3.39,0.914,0.152
1593912373069488,3.277,0.838,0.152
1593912373570657,3.276,0.838,0.152
1593912374071868,3.39,0.914,0.152
1593912374573063,3.276,0.838,0.152
1593912375074244,3.239,0.838,0.152
1593912375577394,3.428,0.914,0.152
1593912376078597,3.276,0.838,0.152
1593912376579767,3.276,0.838,0.152
1593912377080992,3.428,0.914,0.152
1593912377582216,3.276,0.838,0.152
1593912378083402,3.277,0.838,0.152
1593912378584608,3.466,0.99,0.152
1593912379085820,3.352,0.838,0.152
1593912379586996,3.277,0.838,0.152
1593912380088214,3.466,0.99,0.152
1593912380591503,3.352,0.838,0.152
1593912381092684,3.276,0.838,0.152
1593912381593904,3.428,0.99,0.152
1593912382095126,3.352,0.914,0.152
1593912382596353,3.276,0.838,0.152
1593912383097533,3.239,0.838,0.152
1593912383598745,3.352,0.914,0.152
1593912384099949,3.276,0.838,0.152
1593912384601139,3.239,0.838,0.152
1593912385102352,3.352,0.914,0.152
1593912385605499,3.314,0.838,0.152
1593912386106675,3.201,0.762,0.152
1593912386607858,3.352,0.914,0.152
1593912387109050,3.238,0.838,0.152
1593912387610237,3.201,0.762,0.152
1593912388111562,3.39,0.914,0.152
1593912388612762,3.239,0.838,0.152
1593912389113946,3.201,0.762,0.152
1593912389615135,3.428,0.914,0.152
1593912390116342,3.238,0.838,0.152
1593912390619835,3.239,0.762,0.152
1593912391121455,3.39,0.914,0.152
1593912391622664,3.239,0.838,0.152
1593912392123933,3.238,0.762,0.152
1593912392625159,3.314,0.838,0.152
1593912393126387,3.276,0.838,0.152
1593912393627600,3.239,0.838,0.152
1593912394128796,3.314,0.838,0.152
1593912394630045,3.276,0.838,0.152
1593912395131241,3.238,0.838,0.152
1593912395634428,3.314,0.838,0.152
1593912396135678,3.314,0.838,0.152
1593912396636865,3.277,0.838,0.152
1593912397138097,3.277,0.838,0.152
1593912397639398,3.314,0.914,0.152
1593912398140612,3.276,0.838,0.152
1593912398641788,3.201,0.762,0.152
1593912399142998,3.352,0.914,0.152
1593912399644208,3.276,0.838,0.152
1593912400145363,3.201,0.762,0.152
1593912400648546,3.39,0.914,0.152
1593912401149743,3.314,0.838,0.152
1593912401650912,3.201,0.762,0.152
1593912402152411,3.277,0.838,0.152
1593912402653625,3.276,0.838,0.152
1593912403154825,3.201,0.762,0.152
1593912403656096,3.314,0.838,0.152
1593912404157317,3.277,0.838,0.152
1593912404658520,3.239,0.762,0.152
1593912405159730,3.276,0.838,0.152
1593912405662970,3.277,0.838,0.152
1593912406164259,3.239,0.762,0.152
1593912406665457,3.314,0.838,0.152
1593912407166659,3.466,0.838,0.152
1593912407667850,3.619,0.838,0.152
1593912408169089,3.733,0.838,0.152
1593912408670408,3.771,0.914,0.152
1593912409171635,3.428,0.838,0.152
1593912409672860,3.39,0.914,0.152
1593912410174077,3.352,0.914,0.152
1593912410677275,3.276,0.838,0.152
1593912411178494,3.314,0.838,0.152
1593912411679729,3.314,0.838,0.152
1593912412180953,3.276,0.838,0.152
1593912412682214,3.314,0.838,0.152
1593912413183406,3.239,0.838,0.152
1593912413684602,3.314,0.838,0.152
1593912414185839,3.277,0.838,0.152
1593912414687052,3.239,0.838,0.152
1593912415188274,3.314,0.838,0.152
1593912415691505,3.239,0.762,0.152
1593912416192724,3.276,0.838,0.152
1593912416693944,3.314,0.838,0.152
1593912417195141,3.2,0.762,0.152
1593912417696339,3.277,0.838,0.152
1593912418197552,3.352,0.838,0.152
1593912418698752,3.239,0.762,0.152
1593912419199948,3.276,0.838,0.152
1593912419701157,3.352,0.914,0.152
1593912420202370,3.239,0.838,0.152
1593912420705533,3.314,0.838,0.152
1593912421206728,3.352,0.914,0.152
1593912421707927,3.238,0.838,0.152
1593912422209127,3.276,0.838,0.152
1593912422710630,3.239,0.838,0.152
1593912423211929,3.276,0.838,0.152
1593912423713158,3.314,0.838,0.152
1593912424214368,3.201,0.762,0.152
1593912424715566,3.276,0.838,0.152
1593912425216789,3.314,0.838,0.152
1593912425720128,3.201,0.762,0.152
1593912426221323,3.314,0.838,0.152
1593912426722545,3.276,0.838,0.152
1593912427223745,3.239,0.838,0.152
1593912427724922,3.314,0.838,0.152
1593912428226153,3.276,0.838,0.152
1593912428727371,3.238,0.838,0.152
1593912429228547,3.314,0.838,0.152
1593912429729776,3.314,0.838,0.152
1593912430230999,3.276,0.838,0.152
1593912430734189,3.352,0.914,0.152
1593912431235431,3.352,0.914,0.152
1593912431736598,3.277,0.838,0.152
1593912432238367,3.315,0.838,0.152
1593912432739609,3.276,0.838,0.152
1593912433240856,3.277,0.838,0.152
1593912433742050,3.201,0.762,0.152
1593912434243256,3.276,0.838,0.152
1593912434744572,3.314,0.838,0.152
1593912435245765,3.201,0.762,0.152
1593912435749048,3.276,0.838,0.152
1593912436250279,3.314,0.838,0.152
1593912436751525,3.201,0.762,0.152
1593912437252712,3.314,0.838,0.152
1593912437753945,3.277,0.838,0.152
1593912438255168,3.2,0.762,0.152
1593912438756454,3.314,0.838,0.152
1593912439257670,3.276,0.838,0.152
1593912439758878,3.239,0.762,0.152
1593912440260079,3.352,0.914,0.152
1593912440763219,3.276,0.838,0.152
1593912441264384,3.239,0.838,0.152
1593912441765559,3.39,0.914,0.152
1593912442266772,3.276,0.838,0.152
1593912442767959,3.239,0.838,0.152
1593912443269166,3.277,0.838,0.152
1593912443770398,3.314,0.838,0.152
1593912444271597,3.277,0.838,0.152
1593912444772773,3.239,0.762,0.152
1593912445273988,3.352,0.838,0.152
1593912445777218,3.277,0.838,0.152
1593912446278404,3.201,0.762,0.152
1593912446779661,3.352,0.914,0.152
1593912447280925,3.276,0.838,0.152
1593912447782105,3.276,0.838,0.152
1593912448283276,3.428,0.99,0.152
1593912448784596,3.314,0.838,0.152
1593912449285794,3.276,0.838,0.152
1593912449787033,3.39,0.914,0.152
1593912450288259,3.314,0.838,0.152
1593912450791491,3.276,0.838,0.152
1593912451292682,3.39,0.914,0.152
1593912451793906,3.314,0.838,0.152
1593912452295085,3.276,0.838,0.152
1593912452796377,3.352,0.914,0.152
1593912453297598,3.314,0.914,0.152
1593912453798794,3.277,0.838,0.152
1593912454299953,3.276,0.838,0.152
1593912454801142,3.352,0.914,0.152
1593912455302341,3.276,0.838,0.152
1593912455805472,3.276,0.838,0.152
1593912456306668,3.314,0.838,0.152
1593912456807885,3.238,0.838,0.152
1593912457309056,3.238,0.762,0.152
1593912457810261,3.352,0.914,0.152
1593912458311443,3.277,0.838,0.152
1593912458812612,3.201,0.762,0.152
1593912459313805,3.39,0.914,0.152
1593912459815010,3.276,0.838,0.152
1593912460316253,3.201,0.762,0.152
1593912460819397,3.428,0.99,0.152
1593912461320610,3.276,0.838,0.152
1593912461821800,3.201,0.762,0.152
1593912462323022,3.314,0.838,0.152
1593912462824248,3.314,0.838,0.152
1593912463325425,3.201,0.762,0.152
1593912463826614,3.314,0.838,0.152
1593912464327852,3.352,0.838,0.152
1593912464829041,3.201,0.762,0.152
1593912465330254,3.314,0.838,0.152
1593912465833402,3.314,0.838,0.152
1593912466334595,3.239,0.838,0.152
1593912466835763,3.239,0.762,0.152
1593912467336969,3.314,0.838,0.152
1593912467838184,3.239,0.838,0.152
1593912468339337,3.239,0.838,0.152
1593912468840542,3.352,0.914,0.152
1593912469341735,3.238,0.838,0.152
1593912469842906,3.239,0.762,0.152
1593912470344084,3.695,0.914,0.152
1593912470847344,3.695,0.838,0.152
1593912471348531,3.695,0.838,0.152
1593912471849740,3.695,0.99,0.152
1593912472350948,3.39,0.838,0.152
1593912472852152,3.276,0.838,0.152
1593912473353344,3.239,0.838,0.152
1593912473854565,3.314,0.838,0.152
1593912474355762,3.239,0.762,0.152
1593912474856954,3.277,0.838,0.152
1593912475358181,3.314,0.838,0.152
1593912475861295,3.239,0.762,0.152
1593912476362503,3.276,0.838,0.152
1593912476863782,3.352,0.838,0.152
1593912477364992,3.238,0.838,0.152
1593912477866178,3.276,0.838,0.152
1593912478367399,3.352,0.914,0.152
1593912478868591,3.239,0.762,0.152
1593912479369796,3.314,0.838,0.152
1593912479871029,3.39,0.914,0.152
1593912480372257,3.239,0.838,0.152
1593912480875408,3.314,0.838,0.152
1593912481376597,3.39,0.914,0.152
1593912481877801,3.239,0.838,0.152
1593912482379019,3.314,0.838,0.152
1593912482880312,3.239,0.838,0.152
1593912483381510,3.276,0.838,0.152
1593912483882702,3.239,0.838,0.152
1593912484383929,3.239,0.838,0.152
1593912484885146,3.276,0.838,0.152
1593912485386351,3.238,0.838,0.152
1593912485889657,3.239,0.838,0.152
1593912486390879,3.276,0.838,0.152
1593912486892066,3.276,0.838,0.152
1593912487393213,3.239,0.838,0.152
1593912487894432,3.314,0.914,0.152
1593912488395621,3.276,0.838,0.152
1593912488896842,3.239,0.838,0.152
1593912489398064,3.352,0.914,0.152
1593912489899253,3.276,0.838,0.152
1593912490400449,3.276,0.838,0.152
1593912490903775,3.39,0.914,0.152
1593912491404983,3.276,0.838,0.152
1593912491906192,3.276,0.838,0.152
1593912492407419,3.352,0.914,0.152
1593912492908707,3.238,0.838,0.152
1593912493409923,3.276,0.838,0.152
1593912493911115,3.239,0.838,0.152
1593912494412295,3.239,0.838,0.152
1593912494913506,3.276,0.838,0.152
1593912495414701,3.239,0.838,0.152
1593912495918208,3.276,0.838,0.152
1593912496419436,3.314,0.838,0.152
1593912496920633,3.277,0.838,0.152
1593912497421842,3.276,0.838,0.152
1593912497923067,3.314,0.914,0.152
1593912498424278,3.276,0.838,0.152
1593912498925476,3.276,0.838,0.152
1593912499426696,3.352,0.914,0.152
1593912499927900,3.239,0.838,0.152
1593912500429111,3.314,0.838,0.152
1593912500932633,3.276,0.838,0.152
1593912501433851,3.239,0.838,0.152
1593912501935043,3.352,0.914,0.152
1593912502436243,3.277,0.838,0.152
1593912502937444,3.239,0.838,0.152
1593912503438687,3.276,0.838,0.152
1593912503939899,3.277,0.838,0.152
1593912504441129,3.239,0.838,0.152
1593912504942301,3.239,0.762,0.152
1593912505443529,3.276,0.838,0.152
1593912505946754,3.277,0.838,0.152
1593912506447956,3.239,0.762,0.152
1593912506949159,3.314,0.838,0.152
1593912507450394,3.238,0.838,0.152
1593912507951601,3.239,0.762,0.152
1593912508452809,3.314,0.838,0.152
1593912508954004,3.315,0.838,0.152
1593912509455211,3.277,0.838,0.152
1593912509956482,3.352,0.914,0.152
1593912510457728,3.352,0.914,0.152
1593912510960868,3.277,0.838,0.152
1593912511462082,3.39,0.914,0.152
1593912511963355,3.352,0.914,0.152
1593912512464557,3.276,0.838,0.152
1593912512965770,3.39,0.914,0.152
1593912513466989,3.352,0.914,0.152
1593912513968211,3.276,0.838,0.152
1593912514469375,3.277,0.838,0.152
1593912514970596,3.39,0.914,0.152
1593912515471800,3.314,0.838,0.152
1593912515975026,3.277,0.838,0.152
1593912516476270,3.428,0.914,0.152
1593912516977472,3.276,0.838,0.152
1593912517478634,3.239,0.838,0.152
1593912517979978,3.277,0.838,0.152
1593912518481201,3.277,0.838,0.152
1593912518982387,3.238,0.762,0.152
1593912519483587,3.276,0.838,0.152
1593912519984826,3.277,0.838,0.152
1593912520486053,3.239,0.762,0.152
1593912520989263,3.314,0.838,0.152
1593912521490482,3.276,0.838,0.152
1593912521991687,3.201,0.762,0.152
1593912522492868,3.352,0.914,0.152
1593912522994096,3.314,0.838,0.152
1593912523495332,3.239,0.762,0.152
1593912523996885,3.277,0.838,0.152
1593912524498100,3.352,0.838,0.152
1593912524999281,3.201,0.762,0.152
1593912525500523,3.201,0.762,0.152
1593912526003615,3.352,0.914,0.152
1593912526504799,3.201,0.762,0.152
1593912527005965,3.239,0.762,0.152
1593912527507225,3.352,0.914,0.152
1593912528008418,3.277,0.838,0.152
1593912528509575,3.239,0.838,0.152
1593912529010760,3.39,0.914,0.152
1593912529511940,3.238,0.838,0.152
1593912530013103,3.239,0.838,0.152
1593912530514304,3.39,0.914,0.152
1593912531017530,3.277,0.838,0.152
1593912531518718,3.238,0.838,0.152
1593912532019972,3.39,0.914,0.152
1593912532521197,3.276,0.838,0.152
1593912533022386,3.39,0.838,0.152
1593912533523638,3.619,0.838,0.152
1593912534024886,3.733,0.838,0.152
1593912534526090,3.657,0.838,0.152
1593912535027326,3.39,0.838,0.152
1593912535528547,3.39,0.914,0.152
1593912536031679,3.276,0.838,0.152
1593912536532850,3.201,0.762,0.152
1593912537034055,3.352,0.914,0.152
1593912537535259,3.276,0.838,0.152
1593912538036529,3.201,0.762,0.152
1593912538537709,3.39,0.914,0.152
1593912539038898,3.314,0.838,0.152
1593912539540081,3.238,0.838,0.152
1593912540041275,3.428,0.99,0.152
1593912540542496,3.314,0.838,0.152
1593912541045755,3.277,0.838,0.152
1593912541546927,3.466,0.99,0.152
1593912542048127,3.352,0.838,0.152
1593912542549326,3.276,0.838,0.152
1593912543050545,3.315,0.914,0.152
1593912543551782,3.352,0.914,0.152
1593912544052975,3.277,0.838,0.152
1593912544554171,3.314,0.838,0.152
1593912545055399,3.352,0.914,0.152
1593912545556608,3.314,0.838,0.152
1593912546060231,3.314,0.838,0.152
1593912546561425,3.352,0.914,0.152
1593912547062638,3.314,0.838,0.152
1593912547563939,3.314,0.914,0.152
1593912548065180,3.352,0.914,0.152
1593912548566384,3.276,0.838,0.152
1593912549067593,3.314,0.838,0.152
1593912549568814,3.39,0.914,0.152
1593912550070046,3.276,0.838,0.152
1593912550571295,3.315,0.838,0.152
1593912551074717,3.39,0.914,0.152
1593912551575916,3.239,0.838,0.152
1593912552077593,3.201,0.762,0.152
1593912552578799,3.352,0.914,0.152
1593912553080102,3.239,0.838,0.152
1593912553581291,3.201,0.762,0.152
1593912554082503,3.276,0.838,0.152
1593912554583761,3.238,0.838,0.152
1593912555084961,3.239,0.838,0.152
1593912555586167,3.276,0.838,0.152
1593912556089312,3.276,0.838,0.152
1593912556590482,3.239,0.838,0.152
1593912557091700,3.276,0.838,0.152
1593912557592937,3.276,0.838,0.152
1593912558094134,3.239,0.838,0.152
1593912558595325,3.239,0.838,0.152
1593912559096551,3.314,0.838,0.152
1593912559597752,3.277,0.838,0.152
1593912560098974,3.238,0.838,0.152
1593912560600227,3.314,0.914,0.152
1593912561103366,3.276,0.838,0.152
1593912561604565,3.239,0.838,0.152
1593912562105773,3.352,0.914,0.152
1593912562606957,3.276,0.838,0.152
1593912563108158,3.277,0.838,0.152
1593912563609909,3.277,0.838,0.152
1593912564111134,3.314,0.838,0.152
1593912564612476,3.276,0.838,0.152
1593912565113668,3.238,0.838,0.152
1593912565614869,3.314,0.838,0.152
1593912566118040,3.314,0.838,0.152
1593912566619245,3.277,0.838,0.152
1593912567120445,3.276,0.838,0.152
1593912567621636,3.314,0.838,0.152
1593912568122820,3.277,0.838,0.152
1593912568624095,3.276,0.838,0.152
1593912569125337,3.277,0.838,0.152
1593912569626559,3.277,0.838,0.152
1593912570127798,3.314,0.838,0.152
1593912570628986,3.238,0.838,0.152
1593912571132215,3.276,0.838,0.152
1593912571633442,3.314,0.914,0.152
1593912572134633,3.239,0.838,0.152
1593912572635855,3.314,0.838,0.152
1593912573137172,3.314,0.838,0.152
1593912573638367,3.276,0.838,0.152
1593912574139584,3.314,0.838,0.152
1593912574640776,3.201,0.762,0.152
1593912575141966,3.276,0.838,0.152
1593912575643189,3.276,0.838,0.152
1593912576146511,3.201,0.762,0.152
1593912576647730,3.314,0.838,0.152
1593912577148954,3.276,0.838,0.152
1593912577650149,3.239,0.762,0.152
1593912578151357,3.314,0.838,0.152
1593912578652575,3.277,0.838,0.152
1593912579153779,3.239,0.838,0.152
1593912579654966,3.352,0.914,0.152
1593912580156186,3.352,0.914,0.152
1593912580657383,3.277,0.838,0.152
1593912581160690,3.39,0.914,0.152
1593912581661922,3.39,0.914,0.152
1593912582163124,3.277,0.838,0.152
1593912582664356,3.39,0.914,0.152
1593912583165574,3.39,0.914,0.152
1593912583666806,3.276,0.838,0.152
1593912584168139,3.314,0.838,0.152
1593912584669343,3.39,0.914,0.152
1593912585170538,3.314,0.838,0.152
1593912585671723,3.276,0.838,0.152
1593912586175468,3.39,0.914,0.152
1593912586676699,3.352,0.838,0.152
1593912587177900,3.276,0.838,0.152
1593912587679101,3.314,0.914,0.152
1593912588180317,3.314,0.838,0.152
1593912588681515,3.239,0.838,0.152
1593912589182720,3.314,0.838,0.152
1593912589683939,3.276,0.838,0.152
1593912590185138,3.239,0.762,0.152
1593912590686358,3.314,0.838,0.152
1593912591189656,3.276,0.838,0.152
1593912591690858,3.239,0.838,0.152
1593912592192063,3.352,0.914,0.152
1593912592693290,3.276,0.838,0.152
1593912593194513,3.239,0.838,0.152
1593912593695759,3.352,0.914,0.152
1593912594196987,3.314,0.838,0.152
1593912594698181,3.239,0.838,0.152
1593912595199488,3.201,0.762,0.152
1593912595700692,3.314,0.838,0.152
1593912596203871,3.466,0.838,0.152
1593912596705293,3.619,0.838,0.152
1593912597206502,3.771,0.914,0.152
1593912597707724,3.733,0.914,0.152
1593912598208928,3.352,0.838,0.152
1593912598710143,3.428,0.914,0.152
1593912599211420,3.314,0.838,0.152
1593912599712592,3.201,0.762,0.152
1593912600213795,3.428,0.914,0.152
1593912600714970,3.239,0.838,0.152
1593912601218589,3.238,0.762,0.152
1593912601719816,3.428,0.99,0.152
1593912602221012,3.238,0.838,0.152
1593912602722206,3.239,0.838,0.152
1593912603223419,3.39,0.914,0.152
1593912603724645,3.314,0.838,0.152
1593912604225843,3.238,0.838,0.152
1593912604727008,3.2,0.762,0.152
1593912605228232,3.314,0.838,0.152
1593912605729424,3.238,0.838,0.152
1593912606232638,3.239,0.762,0.152
1593912606733806,3.352,0.914,0.152
1593912607234999,3.276,0.838,0.152
1593912607736166,3.201,0.762,0.152
1593912608237372,3.352,0.914,0.152
1593912608738578,3.276,0.838,0.152
1593912609239746,3.201,0.762,0.152
1593912609740952,3.39,0.914,0.152
1593912610242183,3.314,0.838,0.152
1593912610743389,3.201,0.762,0.152
1593912611246999,3.428,0.99,0.152
1593912611748261,3.314,0.838,0.152
1593912612249434,3.239,0.838,0.152
1593912612750637,3.39,0.914,0.152
1593912613251921,3.314,0.838,0.152
1593912613753123,3.276,0.838,0.152
1593912614254346,3.314,0.914,0.152
1593912614755570,3.352,0.914,0.152
1593912615256758,3.276,0.838,0.152
1593912615757943,3.314,0.914,0.152
1593912616261126,3.352,0.914,0.152
1593912616762325,3.314,0.838,0.152
1593912617263536,3.352,0.914,0.152
