cset: --> last message, executed args into cpuset "/user", new pid is: 17254
stress-ng: info:  [17254] dispatching hogs: 2 cpu
stress-ng: info:  [17254] successful run completed in 60.00s (1 min, 0.00 secs)
