TimeStamp,Total Power,CPU Power,GPU Power
1592833462984124,5.788,3.427,0.152
1592833463486760,3.315,1.753,0.152
1592833463988477,2.668,1.372,0.152
1592833464490121,2.516,1.22,0.152
1592833464991930,2.363,1.22,0.152
1592833465493764,2.287,1.143,0.152
1592833465995466,2.249,1.22,0.152
1592833466497145,2.211,1.22,0.152
1592833466998757,2.249,1.22,0.152
1592833467500393,2.287,1.22,0.152
1592833468002099,2.287,1.143,0.152
1592833468503835,2.249,1.143,0.152
1592833469005515,2.211,1.22,0.152
1592833469507283,2.211,1.22,0.152
1592833470009033,2.249,1.22,0.152
1592833470510676,2.287,1.143,0.152
1592833471012439,2.249,1.143,0.152
1592833471514084,2.249,1.22,0.152
1592833472015698,2.287,1.22,0.152
1592833472517526,2.287,1.22,0.152
1592833473021561,2.478,1.143,0.152
1592833473523315,2.554,1.143,0.152
1592833474025005,2.363,1.22,0.152
1592833474526608,2.287,1.22,0.152
1592833475028199,2.249,1.22,0.152
1592833475530341,2.478,1.143,0.152
1592833476032045,2.325,1.143,0.152
1592833476533742,2.516,1.22,0.152
1592833477035346,2.554,1.22,0.152
1592833477536924,2.402,1.22,0.152
1592833478041359,2.287,1.143,0.152
1592833478543123,2.287,1.143,0.152
1592833479044942,2.249,1.143,0.152
1592833479546683,2.363,1.22,0.152
1592833480048411,2.249,1.22,0.152
1592833480550087,2.249,1.22,0.152
1592833481051810,2.249,1.144,0.152
1592833481553609,2.249,1.143,0.152
1592833482055373,2.249,1.143,0.152
1592833482557127,2.249,1.22,0.152
1592833483058808,2.363,1.22,0.152
1592833483560609,2.44,1.22,0.152
1592833484062363,2.325,1.143,0.152
1592833484564111,2.287,1.143,0.152
1592833485065800,2.211,1.22,0.152
1592833485567418,2.211,1.22,0.152
1592833486069109,2.249,1.22,0.152
1592833486570820,2.249,1.143,0.152
1592833487072566,2.249,1.144,0.152
1592833487574230,2.211,1.144,0.152
1592833488075867,2.211,1.22,0.152
1592833488577634,2.249,1.22,0.152
1592833489079423,2.249,1.143,0.152
1592833489581155,2.249,1.143,0.152
1592833490082884,2.249,1.22,0.152
1592833490584598,2.211,1.22,0.152
1592833491086262,2.249,1.22,0.152
1592833491587995,2.363,1.22,0.152
1592833492089716,2.516,1.22,0.152
1592833492591485,2.363,1.22,0.152
1592833493093226,2.363,1.22,0.152
1592833493594936,2.325,1.22,0.152
1592833494096699,2.287,1.22,0.152
1592833494598418,2.249,1.22,0.152
1592833495100174,2.249,1.22,0.152
1592833495602006,2.249,1.22,0.152
1592833496103725,2.249,1.143,0.152
1592833496605471,2.249,1.143,0.152
1592833497107213,2.249,1.22,0.152
1592833497608929,2.249,1.22,0.152
1592833498110681,2.249,1.22,0.152
1592833498612522,2.249,1.143,0.152
1592833499114265,2.249,1.144,0.152
1592833499616022,2.249,1.143,0.152
1592833500117752,2.211,1.22,0.152
1592833500619465,2.249,1.22,0.152
1592833501121279,2.249,1.22,0.152
1592833501623035,2.287,1.143,0.152
1592833502124869,2.363,1.143,0.152
1592833502626607,2.363,1.22,0.152
1592833503128284,2.325,1.22,0.152
1592833503630046,2.249,1.22,0.152
1592833504131836,2.402,1.143,0.152
1592833504636095,2.325,1.143,0.152
1592833505137849,2.249,1.22,0.152
1592833505639521,2.249,1.22,0.152
1592833506141174,2.211,1.22,0.152
1592833506642855,2.249,1.143,0.152
1592833507144705,2.249,1.143,0.152
1592833507646424,2.249,1.143,0.152
1592833508148121,2.211,1.22,0.152
1592833508649873,2.211,1.22,0.152
1592833509151582,2.211,1.22,0.152
1592833509655868,2.249,1.143,0.152
1592833510157661,2.249,1.144,0.152
1592833510659364,2.249,1.143,0.152
1592833511161026,2.211,1.22,0.152
1592833511662662,2.211,1.22,0.152
1592833512164486,2.249,1.143,0.152
1592833512666220,2.44,1.143,0.152
1592833513167910,2.402,1.143,0.152
1592833513669600,2.44,1.22,0.152
1592833514171273,2.287,1.22,0.152
1592833514675652,2.249,1.22,0.152
1592833515177535,2.287,1.143,0.152
1592833515679236,2.249,1.143,0.152
1592833516180908,2.249,1.143,0.152
1592833516682594,2.211,1.22,0.152
1592833517184365,2.363,1.22,0.152
1592833517686078,2.287,1.22,0.152
1592833518187792,2.249,1.143,0.152
1592833518689536,2.249,1.143,0.152
1592833519191251,2.249,1.22,0.152
1592833519695495,2.249,1.22,0.152
1592833520197289,2.249,1.143,0.152
1592833520699025,2.249,1.143,0.152
1592833521200802,2.249,1.143,0.152
1592833521702501,2.249,1.22,0.152
1592833522204362,2.325,1.22,0.152
1592833522706089,2.249,1.22,0.152
1592833523207846,2.363,1.22,0.152
