TimeStamp,Total Power,CPU Power,GPU Power
1593991088793177,4.266,1.676,0.152
1593991089294931,3.657,1.143,0.152
1593991089796186,3.657,1.067,0.152
1593991090297405,4.152,1.6,0.152
1593991090799489,4.266,1.676,0.152
1593991091300715,4.304,1.752,0.152
1593991091803799,4.342,1.828,0.152
1593991092305605,4.381,1.828,0.152
1593991092808558,4.381,1.828,0.152
1593991093318176,4.381,1.828,0.152
1593991093819697,4.381,1.828,0.152
1593991094320921,4.645,1.828,0.152
1593991094823482,4.721,1.752,0.152
1593991095324697,4.76,1.828,0.152
1593991095825974,4.607,1.828,0.152
1593991096327197,4.457,1.828,0.152
1593991096828634,4.419,1.828,0.152
1593991097331032,4.381,1.828,0.152
1593991097832692,4.381,1.828,0.152
1593991098334555,4.342,1.752,0.152
1593991098835845,4.381,1.828,0.152
1593991099338449,4.381,1.828,0.152
1593991099840201,4.381,1.828,0.152
1593991100342606,4.381,1.828,0.152
1593991100844313,4.381,1.828,0.152
1593991101345546,4.342,1.828,0.152
1593991101846775,4.381,1.828,0.152
1593991102351945,4.342,1.828,0.152
1593991102853209,4.342,1.752,0.152
1593991103357069,4.266,1.676,0.152
1593991103858303,4.304,1.752,0.152
1593991104359523,4.304,1.752,0.152
1593991104860747,4.266,1.752,0.152
1593991105363227,4.228,1.752,0.152
1593991105864720,4.266,1.752,0.152
1593991106365898,4.304,1.752,0.152
1593991106872285,4.304,1.752,0.152
1593991107373518,4.266,1.752,0.152
1593991107874751,4.304,1.752,0.152
1593991108375983,4.304,1.752,0.152
1593991108877223,4.342,1.752,0.152
1593991109378677,4.304,1.752,0.152
1593991109879909,4.304,1.752,0.152
1593991110383066,4.304,1.752,0.152
1593991110884298,4.304,1.752,0.152
1593991111385522,4.342,1.752,0.152
1593991111886917,4.304,1.752,0.152
1593991112393073,4.304,1.752,0.152
1593991112894321,4.342,1.752,0.152
1593991113395554,4.304,1.752,0.152
1593991113898758,4.304,1.752,0.152
1593991114401449,4.266,1.752,0.152
1593991114903353,4.304,1.752,0.152
1593991115404567,4.304,1.752,0.152
1593991115905792,4.304,1.752,0.152
1593991116407024,4.266,1.752,0.152
1593991116908396,4.304,1.752,0.152
1593991117409633,4.342,1.752,0.152
1593991117910849,4.304,1.752,0.152
1593991118412107,4.342,1.752,0.152
1593991118915593,4.304,1.752,0.152
1593991119417078,4.304,1.752,0.152
1593991119918479,4.304,1.752,0.152
1593991120419733,4.342,1.752,0.152
1593991120920954,4.304,1.752,0.152
1593991121422185,4.304,1.752,0.152
1593991121928012,4.304,1.752,0.152
1593991122429257,4.304,1.752,0.152
1593991122931907,4.342,1.752,0.152
1593991123434951,4.304,1.752,0.152
1593991123940679,4.304,1.752,0.152
1593991124443182,4.304,1.752,0.152
1593991124946926,4.304,1.752,0.152
1593991125448480,4.266,1.676,0.152
1593991125950535,4.266,1.752,0.152
1593991126452985,4.304,1.752,0.152
1593991126954685,4.304,1.752,0.152
1593991127455945,4.304,1.752,0.152
1593991127957149,4.266,1.752,0.152
1593991128458366,4.342,1.752,0.152
1593991128961371,4.304,1.752,0.152
1593991129462641,4.304,1.752,0.152
1593991129965316,4.304,1.752,0.152
1593991130466566,4.266,1.752,0.152
1593991130967830,4.304,1.752,0.152
1593991131469064,4.304,1.752,0.152
1593991131970334,4.304,1.752,0.152
1593991132471554,4.304,1.752,0.152
1593991132972775,4.304,1.752,0.152
1593991133474005,4.266,1.752,0.152
1593991133975254,4.342,1.752,0.152
1593991134476486,4.342,1.752,0.152
1593991134977720,4.304,1.752,0.152
1593991135479938,4.304,1.752,0.152
1593991135983053,4.304,1.752,0.152
1593991136488307,4.304,1.752,0.152
1593991136989537,4.304,1.752,0.152
1593991137490758,4.342,1.752,0.152
1593991137992279,4.342,1.752,0.152
1593991138493491,4.304,1.752,0.152
1593991138994737,4.342,1.752,0.152
1593991139495964,4.342,1.752,0.152
1593991139997569,4.304,1.752,0.152
1593991140498807,4.342,1.828,0.152
1593991141000071,4.304,1.752,0.152
1593991141501302,4.342,1.752,0.152
1593991142007421,4.266,1.752,0.152
1593991142508668,4.304,1.752,0.152
1593991143009897,4.304,1.752,0.152
1593991143511127,4.266,1.752,0.152
1593991144012443,4.304,1.752,0.152
1593991144513684,4.342,1.752,0.152
1593991145014929,4.342,1.752,0.152
1593991145516223,4.304,1.752,0.152
1593991146017435,4.342,1.752,0.152
1593991146518650,4.304,1.752,0.152
1593991147019902,4.304,1.752,0.152
1593991147521144,4.266,1.752,0.152
1593991148022355,4.228,1.676,0.152
1593991148525444,4.19,1.676,0.152
1593991149026644,4.266,1.676,0.152
1593991149527893,4.266,1.752,0.152
1593991150030543,4.228,1.676,0.152
1593991150532363,4.228,1.676,0.152
1593991151033599,4.304,1.752,0.152
1593991151534826,4.304,1.752,0.152
1593991152036896,4.266,1.752,0.152
1593991152538194,4.304,1.752,0.152
1593991153039417,4.304,1.752,0.152
1593991153540631,4.266,1.752,0.152
1593991154041860,4.342,1.752,0.152
1593991154543085,4.304,1.752,0.152
1593991155044317,4.304,1.752,0.152
1593991155545536,4.342,1.752,0.152
1593991156046783,4.304,1.752,0.152
1593991156548030,4.419,1.828,0.152
1593991157049293,4.419,1.752,0.152
1593991157551100,4.645,1.752,0.152
1593991158052369,4.721,1.752,0.152
1593991158553633,4.721,1.752,0.152
1593991159054889,4.495,1.752,0.152
1593991159556113,4.381,1.752,0.152
1593991160057345,4.304,1.752,0.152
1593991160560813,4.342,1.752,0.152
1593991161062059,4.304,1.752,0.152
1593991161563269,4.266,1.752,0.152
1593991162064511,4.304,1.752,0.152
1593991162565727,4.342,1.752,0.152
1593991163066952,4.342,1.752,0.152
1593991163568180,4.342,1.828,0.152
1593991164069426,4.304,1.752,0.152
1593991164570641,4.304,1.752,0.152
1593991165071988,4.381,1.752,0.152
1593991165574907,4.342,1.752,0.152
1593991166077232,4.266,1.752,0.152
1593991166578465,4.304,1.752,0.152
1593991167079717,4.304,1.752,0.152
1593991167588488,4.304,1.752,0.152
1593991168089726,4.304,1.752,0.152
1593991168590919,4.342,1.752,0.152
1593991169094067,4.304,1.752,0.152
1593991169595332,4.304,1.752,0.152
1593991170103354,4.304,1.752,0.152
1593991170604571,4.304,1.752,0.152
1593991171105794,4.304,1.752,0.152
1593991171607022,4.304,1.752,0.152
1593991172108269,4.304,1.752,0.152
1593991172609500,4.342,1.752,0.152
1593991173110716,4.304,1.752,0.152
1593991173611953,4.304,1.752,0.152
1593991174116260,4.304,1.752,0.152
1593991174617516,4.304,1.752,0.152
1593991175120435,4.342,1.752,0.152
1593991175621687,4.304,1.752,0.152
1593991176122920,4.342,1.752,0.152
1593991176624143,4.304,1.752,0.152
1593991177125379,4.342,1.752,0.152
1593991177626605,4.304,1.752,0.152
1593991178127843,4.304,1.752,0.152
1593991178629070,4.304,1.752,0.152
1593991179130272,4.342,1.752,0.152
1593991179631540,4.304,1.752,0.152
1593991180132764,4.266,1.752,0.152
1593991180636115,4.304,1.752,0.152
1593991181137346,4.304,1.752,0.152
1593991181638572,4.342,1.752,0.152
1593991182139786,4.304,1.752,0.152
1593991182641057,4.381,1.828,0.152
1593991183142290,4.342,1.828,0.152
1593991183643561,4.342,1.752,0.152
1593991184148307,4.342,1.752,0.152
1593991184649522,4.342,1.752,0.152
1593991185151717,4.304,1.752,0.152
1593991185655028,4.381,1.828,0.152
1593991186157587,4.381,1.828,0.152
1593991186659908,4.381,1.828,0.152
1593991187161500,4.381,1.828,0.152
1593991187662729,4.419,1.828,0.152
1593991188163983,4.342,1.828,0.152
1593991188665222,4.381,1.828,0.152
1593991189166456,4.381,1.828,0.152
1593991189668274,4.304,1.752,0.152
1593991190169537,4.304,1.752,0.152
1593991190672778,4.342,1.828,0.152
1593991191173994,4.304,1.752,0.152
1593991191675243,4.342,1.828,0.152
1593991192179371,4.381,1.828,0.152
1593991192680629,4.342,1.828,0.152
1593991193181864,4.342,1.828,0.152
1593991193683087,4.381,1.828,0.152
1593991194184326,4.342,1.828,0.152
1593991194685550,4.342,1.752,0.152
1593991195186787,4.342,1.828,0.152
1593991195691450,4.381,1.828,0.152
1593991196192658,4.304,1.752,0.152
1593991196693873,4.342,1.828,0.152
1593991197195122,4.342,1.828,0.152
1593991197696347,4.381,1.828,0.152
1593991198197554,4.342,1.752,0.152
1593991198698769,4.381,1.828,0.152
1593991199200021,4.342,1.828,0.152
1593991199701264,4.381,1.828,0.152
1593991200203571,4.304,1.752,0.152
1593991200707372,4.381,1.828,0.152
1593991201208592,4.342,1.828,0.152
1593991201709829,4.419,1.828,0.152
1593991202212090,4.342,1.828,0.152
1593991202713320,4.342,1.752,0.152
1593991203214531,4.342,1.752,0.152
1593991203715778,4.381,1.828,0.152
1593991204217013,4.342,1.752,0.152
1593991204719156,4.304,1.752,0.152
1593991205220392,4.342,1.752,0.152
1593991205723667,4.304,1.752,0.152
1593991206224913,4.304,1.752,0.152
1593991206728238,4.304,1.752,0.152
1593991207229808,4.304,1.752,0.152
1593991207732971,4.304,1.752,0.152
1593991208234163,4.304,1.752,0.152
1593991208735404,4.304,1.752,0.152
1593991209237035,4.304,1.752,0.152
1593991209738244,4.342,1.752,0.152
1593991210239493,4.342,1.752,0.152
1593991210744420,4.304,1.752,0.152
1593991211245758,4.342,1.752,0.152
1593991211747040,4.342,1.752,0.152
1593991212248281,4.266,1.676,0.152
1593991212749510,4.304,1.752,0.152
1593991213250734,4.342,1.752,0.152
1593991213751978,4.342,1.752,0.152
1593991214253194,4.381,1.828,0.152
1593991214754441,4.342,1.752,0.152
1593991215258302,4.266,1.752,0.152
1593991215761018,4.342,1.752,0.152
1593991216266627,4.304,1.752,0.152
1593991216768157,4.342,1.752,0.152
1593991217270736,4.304,1.752,0.152
1593991217772432,4.304,1.752,0.152
1593991218274901,4.304,1.752,0.152
1593991218776509,4.304,1.752,0.152
1593991219277832,4.304,1.752,0.152
1593991219779046,4.342,1.828,0.152
1593991220280936,4.533,1.752,0.152
1593991220784290,4.721,1.752,0.152
1593991221288276,4.645,1.752,0.152
1593991221792757,4.607,1.752,0.152
1593991222293983,4.419,1.752,0.152
1593991222795206,4.304,1.752,0.152
1593991223296427,4.266,1.752,0.152
1593991223797668,4.381,1.752,0.152
1593991224298911,4.304,1.752,0.152
1593991224800151,4.304,1.752,0.152
1593991225301381,4.304,1.752,0.152
1593991225804698,4.266,1.752,0.152
1593991226305928,4.304,1.752,0.152
1593991226807160,4.266,1.676,0.152
1593991227308462,4.304,1.752,0.152
1593991227809698,4.266,1.752,0.152
1593991228310928,4.266,1.752,0.152
1593991228813688,4.266,1.752,0.152
1593991229314926,4.266,1.676,0.152
1593991229816188,4.266,1.752,0.152
1593991230317430,4.304,1.752,0.152
1593991230820705,4.304,1.752,0.152
1593991231321967,4.304,1.752,0.152
1593991231823195,4.304,1.752,0.152
1593991232324801,4.342,1.752,0.152
1593991232826019,4.266,1.676,0.152
1593991233327248,4.304,1.752,0.152
1593991233828500,4.266,1.752,0.152
1593991234329711,4.266,1.676,0.152
1593991234830929,4.304,1.752,0.152
1593991235332171,4.304,1.752,0.152
1593991235835711,4.342,1.752,0.152
1593991236340004,4.342,1.752,0.152
1593991236841248,4.266,1.752,0.152
1593991237343152,4.266,1.752,0.152
1593991237844494,4.304,1.752,0.152
1593991238345710,4.342,1.752,0.152
1593991238846950,4.304,1.752,0.152
1593991239348168,4.304,1.752,0.152
1593991239849401,4.304,1.752,0.152
1593991240350666,4.304,1.752,0.152
1593991240854041,4.342,1.752,0.152
1593991241355265,4.342,1.752,0.152
1593991241856528,4.266,1.752,0.152
1593991242357757,4.266,1.752,0.152
1593991242859002,4.266,1.752,0.152
1593991243360249,4.304,1.752,0.152
1593991243861486,4.304,1.752,0.152
1593991244363053,4.381,1.828,0.152
1593991244864403,4.342,1.752,0.152
1593991245365666,4.342,1.752,0.152
1593991245872259,4.266,1.752,0.152
1593991246373461,4.304,1.752,0.152
1593991246874674,4.304,1.752,0.152
1593991247375919,4.304,1.752,0.152
1593991247877183,4.304,1.752,0.152
1593991248378410,4.304,1.752,0.152
1593991248879663,4.304,1.752,0.152
1593991249380897,4.342,1.752,0.152
1593991249882133,4.266,1.752,0.152
1593991250383357,4.304,1.752,0.152
1593991250886805,4.304,1.752,0.152
1593991251388051,4.304,1.752,0.152
1593991251889278,4.266,1.752,0.152
1593991252390558,4.304,1.752,0.152
1593991252892180,4.266,1.676,0.152
1593991253393423,4.266,1.676,0.152
1593991253895867,4.266,1.752,0.152
1593991254397083,4.266,1.676,0.152
1593991254898314,4.266,1.752,0.152
1593991255399598,4.342,1.752,0.152
1593991255903134,4.304,1.752,0.152
1593991256404383,4.342,1.752,0.152
1593991256905611,4.304,1.752,0.152
1593991257406849,4.342,1.752,0.152
1593991257908080,4.304,1.752,0.152
1593991258409288,4.342,1.752,0.152
1593991258910545,4.304,1.752,0.152
1593991259411803,4.304,1.752,0.152
1593991259913081,4.304,1.752,0.152
1593991260414296,4.342,1.752,0.152
1593991260917616,4.342,1.752,0.152
1593991261418830,4.304,1.752,0.152
1593991261920113,4.304,1.752,0.152
1593991262421355,4.304,1.752,0.152
1593991262922563,4.266,1.752,0.152
1593991263425478,4.304,1.752,0.152
1593991263926831,4.304,1.752,0.152
1593991264428125,4.266,1.752,0.152
1593991264929400,4.342,1.752,0.152
1593991265430620,4.342,1.752,0.152
1593991265934072,4.342,1.752,0.152
1593991266440438,4.342,1.752,0.152
1593991266941692,4.304,1.752,0.152
1593991267442917,4.342,1.752,0.152
1593991267944181,4.342,1.828,0.152
1593991268445411,4.342,1.828,0.152
1593991268946648,4.342,1.752,0.152
1593991269447961,4.381,1.828,0.152
1593991269949211,4.342,1.752,0.152
1593991270450439,4.342,1.752,0.152
1593991270951713,4.304,1.752,0.152
1593991271452949,4.381,1.828,0.152
1593991271954239,4.266,1.752,0.152
1593991272455479,4.342,1.752,0.152
1593991272956685,4.304,1.752,0.152
1593991273457912,4.304,1.752,0.152
1593991273959128,4.304,1.752,0.152
1593991274460369,4.304,1.752,0.152
1593991274961599,4.342,1.752,0.152
1593991275462836,4.304,1.752,0.152
1593991275964170,4.266,1.752,0.152
1593991276465394,4.304,1.752,0.152
1593991276967416,4.304,1.752,0.152
1593991277468657,4.304,1.752,0.152
1593991277974885,4.342,1.752,0.152
1593991278476111,4.342,1.752,0.152
1593991278979527,4.304,1.752,0.152
1593991279482170,4.304,1.752,0.152
1593991279983882,4.304,1.752,0.152
1593991280485115,4.304,1.752,0.152
1593991280986373,4.342,1.752,0.152
1593991281487592,4.342,1.752,0.152
1593991281988832,4.304,1.752,0.152
1593991282490075,4.266,1.752,0.152
1593991282991340,4.342,1.752,0.152
1593991283492566,4.607,1.752,0.152
1593991283993811,4.721,1.752,0.152
1593991284495001,4.721,1.752,0.152
1593991284996241,4.495,1.752,0.152
1593991285497484,4.342,1.752,0.152
1593991285998703,4.381,1.828,0.152
1593991286502045,4.381,1.828,0.152
1593991287003272,4.342,1.752,0.152
1593991287504545,4.342,1.828,0.152
1593991288008439,4.342,1.828,0.152
1593991288509673,4.342,1.752,0.152
1593991289010889,4.381,1.828,0.152
1593991289512161,4.381,1.828,0.152
1593991290013382,4.342,1.828,0.152
1593991290514628,4.304,1.752,0.152
1593991291015874,4.342,1.828,0.152
1593991291519176,4.381,1.828,0.152
1593991292020432,4.381,1.828,0.152
1593991292521684,4.419,1.828,0.152
1593991293022900,4.342,1.828,0.152
1593991293524105,4.266,1.752,0.152
1593991294026302,4.304,1.752,0.152
1593991294532104,4.342,1.752,0.152
1593991295033351,4.381,1.828,0.152
1593991295534586,4.419,1.828,0.152
1593991296035825,4.342,1.828,0.152
1593991296539851,4.381,1.828,0.152
1593991297041385,4.381,1.828,0.152
1593991297543744,4.342,1.828,0.152
1593991298046342,4.381,1.828,0.152
1593991298549278,4.381,1.828,0.152
1593991299053462,4.342,1.752,0.152
1593991299554715,4.381,1.828,0.152
1593991300055948,4.381,1.828,0.152
1593991300557277,4.381,1.828,0.152
1593991301058533,4.381,1.828,0.152
1593991301561717,4.342,1.752,0.152
1593991302062955,4.381,1.828,0.152
1593991302564184,4.381,1.828,0.152
1593991303065407,4.342,1.828,0.152
1593991303566654,4.342,1.752,0.152
1593991304067960,4.381,1.828,0.152
1593991304569173,4.381,1.828,0.152
1593991305070398,4.342,1.828,0.152
1593991305571613,4.381,1.828,0.152
1593991306072851,4.342,1.752,0.152
1593991306576347,4.381,1.828,0.152
1593991307077609,4.381,1.828,0.152
1593991307578842,4.381,1.828,0.152
1593991308080232,4.419,1.828,0.152
1593991308581482,4.381,1.828,0.152
1593991309082742,4.342,1.828,0.152
1593991309583977,4.381,1.828,0.152
1593991310085234,4.342,1.752,0.152
1593991310586453,4.342,1.752,0.152
1593991311087744,4.381,1.828,0.152
1593991311591082,4.342,1.752,0.152
1593991312092335,4.381,1.828,0.152
1593991312593559,4.381,1.828,0.152
1593991313094802,4.342,1.752,0.152
1593991313596056,4.342,1.828,0.152
1593991314097294,4.381,1.828,0.152
1593991314598516,4.381,1.828,0.152
1593991315099752,4.419,1.828,0.152
1593991315600967,4.381,1.828,0.152
1593991316102216,4.381,1.752,0.152
1593991316605475,4.304,1.752,0.152
1593991317106737,4.304,1.752,0.152
1593991317608482,4.342,1.752,0.152
1593991318109722,4.342,1.752,0.152
1593991318610945,4.342,1.828,0.152
1593991319113229,4.342,1.828,0.152
1593991319614455,4.381,1.828,0.152
1593991320115686,4.381,1.828,0.152
1593991320616918,4.381,1.828,0.152
1593991321118158,4.381,1.828,0.152
1593991321621382,4.381,1.828,0.152
1593991322122629,4.304,1.752,0.152
1593991322623870,4.304,1.752,0.152
1593991323125097,4.304,1.752,0.152
1593991323626995,4.304,1.752,0.152
1593991324128253,4.304,1.752,0.152
1593991324629504,4.342,1.752,0.152
1593991325130717,4.342,1.752,0.152
1593991325631965,4.266,1.752,0.152
1593991326133210,4.304,1.752,0.152
1593991326636376,4.342,1.752,0.152
1593991327140543,4.304,1.752,0.152
1593991327642041,4.304,1.752,0.152
1593991328143763,4.304,1.752,0.152
1593991328645925,4.304,1.752,0.152
1593991329152546,4.304,1.752,0.152
1593991329660257,4.304,1.752,0.152
1593991330164605,4.304,1.752,0.152
1593991330668499,4.342,1.752,0.152
1593991331169999,4.304,1.752,0.152
1593991331674661,4.304,1.752,0.152
1593991332176381,4.342,1.752,0.152
1593991332682119,4.304,1.752,0.152
1593991333183922,4.304,1.752,0.152
1593991333685139,4.342,1.752,0.152
1593991334186370,4.342,1.752,0.152
1593991334687608,4.266,1.752,0.152
1593991335188829,4.266,1.752,0.152
1593991335690050,4.304,1.752,0.152
1593991336191288,4.304,1.752,0.152
1593991336694572,4.342,1.752,0.152
1593991337195804,4.342,1.752,0.152
1593991337697036,4.304,1.752,0.152
1593991338198287,4.304,1.752,0.152
1593991338699539,4.342,1.752,0.152
1593991339200761,4.342,1.752,0.152
1593991339703726,4.266,1.752,0.152
1593991340204960,4.304,1.752,0.152
1593991340706292,4.457,1.828,0.152
1593991341207539,4.304,1.752,0.152
1593991341710724,4.304,1.752,0.152
1593991342211986,4.342,1.752,0.152
1593991342713194,4.342,1.752,0.152
1593991343215788,4.342,1.752,0.152
1593991343717584,4.304,1.752,0.152
1593991344218836,4.304,1.752,0.152
1593991344720073,4.304,1.752,0.152
1593991345222151,4.304,1.752,0.152
1593991345724045,4.304,1.752,0.152
1593991346225263,4.495,1.752,0.152
1593991346728802,4.721,1.752,0.152
1593991347230025,4.683,1.752,0.152
1593991347731255,4.645,1.752,0.152
1593991348232523,4.419,1.752,0.152
1593991348733764,4.342,1.752,0.152
1593991349235015,4.304,1.752,0.152
1593991349736311,4.342,1.752,0.152
1593991350237539,4.342,1.752,0.152
1593991350739251,4.304,1.752,0.152
1593991351240518,4.304,1.752,0.152
1593991351744290,4.304,1.752,0.152
1593991352245516,4.304,1.752,0.152
1593991352746748,4.342,1.752,0.152
1593991353247985,4.304,1.752,0.152
1593991353749213,4.266,1.752,0.152
1593991354251641,4.266,1.752,0.152
1593991354752864,4.304,1.752,0.152
1593991355254098,4.304,1.752,0.152
1593991355755318,4.304,1.752,0.152
1593991356256580,4.304,1.752,0.152
1593991356761102,4.304,1.752,0.152
1593991357265751,4.304,1.752,0.152
1593991357768011,4.304,1.752,0.152
1593991358269979,4.304,1.752,0.152
1593991358771235,4.304,1.752,0.152
1593991359272474,4.304,1.752,0.152
1593991359773702,4.342,1.752,0.152
1593991360274928,4.304,1.752,0.152
1593991360776155,4.342,1.752,0.152
1593991361277375,4.342,1.752,0.152
1593991361778612,4.304,1.752,0.152
1593991362279860,4.304,1.752,0.152
1593991362781452,4.304,1.752,0.152
1593991363282663,4.304,1.752,0.152
1593991363783890,4.266,1.752,0.152
1593991364285124,4.304,1.752,0.152
1593991364786420,4.304,1.752,0.152
1593991365287639,4.342,1.752,0.152
1593991365788866,4.304,1.752,0.152
1593991366290144,4.304,1.752,0.152
1593991366792809,4.266,1.752,0.152
1593991367294053,4.304,1.752,0.152
1593991367795275,4.304,1.752,0.152
1593991368296531,4.304,1.752,0.152
1593991368797747,4.342,1.752,0.152
1593991369299009,4.304,1.752,0.152
1593991369800241,4.304,1.752,0.152
1593991370301466,4.304,1.752,0.152
1593991370802705,4.304,1.752,0.152
1593991371303952,4.304,1.752,0.152
1593991371805258,4.342,1.752,0.152
1593991372306489,4.266,1.752,0.152
1593991372807765,4.266,1.752,0.152
1593991373309000,4.342,1.752,0.152
1593991373810271,4.304,1.752,0.152
1593991374311514,4.266,1.676,0.152
1593991374812789,4.266,1.752,0.152
1593991375314461,4.381,1.828,0.152
1593991375815720,4.304,1.752,0.152
1593991376317004,4.304,1.752,0.152
1593991376818205,4.304,1.752,0.152
1593991377320992,4.304,1.752,0.152
1593991377822224,4.266,1.676,0.152
1593991378323976,4.304,1.752,0.152
1593991378825221,4.304,1.752,0.152
1593991379327887,4.304,1.752,0.152
1593991379829191,4.304,1.752,0.152
1593991380330410,4.342,1.752,0.152
1593991380831634,4.304,1.752,0.152
1593991381332880,4.304,1.752,0.152
1593991381834126,4.304,1.752,0.152
1593991382335372,4.304,1.752,0.152
1593991382838479,4.304,1.752,0.152
1593991383339712,4.304,1.752,0.152
1593991383840933,4.266,1.752,0.152
1593991384342175,4.304,1.752,0.152
1593991384843389,4.304,1.752,0.152
1593991385344645,4.304,1.752,0.152
1593991385845864,4.266,1.676,0.152
1593991386348265,4.266,1.676,0.152
1593991386849897,4.266,1.752,0.152
1593991387353345,4.304,1.752,0.152
1593991387854566,4.304,1.752,0.152
1593991388355807,4.304,1.752,0.152
1593991388858198,4.266,1.752,0.152
1593991389359453,4.304,1.752,0.152
1593991389863490,4.304,1.752,0.152
1593991390364734,4.342,1.752,0.152
1593991390865962,4.304,1.752,0.152
1593991391367204,4.304,1.752,0.152
1593991391869454,4.266,1.752,0.152
1593991392372693,4.304,1.752,0.152
1593991392873944,4.266,1.752,0.152
1593991393375173,4.266,1.752,0.152
1593991393876406,4.304,1.752,0.152
1593991394377641,4.304,1.752,0.152
1593991394879345,4.304,1.752,0.152
1593991395380598,4.304,1.752,0.152
1593991395883738,4.304,1.752,0.152
1593991396386896,4.304,1.752,0.152
1593991396888509,4.304,1.752,0.152
1593991397392140,4.304,1.752,0.152
1593991397894480,4.304,1.752,0.152
1593991398395710,4.266,1.752,0.152
1593991398898089,4.304,1.752,0.152
1593991399399574,4.266,1.752,0.152
1593991399902002,4.304,1.752,0.152
1593991400409203,4.304,1.752,0.152
1593991400911820,4.304,1.752,0.152
1593991401414117,4.304,1.752,0.152
1593991401915437,4.304,1.752,0.152
1593991402418573,4.266,1.752,0.152
1593991402921070,4.304,1.752,0.152
1593991403422882,4.304,1.752,0.152
1593991403924113,4.304,1.752,0.152
1593991404425341,4.266,1.752,0.152
1593991404926583,4.304,1.752,0.152
1593991405427808,4.304,1.752,0.152
1593991405929031,4.304,1.752,0.152
1593991406430269,4.304,1.752,0.152
1593991406931550,4.304,1.752,0.152
1593991407434716,4.266,1.752,0.152
1593991407935990,4.304,1.752,0.152
1593991408437209,4.342,1.828,0.152
1593991408938425,4.342,1.752,0.152
1593991409440109,4.607,1.752,0.152
1593991409942276,4.683,1.752,0.152
1593991410443536,4.721,1.752,0.152
1593991410944775,4.533,1.828,0.152
1593991411447464,4.381,1.752,0.152
1593991411948927,4.342,1.752,0.152
1593991412452269,4.342,1.752,0.152
1593991412953491,4.304,1.752,0.152
1593991413454713,4.266,1.752,0.152
1593991413956579,4.266,1.752,0.152
1593991414457834,4.304,1.752,0.152
1593991414959109,4.304,1.752,0.152
1593991415460343,4.266,1.752,0.152
1593991415961597,4.304,1.752,0.152
1593991416462828,4.304,1.752,0.152
1593991416964060,4.342,1.752,0.152
1593991417468828,4.304,1.752,0.152
1593991417970045,4.304,1.752,0.152
1593991418471703,4.342,1.752,0.152
1593991418982861,4.266,1.752,0.152
1593991419485377,4.304,1.752,0.152
1593991419988264,4.304,1.752,0.152
1593991420490410,4.266,1.752,0.152
1593991420991626,4.304,1.752,0.152
1593991421492867,4.304,1.752,0.152
1593991421994114,4.342,1.752,0.152
1593991422496617,4.304,1.752,0.152
1593991422997866,4.304,1.752,0.152
1593991423499094,4.304,1.752,0.152
1593991424000315,4.266,1.752,0.152
1593991424501910,4.342,1.752,0.152
1593991425003173,4.342,1.828,0.152
1593991425504905,4.342,1.828,0.152
1593991426006167,4.381,1.828,0.152
1593991426511804,4.381,1.828,0.152
1593991427013051,4.419,1.828,0.152
1593991427514288,4.381,1.828,0.152
1593991428015531,4.342,1.828,0.152
1593991428516786,4.342,1.828,0.152
1593991429018053,4.266,1.752,0.152
1593991429521463,4.266,1.752,0.152
1593991430022733,4.304,1.752,0.152
1593991430523936,4.304,1.752,0.152
1593991431025527,4.304,1.752,0.152
1593991431527236,4.266,1.752,0.152
1593991432028516,4.342,1.752,0.152
1593991432529812,4.304,1.752,0.152
1593991433031045,4.304,1.752,0.152
1593991433532990,4.304,1.752,0.152
1593991434034208,4.342,1.752,0.152
1593991434535438,4.266,1.752,0.152
1593991435036648,4.304,1.752,0.152
1593991435537872,4.304,1.752,0.152
1593991436039108,4.342,1.752,0.152
1593991436540329,4.304,1.752,0.152
1593991437041556,4.342,1.752,0.152
1593991437547587,4.304,1.752,0.152
1593991438051172,4.304,1.752,0.152
1593991438552438,4.342,1.752,0.152
1593991439053668,4.342,1.752,0.152
1593991439554887,4.304,1.752,0.152
1593991440056132,4.342,1.752,0.152
1593991440557374,4.304,1.752,0.152
1593991441058631,4.342,1.752,0.152
1593991441559992,4.266,1.752,0.152
1593991442061195,4.304,1.752,0.152
1593991442566007,4.304,1.752,0.152
1593991443069207,4.304,1.752,0.152
1593991443570439,4.304,1.752,0.152
1593991444071685,4.304,1.752,0.152
1593991444572961,4.342,1.752,0.152
1593991445074239,4.304,1.752,0.152
1593991445575449,4.304,1.752,0.152
1593991446076668,4.342,1.752,0.152
1593991446577889,4.304,1.752,0.152
1593991447079136,4.304,1.752,0.152
1593991447580355,4.304,1.752,0.152
1593991448084361,4.342,1.752,0.152
1593991448585586,4.304,1.752,0.152
1593991449086808,4.266,1.752,0.152
1593991449588053,4.342,1.752,0.152
1593991450089283,4.342,1.752,0.152
1593991450590561,4.304,1.752,0.152
1593991451091815,4.304,1.752,0.152
1593991451594154,4.342,1.828,0.152
1593991452095457,4.342,1.828,0.152
1593991452599059,4.381,1.828,0.152
1593991453100301,4.381,1.828,0.152
1593991453601537,4.342,1.828,0.152
