timestamp	VIRTUAL_SCALING	CPU0_F	CPU1_F	CPU2_F	CPU3_F	CPU4_F	CPU5_F	GPU_FREQ	CPU_GOVERNOR	EMC_F	TEMP0	TEMP1	TEMP2	TEMP3	TEMP4	TEMP5	TEMP6	TEMP7
1592836100515978225	1	806	499	499	806	806	806	114750000	performance	665	33	33	31	33	30	30	100	33
1592836100651045773 	0	806	499	498	806	806	806	114750000	performance	665	33	33	31	33	30	29	100	33
1592836102840675672	1	806	499	499	806	806	806	114750000	performance	665	32	32	31	32	29	29	100	31
1592836103539576122 	0	806	499	499	806	806	806	114750000	performance	665	32	32	31	32	29	29	100	31
1592836105741366389	1	806	499	499	806	806	806	114750000	performance	665	32	32	30	32	29	28	100	31
1592836106359730914 	0	806	499	499	806	806	806	114750000	performance	665	32	32	30	32	29	28	100	31
1592836108669161239	1	806	499	499	806	806	806	114750000	performance	665	32	32	30	32	29	28	100	31
1592836109251641150 	0	806	499	499	806	806	806	114750000	performance	665	32	32	30	32	29	28	100	31
1592836111339404577	1	806	499	499	806	806	806	114750000	performance	665	32	32	30	32	29	28	100	31
1592836111895562826 	0	807	499	499	806	806	805	114750000	performance	665	32	32	30	32	29	28	100	31
1592836113991428067	1	806	499	499	806	806	806	114750000	performance	665	32	32	30	32	29	28	100	31
1592836114467507048 	0	806	499	499	806	806	805	114750000	performance	665	32	32	30	32	29	28	100	31
1592836116527505023	1	806	499	499	806	806	806	114750000	performance	665	32	32	30	32	29	28	100	31
1592836117011357673 	0	805	499	499	806	806	805	114750000	performance	665	32	32	30	32	29	28	100	31
1592836119127532873	1	806	499	499	806	806	806	114750000	performance	665	32	32	30	32	29	28	100	31
1592836119651421207 	0	805	499	499	806	805	806	114750000	performance	665	31	32	30	32	29	28	100	31
1592836121871537542	1	806	499	499	806	806	806	114750000	performance	665	31	31	30	31	29	28	100	30
1592836122467567410 	0	806	499	499	806	806	806	114750000	performance	665	32	31	30	32	29	28	100	30
1592836124631449409	1	806	499	499	806	806	806	114750000	performance	665	31	31	30	32	29	28	100	30
1592836125247596805 	0	806	499	499	805	806	806	114750000	performance	665	31	31	30	32	29	27	100	31
1592836127507815653	1	806	499	499	806	806	806	114750000	performance	665	32	32	29	31	29	27	100	30
1592836128067589791 	0	806	498	499	805	807	806	114750000	performance	665	31	31	30	31	29	27	100	30
1592836130263352105	1	806	499	499	806	806	806	114750000	performance	665	31	31	30	31	29	27	100	30
1592836130815453891 	0	806	499	499	806	805	806	114750000	performance	665	31	31	30	31	29	27	100	30
1592836133031445037	1	806	499	499	806	806	806	114750000	performance	665	31	31	29	31	29	27	100	30
1592836133523408207 	0	806	499	499	806	806	806	114750000	performance	665	31	31	29	31	29	27	100	30
1592836135831507020	1	806	499	499	806	806	806	114750000	performance	665	31	31	29	31	29	27	100	30
1592836136283434891 	0	805	499	498	805	806	806	114750000	performance	665	31	31	30	31	29	27	100	30
1592836138513448047	1	806	499	499	806	806	806	114750000	performance	665	31	31	30	31	29	27	100	30
1592836139059524875 	0	806	499	499	806	805	806	114750000	performance	665	31	31	30	31	29	27	100	30
1592836141295694556	1	806	499	499	806	806	806	114750000	performance	665	31	31	29	31	29	27	100	30
1592836141847471535 	0	805	499	498	805	806	806	114750000	performance	665	31	31	29	31	29	27	100	30
1592836144059573947	1	806	499	499	806	806	806	114750000	performance	665	31	31	29	31	29	27	100	30
1592836144659550440 	0	805	499	499	806	807	804	114750000	performance	665	31	31	29	31	29	27	100	30
1592836146817569667	1	806	499	499	806	806	806	114750000	performance	665	31	31	29	31	29	27	100	30
1592836147426359869 	0	806	499	499	806	806	806	114750000	performance	665	31	31	29	31	29	27	100	30
1592836149551476389	1	806	499	499	806	806	806	114750000	performance	665	31	31	29	31	29	27	100	30
1592836150109472902 	0	806	499	499	805	805	805	114750000	performance	665	31	31	29	31	29	27	100	30
1592836152367504228	1	806	499	499	806	806	806	114750000	performance	665	31	31	29	31	29	27	100	30
1592836152949375338 	0	806	499	499	806	805	806	114750000	performance	665	31	31	29	31	29	27	100	30
1592836155063487485	1	806	499	499	806	806	806	114750000	performance	665	31	31	29	31	29	27	100	30
1592836155655729068 	0	805	499	498	806	806	806	114750000	performance	665	31	31	29	31	29	27	100	30
1592836157847526739	1	806	499	499	806	806	806	114750000	performance	665	31	31	29	31	28	27	100	30
1592836158343513431 	0	806	499	499	806	806	805	114750000	performance	665	31	31	29	31	28	27	100	30
1592836160507496779	1	806	499	499	806	806	806	114750000	performance	665	31	31	29	31	28	27	100	30
1592836160864232272 	0	806	498	499	806	806	806	114750000	performance	665	31	31	29	31	28	27	100	30
