TimeStamp,Total Power,CPU Power,GPU Power
1593902300486731,2.019,0.838,0.152
1593902300988352,1.83,0.686,0.152
1593902301489705,1.601,0.533,0.152
1593902301991111,1.486,0.457,0.152
1593902302492560,1.563,0.457,0.152
1593902302993906,1.715,0.61,0.152
1593902303495253,1.563,0.457,0.152
1593902303996609,1.601,0.457,0.152
1593902304498041,1.792,0.686,0.152
1593902304999598,1.981,0.838,0.152
1593902305501003,2.134,0.915,0.152
1593902306002365,2.058,0.915,0.152
1593902306503747,2.096,0.915,0.152
1593902307005127,2.096,0.915,0.152
1593902307506638,2.134,0.915,0.152
1593902308008059,2.096,0.915,0.152
1593902308509447,2.096,0.915,0.152
1593902309010892,2.134,0.991,0.152
1593902309512361,2.096,0.991,0.152
1593902310013820,2.134,0.915,0.152
1593902310515236,2.172,0.915,0.152
1593902311016664,2.096,0.915,0.152
1593902311518071,2.096,0.915,0.152
1593902312019573,2.134,0.915,0.152
1593902312521024,2.134,0.915,0.152
1593902313022483,2.096,0.915,0.152
1593902313523869,2.096,0.915,0.152
1593902314025285,2.096,0.915,0.152
1593902314526725,2.096,0.991,0.152
1593902315028160,2.096,0.915,0.152
1593902315529563,2.134,0.915,0.152
1593902316030972,2.134,0.915,0.152
1593902316532417,2.134,0.915,0.152
1593902317033857,2.134,0.991,0.152
1593902317535329,2.096,0.991,0.152
1593902318036744,2.172,0.915,0.152
1593902318538133,2.096,0.915,0.152
1593902319039589,2.096,0.915,0.152
1593902319541049,2.096,0.915,0.152
1593902320042482,2.172,0.991,0.152
1593902320543885,2.096,0.915,0.152
1593902321045310,2.134,0.915,0.152
1593902321546744,2.096,0.915,0.152
1593902322048344,2.172,0.915,0.152
1593902322549740,2.134,0.991,0.152
1593902323051160,2.134,0.915,0.152
1593902323552567,2.058,0.915,0.152
1593902324054030,2.096,0.915,0.152
1593902324555468,2.096,0.915,0.152
1593902325056917,2.134,0.991,0.152
1593902325558346,2.134,0.915,0.152
1593902326059883,2.134,0.915,0.152
1593902326561329,2.096,0.915,0.152
1593902327062790,2.096,0.991,0.152
1593902327564247,2.134,0.991,0.152
1593902328065650,2.134,0.991,0.152
1593902328567062,2.172,0.915,0.152
1593902329068505,2.096,0.915,0.152
1593902329569947,2.248,0.991,0.152
1593902330071400,2.172,0.991,0.152
1593902330572832,2.134,0.991,0.152
1593902331074230,2.096,0.915,0.152
1593902331575741,2.134,0.915,0.152
1593902332077205,2.134,0.915,0.152
1593902332578666,2.134,0.915,0.152
1593902333080131,2.096,0.915,0.152
1593902333581564,2.096,0.915,0.152
1593902334082976,2.134,0.915,0.152
1593902334584431,2.134,0.991,0.152
1593902335085913,2.134,0.991,0.152
1593902335587398,2.096,0.991,0.152
1593902336088821,2.172,0.915,0.152
1593902336590347,2.096,0.915,0.152
1593902337091894,2.096,0.915,0.152
1593902337593339,2.134,0.991,0.152
1593902338094789,2.134,0.991,0.152
1593902338596368,2.096,0.915,0.152
1593902339097839,2.096,0.915,0.152
1593902339599363,2.134,0.991,0.152
1593902340100813,2.134,0.991,0.152
1593902340602249,2.058,0.915,0.152
1593902341103676,2.096,0.915,0.152
1593902341605126,2.096,0.915,0.152
1593902342106885,2.134,0.991,0.152
1593902342608398,2.134,0.991,0.152
1593902343109811,2.096,0.915,0.152
1593902343611248,2.134,0.915,0.152
1593902344112719,2.134,0.915,0.152
1593902344614192,2.134,0.991,0.152
1593902345115568,2.096,0.991,0.152
1593902345617005,2.134,0.915,0.152
1593902346118372,2.096,0.915,0.152
1593902346619790,2.096,0.915,0.152
1593902347121235,2.058,0.915,0.152
1593902347622685,2.058,0.915,0.152
1593902348124112,2.096,0.915,0.152
1593902348625488,2.134,0.915,0.152
1593902349126879,2.172,0.915,0.152
1593902349628396,2.134,0.915,0.152
1593902350129822,2.096,0.915,0.152
1593902350631208,2.096,0.915,0.152
1593902351132566,2.096,0.915,0.152
1593902351634007,2.096,0.915,0.152
1593902352135475,2.096,0.915,0.152
1593902352636896,2.096,0.991,0.152
1593902353138306,2.134,0.915,0.152
1593902353639751,2.096,0.915,0.152
1593902354141221,2.096,0.915,0.152
1593902354642633,2.058,0.915,0.152
1593902355144117,2.096,0.991,0.152
1593902355645527,2.096,0.915,0.152
1593902356146935,2.134,0.915,0.152
1593902356648429,2.058,0.915,0.152
1593902357149820,2.096,0.915,0.152
1593902357656598,2.134,0.991,0.152
1593902358158011,2.096,0.915,0.152
1593902358659433,2.134,0.915,0.152
1593902359160868,2.096,0.915,0.152
1593902359662318,2.21,0.915,0.152
1593902360163814,2.134,0.915,0.152
1593902360665248,2.096,0.915,0.152
1593902361166671,2.134,0.915,0.152
1593902361668200,2.096,0.915,0.152
1593902362169656,2.096,0.915,0.152
1593902362671135,2.096,0.991,0.152
1593902363172612,2.096,0.915,0.152
1593902363673988,2.096,0.915,0.152
1593902364175423,2.096,0.915,0.152
1593902364676879,2.134,0.991,0.152
1593902365178371,2.096,0.915,0.152
1593902365679787,2.096,0.915,0.152
1593902366181223,2.134,0.915,0.152
1593902366682653,2.096,0.915,0.152
1593902367184183,2.096,0.915,0.152
1593902367685603,2.096,0.915,0.152
1593902368187006,2.134,0.915,0.152
1593902368688452,2.134,0.915,0.152
1593902369190173,2.058,0.915,0.152
1593902369691676,2.096,0.915,0.152
1593902370193096,2.134,0.915,0.152
1593902370694546,2.134,0.915,0.152
1593902371195986,2.134,0.991,0.152
1593902371697438,2.096,0.915,0.152
1593902372198868,2.134,0.915,0.152
1593902372700458,2.134,0.915,0.152
1593902373201901,2.134,0.991,0.152
1593902373703451,2.096,0.915,0.152
1593902374204861,2.134,0.915,0.152
1593902374706225,2.096,0.915,0.152
1593902375207653,2.096,0.915,0.152
1593902375709129,2.134,0.991,0.152
1593902376210592,2.134,0.991,0.152
1593902376712060,2.134,0.915,0.152
1593902377213469,2.058,0.915,0.152
1593902377714947,2.096,0.915,0.152
1593902378216692,2.096,0.991,0.152
1593902378718160,2.134,0.991,0.152
1593902379219657,2.096,0.915,0.152
1593902379721106,2.096,0.915,0.152
1593902380222550,2.096,0.915,0.152
1593902380724015,2.134,0.991,0.152
1593902381225523,2.096,0.915,0.152
1593902381726930,2.096,0.915,0.152
1593902382228336,2.134,0.915,0.152
1593902382729728,2.096,0.915,0.152
1593902383231179,2.096,0.991,0.152
1593902383732770,2.096,0.991,0.152
1593902384234191,2.096,0.915,0.152
1593902384735623,2.134,0.915,0.152
1593902385237055,2.096,0.915,0.152
1593902385738503,2.134,0.991,0.152
1593902386239986,2.096,0.991,0.152
1593902386741471,2.096,0.915,0.152
1593902387242972,2.134,0.915,0.152
1593902387744429,2.134,0.991,0.152
1593902388245917,2.134,0.991,0.152
1593902388747376,2.172,0.915,0.152
1593902389248762,2.172,0.915,0.152
1593902389750179,2.096,0.915,0.152
1593902390251594,2.096,0.915,0.152
1593902390753027,2.096,0.915,0.152
1593902391254440,2.058,0.915,0.152
1593902391755881,2.096,0.915,0.152
1593902392257329,2.134,0.915,0.152
1593902392758755,2.134,0.991,0.152
1593902393260208,2.134,0.991,0.152
1593902393761670,2.134,0.991,0.152
1593902394263100,2.134,0.991,0.152
1593902394764540,2.096,0.915,0.152
1593902395265951,2.134,0.915,0.152
1593902395767356,2.058,0.915,0.152
1593902396268787,2.096,0.915,0.152
1593902396770257,2.134,0.991,0.152
1593902397271669,2.134,0.915,0.152
1593902397773022,2.058,0.915,0.152
1593902398274382,2.134,0.915,0.152
1593902398775833,2.096,0.915,0.152
1593902399277861,2.058,0.915,0.152
1593902399779246,2.096,0.915,0.152
1593902400280931,2.096,0.915,0.152
1593902400782387,2.134,0.915,0.152
1593902401283844,2.096,0.915,0.152
1593902401785274,2.134,0.991,0.152
1593902402292235,2.096,0.991,0.152
1593902402793671,2.096,0.915,0.152
1593902403295077,2.134,0.915,0.152
1593902403796577,2.096,0.915,0.152
1593902404298023,2.134,0.991,0.152
1593902404799445,2.096,0.991,0.152
1593902405300862,2.134,0.915,0.152
1593902405802275,2.096,0.915,0.152
1593902406303800,2.134,0.915,0.152
1593902406805248,2.134,0.991,0.152
1593902407306664,2.134,0.991,0.152
1593902407808093,2.172,0.991,0.152
1593902408309511,2.134,0.915,0.152
1593902408810929,2.058,0.915,0.152
1593902409316284,2.096,0.991,0.152
1593902409817799,2.096,0.991,0.152
1593902410319226,2.096,0.915,0.152
1593902410820656,2.134,0.915,0.152
1593902411322124,2.096,0.915,0.152
1593902411823602,2.096,0.991,0.152
1593902412325020,2.134,0.991,0.152
1593902412826449,2.134,0.915,0.152
1593902413327924,2.134,0.915,0.152
1593902413829385,2.134,0.991,0.152
1593902414330826,2.096,0.915,0.152
1593902414833074,2.096,0.991,0.152
1593902415334524,2.134,0.915,0.152
1593902415835990,2.096,0.915,0.152
1593902416337478,2.096,0.915,0.152
1593902416838950,2.096,0.991,0.152
1593902417340403,2.096,0.915,0.152
1593902417841813,2.096,0.915,0.152
1593902418343234,2.096,0.915,0.152
1593902418844735,2.172,0.991,0.152
1593902419346228,2.172,0.991,0.152
1593902419847663,2.134,0.915,0.152
1593902420349057,2.134,0.915,0.152
1593902420850500,2.096,0.915,0.152
1593902421352004,2.096,0.915,0.152
1593902421853474,2.096,0.915,0.152
1593902422354891,2.096,0.915,0.152
1593902422856331,2.134,0.915,0.152
1593902423357718,2.096,0.915,0.152
1593902423859156,2.096,0.915,0.152
1593902424360618,2.134,0.991,0.152
1593902424862007,2.134,0.915,0.152
1593902425363395,2.058,0.915,0.152
1593902425864783,2.096,0.915,0.152
1593902426366283,2.134,0.991,0.152
1593902426867754,2.134,0.991,0.152
1593902427369177,2.134,0.915,0.152
1593902427870559,2.058,0.915,0.152
1593902428371976,2.096,0.915,0.152
1593902428873425,2.096,0.915,0.152
1593902429374903,2.096,0.991,0.152
1593902429876305,2.096,0.915,0.152
1593902430377722,2.134,0.915,0.152
1593902430879171,2.134,0.991,0.152
1593902431380569,2.134,0.991,0.152
1593902431882023,2.134,0.991,0.152
1593902432383435,2.096,0.915,0.152
1593902432884835,2.172,0.915,0.152
1593902433386255,2.172,0.915,0.152
1593902433887827,2.172,0.915,0.152
1593902434390476,2.096,0.991,0.152
1593902434891956,2.134,0.991,0.152
1593902435393392,2.096,0.915,0.152
1593902435894858,2.096,0.915,0.152
1593902436396338,2.134,0.915,0.152
1593902436897790,2.096,0.991,0.152
1593902437399217,2.134,0.915,0.152
1593902437900619,2.096,0.915,0.152
1593902438402043,2.134,0.915,0.152
1593902438903550,2.248,0.991,0.152
1593902439405021,2.134,0.915,0.152
1593902439906447,2.096,0.915,0.152
1593902440407880,2.134,0.915,0.152
1593902440909412,2.096,0.915,0.152
1593902441410987,2.096,0.915,0.152
1593902441912510,2.096,0.991,0.152
1593902442413986,2.096,0.991,0.152
1593902442915415,2.096,0.915,0.152
1593902443417641,2.058,0.915,0.152
1593902443919147,2.096,0.915,0.152
1593902444420818,2.096,0.991,0.152
1593902444922274,2.096,0.915,0.152
1593902445423913,2.096,0.991,0.152
1593902445925350,2.134,0.991,0.152
1593902446426777,2.096,0.915,0.152
1593902446928253,2.096,0.991,0.152
1593902447429662,2.096,0.915,0.152
1593902447931164,2.134,0.915,0.152
1593902448432538,2.096,0.915,0.152
1593902448933961,2.172,0.991,0.152
1593902449435479,2.134,0.915,0.152
1593902449936951,2.096,0.915,0.152
1593902450438389,2.096,0.915,0.152
1593902450939852,2.096,0.991,0.152
1593902451441309,2.134,0.991,0.152
1593902451942755,2.172,0.915,0.152
1593902452444192,2.058,0.915,0.152
1593902452945621,2.096,0.915,0.152
1593902453447077,2.134,0.991,0.152
1593902453948604,2.134,0.991,0.152
1593902454450038,2.096,0.915,0.152
1593902454951430,2.096,0.915,0.152
1593902455452788,2.096,0.915,0.152
1593902455954256,2.096,0.915,0.152
1593902456455761,2.096,0.991,0.152
1593902456957194,2.096,0.915,0.152
1593902457458608,2.134,0.915,0.152
1593902457960037,2.096,0.915,0.152
1593902458461478,2.096,0.991,0.152
1593902458962983,2.096,0.991,0.152
1593902459464393,2.096,0.915,0.152
1593902459965775,2.134,0.915,0.152
1593902460467212,2.096,0.915,0.152
1593902460968688,2.096,0.915,0.152
1593902461470170,2.096,0.915,0.152
1593902461971570,2.096,0.915,0.152
1593902462472969,2.134,0.915,0.152
1593902462974371,2.096,0.915,0.152
1593902463475826,2.096,0.991,0.152
1593902463977285,2.134,0.991,0.152
1593902464478798,2.134,0.915,0.152
1593902464980168,2.096,0.915,0.152
1593902465481650,2.096,0.915,0.152
1593902465983128,2.134,0.991,0.152
1593902466484573,2.096,0.991,0.152
1593902466985974,2.134,0.915,0.152
1593902467487369,2.096,0.915,0.152
1593902467989408,2.096,0.915,0.152
1593902468490879,2.134,0.991,0.152
1593902468992345,2.134,0.991,0.152
1593902469493752,2.096,0.915,0.152
1593902469995158,2.096,0.915,0.152
1593902470497897,2.096,0.915,0.152
1593902470999382,2.096,0.991,0.152
1593902471500898,2.096,0.991,0.152
1593902472002350,2.134,0.915,0.152
1593902472503772,2.134,0.991,0.152
1593902473005218,2.096,0.991,0.152
1593902473507370,2.134,0.915,0.152
1593902474008843,2.134,0.991,0.152
1593902474510289,2.134,0.991,0.152
1593902475011776,2.096,0.991,0.152
1593902475513183,2.096,0.915,0.152
1593902476014595,2.134,0.915,0.152
1593902476516054,2.096,0.915,0.152
1593902477017540,2.096,0.991,0.152
1593902477519019,2.134,0.991,0.152
1593902478020433,2.134,0.915,0.152
1593902478521866,2.134,0.915,0.152
1593902479023291,2.172,0.915,0.152
1593902479524763,2.134,0.915,0.152
1593902480026173,2.134,0.915,0.152
1593902480527592,2.058,0.915,0.152
1593902481028998,2.096,0.915,0.152
1593902481530452,2.096,0.915,0.152
1593902482031901,2.134,0.991,0.152
1593902482533308,2.134,0.991,0.152
1593902483034713,2.058,0.915,0.152
1593902483536137,2.134,0.915,0.152
1593902484037522,2.134,0.991,0.152
1593902484539010,2.096,0.991,0.152
1593902485040478,2.134,0.991,0.152
1593902485541900,2.096,0.915,0.152
1593902486043296,2.172,0.915,0.152
1593902486544711,2.134,0.991,0.152
1593902487046177,2.134,0.991,0.152
1593902487547618,2.134,0.991,0.152
1593902488049042,2.134,0.915,0.152
1593902488550471,2.134,0.915,0.152
1593902489051910,2.096,0.991,0.152
1593902489553343,2.096,0.991,0.152
1593902490054752,2.172,0.915,0.152
1593902490556163,2.096,0.915,0.152
1593902491057638,2.096,0.915,0.152
1593902491559126,2.096,0.915,0.152
1593902492060631,2.134,0.991,0.152
1593902492562051,2.134,0.915,0.152
1593902493063444,2.096,0.915,0.152
1593902493564878,2.096,0.915,0.152
1593902494066284,2.096,0.991,0.152
1593902494567762,2.096,0.991,0.152
1593902495069158,2.172,0.915,0.152
1593902495570578,2.096,0.915,0.152
1593902496072047,2.134,0.991,0.152
1593902496573504,2.134,0.991,0.152
1593902497074930,2.134,0.991,0.152
1593902497576313,2.058,0.915,0.152
1593902498077653,2.096,0.915,0.152
1593902498579094,2.096,0.915,0.152
1593902499080630,2.096,0.915,0.152
1593902499582118,2.096,0.915,0.152
1593902500083608,2.096,0.915,0.152
1593902500585018,2.134,0.915,0.152
1593902501086408,2.134,0.915,0.152
1593902501587879,2.096,0.915,0.152
1593902502089355,2.134,0.991,0.152
1593902502590800,2.134,0.991,0.152
1593902503092223,2.096,0.915,0.152
1593902503593697,2.096,0.915,0.152
1593902504095185,2.134,0.991,0.152
1593902504596703,2.096,0.991,0.152
1593902505098148,2.172,0.915,0.152
1593902505599585,2.134,0.915,0.152
1593902506101007,2.096,0.991,0.152
1593902506602426,2.096,0.991,0.152
1593902507103833,2.096,0.915,0.152
1593902507605221,2.058,0.915,0.152
1593902508106664,2.096,0.915,0.152
1593902508608237,2.096,0.915,0.152
1593902509109690,2.096,0.991,0.152
1593902509611136,2.172,0.915,0.152
1593902510112574,2.096,0.915,0.152
1593902510614036,2.096,0.915,0.152
1593902511115480,2.134,0.991,0.152
1593902511616930,2.134,0.991,0.152
1593902512118342,2.172,0.991,0.152
1593902512619755,2.096,0.915,0.152
1593902513121159,2.134,0.991,0.152
1593902513622632,2.096,0.991,0.152
1593902514124115,2.134,0.991,0.152
1593902514625539,2.096,0.915,0.152
1593902515126999,2.134,0.915,0.152
1593902515628431,2.096,0.915,0.152
1593902516129867,2.134,0.991,0.152
1593902516631349,2.096,0.991,0.152
1593902517132776,2.096,0.915,0.152
1593902517634203,2.134,0.915,0.152
1593902518135641,2.134,0.991,0.152
1593902518637105,2.134,0.991,0.152
1593902519138566,2.096,0.991,0.152
1593902519639953,2.096,0.915,0.152
1593902520141354,2.134,0.915,0.152
1593902520642782,2.134,0.915,0.152
1593902521144222,2.134,0.991,0.152
1593902521645682,2.134,0.991,0.152
1593902522147096,2.096,0.915,0.152
1593902522648535,2.096,0.915,0.152
1593902523150009,2.134,0.915,0.152
1593902523651464,2.096,0.915,0.152
1593902524152948,2.058,0.915,0.152
1593902524654371,2.058,0.915,0.152
1593902525155832,2.096,0.915,0.152
1593902525657961,2.134,0.915,0.152
1593902526159480,2.096,0.915,0.152
1593902526660982,2.096,0.915,0.152
1593902527162397,2.096,0.915,0.152
1593902527663813,2.096,0.915,0.152
1593902528165304,2.058,0.915,0.152
1593902528667256,2.248,0.915,0.152
1593902529169366,2.286,0.915,0.152
1593902529672715,2.096,0.915,0.152
1593902530174736,2.134,0.915,0.152
1593902530676771,2.096,0.915,0.152
1593902531178732,2.096,0.915,0.152
1593902531680725,2.096,0.915,0.152
1593902532182817,2.172,0.915,0.152
1593902532684808,2.096,0.915,0.152
1593902533186848,2.096,0.915,0.152
1593902533688978,2.134,0.991,0.152
1593902534190890,2.134,0.991,0.152
1593902534707506,2.134,0.915,0.152
1593902535209603,2.096,0.915,0.152
1593902535711784,2.134,0.991,0.152
1593902536213746,2.134,0.991,0.152
1593902536715702,2.134,0.991,0.152
1593902537217300,2.172,0.915,0.152
1593902537718713,2.058,0.915,0.152
1593902538220193,2.096,0.915,0.152
1593902538721684,2.134,0.915,0.152
1593902539223136,2.134,0.991,0.152
1593902539724582,2.096,0.915,0.152
1593902540225945,2.096,0.915,0.152
1593902540727405,2.096,0.915,0.152
1593902541228854,2.096,0.991,0.152
1593902541730371,2.134,0.991,0.152
1593902542231797,2.096,0.915,0.152
1593902542733218,2.096,0.915,0.152
1593902543234686,2.096,0.991,0.152
1593902543736122,2.096,0.991,0.152
1593902544237530,2.096,0.991,0.152
1593902544738938,2.134,0.915,0.152
1593902545240347,2.134,0.915,0.152
1593902545741780,2.058,0.915,0.152
1593902546243236,2.134,0.991,0.152
1593902546744740,2.134,0.991,0.152
1593902547246122,2.096,0.915,0.152
1593902547747616,2.096,0.915,0.152
1593902548249093,2.096,0.991,0.152
1593902548750561,2.096,0.991,0.152
1593902549251994,2.134,0.915,0.152
1593902549756206,2.096,0.915,0.152
1593902550258413,2.134,0.915,0.152
1593902550760463,2.134,0.991,0.152
1593902551262495,2.134,0.915,0.152
1593902551764538,2.058,0.915,0.152
1593902552266510,2.134,0.915,0.152
1593902552768924,2.096,0.915,0.152
1593902553270913,2.096,0.991,0.152
1593902553773120,2.096,0.915,0.152
1593902554275131,2.096,0.915,0.152
1593902554777316,2.096,0.915,0.152
1593902555279294,2.096,0.915,0.152
1593902555781247,2.096,0.991,0.152
1593902556283230,2.134,0.991,0.152
1593902556784887,2.134,0.915,0.152
1593902557286301,2.096,0.915,0.152
1593902557787803,2.096,0.915,0.152
1593902558289253,2.058,0.915,0.152
1593902558790667,2.134,0.991,0.152
1593902559292105,2.096,0.915,0.152
1593902559793576,2.096,0.915,0.152
1593902560295016,2.096,0.915,0.152
1593902560796471,2.096,0.991,0.152
1593902561297972,2.096,0.915,0.152
1593902561799376,2.096,0.915,0.152
1593902562300849,2.096,0.915,0.152
1593902562802302,2.096,0.915,0.152
1593902563303785,2.096,0.991,0.152
1593902563805179,2.096,0.915,0.152
1593902564306631,2.096,0.915,0.152
1593902564808080,2.096,0.991,0.152
1593902565310263,2.134,0.991,0.152
1593902565811696,2.058,0.915,0.152
1593902566313163,2.096,0.991,0.152
1593902566814654,2.134,0.991,0.152
1593902567316119,2.172,0.915,0.152
1593902567817471,2.096,0.915,0.152
1593902568318901,2.096,0.915,0.152
1593902568820367,2.096,0.915,0.152
1593902569321834,2.134,0.991,0.152
1593902569823287,2.096,0.915,0.152
1593902570324744,2.172,0.915,0.152
1593902570826211,2.096,0.915,0.152
1593902571327696,2.134,0.991,0.152
1593902571829120,2.134,0.991,0.152
1593902572330823,2.134,0.915,0.152
1593902572832314,2.096,0.915,0.152
1593902573333770,2.134,0.991,0.152
1593902573835222,2.134,0.991,0.152
1593902574336748,2.172,0.991,0.152
1593902574838180,2.134,0.991,0.152
1593902575339636,2.134,0.991,0.152
1593902575841084,2.134,0.991,0.152
1593902576342520,2.096,0.991,0.152
1593902576843928,2.134,0.915,0.152
1593902577345323,2.134,0.991,0.152
1593902577846729,2.096,0.915,0.152
1593902578348176,2.134,0.991,0.152
1593902578849551,2.096,0.915,0.152
1593902579350892,2.134,0.915,0.152
1593902579852380,2.096,0.991,0.152
1593902580353807,2.134,0.991,0.152
1593902580855232,2.134,0.991,0.152
1593902581356636,2.134,0.915,0.152
1593902581858151,2.058,0.915,0.152
1593902582359591,2.134,0.991,0.152
1593902582861039,2.134,0.991,0.152
1593902583362423,2.134,0.991,0.152
1593902583863817,2.172,0.915,0.152
1593902584365302,2.096,0.915,0.152
1593902584866723,2.096,0.915,0.152
1593902585368163,2.096,0.915,0.152
1593902585869593,2.172,0.991,0.152
1593902586370944,2.172,0.915,0.152
1593902586872322,2.134,0.915,0.152
1593902587373752,2.172,0.915,0.152
1593902587875243,2.134,0.991,0.152
1593902588376686,2.096,0.915,0.152
1593902588878099,2.134,0.915,0.152
1593902589379989,2.172,0.915,0.152
1593902589881981,2.134,0.991,0.152
1593902590383903,2.134,0.991,0.152
1593902590885868,2.096,0.915,0.152
1593902591387974,2.21,0.915,0.152
1593902591893098,2.096,0.915,0.152
1593902592395278,2.134,0.991,0.152
1593902592897270,2.172,0.915,0.152
1593902593405144,2.286,0.915,0.152
1593902593907275,2.324,0.915,0.152
1593902594409389,2.21,0.915,0.152
1593902594911492,2.096,0.915,0.152
1593902595413482,2.134,0.991,0.152
1593902595919089,2.096,0.991,0.152
1593902596421142,2.134,0.991,0.152
1593902596923153,2.134,0.991,0.152
1593902597425228,2.134,0.991,0.152
1593902597927230,2.172,0.915,0.152
1593902598429335,2.134,0.915,0.152
1593902598931369,2.134,0.915,0.152
1593902599436197,2.134,0.991,0.152
1593902599938183,2.286,0.915,0.152
1593902600440286,2.134,0.915,0.152
1593902600942246,2.096,0.915,0.152
1593902601444412,2.172,0.915,0.152
1593902601946401,2.172,0.991,0.152
1593902602448525,2.096,0.915,0.152
1593902602950487,2.058,0.915,0.152
1593902603456980,2.096,0.915,0.152
1593902603958931,2.096,0.991,0.152
1593902604464179,2.096,0.915,0.152
1593902604966270,2.286,0.915,0.152
1593902605468253,2.21,0.915,0.152
1593902605970237,2.134,0.915,0.152
1593902606472335,2.096,0.915,0.152
1593902606974306,2.096,0.991,0.152
1593902607476496,2.096,0.915,0.152
1593902607978452,2.096,0.915,0.152
1593902608480456,2.096,0.915,0.152
1593902608982416,2.286,0.991,0.152
1593902609487457,2.21,0.915,0.152
1593902609993271,2.21,0.915,0.152
1593902610495477,2.096,0.915,0.152
1593902610997644,2.134,0.991,0.152
1593902611499725,2.058,0.915,0.152
1593902612001719,2.134,0.991,0.152
1593902612503714,2.096,0.915,0.152
1593902613005693,2.096,0.915,0.152
1593902613507723,2.096,0.915,0.152
1593902614009735,2.096,0.991,0.152
1593902614514471,2.096,0.915,0.152
1593902615017600,2.096,0.915,0.152
1593902615519962,2.058,0.915,0.152
1593902616021965,2.21,0.991,0.152
1593902616523987,2.21,0.915,0.152
1593902617025999,2.172,0.991,0.152
1593902617528045,2.096,0.991,0.152
1593902618030043,2.096,0.991,0.152
1593902618532015,2.096,0.915,0.152
1593902619034094,2.134,0.915,0.152
1593902619539191,2.096,0.915,0.152
1593902620041213,2.096,0.991,0.152
1593902620543229,2.134,0.991,0.152
1593902621045289,2.134,0.915,0.152
1593902621547473,2.21,0.915,0.152
1593902622049548,2.172,0.915,0.152
1593902622551664,2.172,0.915,0.152
1593902623053812,2.134,0.991,0.152
1593902623555854,2.134,0.915,0.152
1593902624063675,2.096,0.915,0.152
1593902624569618,2.058,0.915,0.152
1593902625071660,2.096,0.915,0.152
1593902625573728,2.096,0.991,0.152
1593902626077071,2.058,0.915,0.152
1593902626579081,2.134,0.915,0.152
1593902627081154,2.058,0.915,0.152
1593902627583130,2.096,0.991,0.152
1593902628085172,2.134,0.991,0.152
1593902628587189,2.096,0.915,0.152
1593902629092346,2.172,0.915,0.152
1593902629601450,2.096,0.915,0.152
1593902630102848,2.134,0.991,0.152
1593902630604622,2.096,0.915,0.152
1593902631106082,2.134,0.991,0.152
1593902631607472,2.058,0.915,0.152
1593902632108907,2.096,0.915,0.152
1593902632610417,2.134,0.991,0.152
1593902633111884,2.134,0.991,0.152
1593902633613278,2.172,0.915,0.152
1593902634114666,2.096,0.915,0.152
1593902634616127,2.096,0.915,0.152
1593902635117550,2.134,0.991,0.152
1593902635618992,2.134,0.991,0.152
1593902636120407,2.172,0.915,0.152
1593902636621864,2.134,0.915,0.152
1593902637123339,2.134,0.991,0.152
1593902637624784,2.134,0.991,0.152
1593902638126228,2.096,0.991,0.152
1593902638627653,2.134,0.915,0.152
1593902639129105,2.134,0.915,0.152
1593902639630573,2.096,0.915,0.152
1593902640132005,2.172,0.991,0.152
1593902640633379,2.134,0.991,0.152
1593902641134776,2.134,0.915,0.152
1593902641636202,2.134,0.915,0.152
1593902642137675,2.134,0.991,0.152
1593902642639140,2.096,0.991,0.152
1593902643140677,2.096,0.915,0.152
1593902643642072,2.134,0.915,0.152
1593902644143559,2.096,0.915,0.152
1593902644645000,2.134,0.915,0.152
1593902645146469,2.134,0.991,0.152
1593902645647982,2.096,0.991,0.152
1593902646149420,2.172,0.915,0.152
1593902646650873,2.134,0.915,0.152
1593902647152318,2.172,0.915,0.152
1593902647653770,2.134,0.991,0.152
1593902648155233,2.096,0.915,0.152
1593902648656697,2.134,0.915,0.152
1593902649158066,2.058,0.915,0.152
1593902649659483,2.096,0.915,0.152
1593902650160984,2.134,0.991,0.152
1593902650662439,2.096,0.915,0.152
1593902651163848,2.058,0.915,0.152
1593902651667164,2.096,0.915,0.152
1593902652168635,2.096,0.915,0.152
1593902652670196,2.134,0.991,0.152
1593902653171600,2.096,0.915,0.152
1593902653672990,2.096,0.915,0.152
1593902654174430,2.134,0.915,0.152
1593902654675863,2.248,0.991,0.152
1593902655177273,2.172,0.991,0.152
1593902655678691,2.096,0.915,0.152
1593902656180147,2.134,0.915,0.152
1593902656681553,2.134,0.915,0.152
1593902657183019,2.096,0.915,0.152
1593902657684474,2.134,0.991,0.152
1593902658185923,2.134,0.915,0.152
1593902658687358,2.096,0.915,0.152
1593902659188820,2.134,0.915,0.152
1593902659690275,2.248,0.915,0.152
1593902660191796,2.172,0.991,0.152
1593902660693274,2.134,0.915,0.152
1593902661194714,2.096,0.915,0.152
1593902661696187,2.134,0.915,0.152
1593902662197619,2.134,0.991,0.152
1593902662699023,2.096,0.991,0.152
1593902663200669,2.134,0.915,0.152
1593902663702135,2.096,0.915,0.152
1593902664203623,2.096,0.915,0.152
1593902664705038,2.134,0.991,0.152
1593902665206522,2.134,0.991,0.152
1593902665707961,2.096,0.915,0.152
1593902666209341,2.096,0.915,0.152
1593902666710719,2.134,0.915,0.152
1593902667212203,2.134,0.991,0.152
1593902667713670,2.058,0.915,0.152
1593902668215163,2.096,0.915,0.152
1593902668716538,2.096,0.915,0.152
1593902669218010,2.096,0.915,0.152
1593902669719477,2.096,0.915,0.152
1593902670220947,2.096,0.991,0.152
1593902670722465,2.058,0.915,0.152
1593902671223866,2.134,0.915,0.152
1593902671725290,2.096,0.915,0.152
1593902672226703,2.096,0.991,0.152
1593902672728138,2.096,0.991,0.152
1593902673229587,2.096,0.915,0.152
1593902673731002,2.134,0.915,0.152
1593902674232636,2.134,0.991,0.152
1593902674734097,2.134,0.991,0.152
1593902675235619,2.134,0.991,0.152
1593902675737040,2.096,0.915,0.152
1593902676238473,2.172,0.915,0.152
1593902676739926,2.096,0.915,0.152
1593902677241424,2.096,0.991,0.152
1593902677743052,2.096,0.991,0.152
1593902678245035,2.096,0.915,0.152
1593902678747792,2.134,0.915,0.152
1593902679249772,2.096,0.915,0.152
1593902679751760,2.096,0.991,0.152
1593902680253756,2.096,0.991,0.152
1593902680755742,2.134,0.915,0.152
1593902681257883,2.134,0.915,0.152
1593902681759895,2.096,0.915,0.152
1593902682261869,2.134,0.991,0.152
1593902682763891,2.096,0.991,0.152
1593902683265801,2.134,0.915,0.152
1593902683768024,2.096,0.915,0.152
1593902684269956,2.134,0.991,0.152
1593902684771925,2.134,0.991,0.152
1593902685273884,2.096,0.991,0.152
1593902685776074,2.096,0.915,0.152
1593902686283037,2.134,0.915,0.152
1593902686784953,2.096,0.991,0.152
1593902687286959,2.096,0.991,0.152
1593902687789094,2.058,0.915,0.152
1593902688291018,2.096,0.915,0.152
1593902688793328,2.134,0.915,0.152
1593902689295357,2.134,0.991,0.152
1593902689797296,2.134,0.991,0.152
1593902690299238,2.21,0.915,0.152
1593902690801434,2.134,0.915,0.152
1593902691303529,2.096,0.915,0.152
1593902691808668,2.096,0.915,0.152
1593902692310610,2.096,0.991,0.152
1593902692812769,2.134,0.991,0.152
1593902693314781,2.096,0.915,0.152
1593902693816797,2.096,0.915,0.152
1593902694318803,2.096,0.915,0.152
1593902694820749,2.096,0.991,0.152
1593902695322821,2.096,0.991,0.152
1593902695824776,2.096,0.915,0.152
1593902696329814,2.134,0.915,0.152
1593902696835201,2.096,0.915,0.152
1593902697337215,2.096,0.991,0.152
1593902697839207,2.096,0.915,0.152
1593902698341428,2.096,0.915,0.152
1593902698843488,2.058,0.915,0.152
1593902699345528,2.096,0.915,0.152
1593902699847771,2.096,0.915,0.152
1593902700349801,2.134,0.991,0.152
1593902700854705,2.134,0.991,0.152
1593902701356808,2.134,0.991,0.152
1593902701858805,2.096,0.991,0.152
1593902702361491,2.134,0.991,0.152
1593902702863816,2.096,0.915,0.152
1593902703365770,2.134,0.991,0.152
1593902703867730,2.134,0.991,0.152
1593902704369646,2.134,0.991,0.152
1593902704871824,2.134,0.915,0.152
1593902705373890,2.058,0.915,0.152
1593902705876059,2.134,0.915,0.152
1593902706378000,2.134,0.991,0.152
1593902706880050,2.134,0.991,0.152
1593902707382180,2.134,0.991,0.152
1593902707884186,2.134,0.915,0.152
1593902708386231,2.134,0.991,0.152
1593902708888229,2.134,0.991,0.152
1593902709390350,2.134,0.991,0.152
1593902709892497,2.134,0.915,0.152
1593902710394614,2.058,0.915,0.152
1593902710897047,2.134,0.991,0.152
1593902711399104,2.096,0.991,0.152
1593902711901097,2.096,0.915,0.152
1593902712412187,2.134,0.915,0.152
1593902712914170,2.096,0.991,0.152
1593902713416198,2.096,0.991,0.152
1593902713917757,2.058,0.915,0.152
1593902714419167,2.096,0.915,0.152
1593902714920599,2.134,0.915,0.152
1593902715422056,2.096,0.991,0.152
1593902715923538,2.096,0.915,0.152
1593902716425084,2.134,0.991,0.152
1593902716926484,2.134,0.915,0.152
1593902717427930,2.096,0.915,0.152
1593902717929411,2.096,0.915,0.152
1593902718430864,2.172,0.991,0.152
1593902718932282,2.172,0.991,0.152
1593902719433639,2.058,0.915,0.152
1593902719935023,2.21,0.915,0.152
1593902720436459,2.286,0.915,0.152
1593902720937880,2.172,0.991,0.152
1593902721439324,2.172,0.915,0.152
1593902721940707,2.096,0.915,0.152
1593902722442078,2.134,0.915,0.152
1593902722943553,2.096,0.915,0.152
1593902723444946,2.058,0.915,0.152
1593902723947044,2.134,0.915,0.152
1593902724448482,2.096,0.915,0.152
1593902724949937,2.096,0.991,0.152
1593902725451394,2.096,0.915,0.152
1593902725952879,2.096,0.915,0.152
1593902726454328,2.096,0.915,0.152
1593902726956048,2.096,0.915,0.152
1593902727457535,2.096,0.991,0.152
1593902727958979,2.134,0.991,0.152
1593902728460454,2.134,0.991,0.152
1593902728961939,2.096,0.915,0.152
1593902729463858,2.096,0.991,0.152
1593902729965252,2.172,0.915,0.152
1593902730466604,2.096,0.915,0.152
1593902730968019,2.096,0.915,0.152
1593902731469454,2.096,0.991,0.152
1593902731970964,2.134,0.991,0.152
1593902732472376,2.096,0.915,0.152
1593902732973793,2.096,0.915,0.152
1593902733475233,2.096,0.915,0.152
1593902733976956,2.096,0.991,0.152
1593902734478417,2.134,0.991,0.152
1593902734979838,2.058,0.915,0.152
1593902735481204,2.096,0.915,0.152
1593902735982680,2.134,0.991,0.152
1593902736484121,2.134,0.991,0.152
1593902736985616,2.134,0.991,0.152
1593902737487024,2.096,0.915,0.152
1593902737988485,2.096,0.915,0.152
1593902738489922,2.096,0.915,0.152
1593902738992301,2.096,0.991,0.152
1593902739493709,2.096,0.915,0.152
1593902739995124,2.096,0.915,0.152
1593902740496594,2.096,0.915,0.152
1593902740998050,2.096,0.991,0.152
1593902741499486,2.096,0.991,0.152
1593902742000896,2.096,0.915,0.152
1593902742502297,2.134,0.915,0.152
1593902743003833,2.134,0.915,0.152
1593902743505267,2.134,0.991,0.152
1593902744006713,2.096,0.991,0.152
1593902744508174,2.134,0.915,0.152
1593902745009634,2.096,0.915,0.152
1593902745511077,2.134,0.991,0.152
1593902746012520,2.134,0.915,0.152
1593902746514034,2.134,0.915,0.152
1593902747015448,2.058,0.915,0.152
1593902747516941,2.096,0.915,0.152
1593902748018355,2.096,0.915,0.152
1593902748519819,2.096,0.915,0.152
1593902749021244,2.134,0.991,0.152
1593902749522920,2.134,0.915,0.152
1593902750024393,2.248,0.915,0.152
1593902750525813,2.21,0.991,0.152
1593902751027242,2.134,0.991,0.152
1593902751528711,2.134,0.915,0.152
1593902752030066,2.096,0.915,0.152
1593902752531457,2.058,0.915,0.152
1593902753036662,2.096,0.915,0.152
1593902753538076,2.096,0.915,0.152
1593902754039557,2.096,0.915,0.152
1593902754541055,2.134,0.915,0.152
1593902755042506,2.096,0.915,0.152
1593902755543970,2.096,0.991,0.152
1593902756045380,2.096,0.915,0.152
1593902756546838,2.096,0.915,0.152
1593902757048393,2.096,0.991,0.152
1593902757549848,2.096,0.991,0.152
1593902758052021,2.096,0.915,0.152
1593902758553458,2.096,0.915,0.152
1593902759054928,2.096,0.991,0.152
1593902759559470,2.096,0.915,0.152
1593902760060923,2.134,0.991,0.152
1593902760562290,2.096,0.915,0.152
1593902761063728,2.096,0.915,0.152
1593902761568876,2.134,0.915,0.152
1593902762070326,2.134,0.991,0.152
1593902762571784,2.096,0.915,0.152
1593902763073219,2.096,0.915,0.152
1593902763574625,2.134,0.915,0.152
1593902764076037,2.096,0.915,0.152
1593902764580181,2.096,0.991,0.152
1593902765081592,2.096,0.991,0.152
1593902765583014,2.134,0.915,0.152
1593902766084449,2.134,0.915,0.152
1593902766585894,2.172,0.915,0.152
1593902767087384,2.096,0.991,0.152
1593902767588796,2.172,0.991,0.152
1593902768090225,2.134,0.915,0.152
1593902768591598,2.096,0.915,0.152
1593902769093081,2.134,0.991,0.152
1593902769597231,2.096,0.915,0.152
1593902770098734,2.172,0.991,0.152
1593902770600168,2.134,0.915,0.152
1593902771101538,2.096,0.915,0.152
1593902771602944,2.134,0.915,0.152
1593902772104417,2.134,0.991,0.152
1593902772605906,2.096,0.991,0.152
1593902773107341,2.096,0.915,0.152
1593902773608773,2.096,0.915,0.152
1593902774110211,2.134,0.991,0.152
1593902774614326,2.096,0.991,0.152
1593902775115762,2.058,0.915,0.152
1593902775617148,2.058,0.915,0.152
1593902776118568,2.134,0.915,0.152
1593902776620069,2.096,0.915,0.152
1593902777121521,2.096,0.915,0.152
1593902777622973,2.134,0.991,0.152
1593902778124380,2.134,0.991,0.152
1593902778625773,2.172,0.915,0.152
1593902779127773,2.096,0.915,0.152
1593902779630414,2.134,0.991,0.152
1593902780131883,2.134,0.991,0.152
1593902780633325,2.134,0.991,0.152
1593902781134761,2.134,0.915,0.152
1593902781636157,2.134,0.915,0.152
1593902782137600,2.096,0.915,0.152
1593902782639005,2.096,0.915,0.152
1593902783140444,2.096,0.991,0.152
1593902783641858,2.134,0.915,0.152
1593902784143275,2.096,0.915,0.152
1593902784647612,2.096,0.915,0.152
1593902785149044,2.134,0.991,0.152
1593902785650454,2.134,0.991,0.152
1593902786151867,2.134,0.915,0.152
1593902786653294,2.058,0.915,0.152
1593902787154781,2.096,0.991,0.152
1593902787656220,2.096,0.991,0.152
1593902788157738,2.096,0.915,0.152
1593902788659143,2.058,0.915,0.152
1593902789160667,2.058,0.915,0.152
1593902789664858,2.096,0.915,0.152
1593902790166407,2.096,0.915,0.152
1593902790667820,2.096,0.915,0.152
1593902791169274,2.096,0.915,0.152
1593902791670715,2.096,0.991,0.152
1593902792172206,2.096,0.915,0.152
1593902792673694,2.134,0.991,0.152
1593902793175119,2.096,0.915,0.152
1593902793676536,2.096,0.915,0.152
1593902794177935,2.134,0.915,0.152
1593902794682418,2.134,0.991,0.152
1593902795183906,2.134,0.991,0.152
1593902795685312,2.096,0.915,0.152
1593902796186767,2.134,0.915,0.152
1593902796688236,2.134,0.991,0.152
1593902797189730,2.134,0.991,0.152
1593902797691144,2.096,0.915,0.152
1593902798192546,2.134,0.915,0.152
1593902798693947,2.096,0.915,0.152
1593902799195499,2.096,0.991,0.152
1593902799699684,2.096,0.991,0.152
1593902800201104,2.096,0.915,0.152
1593902800702537,2.134,0.915,0.152
1593902801204072,2.096,0.915,0.152
1593902801705484,2.096,0.991,0.152
1593902802206923,2.134,0.991,0.152
1593902802708405,2.134,0.915,0.152
1593902803209817,2.134,0.915,0.152
1593902803711253,2.096,0.915,0.152
1593902804212821,2.096,0.915,0.152
1593902804716933,2.096,0.991,0.152
1593902805218388,2.134,0.915,0.152
1593902805719829,2.172,0.915,0.152
1593902806221231,2.134,0.991,0.152
1593902806722644,2.134,0.991,0.152
1593902807224104,2.096,0.915,0.152
1593902807725535,2.134,0.915,0.152
1593902808226959,2.134,0.915,0.152
1593902808728422,2.134,0.915,0.152
1593902809229875,2.096,0.915,0.152
1593902809733845,2.096,0.915,0.152
1593902810235247,2.134,0.915,0.152
1593902810736650,2.096,0.915,0.152
1593902811238090,2.096,0.915,0.152
1593902811739520,2.096,0.991,0.152
1593902812240993,2.134,0.991,0.152
1593902812742393,2.058,0.915,0.152
1593902813243825,2.096,0.915,0.152
1593902813745280,2.134,0.915,0.152
1593902814246725,2.134,0.991,0.152
1593902814750678,2.134,0.991,0.152
1593902815252176,2.096,0.915,0.152
1593902815753583,2.096,0.915,0.152
1593902816254984,2.134,0.915,0.152
1593902816756401,2.096,0.991,0.152
1593902817257846,2.134,0.991,0.152
1593902817759249,2.096,0.915,0.152
1593902818260667,2.134,0.915,0.152
1593902818762099,2.134,0.915,0.152
1593902819263572,2.096,0.991,0.152
1593902819767785,2.096,0.991,0.152
1593902820269209,2.134,0.991,0.152
1593902820770623,2.096,0.915,0.152
1593902821272031,2.096,0.991,0.152
1593902821773446,2.096,0.991,0.152
1593902822274841,2.172,0.991,0.152
1593902822776181,2.096,0.915,0.152
1593902823277575,2.134,0.915,0.152
1593902823779028,2.096,0.991,0.152
1593902824280484,2.134,0.991,0.152
1593902824784710,2.134,0.915,0.152
1593902825286097,2.058,0.915,0.152
1593902825787613,2.096,0.915,0.152
1593902826289035,2.134,0.991,0.152
1593902826790521,2.134,0.991,0.152
1593902827292111,2.172,0.991,0.152
1593902827793472,2.058,0.915,0.152
1593902828294840,2.058,0.915,0.152
1593902828796593,2.096,0.915,0.152
1593902829298018,2.096,0.991,0.152
1593902829802012,2.096,0.915,0.152
1593902830303499,2.134,0.915,0.152
1593902830804977,2.096,0.991,0.152
1593902831306566,2.096,0.991,0.152
1593902831808678,2.134,0.991,0.152
1593902832310661,2.134,0.915,0.152
1593902832812826,2.134,0.915,0.152
1593902833314819,2.096,0.991,0.152
1593902833816886,2.096,0.991,0.152
1593902834318862,2.096,0.991,0.152
1593902834824043,2.096,0.915,0.152
1593902835325581,2.096,0.915,0.152
1593902835827047,2.058,0.915,0.152
1593902836328496,2.096,0.915,0.152
1593902836829933,2.134,0.991,0.152
1593902837331331,2.096,0.915,0.152
1593902837832742,2.096,0.915,0.152
1593902838336204,2.096,0.915,0.152
1593902838837658,2.096,0.991,0.152
1593902839339088,2.096,0.991,0.152
1593902839840479,2.096,0.915,0.152
1593902840341866,2.134,0.915,0.152
1593902840843266,2.134,0.991,0.152
1593902841344777,2.096,0.991,0.152
1593902841846243,2.096,0.915,0.152
1593902842347697,2.134,0.915,0.152
1593902842849139,2.134,0.915,0.152
1593902843350608,2.096,0.991,0.152
1593902843852139,2.058,0.915,0.152
1593902844353535,2.058,0.915,0.152
1593902844854931,2.134,0.915,0.152
1593902845356428,2.096,0.915,0.152
1593902845857874,2.134,0.991,0.152
1593902846359642,2.096,0.915,0.152
1593902846861165,2.134,0.991,0.152
1593902847362621,2.134,0.915,0.152
1593902847864104,2.096,0.991,0.152
1593902848365516,2.134,0.991,0.152
1593902848866982,2.096,0.915,0.152
1593902849380642,2.096,0.915,0.152
