TimeStamp,Total Power,CPU Power,GPU Power
1592953579967405,4.495,1.828,0.152
1592953580468687,4.419,1.828,0.152
1592953580969940,4.457,1.904,0.152
1592953581471214,4.457,1.904,0.152
1592953581972467,4.609,1.904,0.152
1592953582473730,4.533,1.904,0.152
1592953582975004,4.723,1.904,0.152
1592953583476324,4.8,1.904,0.152
