timestamp	VIRTUAL_SCALING	CPU0_F	CPU1_F	CPU2_F	CPU3_F	CPU4_F	CPU5_F	GPU_FREQ	CPU_GOVERNOR	EMC_F	TEMP0	TEMP1	TEMP2	TEMP3	TEMP4	TEMP5	TEMP6	TEMP7
1592953580033583500	1	1881	1574	1574	1881	1881	1881	114750000	performance	1866	30	30	28	30	27	26	100	30
1592953580066214482 	0	1880	1574	1574	1843	1843	1843	114750000	performance	1866	30	30	28	30	27	26	100	30
1592953581873348320	1	1881	1574	1574	1881	1881	1881	114750000	performance	1866	31	31	29	31	27	26	100	30
1592953582089402079 	0	1876	1574	1575	1873	1884	1878	114750000	performance	1866	31	31	28	31	27	26	100	30
1592953583658156745	1	1881	1574	1574	1881	1881	1881	114750000	performance	1866	31	31	28	31	27	26	100	30
