TimeStamp,Total Power,CPU Power,GPU Power
1592834266077037,4.19,1.753,0.152
1592834266579160,4.076,1.6,0.152
1592834267081425,4.114,1.676,0.152
1592834267583519,4.114,1.676,0.152
1592834268085615,4.114,1.676,0.152
1592834268587697,4.152,1.676,0.152
1592834269089889,4.152,1.676,0.152
1592834269591964,4.114,1.676,0.152
1592834270093990,4.114,1.753,0.152
1592834270595987,4.114,1.676,0.152
1592834271098254,4.114,1.676,0.152
1592834271600396,4.152,1.676,0.152
1592834272102341,4.114,1.676,0.152
1592834272604455,4.266,1.676,0.152
1592834273106634,4.228,1.676,0.152
1592834273609479,4.304,1.676,0.152
1592834274111589,4.304,1.676,0.152
1592834274613698,4.19,1.676,0.152
1592834275115770,4.152,1.676,0.152
1592834275617937,4.114,1.676,0.152
1592834276120016,4.114,1.676,0.152
1592834276622184,4.114,1.676,0.152
1592834277124156,4.152,1.676,0.152
1592834277627957,4.114,1.676,0.152
1592834278130272,4.114,1.676,0.152
1592834278632422,4.266,1.676,0.152
1592834279134463,4.152,1.676,0.152
1592834279636648,4.114,1.676,0.152
1592834280138733,4.114,1.676,0.152
1592834280640922,4.152,1.676,0.152
1592834281143015,4.114,1.676,0.152
1592834281645113,4.114,1.676,0.152
1592834282149099,4.152,1.676,0.152
1592834282651170,4.114,1.676,0.152
1592834283153351,4.114,1.676,0.152
1592834283655423,4.266,1.676,0.152
1592834284157519,4.266,1.753,0.152
1592834284659548,4.266,1.676,0.152
1592834285161653,4.152,1.676,0.152
1592834285663679,4.304,1.676,0.152
1592834286165740,4.19,1.676,0.152
1592834286667781,4.152,1.753,0.152
1592834287169899,4.114,1.676,0.152
1592834287674718,4.114,1.676,0.152
1592834288176836,4.114,1.676,0.152
1592834288678898,4.114,1.676,0.152
1592834289181007,4.114,1.753,0.152
1592834289683003,4.114,1.676,0.152
1592834290185262,4.114,1.676,0.152
1592834290687296,4.114,1.676,0.152
1592834291189384,4.114,1.676,0.152
1592834291691454,4.114,1.676,0.152
1592834292193706,4.114,1.676,0.152
1592834292698607,4.152,1.676,0.152
1592834293200786,4.114,1.676,0.152
1592834293702861,4.076,1.676,0.152
1592834294204844,4.114,1.676,0.152
1592834294706882,4.152,1.676,0.152
1592834295209040,4.266,1.676,0.152
1592834295711127,4.152,1.676,0.152
1592834296213262,4.266,1.676,0.152
1592834296715287,4.228,1.676,0.152
1592834297217345,4.228,1.676,0.152
1592834297724466,4.152,1.676,0.152
1592834298226517,4.114,1.676,0.152
1592834298728634,4.114,1.676,0.152
1592834299230819,4.114,1.676,0.152
1592834299732958,4.114,1.676,0.152
1592834300235014,4.114,1.676,0.152
1592834300737070,4.114,1.676,0.152
1592834301239145,4.076,1.676,0.152
1592834301741310,4.114,1.676,0.152
1592834302243456,4.114,1.676,0.152
1592834302748780,4.114,1.676,0.152
1592834303250927,4.114,1.676,0.152
1592834303753077,4.114,1.676,0.152
1592834304255111,4.114,1.676,0.152
1592834304757316,4.19,1.676,0.152
1592834305259442,4.228,1.676,0.152
1592834305761639,4.266,1.753,0.152
1592834306263662,4.342,1.676,0.152
1592834306765762,4.19,1.676,0.152
1592834307268227,4.152,1.676,0.152
1592834307773342,4.114,1.676,0.152
1592834308275337,4.114,1.753,0.152
1592834308777337,4.266,1.676,0.152
1592834309279448,4.152,1.676,0.152
1592834309781602,4.114,1.676,0.152
1592834310283647,4.114,1.676,0.152
1592834310785736,4.114,1.753,0.152
1592834311287731,4.114,1.676,0.152
1592834311789910,4.114,1.676,0.152
1592834312292054,4.114,1.676,0.152
1592834312796837,4.114,1.676,0.152
1592834313298948,4.114,1.753,0.152
1592834313801053,4.114,1.676,0.152
1592834314303144,4.114,1.676,0.152
1592834314805248,4.114,1.676,0.152
1592834315307274,4.114,1.676,0.152
1592834315809358,4.304,1.676,0.152
1592834316311454,4.266,1.676,0.152
1592834316813550,4.266,1.676,0.152
1592834317315569,4.19,1.676,0.152
1592834317820622,4.152,1.676,0.152
1592834318322632,4.152,1.676,0.152
1592834318824741,4.114,1.676,0.152
1592834319326855,4.114,1.676,0.152
1592834319828988,4.114,1.676,0.152
1592834320331144,4.114,1.676,0.152
1592834320833313,4.114,1.676,0.152
1592834321335420,4.114,1.676,0.152
1592834321837574,4.114,1.676,0.152
1592834322339643,4.114,1.676,0.152
1592834322844598,4.152,1.676,0.152
1592834323346629,4.114,1.676,0.152
1592834323848945,4.114,1.676,0.152
1592834324351012,4.114,1.676,0.152
1592834324853110,4.114,1.753,0.152
1592834325355133,4.114,1.676,0.152
1592834325857315,4.114,1.676,0.152
