timestamp	VIRTUAL_SCALING	CPU0_F	CPU1_F	CPU2_F	CPU3_F	CPU4_F	CPU5_F	GPU_FREQ	CPU_GOVERNOR	EMC_F	TEMP0	TEMP1	TEMP2	TEMP3	TEMP4	TEMP5	TEMP6	TEMP7
1592834266267790179	1	345	1881	1881	345	345	345	114750000	performance	1866	33	33	31	33	30	29	100	33
1592834266611191912 	0	345	1861	1881	345	345	345	114750000	performance	1866	33	33	31	33	30	29	100	33
1592834268581472968	1	345	1881	1881	345	345	345	114750000	performance	1866	33	33	31	33	30	29	100	32
1592834268974781113 	0	345	1881	1795	345	345	345	114750000	performance	1866	33	33	31	34	30	29	100	32
1592834270962540452	1	345	1881	1881	345	345	345	114750000	performance	1866	33	33	31	33	30	29	100	32
1592834271358596238 	0	345	1799	1846	345	345	345	114750000	performance	1866	33	33	31	33	30	29	100	32
1592834273350652942	1	345	1881	1881	345	345	345	114750000	performance	1866	33	33	31	33	30	29	100	32
1592834273742758605 	0	345	1852	1882	345	345	345	114750000	performance	1866	33	33	31	33	30	29	100	32
1592834275713521312	1	345	1881	1881	345	345	345	114750000	performance	1866	33	33	31	33	30	29	100	32
1592834276105459794 	0	345	1850	1881	345	345	345	114750000	performance	1866	33	33	31	33	30	29	100	32
1592834278085500903	1	345	1881	1881	345	345	345	114750000	performance	1866	33	33	31	33	30	29	100	32
1592834278494748646 	0	345	1881	1848	345	346	345	114750000	performance	1866	33	33	31	33	30	29	100	32
1592834280481486541	1	345	1881	1881	345	345	345	114750000	performance	1866	33	33	31	33	30	29	100	32
1592834280868637179 	0	345	1881	1881	345	345	345	114750000	performance	1866	33	33	31	33	30	29	100	32
1592834282849488195	1	345	1881	1881	345	345	345	114750000	performance	1866	33	33	31	33	30	29	100	32
1592834283229526723 	0	346	1848	1881	345	345	345	114750000	performance	1866	33	33	31	33	30	29	100	32
1592834285197427396	1	345	1881	1881	345	345	345	114750000	performance	1866	33	33	31	33	30	29	100	32
1592834285617690715 	0	345	1851	1880	345	345	345	114750000	performance	1866	33	33	31	33	30	29	100	32
1592834287617388338	1	345	1881	1881	345	345	345	114750000	performance	1866	33	33	31	33	30	29	100	32
1592834288006769806 	0	345	1881	1881	345	345	346	114750000	performance	1866	33	33	31	33	30	29	100	32
1592834290030525241	1	345	1881	1881	345	345	345	114750000	performance	1866	33	33	31	33	30	29	100	32
1592834290418640853 	0	345	1851	1851	345	345	345	114750000	performance	1866	33	33	31	33	30	29	100	32
1592834292397431341	1	345	1881	1881	345	345	345	114750000	performance	1866	33	33	31	33	30	29	100	32
1592834292809987644 	0	348	1851	1852	345	345	345	114750000	performance	1866	33	33	31	33	30	29	100	32
1592834294761631041	1	345	1881	1881	345	345	345	114750000	performance	1866	33	33	31	33	30	29	100	32
1592834295162971441 	0	345	1882	1880	345	345	345	114750000	performance	1866	33	33	31	33	30	29	100	32
1592834297217415859	1	345	1881	1881	345	345	345	114750000	performance	1866	33	33	31	33	30	29	100	32
1592834297597427219 	0	345	1850	1850	345	345	345	114750000	performance	1866	33	33	31	33	30	29	100	32
1592834299601460396	1	345	1881	1881	345	345	345	114750000	performance	1866	33	33	31	33	30	29	100	32
1592834299977488300 	0	345	1882	1849	345	345	345	114750000	performance	1866	33	33	32	33	30	29	100	32
1592834301965820499	1	345	1881	1881	345	345	345	114750000	performance	1866	33	33	31	33	30	29	100	32
1592834302365514888 	0	345	1880	1881	345	345	345	114750000	performance	1866	33	33	31	33	30	29	100	32
1592834304361501750	1	345	1881	1881	345	345	345	114750000	performance	1866	33	33	31	34	30	29	100	32
1592834304780508650 	0	345	1880	1849	345	345	345	114750000	performance	1866	33	33	31	34	30	29	100	32
1592834306753353727	1	345	1881	1881	345	345	345	114750000	performance	1866	33	34	32	33	30	29	100	32
1592834307145499204 	0	345	1880	1850	345	345	345	114750000	performance	1866	33	33	31	34	30	29	100	32
1592834309121411199	1	345	1881	1881	345	345	345	114750000	performance	1866	34	34	31	34	30	29	100	33
1592834309570775942 	0	345	1881	1881	345	345	345	114750000	performance	1866	34	33	31	33	30	29	100	32
1592834311614281159	1	345	1881	1881	345	345	345	114750000	performance	1866	33	33	31	33	30	29	100	32
1592834311994440066 	0	345	1881	1881	345	345	345	114750000	performance	1866	33	34	31	33	30	29	100	32
1592834313965569910	1	345	1881	1881	345	345	345	114750000	performance	1866	34	33	31	33	30	29	100	32
1592834314385484327 	0	345	1881	1845	345	345	345	114750000	performance	1866	33	33	31	34	30	29	100	32
1592834316353411084	1	345	1881	1881	345	345	345	114750000	performance	1866	33	34	31	33	30	29	100	33
1592834316738678209 	0	345	1845	1881	345	345	345	114750000	performance	1866	33	33	31	33	30	29	100	33
1592834318721413014	1	345	1881	1881	345	345	345	114750000	performance	1866	34	34	31	34	30	29	100	33
1592834319094622642 	0	346	1852	1880	345	345	345	114750000	performance	1866	34	34	31	33	30	29	100	33
1592834321077524011	1	345	1881	1881	345	345	345	114750000	performance	1866	33	34	31	33	30	29	100	33
1592834321474647541 	0	345	1881	1882	345	345	345	114750000	performance	1866	34	34	31	34	30	29	100	33
1592834323453449387	1	345	1881	1881	345	345	345	114750000	performance	1866	34	34	31	34	30	29	100	33
1592834323857473658 	0	345	1881	1881	346	345	346	114750000	performance	1866	34	34	31	34	30	29	100	33
1592834325833448659	1	345	1881	1881	345	345	345	114750000	performance	1866	34	34	31	34	30	29	100	32
1592834326222482296 	0	345	1844	1882	345	345	345	114750000	performance	1866	33	33	31	34	30	29	100	32
