TimeStamp,Total Power,CPU Power,GPU Power
1593970460139829,4.836,2.209,0.152
1593970460641871,3.314,0.838,0.152
1593970461145341,3.504,0.99,0.152
1593970461647095,3.657,1.143,0.152
1593970462149062,4.266,1.676,0.152
1593970462652545,5.064,2.438,0.152
1593970463154318,5.293,2.665,0.152
1593970463656140,5.331,2.741,0.152
1593970464157951,5.369,2.741,0.152
1593970464659718,5.407,2.741,0.152
1593970465161528,5.293,2.741,0.152
1593970465663411,5.369,2.741,0.152
1593970466165828,5.293,2.741,0.152
1593970466667676,5.331,2.741,0.152
1593970467169587,5.293,2.741,0.152
1593970467671395,5.369,2.741,0.152
1593970468173334,5.369,2.741,0.152
1593970468675117,5.369,2.741,0.152
1593970469176937,5.369,2.741,0.152
1593970469681387,5.369,2.741,0.152
1593970470183273,5.369,2.741,0.152
1593970470685396,5.407,2.741,0.152
1593970471187248,5.369,2.741,0.152
1593970471689237,5.369,2.741,0.152
1593970472191006,5.407,2.817,0.152
1593970472692831,5.407,2.741,0.152
1593970473194618,5.369,2.741,0.152
1593970473696634,5.407,2.741,0.152
1593970474198558,5.407,2.817,0.152
1593970474703118,5.369,2.741,0.152
1593970475204938,5.369,2.741,0.152
1593970475706880,5.369,2.741,0.152
1593970476208692,5.369,2.741,0.152
1593970476710463,5.331,2.741,0.152
1593970477212273,5.293,2.741,0.152
1593970477714246,5.369,2.741,0.152
1593970478216087,5.407,2.741,0.152
1593970478717848,5.407,2.817,0.152
1593970479219634,5.369,2.741,0.152
1593970479724322,5.445,2.817,0.152
1593970480226158,5.369,2.741,0.152
1593970480727933,5.331,2.741,0.152
1593970481229728,5.293,2.741,0.152
1593970481731764,5.407,2.741,0.152
1593970482233536,5.369,2.741,0.152
1593970482735294,5.369,2.741,0.152
1593970483237474,5.407,2.817,0.152
1593970483739480,5.407,2.817,0.152
1593970484241183,5.331,2.741,0.152
1593970484742939,5.331,2.741,0.152
1593970485244883,5.331,2.741,0.152
1593970485746671,5.407,2.817,0.152
1593970486248437,5.369,2.741,0.152
1593970486750212,5.445,2.817,0.152
1593970487252391,5.483,2.817,0.152
1593970487754182,5.445,2.817,0.152
1593970488256299,5.407,2.817,0.152
1593970488758119,5.369,2.741,0.152
1593970489260131,5.369,2.741,0.152
1593970489764493,5.331,2.741,0.152
1593970490266350,5.369,2.741,0.152
1593970490768129,5.369,2.741,0.152
1593970491269891,5.407,2.817,0.152
1593970491771906,5.407,2.817,0.152
1593970492273691,5.255,2.665,0.152
1593970492775811,5.369,2.741,0.152
1593970493277554,5.559,2.741,0.152
1593970493779369,5.712,2.741,0.152
1593970494281115,5.788,2.741,0.152
1593970494793043,5.673,2.741,0.152
1593970495294986,5.559,2.817,0.152
1593970495796867,5.407,2.741,0.152
1593970496298654,5.369,2.741,0.152
1593970496800405,5.331,2.741,0.152
1593970497302348,5.369,2.741,0.152
1593970497804229,5.369,2.741,0.152
1593970498306022,5.369,2.741,0.152
1593970498807843,5.369,2.741,0.152
1593970499311431,5.445,2.817,0.152
1593970499813210,5.445,2.817,0.152
1593970500314998,5.407,2.817,0.152
1593970500817080,5.407,2.817,0.152
1593970501319042,5.445,2.817,0.152
1593970501820925,5.331,2.741,0.152
1593970502322682,5.331,2.741,0.152
1593970502824457,5.369,2.741,0.152
1593970503326252,5.369,2.741,0.152
1593970503828020,5.369,2.817,0.152
1593970504329922,5.407,2.817,0.152
1593970504834824,5.407,2.817,0.152
1593970505336618,5.369,2.741,0.152
1593970505838375,5.407,2.741,0.152
1593970506340169,5.331,2.741,0.152
1593970506842108,5.369,2.741,0.152
1593970507344170,5.331,2.741,0.152
1593970507845962,5.369,2.741,0.152
1593970508347750,5.369,2.741,0.152
1593970508849501,5.407,2.741,0.152
1593970509351525,5.369,2.741,0.152
1593970509855912,5.331,2.741,0.152
1593970510357887,5.331,2.741,0.152
1593970510859679,5.331,2.741,0.152
1593970511361477,5.369,2.741,0.152
1593970511863250,5.369,2.741,0.152
1593970512365349,5.445,2.817,0.152
1593970512867284,5.445,2.817,0.152
1593970513369197,5.407,2.817,0.152
1593970513870945,5.369,2.741,0.152
1593970514372860,5.369,2.741,0.152
1593970514877185,5.369,2.741,0.152
1593970515379029,5.331,2.741,0.152
1593970515881684,5.369,2.741,0.152
1593970516383816,5.445,2.817,0.152
1593970516885612,5.407,2.817,0.152
1593970517387452,5.407,2.817,0.152
1593970517889336,5.407,2.741,0.152
1593970518391195,5.369,2.741,0.152
1593970518893196,5.331,2.741,0.152
1593970519394970,5.331,2.741,0.152
1593970519899532,5.407,2.817,0.152
1593970520401315,5.445,2.817,0.152
1593970520934256,5.407,2.817,0.152
1593970521436215,5.369,2.817,0.152
1593970521938168,5.407,2.817,0.152
1593970522439986,5.407,2.817,0.152
1593970522941843,5.331,2.741,0.152
1593970523443730,5.293,2.741,0.152
1593970523946857,5.369,2.741,0.152
1593970524448698,5.331,2.741,0.152
1593970524953147,5.369,2.741,0.152
1593970525455026,5.407,2.817,0.152
1593970525957213,5.445,2.817,0.152
1593970526458984,5.369,2.741,0.152
1593970526962668,5.369,2.741,0.152
1593970527464465,5.331,2.741,0.152
1593970527966302,5.331,2.741,0.152
1593970528468115,5.331,2.741,0.152
1593970528969889,5.407,2.817,0.152
1593970529472655,5.407,2.817,0.152
1593970529977466,5.407,2.817,0.152
1593970530479571,5.407,2.817,0.152
1593970530981393,5.407,2.741,0.152
1593970531483511,5.445,2.817,0.152
1593970531985285,5.369,2.817,0.152
1593970532487037,5.331,2.741,0.152
1593970532988798,5.293,2.741,0.152
1593970533490654,5.369,2.741,0.152
1593970533992730,5.407,2.817,0.152
1593970534494562,5.369,2.741,0.152
1593970534999079,5.407,2.817,0.152
1593970535500870,5.407,2.817,0.152
1593970536002667,5.407,2.741,0.152
1593970536504433,5.331,2.741,0.152
1593970537007784,5.369,2.741,0.152
1593970537509678,5.369,2.741,0.152
1593970538011500,5.331,2.741,0.152
1593970538513254,5.369,2.741,0.152
1593970539016721,5.407,2.817,0.152
1593970539518566,5.407,2.817,0.152
1593970540022959,5.445,2.817,0.152
1593970540524899,5.369,2.741,0.152
1593970541026824,5.445,2.817,0.152
1593970541528622,5.445,2.817,0.152
1593970542030373,5.407,2.817,0.152
1593970542532304,5.331,2.741,0.152
1593970543034255,5.331,2.741,0.152
1593970543536091,5.369,2.741,0.152
1593970544037843,5.369,2.741,0.152
1593970544539843,5.407,2.817,0.152
1593970545044303,5.445,2.817,0.152
1593970545546262,5.369,2.741,0.152
1593970546048118,5.331,2.741,0.152
1593970546550014,5.445,2.817,0.152
1593970547051976,5.407,2.817,0.152
1593970547553701,5.331,2.741,0.152
1593970548055454,5.331,2.741,0.152
1593970548557275,5.407,2.817,0.152
1593970549059126,5.445,2.817,0.152
1593970549560934,5.369,2.741,0.152
1593970550065220,5.445,2.817,0.152
1593970550567154,5.483,2.817,0.152
1593970551069304,5.407,2.741,0.152
1593970551571268,5.331,2.741,0.152
1593970552073208,5.331,2.741,0.152
1593970552575069,5.369,2.741,0.152
1593970553076953,5.331,2.741,0.152
1593970553578776,5.407,2.817,0.152
1593970554080902,5.407,2.817,0.152
1593970554582681,5.445,2.817,0.152
1593970555087104,5.407,2.741,0.152
1593970555588892,5.407,2.741,0.152
1593970556092352,5.559,2.817,0.152
1593970556594154,5.712,2.741,0.152
1593970557095947,5.75,2.741,0.152
1593970557597708,5.712,2.741,0.152
1593970558101150,5.521,2.741,0.152
1593970558603072,5.445,2.741,0.152
1593970559104917,5.369,2.741,0.152
1593970559606681,5.331,2.741,0.152
1593970560111291,5.445,2.817,0.152
1593970560613237,5.445,2.817,0.152
1593970561114842,5.407,2.817,0.152
1593970561616652,5.369,2.741,0.152
1593970562118586,5.407,2.817,0.152
1593970562620430,5.407,2.817,0.152
1593970563122187,5.369,2.741,0.152
1593970563624034,5.369,2.741,0.152
1593970564126060,5.445,2.817,0.152
1593970564627922,5.445,2.817,0.152
1593970565132434,5.407,2.817,0.152
1593970565634184,5.369,2.741,0.152
1593970566136087,5.445,2.817,0.152
1593970566637874,5.331,2.741,0.152
1593970567139674,5.293,2.741,0.152
1593970567641577,5.369,2.741,0.152
1593970568143438,5.407,2.817,0.152
1593970568645045,5.407,2.817,0.152
1593970569146823,5.369,2.741,0.152
1593970569648784,5.369,2.741,0.152
1593970570153329,5.369,2.741,0.152
1593970570655171,5.331,2.741,0.152
1593970571157116,5.331,2.741,0.152
1593970571659048,5.331,2.741,0.152
1593970572160868,5.331,2.741,0.152
1593970572662779,5.331,2.741,0.152
1593970573164671,5.293,2.665,0.152
1593970573666634,5.331,2.741,0.152
1593970574168445,5.293,2.665,0.152
1593970574670234,5.331,2.741,0.152
1593970575174515,5.331,2.741,0.152
1593970575676346,5.369,2.741,0.152
1593970576178268,5.369,2.741,0.152
1593970576680102,5.293,2.665,0.152
1593970577182147,5.331,2.741,0.152
1593970577684393,5.293,2.741,0.152
1593970578186129,5.331,2.741,0.152
1593970578687891,5.293,2.741,0.152
1593970579189865,5.369,2.741,0.152
1593970579691768,5.407,2.741,0.152
1593970580196192,5.331,2.665,0.152
1593970580697972,5.293,2.665,0.152
1593970581199939,5.331,2.741,0.152
1593970581701729,5.293,2.741,0.152
1593970582203518,5.293,2.665,0.152
1593970582705248,5.293,2.741,0.152
1593970583207156,5.369,2.741,0.152
1593970583709043,5.331,2.741,0.152
1593970584210795,5.293,2.665,0.152
1593970584712887,5.255,2.665,0.152
1593970585216001,5.331,2.741,0.152
1593970585717837,5.331,2.741,0.152
1593970586219881,5.293,2.665,0.152
1593970586721657,5.293,2.665,0.152
1593970587223823,5.369,2.741,0.152
1593970587725605,5.331,2.741,0.152
1593970588227516,5.293,2.665,0.152
1593970588729405,5.331,2.741,0.152
1593970589231202,5.331,2.741,0.152
1593970589733007,5.293,2.665,0.152
1593970590237702,5.293,2.665,0.152
1593970590739679,5.293,2.589,0.152
1593970591241470,5.293,2.665,0.152
1593970591743299,5.293,2.665,0.152
1593970592245126,5.293,2.741,0.152
1593970592748686,5.369,2.741,0.152
1593970593250480,5.331,2.741,0.152
1593970593752488,5.331,2.741,0.152
1593970594254278,5.331,2.741,0.152
1593970594756116,5.369,2.741,0.152
1593970595260736,5.293,2.665,0.152
1593970595762514,5.293,2.665,0.152
1593970596264601,5.331,2.741,0.152
1593970596766388,5.331,2.741,0.152
1593970597269146,5.331,2.741,0.152
1593970597770932,5.369,2.741,0.152
1593970598272893,5.331,2.741,0.152
1593970598774679,5.369,2.741,0.152
1593970599276522,5.369,2.741,0.152
1593970599778374,5.331,2.741,0.152
1593970600283188,5.407,2.817,0.152
1593970600785545,5.369,2.741,0.152
1593970601287570,5.407,2.817,0.152
1593970601789325,5.369,2.741,0.152
1593970602291098,5.407,2.741,0.152
1593970602792900,5.445,2.817,0.152
1593970603294674,5.331,2.741,0.152
1593970603796719,5.293,2.741,0.152
1593970604298572,5.331,2.741,0.152
1593970604800372,5.331,2.741,0.152
1593970605304860,5.293,2.665,0.152
1593970605806800,5.369,2.741,0.152
1593970606308661,5.369,2.741,0.152
1593970606810437,5.293,2.665,0.152
1593970607312230,5.255,2.665,0.152
1593970607814151,5.331,2.741,0.152
1593970608315981,5.331,2.741,0.152
1593970608817735,5.331,2.741,0.152
1593970609319479,5.331,2.741,0.152
1593970609821727,5.369,2.741,0.152
1593970610323539,5.369,2.741,0.152
1593970610825296,5.331,2.741,0.152
1593970611327033,5.293,2.665,0.152
1593970611829069,5.331,2.741,0.152
1593970612330849,5.331,2.741,0.152
1593970612832676,5.331,2.741,0.152
1593970613334595,5.331,2.741,0.152
1593970613836513,5.369,2.741,0.152
1593970614338282,5.293,2.665,0.152
1593970614840337,5.293,2.741,0.152
1593970615345483,5.331,2.741,0.152
1593970615847231,5.331,2.741,0.152
1593970616349263,5.331,2.665,0.152
1593970616851040,5.331,2.741,0.152
1593970617353267,5.369,2.741,0.152
1593970617855072,5.293,2.741,0.152
1593970618357107,5.331,2.741,0.152
1593970618858898,5.293,2.741,0.152
1593970619360885,5.597,2.741,0.152
1593970619862667,5.712,2.741,0.152
1593970620366528,5.75,2.741,0.152
1593970620877716,5.597,2.741,0.152
1593970621379299,5.026,2.361,0.152
1593970621881308,5.255,2.589,0.152
1593970622383099,5.255,2.665,0.152
1593970622885196,5.293,2.665,0.152
1593970623386935,5.293,2.665,0.152
1593970623888727,5.331,2.741,0.152
1593970624390500,5.293,2.665,0.152
1593970624894092,5.331,2.741,0.152
1593970625396061,5.407,2.741,0.152
1593970625897902,5.331,2.665,0.152
1593970626399659,5.293,2.665,0.152
1593970626901549,5.293,2.665,0.152
1593970627403411,5.331,2.741,0.152
1593970627905476,5.293,2.665,0.152
1593970628407211,5.293,2.665,0.152
1593970628909374,5.369,2.741,0.152
1593970629411172,5.331,2.741,0.152
1593970629913145,5.293,2.665,0.152
1593970630414935,5.293,2.665,0.152
1593970630916830,5.369,2.741,0.152
1593970631418624,5.331,2.741,0.152
1593970631920439,5.293,2.665,0.152
1593970632422390,5.331,2.741,0.152
1593970632924683,5.407,2.741,0.152
1593970633426483,5.331,2.741,0.152
1593970633928235,5.293,2.665,0.152
1593970634430123,5.331,2.741,0.152
1593970634931925,5.369,2.741,0.152
1593970635433704,5.293,2.665,0.152
1593970635935500,5.293,2.665,0.152
1593970636437304,5.331,2.741,0.152
1593970636939049,5.331,2.741,0.152
1593970637441065,5.331,2.741,0.152
1593970637942840,5.369,2.741,0.152
1593970638444952,5.369,2.741,0.152
1593970638946864,5.293,2.665,0.152
1593970639448849,5.293,2.665,0.152
1593970639950637,5.293,2.665,0.152
1593970640454844,5.331,2.741,0.152
1593970640956605,5.331,2.665,0.152
1593970641458324,5.407,2.741,0.152
1593970641960296,5.407,2.741,0.152
1593970642462075,5.369,2.741,0.152
1593970642964030,5.369,2.741,0.152
1593970643465823,5.293,2.665,0.152
1593970643967850,5.331,2.741,0.152
1593970644469694,5.331,2.741,0.152
1593970644971464,5.369,2.741,0.152
1593970645475828,5.331,2.741,0.152
1593970645978873,5.407,2.741,0.152
1593970646480900,5.369,2.741,0.152
1593970646982742,5.331,2.741,0.152
1593970647484554,5.331,2.665,0.152
1593970647986309,5.407,2.741,0.152
1593970648488114,5.293,2.665,0.152
1593970648989867,5.293,2.665,0.152
1593970649491871,5.293,2.665,0.152
1593970649993608,5.369,2.741,0.152
1593970650498081,5.369,2.741,0.152
1593970650999984,5.369,2.741,0.152
1593970651501941,5.369,2.741,0.152
1593970652003778,5.369,2.741,0.152
1593970652505595,5.369,2.741,0.152
1593970653007473,5.293,2.665,0.152
1593970653512346,5.369,2.741,0.152
1593970654014130,5.331,2.741,0.152
1593970654515897,5.331,2.741,0.152
1593970655017629,5.331,2.665,0.152
1593970655523822,5.369,2.741,0.152
1593970656025656,5.369,2.741,0.152
1593970656527458,5.331,2.741,0.152
1593970657029191,5.293,2.741,0.152
1593970657531047,5.369,2.741,0.152
1593970658032982,5.369,2.741,0.152
1593970658535116,5.369,2.741,0.152
1593970659037299,5.407,2.817,0.152
1593970659539095,5.445,2.817,0.152
1593970660040852,5.407,2.741,0.152
1593970660545402,5.407,2.741,0.152
1593970661047293,5.369,2.741,0.152
1593970661549198,5.369,2.741,0.152
1593970662050899,5.331,2.741,0.152
1593970662552697,5.369,2.741,0.152
1593970663054642,5.407,2.817,0.152
1593970663556438,5.407,2.817,0.152
1593970664058376,5.407,2.817,0.152
1593970664560291,5.407,2.817,0.152
1593970665063154,5.407,2.741,0.152
1593970665568055,5.445,2.817,0.152
1593970666069811,5.369,2.741,0.152
1593970666571775,5.331,2.741,0.152
1593970667073539,5.331,2.741,0.152
1593970667575660,5.407,2.817,0.152
1593970668077458,5.407,2.741,0.152
1593970668580858,5.407,2.817,0.152
1593970669082705,5.407,2.741,0.152
1593970669584562,5.369,2.741,0.152
1593970670086332,5.331,2.741,0.152
1593970670590862,5.407,2.741,0.152
1593970671092665,5.369,2.741,0.152
1593970671594435,5.369,2.741,0.152
1593970672096167,5.369,2.741,0.152
1593970672598059,5.445,2.817,0.152
1593970673099871,5.407,2.741,0.152
1593970673601617,5.369,2.741,0.152
1593970674103995,5.331,2.741,0.152
1593970674605908,5.407,2.741,0.152
1593970675107691,5.331,2.741,0.152
1593970675612097,5.369,2.741,0.152
1593970676115555,5.369,2.741,0.152
1593970676617445,5.445,2.817,0.152
1593970677119223,5.407,2.741,0.152
1593970677621035,5.331,2.741,0.152
1593970678122953,5.331,2.741,0.152
1593970678624832,5.445,2.817,0.152
1593970679126561,5.369,2.741,0.152
1593970679628542,5.369,2.741,0.152
1593970680130570,5.407,2.817,0.152
1593970680635094,5.445,2.817,0.152
1593970681136864,5.407,2.817,0.152
1593970681638623,5.407,2.817,0.152
1593970682140643,5.635,2.817,0.152
1593970682642896,5.788,2.741,0.152
1593970683144673,5.788,2.741,0.152
1593970683679441,5.788,2.741,0.152
1593970684182238,5.559,2.817,0.152
1593970684684070,5.483,2.817,0.152
1593970685185990,5.407,2.817,0.152
1593970685690265,5.407,2.817,0.152
1593970686192484,5.445,2.817,0.152
1593970686694274,5.445,2.817,0.152
1593970687196123,5.445,2.817,0.152
1593970687697908,5.407,2.741,0.152
1593970688199687,5.407,2.817,0.152
1593970688701553,5.407,2.741,0.152
1593970689203492,5.407,2.741,0.152
1593970689705403,5.369,2.741,0.152
1593970690207251,5.369,2.741,0.152
1593970690709656,5.369,2.741,0.152
1593970691211444,5.331,2.741,0.152
1593970691713346,5.369,2.741,0.152
1593970692215272,5.369,2.741,0.152
1593970692717121,5.331,2.741,0.152
1593970693218977,5.331,2.741,0.152
1593970693720792,5.369,2.741,0.152
1593970694222590,5.369,2.741,0.152
1593970694724417,5.369,2.741,0.152
1593970695226383,5.369,2.741,0.152
1593970695731440,5.407,2.817,0.152
1593970696233231,5.407,2.741,0.152
1593970696734985,5.369,2.741,0.152
1593970697236946,5.407,2.741,0.152
1593970697738767,5.369,2.741,0.152
1593970698240691,5.331,2.741,0.152
1593970698742456,5.331,2.741,0.152
1593970699244359,5.407,2.741,0.152
1593970699746148,5.407,2.817,0.152
1593970700248082,5.369,2.741,0.152
1593970700752592,5.369,2.741,0.152
1593970701267820,5.369,2.741,0.152
1593970701769650,5.445,2.817,0.152
1593970702271475,5.445,2.817,0.152
1593970702773197,5.331,2.741,0.152
1593970703275099,5.407,2.817,0.152
1593970703777082,5.369,2.741,0.152
1593970704278792,5.369,2.741,0.152
1593970704780757,5.369,2.741,0.152
1593970705282794,5.445,2.817,0.152
1593970705787486,5.407,2.817,0.152
1593970706289239,5.369,2.741,0.152
1593970706790996,5.407,2.741,0.152
1593970707292810,5.369,2.741,0.152
1593970707794601,5.331,2.741,0.152
1593970708296398,5.369,2.741,0.152
1593970708798312,5.369,2.741,0.152
1593970709300156,5.407,2.817,0.152
1593970709802069,5.407,2.817,0.152
1593970710303873,5.407,2.817,0.152
1593970710808777,5.407,2.741,0.152
1593970711310558,5.331,2.741,0.152
1593970711812387,5.331,2.741,0.152
1593970712314139,5.293,2.665,0.152
1593970712815903,5.369,2.741,0.152
1593970713317756,5.369,2.741,0.152
1593970713819733,5.331,2.741,0.152
1593970714321658,5.331,2.741,0.152
1593970714823499,5.331,2.741,0.152
1593970715325277,5.369,2.741,0.152
1593970715829643,5.331,2.665,0.152
1593970716331521,5.331,2.741,0.152
1593970716833501,5.331,2.741,0.152
1593970717335494,5.331,2.665,0.152
1593970717837248,5.293,2.665,0.152
1593970718340315,5.369,2.741,0.152
1593970718842098,5.369,2.741,0.152
1593970719343867,5.293,2.665,0.152
1593970719845615,5.293,2.665,0.152
1593970720347588,5.369,2.741,0.152
1593970720852213,5.331,2.741,0.152
1593970721353815,5.331,2.741,0.152
1593970721855607,5.293,2.665,0.152
1593970722357440,5.407,2.741,0.152
1593970722859231,5.331,2.741,0.152
1593970723361059,5.331,2.665,0.152
1593970723862981,5.293,2.665,0.152
1593970724366521,5.331,2.741,0.152
1593970724868350,5.331,2.741,0.152
1593970725370069,5.331,2.741,0.152
1593970725874479,5.369,2.741,0.152
1593970726376314,5.407,2.741,0.152
1593970726878079,5.369,2.741,0.152
1593970727381483,5.331,2.741,0.152
1593970727883595,5.369,2.741,0.152
1593970728385342,5.369,2.741,0.152
1593970728887098,5.331,2.665,0.152
1593970729389089,5.331,2.741,0.152
1593970729890943,5.369,2.741,0.152
1593970730392767,5.369,2.741,0.152
1593970730897312,5.331,2.741,0.152
1593970731399149,5.331,2.665,0.152
1593970731901136,5.331,2.741,0.152
1593970732402989,5.331,2.665,0.152
1593970732904843,5.369,2.741,0.152
1593970733406737,5.369,2.741,0.152
1593970733908521,5.293,2.665,0.152
1593970734410444,5.331,2.741,0.152
1593970734912267,5.293,2.665,0.152
1593970735414238,5.331,2.741,0.152
1593970735918588,5.331,2.741,0.152
1593970736420383,5.331,2.741,0.152
1593970736922176,5.293,2.665,0.152
1593970737424242,5.331,2.741,0.152
1593970737926134,5.331,2.741,0.152
1593970738427893,5.331,2.741,0.152
1593970738929630,5.293,2.665,0.152
1593970739431543,5.369,2.741,0.152
1593970739933285,5.369,2.741,0.152
1593970740435064,5.369,2.741,0.152
1593970740941029,5.293,2.665,0.152
1593970741442777,5.369,2.741,0.152
