timestamp	VIRTUAL_SCALING	CPU0_F	CPU1_F	CPU2_F	CPU3_F	CPU4_F	CPU5_F	GPU_FREQ	CPU_GOVERNOR	EMC_F	TEMP0	TEMP1	TEMP2	TEMP3	TEMP4	TEMP5	TEMP6	TEMP7
1593970460675157947	1	345	1881	1881	345	345	345	114750000	performance	1866	31	31	29	30	28	27	100	30
1593970460929020888 	0	345	1232	1231	345	345	345	114750000	performance	1866	30	30	29	31	28	27	100	30
1593970462625990832	1	345	1881	1881	345	345	345	114750000	performance	1866	31	31	29	31	28	27	100	30
1593970462784676262 	0	345	1881	1881	345	345	345	114750000	performance	1866	31	31	29	31	28	27	100	30
1593970464481147355	1	345	1881	1881	345	345	345	114750000	performance	1866	31	31	29	31	28	27	100	30
1593970464639786833 	0	345	1882	1880	345	345	345	114750000	performance	1866	31	31	29	31	28	27	100	30
1593970466338243154	1	345	1881	1881	345	345	345	114750000	performance	1866	31	31	29	31	28	27	100	30
1593970466495968130 	0	345	1881	1880	345	345	345	114750000	performance	1866	31	31	29	31	28	27	100	30
1593970468195639754	1	345	1881	1881	345	345	345	114750000	performance	1866	32	32	29	31	28	27	100	30
1593970468352914104 	0	345	1881	1881	345	345	345	114750000	performance	1866	31	31	29	31	28	27	100	30
1593970470050118353	1	345	1881	1881	345	345	345	114750000	performance	1866	31	31	29	31	28	27	100	30
1593970470209846317 	0	345	1878	1843	345	345	345	114750000	performance	1866	31	31	29	31	28	27	100	30
1593970471907178760	1	345	1881	1881	345	345	345	114750000	performance	1866	31	31	29	31	28	27	100	30
1593970472066214080 	0	345	1837	1841	345	345	345	114750000	performance	1866	31	31	29	31	28	27	100	30
1593970473764853122	1	345	1881	1881	345	345	345	114750000	performance	1866	31	31	29	31	28	27	100	30
1593970473931439429 	0	345	1882	1881	345	345	345	114750000	performance	1866	31	31	29	31	28	27	100	30
1593970475627961595	1	345	1881	1881	345	345	345	114750000	performance	1866	31	31	29	31	28	27	100	30
1593970475871029369 	0	345	1881	1878	345	345	345	114750000	performance	1866	31	31	29	31	28	27	100	30
1593970477654999336	1	345	1881	1881	345	345	345	114750000	performance	1866	32	32	29	32	28	27	100	30
1593970477973502395 	0	345	1880	1881	345	345	345	114750000	performance	1866	32	32	29	32	28	27	100	30
1593970479852167310	1	345	1881	1881	345	345	345	114750000	performance	1866	31	31	29	31	28	27	100	31
1593970480009542300 	0	345	1880	1880	345	345	345	114750000	performance	1866	31	31	29	31	28	27	100	31
1593970481708440832	1	345	1881	1881	345	345	345	114750000	performance	1866	31	31	29	31	28	27	100	30
1593970481867594648 	0	345	1840	1841	345	345	345	114750000	performance	1866	31	31	29	31	28	27	100	30
1593970483563860332	1	345	1881	1881	345	345	345	114750000	performance	1866	31	31	29	31	28	27	100	30
1593970483722254433 	0	346	1840	1881	345	345	345	114750000	performance	1866	31	31	29	31	28	27	100	30
1593970485420653633	1	345	1881	1881	345	345	345	114750000	performance	1866	31	31	29	31	28	27	100	30
1593970485578565651 	0	345	1881	1844	345	345	345	114750000	performance	1866	31	31	29	31	28	27	100	30
1593970487276815826	1	345	1881	1881	345	345	345	114750000	performance	1866	31	32	29	32	28	27	100	30
1593970487434219041 	0	345	1881	1880	345	345	345	114750000	performance	1866	31	31	29	31	28	27	100	30
1593970489132702850	1	345	1881	1881	345	345	345	114750000	performance	1866	31	31	29	31	28	27	100	30
1593970489294881868 	0	345	1881	1881	345	345	345	114750000	performance	1866	31	31	29	31	28	27	100	30
1593970490991010047	1	345	1881	1881	345	345	345	114750000	performance	1866	31	31	29	31	28	27	100	30
1593970491150310137 	0	345	1881	1880	345	345	345	114750000	performance	1866	31	31	29	31	28	27	100	30
1593970492847919861	1	345	1881	1881	345	345	345	114750000	performance	1866	31	31	29	31	28	27	100	30
1593970493023831278 	0	345	1882	1795	345	345	345	114750000	performance	1866	31	31	29	31	28	27	100	30
1593970495072848443	1	345	1881	1881	345	345	345	114750000	performance	1866	31	31	29	31	28	27	100	30
1593970495427024060 	0	345	1881	1881	345	345	345	114750000	performance	1866	31	31	30	31	28	27	100	30
1593970497371161322	1	345	1881	1881	345	345	345	114750000	performance	1866	31	31	29	31	28	27	100	30
1593970497538755763 	0	345	1881	1844	345	345	345	114750000	performance	1866	31	31	29	31	28	27	100	30
1593970499301695657	1	345	1881	1881	345	345	345	114750000	performance	1866	31	31	29	31	28	27	100	30
1593970499465466748 	0	345	1881	1881	345	345	345	114750000	performance	1866	31	31	29	31	28	27	100	30
1593970501163506811	1	345	1881	1881	345	345	345	114750000	performance	1866	31	31	29	31	28	27	100	30
1593970501323427288 	0	345	1838	1880	345	345	345	114750000	performance	1866	31	31	29	31	28	27	100	30
1593970503019171113	1	345	1881	1881	345	345	345	114750000	performance	1866	32	32	29	31	28	27	100	31
1593970503177513533 	0	345	1881	1880	345	345	345	114750000	performance	1866	31	31	29	31	28	27	100	31
1593970504876121342	1	345	1881	1881	345	345	345	114750000	performance	1866	31	32	29	32	28	27	100	30
1593970505034651955 	0	345	1880	1881	345	345	345	114750000	performance	1866	31	31	29	31	28	27	100	30
1593970506730919944	1	345	1881	1881	345	345	345	114750000	performance	1866	31	32	29	32	28	27	100	30
1593970506889844575 	0	345	1881	1878	345	345	345	114750000	performance	1866	31	31	29	31	28	27	100	30
1593970508587251834	1	345	1881	1881	345	345	345	114750000	performance	1866	31	31	29	31	28	27	100	31
1593970508745322476 	0	345	1880	1881	345	345	345	114750000	performance	1866	31	31	29	31	28	27	100	31
1593970510444028782	1	345	1881	1881	345	345	345	114750000	performance	1866	31	31	29	31	28	27	100	30
1593970510604565775 	0	345	1882	1880	345	345	345	114750000	performance	1866	32	32	29	32	28	27	100	31
1593970512300096863	1	345	1881	1881	345	345	345	114750000	performance	1866	31	31	29	31	28	27	100	30
1593970512458560244 	0	345	1835	1881	345	345	345	114750000	performance	1866	32	31	29	31	28	27	100	30
1593970514157068245	1	345	1881	1881	345	345	345	114750000	performance	1866	32	32	29	32	28	27	100	31
1593970514314198530 	0	345	1881	1880	345	345	345	114750000	performance	1866	31	32	30	32	28	27	100	31
1593970516013182725	1	345	1881	1881	345	345	345	114750000	performance	1866	31	31	30	31	28	27	100	30
1593970516173020258 	0	345	1842	1881	345	345	345	114750000	performance	1866	31	31	29	31	28	27	100	30
1593970517869782425	1	345	1881	1881	345	345	345	114750000	performance	1866	31	31	30	32	28	27	100	30
1593970518179299703 	0	345	1880	1841	345	345	345	114750000	performance	1866	32	32	29	31	28	27	100	30
1593970520044727582	1	345	1881	1881	345	345	345	114750000	performance	1866	31	31	30	32	28	27	100	31
1593970520283911814 	0	345	1882	1840	345	345	345	114750000	performance	1866	31	31	29	31	28	27	100	31
1593970522108244127	1	345	1881	1881	345	345	345	114750000	performance	1866	32	32	29	32	28	27	100	30
1593970522266805076 	0	345	1840	1881	345	345	345	114750000	performance	1866	32	32	30	32	28	27	100	30
1593970523964173870	1	345	1881	1881	345	345	345	114750000	performance	1866	31	31	30	31	28	27	100	30
1593970524122322433 	0	345	1841	1842	345	345	345	114750000	performance	1866	32	32	29	32	28	27	100	31
1593970525819584667	1	345	1881	1881	345	345	345	114750000	performance	1866	32	32	30	31	28	27	100	30
1593970525978619699 	0	345	1881	1881	346	345	345	114750000	performance	1866	32	32	29	32	28	27	100	30
1593970527675540651	1	345	1881	1881	345	345	345	114750000	performance	1866	32	32	29	31	28	27	100	31
1593970527832907673 	0	345	1880	1843	345	345	345	114750000	performance	1866	32	32	29	32	28	27	100	31
1593970529533443430	1	345	1881	1881	345	345	345	114750000	performance	1866	31	31	29	31	28	27	100	30
1593970529691776794 	0	345	1881	1880	345	345	345	114750000	performance	1866	31	31	29	31	28	27	100	30
1593970531388187535	1	345	1881	1881	345	345	345	114750000	performance	1866	32	32	29	32	28	27	100	31
1593970531548436334 	0	345	1881	1842	345	345	345	114750000	performance	1866	32	32	30	32	28	27	100	31
1593970533246817294	1	345	1881	1881	345	345	345	114750000	performance	1866	32	31	29	31	28	27	100	31
1593970533405309251 	0	345	1881	1881	345	345	345	114750000	performance	1866	31	31	29	32	28	27	100	31
1593970535103257761	1	345	1881	1881	345	345	345	114750000	performance	1866	32	32	29	32	28	27	100	31
1593970535262595931 	0	345	1840	1881	345	345	345	114750000	performance	1866	32	32	30	32	28	27	100	31
1593970536959902485	1	345	1881	1881	345	345	345	114750000	performance	1866	32	32	29	32	28	27	100	31
1593970537119235151 	0	345	1880	1881	345	345	345	114750000	performance	1866	32	32	30	32	28	27	100	31
1593970538815580355	1	345	1881	1881	345	345	345	114750000	performance	1866	32	32	30	32	28	27	100	30
1593970538972918545 	0	345	1880	1838	345	345	345	114750000	performance	1866	31	32	30	32	28	27	100	30
1593970540670901327	1	345	1881	1881	345	345	345	114750000	performance	1866	32	32	29	31	28	27	100	31
1593970540983218942 	0	345	1881	1881	345	345	345	114750000	performance	1866	32	32	29	31	28	27	100	30
1593970542835975003	1	345	1881	1881	345	345	345	114750000	performance	1866	32	32	29	32	28	27	100	30
1593970543089838776 	0	345	1881	1839	345	345	345	114750000	performance	1866	32	32	29	32	28	27	100	31
1593970544921562108	1	345	1881	1881	345	345	345	114750000	performance	1866	32	32	29	32	28	27	100	30
1593970545081056438 	0	345	1881	1881	345	345	345	114750000	performance	1866	31	32	30	32	28	28	100	30
1593970546777341514	1	345	1881	1881	345	345	345	114750000	performance	1866	32	32	30	32	28	27	100	30
1593970546934166422 	0	345	1874	1881	345	345	345	114750000	performance	1866	32	32	29	32	28	27	100	30
1593970548632140628	1	345	1881	1881	345	345	345	114750000	performance	1866	32	32	30	32	28	27	100	31
1593970548791155755 	0	345	1882	1841	345	345	345	114750000	performance	1866	32	32	29	32	28	27	100	30
1593970550486565723	1	345	1881	1881	345	345	345	114750000	performance	1866	32	32	29	32	28	27	100	30
1593970550646300663 	0	345	1837	1882	345	345	345	114750000	performance	1866	32	32	29	32	28	27	100	30
1593970552345027001	1	345	1881	1881	345	345	345	114750000	performance	1866	32	32	29	32	28	27	100	31
1593970552501791044 	0	345	1881	1882	345	345	345	114750000	performance	1866	32	32	29	32	28	27	100	31
1593970554202464146	1	345	1881	1881	345	345	345	114750000	performance	1866	32	32	30	32	28	27	100	31
1593970554359720159 	0	345	1881	1880	346	345	345	114750000	performance	1866	32	32	30	32	28	27	100	30
1593970556075624741	1	345	1881	1881	345	345	345	114750000	performance	1866	31	31	30	31	28	28	100	31
1593970556241398308 	0	345	1843	1881	345	345	345	114750000	performance	1866	32	32	29	32	28	28	100	31
1593970558094552804	1	345	1881	1881	345	345	345	114750000	performance	1866	32	32	30	32	28	27	100	31
1593970558255838920 	0	345	1881	1881	345	345	345	114750000	performance	1866	32	32	30	32	28	27	100	31
1593970559952304766	1	345	1881	1881	345	345	345	114750000	performance	1866	32	32	30	32	28	28	100	31
1593970560255170422 	0	345	1838	1884	345	345	345	114750000	performance	1866	32	32	29	32	28	28	100	31
1593970562018690031	1	345	1881	1881	345	345	345	114750000	performance	1866	31	31	30	31	28	27	100	31
1593970562357484759 	0	345	1841	1844	345	345	345	114750000	performance	1866	31	32	29	32	28	28	100	31
1593970564249141781	1	345	1881	1881	345	345	345	114750000	performance	1866	31	31	30	31	28	27	100	31
1593970564407258664 	0	345	1879	1877	345	345	345	114750000	performance	1866	32	32	30	32	28	27	100	31
1593970566113887992	1	345	1881	1881	345	345	345	114750000	performance	1866	32	32	29	32	28	28	100	31
1593970566276277411 	0	345	1880	1878	345	345	346	114750000	performance	1866	32	32	30	32	28	28	100	31
1593970567973485373	1	345	1881	1881	345	345	345	114750000	performance	1866	32	32	30	32	28	27	100	30
1593970568131264589 	0	345	1878	1878	345	345	345	114750000	performance	1866	32	32	30	32	28	27	100	30
1593970569830132753	1	345	1881	1881	345	345	345	114750000	performance	1866	32	32	29	32	28	27	100	31
1593970570015780835 	0	345	1881	1841	345	346	345	114750000	performance	1866	32	32	30	32	28	27	100	31
1593970571726786380	1	345	1881	1881	345	345	345	114750000	performance	1866	32	32	30	32	28	27	100	31
1593970571885144928 	0	345	1881	1881	345	345	345	114750000	performance	1866	31	32	30	32	28	28	100	31
1593970573583688801	1	345	1881	1881	345	345	345	114750000	performance	1866	32	32	29	32	28	27	100	30
1593970573743607998 	0	345	1878	1881	345	345	345	114750000	performance	1866	32	31	29	31	28	27	100	30
1593970575439763698	1	345	1881	1881	345	345	345	114750000	performance	1866	32	32	30	32	28	27	100	31
1593970575597582915 	0	345	1881	1883	345	345	345	114750000	performance	1866	32	32	29	32	28	27	100	31
1593970577298040463	1	345	1881	1881	345	345	345	114750000	performance	1866	32	32	30	32	28	27	100	30
1593970577455833344 	0	345	1880	1881	345	345	345	114750000	performance	1866	32	32	30	32	28	27	100	30
1593970579152283029	1	345	1881	1881	345	345	345	114750000	performance	1866	32	32	30	32	28	28	100	31
1593970579313443257 	0	345	1881	1879	345	345	345	114750000	performance	1866	32	32	30	32	28	28	100	31
1593970581009551181	1	345	1881	1881	345	345	345	114750000	performance	1866	32	31	30	31	28	27	100	31
1593970581203093068 	0	345	1881	1839	345	345	345	114750000	performance	1866	32	32	30	32	28	28	100	31
1593970582912794766	1	345	1881	1881	345	345	345	114750000	performance	1866	32	32	30	32	28	28	100	31
1593970583249559242 	0	345	1881	1881	345	345	345	114750000	performance	1866	32	31	30	32	28	27	100	31
1593970585155208729	1	345	1881	1881	345	345	345	114750000	performance	1866	32	32	30	32	28	28	100	31
1593970585357860846 	0	345	1838	1882	345	345	345	114750000	performance	1866	32	32	30	32	28	28	100	31
1593970587142242080	1	345	1881	1881	345	345	345	114750000	performance	1866	32	32	30	31	28	28	100	31
1593970587303928679 	0	345	1881	1881	345	345	345	114750000	performance	1866	32	32	30	32	28	28	100	31
1593970589000170843	1	345	1881	1881	345	345	345	114750000	performance	1866	32	32	30	32	28	28	100	31
1593970589158536079 	0	345	1880	1880	345	345	345	114750000	performance	1866	32	32	30	32	28	28	100	31
1593970590856817519	1	345	1881	1881	345	345	345	114750000	performance	1866	32	32	30	32	28	27	100	30
1593970591014796033 	0	345	1839	1844	345	345	345	114750000	performance	1866	32	32	30	32	28	28	100	30
1593970592711938010	1	345	1881	1881	345	345	345	114750000	performance	1866	32	32	30	32	28	28	100	31
1593970592870637168 	0	345	1836	1844	345	345	345	114750000	performance	1866	32	32	30	32	28	28	100	31
1593970594568274060	1	345	1881	1881	345	345	345	114750000	performance	1866	32	32	30	32	28	28	100	31
1593970594726686624 	0	345	1843	1881	345	345	345	114750000	performance	1866	32	32	30	32	28	28	100	31
1593970596427520943	1	345	1881	1881	345	345	345	114750000	performance	1866	31	31	30	31	28	28	100	31
1593970596586243845 	0	345	1840	1881	345	345	345	114750000	performance	1866	31	31	30	31	28	28	100	31
1593970598285680939	1	345	1881	1881	345	345	345	114750000	performance	1866	32	32	30	32	28	28	100	30
1593970598443292411 	0	345	1881	1882	345	345	345	114750000	performance	1866	32	32	30	32	28	28	100	30
1593970600139125453	1	345	1881	1881	345	345	345	114750000	performance	1866	31	31	30	31	28	28	100	31
1593970600299904751 	0	345	1881	1882	345	345	346	114750000	performance	1866	32	32	30	32	28	28	100	31
1593970601995886593	1	345	1881	1881	345	345	345	114750000	performance	1866	32	32	30	32	28	28	100	31
1593970602153806963 	0	345	1843	1841	345	345	345	114750000	performance	1866	32	32	30	32	28	28	100	31
1593970603851688048	1	345	1881	1881	345	345	345	114750000	performance	1866	31	31	30	32	28	28	100	30
1593970604010298790 	0	345	1842	1881	345	345	345	114750000	performance	1866	32	32	30	32	28	28	100	30
1593970605706873308	1	345	1881	1881	345	345	345	114750000	performance	1866	32	32	30	31	28	28	100	31
1593970606016678140 	0	345	1882	1844	345	345	345	114750000	performance	1866	32	32	30	32	28	28	100	30
1593970607886893758	1	345	1881	1881	345	345	345	114750000	performance	1866	32	32	30	32	28	28	100	31
1593970608122093615 	0	345	1882	1881	345	345	345	114750000	performance	1866	32	32	30	32	28	28	100	31
1593970609934352034	1	345	1881	1881	345	345	345	114750000	performance	1866	32	32	30	32	28	28	100	31
1593970610092362420 	0	346	1882	1881	345	345	345	114750000	performance	1866	32	32	30	32	28	28	100	31
1593970611788146981	1	345	1881	1881	345	345	345	114750000	performance	1866	32	32	30	32	28	28	100	31
1593970611947159805 	0	345	1881	1844	346	345	345	114750000	performance	1866	32	32	30	32	28	28	100	31
1593970613644026197	1	345	1881	1881	345	345	345	114750000	performance	1866	32	32	30	32	28	28	100	31
1593970613802635498 	0	345	1879	1880	345	345	345	114750000	performance	1866	32	32	30	32	28	28	100	31
1593970615500947850	1	345	1881	1881	345	345	345	114750000	performance	1866	32	32	30	32	28	28	100	31
1593970615659822913 	0	345	1797	1847	345	345	345	114750000	performance	1866	32	32	30	32	28	28	100	31
1593970617362561307	1	345	1881	1881	345	345	345	114750000	performance	1866	32	32	30	32	28	28	100	31
1593970617520417580 	0	345	1881	1881	345	345	345	114750000	performance	1866	32	32	30	32	28	28	100	31
1593970619225100657	1	345	1881	1881	345	345	345	114750000	performance	1866	32	32	30	32	28	28	100	31
1593970619396824658 	0	345	1844	1881	345	345	345	114750000	performance	1866	32	32	30	32	28	28	100	31
1593970621141084252	1	345	1881	1881	345	345	345	114750000	performance	1866	32	32	30	32	28	28	100	31
1593970621321303566 	0	345	1881	1843	345	345	345	114750000	performance	1866	31	31	30	31	28	28	100	31
1593970623020475699	1	345	1881	1881	345	345	345	114750000	performance	1866	32	32	30	32	28	28	100	31
1593970623177631168 	0	345	1881	1881	345	345	345	114750000	performance	1866	32	32	30	32	28	28	100	31
1593970624874372823	1	345	1881	1881	345	345	345	114750000	performance	1866	32	32	30	32	28	28	100	31
1593970625037888073 	0	345	1880	1881	345	345	345	114750000	performance	1866	32	32	30	32	28	27	100	31
1593970626734961986	1	345	1881	1881	345	345	345	114750000	performance	1866	32	32	30	32	28	28	100	31
1593970626893630392 	0	345	1881	1881	345	345	345	114750000	performance	1866	32	32	30	32	28	28	100	31
1593970628594553511	1	345	1881	1881	345	345	345	114750000	performance	1866	32	32	30	32	28	28	100	31
1593970628923449653 	0	345	1880	1882	345	345	345	114750000	performance	1866	32	32	30	32	28	28	100	31
1593970630795643555	1	345	1881	1881	345	345	345	114750000	performance	1866	32	32	30	32	28	28	100	31
1593970631016460864 	0	345	1880	1791	345	345	345	114750000	performance	1866	32	32	30	32	28	28	100	31
1593970632828380914	1	345	1881	1881	345	345	345	114750000	performance	1866	32	32	30	32	28	28	100	31
1593970632989245844 	0	345	1880	1881	345	345	345	114750000	performance	1866	32	32	30	32	28	28	100	31
1593970634685825834	1	345	1881	1881	345	345	345	114750000	performance	1866	32	32	30	32	28	28	100	31
1593970634844631745 	0	345	1881	1883	345	345	345	114750000	performance	1866	32	32	30	32	28	28	100	31
1593970636543932806	1	345	1881	1881	345	345	345	114750000	performance	1866	32	32	30	32	28	28	100	31
1593970636702223322 	0	345	1843	1880	345	345	345	114750000	performance	1866	32	32	30	32	28	28	100	31
1593970638400220344	1	345	1881	1881	345	345	345	114750000	performance	1866	32	32	30	32	28	28	100	31
1593970638560120757 	0	345	1842	1842	345	345	345	114750000	performance	1866	32	32	30	32	28	28	100	31
1593970640256849868	1	345	1881	1881	345	345	345	114750000	performance	1866	32	32	30	32	28	28	100	31
1593970640416638184 	0	345	1844	1840	345	345	345	114750000	performance	1866	32	32	30	32	28	28	100	31
1593970642116170095	1	345	1881	1881	345	345	345	114750000	performance	1866	32	32	30	32	28	28	100	31
1593970642273249020 	0	345	1879	1882	345	345	345	114750000	performance	1866	32	32	30	32	28	28	100	31
1593970643971903070	1	345	1881	1881	345	345	345	114750000	performance	1866	32	32	30	32	28	28	100	31
1593970644129720047 	0	345	1881	1881	345	345	345	114750000	performance	1866	32	32	30	32	28	28	100	31
1593970645826774472	1	345	1881	1881	345	345	345	114750000	performance	1866	32	32	30	32	28	28	100	31
1593970645986355971 	0	345	1880	1880	345	345	345	114750000	performance	1866	32	32	30	32	28	28	100	31
1593970647683700445	1	345	1881	1881	345	345	345	114750000	performance	1866	32	32	30	32	28	28	100	31
1593970647842258962 	0	345	1880	1878	346	345	345	114750000	performance	1866	32	32	30	32	28	28	100	31
1593970649542088731	1	345	1881	1881	345	345	345	114750000	performance	1866	32	32	30	32	28	28	100	31
1593970649700599664 	0	345	1841	1879	346	345	345	114750000	performance	1866	32	32	30	32	28	28	100	31
1593970651400049591	1	345	1881	1881	345	345	345	114750000	performance	1866	32	32	30	32	28	28	100	31
1593970651665650295 	0	345	1842	1881	345	345	345	114750000	performance	1866	32	32	30	32	28	28	100	31
1593970653504837574	1	345	1881	1881	345	345	345	114750000	performance	1866	32	32	30	32	28	28	100	31
1593970653782781486 	0	345	1880	1881	345	345	345	114750000	performance	1866	32	32	30	32	28	28	100	31
1593970655632449561	1	345	1881	1881	345	345	345	114750000	performance	1866	32	32	30	32	28	28	100	31
1593970655790850413 	0	345	1881	1880	345	345	345	114750000	performance	1866	32	32	30	32	28	28	100	31
1593970657489521391	1	345	1881	1881	345	345	345	114750000	performance	1866	32	32	30	32	28	28	100	31
1593970657650217393 	0	345	1881	1881	345	345	345	114750000	performance	1866	32	32	30	32	28	28	100	31
1593970659346397349	1	345	1881	1881	345	345	345	114750000	performance	1866	32	32	30	32	28	28	100	31
1593970659506508547 	0	345	1881	1881	345	345	345	114750000	performance	1866	32	32	30	32	28	28	100	31
1593970661240030734	1	345	1881	1881	345	345	345	114750000	performance	1866	32	32	30	32	28	28	100	31
1593970661399061574 	0	345	1881	1880	345	345	345	114750000	performance	1866	32	32	30	32	28	28	100	31
1593970663097313478	1	345	1881	1881	345	345	345	114750000	performance	1866	32	32	30	32	28	28	100	31
1593970663255636058 	0	345	1879	1798	345	345	345	114750000	performance	1866	32	32	30	32	28	28	100	31
1593970664952081903	1	345	1881	1881	345	345	345	114750000	performance	1866	32	32	30	32	28	28	100	31
1593970665114706748 	0	345	1879	1880	345	345	345	114750000	performance	1866	32	32	30	32	28	28	100	31
1593970666812306680	1	345	1881	1881	345	345	345	114750000	performance	1866	32	32	30	32	28	28	100	31
1593970666970330186 	0	345	1792	1881	345	345	345	114750000	performance	1866	32	32	30	32	28	28	100	31
1593970668670156114	1	345	1881	1881	345	345	345	114750000	performance	1866	32	32	30	32	28	28	100	31
1593970668827997987 	0	345	1880	1881	345	345	345	114750000	performance	1866	32	32	30	32	28	28	100	31
1593970670527609579	1	345	1881	1881	345	345	345	114750000	performance	1866	32	32	30	32	28	28	100	31
1593970670687910922 	0	345	1881	1845	345	345	345	114750000	performance	1866	32	32	30	32	28	28	100	31
1593970672384153022	1	345	1881	1881	345	345	345	114750000	performance	1866	32	32	30	32	28	28	100	31
1593970672545095873 	0	345	1881	1880	345	346	345	114750000	performance	1866	32	32	30	32	28	28	100	31
1593970674245852335	1	345	1881	1881	345	345	345	114750000	performance	1866	32	32	30	32	28	28	100	31
1593970674572223727 	0	345	1880	1880	345	345	345	114750000	performance	1866	32	32	30	32	28	28	100	31
1593970676452657069	1	345	1881	1881	345	345	345	114750000	performance	1866	32	32	30	32	28	28	100	31
1593970676673277225 	0	345	1881	1836	345	345	345	114750000	performance	1866	32	32	30	32	28	28	100	31
1593970678478160721	1	345	1881	1881	345	345	345	114750000	performance	1866	32	32	30	32	28	28	100	31
1593970678638412656 	0	345	1881	1881	345	345	345	114750000	performance	1866	32	32	30	32	28	28	100	31
1593970680351964105	1	345	1881	1881	345	345	345	114750000	performance	1866	32	32	30	32	28	28	100	31
1593970680512672586 	0	345	1881	1881	345	345	345	114750000	performance	1866	32	32	30	32	28	28	100	31
1593970682221082277	1	345	1881	1881	345	345	345	114750000	performance	1866	32	32	30	32	28	28	100	31
1593970682391146204 	0	345	1881	1880	345	345	345	114750000	performance	1866	32	32	30	32	28	28	100	31
1593970684200207101	1	345	1881	1881	345	345	345	114750000	performance	1866	32	32	30	32	28	28	100	31
1593970684357940013 	0	345	1880	1878	345	345	345	114750000	performance	1866	32	32	30	32	28	28	100	31
1593970686054794213	1	345	1881	1881	345	345	345	114750000	performance	1866	32	32	30	32	28	28	100	31
1593970686214017022 	0	345	1881	1880	345	345	345	114750000	performance	1866	32	32	30	32	28	28	100	31
1593970687911200055	1	345	1881	1881	345	345	345	114750000	performance	1866	32	32	30	32	28	28	100	31
1593970688070651890 	0	345	1881	1881	345	345	345	114750000	performance	1866	32	32	30	32	28	28	100	31
1593970689769389684	1	345	1881	1881	345	345	345	114750000	performance	1866	32	32	30	32	28	28	100	31
1593970689927229061 	0	346	1881	1844	345	345	345	114750000	performance	1866	32	32	30	32	28	28	100	31
1593970691627045582	1	345	1881	1881	345	345	345	114750000	performance	1866	32	32	30	32	28	28	100	31
1593970691787106380 	0	345	1840	1892	345	345	346	114750000	performance	1866	32	32	30	32	28	28	100	31
1593970693485282443	1	345	1881	1881	345	345	345	114750000	performance	1866	32	32	30	32	28	28	100	31
1593970693643862944 	0	346	1881	1881	345	345	346	114750000	performance	1866	32	32	30	32	28	28	100	31
1593970695345126801	1	345	1881	1881	345	345	345	114750000	performance	1866	32	32	30	32	28	28	100	31
1593970695504427051 	0	345	1879	1878	345	345	345	114750000	performance	1866	32	32	30	32	28	28	100	31
1593970697202613674	1	345	1881	1881	345	345	345	114750000	performance	1866	32	32	30	32	28	28	100	31
1593970697502127439 	0	345	1835	1837	345	345	345	114750000	performance	1866	32	32	30	32	28	28	100	31
1593970699356142707	1	345	1881	1881	345	345	345	114750000	performance	1866	32	32	30	32	28	28	100	31
1593970699606050649 	0	345	1876	1879	345	345	345	114750000	performance	1866	32	32	30	32	28	28	100	31
1593970701465145467	1	345	1881	1881	345	345	345	114750000	performance	1866	32	32	30	32	28	28	100	31
1593970701624077586 	0	345	1878	1880	345	345	345	114750000	performance	1866	32	32	30	32	28	28	100	31
1593970703322473875	1	345	1881	1881	345	345	345	114750000	performance	1866	32	32	30	32	28	28	100	31
1593970703482491760 	0	345	1880	1882	345	345	345	114750000	performance	1866	32	32	30	32	28	28	100	31
1593970705179743690	1	345	1881	1881	345	345	345	114750000	performance	1866	32	32	30	32	28	28	100	31
1593970705342031669 	0	345	1881	1880	345	345	345	114750000	performance	1866	32	32	30	32	28	28	100	31
1593970707038789420	1	345	1881	1881	345	345	345	114750000	performance	1866	32	32	30	32	28	28	100	31
1593970707197194016 	0	345	1881	1879	345	345	345	114750000	performance	1866	32	32	30	32	28	28	100	31
1593970708897339595	1	345	1881	1881	345	345	345	114750000	performance	1866	32	32	30	32	28	28	100	31
1593970709056470371 	0	345	1880	1879	345	345	345	114750000	performance	1866	32	32	30	32	28	28	100	31
1593970710754812644	1	345	1881	1881	345	345	345	114750000	performance	1866	32	32	30	32	28	28	100	31
1593970710915066691 	0	345	1840	1882	345	345	345	114750000	performance	1866	32	32	30	32	28	28	100	31
1593970712613830181	1	345	1881	1881	345	345	345	114750000	performance	1866	32	32	30	32	29	28	100	31
1593970712772259034 	0	345	1841	1881	345	345	345	114750000	performance	1866	32	32	30	32	29	28	100	31
1593970714471274974	1	345	1881	1881	345	345	345	114750000	performance	1866	32	32	30	32	29	28	100	31
1593970714632135296 	0	345	1883	1879	345	345	345	114750000	performance	1866	32	32	30	32	29	28	100	31
1593970716332583020	1	345	1881	1881	345	345	345	114750000	performance	1866	32	32	30	32	29	28	100	31
1593970716491648741 	0	345	1881	1881	345	345	345	114750000	performance	1866	32	32	30	32	29	28	100	31
1593970718187982105	1	345	1881	1881	345	345	345	114750000	performance	1866	32	32	30	32	29	28	100	31
1593970718348019703 	0	345	1880	1836	345	345	345	114750000	performance	1866	32	32	30	32	29	28	100	31
1593970720045267089	1	345	1881	1881	345	345	345	114750000	performance	1866	32	32	30	32	29	28	100	31
1593970720368038044 	0	345	1878	1880	345	345	345	114750000	performance	1866	32	32	30	32	29	28	100	31
1593970722243616829	1	345	1881	1881	345	345	345	114750000	performance	1866	32	32	30	32	29	28	100	31
1593970722466241189 	0	345	1880	1879	345	345	345	114750000	performance	1866	32	32	30	32	29	28	100	31
1593970724266908341	1	345	1881	1881	345	345	345	114750000	performance	1866	32	32	30	32	29	28	100	31
1593970724427018419 	0	346	1881	1879	345	345	345	114750000	performance	1866	32	32	30	32	29	28	100	31
1593970726124299661	1	345	1881	1881	345	345	345	114750000	performance	1866	32	32	30	32	29	28	100	31
1593970726284205898 	0	345	1881	1881	345	345	346	114750000	performance	1866	32	32	30	32	29	28	100	31
1593970727982251817	1	345	1881	1881	345	345	345	114750000	performance	1866	32	32	30	32	29	28	100	31
1593970728139684951 	0	345	1881	1880	345	345	345	114750000	performance	1866	32	32	30	32	29	28	100	31
1593970729837001042	1	345	1881	1881	345	345	345	114750000	performance	1866	32	32	30	32	29	28	100	31
1593970729999695487 	0	345	1843	1837	345	345	345	114750000	performance	1866	32	32	30	32	29	28	100	31
1593970731697602332	1	345	1881	1881	345	345	345	114750000	performance	1866	32	32	30	32	29	28	100	31
1593970731856298994 	0	345	1880	1881	345	345	345	114750000	performance	1866	32	32	30	32	29	28	100	31
1593970733557920421	1	345	1881	1881	345	345	345	114750000	performance	1866	32	32	30	32	29	28	100	31
1593970733717223967 	0	345	1880	1880	345	345	345	114750000	performance	1866	32	32	30	32	29	28	100	31
1593970735418281871	1	345	1881	1881	345	345	345	114750000	performance	1866	32	32	30	32	29	28	100	31
1593970735580222072 	0	345	1881	1881	345	345	345	114750000	performance	1866	32	32	30	32	29	28	100	31
1593970737276505612	1	345	1881	1881	345	345	345	114750000	performance	1866	32	32	30	32	29	28	100	31
1593970737435589060 	0	345	1880	1880	345	345	345	114750000	performance	1866	32	32	30	32	29	28	100	31
1593970739132203674	1	345	1881	1881	345	345	345	114750000	performance	1866	32	32	30	32	29	28	100	31
1593970739289825354 	0	345	1881	1844	345	345	345	114750000	performance	1866	32	32	30	32	29	28	100	31
1593970740989036367	1	345	1881	1881	345	345	345	114750000	performance	1866	32	32	30	32	29	28	100	31
1593970741150373652 	0	345	1881	1881	345	345	345	114750000	performance	1866	32	32	30	32	29	28	100	31
