timestamp	VIRTUAL_SCALING	CPU0_F	CPU1_F	CPU2_F	CPU3_F	CPU4_F	CPU5_F	GPU_FREQ	CPU_GOVERNOR	EMC_F	TEMP0	TEMP1	TEMP2	TEMP3	TEMP4	TEMP5	TEMP6	TEMP7
1593967338341436309	1	1420	345	345	1420	1420	1420	114750000	performance	1866	29	29	28	29	26	26	100	29
1593967338387784161 	0	1419	345	345	1343	1269	1377	114750000	performance	1866	29	29	28	29	26	26	100	29
1593967339944334957	1	1420	345	345	1420	1420	1420	114750000	performance	1866	29	29	28	29	26	25	100	28
1593967339989474322 	0	1419	345	345	1377	1420	1377	114750000	performance	1866	29	29	28	29	26	25	100	28
1593967341545253018	1	1420	345	345	1420	1420	1420	114750000	performance	1866	29	29	28	29	26	25	100	28
1593967341590157213 	0	1380	345	345	1420	1386	1413	114750000	performance	1866	29	29	27	29	26	25	100	28
1593967343150367967	1	1420	345	345	1420	1420	1420	114750000	performance	1866	29	29	27	29	26	25	100	28
1593967343201996297 	0	1420	345	345	1413	1342	1377	114750000	performance	1866	29	29	27	29	26	25	100	28
1593967344784268970	1	1420	345	345	1420	1420	1420	114750000	performance	1866	29	29	27	29	26	25	100	28
1593967344825682617 	0	1420	1562	1565	1419	1420	1419	114750000	performance	1866	29	29	27	29	26	25	100	28
1593967346378127118	1	1420	345	345	1420	1420	1420	114750000	performance	1866	29	29	27	29	26	25	100	28
1593967346419597950 	0	1421	1563	1569	1420	1419	1420	114750000	performance	1866	30	30	27	30	26	25	100	28
1593967347971495215	1	1420	345	345	1420	1420	1420	114750000	performance	1866	29	29	27	29	26	25	100	28
1593967348012598300 	0	1421	1562	1567	1420	1420	1421	114750000	performance	1866	29	29	28	29	26	25	100	28
1593967349564647566	1	1420	345	345	1420	1420	1420	114750000	performance	1866	30	30	28	30	26	25	100	29
1593967349605939645 	0	1421	1568	1574	1420	1421	1419	114750000	performance	1866	30	30	28	30	26	25	100	29
1593967351157427212	1	1420	345	345	1420	1420	1420	114750000	performance	1866	29	29	28	29	26	25	100	28
1593967351198595674 	0	1420	1562	1565	1421	1420	1420	114750000	performance	1866	30	30	28	30	26	25	100	28
1593967352751090478	1	1420	345	345	1420	1420	1420	114750000	performance	1866	30	30	28	30	26	25	100	29
1593967352792617631 	0	1419	1564	1570	1420	1420	1420	114750000	performance	1866	30	30	28	30	26	25	100	29
1593967354345133779	1	1420	345	345	1420	1420	1420	114750000	performance	1866	29	29	28	29	26	25	100	29
1593967354387102374 	0	1420	1561	1564	1420	1420	1420	114750000	performance	1866	29	29	28	29	26	25	100	29
1593967355939133528	1	1420	345	345	1420	1420	1420	114750000	performance	1866	29	29	28	29	26	25	100	28
1593967355980519303 	0	1420	1561	1565	1420	1420	1420	114750000	performance	1866	29	29	28	29	26	25	100	28
1593967357532786970	1	1420	345	345	1420	1420	1420	114750000	performance	1866	29	29	28	29	26	25	100	29
1593967357574064841 	0	1420	1562	1564	1421	1420	1420	114750000	performance	1866	29	29	28	29	26	25	100	29
1593967359125881178	1	1420	345	345	1420	1420	1420	114750000	performance	1866	30	30	28	30	26	25	100	28
1593967359167213705 	0	1419	1564	1570	1420	1420	1420	114750000	performance	1866	30	30	28	30	26	25	100	28
1593967360718940089	1	1420	345	345	1420	1420	1420	114750000	performance	1866	30	30	28	30	26	26	100	28
1593967360761613616 	0	1420	1574	1574	1420	1420	1421	114750000	performance	1866	30	30	28	30	26	26	100	28
1593967362313247839	1	1420	345	345	1420	1420	1420	114750000	performance	1866	30	30	28	30	26	26	100	29
1593967362355461779 	0	1420	1564	1564	1420	1421	1421	114750000	performance	1866	29	29	28	29	26	26	100	29
1593967363907428325	1	1420	345	345	1420	1420	1420	114750000	performance	1866	30	30	28	30	26	25	100	28
1593967363948596979 	0	1420	1573	1573	1420	1420	1420	114750000	performance	1866	30	30	28	30	26	25	100	28
1593967365500705989	1	1420	345	345	1420	1420	1420	114750000	performance	1866	29	29	28	29	26	26	100	29
1593967365542207381 	0	1420	1529	1563	1420	1420	1420	114750000	performance	1866	30	30	28	30	26	26	100	29
1593967367094579785	1	1420	345	345	1420	1420	1420	114750000	performance	1866	30	30	28	30	26	26	100	29
1593967367135989401 	0	1421	1562	1570	1420	1420	1421	114750000	performance	1866	30	30	28	30	26	26	100	29
1593967368687828201	1	1420	345	345	1420	1420	1420	114750000	performance	1866	30	30	28	30	26	25	100	29
1593967368729264249 	0	1420	1565	1565	1419	1421	1420	114750000	performance	1866	30	30	28	30	26	25	100	29
1593967370281595277	1	1420	345	345	1420	1420	1420	114750000	performance	1866	30	30	28	30	26	26	100	29
1593967370322982812 	0	1419	1562	1562	1421	1420	1420	114750000	performance	1866	30	30	28	30	26	26	100	29
1593967371874712812	1	1420	345	345	1420	1420	1420	114750000	performance	1866	30	30	28	30	26	26	100	28
1593967371915926203 	0	1421	1563	1565	1421	1421	1420	114750000	performance	1866	30	30	28	30	26	26	100	28
1593967373467968876	1	1420	345	345	1420	1420	1420	114750000	performance	1866	30	30	28	30	26	26	100	29
1593967373509571037 	0	1420	1566	1566	1421	1420	1420	114750000	performance	1866	30	30	28	30	26	26	100	29
1593967375060989035	1	1420	345	345	1420	1420	1420	114750000	performance	1866	30	30	28	30	26	26	100	29
1593967375102138233 	0	1421	1568	1571	1420	1421	1421	114750000	performance	1866	30	30	28	30	26	26	100	29
1593967376653913482	1	1420	345	345	1420	1420	1420	114750000	performance	1866	30	30	28	30	26	26	100	29
1593967376695291289 	0	1420	1533	1531	1421	1421	1420	114750000	performance	1866	30	30	28	30	26	26	100	29
1593967378246835464	1	1420	345	345	1420	1420	1420	114750000	performance	1866	30	30	28	30	26	26	100	29
1593967378288535449 	0	1420	1568	1565	1420	1421	1420	114750000	performance	1866	30	30	28	30	26	26	100	29
1593967379844041695	1	1420	345	345	1420	1420	1420	114750000	performance	1866	30	30	28	30	26	26	100	29
1593967379885138221 	0	1421	1574	1575	1420	1421	1421	114750000	performance	1866	30	30	28	30	26	26	100	29
1593967381436738844	1	1420	345	345	1420	1420	1420	114750000	performance	1866	30	30	28	30	26	26	100	29
1593967381477686185 	0	1421	1573	1573	1421	1421	1419	114750000	performance	1866	30	30	28	30	26	26	100	29
1593967383029382137	1	1420	345	345	1420	1420	1420	114750000	performance	1866	30	30	28	30	26	26	100	29
1593967383070965705 	0	1419	1569	1566	1420	1419	1420	114750000	performance	1866	30	30	28	30	26	26	100	29
1593967384622871899	1	1420	345	345	1420	1420	1420	114750000	performance	1866	30	30	28	30	26	25	100	29
1593967384664099529 	0	1421	1573	1574	1421	1421	1420	114750000	performance	1866	30	30	28	30	26	26	100	29
1593967386216036602	1	1420	345	345	1420	1420	1420	114750000	performance	1866	30	30	28	30	26	26	100	29
1593967386258216750 	0	1421	1560	1559	1420	1420	1420	114750000	performance	1866	30	30	28	30	26	26	100	29
1593967387809673245	1	1420	345	345	1420	1420	1420	114750000	performance	1866	30	30	28	30	26	26	100	29
1593967387851729296 	0	1420	1563	1563	1421	1420	1419	114750000	performance	1866	30	30	28	30	26	26	100	29
1593967389404139972	1	1420	345	345	1420	1420	1420	114750000	performance	1866	30	30	28	30	26	26	100	28
1593967389445367251 	0	1420	1564	1568	1420	1420	1422	114750000	performance	1866	30	30	28	30	26	26	100	28
1593967390997133859	1	1420	345	345	1420	1420	1420	114750000	performance	1866	30	30	28	30	26	26	100	29
1593967391038644467 	0	1420	1561	1565	1420	1420	1421	114750000	performance	1866	30	30	28	30	26	26	100	29
1593967392590553508	1	1420	345	345	1420	1420	1420	114750000	performance	1866	30	30	28	30	26	26	100	29
1593967392631871379 	0	1420	1559	1556	1420	1420	1420	114750000	performance	1866	30	30	28	30	26	26	100	29
1593967394183552227	1	1420	345	345	1420	1420	1420	114750000	performance	1866	30	30	28	30	26	26	100	29
1593967394224360111 	0	1420	1574	1574	1421	1420	1420	114750000	performance	1866	30	30	28	30	26	26	100	29
1593967395775869054	1	1420	345	345	1420	1420	1420	114750000	performance	1866	30	30	28	30	26	26	100	29
1593967395817039436 	0	1422	1566	1567	1421	1419	1421	114750000	performance	1866	30	30	28	30	26	26	100	29
1593967397369049918	1	1420	345	345	1420	1420	1420	114750000	performance	1866	30	30	28	30	27	26	100	29
1593967397472024945 	0	1420	1532	1533	1421	1421	1419	114750000	performance	1866	30	30	28	30	27	26	100	29
1593967399079671269	1	1420	345	345	1420	1420	1420	114750000	performance	1866	30	30	28	30	27	26	100	29
1593967399121084756 	0	1421	1563	1566	1421	1420	1420	114750000	performance	1866	30	30	28	30	27	26	100	29
1593967400672805700	1	1420	345	345	1420	1420	1420	114750000	performance	1866	30	30	28	30	27	26	100	28
1593967400713798961 	0	1420	1561	1566	1421	1421	1420	114750000	performance	1866	30	30	28	30	27	26	100	28
1593967402265243104	1	1420	345	345	1420	1420	1420	114750000	performance	1866	30	30	28	30	27	26	100	29
1593967402306339150 	0	1420	1574	1573	1420	1420	1421	114750000	performance	1866	30	30	28	30	27	26	100	29
1593967403857933053	1	1420	345	345	1420	1420	1420	114750000	performance	1866	30	30	28	30	27	26	100	29
1593967403899930768 	0	1420	1562	1565	1420	1420	1420	114750000	performance	1866	30	30	28	30	27	26	100	29
1593967405452550885	1	1420	345	345	1420	1420	1420	114750000	performance	1866	30	30	28	30	27	26	100	29
1593967405493894164 	0	1421	1565	1566	1421	1420	1421	114750000	performance	1866	30	30	28	30	27	26	100	29
1593967407045525572	1	1420	345	345	1420	1420	1420	114750000	performance	1866	30	30	28	30	27	26	100	29
1593967407086615281 	0	1420	1563	1564	1420	1421	1419	114750000	performance	1866	30	30	28	30	27	26	100	29
1593967408638012992	1	1420	345	345	1420	1420	1420	114750000	performance	1866	30	30	28	30	27	26	100	29
1593967408679051853 	0	1420	1564	1573	1419	1421	1420	114750000	performance	1866	30	30	28	30	27	26	100	29
1593967410230552572	1	1420	345	345	1420	1420	1420	114750000	performance	1866	30	30	28	30	27	26	100	29
1593967410272152172 	0	1420	1567	1567	1421	1420	1420	114750000	performance	1866	30	30	28	30	27	26	100	29
1593967411823751420	1	1420	345	345	1420	1420	1420	114750000	performance	1866	30	30	28	30	27	26	100	29
1593967411864720777 	0	1420	1569	1565	1420	1421	1420	114750000	performance	1866	30	30	28	30	27	26	100	29
1593967413418786598	1	1420	345	345	1420	1420	1420	114750000	performance	1866	30	30	28	30	27	26	100	29
1593967413460135573 	0	1420	1563	1565	1420	1419	1420	114750000	performance	1866	30	30	28	30	27	26	100	29
1593967415011909318	1	1420	345	345	1420	1420	1420	114750000	performance	1866	30	30	28	30	27	26	100	29
1593967415053272501 	0	1420	1567	1568	1420	1421	1420	114750000	performance	1866	30	30	28	30	27	26	100	29
1593967416605422151	1	1420	345	345	1420	1420	1420	114750000	performance	1866	30	30	28	30	27	25	100	28
1593967416646810295 	0	1420	1568	1566	1420	1421	1420	114750000	performance	1866	30	30	28	30	27	26	100	28
1593967418198322182	1	1420	345	345	1420	1420	1420	114750000	performance	1866	30	30	28	30	27	26	100	29
1593967418240025911 	0	1421	1567	1567	1420	1420	1420	114750000	performance	1866	30	30	28	30	27	26	100	29
1593967419791964296	1	1420	345	345	1420	1420	1420	114750000	performance	1866	30	30	28	30	27	26	100	29
1593967419833273559 	0	1420	1565	1572	1420	1420	1420	114750000	performance	1866	30	30	28	30	27	26	100	29
1593967421384631205	1	1420	345	345	1420	1420	1420	114750000	performance	1866	30	30	28	30	27	26	100	29
1593967421426835897 	0	1421	1566	1570	1420	1420	1420	114750000	performance	1866	30	30	28	30	27	26	100	29
1593967422978545097	1	1420	345	345	1420	1420	1420	114750000	performance	1866	30	30	28	30	27	26	100	29
1593967423019938681 	0	1420	1564	1570	1420	1421	1421	114750000	performance	1866	30	30	28	30	27	26	100	29
1593967424571944746	1	1420	345	345	1420	1420	1420	114750000	performance	1866	30	30	28	30	27	26	100	29
1593967424613337722 	0	1420	1564	1568	1419	1420	1421	114750000	performance	1866	30	30	28	30	27	26	100	29
1593967426165127978	1	1420	345	345	1420	1420	1420	114750000	performance	1866	30	30	28	30	27	26	100	29
1593967426206884540 	0	1420	1573	1573	1421	1421	1420	114750000	performance	1866	30	30	28	30	27	26	100	29
1593967427758948078	1	1420	345	345	1420	1420	1420	114750000	performance	1866	30	30	28	30	27	26	100	29
1593967427799925467 	0	1421	1565	1563	1420	1420	1419	114750000	performance	1866	30	30	28	30	27	26	100	29
1593967429351819532	1	1420	345	345	1420	1420	1420	114750000	performance	1866	30	30	28	30	27	26	100	29
1593967429392952602 	0	1421	1564	1566	1420	1420	1420	114750000	performance	1866	30	30	28	30	27	26	100	29
1593967430945448654	1	1420	345	345	1420	1420	1420	114750000	performance	1866	30	30	28	30	27	26	100	29
1593967430986953342 	0	1421	1561	1565	1419	1421	1421	114750000	performance	1866	30	30	28	30	27	26	100	29
1593967432539295154	1	1420	345	345	1420	1420	1420	114750000	performance	1866	30	30	28	30	27	26	100	29
1593967432580868770 	0	1418	1566	1568	1419	1421	1420	114750000	performance	1866	30	30	28	30	27	26	100	29
1593967434132744019	1	1420	345	345	1420	1420	1420	114750000	performance	1866	30	30	28	30	27	26	100	29
1593967434174395396 	0	1420	1533	1534	1421	1420	1420	114750000	performance	1866	30	30	28	30	27	26	100	29
1593967435726450006	1	1420	345	345	1420	1420	1420	114750000	performance	1866	30	30	28	30	27	26	100	29
1593967435767509252 	0	1421	1562	1565	1419	1419	1420	114750000	performance	1866	30	30	28	30	27	26	100	29
1593967437319682358	1	1420	345	345	1420	1420	1420	114750000	performance	1866	30	30	28	30	27	26	100	29
1593967437360962885 	0	1420	1564	1573	1420	1420	1420	114750000	performance	1866	30	30	28	30	27	26	100	29
1593967438912871446	1	1420	345	345	1420	1420	1420	114750000	performance	1866	30	30	28	30	27	26	100	29
1593967438954035396 	0	1421	1564	1572	1420	1421	1421	114750000	performance	1866	30	30	28	30	27	26	100	29
1593967440506946459	1	1420	345	345	1420	1420	1420	114750000	performance	1866	30	30	28	30	27	26	100	29
1593967440548511468 	0	1420	1574	1573	1421	1421	1421	114750000	performance	1866	30	30	28	30	27	26	100	29
1593967442100223868	1	1420	345	345	1420	1420	1420	114750000	performance	1866	30	30	28	30	27	26	100	29
1593967442141636107 	0	1420	1566	1565	1419	1420	1420	114750000	performance	1866	30	30	28	30	27	26	100	29
1593967443693565500	1	1420	345	345	1420	1420	1420	114750000	performance	1866	30	30	28	30	27	26	100	29
1593967443734713802 	0	1420	1565	1570	1420	1421	1421	114750000	performance	1866	30	30	28	30	27	26	100	29
1593967445286910493	1	1420	345	345	1420	1420	1420	114750000	performance	1866	30	30	28	30	27	26	100	29
1593967445328317165 	0	1419	1565	1567	1420	1420	1421	114750000	performance	1866	30	30	28	30	27	26	100	29
1593967446880469375	1	1420	345	345	1420	1420	1420	114750000	performance	1866	30	30	28	30	27	26	100	29
1593967446921865359 	0	1421	1573	1573	1420	1420	1420	114750000	performance	1866	30	30	28	30	27	26	100	29
1593967448474332451	1	1420	345	345	1420	1420	1420	114750000	performance	1866	30	30	28	30	27	26	100	29
1593967448517967583 	0	1419	1566	1566	1421	1421	1420	114750000	performance	1866	30	30	28	30	27	26	100	29
1593967450070222739	1	1420	345	345	1420	1420	1420	114750000	performance	1866	30	30	28	30	27	26	100	29
1593967450111822371 	0	1421	1566	1569	1420	1420	1421	114750000	performance	1866	30	30	28	30	27	26	100	29
1593967451663909237	1	1420	345	345	1420	1420	1420	114750000	performance	1866	30	30	28	30	27	26	100	29
1593967451705129252 	0	1420	1566	1568	1420	1421	1419	114750000	performance	1866	30	30	28	30	27	26	100	29
1593967453257176662	1	1420	345	345	1420	1420	1420	114750000	performance	1866	30	30	28	30	27	26	100	29
1593967453298285795 	0	1421	1565	1569	1420	1421	1421	114750000	performance	1866	30	30	28	30	27	26	100	29
1593967454850369270	1	1420	345	345	1420	1420	1420	114750000	performance	1866	30	30	28	30	27	26	100	29
1593967454891603044 	0	1420	1564	1570	1420	1421	1421	114750000	performance	1866	30	30	28	30	27	26	100	29
1593967456443296852	1	1420	345	345	1420	1420	1420	114750000	performance	1866	30	30	28	30	27	26	100	29
1593967456485711817 	0	1420	1532	1532	1421	1420	1420	114750000	performance	1866	30	30	28	30	27	26	100	29
1593967458038195294	1	1420	345	345	1420	1420	1420	114750000	performance	1866	30	30	28	30	27	26	100	29
1593967458079815118 	0	1420	1567	1566	1421	1421	1420	114750000	performance	1866	30	30	28	30	27	26	100	29
1593967459631990817	1	1420	345	345	1420	1420	1420	114750000	performance	1866	30	30	28	30	27	26	100	29
1593967459673484881 	0	1420	1567	1569	1420	1420	1420	114750000	performance	1866	29	29	28	29	27	26	100	29
1593967461225545059	1	1420	345	345	1420	1420	1420	114750000	performance	1866	30	30	28	30	27	26	100	29
1593967461266985075 	0	1420	1574	1573	1420	1420	1420	114750000	performance	1866	30	30	28	30	27	26	100	29
1593967462818711555	1	1420	345	345	1420	1420	1420	114750000	performance	1866	30	30	28	30	27	26	100	29
1593967462893702965 	0	1420	1565	1569	1420	1420	1421	114750000	performance	1866	30	30	28	30	27	26	100	29
1593967464511966406	1	1420	345	345	1420	1420	1420	114750000	performance	1866	30	30	28	29	27	26	100	29
1593967464554589244 	0	1420	1563	1567	1421	1421	1420	114750000	performance	1866	29	29	28	29	27	26	100	29
1593967466114578204	1	1420	345	345	1420	1420	1420	114750000	performance	1866	30	30	28	30	27	26	100	29
1593967466156182957 	0	1420	1566	1571	1420	1419	1420	114750000	performance	1866	30	30	28	30	27	26	100	29
1593967467708204990	1	1420	345	345	1420	1420	1420	114750000	performance	1866	30	30	28	30	27	26	100	29
1593967467749635278 	0	1421	1563	1565	1420	1420	1420	114750000	performance	1866	30	30	28	30	27	26	100	29
1593967469302126051	1	1420	345	345	1420	1420	1420	114750000	performance	1866	30	30	28	30	27	26	100	29
1593967469347603210 	0	1421	1562	1570	1421	1420	1420	114750000	performance	1866	30	30	28	30	27	26	100	29
1593967470899821277	1	1420	345	345	1420	1420	1420	114750000	performance	1866	30	30	28	30	27	26	100	29
1593967470941509230 	0	1419	1573	345	1421	1422	1421	114750000	performance	1866	30	30	28	30	27	26	100	29
1593967472493500383	1	1420	345	345	1420	1420	1420	114750000	performance	1866	30	30	28	30	27	26	100	29
1593967472535689299 	0	1420	1567	1567	1420	1420	1420	114750000	performance	1866	30	30	28	30	27	26	100	29
1593967474088640746	1	1420	345	345	1420	1420	1420	114750000	performance	1866	30	30	28	30	27	26	100	29
1593967474130005946 	0	1420	1567	1567	1420	1420	1421	114750000	performance	1866	30	30	28	30	27	26	100	29
1593967475682230861	1	1420	345	345	1420	1420	1420	114750000	performance	1866	30	30	28	30	27	26	100	29
1593967475723764701 	0	1420	1565	1568	1420	1420	1421	114750000	performance	1866	30	30	28	30	27	26	100	29
1593967477276022864	1	1420	345	345	1420	1420	1420	114750000	performance	1866	30	30	28	30	27	26	100	29
1593967477317556704 	0	1420	1568	1566	1420	1420	1420	114750000	performance	1866	30	30	28	30	27	26	100	29
1593967478869627858	1	1420	345	345	1420	1420	1420	114750000	performance	1866	30	30	28	29	27	26	100	29
1593967478911530725 	0	1419	1562	1568	1420	1420	1420	114750000	performance	1866	29	29	28	29	27	26	100	29
1593967480463615927	1	1420	345	345	1420	1420	1420	114750000	performance	1866	30	30	28	30	27	26	100	29
1593967480505890571 	0	1420	1574	1573	1420	1420	1419	114750000	performance	1866	30	30	28	30	27	26	100	29
1593967482058449792	1	1420	345	345	1420	1420	1420	114750000	performance	1866	30	30	28	30	27	26	100	29
1593967482100390259 	0	1420	1566	1572	1420	1421	1420	114750000	performance	1866	30	30	28	30	27	26	100	29
1593967483652251844	1	1420	345	345	1420	1420	1420	114750000	performance	1866	30	30	28	30	27	26	100	29
1593967483693929941 	0	1421	1563	1566	1420	1420	1421	114750000	performance	1866	30	30	28	30	27	26	100	29
1593967485245947847	1	1420	345	345	1420	1420	1420	114750000	performance	1866	30	30	28	30	27	26	100	29
1593967485287447927 	0	1421	1563	1570	1420	1421	1420	114750000	performance	1866	30	30	28	30	27	26	100	29
1593967486839538889	1	1420	345	345	1420	1420	1420	114750000	performance	1866	30	30	28	30	27	26	100	29
1593967486880740343 	0	1420	1573	1574	1420	1421	1420	114750000	performance	1866	30	30	28	30	27	26	100	29
1593967488432773065	1	1420	345	345	1420	1420	1420	114750000	performance	1866	30	30	28	30	27	26	100	29
1593967488474104312 	0	1419	1573	1573	1420	1420	1420	114750000	performance	1866	30	30	28	30	27	26	100	29
1593967490025795432	1	1420	345	345	1420	1420	1420	114750000	performance	1866	30	30	28	30	27	26	100	29
1593967490067573914 	0	1421	1564	1569	1421	1420	1421	114750000	performance	1866	30	30	28	30	27	26	100	29
1593967491620219407	1	1420	345	345	1420	1420	1420	114750000	performance	1866	30	30	28	30	27	26	100	29
1593967491661986528 	0	1420	1565	1567	1421	1421	1420	114750000	performance	1866	30	30	28	30	27	26	100	29
1593967493213938034	1	1420	345	345	1420	1420	1420	114750000	performance	1866	30	30	28	30	27	25	100	29
1593967493255587139 	0	1421	1532	1561	1421	1420	1420	114750000	performance	1866	30	30	28	30	27	25	100	29
1593967494807729781	1	1420	345	345	1420	1420	1420	114750000	performance	1866	30	30	28	30	27	26	100	29
1593967494849136005 	0	1420	1565	1564	1420	1420	1420	114750000	performance	1866	30	30	28	30	27	26	100	29
1593967496401112982	1	1420	345	345	1420	1420	1420	114750000	performance	1866	30	30	28	30	27	26	100	29
1593967496442692615 	0	1421	1564	1562	1420	1420	1420	114750000	performance	1866	30	30	28	30	27	26	100	29
1593967497994823641	1	1420	345	345	1420	1420	1420	114750000	performance	1866	30	30	28	30	27	26	100	29
1593967498036398890 	0	1421	1565	1563	1420	1420	1421	114750000	performance	1866	30	30	28	30	27	26	100	29
1593967499588286139	1	1420	345	345	1420	1420	1420	114750000	performance	1866	30	30	28	30	27	26	100	29
1593967499629643946 	0	1422	1565	1567	1420	1420	1421	114750000	performance	1866	30	30	28	30	27	26	100	29
1593967501182704674	1	1420	345	345	1420	1420	1420	114750000	performance	1866	30	30	28	30	27	26	100	29
1593967501224343250 	0	1419	1573	1574	1420	1421	1420	114750000	performance	1866	30	30	28	30	27	26	100	29
1593967502776689894	1	1420	345	345	1420	1420	1420	114750000	performance	1866	30	30	28	30	27	26	100	29
1593967502817947637 	0	1419	1565	1565	1422	1420	1420	114750000	performance	1866	30	30	28	30	27	26	100	29
1593967504369986695	1	1420	345	345	1420	1420	1420	114750000	performance	1866	30	30	28	30	27	26	100	29
1593967504411740440 	0	1419	1563	1570	1420	1421	1420	114750000	performance	1866	30	30	28	30	27	26	100	29
1593967505963897323	1	1420	345	345	1420	1420	1420	114750000	performance	1866	30	30	28	30	27	26	100	29
1593967506005469819 	0	1420	1566	1570	1420	1421	1420	114750000	performance	1866	30	30	28	30	27	26	100	29
1593967507558564243	1	1420	345	345	1420	1420	1420	114750000	performance	1866	30	30	28	30	27	26	100	29
1593967507600298757 	0	1420	1562	1565	1421	1420	1420	114750000	performance	1866	30	30	28	30	27	26	100	29
1593967509153773279	1	1420	345	345	1420	1420	1420	114750000	performance	1866	30	30	28	30	27	26	100	29
1593967509195852722 	0	1420	1566	1570	1420	1420	1420	114750000	performance	1866	30	30	28	30	27	26	100	29
1593967510747591138	1	1420	345	345	1420	1420	1420	114750000	performance	1866	30	30	28	30	27	26	100	29
1593967510788759824 	0	1420	1574	1573	1420	1420	1421	114750000	performance	1866	30	30	28	30	27	26	100	29
1593967512340576385	1	1420	345	345	1420	1420	1420	114750000	performance	1866	30	30	28	30	27	26	100	29
1593967512382026129 	0	1421	1575	1574	1419	1419	1421	114750000	performance	1866	30	30	28	30	27	26	100	29
1593967513934106723	1	1420	345	345	1420	1420	1420	114750000	performance	1866	30	30	28	30	27	26	100	29
1593967513975793908 	0	1420	1564	1566	1420	1420	1421	114750000	performance	1866	30	30	28	30	27	26	100	29
1593967515528578250	1	1420	345	345	1420	1420	1420	114750000	performance	1866	30	30	28	30	27	26	100	29
1593967515570821887 	0	1420	1574	1574	1421	1420	1420	114750000	performance	1866	30	30	28	30	27	26	100	29
1593967517123159506	1	1420	345	345	1420	1420	1420	114750000	performance	1866	30	30	28	30	27	26	100	29
1593967517164589986 	0	1420	1563	1565	1420	1420	1420	114750000	performance	1866	30	30	28	30	27	26	100	29
1593967518718271997	1	1420	345	345	1420	1420	1420	114750000	performance	1866	30	30	28	30	27	26	100	29
1593967518760010767 	0	1420	1568	1569	1420	1420	1421	114750000	performance	1866	30	30	28	30	27	26	100	29
1593967520312021664	1	1420	345	345	1420	1420	1420	114750000	performance	1866	30	30	28	30	27	26	100	29
1593967520353631665 	0	1421	1562	1569	1421	1421	1420	114750000	performance	1866	30	30	28	30	27	26	100	29
1593967521905558882	1	1420	345	345	1420	1420	1420	114750000	performance	1866	30	30	28	30	27	26	100	29
1593967521946788785 	0	1421	1566	1568	1421	1421	1419	114750000	performance	1866	30	30	28	30	27	26	100	29
1593967523498642913	1	1420	345	345	1420	1420	1420	114750000	performance	1866	30	30	28	30	27	26	100	28
1593967523540363987 	0	1420	1534	1534	1419	1419	1419	114750000	performance	1866	30	30	28	30	27	26	100	29
1593967525092254404	1	1420	345	345	1420	1420	1420	114750000	performance	1866	30	30	28	30	27	26	100	29
1593967525133247633 	0	1420	1564	1567	1420	1420	1420	114750000	performance	1866	30	30	28	30	27	26	100	29
1593967526684962945	1	1420	345	345	1420	1420	1420	114750000	performance	1866	30	30	28	30	27	26	100	29
1593967526727233909 	0	1421	1573	1567	1420	1420	1419	114750000	performance	1866	30	30	28	30	27	26	100	29
1593967528279256263	1	1420	345	345	1420	1420	1420	114750000	performance	1866	30	30	28	30	27	26	100	29
1593967528320974360 	0	1420	1574	1574	1420	1420	1420	114750000	performance	1866	30	30	28	30	27	26	100	29
1593967529873311628	1	1420	345	345	1420	1420	1420	114750000	performance	1866	30	30	28	30	27	26	100	29
1593967529976486273 	0	1420	1565	1570	1420	1421	1420	114750000	performance	1866	30	30	28	30	27	26	100	29
1593967531578303379	1	1420	345	345	1420	1420	1420	114750000	performance	1866	30	30	28	30	27	26	100	29
1593967531619705602 	0	1420	1562	1567	1420	1420	1420	114750000	performance	1866	30	30	28	30	27	26	100	29
1593967533171754612	1	1420	345	345	1420	1420	1420	114750000	performance	1866	30	30	28	30	27	26	100	29
1593967533213344165 	0	1420	1563	1567	1421	1421	1420	114750000	performance	1866	30	30	28	30	27	26	100	29
1593967534765966970	1	1420	345	345	1420	1420	1420	114750000	performance	1866	30	30	28	30	27	26	100	29
1593967534807562251 	0	1419	1573	1574	1420	1420	1420	114750000	performance	1866	29	29	28	29	27	26	100	29
1593967536359080185	1	1420	345	345	1420	1420	1420	114750000	performance	1866	30	30	28	30	27	26	100	29
1593967536400498857 	0	1420	1566	1568	1421	1421	1421	114750000	performance	1866	30	30	28	30	27	26	100	29
1593967537961773104	1	1420	345	345	1420	1420	1420	114750000	performance	1866	30	30	28	30	27	26	100	29
1593967538003901988 	0	1421	1562	1566	1421	1419	1419	114750000	performance	1866	30	30	28	30	27	26	100	29
1593967539555721077	1	1420	345	345	1420	1420	1420	114750000	performance	1866	30	30	28	30	27	26	100	29
1593967539597908041 	0	1419	1534	1573	1420	1420	1421	114750000	performance	1866	30	30	28	30	27	26	100	29
1593967541149709049	1	1420	345	345	1420	1420	1420	114750000	performance	1866	30	30	28	30	27	26	100	29
1593967541191124169 	0	1421	1564	1568	1421	1420	1420	114750000	performance	1866	30	30	28	30	27	26	100	29
1593967542743061146	1	1420	345	345	1420	1420	1420	114750000	performance	1866	30	30	28	30	27	26	100	29
1593967542785279054 	0	1420	1563	1566	1420	1420	1421	114750000	performance	1866	30	30	28	30	27	26	100	29
1593967544337246624	1	1420	345	345	1420	1420	1420	114750000	performance	1866	30	30	28	30	27	26	100	29
1593967544378634543 	0	1420	1568	1570	1420	1420	1420	114750000	performance	1866	30	30	28	30	27	26	100	29
1593967545932245354	1	1420	345	345	1420	1420	1420	114750000	performance	1866	30	30	28	30	27	26	100	29
1593967545973480920 	0	1420	1564	1572	1421	1420	1420	114750000	performance	1866	30	30	28	30	27	26	100	29
1593967547525107944	1	1420	345	345	1420	1420	1420	114750000	performance	1866	30	30	28	30	27	26	100	28
1593967547566187158 	0	1421	1564	1570	1420	1420	1420	114750000	performance	1866	30	30	28	30	27	26	100	28
1593967549118010374	1	1420	345	345	1420	1420	1420	114750000	performance	1866	30	30	28	30	27	26	100	29
1593967549160047673 	0	1420	1564	1569	1421	1420	1420	114750000	performance	1866	30	30	28	30	27	26	100	29
1593967550712083499	1	1420	345	345	1420	1420	1420	114750000	performance	1866	30	30	28	30	27	26	100	29
1593967550753534043 	0	1420	1564	1566	1420	1420	1421	114750000	performance	1866	30	30	28	30	27	26	100	29
1593967552305988975	1	1420	345	345	1420	1420	1420	114750000	performance	1866	29	30	28	30	27	26	100	29
1593967552346949084 	0	1420	1562	1569	1421	1420	1421	114750000	performance	1866	30	30	28	30	27	26	100	29
1593967553898935086	1	1420	345	345	1420	1420	1420	114750000	performance	1866	30	30	28	30	27	26	100	29
1593967553940313629 	0	1421	1566	1568	1421	1421	1420	114750000	performance	1866	30	30	28	30	27	26	100	29
1593967555491855724	1	1420	345	345	1420	1420	1420	114750000	performance	1866	30	30	28	30	27	26	100	29
1593967555533262460 	0	1420	1564	1568	1421	1420	1420	114750000	performance	1866	30	30	28	30	27	26	100	29
1593967557085127596	1	1420	345	345	1420	1420	1420	114750000	performance	1866	30	30	28	30	27	26	100	29
1593967557126716445 	0	1420	1563	1573	1420	1421	1420	114750000	performance	1866	30	30	28	30	27	26	100	29
1593967558678855375	1	1420	345	345	1420	1420	1420	114750000	performance	1866	30	30	28	30	27	26	100	29
1593967558720382528 	0	1420	1567	1570	1420	1421	1420	114750000	performance	1866	30	30	28	30	27	26	100	29
1593967560272659443	1	1420	345	345	1420	1420	1420	114750000	performance	1866	30	30	28	30	27	26	100	29
1593967560314227171 	0	1420	1565	1569	1420	1420	1420	114750000	performance	1866	30	30	28	30	27	26	100	29
1593967561866054132	1	1420	345	345	1420	1420	1420	114750000	performance	1866	29	29	28	29	27	26	100	29
1593967561907013537 	0	1421	1564	1571	1420	1421	1421	114750000	performance	1866	30	30	28	30	27	26	100	29
1593967563458602032	1	1420	345	345	1420	1420	1420	114750000	performance	1866	30	30	28	30	27	26	100	29
1593967563500388450 	0	1421	1568	1567	1420	1420	1419	114750000	performance	1866	30	30	28	30	27	26	100	29
1593967565052490452	1	1420	345	345	1420	1420	1420	114750000	performance	1866	30	30	28	30	27	26	100	29
1593967565093731747 	0	1421	1561	1568	1420	1419	1420	114750000	performance	1866	30	30	28	30	27	26	100	29
1593967566646516057	1	1420	345	345	1420	1420	1420	114750000	performance	1866	29	29	28	29	27	26	100	29
1593967566687975369 	0	1420	1570	1568	1421	1420	1420	114750000	performance	1866	30	30	28	30	27	26	100	29
1593967568239824185	1	1420	345	345	1420	1420	1420	114750000	performance	1866	30	30	28	30	27	26	100	29
1593967568280968615 	0	1421	1574	1538	1421	1421	1421	114750000	performance	1866	30	30	28	30	27	26	100	29
1593967569832793976	1	1420	345	345	1420	1420	1420	114750000	performance	1866	30	30	28	30	27	26	100	29
1593967569875108365 	0	1420	1564	1568	1421	1420	1420	114750000	performance	1866	30	30	28	30	27	26	100	29
1593967571427095774	1	1420	345	345	1420	1420	1420	114750000	performance	1866	30	30	28	30	27	26	100	29
1593967571468872976 	0	1420	1563	1561	1420	1421	1421	114750000	performance	1866	30	30	28	30	27	26	100	29
1593967573021231844	1	1420	345	345	1420	1420	1420	114750000	performance	1866	30	30	28	30	27	26	100	29
1593967573062772884 	0	1421	1571	1566	1420	1420	1420	114750000	performance	1866	30	30	28	30	27	26	100	29
1593967574615074151	1	1420	345	345	1420	1420	1420	114750000	performance	1866	30	30	28	30	27	26	100	29
1593967574657362300 	0	1420	1567	1573	1420	1421	1420	114750000	performance	1866	30	30	28	30	27	26	100	29
1593967576209890161	1	1420	345	345	1420	1420	1420	114750000	performance	1866	30	30	28	30	27	26	100	29
1593967576251595650 	0	1420	1564	1569	1421	1420	1420	114750000	performance	1866	30	30	28	30	27	26	100	29
1593967577803763573	1	1420	345	345	1420	1420	1420	114750000	performance	1866	30	30	28	30	27	26	100	29
1593967577845291077 	0	1421	1562	1563	1421	1421	1421	114750000	performance	1866	30	30	28	30	27	26	100	29
1593967579397806809	1	1420	345	345	1420	1420	1420	114750000	performance	1866	30	30	28	30	27	26	100	29
1593967579439476266 	0	1420	1569	1571	1420	1420	1420	114750000	performance	1866	30	30	28	30	27	26	100	29
1593967580991513276	1	1420	345	345	1420	1420	1420	114750000	performance	1866	30	30	28	30	27	26	100	29
1593967581032821067 	0	1420	1564	1570	1420	1420	1419	114750000	performance	1866	30	30	28	30	27	26	100	29
1593967582584985246	1	1420	345	345	1420	1420	1420	114750000	performance	1866	30	30	28	30	27	26	100	29
1593967582626575694 	0	1420	1565	1568	1421	1420	1420	114750000	performance	1866	30	30	28	30	27	26	100	29
1593967584179008098	1	1420	345	345	1420	1420	1420	114750000	performance	1866	30	30	28	30	27	26	100	29
1593967584220567315 	0	1420	1566	1568	1420	1420	1420	114750000	performance	1866	30	30	28	30	27	26	100	29
1593967585772305443	1	1420	345	345	1420	1420	1420	114750000	performance	1866	30	30	28	30	27	26	100	29
1593967585813482225 	0	1421	1533	1537	1420	1421	1420	114750000	performance	1866	30	30	28	30	27	26	100	29
1593967587365032960	1	1420	345	345	1420	1420	1420	114750000	performance	1866	29	29	28	30	27	26	100	29
1593967587407297397 	0	1420	1565	1569	1421	1421	1420	114750000	performance	1866	30	30	28	30	27	26	100	29
1593967588959261990	1	1420	345	345	1420	1420	1420	114750000	performance	1866	29	29	28	29	27	26	100	29
1593967589001298265 	0	1421	1568	1570	1420	1421	1421	114750000	performance	1866	30	30	28	30	27	26	100	29
1593967590553424908	1	1420	345	345	1420	1420	1420	114750000	performance	1866	30	30	28	30	27	26	100	29
1593967590594827131 	0	1420	1530	1535	1420	1420	1420	114750000	performance	1866	30	30	28	30	27	26	100	29
1593967592146838989	1	1420	345	345	1420	1420	1420	114750000	performance	1866	30	30	28	30	27	26	100	29
1593967592188143868 	0	1419	1564	1568	1420	1420	1420	114750000	performance	1866	30	30	28	30	27	26	100	29
1593967593740187790	1	1420	345	345	1420	1420	1420	114750000	performance	1866	30	30	28	30	27	26	100	29
1593967593781546877 	0	1421	1573	1568	1420	1420	1420	114750000	performance	1866	30	30	28	30	27	26	100	29
1593967595335803356	1	1420	345	345	1420	1420	1420	114750000	performance	1866	30	30	28	30	27	26	100	29
1593967595444400144 	0	1420	1573	1573	1421	1420	1420	114750000	performance	1866	30	30	28	30	27	26	100	29
1593967597049403252	1	1420	345	345	1420	1420	1420	114750000	performance	1866	30	30	28	30	27	26	100	28
1593967597090866212 	0	1420	1565	1566	1421	1421	1420	114750000	performance	1866	30	30	28	30	27	26	100	28
1593967598642950070	1	1420	345	345	1420	1420	1420	114750000	performance	1866	29	29	28	29	27	26	100	28
1593967598685266571 	0	1420	1564	1567	1420	1419	1421	114750000	performance	1866	30	30	28	30	27	26	100	28
1593967600236827770	1	1420	345	345	1420	1420	1420	114750000	performance	1866	30	30	28	30	27	26	100	29
1593967600278263754 	0	1421	1566	1567	1421	1421	1420	114750000	performance	1866	30	30	28	30	27	26	100	29
1593967601830105018	1	1420	345	345	1420	1420	1420	114750000	performance	1866	30	30	28	30	27	26	100	29
1593967601871846316 	0	1421	1565	1567	1421	1420	1419	114750000	performance	1866	30	29	28	29	27	26	100	29
1593967603423546940	1	1420	345	345	1420	1420	1420	114750000	performance	1866	30	30	28	30	27	26	100	29
1593967603465954449 	0	1420	1562	1569	1421	1421	1420	114750000	performance	1866	30	30	28	30	27	26	100	29
1593967605017847074	1	1420	345	345	1420	1420	1420	114750000	performance	1866	29	29	28	29	27	26	100	29
1593967605059196881 	0	1419	1559	1565	1421	1420	1420	114750000	performance	1866	30	30	28	30	27	26	100	29
1593967606611221219	1	1420	345	345	1420	1420	1420	114750000	performance	1866	30	30	28	30	27	26	100	29
1593967606652766355 	0	1420	1565	1568	1419	1420	1421	114750000	performance	1866	30	30	28	30	27	26	100	29
1593967608204303810	1	1420	345	345	1420	1420	1420	114750000	performance	1866	30	30	28	30	27	26	100	28
1593967608245428496 	0	1420	1558	1563	1419	1419	1419	114750000	performance	1866	30	30	28	30	27	26	100	28
1593967609797626851	1	1420	345	345	1420	1420	1420	114750000	performance	1866	30	30	28	30	27	26	100	29
1593967609839338388 	0	1420	1566	1573	1421	1421	1420	114750000	performance	1866	30	30	28	30	27	26	100	29
1593967611391088548	1	1420	345	345	1420	1420	1420	114750000	performance	1866	30	30	28	30	27	26	100	29
1593967611432978231 	0	1420	1563	1568	1420	1420	1421	114750000	performance	1866	30	30	28	30	27	26	100	29
1593967612985987726	1	1420	345	345	1420	1420	1420	114750000	performance	1866	30	30	28	30	27	26	100	29
1593967613027844288 	0	1420	1565	1562	1420	1420	1420	114750000	performance	1866	30	30	28	30	27	26	100	29
1593967614579885682	1	1420	345	345	1420	1420	1420	114750000	performance	1866	30	30	28	30	27	26	100	29
1593967614621263585 	0	1421	1569	1562	1421	1420	1421	114750000	performance	1866	30	30	28	30	27	26	100	29
1593967616173099218	1	1420	345	345	1420	1420	1420	114750000	performance	1866	30	30	28	30	27	26	100	29
1593967616214692835 	0	1419	1561	1565	1420	1420	1420	114750000	performance	1866	30	30	28	30	27	26	100	29
1593967617766599828	1	1420	345	345	1420	1420	1420	114750000	performance	1866	29	29	28	29	27	26	100	28
1593967617808265541 	0	1420	1564	1570	1420	1420	1420	114750000	performance	1866	30	30	28	30	27	26	100	28
1593967619360764217	1	1420	345	345	1420	1420	1420	114750000	performance	1866	30	30	28	30	27	26	100	29
1593967619402350474 	0	1420	1559	1568	1420	1420	1419	114750000	performance	1866	30	30	28	30	27	26	100	29
1593967620954307259	1	1420	345	345	1420	1420	1420	114750000	performance	1866	30	30	28	30	27	26	100	29
1593967620997068563 	0	1419	1558	1560	1420	1420	1421	114750000	performance	1866	30	30	28	30	27	26	100	29
1593967622549386054	1	1420	345	345	1420	1420	1420	114750000	performance	1866	30	30	28	30	27	26	100	29
1593967622590434516 	0	1420	1562	1565	1420	1420	1420	114750000	performance	1866	30	30	28	30	27	26	100	29
1593967624142467365	1	1420	345	345	1420	1420	1420	114750000	performance	1866	30	30	28	30	27	26	100	29
1593967624183735124 	0	1420	1565	1563	1421	1420	1420	114750000	performance	1866	30	30	28	30	27	26	100	29
1593967625736374249	1	1420	345	345	1420	1420	1420	114750000	performance	1866	30	30	28	30	27	26	100	29
1593967625777763961 	0	1419	1563	1566	1420	1420	1420	114750000	performance	1866	30	30	28	30	27	26	100	29
1593967627329844427	1	1420	345	345	1420	1420	1420	114750000	performance	1866	30	30	28	30	27	26	100	29
1593967627371178298 	0	1420	1563	1567	1420	1420	1420	114750000	performance	1866	30	30	28	30	27	26	100	29
1593967628923242252	1	1420	345	345	1420	1420	1420	114750000	performance	1866	30	30	28	30	27	26	100	29
1593967628964709052 	0	1421	1559	1563	1421	1420	1420	114750000	performance	1866	30	30	28	30	27	26	100	29
1593967630517880340	1	1420	345	345	1420	1420	1420	114750000	performance	1866	29	29	28	29	27	26	100	29
1593967630559449765 	0	1420	1563	1562	1421	1420	1420	114750000	performance	1866	29	29	28	29	27	26	100	29
1593967632111629079	1	1420	345	345	1420	1420	1420	114750000	performance	1866	29	29	28	29	27	26	100	29
1593967632153283176 	0	1420	1563	1564	1421	1420	1421	114750000	performance	1866	29	29	28	29	27	26	100	29
1593967633705616156	1	1420	345	345	1420	1420	1420	114750000	performance	1866	29	29	28	29	27	26	100	29
1593967633748265811 	0	1421	1574	1573	1421	1420	1420	114750000	performance	1866	30	30	28	30	27	26	100	29
1593967635300123268	1	1420	345	345	1420	1420	1420	114750000	performance	1866	30	30	28	30	27	26	100	29
1593967635341324882 	0	1421	1573	1573	1420	1420	1420	114750000	performance	1866	30	30	28	30	27	26	100	29
1593967636893396132	1	1420	345	345	1420	1420	1420	114750000	performance	1866	30	30	28	30	27	26	100	29
1593967636934584178 	0	1420	1573	1573	1420	1421	1419	114750000	performance	1866	30	30	28	30	27	26	100	29
1593967638486837893	1	1420	345	345	1420	1420	1420	114750000	performance	1866	30	30	28	30	27	26	100	29
1593967638528832952 	0	1421	1565	1568	1421	1421	1419	114750000	performance	1866	30	30	28	30	27	26	100	29
1593967640081809039	1	1420	345	345	1420	1420	1420	114750000	performance	1866	30	30	28	30	27	26	100	29
1593967640123000862 	0	1421	1564	1563	1420	1420	1420	114750000	performance	1866	30	30	28	30	27	26	100	29
1593967641674687918	1	1420	345	345	1420	1420	1420	114750000	performance	1866	30	30	28	30	27	26	100	29
1593967641716180446 	0	1420	1563	1563	1421	1419	1420	114750000	performance	1866	30	30	28	30	27	26	100	29
1593967643268507185	1	1420	345	345	1420	1420	1420	114750000	performance	1866	30	30	28	30	27	26	100	29
1593967643309868320 	0	1421	1560	1565	1420	1420	1419	114750000	performance	1866	30	30	28	30	27	26	100	29
1593967644861901234	1	1420	345	345	1420	1420	1420	114750000	performance	1866	30	30	28	30	27	26	100	29
1593967644902880767 	0	1420	1566	1571	1420	1420	1420	114750000	performance	1866	30	30	28	30	27	26	100	29
1593967646454842001	1	1420	345	345	1420	1420	1420	114750000	performance	1866	30	30	28	30	27	26	100	29
1593967646496204608 	0	1420	1563	1573	1421	1420	1420	114750000	performance	1866	30	30	28	30	27	26	100	29
1593967648047958736	1	1420	345	345	1420	1420	1420	114750000	performance	1866	30	30	28	30	27	26	100	29
1593967648089644321 	0	1420	1565	1568	1420	1420	1420	114750000	performance	1866	30	30	28	30	27	26	100	29
1593967649641387793	1	1420	345	345	1420	1420	1420	114750000	performance	1866	30	30	28	30	27	26	100	29
1593967649682922530 	0	1420	1563	1568	1421	1420	1422	114750000	performance	1866	30	30	28	30	27	26	100	29
1593967651234917907	1	1420	345	345	1420	1420	1420	114750000	performance	1866	30	30	28	30	27	26	100	29
1593967651276828198 	0	1419	1559	1562	1421	1421	1420	114750000	performance	1866	30	30	28	30	27	26	100	29
1593967652828791063	1	1420	345	345	1420	1420	1420	114750000	performance	1866	30	30	28	30	27	26	100	29
1593967652870178791 	0	1420	1573	1564	1421	1421	1419	114750000	performance	1866	30	30	28	30	27	26	100	29
1593967654422330393	1	1420	345	345	1420	1420	1420	114750000	performance	1866	30	30	28	30	27	26	100	29
1593967654463693704 	0	1420	1563	1563	1420	1421	1421	114750000	performance	1866	30	30	28	30	27	26	100	29
1593967656015247447	1	1420	345	345	1420	1420	1420	114750000	performance	1866	30	30	28	30	27	26	100	29
1593967656056506182 	0	1420	1534	1538	1420	1421	1421	114750000	performance	1866	30	30	28	30	27	26	100	29
1593967657609086619	1	1420	345	345	1420	1420	1420	114750000	performance	1866	29	29	28	29	27	26	100	29
1593967657650258665 	0	1421	1574	1564	1421	1420	1420	114750000	performance	1866	30	30	28	30	27	26	100	29
1593967659202511740	1	1420	345	345	1420	1420	1420	114750000	performance	1866	30	30	28	30	27	26	100	28
1593967659244175629 	0	1421	1573	1574	1420	1420	1420	114750000	performance	1866	30	30	28	30	27	26	100	28
1593967660796295616	1	1420	345	345	1420	1420	1420	114750000	performance	1866	30	30	28	30	27	26	100	29
1593967660896709220 	0	1420	1565	1567	1420	1420	1421	114750000	performance	1866	30	30	28	30	27	26	100	29
1593967662511376097	1	1420	345	345	1420	1420	1420	114750000	performance	1866	30	30	28	30	27	26	100	29
1593967662552546479 	0	1420	1561	1563	1420	1420	1421	114750000	performance	1866	30	30	28	30	27	26	100	29
1593967664105372261	1	1420	345	345	1420	1420	1420	114750000	performance	1866	30	30	28	30	27	26	100	29
1593967664147665722 	0	1420	1562	1566	1420	1421	1420	114750000	performance	1866	30	30	28	30	27	26	100	29
1593967665698877927	1	1420	345	345	1420	1420	1420	114750000	performance	1866	30	30	28	30	27	26	100	28
1593967665740515256 	0	1420	1563	1568	1420	1420	1420	114750000	performance	1866	30	30	28	30	27	26	100	28
1593967667292351528	1	1420	345	345	1420	1420	1420	114750000	performance	1866	30	30	28	30	27	26	100	29
1593967667333866521 	0	1420	1564	1565	1420	1420	1420	114750000	performance	1866	30	30	28	30	27	26	100	29
1593967668885504552	1	1420	345	345	1420	1420	1420	114750000	performance	1866	30	30	28	30	27	26	100	29
1593967668927097305 	0	1420	1565	1573	1420	1420	1420	114750000	performance	1866	30	30	28	30	27	26	100	29
1593967670478631752	1	1420	345	345	1420	1420	1420	114750000	performance	1866	30	30	28	30	27	26	100	29
1593967670520412921 	0	1421	1562	1566	1420	1420	1420	114750000	performance	1866	30	30	28	30	27	26	100	29
1593967672072064457	1	1420	345	345	1420	1420	1420	114750000	performance	1866	30	30	28	30	27	26	100	29
1593967672113719194 	0	1420	1574	1573	1420	1421	1420	114750000	performance	1866	30	30	28	30	27	26	100	29
1593967673666295023	1	1420	345	345	1420	1420	1420	114750000	performance	1866	30	30	28	30	27	26	100	29
1593967673707688478 	0	1422	1575	1573	1421	1420	1421	114750000	performance	1866	30	30	28	30	27	26	100	29
1593967675259641456	1	1420	345	345	1420	1420	1420	114750000	performance	1866	30	30	28	30	27	26	100	29
1593967675300822462 	0	1421	1563	1567	1420	1420	1420	114750000	performance	1866	30	30	28	30	27	26	100	29
1593967676852418349	1	1420	345	345	1420	1420	1420	114750000	performance	1866	30	30	28	30	27	26	100	29
1593967676893537883 	0	1421	1573	1572	1419	1420	1420	114750000	performance	1866	30	30	28	30	27	26	100	29
