TimeStamp,A7 Voltage(V),A7 Current(A),A7 Power(W),A15 Voltage(V),A15 Current(A),A15 Power(W),GPU Power(W)
1606789848026117026,0.900000,0.065000,0.059000,0.900000,0.359000,0.328000,0.088000
1606789848706076272,0.900000,0.066000,0.060000,0.900000,0.358000,0.327000,0.088000
1606789849413641347,0.900000,0.066000,0.060000,0.900000,0.359000,0.328000,0.088000
1606789850245446026,0.900000,0.066000,0.060000,0.900000,0.359000,0.328000,0.089000
1606789850962351311,0.900000,0.066000,0.060000,0.900000,0.358000,0.327000,0.089000
1606789851633426648,0.900000,0.066000,0.060000,0.900000,0.359000,0.328000,0.089000
1606789852470628577,0.900000,0.066000,0.060000,0.900000,0.360000,0.329000,0.089000
1606789853215282363,0.900000,0.066000,0.060000,0.900000,0.359000,0.328000,0.089000
1606789853995595114,0.900000,0.066000,0.060000,0.900000,0.357000,0.327000,0.089000
1606789854695105989,0.900000,0.066000,0.060000,0.900000,0.358000,0.327000,0.089000
1606789855386597440,0.900000,0.066000,0.060000,0.900000,0.361000,0.330000,0.089000
1606789856181706770,0.900000,0.066000,0.060000,0.900000,0.361000,0.330000,0.090000
1606789856918360643,0.900000,0.066000,0.060000,0.900000,0.360000,0.329000,0.089000
1606789857612092080,0.900000,0.066000,0.060000,0.900000,0.360000,0.329000,0.090000
1606789858306791177,0.900000,0.066000,0.060000,0.900000,0.360000,0.329000,0.089000
1606789859014751945,0.900000,0.066000,0.060000,0.900000,0.361000,0.330000,0.089000
1606789859735464099,0.900000,0.066000,0.060000,0.900000,0.360000,0.329000,0.090000
1606789860423078851,0.900000,0.066000,0.060000,0.900000,0.360000,0.329000,0.090000
1606789861146098362,0.900000,0.066000,0.060000,0.900000,0.361000,0.330000,0.090000
1606789861850809336,0.900000,0.066000,0.060000,0.900000,0.358000,0.327000,0.089000
1606789862557802916,0.900000,0.066000,0.060000,0.900000,0.362000,0.331000,0.090000
1606789863252011157,0.900000,0.066000,0.060000,0.900000,0.361000,0.330000,0.090000
1606789863941584651,0.900000,0.066000,0.060000,0.900000,0.359000,0.328000,0.090000
1606789864631101357,0.900000,0.066000,0.060000,0.900000,0.359000,0.328000,0.089000
1606789865306288696,0.900000,0.066000,0.060000,0.900000,0.359000,0.328000,0.090000
1606789866009958316,0.900000,0.066000,0.060000,0.900000,0.362000,0.331000,0.090000
1606789866689654285,0.900000,0.066000,0.060000,0.900000,0.359000,0.328000,0.090000
1606789867389774568,0.900000,0.066000,0.060000,0.900000,0.359000,0.328000,0.090000
1606789868100000884,0.900000,0.066000,0.060000,0.900000,0.359000,0.328000,0.090000
1606789868815054493,0.900000,0.066000,0.060000,0.900000,0.362000,0.331000,0.090000
1606789869545186965,0.900000,0.066000,0.060000,0.900000,0.362000,0.331000,0.090000
1606789870251597074,0.900000,0.066000,0.060000,0.900000,0.362000,0.331000,0.090000
1606789870957964518,0.900000,0.066000,0.060000,0.900000,0.361000,0.330000,0.090000
1606789871667214356,0.900000,0.066000,0.060000,0.900000,0.361000,0.330000,0.090000
1606789872361280167,0.900000,0.066000,0.060000,0.900000,0.362000,0.331000,0.090000
1606789873079711174,0.900000,0.066000,0.060000,0.900000,0.363000,0.332000,0.090000
1606789873794173886,0.900000,0.066000,0.060000,0.900000,0.363000,0.332000,0.090000
1606789874516444279,0.900000,0.066000,0.060000,0.900000,0.361000,0.330000,0.090000
1606789875226883824,0.900000,0.066000,0.060000,0.900000,0.360000,0.329000,0.090000
1606789875908214179,0.900000,0.066000,0.060000,0.900000,0.362000,0.331000,0.090000
1606789876591420894,0.900000,0.066000,0.060000,0.900000,0.363000,0.332000,0.090000
1606789877318604917,0.900000,0.066000,0.060000,0.900000,0.362000,0.331000,0.090000
1606789878144634623,0.900000,0.066000,0.060000,0.900000,0.360000,0.329000,0.090000
1606789878836695972,0.900000,0.066000,0.060000,0.900000,0.362000,0.331000,0.090000
1606789879562880845,0.900000,0.066000,0.060000,0.900000,0.362000,0.331000,0.090000
1606789880244034172,0.900000,0.066000,0.060000,0.900000,0.362000,0.331000,0.090000
1606789880943808081,0.900000,0.066000,0.060000,0.900000,0.361000,0.330000,0.090000
1606789881663209064,0.900000,0.066000,0.060000,0.900000,0.360000,0.329000,0.090000
1606789882377900967,0.900000,0.066000,0.060000,0.900000,0.361000,0.330000,0.090000
1606789883079702947,0.900000,0.066000,0.060000,0.900000,0.362000,0.331000,0.090000
1606789883808052854,0.900000,0.066000,0.060000,0.900000,0.363000,0.332000,0.090000
1606789884547806910,0.900000,0.066000,0.060000,0.900000,0.361000,0.330000,0.090000
1606789885256809957,0.900000,0.066000,0.060000,0.900000,0.359000,0.328000,0.090000
1606789885944035328,0.900000,0.066000,0.060000,0.900000,0.360000,0.329000,0.090000
1606789886633724346,0.900000,0.066000,0.060000,0.900000,0.362000,0.331000,0.090000
1606789887359158874,0.900000,0.066000,0.060000,0.900000,0.363000,0.332000,0.090000
1606789888068595924,0.900000,0.066000,0.060000,0.900000,0.361000,0.330000,0.090000
1606789888761976664,0.900000,0.066000,0.060000,0.900000,0.360000,0.329000,0.090000
1606789889444589088,0.900000,0.066000,0.060000,0.900000,0.361000,0.330000,0.090000
1606789890141431259,0.900000,0.066000,0.060000,0.900000,0.363000,0.332000,0.090000
1606789890834108303,0.900000,0.066000,0.060000,0.900000,0.363000,0.332000,0.090000
1606789891556805868,0.900000,0.066000,0.060000,0.900000,0.361000,0.330000,0.090000
1606789892292064238,0.900000,0.066000,0.060000,0.900000,0.361000,0.330000,0.090000
1606789892977103982,0.900000,0.066000,0.060000,0.900000,0.360000,0.329000,0.090000
1606789893663168220,0.900000,0.066000,0.060000,0.900000,0.362000,0.331000,0.090000
1606789894380325386,0.900000,0.066000,0.060000,0.900000,0.363000,0.332000,0.090000
1606789895091197110,0.900000,0.066000,0.060000,0.900000,0.361000,0.330000,0.090000
1606789895808352488,0.900000,0.066000,0.060000,0.900000,0.360000,0.329000,0.090000
1606789896495612681,0.900000,0.066000,0.060000,0.900000,0.360000,0.329000,0.090000
1606789897180153233,0.900000,0.066000,0.060000,0.900000,0.363000,0.332000,0.090000
1606789897862033561,0.900000,0.066000,0.060000,0.900000,0.363000,0.332000,0.090000
1606789898577191549,0.900000,0.066000,0.060000,0.900000,0.361000,0.330000,0.090000
1606789899306953281,0.900000,0.066000,0.060000,0.900000,0.361000,0.330000,0.090000
1606789900016064869,0.900000,0.066000,0.060000,0.900000,0.361000,0.330000,0.090000
1606789900715624712,0.900000,0.066000,0.060000,0.900000,0.364000,0.333000,0.090000
1606789901396867056,0.900000,0.066000,0.060000,0.900000,0.362000,0.331000,0.090000
1606789902113647122,0.900000,0.066000,0.060000,0.900000,0.361000,0.330000,0.090000
1606789902830478315,0.900000,0.066000,0.060000,0.900000,0.361000,0.330000,0.090000
1606789903538879211,0.900000,0.066000,0.060000,0.900000,0.361000,0.330000,0.090000
1606789904206063106,0.900000,0.066000,0.060000,0.900000,0.363000,0.332000,0.090000
1606789904910490792,0.900000,0.066000,0.060000,0.900000,0.363000,0.332000,0.090000
1606789905629437974,0.900000,0.066000,0.060000,0.900000,0.362000,0.331000,0.090000
1606789906333792873,0.900000,0.066000,0.060000,0.900000,0.359000,0.328000,0.090000
1606789907025289806,0.900000,0.066000,0.060000,0.900000,0.358000,0.327000,0.090000
1606789907735737404,0.900000,0.066000,0.060000,0.900000,0.364000,0.333000,0.090000
1606789908436908254,0.900000,0.066000,0.060000,0.900000,0.363000,0.332000,0.090000
1606789909151650650,0.900000,0.066000,0.060000,0.900000,0.360000,0.329000,0.090000
1606789909844894575,0.900000,0.066000,0.060000,0.900000,0.359000,0.328000,0.090000
1606789910564951261,0.900000,0.066000,0.060000,0.900000,0.362000,0.331000,0.090000
1606789911275409327,0.900000,0.066000,0.060000,0.900000,0.363000,0.332000,0.090000
1606789911989366447,0.900000,0.066000,0.060000,0.900000,0.363000,0.332000,0.090000
1606789912664014131,0.900000,0.066000,0.060000,0.900000,0.361000,0.330000,0.090000
1606789913399678268,0.900000,0.066000,0.060000,0.900000,0.362000,0.331000,0.090000
1606789914093027328,0.900000,0.066000,0.060000,0.900000,0.360000,0.329000,0.090000
1606789914785701522,0.900000,0.066000,0.060000,0.900000,0.362000,0.331000,0.090000
1606789915508711112,0.900000,0.066000,0.060000,0.900000,0.364000,0.333000,0.090000
1606789916185335121,0.900000,0.066000,0.060000,0.900000,0.361000,0.330000,0.090000
1606789916895344290,0.900000,0.066000,0.060000,0.900000,0.360000,0.329000,0.090000
1606789917595532174,0.900000,0.066000,0.060000,0.900000,0.361000,0.330000,0.090000
1606789918291303974,0.900000,0.066000,0.060000,0.900000,0.364000,0.333000,0.090000
1606789918993541302,0.900000,0.066000,0.060000,0.900000,0.364000,0.333000,0.090000
1606789919708346727,0.900000,0.066000,0.060000,0.900000,0.360000,0.329000,0.090000
1606789920369176222,0.900000,0.066000,0.060000,0.900000,0.361000,0.330000,0.090000
1606789921091844247,0.900000,0.066000,0.060000,0.900000,0.362000,0.331000,0.090000
1606789921776586281,0.900000,0.066000,0.060000,0.900000,0.364000,0.333000,0.090000
1606789922479542278,0.900000,0.066000,0.060000,0.900000,0.363000,0.332000,0.090000
1606789923174643681,0.900000,0.066000,0.060000,0.900000,0.361000,0.330000,0.090000
1606789923900309979,0.900000,0.066000,0.060000,0.900000,0.361000,0.330000,0.090000
1606789924598736773,0.900000,0.066000,0.060000,0.900000,0.361000,0.330000,0.090000
1606789925296309034,0.900000,0.066000,0.060000,0.900000,0.353000,0.323000,0.090000
1606789926006870056,0.900000,0.067000,0.061000,0.900000,0.364000,0.333000,0.090000
1606789926734459554,0.900000,0.066000,0.060000,0.900000,0.360000,0.329000,0.090000
1606789927421480582,0.900000,0.067000,0.061000,0.900000,0.360000,0.329000,0.090000
1606789928106622670,0.900000,0.066000,0.060000,0.900000,0.361000,0.330000,0.090000
1606789928820371922,0.900000,0.066000,0.060000,0.900000,0.363000,0.332000,0.090000
1606789929541209529,0.900000,0.066000,0.060000,0.900000,0.364000,0.333000,0.090000
1606789930226941284,0.900000,0.066000,0.060000,0.900000,0.360000,0.329000,0.090000
1606789930913441951,0.900000,0.066000,0.060000,0.900000,0.361000,0.330000,0.090000
1606789931610794231,0.900000,0.066000,0.060000,0.900000,0.363000,0.332000,0.090000
1606789932320378946,0.900000,0.066000,0.060000,0.900000,0.364000,0.333000,0.090000
1606789933054045072,0.900000,0.066000,0.060000,0.900000,0.363000,0.332000,0.090000
1606789933765483900,0.900000,0.066000,0.060000,0.900000,0.362000,0.331000,0.090000
1606789934466356281,0.900000,0.066000,0.060000,0.900000,0.362000,0.331000,0.090000
1606789935189047428,0.900000,0.066000,0.060000,0.900000,0.360000,0.329000,0.090000
1606789935876651515,0.900000,0.066000,0.060000,0.900000,0.363000,0.332000,0.090000
1606789936591619318,0.900000,0.066000,0.060000,0.900000,0.364000,0.333000,0.090000
1606789937293762154,0.900000,0.066000,0.060000,0.900000,0.362000,0.331000,0.090000
1606789938011302104,0.900000,0.066000,0.060000,0.900000,0.360000,0.329000,0.090000
1606789938682246347,0.900000,0.066000,0.060000,0.900000,0.360000,0.329000,0.090000
1606789939377378834,0.900000,0.066000,0.060000,0.900000,0.364000,0.333000,0.090000
1606789940090726286,0.900000,0.066000,0.060000,0.900000,0.363000,0.332000,0.090000
1606789940799174033,0.900000,0.066000,0.060000,0.900000,0.355000,0.325000,0.090000
1606789941508023570,0.900000,0.066000,0.060000,0.900000,0.360000,0.329000,0.090000
1606789942158189297,0.900000,0.066000,0.060000,0.900000,0.364000,0.333000,0.090000
1606789942856237600,0.900000,0.066000,0.060000,0.900000,0.364000,0.333000,0.090000
1606789943585895417,0.900000,0.066000,0.060000,0.900000,0.362000,0.331000,0.090000
1606789944330451645,0.900000,0.066000,0.060000,0.900000,0.362000,0.331000,0.090000
1606789945056111292,0.900000,0.066000,0.060000,0.900000,0.362000,0.331000,0.090000
1606789945742285875,0.900000,0.066000,0.060000,0.900000,0.359000,0.328000,0.090000
1606789946409021590,0.900000,0.066000,0.060000,0.900000,0.364000,0.333000,0.090000
1606789947115967576,0.900000,0.066000,0.060000,0.900000,0.364000,0.333000,0.090000
1606789947845869443,0.900000,0.066000,0.060000,0.900000,0.361000,0.330000,0.090000
1606789948576336932,0.900000,0.066000,0.060000,0.900000,0.360000,0.329000,0.090000
1606789949275556617,0.900000,0.066000,0.060000,0.900000,0.361000,0.330000,0.090000
1606789949956024635,0.900000,0.066000,0.060000,0.900000,0.364000,0.333000,0.090000
1606789950665650565,0.900000,0.066000,0.060000,0.900000,0.363000,0.332000,0.090000
1606789951385927652,0.900000,0.066000,0.060000,0.900000,0.360000,0.329000,0.090000
1606789952100469625,0.900000,0.066000,0.060000,0.900000,0.361000,0.330000,0.090000
1606789952816851666,0.900000,0.066000,0.060000,0.900000,0.362000,0.331000,0.090000
1606789953538890327,0.900000,0.066000,0.060000,0.900000,0.363000,0.332000,0.090000
1606789954239682135,0.900000,0.066000,0.060000,0.900000,0.362000,0.331000,0.090000
1606789954916309033,0.900000,0.066000,0.060000,0.900000,0.361000,0.330000,0.090000
1606789955638240409,0.900000,0.066000,0.060000,0.900000,0.361000,0.330000,0.090000
1606789956326234877,0.900000,0.066000,0.060000,0.900000,0.360000,0.329000,0.090000
1606789957034331502,0.900000,0.066000,0.060000,0.900000,0.364000,0.333000,0.090000
1606789957734552075,0.900000,0.066000,0.060000,0.900000,0.363000,0.332000,0.090000
1606789958417057888,0.900000,0.066000,0.060000,0.900000,0.361000,0.330000,0.090000
1606789959115345730,0.900000,0.066000,0.060000,0.900000,0.360000,0.329000,0.090000
1606789959831619166,0.900000,0.066000,0.060000,0.900000,0.361000,0.330000,0.090000
1606789960554645336,0.900000,0.066000,0.060000,0.900000,0.364000,0.333000,0.090000
1606789961290972683,0.900000,0.066000,0.060000,0.900000,0.363000,0.332000,0.090000
1606789961971638354,0.900000,0.066000,0.060000,0.900000,0.360000,0.329000,0.090000
1606789962694278741,0.900000,0.066000,0.060000,0.900000,0.360000,0.329000,0.090000
1606789963399602991,0.900000,0.066000,0.060000,0.900000,0.361000,0.330000,0.090000
1606789964076070038,0.900000,0.066000,0.060000,0.900000,0.363000,0.332000,0.090000
1606789964807102106,0.900000,0.066000,0.060000,0.900000,0.362000,0.331000,0.090000
1606789965534197420,0.900000,0.066000,0.060000,0.900000,0.362000,0.331000,0.090000
1606789966216572462,0.900000,0.066000,0.060000,0.900000,0.361000,0.330000,0.090000
1606789966909965617,0.900000,0.066000,0.060000,0.900000,0.360000,0.329000,0.090000
1606789967605191341,0.900000,0.066000,0.060000,0.900000,0.363000,0.332000,0.090000
1606789968325562096,0.900000,0.066000,0.060000,0.900000,0.363000,0.332000,0.090000
1606789969035291029,0.900000,0.066000,0.060000,0.900000,0.361000,0.330000,0.090000
1606789969723781942,0.900000,0.066000,0.060000,0.900000,0.360000,0.329000,0.090000
1606789970418978757,0.900000,0.066000,0.060000,0.900000,0.363000,0.332000,0.090000
1606789971095728693,0.900000,0.066000,0.060000,0.900000,0.364000,0.333000,0.090000
1606789971808043485,0.900000,0.066000,0.060000,0.900000,0.364000,0.333000,0.090000
1606789972516597229,0.900000,0.066000,0.060000,0.900000,0.360000,0.329000,0.090000
1606789973225384931,0.900000,0.066000,0.060000,0.900000,0.361000,0.330000,0.090000
1606789973911118254,0.900000,0.066000,0.060000,0.900000,0.363000,0.332000,0.090000
1606789974595578089,0.900000,0.067000,0.061000,0.900000,0.364000,0.333000,0.090000
1606789975277134535,0.900000,0.066000,0.060000,0.900000,0.363000,0.332000,0.090000
1606789975983578930,0.900000,0.066000,0.060000,0.900000,0.362000,0.331000,0.090000
1606789976684764333,0.900000,0.066000,0.060000,0.900000,0.362000,0.331000,0.090000
1606789977368528181,0.900000,0.066000,0.060000,0.900000,0.360000,0.329000,0.090000
1606789978079462459,0.900000,0.066000,0.060000,0.900000,0.364000,0.333000,0.090000
1606789978806918678,0.900000,0.066000,0.060000,0.900000,0.365000,0.334000,0.091000
1606789979549466392,0.900000,0.066000,0.060000,0.900000,0.361000,0.330000,0.090000
1606789980238995030,0.900000,0.066000,0.060000,0.900000,0.359000,0.328000,0.090000
1606789980910935698,0.900000,0.066000,0.060000,0.900000,0.360000,0.329000,0.091000
1606789981594451641,0.900000,0.066000,0.060000,0.900000,0.365000,0.334000,0.091000
1606789982279294366,0.900000,0.066000,0.060000,0.900000,0.365000,0.334000,0.090000
1606789982996826141,0.900000,0.066000,0.060000,0.900000,0.362000,0.331000,0.090000
1606789983702088858,0.900000,0.066000,0.060000,0.900000,0.361000,0.330000,0.090000
1606789984378409287,0.900000,0.066000,0.060000,0.900000,0.362000,0.331000,0.090000
1606789985084121836,0.900000,0.066000,0.060000,0.900000,0.365000,0.334000,0.090000
1606789985825353536,0.900000,0.066000,0.060000,0.900000,0.363000,0.332000,0.090000
1606789986560202044,0.900000,0.066000,0.060000,0.900000,0.362000,0.331000,0.091000
1606789987264966106,0.900000,0.066000,0.060000,0.900000,0.362000,0.331000,0.090000
1606789987988332759,0.900000,0.066000,0.060000,0.900000,0.360000,0.329000,0.091000
1606789988659682533,0.900000,0.066000,0.060000,0.900000,0.364000,0.333000,0.090000
1606789989363221737,0.900000,0.066000,0.060000,0.900000,0.364000,0.333000,0.091000
1606789990090797524,0.900000,0.066000,0.060000,0.900000,0.361000,0.330000,0.090000
1606789990808032529,0.900000,0.066000,0.060000,0.900000,0.360000,0.329000,0.090000
1606789991495908708,0.900000,0.066000,0.060000,0.900000,0.361000,0.330000,0.090000
1606789992180502999,0.900000,0.066000,0.060000,0.900000,0.365000,0.334000,0.090000
1606789992888525756,0.900000,0.066000,0.060000,0.900000,0.364000,0.333000,0.090000
1606789993580837817,0.900000,0.066000,0.060000,0.900000,0.362000,0.331000,0.090000
1606789994291116974,0.900000,0.066000,0.060000,0.900000,0.361000,0.330000,0.090000
1606789994960671861,0.900000,0.067000,0.061000,0.900000,0.362000,0.331000,0.090000
1606789995659046083,0.900000,0.066000,0.060000,0.900000,0.365000,0.334000,0.090000
1606789996345573618,0.900000,0.066000,0.060000,0.900000,0.362000,0.331000,0.090000
1606789997067042017,0.900000,0.067000,0.061000,0.900000,0.362000,0.331000,0.090000
1606789997749059969,0.900000,0.066000,0.060000,0.900000,0.361000,0.330000,0.090000
1606789998424796394,0.900000,0.066000,0.060000,0.900000,0.359000,0.328000,0.091000
1606789999159028812,0.900000,0.066000,0.060000,0.900000,0.362000,0.331000,0.090000
1606789999843930869,0.900000,0.067000,0.061000,0.900000,0.363000,0.332000,0.090000
1606790000561040773,0.900000,0.066000,0.060000,0.900000,0.362000,0.331000,0.090000
1606790001303652749,0.900000,0.066000,0.060000,0.900000,0.361000,0.330000,0.091000
1606790002026012402,0.900000,0.066000,0.060000,0.900000,0.362000,0.331000,0.091000
1606790002739129346,0.900000,0.066000,0.060000,0.900000,0.364000,0.333000,0.090000
1606790003416155313,0.900000,0.066000,0.060000,0.900000,0.365000,0.334000,0.090000
1606790004130664247,0.900000,0.066000,0.060000,0.900000,0.361000,0.330000,0.091000
1606790004844420107,0.900000,0.066000,0.060000,0.900000,0.361000,0.330000,0.091000
1606790005543955467,0.900000,0.066000,0.060000,0.900000,0.362000,0.331000,0.090000
1606790006267015249,0.900000,0.066000,0.060000,0.900000,0.364000,0.333000,0.090000
1606790006980622406,0.900000,0.066000,0.060000,0.900000,0.364000,0.333000,0.090000
1606790007669725736,0.900000,0.066000,0.060000,0.900000,0.362000,0.331000,0.091000
1606790008367952780,0.900000,0.066000,0.060000,0.900000,0.362000,0.331000,0.090000
1606790009061382367,0.900000,0.066000,0.060000,0.900000,0.362000,0.331000,0.090000
1606790009766134400,0.900000,0.066000,0.060000,0.900000,0.363000,0.332000,0.090000
1606790010467202091,0.900000,0.066000,0.060000,0.900000,0.364000,0.333000,0.090000
1606790011171997126,0.900000,0.066000,0.060000,0.900000,0.362000,0.331000,0.090000
1606790011894403260,0.900000,0.066000,0.060000,0.900000,0.360000,0.329000,0.090000
1606790012611226820,0.900000,0.066000,0.060000,0.900000,0.361000,0.330000,0.090000
1606790013295755243,0.900000,0.066000,0.060000,0.900000,0.363000,0.332000,0.090000
1606790014003003472,0.900000,0.066000,0.060000,0.900000,0.364000,0.333000,0.090000
1606790014723458547,0.900000,0.066000,0.060000,0.900000,0.361000,0.330000,0.090000
1606790015413811591,0.900000,0.066000,0.060000,0.900000,0.361000,0.330000,0.090000
1606790016118789303,0.900000,0.066000,0.060000,0.900000,0.362000,0.331000,0.091000
1606790016841468988,0.900000,0.066000,0.060000,0.900000,0.364000,0.333000,0.090000
1606790017556741864,0.900000,0.066000,0.060000,0.900000,0.363000,0.332000,0.090000
1606790018295112626,0.900000,0.066000,0.060000,0.900000,0.362000,0.331000,0.091000
1606790018971238426,0.900000,0.066000,0.060000,0.900000,0.362000,0.331000,0.090000
1606790019674255204,0.900000,0.067000,0.061000,0.900000,0.361000,0.330000,0.090000
1606790020356147541,0.900000,0.066000,0.060000,0.900000,0.363000,0.332000,0.090000
1606790021094430810,0.900000,0.066000,0.060000,0.900000,0.364000,0.333000,0.090000
1606790021815578562,0.900000,0.066000,0.060000,0.900000,0.361000,0.330000,0.090000
1606790022543335592,0.900000,0.066000,0.060000,0.900000,0.359000,0.328000,0.090000
1606790023226241176,0.900000,0.066000,0.060000,0.900000,0.360000,0.329000,0.090000
1606790023921290115,0.900000,0.066000,0.060000,0.900000,0.364000,0.333000,0.090000
1606790024615565105,0.900000,0.066000,0.060000,0.900000,0.364000,0.333000,0.091000
1606790025317058158,0.900000,0.066000,0.060000,0.900000,0.360000,0.329000,0.091000
1606790026067792665,0.900000,0.066000,0.060000,0.900000,0.361000,0.330000,0.090000
1606790026762285407,0.900000,0.066000,0.060000,0.900000,0.362000,0.331000,0.091000
1606790027435051796,0.900000,0.066000,0.060000,0.900000,0.364000,0.333000,0.090000
1606790028162191844,0.900000,0.066000,0.060000,0.900000,0.363000,0.332000,0.090000
1606790028858440784,0.900000,0.066000,0.060000,0.900000,0.361000,0.330000,0.091000
1606790029579095183,0.900000,0.066000,0.060000,0.900000,0.361000,0.330000,0.090000
1606790030287084358,0.900000,0.066000,0.060000,0.900000,0.361000,0.330000,0.090000
1606790031006980808,0.900000,0.066000,0.060000,0.900000,0.363000,0.332000,0.090000
1606790031714390034,0.900000,0.066000,0.060000,0.900000,0.365000,0.334000,0.091000
1606790032414586072,0.900000,0.066000,0.060000,0.900000,0.362000,0.331000,0.090000
1606790033129804067,0.900000,0.066000,0.060000,0.900000,0.355000,0.325000,0.090000
1606790033823525456,0.900000,0.066000,0.060000,0.900000,0.361000,0.330000,0.091000
1606790034510082241,0.900000,0.066000,0.060000,0.900000,0.364000,0.333000,0.090000
1606790035186963694,0.900000,0.066000,0.060000,0.900000,0.364000,0.333000,0.090000
1606790035915779912,0.900000,0.066000,0.060000,0.900000,0.362000,0.331000,0.090000
1606790036628824808,0.900000,0.066000,0.060000,0.900000,0.361000,0.330000,0.090000
1606790037337344161,0.900000,0.066000,0.060000,0.900000,0.362000,0.331000,0.091000
1606790038021771930,0.900000,0.066000,0.060000,0.900000,0.364000,0.333000,0.091000
1606790038748740671,0.900000,0.066000,0.060000,0.900000,0.363000,0.332000,0.090000
1606790039425439217,0.900000,0.066000,0.060000,0.900000,0.361000,0.330000,0.090000
1606790040140163482,0.900000,0.066000,0.060000,0.900000,0.361000,0.330000,0.090000
1606790040836224074,0.900000,0.066000,0.060000,0.900000,0.360000,0.329000,0.090000
1606790041554021649,0.900000,0.066000,0.060000,0.900000,0.363000,0.332000,0.091000
1606790042272385595,0.900000,0.066000,0.060000,0.900000,0.364000,0.333000,0.091000
1606790042977137617,0.900000,0.066000,0.060000,0.900000,0.362000,0.331000,0.091000
1606790043676321773,0.900000,0.066000,0.060000,0.900000,0.361000,0.330000,0.091000
1606790044354678648,0.900000,0.066000,0.060000,0.900000,0.363000,0.332000,0.090000
1606790045060889329,0.900000,0.066000,0.060000,0.900000,0.365000,0.334000,0.091000
1606790045796514970,0.900000,0.066000,0.060000,0.900000,0.363000,0.332000,0.090000
1606790046537184360,0.900000,0.067000,0.061000,0.900000,0.361000,0.330000,0.091000
1606790047238143883,0.900000,0.066000,0.060000,0.900000,0.362000,0.331000,0.091000
1606790047930978517,0.900000,0.066000,0.060000,0.900000,0.360000,0.329000,0.091000
1606790048598257913,0.900000,0.066000,0.060000,0.900000,0.363000,0.332000,0.091000
1606790049334116267,0.900000,0.066000,0.060000,0.900000,0.362000,0.331000,0.090000
1606790050061091782,0.900000,0.066000,0.060000,0.900000,0.362000,0.331000,0.091000
1606790050758172637,0.900000,0.066000,0.060000,0.900000,0.363000,0.332000,0.091000
1606790051435489536,0.900000,0.066000,0.060000,0.900000,0.364000,0.333000,0.091000
1606790052140669533,0.900000,0.066000,0.060000,0.900000,0.363000,0.332000,0.091000
1606790052826419613,0.900000,0.066000,0.060000,0.900000,0.363000,0.332000,0.091000
1606790053556583358,0.900000,0.066000,0.060000,0.900000,0.362000,0.331000,0.091000
1606790054269098214,0.900000,0.066000,0.060000,0.900000,0.361000,0.330000,0.091000
1606790054944082223,0.900000,0.066000,0.060000,0.900000,0.364000,0.333000,0.091000
1606790055658132527,0.900000,0.066000,0.060000,0.900000,0.364000,0.333000,0.090000
1606790056363018118,0.900000,0.066000,0.060000,0.900000,0.363000,0.332000,0.091000
1606790057093816574,0.900000,0.066000,0.060000,0.900000,0.361000,0.330000,0.091000
1606790057821150145,0.900000,0.066000,0.060000,0.900000,0.362000,0.331000,0.091000
1606790058527297063,0.900000,0.066000,0.060000,0.900000,0.363000,0.332000,0.091000
1606790059251297665,0.900000,0.066000,0.060000,0.900000,0.363000,0.332000,0.091000
1606790059928613206,0.900000,0.066000,0.060000,0.900000,0.363000,0.332000,0.091000
1606790060635794245,0.900000,0.066000,0.060000,0.900000,0.361000,0.330000,0.091000
1606790061365038974,0.900000,0.066000,0.060000,0.900000,0.362000,0.331000,0.091000
1606790062065562989,0.900000,0.066000,0.060000,0.900000,0.363000,0.332000,0.091000
1606790062785226385,0.900000,0.066000,0.060000,0.900000,0.362000,0.331000,0.091000
1606790063500382488,0.900000,0.066000,0.060000,0.900000,0.364000,0.333000,0.091000
1606790064184642687,0.900000,0.067000,0.061000,0.900000,0.359000,0.328000,0.091000
1606790064910067538,0.900000,0.066000,0.060000,0.900000,0.360000,0.329000,0.091000
1606790065596529139,0.900000,0.066000,0.060000,0.900000,0.361000,0.330000,0.091000
1606790066284705350,0.900000,0.066000,0.060000,0.900000,0.364000,0.333000,0.091000
1606790067013288304,0.900000,0.066000,0.060000,0.900000,0.365000,0.334000,0.091000
1606790067734349616,0.900000,0.066000,0.060000,0.900000,0.361000,0.330000,0.090000
1606790068410511934,0.900000,0.066000,0.060000,0.900000,0.362000,0.331000,0.090000
1606790069099499561,0.900000,0.066000,0.060000,0.900000,0.361000,0.330000,0.090000
1606790069835110378,0.900000,0.066000,0.060000,0.900000,0.362000,0.331000,0.090000
1606790070536595820,0.900000,0.066000,0.060000,0.900000,0.364000,0.333000,0.090000
1606790071241918854,0.900000,0.066000,0.060000,0.900000,0.362000,0.331000,0.090000
1606790071955853485,0.900000,0.066000,0.060000,0.900000,0.362000,0.331000,0.090000
1606790072669108247,0.900000,0.066000,0.060000,0.900000,0.362000,0.331000,0.091000
1606790073343199467,0.900000,0.066000,0.060000,0.900000,0.364000,0.333000,0.090000
1606790074059753454,0.900000,0.066000,0.060000,0.900000,0.364000,0.333000,0.091000
1606790074770419202,0.900000,0.066000,0.060000,0.900000,0.362000,0.331000,0.090000
1606790075476581530,0.900000,0.066000,0.060000,0.900000,0.360000,0.329000,0.091000
1606790076134150936,0.900000,0.066000,0.060000,0.900000,0.361000,0.330000,0.090000
1606790076840510515,0.900000,0.066000,0.060000,0.900000,0.364000,0.333000,0.091000
1606790077546611307,0.900000,0.066000,0.060000,0.900000,0.364000,0.333000,0.091000
1606790078260980696,0.900000,0.066000,0.060000,0.900000,0.362000,0.331000,0.091000
1606790078955753336,0.900000,0.067000,0.061000,0.900000,0.363000,0.332000,0.090000
1606790079673252327,0.900000,0.066000,0.060000,0.900000,0.361000,0.330000,0.091000
1606790080366311983,0.900000,0.066000,0.060000,0.900000,0.363000,0.332000,0.091000
1606790081114503260,0.900000,0.066000,0.060000,0.900000,0.364000,0.333000,0.091000
1606790081821137889,0.900000,0.066000,0.060000,0.900000,0.362000,0.331000,0.091000
1606790082577115103,0.900000,0.066000,0.060000,0.900000,0.362000,0.331000,0.091000
1606790083280998341,0.900000,0.066000,0.060000,0.900000,0.361000,0.330000,0.091000
1606790083950060832,0.900000,0.066000,0.060000,0.900000,0.364000,0.333000,0.091000
1606790084636631510,0.900000,0.066000,0.060000,0.900000,0.364000,0.333000,0.091000
1606790085357308777,0.900000,0.066000,0.060000,0.900000,0.362000,0.331000,0.091000
1606790086103813620,0.900000,0.066000,0.060000,0.900000,0.360000,0.329000,0.090000
1606790086815686840,0.900000,0.066000,0.060000,0.900000,0.361000,0.330000,0.090000
1606790087517113899,0.900000,0.066000,0.060000,0.900000,0.364000,0.333000,0.090000
1606790088233033378,0.900000,0.066000,0.060000,0.900000,0.363000,0.332000,0.090000
1606790088922056960,0.900000,0.066000,0.060000,0.900000,0.359000,0.328000,0.091000
1606790089610739464,0.900000,0.066000,0.060000,0.900000,0.362000,0.331000,0.091000
1606790090336473657,0.900000,0.066000,0.060000,0.900000,0.363000,0.332000,0.091000
1606790091036554109,0.900000,0.066000,0.060000,0.900000,0.363000,0.332000,0.090000
1606790091771690642,0.900000,0.066000,0.060000,0.900000,0.364000,0.333000,0.091000
1606790092469741114,0.900000,0.066000,0.060000,0.900000,0.363000,0.332000,0.091000
1606790093160514856,0.900000,0.066000,0.060000,0.900000,0.363000,0.332000,0.091000
1606790093846522182,0.900000,0.066000,0.060000,0.900000,0.360000,0.329000,0.090000
1606790094555886313,0.900000,0.067000,0.061000,0.900000,0.365000,0.334000,0.091000
1606790095267795215,0.900000,0.066000,0.060000,0.900000,0.364000,0.333000,0.091000
1606790095968268964,0.900000,0.066000,0.060000,0.900000,0.362000,0.331000,0.091000
1606790096693409426,0.900000,0.066000,0.060000,0.900000,0.360000,0.329000,0.091000
1606790097362371692,0.900000,0.066000,0.060000,0.900000,0.364000,0.333000,0.090000
1606790098059451099,0.900000,0.066000,0.060000,0.900000,0.364000,0.333000,0.090000
1606790098807222291,0.900000,0.066000,0.060000,0.900000,0.364000,0.333000,0.090000
1606790099493057462,0.900000,0.066000,0.060000,0.900000,0.361000,0.330000,0.091000
1606790100205508786,0.900000,0.066000,0.060000,0.900000,0.363000,0.332000,0.091000
1606790100915750338,0.900000,0.066000,0.060000,0.900000,0.364000,0.333000,0.091000
1606790101596822970,0.900000,0.066000,0.060000,0.900000,0.363000,0.332000,0.091000
1606790102328766385,0.900000,0.067000,0.061000,0.900000,0.363000,0.332000,0.091000
1606790103036391088,0.900000,0.066000,0.060000,0.900000,0.362000,0.331000,0.090000
1606790103764883660,0.900000,0.066000,0.060000,0.900000,0.362000,0.331000,0.091000
1606790104435696382,0.900000,0.066000,0.060000,0.900000,0.360000,0.329000,0.091000
1606790105131875018,0.900000,0.066000,0.060000,0.900000,0.365000,0.334000,0.091000
1606790105878138279,0.900000,0.066000,0.060000,0.900000,0.365000,0.334000,0.091000
1606790106591385026,0.900000,0.066000,0.060000,0.900000,0.361000,0.330000,0.090000
1606790107295114603,0.900000,0.066000,0.060000,0.900000,0.361000,0.330000,0.091000
1606790107995184378,0.900000,0.066000,0.060000,0.900000,0.364000,0.333000,0.091000
1606790108694790868,0.900000,0.066000,0.060000,0.900000,0.364000,0.333000,0.091000
1606790109405962012,0.900000,0.066000,0.060000,0.900000,0.362000,0.331000,0.090000
1606790110101277748,0.900000,0.066000,0.060000,0.900000,0.361000,0.330000,0.090000
1606790110826104531,0.900000,0.066000,0.060000,0.900000,0.362000,0.331000,0.091000
1606790111524073123,0.900000,0.066000,0.060000,0.900000,0.365000,0.334000,0.090000
1606790112221862051,0.900000,0.066000,0.060000,0.900000,0.362000,0.331000,0.090000
1606790112923356657,0.900000,0.066000,0.060000,0.900000,0.363000,0.332000,0.091000
1606790113631303253,0.900000,0.066000,0.060000,0.900000,0.361000,0.330000,0.091000
1606790114346086210,0.900000,0.066000,0.060000,0.900000,0.361000,0.330000,0.091000
1606790115072696194,0.900000,0.066000,0.060000,0.900000,0.362000,0.331000,0.091000
1606790115766272330,0.900000,0.067000,0.061000,0.900000,0.364000,0.333000,0.091000
1606790116471787285,0.900000,0.066000,0.060000,0.900000,0.362000,0.331000,0.090000
1606790117161330499,0.900000,0.066000,0.060000,0.900000,0.360000,0.329000,0.090000
1606790117875661549,0.900000,0.066000,0.060000,0.900000,0.361000,0.330000,0.091000
1606790118556126716,0.900000,0.066000,0.060000,0.900000,0.365000,0.334000,0.091000
1606790119286086723,0.900000,0.066000,0.060000,0.900000,0.364000,0.333000,0.091000
1606790120023805332,0.900000,0.066000,0.060000,0.900000,0.361000,0.330000,0.091000
1606790120699616334,0.900000,0.066000,0.060000,0.900000,0.361000,0.330000,0.091000
1606790121415108423,0.900000,0.066000,0.060000,0.900000,0.362000,0.331000,0.091000
1606790122110856136,0.900000,0.066000,0.060000,0.900000,0.364000,0.333000,0.091000
1606790122808342044,0.900000,0.066000,0.060000,0.900000,0.363000,0.332000,0.091000
1606790123543134643,0.900000,0.066000,0.060000,0.900000,0.363000,0.332000,0.091000
1606790124253603862,0.900000,0.066000,0.060000,0.900000,0.361000,0.330000,0.090000
1606790124954009375,0.900000,0.066000,0.060000,0.900000,0.360000,0.329000,0.090000
1606790125628721769,0.900000,0.066000,0.060000,0.900000,0.364000,0.333000,0.090000
1606790126324396240,0.900000,0.066000,0.060000,0.900000,0.364000,0.333000,0.090000
1606790127062212279,0.900000,0.066000,0.060000,0.900000,0.362000,0.331000,0.090000
1606790127767922962,0.900000,0.066000,0.060000,0.900000,0.363000,0.332000,0.091000
1606790128461849201,0.900000,0.066000,0.060000,0.900000,0.362000,0.331000,0.090000
1606790129144621076,0.900000,0.066000,0.060000,0.900000,0.365000,0.334000,0.091000
1606790129853973982,0.900000,0.066000,0.060000,0.900000,0.365000,0.334000,0.090000
1606790130563573678,0.900000,0.066000,0.060000,0.900000,0.361000,0.330000,0.091000
1606790131309560949,0.900000,0.066000,0.060000,0.900000,0.361000,0.330000,0.091000
1606790132000232597,0.900000,0.066000,0.060000,0.900000,0.362000,0.331000,0.091000
1606790132664166259,0.900000,0.066000,0.060000,0.900000,0.364000,0.333000,0.091000
1606790133375957818,0.900000,0.066000,0.060000,0.900000,0.363000,0.332000,0.091000
1606790134084933317,0.900000,0.066000,0.060000,0.900000,0.361000,0.330000,0.090000
1606790134821538006,0.900000,0.066000,0.060000,0.900000,0.361000,0.330000,0.091000
1606790135562005748,0.900000,0.066000,0.060000,0.900000,0.361000,0.330000,0.090000
1606790136260233299,0.900000,0.066000,0.060000,0.900000,0.364000,0.333000,0.090000
1606790136985154713,0.900000,0.066000,0.060000,0.900000,0.365000,0.334000,0.090000
1606790137676713822,0.900000,0.066000,0.060000,0.900000,0.362000,0.331000,0.090000
1606790138401585740,0.900000,0.066000,0.060000,0.900000,0.361000,0.330000,0.090000
1606790139094329550,0.900000,0.066000,0.060000,0.900000,0.361000,0.330000,0.091000
1606790139801066120,0.900000,0.066000,0.060000,0.900000,0.364000,0.333000,0.091000
1606790140493297811,0.900000,0.066000,0.060000,0.900000,0.364000,0.333000,0.091000
1606790141183898059,0.900000,0.066000,0.060000,0.900000,0.361000,0.330000,0.090000
1606790141920567136,0.900000,0.066000,0.060000,0.900000,0.360000,0.329000,0.090000
1606790142609666523,0.900000,0.066000,0.060000,0.900000,0.362000,0.331000,0.091000
1606790143331033562,0.900000,0.066000,0.060000,0.900000,0.363000,0.332000,0.091000
1606790144031837939,0.900000,0.066000,0.060000,0.900000,0.362000,0.331000,0.090000
1606790144732384069,0.900000,0.066000,0.060000,0.900000,0.362000,0.331000,0.090000
1606790145425504803,0.900000,0.066000,0.060000,0.900000,0.362000,0.331000,0.091000
1606790146134230160,0.900000,0.066000,0.060000,0.900000,0.360000,0.329000,0.090000
1606790146856161659,0.900000,0.066000,0.060000,0.900000,0.364000,0.333000,0.090000
1606790147590723347,0.900000,0.066000,0.060000,0.900000,0.364000,0.333000,0.090000
1606790148300073368,0.900000,0.066000,0.060000,0.900000,0.354000,0.324000,0.091000
1606790148994608180,0.900000,0.066000,0.060000,0.900000,0.360000,0.329000,0.090000
1606790149672077718,0.900000,0.066000,0.060000,0.900000,0.361000,0.330000,0.091000
1606790150355637456,0.900000,0.066000,0.060000,0.900000,0.364000,0.333000,0.091000
1606790151076140349,0.900000,0.066000,0.060000,0.900000,0.364000,0.333000,0.091000
1606790151787358487,0.900000,0.066000,0.060000,0.900000,0.359000,0.328000,0.091000
1606790152497272595,0.900000,0.066000,0.060000,0.900000,0.361000,0.330000,0.090000
1606790153186172127,0.900000,0.066000,0.060000,0.900000,0.362000,0.331000,0.091000
1606790153915522328,0.900000,0.066000,0.060000,0.900000,0.363000,0.332000,0.091000
1606790154640026819,0.900000,0.066000,0.060000,0.900000,0.364000,0.333000,0.091000
1606790155359184064,0.900000,0.066000,0.060000,0.900000,0.362000,0.331000,0.090000
1606790156096728243,0.900000,0.066000,0.060000,0.900000,0.349000,0.319000,0.091000
1606790156785577157,0.900000,0.066000,0.060000,0.900000,0.362000,0.331000,0.091000
1606790157496018811,0.900000,0.066000,0.060000,0.900000,0.364000,0.333000,0.091000
1606790158195766470,0.900000,0.066000,0.060000,0.900000,0.365000,0.334000,0.090000
1606790158884857386,0.900000,0.066000,0.060000,0.900000,0.362000,0.331000,0.090000
1606790159626697452,0.900000,0.066000,0.060000,0.900000,0.361000,0.330000,0.090000
1606790160306355822,0.900000,0.066000,0.060000,0.900000,0.362000,0.331000,0.091000
1606790161026942940,0.900000,0.066000,0.060000,0.900000,0.365000,0.334000,0.091000
1606790161722817597,0.900000,0.066000,0.060000,0.900000,0.365000,0.334000,0.090000
1606790162416342690,0.900000,0.066000,0.060000,0.900000,0.362000,0.331000,0.091000
1606790163164733250,0.900000,0.066000,0.060000,0.900000,0.362000,0.331000,0.091000
1606790163855483035,0.900000,0.066000,0.060000,0.900000,0.357000,0.327000,0.091000
1606790164580338958,0.900000,0.066000,0.060000,0.900000,0.363000,0.332000,0.090000
1606790165313629313,0.900000,0.066000,0.060000,0.900000,0.363000,0.332000,0.091000
1606790166048755112,0.900000,0.066000,0.060000,0.900000,0.361000,0.330000,0.091000
1606790166740768058,0.900000,0.066000,0.060000,0.900000,0.362000,0.331000,0.090000
1606790167446878556,0.900000,0.066000,0.060000,0.900000,0.363000,0.332000,0.091000
1606790168146294485,0.900000,0.066000,0.060000,0.900000,0.364000,0.333000,0.091000
1606790168860790292,0.900000,0.066000,0.060000,0.900000,0.365000,0.334000,0.091000
1606790169607333796,0.900000,0.066000,0.060000,0.900000,0.363000,0.332000,0.091000
1606790170332694599,0.900000,0.066000,0.060000,0.900000,0.360000,0.329000,0.091000
1606790171056809539,0.900000,0.066000,0.060000,0.900000,0.364000,0.333000,0.091000
1606790171778803206,0.900000,0.066000,0.060000,0.900000,0.364000,0.333000,0.091000
1606790172460164749,0.900000,0.066000,0.060000,0.900000,0.363000,0.332000,0.091000
1606790173179532898,0.900000,0.066000,0.060000,0.900000,0.360000,0.329000,0.091000
1606790173894579792,0.900000,0.066000,0.060000,0.900000,0.362000,0.331000,0.091000
1606790174604103816,0.900000,0.066000,0.060000,0.900000,0.364000,0.333000,0.091000
1606790175324603460,0.900000,0.066000,0.060000,0.900000,0.363000,0.332000,0.091000
1606790176032190210,0.900000,0.066000,0.060000,0.900000,0.362000,0.331000,0.091000
1606790176748581557,0.900000,0.066000,0.060000,0.900000,0.363000,0.332000,0.091000
1606790177475493402,0.900000,0.066000,0.060000,0.900000,0.362000,0.331000,0.091000
1606790178169808806,0.900000,0.066000,0.060000,0.900000,0.362000,0.331000,0.091000
1606790178845655820,0.900000,0.066000,0.060000,0.900000,0.364000,0.333000,0.090000
1606790179568830366,0.900000,0.066000,0.060000,0.900000,0.364000,0.333000,0.091000
1606790180250449919,0.900000,0.066000,0.060000,0.900000,0.361000,0.330000,0.091000
1606790181003682846,0.900000,0.066000,0.060000,0.900000,0.360000,0.329000,0.091000
1606790181694107580,0.900000,0.066000,0.060000,0.900000,0.363000,0.332000,0.091000
1606790182386402341,0.900000,0.066000,0.060000,0.900000,0.364000,0.333000,0.091000
1606790183095089552,0.900000,0.066000,0.060000,0.900000,0.363000,0.332000,0.091000
1606790183843643981,0.900000,0.066000,0.060000,0.900000,0.361000,0.330000,0.091000
1606790184579342141,0.900000,0.066000,0.060000,0.900000,0.362000,0.331000,0.091000
1606790185296384163,0.900000,0.066000,0.060000,0.900000,0.363000,0.332000,0.091000
1606790186014729800,0.900000,0.066000,0.060000,0.900000,0.362000,0.331000,0.090000
1606790186715666706,0.900000,0.066000,0.060000,0.900000,0.357000,0.327000,0.091000
1606790187420260957,0.900000,0.066000,0.060000,0.900000,0.362000,0.331000,0.091000
1606790188140046836,0.900000,0.066000,0.060000,0.900000,0.362000,0.331000,0.090000
1606790188843764264,0.900000,0.066000,0.060000,0.900000,0.362000,0.331000,0.090000
1606790189556828909,0.900000,0.066000,0.060000,0.900000,0.365000,0.334000,0.091000
1606790190241098456,0.900000,0.066000,0.060000,0.900000,0.364000,0.333000,0.091000
1606790190959331061,0.900000,0.066000,0.060000,0.900000,0.360000,0.329000,0.091000
1606790191634174646,0.900000,0.066000,0.060000,0.900000,0.362000,0.331000,0.091000
1606790192364168323,0.900000,0.066000,0.060000,0.900000,0.364000,0.333000,0.091000
1606790193083832920,0.900000,0.066000,0.060000,0.900000,0.365000,0.334000,0.091000
1606790193828691604,0.900000,0.066000,0.060000,0.900000,0.361000,0.330000,0.091000
1606790194546350470,0.900000,0.066000,0.060000,0.900000,0.361000,0.330000,0.091000
1606790195251232565,0.900000,0.067000,0.061000,0.900000,0.362000,0.331000,0.091000
1606790195934587503,0.900000,0.066000,0.060000,0.900000,0.364000,0.333000,0.091000
1606790196613588603,0.900000,0.066000,0.060000,0.900000,0.363000,0.332000,0.090000
1606790197354535242,0.900000,0.066000,0.060000,0.900000,0.364000,0.333000,0.091000
1606790198079332471,0.900000,0.066000,0.060000,0.900000,0.362000,0.331000,0.091000
1606790198809489825,0.900000,0.066000,0.060000,0.900000,0.361000,0.330000,0.091000
1606790199491574946,0.900000,0.066000,0.060000,0.900000,0.363000,0.332000,0.091000
1606790200183844360,0.900000,0.066000,0.060000,0.900000,0.366000,0.335000,0.091000
1606790200910319248,0.900000,0.066000,0.060000,0.900000,0.362000,0.331000,0.091000
1606790201661503602,0.900000,0.066000,0.060000,0.900000,0.360000,0.329000,0.091000
1606790202349752760,0.900000,0.066000,0.060000,0.900000,0.361000,0.330000,0.091000
1606790203057091431,0.900000,0.066000,0.060000,0.900000,0.364000,0.333000,0.091000
1606790203787112961,0.900000,0.066000,0.060000,0.900000,0.364000,0.333000,0.091000
1606790204535651967,0.900000,0.066000,0.060000,0.900000,0.359000,0.328000,0.091000
1606790205280725752,0.900000,0.066000,0.060000,0.900000,0.362000,0.331000,0.091000
1606790205940456231,0.900000,0.066000,0.060000,0.900000,0.362000,0.331000,0.091000
1606790206616234372,0.900000,0.066000,0.060000,0.900000,0.365000,0.334000,0.091000
1606790207379195390,0.900000,0.066000,0.060000,0.900000,0.364000,0.333000,0.091000
1606790208106010078,0.900000,0.066000,0.060000,0.900000,0.362000,0.331000,0.091000
1606790208877716653,0.900000,0.066000,0.060000,0.900000,0.363000,0.332000,0.091000
1606790209583919927,0.900000,0.066000,0.060000,0.900000,0.361000,0.330000,0.091000
1606790210279909159,0.900000,0.066000,0.060000,0.900000,0.363000,0.332000,0.091000
1606790211000559110,0.900000,0.066000,0.060000,0.900000,0.365000,0.334000,0.090000
1606790211729369746,0.900000,0.066000,0.060000,0.900000,0.362000,0.331000,0.091000
1606790212468915379,0.900000,0.066000,0.060000,0.900000,0.362000,0.331000,0.091000
1606790213140950018,0.900000,0.066000,0.060000,0.900000,0.363000,0.332000,0.091000
1606790213833621033,0.900000,0.066000,0.060000,0.900000,0.365000,0.334000,0.090000
1606790214570082528,0.900000,0.066000,0.060000,0.900000,0.363000,0.332000,0.091000
1606790215320468870,0.900000,0.066000,0.060000,0.900000,0.359000,0.328000,0.091000
1606790216058345564,0.900000,0.066000,0.060000,0.900000,0.362000,0.331000,0.091000
1606790216725991536,0.900000,0.066000,0.060000,0.900000,0.363000,0.332000,0.091000
1606790217423614975,0.900000,0.067000,0.061000,0.900000,0.363000,0.332000,0.091000
1606790218179826274,0.900000,0.066000,0.060000,0.900000,0.364000,0.333000,0.091000
1606790218943777845,0.900000,0.066000,0.060000,0.900000,0.362000,0.331000,0.091000
1606790219701366802,0.900000,0.066000,0.060000,0.900000,0.362000,0.331000,0.091000
1606790220357108876,0.900000,0.066000,0.060000,0.900000,0.363000,0.332000,0.091000
1606790221079799742,0.900000,0.066000,0.060000,0.900000,0.364000,0.333000,0.090000
1606790221831856998,0.900000,0.066000,0.060000,0.900000,0.362000,0.331000,0.091000
1606790222563877500,0.900000,0.066000,0.060000,0.900000,0.360000,0.329000,0.091000
1606790223281820575,0.900000,0.066000,0.060000,0.900000,0.361000,0.330000,0.091000
1606790223989858356,0.900000,0.066000,0.060000,0.900000,0.365000,0.334000,0.091000
1606790224668328877,0.900000,0.066000,0.060000,0.900000,0.365000,0.334000,0.090000
1606790225417231497,0.900000,0.066000,0.060000,0.900000,0.363000,0.332000,0.091000
1606790226133910503,0.900000,0.066000,0.060000,0.900000,0.362000,0.331000,0.091000
1606790226858886443,0.900000,0.066000,0.060000,0.900000,0.363000,0.332000,0.091000
1606790227547180306,0.900000,0.066000,0.060000,0.900000,0.365000,0.334000,0.090000
1606790228261089963,0.900000,0.066000,0.060000,0.900000,0.364000,0.333000,0.091000
1606790229008441850,0.900000,0.066000,0.060000,0.900000,0.361000,0.330000,0.091000
1606790229742249433,0.900000,0.066000,0.060000,0.900000,0.362000,0.331000,0.091000
1606790230419607887,0.900000,0.066000,0.060000,0.900000,0.361000,0.330000,0.090000
1606790231097377798,0.900000,0.066000,0.060000,0.900000,0.363000,0.332000,0.090000
1606790231815762924,0.900000,0.066000,0.060000,0.900000,0.365000,0.334000,0.091000
1606790232540954705,0.900000,0.066000,0.060000,0.900000,0.362000,0.331000,0.091000
1606790233281345323,0.900000,0.066000,0.060000,0.900000,0.361000,0.330000,0.091000
1606790233973611787,0.900000,0.066000,0.060000,0.900000,0.361000,0.330000,0.091000
1606790234658365980,0.900000,0.066000,0.060000,0.900000,0.365000,0.334000,0.091000
1606790235424353812,0.900000,0.066000,0.060000,0.900000,0.364000,0.333000,0.091000
1606790236188408702,0.900000,0.066000,0.060000,0.900000,0.360000,0.329000,0.091000
1606790236904255356,0.900000,0.066000,0.060000,0.900000,0.361000,0.330000,0.091000
1606790237604677635,0.900000,0.066000,0.060000,0.900000,0.362000,0.331000,0.091000
1606790238315107544,0.900000,0.066000,0.060000,0.900000,0.365000,0.334000,0.091000
1606790239018507092,0.900000,0.066000,0.060000,0.900000,0.363000,0.332000,0.091000
1606790239769727300,0.900000,0.066000,0.060000,0.900000,0.363000,0.332000,0.091000
1606790240494250640,0.900000,0.066000,0.060000,0.900000,0.362000,0.331000,0.091000
1606790241193586391,0.900000,0.066000,0.060000,0.900000,0.361000,0.330000,0.091000
1606790241883231430,0.900000,0.066000,0.060000,0.900000,0.364000,0.333000,0.091000
1606790242601368324,0.900000,0.066000,0.060000,0.900000,0.362000,0.331000,0.091000
1606790243393453625,0.900000,0.066000,0.060000,0.900000,0.362000,0.331000,0.091000
1606790244133366680,0.900000,0.066000,0.060000,0.900000,0.361000,0.330000,0.091000
1606790244841978571,0.900000,0.066000,0.060000,0.900000,0.362000,0.331000,0.091000
1606790245574748894,0.900000,0.066000,0.060000,0.900000,0.365000,0.334000,0.091000
1606790246311083730,0.900000,0.066000,0.060000,0.900000,0.365000,0.334000,0.091000
1606790247042018320,0.900000,0.066000,0.060000,0.900000,0.361000,0.330000,0.091000
1606790247760479719,0.900000,0.066000,0.060000,0.900000,0.363000,0.332000,0.091000
1606790248459794732,0.900000,0.066000,0.060000,0.900000,0.364000,0.333000,0.091000
1606790249150162900,0.900000,0.066000,0.060000,0.900000,0.363000,0.332000,0.091000
1606790249904222641,0.900000,0.066000,0.060000,0.900000,0.361000,0.330000,0.091000
1606790250662864264,0.900000,0.066000,0.060000,0.900000,0.362000,0.331000,0.091000
1606790251354285219,0.900000,0.066000,0.060000,0.900000,0.362000,0.331000,0.091000
1606790252065169768,0.900000,0.066000,0.060000,0.900000,0.363000,0.332000,0.091000
1606790252807328485,0.900000,0.066000,0.060000,0.900000,0.363000,0.332000,0.091000
1606790253598085397,0.900000,0.066000,0.060000,0.900000,0.362000,0.331000,0.091000
1606790254358358095,0.900000,0.066000,0.060000,0.900000,0.361000,0.330000,0.091000
1606790255045536006,0.900000,0.066000,0.060000,0.900000,0.362000,0.331000,0.091000
1606790255780087746,0.900000,0.066000,0.060000,0.900000,0.365000,0.334000,0.091000
1606790256523896580,0.900000,0.066000,0.060000,0.900000,0.365000,0.334000,0.091000
1606790257253829901,0.900000,0.066000,0.060000,0.900000,0.360000,0.329000,0.091000
1606790258002932819,0.900000,0.066000,0.060000,0.900000,0.362000,0.331000,0.091000
1606790258658691778,0.900000,0.067000,0.061000,0.900000,0.364000,0.333000,0.091000
1606790259343033176,0.900000,0.066000,0.060000,0.900000,0.365000,0.334000,0.091000
1606790260091082231,0.900000,0.066000,0.060000,0.900000,0.361000,0.330000,0.091000
1606790260817032422,0.900000,0.066000,0.060000,0.900000,0.362000,0.331000,0.091000
1606790261555746013,0.900000,0.066000,0.060000,0.900000,0.363000,0.332000,0.091000
1606790262276608830,0.900000,0.066000,0.060000,0.900000,0.362000,0.331000,0.091000
1606790262965339198,0.900000,0.066000,0.060000,0.900000,0.363000,0.332000,0.091000
1606790263660547764,0.900000,0.066000,0.060000,0.900000,0.365000,0.334000,0.091000
1606790264365177964,0.900000,0.066000,0.060000,0.900000,0.363000,0.332000,0.091000
1606790265087103694,0.900000,0.066000,0.060000,0.900000,0.363000,0.332000,0.091000
1606790265816219368,0.900000,0.066000,0.060000,0.900000,0.363000,0.332000,0.091000
1606790266505306945,0.900000,0.066000,0.060000,0.900000,0.364000,0.333000,0.091000
1606790267221836054,0.900000,0.066000,0.060000,0.900000,0.362000,0.331000,0.091000
1606790267947195594,0.900000,0.066000,0.060000,0.900000,0.361000,0.330000,0.091000
1606790268704874752,0.900000,0.066000,0.060000,0.900000,0.363000,0.332000,0.091000
1606790269411910648,0.900000,0.066000,0.060000,0.900000,0.366000,0.335000,0.091000
1606790270113509714,0.900000,0.066000,0.060000,0.900000,0.364000,0.333000,0.091000
1606790270860033214,0.900000,0.066000,0.060000,0.900000,0.362000,0.331000,0.091000
1606790271625718145,0.900000,0.066000,0.060000,0.900000,0.362000,0.331000,0.091000
1606790272348200714,0.900000,0.066000,0.060000,0.900000,0.362000,0.331000,0.091000
1606790273052871510,0.900000,0.066000,0.060000,0.900000,0.364000,0.333000,0.091000
1606790273757323724,0.900000,0.066000,0.060000,0.900000,0.364000,0.333000,0.091000
1606790274484195136,0.900000,0.066000,0.060000,0.900000,0.362000,0.331000,0.091000
1606790275246677390,0.900000,0.066000,0.060000,0.900000,0.363000,0.332000,0.091000
1606790275949713994,0.900000,0.066000,0.060000,0.900000,0.360000,0.329000,0.091000
1606790276628840748,0.900000,0.066000,0.060000,0.900000,0.365000,0.334000,0.091000
1606790277340527660,0.900000,0.066000,0.060000,0.900000,0.365000,0.334000,0.091000
1606790278128113302,0.900000,0.067000,0.061000,0.900000,0.360000,0.329000,0.091000
1606790278897363549,0.900000,0.066000,0.060000,0.900000,0.361000,0.330000,0.091000
1606790279603133886,0.900000,0.066000,0.060000,0.900000,0.365000,0.334000,0.091000
1606790280315521630,0.900000,0.066000,0.060000,0.900000,0.365000,0.334000,0.091000
1606790281074968583,0.900000,0.066000,0.060000,0.900000,0.364000,0.333000,0.091000
1606790281828533459,0.900000,0.066000,0.060000,0.900000,0.360000,0.329000,0.091000
1606790282596221683,0.900000,0.066000,0.060000,0.900000,0.362000,0.331000,0.091000
1606790283297908849,0.900000,0.066000,0.060000,0.900000,0.364000,0.333000,0.090000
1606790284049599618,0.900000,0.066000,0.060000,0.900000,0.364000,0.333000,0.091000
1606790284770513717,0.900000,0.066000,0.060000,0.900000,0.363000,0.332000,0.091000
1606790285511298534,0.900000,0.066000,0.060000,0.900000,0.362000,0.331000,0.091000
1606790286193776398,0.900000,0.066000,0.060000,0.900000,0.362000,0.331000,0.091000
1606790286908474674,0.900000,0.066000,0.060000,0.900000,0.364000,0.333000,0.091000
1606790287638282831,0.900000,0.066000,0.060000,0.900000,0.364000,0.333000,0.091000
1606790288389656776,0.900000,0.066000,0.060000,0.900000,0.362000,0.331000,0.091000
1606790289134242150,0.900000,0.066000,0.060000,0.900000,0.361000,0.330000,0.091000
1606790289824751289,0.900000,0.066000,0.060000,0.900000,0.363000,0.332000,0.091000
1606790290531872089,0.900000,0.066000,0.060000,0.900000,0.365000,0.334000,0.091000
1606790291260925006,0.900000,0.066000,0.060000,0.900000,0.363000,0.332000,0.091000
1606790291980498000,0.900000,0.066000,0.060000,0.900000,0.361000,0.330000,0.091000
1606790292723377019,0.900000,0.066000,0.060000,0.900000,0.363000,0.332000,0.091000
1606790293422160222,0.900000,0.066000,0.060000,0.900000,0.363000,0.332000,0.091000
1606790294106182959,0.900000,0.066000,0.060000,0.900000,0.364000,0.333000,0.091000
1606790294865664307,0.900000,0.066000,0.060000,0.900000,0.360000,0.329000,0.091000
1606790295634845996,0.900000,0.066000,0.060000,0.900000,0.362000,0.331000,0.091000
1606790296386324117,0.900000,0.066000,0.060000,0.900000,0.363000,0.332000,0.091000
1606790297098899174,0.900000,0.066000,0.060000,0.900000,0.364000,0.333000,0.091000
1606790297805563445,0.900000,0.066000,0.060000,0.900000,0.365000,0.334000,0.091000
1606790298549723336,0.900000,0.066000,0.060000,0.900000,0.365000,0.334000,0.091000
1606790299289317514,0.900000,0.066000,0.060000,0.900000,0.362000,0.331000,0.091000
1606790300030609138,0.900000,0.066000,0.060000,0.900000,0.362000,0.331000,0.091000
1606790300696460820,0.900000,0.066000,0.060000,0.900000,0.364000,0.333000,0.091000
1606790301389564536,0.900000,0.066000,0.060000,0.900000,0.364000,0.333000,0.091000
1606790302135860082,0.900000,0.066000,0.060000,0.900000,0.364000,0.333000,0.091000
1606790302917059936,0.900000,0.066000,0.060000,0.900000,0.362000,0.331000,0.091000
1606790303650431253,0.900000,0.066000,0.060000,0.900000,0.363000,0.332000,0.091000
1606790304349657883,0.900000,0.067000,0.061000,0.900000,0.363000,0.332000,0.091000
1606790305080527513,0.900000,0.066000,0.060000,0.900000,0.363000,0.332000,0.091000
1606790305808953414,0.900000,0.066000,0.060000,0.900000,0.362000,0.331000,0.091000
1606790306565012514,0.900000,0.066000,0.060000,0.900000,0.362000,0.331000,0.091000
1606790307258388193,0.900000,0.066000,0.060000,0.900000,0.361000,0.330000,0.091000
1606790307944592806,0.900000,0.066000,0.060000,0.900000,0.364000,0.333000,0.091000
1606790308674179493,0.900000,0.066000,0.060000,0.900000,0.365000,0.334000,0.091000
1606790309430811550,0.900000,0.066000,0.060000,0.900000,0.362000,0.331000,0.091000
1606790310169533500,0.900000,0.066000,0.060000,0.900000,0.362000,0.331000,0.091000
1606790310861505862,0.900000,0.066000,0.060000,0.900000,0.361000,0.330000,0.091000
1606790311583750320,0.900000,0.066000,0.060000,0.900000,0.364000,0.333000,0.091000
1606790312296607894,0.900000,0.066000,0.060000,0.900000,0.363000,0.332000,0.090000
1606790313069342870,0.900000,0.066000,0.060000,0.900000,0.361000,0.330000,0.091000
1606790313787275573,0.900000,0.067000,0.061000,0.900000,0.362000,0.331000,0.091000
1606790314540274416,0.900000,0.066000,0.060000,0.900000,0.363000,0.332000,0.091000
1606790315231880578,0.900000,0.066000,0.060000,0.900000,0.363000,0.332000,0.091000
1606790315954665786,0.900000,0.066000,0.060000,0.900000,0.362000,0.331000,0.091000
1606790316715234197,0.900000,0.066000,0.060000,0.900000,0.363000,0.332000,0.091000
1606790317462383507,0.900000,0.066000,0.060000,0.900000,0.361000,0.330000,0.091000
1606790318160683953,0.900000,0.066000,0.060000,0.900000,0.361000,0.330000,0.091000
1606790318856667544,0.900000,0.066000,0.060000,0.900000,0.364000,0.333000,0.091000
1606790319616340633,0.900000,0.066000,0.060000,0.900000,0.365000,0.334000,0.091000
1606790320375051564,0.900000,0.066000,0.060000,0.900000,0.360000,0.329000,0.091000
1606790321117123668,0.900000,0.066000,0.060000,0.900000,0.361000,0.330000,0.091000
1606790321826473282,0.900000,0.066000,0.060000,0.900000,0.365000,0.334000,0.091000
1606790322526842009,0.900000,0.066000,0.060000,0.900000,0.364000,0.333000,0.091000
1606790323244806306,0.900000,0.066000,0.060000,0.900000,0.362000,0.331000,0.091000
1606790323913283745,0.900000,0.067000,0.061000,0.900000,0.361000,0.330000,0.091000
1606790324616012039,0.900000,0.066000,0.060000,0.900000,0.362000,0.331000,0.091000
1606790325340365164,0.900000,0.066000,0.060000,0.900000,0.364000,0.333000,0.091000
1606790326050657567,0.900000,0.066000,0.060000,0.900000,0.363000,0.332000,0.091000
1606790326757162460,0.900000,0.066000,0.060000,0.900000,0.363000,0.332000,0.091000
1606790327486675546,0.900000,0.066000,0.060000,0.900000,0.363000,0.332000,0.091000
1606790328166717440,0.900000,0.066000,0.060000,0.900000,0.360000,0.329000,0.091000
1606790328877012847,0.900000,0.066000,0.060000,0.900000,0.361000,0.330000,0.091000
1606790329590525104,0.900000,0.066000,0.060000,0.900000,0.364000,0.333000,0.091000
1606790330318366458,0.900000,0.066000,0.060000,0.900000,0.362000,0.331000,0.091000
1606790331011313129,0.900000,0.066000,0.060000,0.900000,0.361000,0.330000,0.091000
1606790331691385652,0.900000,0.066000,0.060000,0.900000,0.362000,0.331000,0.091000
1606790332381962551,0.900000,0.066000,0.060000,0.900000,0.365000,0.334000,0.091000
1606790333092972583,0.900000,0.066000,0.060000,0.900000,0.364000,0.333000,0.091000
1606790333807396754,0.900000,0.066000,0.060000,0.900000,0.360000,0.329000,0.091000
1606790334535593027,0.900000,0.066000,0.060000,0.900000,0.362000,0.331000,0.091000
1606790335226299846,0.900000,0.066000,0.060000,0.900000,0.363000,0.332000,0.091000
1606790335929786023,0.900000,0.066000,0.060000,0.900000,0.365000,0.334000,0.091000
1606790336613890353,0.900000,0.066000,0.060000,0.900000,0.364000,0.333000,0.091000
1606790337354996153,0.900000,0.066000,0.060000,0.900000,0.364000,0.333000,0.091000
1606790338086642070,0.900000,0.066000,0.060000,0.900000,0.362000,0.331000,0.091000
1606790338806079959,0.900000,0.066000,0.060000,0.900000,0.361000,0.330000,0.091000
1606790339523283866,0.900000,0.066000,0.060000,0.900000,0.365000,0.334000,0.091000
1606790340221374090,0.900000,0.066000,0.060000,0.900000,0.365000,0.334000,0.091000
1606790340940015738,0.900000,0.066000,0.060000,0.900000,0.358000,0.327000,0.091000
1606790341633503501,0.900000,0.066000,0.060000,0.900000,0.362000,0.331000,0.091000
1606790342344280753,0.900000,0.066000,0.060000,0.900000,0.361000,0.330000,0.091000
1606790343073751526,0.900000,0.066000,0.060000,0.900000,0.365000,0.334000,0.091000
1606790343798318298,0.900000,0.066000,0.060000,0.900000,0.365000,0.334000,0.091000
1606790344476536642,0.900000,0.066000,0.060000,0.900000,0.362000,0.331000,0.091000
1606790345171067692,0.900000,0.066000,0.060000,0.900000,0.363000,0.332000,0.091000
1606790345857308891,0.900000,0.066000,0.060000,0.900000,0.363000,0.332000,0.091000
1606790346575956587,0.900000,0.066000,0.060000,0.900000,0.363000,0.332000,0.091000
1606790347300838110,0.900000,0.066000,0.060000,0.900000,0.362000,0.331000,0.091000
1606790347976636269,0.900000,0.066000,0.060000,0.900000,0.363000,0.332000,0.091000
1606790348680223211,0.900000,0.066000,0.060000,0.900000,0.355000,0.325000,0.091000
1606790349394106989,0.900000,0.066000,0.060000,0.900000,0.361000,0.330000,0.091000
1606790350093544090,0.900000,0.066000,0.060000,0.900000,0.364000,0.333000,0.091000
1606790350797019035,0.900000,0.066000,0.060000,0.900000,0.364000,0.333000,0.091000
1606790351538261393,0.900000,0.066000,0.060000,0.900000,0.362000,0.331000,0.091000
1606790352238971486,0.900000,0.066000,0.060000,0.900000,0.360000,0.329000,0.091000
1606790352945649617,0.900000,0.066000,0.060000,0.900000,0.362000,0.331000,0.091000
1606790353636681163,0.900000,0.066000,0.060000,0.900000,0.364000,0.333000,0.091000
1606790354341881307,0.900000,0.066000,0.060000,0.900000,0.365000,0.334000,0.090000
1606790355037249945,0.900000,0.066000,0.060000,0.900000,0.362000,0.331000,0.091000
1606790355808351408,0.900000,0.066000,0.060000,0.900000,0.360000,0.329000,0.090000
1606790356514547922,0.900000,0.066000,0.060000,0.900000,0.351000,0.321000,0.091000
1606790357220867893,0.900000,0.066000,0.060000,0.900000,0.363000,0.332000,0.091000
1606790357922365154,0.900000,0.066000,0.060000,0.900000,0.363000,0.332000,0.091000
1606790358640084871,0.900000,0.066000,0.060000,0.900000,0.364000,0.333000,0.091000
1606790359380701119,0.900000,0.066000,0.060000,0.900000,0.362000,0.331000,0.091000
1606790360085765687,0.900000,0.066000,0.060000,0.900000,0.361000,0.330000,0.091000
1606790360784993927,0.900000,0.066000,0.060000,0.900000,0.364000,0.333000,0.091000
1606790361510388213,0.900000,0.066000,0.060000,0.900000,0.365000,0.333000,0.091000
1606790362217260186,0.900000,0.066000,0.060000,0.900000,0.361000,0.330000,0.091000
1606790362948936717,0.900000,0.066000,0.060000,0.900000,0.360000,0.329000,0.091000
1606790363658898834,0.900000,0.066000,0.060000,0.900000,0.363000,0.332000,0.091000
1606790364339355266,0.900000,0.066000,0.060000,0.900000,0.365000,0.334000,0.091000
1606790365071014299,0.900000,0.066000,0.060000,0.900000,0.363000,0.332000,0.091000
1606790365828984877,0.900000,0.066000,0.060000,0.900000,0.361000,0.330000,0.091000
1606790366544676203,0.900000,0.066000,0.060000,0.900000,0.361000,0.330000,0.091000
1606790367219443267,0.900000,0.066000,0.060000,0.900000,0.362000,0.331000,0.091000
1606790367931009835,0.900000,0.066000,0.060000,0.900000,0.363000,0.332000,0.091000
1606790368646037168,0.900000,0.066000,0.060000,0.900000,0.365000,0.334000,0.091000
1606790369356689912,0.900000,0.066000,0.060000,0.900000,0.361000,0.330000,0.091000
1606790370086200342,0.900000,0.066000,0.060000,0.900000,0.362000,0.331000,0.091000
1606790370842380732,0.900000,0.066000,0.060000,0.900000,0.360000,0.329000,0.091000
1606790371563503189,0.900000,0.066000,0.060000,0.900000,0.365000,0.333000,0.091000
1606790372266643411,0.900000,0.066000,0.060000,0.900000,0.364000,0.333000,0.091000
1606790372982145579,0.900000,0.066000,0.060000,0.900000,0.360000,0.329000,0.091000
1606790373710602897,0.900000,0.066000,0.060000,0.900000,0.362000,0.331000,0.091000
1606790374411414640,0.900000,0.066000,0.060000,0.900000,0.365000,0.334000,0.091000
1606790375109192865,0.900000,0.066000,0.060000,0.900000,0.364000,0.333000,0.091000
1606790375854411680,0.900000,0.066000,0.060000,0.900000,0.363000,0.332000,0.091000
1606790376578666409,0.900000,0.066000,0.060000,0.900000,0.362000,0.331000,0.091000
1606790377282030719,0.900000,0.066000,0.060000,0.900000,0.363000,0.332000,0.091000
1606790378000639660,0.900000,0.066000,0.060000,0.900000,0.362000,0.331000,0.091000
1606790378684474332,0.900000,0.066000,0.060000,0.900000,0.363000,0.332000,0.091000
1606790379414561768,0.900000,0.066000,0.060000,0.900000,0.361000,0.330000,0.091000
1606790380129822947,0.900000,0.066000,0.060000,0.900000,0.362000,0.331000,0.091000
1606790380862881487,0.900000,0.066000,0.060000,0.900000,0.360000,0.329000,0.091000
1606790381555209804,0.900000,0.066000,0.060000,0.900000,0.364000,0.333000,0.091000
1606790382263142208,0.900000,0.066000,0.060000,0.900000,0.365000,0.334000,0.091000
1606790382982823688,0.900000,0.066000,0.060000,0.900000,0.363000,0.332000,0.091000
1606790383689091274,0.900000,0.066000,0.060000,0.900000,0.361000,0.330000,0.091000
1606790384367133122,0.900000,0.066000,0.060000,0.900000,0.362000,0.331000,0.090000
1606790385098561596,0.900000,0.066000,0.060000,0.900000,0.363000,0.332000,0.091000
1606790385809039068,0.900000,0.066000,0.060000,0.900000,0.364000,0.333000,0.091000
1606790386507090137,0.900000,0.067000,0.061000,0.900000,0.362000,0.331000,0.091000
1606790387195435366,0.900000,0.065000,0.059000,0.900000,0.345000,0.316000,0.091000
1606790387903151612,0.900000,0.067000,0.061000,0.900000,0.362000,0.331000,0.091000
1606790388606874848,0.900000,0.066000,0.060000,0.900000,0.364000,0.333000,0.091000
1606790389304536006,0.900000,0.066000,0.060000,0.900000,0.363000,0.332000,0.091000
1606790390048249891,0.900000,0.066000,0.060000,0.900000,0.363000,0.332000,0.091000
1606790390756226554,0.900000,0.066000,0.060000,0.900000,0.363000,0.332000,0.091000
1606790391445645154,0.900000,0.066000,0.060000,0.900000,0.361000,0.330000,0.091000
1606790392152061456,0.900000,0.066000,0.060000,0.900000,0.364000,0.333000,0.091000
1606790392845279528,0.900000,0.066000,0.060000,0.900000,0.365000,0.334000,0.090000
1606790393540994248,0.900000,0.067000,0.061000,0.900000,0.364000,0.333000,0.091000
1606790394227296292,0.900000,0.066000,0.060000,0.900000,0.360000,0.329000,0.091000
1606790394930358790,0.900000,0.066000,0.060000,0.900000,0.360000,0.329000,0.091000
1606790395600420420,0.900000,0.066000,0.060000,0.900000,0.364000,0.333000,0.090000
1606790396323418139,0.900000,0.066000,0.060000,0.900000,0.365000,0.334000,0.091000
1606790397045599032,0.900000,0.066000,0.060000,0.900000,0.361000,0.330000,0.091000
1606790397778981797,0.900000,0.066000,0.060000,0.900000,0.361000,0.330000,0.091000
1606790398466573794,0.900000,0.066000,0.060000,0.900000,0.362000,0.331000,0.090000
1606790399166021866,0.900000,0.066000,0.060000,0.900000,0.363000,0.332000,0.091000
1606790399850668887,0.900000,0.066000,0.060000,0.900000,0.364000,0.333000,0.091000
1606790400583675783,0.900000,0.066000,0.060000,0.900000,0.364000,0.333000,0.090000
1606790401280430712,0.900000,0.066000,0.060000,0.900000,0.362000,0.331000,0.091000
1606790402000458335,0.900000,0.066000,0.060000,0.900000,0.361000,0.330000,0.091000
1606790402686261725,0.900000,0.066000,0.060000,0.900000,0.354000,0.324000,0.091000
1606790403391886504,0.900000,0.066000,0.060000,0.900000,0.364000,0.333000,0.090000
1606790404139324417,0.900000,0.066000,0.060000,0.900000,0.364000,0.333000,0.091000
1606790404846060480,0.900000,0.066000,0.060000,0.900000,0.361000,0.330000,0.091000
1606790405555193026,0.900000,0.066000,0.060000,0.900000,0.362000,0.331000,0.091000
1606790406234914383,0.900000,0.066000,0.060000,0.900000,0.364000,0.333000,0.091000
1606790406904827442,0.900000,0.066000,0.060000,0.900000,0.365000,0.334000,0.091000
1606790407611184428,0.900000,0.066000,0.060000,0.900000,0.359000,0.328000,0.091000
1606790408341891100,0.900000,0.066000,0.060000,0.900000,0.361000,0.330000,0.091000
1606790409070404124,0.900000,0.066000,0.060000,0.900000,0.362000,0.331000,0.091000
1606790409781497784,0.900000,0.066000,0.060000,0.900000,0.363000,0.332000,0.091000
1606790410509611396,0.900000,0.066000,0.060000,0.900000,0.364000,0.333000,0.091000
1606790411184184506,0.900000,0.066000,0.060000,0.900000,0.362000,0.331000,0.091000
1606790411900521294,0.900000,0.066000,0.060000,0.900000,0.362000,0.331000,0.091000
1606790412604112098,0.900000,0.066000,0.060000,0.900000,0.360000,0.329000,0.091000
1606790413296540531,0.900000,0.066000,0.060000,0.900000,0.364000,0.333000,0.091000
1606790414033332496,0.900000,0.066000,0.060000,0.900000,0.365000,0.334000,0.091000
1606790414743850499,0.900000,0.066000,0.060000,0.900000,0.362000,0.331000,0.091000
1606790415459809960,0.900000,0.066000,0.060000,0.900000,0.360000,0.329000,0.091000
1606790416134646032,0.900000,0.066000,0.060000,0.900000,0.362000,0.331000,0.091000
1606790416840718779,0.900000,0.066000,0.060000,0.900000,0.364000,0.333000,0.091000
1606790417568698858,0.900000,0.066000,0.060000,0.900000,0.364000,0.333000,0.091000
1606790418278378204,0.900000,0.066000,0.060000,0.900000,0.361000,0.330000,0.091000
1606790418969272029,0.900000,0.066000,0.060000,0.900000,0.363000,0.332000,0.091000
1606790419660854225,0.900000,0.066000,0.060000,0.900000,0.362000,0.331000,0.091000
1606790420362775675,0.900000,0.066000,0.060000,0.900000,0.364000,0.333000,0.091000
1606790421089634266,0.900000,0.066000,0.060000,0.900000,0.364000,0.333000,0.091000
1606790421802078261,0.900000,0.066000,0.060000,0.900000,0.362000,0.331000,0.091000
1606790422495163823,0.900000,0.066000,0.060000,0.900000,0.361000,0.330000,0.091000
1606790423160433351,0.900000,0.066000,0.060000,0.900000,0.362000,0.331000,0.091000
1606790423844263985,0.900000,0.066000,0.060000,0.900000,0.364000,0.333000,0.091000
1606790424530982474,0.900000,0.066000,0.060000,0.900000,0.365000,0.334000,0.091000
1606790425226604769,0.900000,0.066000,0.060000,0.900000,0.362000,0.331000,0.091000
1606790425958888240,0.900000,0.066000,0.060000,0.900000,0.360000,0.329000,0.091000
1606790426633594323,0.900000,0.067000,0.061000,0.900000,0.361000,0.330000,0.091000
1606790427350326124,0.900000,0.066000,0.060000,0.900000,0.365000,0.334000,0.091000
1606790428090463828,0.900000,0.066000,0.060000,0.900000,0.364000,0.333000,0.091000
1606790428787028245,0.900000,0.066000,0.060000,0.900000,0.361000,0.330000,0.091000
1606790429505104662,0.900000,0.066000,0.060000,0.900000,0.362000,0.331000,0.091000
1606790430193351894,0.900000,0.066000,0.060000,0.900000,0.362000,0.331000,0.091000
1606790430866174329,0.900000,0.066000,0.060000,0.900000,0.363000,0.332000,0.091000
1606790431599892087,0.900000,0.066000,0.060000,0.900000,0.364000,0.333000,0.091000
1606790432339816006,0.900000,0.066000,0.060000,0.900000,0.362000,0.331000,0.091000
1606790433064820665,0.900000,0.066000,0.060000,0.900000,0.363000,0.332000,0.091000
1606790433795392075,0.900000,0.066000,0.060000,0.900000,0.360000,0.329000,0.091000
1606790434478378893,0.900000,0.066000,0.060000,0.900000,0.364000,0.333000,0.091000
1606790435189797618,0.900000,0.066000,0.060000,0.900000,0.365000,0.334000,0.091000
1606790435912995836,0.900000,0.066000,0.060000,0.900000,0.360000,0.329000,0.091000
1606790436636831383,0.900000,0.066000,0.060000,0.900000,0.359000,0.328000,0.091000
1606790437329804794,0.900000,0.066000,0.060000,0.900000,0.362000,0.331000,0.091000
1606790438041034065,0.900000,0.066000,0.060000,0.900000,0.364000,0.333000,0.091000
1606790438766036356,0.900000,0.066000,0.060000,0.900000,0.364000,0.333000,0.091000
1606790439470361640,0.900000,0.066000,0.060000,0.900000,0.361000,0.330000,0.091000
1606790440174336135,0.900000,0.066000,0.060000,0.900000,0.363000,0.332000,0.091000
1606790440880573239,0.900000,0.066000,0.060000,0.900000,0.362000,0.331000,0.091000
1606790441575267432,0.900000,0.066000,0.060000,0.900000,0.363000,0.332000,0.091000
1606790442286300834,0.900000,0.066000,0.060000,0.900000,0.363000,0.332000,0.091000
1606790443014353563,0.900000,0.066000,0.060000,0.900000,0.362000,0.331000,0.091000
1606790443719344555,0.900000,0.067000,0.061000,0.900000,0.362000,0.331000,0.091000
1606790444395251395,0.900000,0.066000,0.060000,0.900000,0.360000,0.329000,0.091000
1606790445096415709,0.900000,0.066000,0.060000,0.900000,0.364000,0.333000,0.091000
1606790445853033347,0.900000,0.067000,0.061000,0.900000,0.363000,0.332000,0.091000
1606790446596396171,0.900000,0.066000,0.060000,0.900000,0.361000,0.330000,0.091000
1606790447331220769,0.900000,0.066000,0.060000,0.900000,0.361000,0.330000,0.091000
1606790448005874998,0.900000,0.066000,0.060000,0.900000,0.365000,0.333000,0.091000
1606790448706437820,0.900000,0.066000,0.060000,0.900000,0.364000,0.333000,0.091000
1606790449438175986,0.900000,0.066000,0.060000,0.900000,0.362000,0.331000,0.091000
1606790450173833248,0.900000,0.066000,0.060000,0.900000,0.362000,0.331000,0.091000
1606790450862057458,0.900000,0.066000,0.060000,0.900000,0.362000,0.331000,0.091000
1606790451573609032,0.900000,0.066000,0.060000,0.900000,0.362000,0.331000,0.091000
1606790452279091361,0.900000,0.066000,0.060000,0.900000,0.362000,0.331000,0.091000
1606790452969633055,0.900000,0.067000,0.061000,0.900000,0.363000,0.332000,0.091000
1606790453708728127,0.900000,0.066000,0.060000,0.900000,0.361000,0.330000,0.091000
1606790454403227710,0.900000,0.067000,0.061000,0.900000,0.362000,0.331000,0.091000
1606790455107074595,0.900000,0.066000,0.060000,0.900000,0.364000,0.333000,0.091000
1606790455808821873,0.900000,0.066000,0.060000,0.900000,0.365000,0.334000,0.091000
1606790456540150383,0.900000,0.066000,0.060000,0.900000,0.363000,0.332000,0.091000
1606790457220605576,0.900000,0.066000,0.060000,0.900000,0.361000,0.330000,0.091000
1606790457912273100,0.900000,0.066000,0.060000,0.900000,0.361000,0.330000,0.091000
1606790458594012534,0.900000,0.066000,0.060000,0.900000,0.365000,0.334000,0.091000
1606790459304357457,0.900000,0.066000,0.060000,0.900000,0.364000,0.333000,0.091000
1606790460027120078,0.900000,0.066000,0.060000,0.900000,0.363000,0.332000,0.091000
1606790460751149189,0.900000,0.066000,0.060000,0.900000,0.360000,0.329000,0.091000
1606790461416406836,0.900000,0.066000,0.060000,0.900000,0.362000,0.331000,0.091000
1606790462114539355,0.900000,0.067000,0.061000,0.900000,0.363000,0.332000,0.091000
1606790462846684657,0.900000,0.066000,0.060000,0.900000,0.363000,0.332000,0.091000
1606790463555341264,0.900000,0.066000,0.060000,0.900000,0.362000,0.331000,0.091000
1606790464291469161,0.900000,0.066000,0.060000,0.900000,0.360000,0.329000,0.091000
1606790464986998579,0.900000,0.066000,0.060000,0.900000,0.359000,0.328000,0.091000
1606790465671037252,0.900000,0.066000,0.060000,0.900000,0.364000,0.333000,0.091000
1606790466353505562,0.900000,0.066000,0.060000,0.900000,0.365000,0.334000,0.091000
1606790467083174553,0.900000,0.066000,0.060000,0.900000,0.362000,0.331000,0.091000
1606790467806719592,0.900000,0.066000,0.060000,0.900000,0.360000,0.329000,0.091000
1606790468534110352,0.900000,0.066000,0.060000,0.900000,0.361000,0.330000,0.091000
1606790469251328982,0.900000,0.066000,0.060000,0.900000,0.363000,0.332000,0.091000
1606790469930568946,0.900000,0.066000,0.060000,0.900000,0.364000,0.333000,0.091000
1606790470615100994,0.900000,0.066000,0.060000,0.900000,0.364000,0.333000,0.091000
1606790471344246535,0.900000,0.067000,0.061000,0.900000,0.361000,0.330000,0.091000
1606790472039270880,0.900000,0.066000,0.060000,0.900000,0.362000,0.331000,0.091000
1606790472732180741,0.900000,0.066000,0.060000,0.900000,0.364000,0.333000,0.091000
1606790473439381994,0.900000,0.066000,0.060000,0.900000,0.364000,0.333000,0.091000
1606790474134303632,0.900000,0.066000,0.060000,0.900000,0.363000,0.332000,0.091000
1606790474860713448,0.900000,0.066000,0.060000,0.900000,0.363000,0.332000,0.091000
1606790475575956641,0.900000,0.066000,0.060000,0.900000,0.360000,0.329000,0.091000
1606790476259987115,0.900000,0.066000,0.060000,0.900000,0.364000,0.333000,0.091000
1606790476956821991,0.900000,0.066000,0.060000,0.900000,0.364000,0.333000,0.091000
1606790477676897275,0.900000,0.066000,0.060000,0.900000,0.363000,0.332000,0.091000
1606790478384811901,0.900000,0.066000,0.060000,0.900000,0.362000,0.331000,0.091000
1606790479111338844,0.900000,0.066000,0.060000,0.900000,0.361000,0.330000,0.091000
1606790479827036663,0.900000,0.066000,0.060000,0.900000,0.363000,0.332000,0.091000
1606790480544101930,0.900000,0.066000,0.060000,0.900000,0.364000,0.333000,0.091000
1606790481236612510,0.900000,0.066000,0.060000,0.900000,0.360000,0.329000,0.091000
1606790481958946572,0.900000,0.066000,0.060000,0.900000,0.361000,0.330000,0.091000
1606790482673830274,0.900000,0.067000,0.061000,0.900000,0.362000,0.331000,0.091000
1606790483354474322,0.900000,0.066000,0.060000,0.900000,0.363000,0.332000,0.091000
1606790484116142960,0.900000,0.066000,0.060000,0.900000,0.364000,0.333000,0.091000
1606790484856913091,0.900000,0.066000,0.060000,0.900000,0.362000,0.331000,0.091000
1606790485603275889,0.900000,0.066000,0.060000,0.900000,0.361000,0.330000,0.091000
1606790486312185141,0.900000,0.066000,0.060000,0.900000,0.362000,0.331000,0.091000
1606790487006785752,0.900000,0.066000,0.060000,0.900000,0.364000,0.333000,0.091000
1606790487714109641,0.900000,0.066000,0.060000,0.900000,0.365000,0.334000,0.091000
1606790488449212070,0.900000,0.066000,0.060000,0.900000,0.361000,0.330000,0.091000
1606790489136887486,0.900000,0.066000,0.060000,0.900000,0.361000,0.330000,0.091000
1606790489852195191,0.900000,0.066000,0.060000,0.900000,0.361000,0.330000,0.091000
1606790490553322298,0.900000,0.066000,0.060000,0.900000,0.365000,0.334000,0.091000
1606790491269899870,0.900000,0.066000,0.060000,0.900000,0.363000,0.332000,0.091000
1606790491972221468,0.900000,0.066000,0.060000,0.900000,0.360000,0.329000,0.091000
1606790492668792653,0.900000,0.066000,0.060000,0.900000,0.362000,0.331000,0.091000
1606790493377007874,0.900000,0.066000,0.060000,0.900000,0.364000,0.333000,0.091000
1606790494085322012,0.900000,0.066000,0.060000,0.900000,0.362000,0.331000,0.091000
1606790494795341012,0.900000,0.066000,0.060000,0.900000,0.362000,0.331000,0.091000
1606790495501102379,0.900000,0.066000,0.060000,0.900000,0.362000,0.331000,0.091000
1606790496189971542,0.900000,0.067000,0.061000,0.900000,0.362000,0.331000,0.091000
1606790496884921618,0.900000,0.066000,0.060000,0.900000,0.361000,0.330000,0.091000
1606790497603913427,0.900000,0.066000,0.060000,0.900000,0.364000,0.333000,0.091000
1606790498340627769,0.900000,0.066000,0.060000,0.900000,0.365000,0.334000,0.091000
1606790499047360548,0.900000,0.067000,0.061000,0.900000,0.362000,0.331000,0.091000
1606790499749724986,0.900000,0.066000,0.060000,0.900000,0.361000,0.330000,0.091000
1606790500444709357,0.900000,0.067000,0.061000,0.900000,0.361000,0.330000,0.091000
1606790501151169265,0.900000,0.066000,0.060000,0.900000,0.364000,0.333000,0.091000
1606790501860259529,0.900000,0.066000,0.060000,0.900000,0.361000,0.330000,0.091000
1606790502581663283,0.900000,0.066000,0.060000,0.900000,0.359000,0.328000,0.091000
1606790503291228169,0.900000,0.066000,0.060000,0.900000,0.362000,0.331000,0.091000
1606790503956899849,0.900000,0.066000,0.060000,0.900000,0.365000,0.334000,0.091000
1606790504645003066,0.900000,0.066000,0.060000,0.900000,0.364000,0.333000,0.091000
1606790505364025674,0.900000,0.066000,0.060000,0.900000,0.363000,0.332000,0.091000
1606790506095122149,0.900000,0.066000,0.060000,0.900000,0.362000,0.331000,0.091000
1606790506801173190,0.900000,0.066000,0.060000,0.900000,0.361000,0.330000,0.091000
1606790507498077677,0.900000,0.066000,0.060000,0.900000,0.362000,0.331000,0.091000
1606790508168001744,0.900000,0.066000,0.060000,0.900000,0.365000,0.334000,0.091000
1606790508862775748,0.900000,0.066000,0.060000,0.900000,0.365000,0.334000,0.091000
1606790509585431124,0.900000,0.066000,0.060000,0.900000,0.362000,0.331000,0.091000
1606790510298592864,0.900000,0.066000,0.060000,0.900000,0.361000,0.330000,0.091000
1606790510984813226,0.900000,0.066000,0.060000,0.900000,0.363000,0.332000,0.091000
1606790511671924666,0.900000,0.066000,0.060000,0.900000,0.364000,0.333000,0.091000
1606790512366468341,0.900000,0.066000,0.060000,0.900000,0.364000,0.333000,0.091000
1606790513113671325,0.900000,0.066000,0.060000,0.900000,0.362000,0.331000,0.091000
1606790513844175395,0.900000,0.066000,0.060000,0.900000,0.362000,0.331000,0.091000
1606790514566152780,0.900000,0.066000,0.060000,0.900000,0.364000,0.333000,0.091000
1606790515283386410,0.900000,0.066000,0.060000,0.900000,0.364000,0.333000,0.091000
1606790516009077643,0.900000,0.066000,0.060000,0.900000,0.365000,0.334000,0.091000
1606790516708556493,0.900000,0.067000,0.061000,0.900000,0.362000,0.331000,0.091000
1606790517396903928,0.900000,0.066000,0.060000,0.900000,0.363000,0.332000,0.091000
1606790518107789526,0.900000,0.066000,0.060000,0.900000,0.363000,0.332000,0.091000
1606790518801848252,0.900000,0.066000,0.060000,0.900000,0.364000,0.333000,0.091000
1606790519571981067,0.900000,0.066000,0.060000,0.900000,0.363000,0.332000,0.091000
1606790520330624804,0.900000,0.066000,0.060000,0.900000,0.362000,0.331000,0.091000
1606790521025613066,0.900000,0.066000,0.060000,0.900000,0.361000,0.330000,0.091000
1606790521714962914,0.900000,0.066000,0.060000,0.900000,0.365000,0.334000,0.091000
1606790522394576419,0.900000,0.066000,0.060000,0.900000,0.365000,0.334000,0.091000
1606790523128355555,0.900000,0.066000,0.060000,0.900000,0.361000,0.330000,0.091000
1606790523835234855,0.900000,0.066000,0.060000,0.900000,0.362000,0.331000,0.091000
1606790524561119636,0.900000,0.066000,0.060000,0.900000,0.362000,0.331000,0.091000
1606790525256517107,0.900000,0.066000,0.060000,0.900000,0.365000,0.334000,0.091000
1606790525958235072,0.900000,0.066000,0.060000,0.900000,0.364000,0.333000,0.091000
1606790526646077769,0.900000,0.066000,0.060000,0.900000,0.362000,0.331000,0.091000
1606790527363851738,0.900000,0.066000,0.060000,0.900000,0.362000,0.331000,0.091000
1606790528112971304,0.900000,0.066000,0.060000,0.900000,0.362000,0.331000,0.091000
1606790528828997163,0.900000,0.066000,0.060000,0.900000,0.363000,0.332000,0.091000
1606790529534557269,0.900000,0.067000,0.061000,0.900000,0.365000,0.334000,0.091000
1606790530261079634,0.900000,0.066000,0.060000,0.900000,0.363000,0.332000,0.091000
1606790530959845584,0.900000,0.066000,0.060000,0.900000,0.360000,0.329000,0.091000
1606790531639924885,0.900000,0.066000,0.060000,0.900000,0.362000,0.331000,0.091000
1606790532346468944,0.900000,0.066000,0.060000,0.900000,0.366000,0.335000,0.091000
1606790533080457004,0.900000,0.066000,0.060000,0.900000,0.365000,0.334000,0.091000
1606790533771476682,0.900000,0.066000,0.060000,0.900000,0.361000,0.330000,0.091000
1606790534480571515,0.900000,0.066000,0.060000,0.900000,0.362000,0.331000,0.091000
1606790535159094081,0.900000,0.066000,0.060000,0.900000,0.362000,0.331000,0.091000
1606790535853754983,0.900000,0.066000,0.060000,0.900000,0.364000,0.333000,0.091000
1606790536592130596,0.900000,0.066000,0.060000,0.900000,0.365000,0.334000,0.091000
1606790537328910347,0.900000,0.066000,0.060000,0.900000,0.363000,0.332000,0.091000
1606790538034865248,0.900000,0.066000,0.060000,0.900000,0.363000,0.332000,0.091000
1606790538761408744,0.900000,0.066000,0.060000,0.900000,0.363000,0.332000,0.091000
1606790539460410575,0.900000,0.066000,0.060000,0.900000,0.363000,0.332000,0.091000
1606790540168948875,0.900000,0.066000,0.060000,0.900000,0.365000,0.334000,0.091000
1606790540863964654,0.900000,0.066000,0.060000,0.900000,0.362000,0.331000,0.091000
1606790541599260544,0.900000,0.066000,0.060000,0.900000,0.361000,0.330000,0.091000
1606790542309523333,0.900000,0.066000,0.060000,0.900000,0.361000,0.330000,0.091000
1606790542999052197,0.900000,0.066000,0.060000,0.900000,0.365000,0.334000,0.091000
1606790543691900619,0.900000,0.066000,0.060000,0.900000,0.365000,0.334000,0.091000
1606790544381382234,0.900000,0.066000,0.060000,0.900000,0.362000,0.331000,0.091000
1606790545113676692,0.900000,0.066000,0.060000,0.900000,0.360000,0.329000,0.091000
1606790545823985108,0.900000,0.066000,0.060000,0.900000,0.362000,0.331000,0.091000
1606790546526468043,0.900000,0.066000,0.060000,0.900000,0.365000,0.334000,0.090000
1606790547274056012,0.900000,0.066000,0.060000,0.900000,0.363000,0.332000,0.091000
1606790547968699174,0.900000,0.066000,0.060000,0.900000,0.361000,0.330000,0.091000
1606790548679860295,0.900000,0.066000,0.060000,0.900000,0.362000,0.331000,0.091000
1606790549366470143,0.900000,0.066000,0.060000,0.900000,0.362000,0.331000,0.091000
1606790550093330355,0.900000,0.066000,0.060000,0.900000,0.364000,0.333000,0.091000
1606790550829819369,0.900000,0.066000,0.060000,0.900000,0.364000,0.333000,0.091000
1606790551557937573,0.900000,0.066000,0.060000,0.900000,0.362000,0.331000,0.091000
1606790552286526523,0.900000,0.066000,0.060000,0.900000,0.361000,0.330000,0.091000
1606790553016434255,0.900000,0.066000,0.060000,0.900000,0.361000,0.330000,0.091000
1606790553715028517,0.900000,0.066000,0.060000,0.900000,0.364000,0.333000,0.091000
1606790554422327880,0.900000,0.066000,0.060000,0.900000,0.364000,0.333000,0.091000
1606790555153876727,0.900000,0.066000,0.060000,0.900000,0.361000,0.330000,0.091000
1606790555882091183,0.900000,0.066000,0.060000,0.900000,0.361000,0.330000,0.091000
1606790556596801491,0.900000,0.066000,0.060000,0.900000,0.364000,0.333000,0.091000
1606790557325443570,0.900000,0.066000,0.060000,0.900000,0.364000,0.333000,0.091000
1606790558065216566,0.900000,0.066000,0.060000,0.900000,0.362000,0.331000,0.091000
1606790558802816995,0.900000,0.066000,0.060000,0.900000,0.363000,0.332000,0.091000
1606790559520676574,0.900000,0.066000,0.060000,0.900000,0.362000,0.331000,0.091000
1606790560224325052,0.900000,0.066000,0.060000,0.900000,0.363000,0.332000,0.091000
1606790560909007174,0.900000,0.066000,0.060000,0.900000,0.364000,0.333000,0.091000
1606790561614094310,0.900000,0.066000,0.060000,0.900000,0.362000,0.331000,0.091000
1606790562349451134,0.900000,0.066000,0.060000,0.900000,0.363000,0.332000,0.091000
1606790563056257215,0.900000,0.066000,0.060000,0.900000,0.360000,0.329000,0.091000
1606790563762071930,0.900000,0.066000,0.060000,0.900000,0.364000,0.333000,0.091000
1606790564458454092,0.900000,0.066000,0.060000,0.900000,0.365000,0.334000,0.091000
1606790565166764330,0.900000,0.066000,0.060000,0.900000,0.363000,0.332000,0.091000
1606790565880432279,0.900000,0.066000,0.060000,0.900000,0.362000,0.331000,0.091000
1606790566580899787,0.900000,0.066000,0.060000,0.900000,0.363000,0.332000,0.091000
1606790567315515370,0.900000,0.066000,0.060000,0.900000,0.365000,0.333000,0.091000
1606790568006139911,0.900000,0.066000,0.060000,0.900000,0.363000,0.332000,0.091000
1606790568744586800,0.900000,0.066000,0.060000,0.900000,0.361000,0.330000,0.091000
1606790569433889144,0.900000,0.066000,0.060000,0.900000,0.363000,0.332000,0.091000
1606790570110332335,0.900000,0.066000,0.060000,0.900000,0.362000,0.331000,0.091000
1606790570884024294,0.900000,0.066000,0.060000,0.900000,0.364000,0.333000,0.091000
1606790571579926881,0.900000,0.066000,0.060000,0.900000,0.364000,0.333000,0.091000
1606790572322064787,0.900000,0.066000,0.060000,0.900000,0.364000,0.333000,0.091000
1606790573020023360,0.900000,0.066000,0.060000,0.900000,0.362000,0.331000,0.091000
1606790573734080395,0.900000,0.066000,0.060000,0.900000,0.362000,0.331000,0.091000
1606790574387163140,0.900000,0.066000,0.060000,0.900000,0.365000,0.334000,0.091000
1606790575115578568,0.900000,0.066000,0.060000,0.900000,0.365000,0.334000,0.091000
1606790575836340305,0.900000,0.066000,0.060000,0.900000,0.361000,0.330000,0.091000
1606790576580838488,0.900000,0.066000,0.060000,0.900000,0.362000,0.331000,0.091000
1606790577296482764,0.900000,0.067000,0.061000,0.900000,0.362000,0.331000,0.091000
1606790577986740357,0.900000,0.066000,0.060000,0.900000,0.365000,0.334000,0.091000
1606790578693745824,0.900000,0.066000,0.060000,0.900000,0.363000,0.332000,0.091000
1606790579418502283,0.900000,0.066000,0.060000,0.900000,0.361000,0.330000,0.091000
1606790580117184939,0.900000,0.067000,0.061000,0.900000,0.362000,0.331000,0.091000
1606790580820658060,0.900000,0.066000,0.060000,0.900000,0.362000,0.331000,0.091000
1606790581526338122,0.900000,0.066000,0.060000,0.900000,0.363000,0.332000,0.091000
1606790582249854760,0.900000,0.066000,0.060000,0.900000,0.364000,0.333000,0.091000
1606790582936487050,0.900000,0.066000,0.060000,0.900000,0.362000,0.331000,0.091000
1606790583661263721,0.900000,0.066000,0.060000,0.900000,0.362000,0.331000,0.091000
1606790584350695574,0.900000,0.066000,0.060000,0.900000,0.362000,0.331000,0.091000
1606790585088674772,0.900000,0.066000,0.060000,0.900000,0.365000,0.333000,0.091000
1606790585803851224,0.900000,0.066000,0.060000,0.900000,0.364000,0.333000,0.091000
1606790586525120715,0.900000,0.066000,0.060000,0.900000,0.361000,0.330000,0.091000
1606790587210753850,0.900000,0.066000,0.060000,0.900000,0.362000,0.331000,0.091000
1606790587865712965,0.900000,0.066000,0.060000,0.900000,0.364000,0.333000,0.091000
1606790588603208252,0.900000,0.066000,0.060000,0.900000,0.365000,0.334000,0.091000
1606790589336403655,0.900000,0.066000,0.060000,0.900000,0.364000,0.333000,0.091000
1606790590086821221,0.900000,0.066000,0.060000,0.900000,0.362000,0.331000,0.091000
1606790590825514251,0.900000,0.066000,0.060000,0.900000,0.363000,0.332000,0.091000
1606790591560790224,0.900000,0.066000,0.060000,0.900000,0.362000,0.331000,0.091000
1606790592269660187,0.900000,0.066000,0.060000,0.900000,0.363000,0.332000,0.090000
1606790592971790243,0.900000,0.066000,0.060000,0.900000,0.365000,0.334000,0.091000
1606790593695722803,0.900000,0.066000,0.060000,0.900000,0.363000,0.332000,0.091000
1606790594411071802,0.900000,0.066000,0.060000,0.900000,0.362000,0.331000,0.091000
1606790595115733924,0.900000,0.066000,0.060000,0.900000,0.362000,0.331000,0.091000
1606790595822244991,0.900000,0.066000,0.060000,0.900000,0.365000,0.334000,0.091000
1606790596563013260,0.900000,0.066000,0.060000,0.900000,0.364000,0.333000,0.091000
1606790597284258384,0.900000,0.066000,0.060000,0.900000,0.361000,0.330000,0.091000
1606790597993957053,0.900000,0.066000,0.060000,0.900000,0.362000,0.331000,0.091000
1606790598694219461,0.900000,0.066000,0.060000,0.900000,0.365000,0.334000,0.091000
1606790599395827234,0.900000,0.066000,0.060000,0.900000,0.364000,0.333000,0.091000
1606790600135614638,0.900000,0.067000,0.061000,0.900000,0.363000,0.332000,0.091000
1606790600849601611,0.900000,0.066000,0.060000,0.900000,0.363000,0.332000,0.091000
1606790601576456362,0.900000,0.066000,0.060000,0.900000,0.363000,0.332000,0.091000
1606790602315525315,0.900000,0.066000,0.060000,0.900000,0.361000,0.330000,0.091000
1606790603035220829,0.900000,0.066000,0.060000,0.900000,0.364000,0.333000,0.091000
1606790603730864442,0.900000,0.066000,0.060000,0.900000,0.363000,0.332000,0.091000
1606790604415102016,0.900000,0.066000,0.060000,0.900000,0.363000,0.332000,0.091000
1606790605131176268,0.900000,0.066000,0.060000,0.900000,0.361000,0.330000,0.091000
1606790605831166349,0.900000,0.066000,0.060000,0.900000,0.363000,0.332000,0.091000
1606790606553955760,0.900000,0.066000,0.060000,0.900000,0.364000,0.333000,0.091000
1606790607288830206,0.900000,0.066000,0.060000,0.900000,0.361000,0.330000,0.091000
1606790607995606030,0.900000,0.066000,0.060000,0.900000,0.363000,0.332000,0.091000
1606790608725779137,0.900000,0.066000,0.060000,0.900000,0.362000,0.331000,0.091000
1606790609411488120,0.900000,0.066000,0.060000,0.900000,0.363000,0.332000,0.091000
1606790610117241994,0.900000,0.066000,0.060000,0.900000,0.364000,0.333000,0.091000
1606790610836150521,0.900000,0.066000,0.060000,0.900000,0.363000,0.332000,0.091000
1606790611567329789,0.900000,0.066000,0.060000,0.900000,0.362000,0.331000,0.091000
1606790612279642658,0.900000,0.066000,0.060000,0.900000,0.363000,0.332000,0.091000
1606790612995998663,0.900000,0.066000,0.060000,0.900000,0.364000,0.333000,0.091000
1606790613685918034,0.900000,0.066000,0.060000,0.900000,0.364000,0.333000,0.091000
1606790614402015376,0.900000,0.066000,0.060000,0.900000,0.363000,0.332000,0.091000
1606790615106264974,0.900000,0.066000,0.060000,0.900000,0.361000,0.330000,0.091000
1606790615836282379,0.900000,0.066000,0.060000,0.900000,0.361000,0.330000,0.091000
1606790616539708942,0.900000,0.066000,0.060000,0.900000,0.365000,0.334000,0.091000
1606790617216597663,0.900000,0.066000,0.060000,0.900000,0.365000,0.334000,0.091000
