TimeStamp,Total Power,CPU Power,GPU Power
1593924778848215,1.639,0.61,0.152
1593924779349791,1.525,0.457,0.152
1593924779851215,1.486,0.457,0.152
1593924780352957,1.486,0.457,0.152
1593924780854528,1.601,0.533,0.152
1593924781356030,1.486,0.381,0.152
1593924781857445,1.486,0.457,0.152
1593924782358889,1.639,0.533,0.152
1593924782860364,1.639,0.533,0.152
1593924783361880,1.563,0.533,0.152
1593924783864963,1.639,0.61,0.152
1593924784366499,1.639,0.61,0.152
1593924784867990,1.639,0.61,0.152
1593924785369414,1.563,0.533,0.152
1593924785870878,1.563,0.533,0.152
1593924786372366,1.639,0.61,0.152
1593924786873816,1.563,0.533,0.152
1593924787375298,1.639,0.61,0.152
1593924787879359,1.639,0.61,0.152
1593924788380824,1.563,0.533,0.152
1593924788882296,1.715,0.61,0.152
1593924789383935,1.601,0.61,0.152
1593924789885423,1.601,0.533,0.152
1593924790387004,1.639,0.61,0.152
1593924790888499,1.563,0.533,0.152
1593924791390005,1.601,0.61,0.152
1593924791891459,1.601,0.61,0.152
1593924792392932,1.601,0.61,0.152
1593924792896911,1.715,0.61,0.152
1593924793398382,1.601,0.533,0.152
1593924793902369,1.639,0.61,0.152
1593924794404034,1.601,0.61,0.152
1593924794905664,1.601,0.533,0.152
1593924795407175,1.639,0.61,0.152
1593924795908630,1.563,0.533,0.152
1593924796410086,1.639,0.61,0.152
1593924796912071,1.677,0.61,0.152
1593924797413598,1.563,0.533,0.152
1593924797918358,1.677,0.61,0.152
1593924798420050,1.601,0.533,0.152
1593924798921550,1.601,0.533,0.152
1593924799423021,1.601,0.61,0.152
1593924799924594,1.601,0.533,0.152
1593924800426066,1.639,0.61,0.152
1593924800927551,1.563,0.533,0.152
1593924801429009,1.639,0.61,0.152
1593924801930522,1.639,0.61,0.152
1593924802432014,1.563,0.533,0.152
1593924802936755,1.639,0.61,0.152
1593924803438212,1.639,0.61,0.152
1593924803939678,1.601,0.533,0.152
1593924804441104,1.601,0.533,0.152
1593924804942646,1.601,0.61,0.152
1593924805444200,1.639,0.61,0.152
1593924805945685,1.601,0.533,0.152
1593924806448218,1.677,0.61,0.152
1593924806949691,1.639,0.61,0.152
1593924807451160,1.563,0.533,0.152
1593924807954929,1.601,0.61,0.152
1593924808456405,1.639,0.61,0.152
1593924808957874,1.639,0.61,0.152
1593924809459293,1.601,0.533,0.152
1593924809960952,1.639,0.61,0.152
1593924810462466,1.639,0.61,0.152
1593924810963959,1.563,0.533,0.152
1593924811465369,1.639,0.533,0.152
1593924811966816,1.677,0.61,0.152
1593924812468270,1.563,0.533,0.152
1593924812972182,1.601,0.61,0.152
1593924813473685,1.639,0.61,0.152
1593924813975169,1.639,0.61,0.152
1593924814476634,1.601,0.61,0.152
1593924814978230,1.601,0.61,0.152
1593924815479769,1.677,0.61,0.152
1593924815981186,1.563,0.533,0.152
1593924816482589,1.601,0.533,0.152
1593924816984046,1.677,0.61,0.152
1593924817485433,1.563,0.533,0.152
1593924817989094,1.677,0.533,0.152
1593924818491679,1.943,0.61,0.152
1593924818993178,2.019,0.61,0.152
1593924819494639,1.981,0.533,0.152
1593924819996072,1.829,0.61,0.152
1593924820497535,1.753,0.61,0.152
1593924820998987,1.601,0.533,0.152
1593924821500589,1.563,0.533,0.152
1593924822002171,1.677,0.61,0.152
1593924822503651,1.563,0.533,0.152
1593924823007366,1.601,0.533,0.152
1593924823508833,1.601,0.533,0.152
1593924824010337,1.601,0.533,0.152
1593924824511812,1.601,0.533,0.152
1593924825013291,1.601,0.533,0.152
1593924825514789,1.677,0.61,0.152
1593924826016249,1.563,0.533,0.152
1593924826517716,1.601,0.61,0.152
1593924827020555,1.601,0.61,0.152
1593924827522054,1.563,0.533,0.152
1593924828026022,1.639,0.61,0.152
1593924828527574,1.601,0.533,0.152
1593924829029064,1.601,0.61,0.152
1593924829530519,1.601,0.533,0.152
1593924830032018,1.563,0.533,0.152
1593924830533574,1.677,0.61,0.152
1593924831035062,1.601,0.533,0.152
1593924831536679,1.601,0.533,0.152
1593924832038135,1.601,0.61,0.152
1593924832539602,1.601,0.61,0.152
1593924833043463,1.677,0.61,0.152
1593924833544967,1.601,0.533,0.152
1593924834046425,1.601,0.61,0.152
1593924834548116,1.677,0.61,0.152
1593924835049615,1.563,0.533,0.152
1593924835551239,1.677,0.61,0.152
1593924836052851,1.601,0.61,0.152
1593924836554356,1.563,0.533,0.152
1593924837055823,1.601,0.61,0.152
1593924837557288,1.601,0.61,0.152
1593924838061338,1.677,0.61,0.152
1593924838562807,1.601,0.533,0.152
1593924839064362,1.639,0.61,0.152
1593924839565867,1.677,0.61,0.152
1593924840067349,1.563,0.533,0.152
1593924840568742,1.601,0.533,0.152
1593924841070300,1.639,0.61,0.152
1593924841571806,1.563,0.533,0.152
1593924842073255,1.601,0.61,0.152
1593924842574701,1.601,0.533,0.152
1593924843078581,1.601,0.533,0.152
1593924843580043,1.601,0.533,0.152
1593924844081605,1.601,0.533,0.152
1593924844583099,1.677,0.61,0.152
1593924845084585,1.601,0.61,0.152
1593924845585985,1.563,0.533,0.152
1593924846087455,1.677,0.61,0.152
1593924846588955,1.601,0.61,0.152
1593924847090372,1.639,0.61,0.152
1593924847593211,1.639,0.61,0.152
1593924848098285,1.677,0.61,0.152
1593924848599762,1.601,0.61,0.152
1593924849101192,1.563,0.533,0.152
1593924849602634,1.677,0.61,0.152
1593924850104182,1.601,0.533,0.152
1593924850605669,1.639,0.61,0.152
1593924851107235,1.639,0.61,0.152
1593924851608894,1.601,0.61,0.152
1593924852110342,1.601,0.61,0.152
1593924852611901,1.601,0.533,0.152
1593924853115859,1.677,0.61,0.152
1593924853617343,1.601,0.533,0.152
1593924854118748,1.563,0.533,0.152
1593924854621199,1.715,0.61,0.152
1593924855122681,1.563,0.533,0.152
1593924855624160,1.639,0.533,0.152
1593924856125588,1.601,0.61,0.152
1593924856627094,1.601,0.61,0.152
1593924857128796,1.601,0.61,0.152
1593924857630272,1.601,0.533,0.152
1593924858134239,1.677,0.61,0.152
1593924858635764,1.601,0.61,0.152
1593924859138271,1.601,0.61,0.152
1593924859639917,1.639,0.61,0.152
1593924860141447,1.563,0.533,0.152
1593924860644572,1.639,0.533,0.152
1593924861146016,1.601,0.533,0.152
1593924861647661,1.601,0.61,0.152
1593924862149126,1.601,0.533,0.152
1593924862650598,1.563,0.533,0.152
1593924863154332,1.677,0.61,0.152
1593924863655786,1.601,0.533,0.152
1593924864157263,1.601,0.61,0.152
1593924864658848,1.601,0.61,0.152
1593924865160387,1.563,0.533,0.152
1593924865661852,1.677,0.61,0.152
1593924866163435,1.563,0.533,0.152
1593924866664890,1.639,0.61,0.152
1593924867166464,1.639,0.61,0.152
1593924867667979,1.563,0.533,0.152
1593924868172136,1.677,0.61,0.152
1593924868673626,1.601,0.61,0.152
1593924869175127,1.601,0.61,0.152
1593924869676595,1.601,0.61,0.152
1593924870178063,1.601,0.533,0.152
1593924870679573,1.639,0.61,0.152
1593924871181029,1.563,0.533,0.152
1593924871682442,1.639,0.61,0.152
1593924872184058,1.677,0.61,0.152
1593924872685527,1.563,0.533,0.152
1593924873189516,1.601,0.533,0.152
1593924873691114,1.639,0.61,0.152
1593924874192629,1.563,0.533,0.152
1593924874694028,1.601,0.61,0.152
1593924875195597,1.601,0.61,0.152
1593924875697094,1.639,0.61,0.152
1593924876198547,1.601,0.533,0.152
1593924876700133,1.601,0.61,0.152
1593924877201644,1.639,0.61,0.152
1593924877703123,1.563,0.533,0.152
1593924878206867,1.601,0.533,0.152
1593924878708380,1.677,0.61,0.152
1593924879209827,1.563,0.533,0.152
1593924879711243,1.601,0.61,0.152
1593924880212827,1.639,0.61,0.152
1593924880714337,1.639,0.61,0.152
1593924881217230,1.791,0.61,0.152
1593924881718772,1.981,0.533,0.152
1593924882220277,2.096,0.61,0.152
1593924882726112,1.943,0.61,0.152
1593924883230908,1.715,0.61,0.152
1593924883734573,1.715,0.61,0.152
1593924884236046,1.601,0.533,0.152
1593924884737497,1.601,0.61,0.152
1593924885239062,1.563,0.533,0.152
1593924885740629,1.639,0.61,0.152
1593924886242078,1.601,0.533,0.152
1593924886743493,1.525,0.533,0.152
1593924887244914,1.639,0.61,0.152
1593924887746375,1.601,0.61,0.152
1593924888250549,1.563,0.533,0.152
1593924888752355,1.677,0.61,0.152
1593924889253856,1.601,0.61,0.152
1593924889755343,1.563,0.533,0.152
1593924890256824,1.639,0.61,0.152
1593924890758321,1.601,0.61,0.152
1593924891259781,1.639,0.61,0.152
1593924891761321,1.563,0.533,0.152
1593924892263920,1.639,0.61,0.152
1593924892765416,1.601,0.61,0.152
1593924893269264,1.563,0.533,0.152
1593924893770701,1.639,0.61,0.152
1593924894272203,1.601,0.533,0.152
1593924894773590,1.639,0.61,0.152
1593924895275099,1.601,0.61,0.152
1593924895776651,1.639,0.61,0.152
1593924896278068,1.639,0.61,0.152
1593924896779579,1.601,0.61,0.152
1593924897281600,1.639,0.61,0.152
1593924897783147,1.601,0.61,0.152
1593924898287052,1.601,0.533,0.152
1593924898788623,1.639,0.61,0.152
1593924899290044,1.677,0.61,0.152
1593924899791496,1.639,0.533,0.152
1593924900292979,1.601,0.61,0.152
1593924900794569,1.601,0.61,0.152
1593924901296128,1.639,0.61,0.152
1593924901797629,1.601,0.533,0.152
1593924902299092,1.639,0.533,0.152
1593924902800664,1.601,0.61,0.152
1593924903304936,1.601,0.61,0.152
1593924903806403,1.601,0.61,0.152
1593924904307819,1.639,0.61,0.152
1593924904809397,1.677,0.61,0.152
1593924905310871,1.601,0.533,0.152
1593924905812492,1.563,0.533,0.152
1593924906313983,1.639,0.61,0.152
1593924906815481,1.563,0.533,0.152
1593924907316944,1.601,0.533,0.152
1593924907818392,1.601,0.61,0.152
1593924908322253,1.601,0.533,0.152
1593924908823758,1.601,0.533,0.152
1593924909325297,1.601,0.61,0.152
1593924909826830,1.677,0.61,0.152
1593924910328385,1.601,0.533,0.152
1593924910829858,1.563,0.533,0.152
1593924911331478,1.677,0.61,0.152
1593924911832989,1.563,0.533,0.152
1593924912334450,1.601,0.533,0.152
1593924912836793,1.639,0.61,0.152
1593924913340612,1.601,0.533,0.152
1593924913842069,1.601,0.533,0.152
1593924914343692,1.563,0.533,0.152
1593924914845200,1.677,0.61,0.152
1593924915346655,1.563,0.533,0.152
1593924915848238,1.563,0.533,0.152
1593924916349796,1.677,0.61,0.152
1593924916851286,1.601,0.533,0.152
1593924917352884,1.601,0.533,0.152
1593924917854295,1.563,0.533,0.152
1593924918358872,1.639,0.61,0.152
1593924918860470,1.601,0.533,0.152
1593924919361884,1.563,0.533,0.152
1593924919863454,1.676,0.61,0.152
1593924920364941,1.601,0.533,0.152
1593924920866386,1.563,0.533,0.152
1593924921367905,1.601,0.61,0.152
1593924921869403,1.601,0.533,0.152
1593924922370849,1.639,0.533,0.152
1593924922872478,1.639,0.61,0.152
1593924923376378,1.639,0.61,0.152
1593924923877840,1.639,0.61,0.152
1593924924379268,1.563,0.533,0.152
1593924924880896,1.601,0.61,0.152
1593924925382394,1.639,0.61,0.152
1593924925883983,1.563,0.533,0.152
1593924926385461,1.639,0.61,0.152
1593924926886949,1.601,0.61,0.152
1593924927388515,1.563,0.533,0.152
1593924927889945,1.639,0.61,0.152
1593924928393782,1.639,0.61,0.152
1593924928895295,1.639,0.61,0.152
1593924929397005,1.601,0.61,0.152
1593924929898502,1.601,0.533,0.152
1593924930399926,1.639,0.61,0.152
1593924930901337,1.563,0.533,0.152
1593924931402815,1.639,0.61,0.152
1593924931904312,1.639,0.61,0.152
1593924932405754,1.563,0.533,0.152
1593924932907357,1.601,0.61,0.152
1593924933411230,1.563,0.533,0.152
1593924933912838,1.639,0.61,0.152
1593924934414307,1.601,0.61,0.152
1593924934915721,1.563,0.533,0.152
1593924935417204,1.639,0.61,0.152
1593924935918670,1.601,0.61,0.152
1593924936420167,1.639,0.533,0.152
1593924936921724,1.639,0.61,0.152
1593924937423403,1.601,0.533,0.152
1593924937924943,1.601,0.61,0.152
1593924938428731,1.563,0.533,0.152
1593924938930185,1.639,0.61,0.152
1593924939431731,1.601,0.533,0.152
1593924939933189,1.563,0.533,0.152
1593924940434656,1.677,0.61,0.152
1593924940936203,1.601,0.533,0.152
1593924941437656,1.639,0.533,0.152
1593924941939222,1.601,0.533,0.152
1593924942440921,1.639,0.61,0.152
1593924942942391,1.601,0.61,0.152
1593924943446224,1.525,0.533,0.152
1593924943947861,1.677,0.61,0.152
1593924944449362,1.905,0.533,0.152
1593924944950850,1.981,0.533,0.152
1593924945452389,2.058,0.61,0.152
1593924945953870,1.867,0.61,0.152
1593924946455375,1.715,0.61,0.152
1593924946956808,1.563,0.533,0.152
1593924947458279,1.639,0.61,0.152
1593924947959795,1.601,0.61,0.152
1593924948463543,1.563,0.533,0.152
1593924948965106,1.715,0.61,0.152
1593924949466609,1.601,0.533,0.152
1593924949968061,1.563,0.533,0.152
1593924950469376,1.601,0.533,0.152
1593924950970827,1.639,0.61,0.152
1593924951472246,1.639,0.61,0.152
1593924951973652,1.563,0.533,0.152
1593924952475179,1.639,0.61,0.152
1593924952976670,1.639,0.61,0.152
1593924953480864,1.563,0.533,0.152
1593924953982429,1.677,0.61,0.152
1593924954483838,1.639,0.61,0.152
1593924954985217,1.563,0.533,0.152
1593924955486589,1.601,0.61,0.152
1593924955988033,1.639,0.61,0.152
1593924956489465,1.639,0.61,0.152
1593924956990877,1.563,0.533,0.152
1593924957493374,1.601,0.61,0.152
1593924957994870,1.639,0.61,0.152
1593924958498769,1.563,0.533,0.152
1593924959000254,1.677,0.61,0.152
1593924959501788,1.639,0.61,0.152
1593924960003232,1.563,0.533,0.152
1593924960504782,1.639,0.61,0.152
1593924961006384,1.601,0.61,0.152
1593924961508090,1.639,0.533,0.152
1593924962009638,1.563,0.533,0.152
1593924962511141,1.563,0.533,0.152
1593924963012605,1.639,0.61,0.152
1593924963516402,1.563,0.533,0.152
1593924964017904,1.639,0.61,0.152
1593924964519410,1.639,0.61,0.152
1593924965020913,1.563,0.533,0.152
1593924965522393,1.639,0.61,0.152
1593924966024083,1.563,0.533,0.152
1593924966525573,1.639,0.61,0.152
1593924967027074,1.601,0.61,0.152
1593924967528567,1.601,0.533,0.152
1593924968030020,1.639,0.61,0.152
1593924968533897,1.563,0.533,0.152
1593924969035409,1.639,0.61,0.152
1593924969537019,1.601,0.61,0.152
1593924970038563,1.677,0.61,0.152
1593924970540101,1.601,0.61,0.152
1593924971041555,1.563,0.533,0.152
1593924971543019,1.639,0.61,0.152
1593924972044610,1.601,0.533,0.152
1593924972546068,1.639,0.533,0.152
1593924973047561,1.639,0.61,0.152
1593924973551816,1.601,0.61,0.152
1593924974053312,1.639,0.61,0.152
1593924974554878,1.601,0.61,0.152
1593924975056601,1.677,0.61,0.152
1593924975558137,1.601,0.61,0.152
1593924976059842,1.563,0.533,0.152
1593924976561297,1.639,0.61,0.152
1593924977062796,1.601,0.533,0.152
1593924977564254,1.639,0.533,0.152
1593924978065780,1.677,0.61,0.152
1593924978567445,1.601,0.61,0.152
1593924979068913,1.601,0.61,0.152
1593924979570478,1.563,0.533,0.152
1593924980071985,1.715,0.61,0.152
1593924980573446,1.601,0.533,0.152
1593924981074880,1.525,0.533,0.152
1593924981576608,1.639,0.61,0.152
1593924982078115,1.601,0.61,0.152
1593924982579603,1.525,0.533,0.152
1593924983081224,1.677,0.61,0.152
1593924983582725,1.639,0.61,0.152
1593924984084195,1.563,0.533,0.152
1593924984585608,1.601,0.533,0.152
1593924985088137,1.677,0.61,0.152
1593924985589623,1.677,0.61,0.152
1593924986091065,1.601,0.533,0.152
1593924986592770,1.601,0.533,0.152
1593924987094231,1.639,0.61,0.152
1593924987595683,1.563,0.533,0.152
1593924988097099,1.639,0.533,0.152
1593924988600852,1.677,0.61,0.152
1593924989102447,1.563,0.533,0.152
1593924989603875,1.601,0.61,0.152
1593924990105689,1.601,0.61,0.152
1593924990607146,1.677,0.61,0.152
1593924991108597,1.601,0.533,0.152
1593924991610073,1.601,0.61,0.152
1593924992111575,1.677,0.61,0.152
1593924992613013,1.563,0.533,0.152
1593924993114585,1.639,0.61,0.152
1593924993619027,1.639,0.61,0.152
1593924994120585,1.563,0.533,0.152
1593924994621967,1.639,0.61,0.152
1593924995123643,1.563,0.533,0.152
1593924995625096,1.677,0.61,0.152
1593924996126548,1.601,0.533,0.152
1593924996628028,1.601,0.533,0.152
1593924997129523,1.677,0.61,0.152
1593924997630967,1.563,0.533,0.152
1593924998132432,1.639,0.61,0.152
1593924998636341,1.639,0.61,0.152
1593924999137830,1.563,0.533,0.152
1593924999639506,1.638,0.61,0.152
1593925000140979,1.563,0.533,0.152
1593925000642469,1.677,0.61,0.152
1593925001144099,1.601,0.61,0.152
1593925001645622,1.563,0.533,0.152
1593925002147202,1.677,0.61,0.152
1593925002648884,1.563,0.533,0.152
1593925003150383,1.639,0.61,0.152
1593925003654176,1.601,0.533,0.152
1593925004155630,1.601,0.533,0.152
1593925004657159,1.677,0.61,0.152
1593925005158586,1.563,0.533,0.152
1593925005660065,1.677,0.61,0.152
1593925006161641,1.639,0.61,0.152
1593925006663132,1.563,0.533,0.152
1593925007164894,1.829,0.61,0.152
1593925007666676,1.981,0.533,0.152
1593925008168280,1.981,0.533,0.152
1593925008674270,1.981,0.61,0.152
1593925009175785,1.753,0.61,0.152
1593925009677284,1.715,0.61,0.152
1593925010178707,1.601,0.533,0.152
1593925010680322,1.601,0.61,0.152
1593925011181827,1.677,0.61,0.152
1593925011683277,1.563,0.533,0.152
1593925012184833,1.601,0.533,0.152
1593925012686267,1.639,0.61,0.152
1593925013187782,1.563,0.533,0.152
1593925013691614,1.601,0.533,0.152
1593925014193150,1.639,0.61,0.152
1593925014694526,1.677,0.61,0.152
1593925015195881,1.563,0.533,0.152
1593925015698227,1.563,0.533,0.152
1593925016199863,1.639,0.61,0.152
1593925016701312,1.563,0.533,0.152
1593925017202792,1.601,0.533,0.152
1593925017704343,1.677,0.61,0.152
1593925018205865,1.601,0.533,0.152
1593925018709584,1.601,0.533,0.152
1593925019211124,1.563,0.533,0.152
1593925019712710,1.601,0.61,0.152
1593925020214187,1.601,0.533,0.152
1593925020716089,1.563,0.533,0.152
1593925021218433,1.715,0.61,0.152
1593925021719947,1.601,0.61,0.152
1593925022221384,1.563,0.533,0.152
1593925022724388,1.639,0.61,0.152
1593925023225884,1.601,0.61,0.152
1593925023729905,1.639,0.533,0.152
1593925024231486,1.639,0.61,0.152
1593925024732972,1.639,0.61,0.152
1593925025234430,1.639,0.61,0.152
1593925025735847,1.563,0.533,0.152
1593925026237595,1.677,0.61,0.152
1593925026739100,1.601,0.61,0.152
1593925027240540,1.563,0.533,0.152
1593925027742017,1.639,0.61,0.152
1593925028243531,1.601,0.61,0.152
1593925028747493,1.639,0.533,0.152
1593925029249009,1.639,0.61,0.152
1593925029750463,1.639,0.61,0.152
1593925030251877,1.639,0.61,0.152
1593925030753510,1.601,0.61,0.152
1593925031255084,1.639,0.61,0.152
1593925031756683,1.601,0.61,0.152
1593925032258118,1.563,0.533,0.152
1593925032759612,1.639,0.61,0.152
1593925033261142,1.639,0.61,0.152
1593925033765359,1.563,0.533,0.152
1593925034266837,1.601,0.61,0.152
1593925034768486,1.639,0.61,0.152
1593925035269935,1.639,0.61,0.152
1593925035771443,1.601,0.61,0.152
1593925036272900,1.563,0.533,0.152
1593925036774358,1.639,0.61,0.152
1593925037275830,1.601,0.61,0.152
1593925037777303,1.639,0.61,0.152
1593925038278762,1.639,0.61,0.152
1593925038782775,1.601,0.533,0.152
1593925039284387,1.639,0.61,0.152
1593925039785967,1.601,0.533,0.152
1593925040287474,1.677,0.61,0.152
1593925040788978,1.601,0.61,0.152
1593925041290437,1.563,0.533,0.152
1593925041791903,1.639,0.61,0.152
1593925042293407,1.601,0.61,0.152
1593925042794880,1.639,0.61,0.152
1593925043296661,1.639,0.61,0.152
1593925043800506,1.639,0.61,0.152
1593925044301967,1.639,0.61,0.152
1593925044803382,1.563,0.533,0.152
1593925045304924,1.677,0.61,0.152
1593925045806462,1.601,0.61,0.152
1593925046308038,1.563,0.533,0.152
1593925046809531,1.639,0.61,0.152
1593925047311033,1.601,0.533,0.152
1593925047812500,1.563,0.533,0.152
1593925048314987,1.639,0.61,0.152
1593925048818800,1.601,0.61,0.152
1593925049320267,1.639,0.61,0.152
1593925049821678,1.563,0.533,0.152
1593925050323177,1.639,0.61,0.152
1593925050824645,1.639,0.61,0.152
1593925051326066,1.563,0.533,0.152
1593925051827682,1.677,0.61,0.152
1593925052329190,1.601,0.61,0.152
1593925052830693,1.601,0.533,0.152
1593925053332154,1.601,0.61,0.152
1593925053836048,1.677,0.61,0.152
1593925054337486,1.639,0.61,0.152
1593925054838838,1.563,0.533,0.152
1593925055340628,1.639,0.61,0.152
1593925055842135,1.639,0.61,0.152
1593925056343602,1.563,0.533,0.152
1593925056845149,1.601,0.61,0.152
1593925057346632,1.639,0.61,0.152
1593925057848091,1.601,0.61,0.152
1593925058349498,1.601,0.61,0.152
1593925058853787,1.639,0.61,0.152
1593925059355229,1.639,0.61,0.152
1593925059856792,1.563,0.533,0.152
1593925060358263,1.601,0.61,0.152
1593925060859760,1.639,0.61,0.152
1593925061361221,1.563,0.533,0.152
1593925061862650,1.677,0.61,0.152
1593925062364189,1.639,0.61,0.152
1593925062865643,1.601,0.533,0.152
1593925063367196,1.601,0.61,0.152
1593925063871256,1.601,0.533,0.152
1593925064372915,1.639,0.61,0.152
1593925064874329,1.563,0.533,0.152
1593925065375806,1.601,0.533,0.152
1593925065877307,1.639,0.61,0.152
1593925066378691,1.563,0.533,0.152
1593925066880224,1.639,0.61,0.152
1593925067381891,1.639,0.61,0.152
1593925067883381,1.601,0.533,0.152
1593925068384883,1.639,0.61,0.152
1593925068888833,1.563,0.533,0.152
1593925069390280,1.639,0.61,0.152
1593925069891958,1.601,0.61,0.152
1593925070393414,1.867,0.61,0.152
1593925070894890,2.058,0.61,0.152
1593925071396469,1.981,0.533,0.152
1593925071897944,1.943,0.61,0.152
1593925072400980,1.677,0.61,0.152
1593925072902473,1.639,0.61,0.152
1593925073403961,1.639,0.61,0.152
1593925073907813,1.563,0.533,0.152
1593925074409283,1.639,0.61,0.152
1593925074910820,1.601,0.61,0.152
1593925075412274,1.639,0.533,0.152
1593925075914690,1.639,0.61,0.152
1593925076416371,1.601,0.61,0.152
1593925076917941,1.639,0.61,0.152
1593925077419405,1.563,0.533,0.152
1593925077920843,1.639,0.61,0.152
1593925078422304,1.601,0.61,0.152
1593925078926014,1.563,0.533,0.152
1593925079427486,1.677,0.61,0.152
1593925079928982,1.601,0.61,0.152
1593925080430454,1.601,0.533,0.152
1593925080932516,1.601,0.61,0.152
1593925081434028,1.601,0.61,0.152
1593925081935582,1.639,0.61,0.152
1593925082437004,1.563,0.533,0.152
1593925082938540,1.715,0.61,0.152
1593925083440056,1.601,0.61,0.152
1593925083943937,1.563,0.533,0.152
1593925084445504,1.677,0.61,0.152
1593925084947020,1.601,0.61,0.152
1593925085448483,1.639,0.533,0.152
1593925085949845,1.563,0.533,0.152
1593925086451347,1.601,0.533,0.152
1593925086952814,1.639,0.533,0.152
1593925087454228,1.563,0.533,0.152
1593925087956809,1.601,0.61,0.152
1593925088458262,1.639,0.61,0.152
1593925088961977,1.563,0.533,0.152
1593925089463412,1.639,0.533,0.152
1593925089964855,1.639,0.61,0.152
1593925090466360,1.601,0.533,0.152
1593925090968056,1.601,0.61,0.152
1593925091469588,1.639,0.61,0.152
1593925091971112,1.677,0.61,0.152
1593925092472672,1.563,0.533,0.152
1593925092974135,1.601,0.61,0.152
1593925093475624,1.639,0.61,0.152
1593925093979398,1.563,0.533,0.152
1593925094480950,1.677,0.61,0.152
1593925094982413,1.639,0.61,0.152
1593925095483850,1.563,0.533,0.152
1593925095985223,1.601,0.533,0.152
1593925096486759,1.563,0.533,0.152
1593925096988317,1.677,0.61,0.152
1593925097489751,1.563,0.533,0.152
1593925097991210,1.601,0.533,0.152
1593925098492845,1.639,0.61,0.152
1593925098996701,1.563,0.533,0.152
1593925099498179,1.639,0.61,0.152
1593925099999918,1.639,0.61,0.152
1593925100501388,1.563,0.533,0.152
1593925101002960,1.639,0.61,0.152
1593925101504454,1.563,0.533,0.152
1593925102005956,1.639,0.61,0.152
1593925102507628,1.563,0.533,0.152
1593925103009081,1.601,0.533,0.152
1593925103510581,1.677,0.61,0.152
1593925104014240,1.563,0.533,0.152
1593925104515753,1.639,0.61,0.152
1593925105017921,1.601,0.61,0.152
1593925105519416,1.601,0.61,0.152
1593925106020912,1.639,0.61,0.152
1593925106522377,1.563,0.533,0.152
1593925107023841,1.677,0.61,0.152
1593925107525308,1.639,0.61,0.152
1593925108026914,1.563,0.533,0.152
1593925108528564,1.677,0.61,0.152
1593925109032556,1.563,0.533,0.152
1593925109534068,1.639,0.61,0.152
1593925110035642,1.563,0.533,0.152
1593925110537072,1.601,0.61,0.152
1593925111038604,1.639,0.61,0.152
1593925111540075,1.563,0.533,0.152
1593925112041562,1.677,0.61,0.152
1593925112543064,1.639,0.61,0.152
1593925113044734,1.601,0.533,0.152
1593925113546293,1.639,0.61,0.152
1593925114050243,1.639,0.61,0.152
1593925114551724,1.639,0.61,0.152
1593925115053075,1.563,0.533,0.152
1593925115554677,1.639,0.61,0.152
1593925116056240,1.639,0.61,0.152
1593925116557702,1.563,0.533,0.152
1593925117059108,1.677,0.61,0.152
1593925117560632,1.601,0.61,0.152
1593925118062057,1.563,0.533,0.152
1593925118563620,1.601,0.533,0.152
1593925119067442,1.601,0.61,0.152
1593925119568931,1.639,0.61,0.152
1593925120070335,1.563,0.533,0.152
1593925120571888,1.677,0.61,0.152
1593925121073377,1.639,0.61,0.152
1593925121574826,1.563,0.533,0.152
1593925122076291,1.601,0.533,0.152
1593925122577742,1.639,0.61,0.152
1593925123079171,1.563,0.533,0.152
1593925123580581,1.601,0.533,0.152
1593925124084884,1.639,0.61,0.152
1593925124586404,1.639,0.61,0.152
1593925125087858,1.563,0.533,0.152
1593925125589449,1.639,0.61,0.152
1593925126090950,1.639,0.61,0.152
1593925126592404,1.563,0.533,0.152
1593925127093930,1.601,0.533,0.152
1593925127595406,1.639,0.61,0.152
1593925128096857,1.639,0.533,0.152
1593925128598231,1.601,0.533,0.152
1593925129102135,1.601,0.61,0.152
1593925129603636,1.639,0.61,0.152
1593925130105092,1.563,0.533,0.152
1593925130606559,1.639,0.61,0.152
1593925131108057,1.639,0.61,0.152
1593925131609503,1.563,0.533,0.152
1593925132110918,1.677,0.61,0.152
1593925132612658,1.639,0.61,0.152
1593925133114109,1.792,0.61,0.152
1593925133615684,1.943,0.61,0.152
1593925134119431,1.981,0.533,0.152
1593925134620913,2.058,0.61,0.152
1593925135122469,1.753,0.61,0.152
1593925135624019,1.715,0.61,0.152
1593925136125520,1.677,0.61,0.152
1593925136627008,1.563,0.533,0.152
1593925137128609,1.639,0.61,0.152
1593925137630273,1.601,0.61,0.152
1593925138131761,1.639,0.61,0.152
1593925138633270,1.639,0.61,0.152
1593925139137126,1.563,0.533,0.152
1593925139638600,1.639,0.61,0.152
1593925140140250,1.601,0.533,0.152
1593925140641754,1.639,0.61,0.152
1593925141143640,1.677,0.61,0.152
1593925141645111,1.563,0.533,0.152
1593925142146819,1.639,0.61,0.152
1593925142648359,1.563,0.533,0.152
1593925143149809,1.677,0.61,0.152
1593925143651445,1.639,0.61,0.152
1593925144155447,1.563,0.533,0.152
1593925144656916,1.677,0.61,0.152
1593925145158420,1.639,0.61,0.152
1593925145659880,1.639,0.61,0.152
1593925146163498,1.639,0.61,0.152
1593925146665064,1.601,0.61,0.152
1593925147166575,1.639,0.61,0.152
1593925147668030,1.563,0.533,0.152
1593925148169423,1.677,0.61,0.152
1593925148670920,1.601,0.61,0.152
1593925149174651,1.563,0.533,0.152
1593925149676177,1.677,0.61,0.152
1593925150177722,1.639,0.61,0.152
1593925150679201,1.563,0.533,0.152
1593925151180802,1.601,0.61,0.152
1593925151682329,1.639,0.61,0.152
1593925152183801,1.639,0.61,0.152
1593925152685310,1.563,0.533,0.152
1593925153186855,1.639,0.61,0.152
1593925153688454,1.639,0.61,0.152
1593925154192179,1.563,0.533,0.152
1593925154700497,1.677,0.61,0.152
1593925155202012,1.639,0.61,0.152
1593925155703608,1.563,0.533,0.152
1593925156205007,1.601,0.61,0.152
1593925156706540,1.639,0.61,0.152
1593925157208034,1.639,0.61,0.152
1593925157709473,1.563,0.533,0.152
1593925158211050,1.601,0.533,0.152
1593925158712620,1.639,0.61,0.152
1593925159216468,1.563,0.533,0.152
1593925159717890,1.601,0.533,0.152
1593925160219354,1.677,0.61,0.152
1593925160720801,1.563,0.533,0.152
1593925161222206,1.601,0.61,0.152
1593925161723826,1.639,0.61,0.152
1593925162225334,1.601,0.61,0.152
1593925162726816,1.601,0.61,0.152
1593925163228316,1.601,0.533,0.152
1593925163729809,1.677,0.61,0.152
1593925164233646,1.563,0.533,0.152
1593925164735199,1.601,0.61,0.152
1593925165236916,1.677,0.61,0.152
1593925165738359,1.563,0.533,0.152
1593925166239918,1.601,0.61,0.152
1593925166741351,1.601,0.533,0.152
1593925167242853,1.601,0.61,0.152
1593925167744314,1.601,0.61,0.152
1593925168245774,1.563,0.533,0.152
1593925168747264,1.677,0.61,0.152
1593925169251299,1.563,0.533,0.152
1593925169752824,1.639,0.61,0.152
1593925170255212,1.639,0.61,0.152
1593925170756816,1.563,0.533,0.152
1593925171258389,1.677,0.61,0.152
1593925171759920,1.563,0.533,0.152
1593925172261409,1.639,0.61,0.152
1593925172762841,1.601,0.61,0.152
1593925173264307,1.563,0.533,0.152
1593925173765855,1.677,0.61,0.152
1593925174269757,1.601,0.533,0.152
1593925174771146,1.639,0.61,0.152
1593925175272510,1.601,0.61,0.152
1593925175773977,1.563,0.533,0.152
1593925176275496,1.677,0.61,0.152
1593925176777142,1.563,0.533,0.152
1593925177278595,1.639,0.61,0.152
1593925177780080,1.677,0.61,0.152
1593925178281545,1.563,0.533,0.152
1593925178783123,1.639,0.61,0.152
1593925179287251,1.601,0.61,0.152
1593925179788840,1.601,0.61,0.152
1593925180290292,1.601,0.61,0.152
1593925180791771,1.601,0.533,0.152
1593925181293273,1.639,0.61,0.152
1593925181794725,1.563,0.533,0.152
1593925182296185,1.639,0.61,0.152
1593925182797683,1.639,0.61,0.152
1593925183299146,1.563,0.533,0.152
1593925183800792,1.639,0.61,0.152
1593925184304629,1.639,0.61,0.152
1593925184806045,1.601,0.533,0.152
1593925185307531,1.601,0.61,0.152
1593925185809121,1.601,0.61,0.152
1593925186310498,1.639,0.61,0.152
1593925186811916,1.563,0.533,0.152
1593925187313433,1.601,0.61,0.152
1593925187814906,1.639,0.61,0.152
1593925188316381,1.563,0.533,0.152
1593925188817801,1.601,0.533,0.152
1593925189321520,1.677,0.61,0.152
1593925189822975,1.601,0.533,0.152
1593925190324394,1.601,0.61,0.152
1593925190825949,1.601,0.533,0.152
1593925191327560,1.677,0.61,0.152
1593925191829001,1.563,0.533,0.152
1593925192330405,1.563,0.533,0.152
1593925192831870,1.677,0.61,0.152
1593925193333328,1.563,0.533,0.152
1593925193834694,1.601,0.533,0.152
1593925194338608,1.639,0.61,0.152
1593925194840008,1.601,0.61,0.152
1593925195341372,1.601,0.61,0.152
1593925195842809,1.601,0.533,0.152
1593925196344323,1.943,0.61,0.152
1593925196845761,1.981,0.533,0.152
1593925197347367,2.019,0.533,0.152
1593925197856749,1.943,0.61,0.152
1593925198358248,1.677,0.61,0.152
1593925198859722,1.639,0.61,0.152
1593925199363553,1.601,0.533,0.152
1593925199865047,1.677,0.61,0.152
1593925200366513,1.601,0.61,0.152
1593925200868001,1.601,0.533,0.152
1593925201369860,1.677,0.61,0.152
1593925201871357,1.601,0.533,0.152
1593925202372853,1.639,0.61,0.152
1593925202874320,1.601,0.61,0.152
1593925203375767,1.601,0.61,0.152
1593925203877370,1.639,0.61,0.152
1593925204381336,1.601,0.533,0.152
1593925204882797,1.677,0.61,0.152
1593925205384255,1.601,0.61,0.152
1593925205885732,1.563,0.533,0.152
1593925206387671,1.639,0.61,0.152
1593925206889148,1.601,0.61,0.152
1593925207390650,1.639,0.61,0.152
1593925207892144,1.601,0.61,0.152
1593925208393595,1.601,0.61,0.152
1593925208895095,1.677,0.61,0.152
1593925209398991,1.601,0.533,0.152
1593925209900634,1.639,0.61,0.152
1593925210402224,1.676,0.61,0.152
1593925210903757,1.563,0.533,0.152
1593925211405200,1.601,0.533,0.152
1593925211906664,1.601,0.61,0.152
1593925212408213,1.563,0.533,0.152
1593925212909628,1.601,0.61,0.152
1593925213411040,1.601,0.61,0.152
1593925213912507,1.677,0.61,0.152
1593925214416315,1.601,0.533,0.152
1593925214917875,1.601,0.533,0.152
1593925215419410,1.677,0.61,0.152
1593925215920865,1.563,0.533,0.152
1593925216422278,1.639,0.61,0.152
1593925216923865,1.677,0.61,0.152
1593925217425367,1.563,0.61,0.152
1593925217926770,1.601,0.61,0.152
1593925218428474,1.601,0.61,0.152
1593925218929976,1.677,0.61,0.152
1593925219433729,1.601,0.533,0.152
1593925219935147,1.563,0.533,0.152
1593925220436610,1.715,0.61,0.152
1593925220938067,1.563,0.533,0.152
1593925221439572,1.639,0.61,0.152
1593925221941167,1.601,0.61,0.152
1593925222442667,1.601,0.61,0.152
1593925222944150,1.601,0.533,0.152
1593925223445558,1.563,0.533,0.152
1593925223946978,1.677,0.61,0.152
1593925224450666,1.601,0.61,0.152
1593925224952231,1.563,0.533,0.152
1593925225453754,1.677,0.61,0.152
1593925225955240,1.601,0.61,0.152
1593925226456871,1.601,0.533,0.152
1593925226958347,1.639,0.61,0.152
1593925227459843,1.601,0.61,0.152
1593925227961294,1.639,0.61,0.152
1593925228462890,1.601,0.61,0.152
1593925228965327,1.677,0.61,0.152
1593925229469242,1.639,0.61,0.152
1593925229970674,1.563,0.533,0.152
1593925230472254,1.639,0.61,0.152
1593925230973750,1.601,0.61,0.152
1593925231475207,1.601,0.533,0.152
1593925231976833,1.639,0.61,0.152
1593925232478370,1.601,0.61,0.152
1593925232979817,1.639,0.61,0.152
1593925233481277,1.601,0.61,0.152
1593925233982895,1.639,0.61,0.152
1593925234486880,1.601,0.61,0.152
1593925234988571,1.601,0.61,0.152
1593925235490058,1.639,0.533,0.152
1593925235991616,1.639,0.61,0.152
1593925236493037,1.563,0.533,0.152
1593925236994479,1.639,0.61,0.152
1593925237495979,1.639,0.61,0.152
1593925237997422,1.639,0.61,0.152
1593925238498888,1.601,0.61,0.152
1593925239000547,1.563,0.533,0.152
1593925239504930,1.639,0.61,0.152
1593925240006428,1.601,0.61,0.152
1593925240507893,1.639,0.61,0.152
1593925241009368,1.639,0.61,0.152
1593925241510824,1.639,0.61,0.152
1593925242012251,1.677,0.61,0.152
1593925242513804,1.639,0.61,0.152
1593925243015460,1.677,0.61,0.152
1593925243516963,1.601,0.61,0.152
1593925244018445,1.563,0.533,0.152
1593925244522425,1.639,0.61,0.152
1593925245023969,1.601,0.533,0.152
1593925245525437,1.639,0.533,0.152
1593925246026857,1.639,0.61,0.152
1593925246528374,1.601,0.61,0.152
1593925247029827,1.601,0.61,0.152
1593925247531475,1.563,0.533,0.152
1593925248032984,1.715,0.61,0.152
1593925248534454,1.601,0.61,0.152
1593925249035876,1.563,0.533,0.152
1593925249539867,1.677,0.61,0.152
1593925250041405,1.601,0.533,0.152
1593925250542870,1.639,0.533,0.152
1593925251044502,1.639,0.61,0.152
1593925251546001,1.601,0.61,0.152
1593925252047454,1.601,0.61,0.152
1593925252548863,1.563,0.533,0.152
1593925253050328,1.715,0.61,0.152
1593925253551795,1.601,0.61,0.152
1593925254053195,1.563,0.533,0.152
1593925254558620,1.677,0.61,0.152
1593925255060063,1.601,0.61,0.152
1593925255561485,1.639,0.533,0.152
1593925256062813,1.563,0.533,0.152
1593925256564320,1.639,0.61,0.152
1593925257065769,1.639,0.61,0.152
1593925257567185,1.563,0.533,0.152
1593925258068769,1.715,0.61,0.152
1593925258570263,1.601,0.61,0.152
1593925259071780,1.677,0.533,0.152
1593925259575852,2.019,0.61,0.152
1593925260077349,2.019,0.61,0.152
1593925260578853,2.058,0.61,0.152
1593925261080444,1.791,0.61,0.152
1593925261582023,1.715,0.61,0.152
1593925262083568,1.639,0.61,0.152
1593925262585004,1.563,0.533,0.152
1593925263086460,1.639,0.61,0.152
1593925263587962,1.601,0.61,0.152
1593925264089381,1.563,0.533,0.152
1593925264593253,1.677,0.61,0.152
1593925265094765,1.639,0.61,0.152
1593925265596202,1.639,0.61,0.152
1593925266097638,1.639,0.61,0.152
1593925266600045,1.601,0.61,0.152
1593925267101545,1.639,0.61,0.152
1593925267603118,1.563,0.533,0.152
1593925268104750,1.639,0.61,0.152
1593925268606248,1.639,0.61,0.152
1593925269107758,1.563,0.533,0.152
1593925269611786,1.639,0.61,0.152
1593925270113345,1.639,0.61,0.152
1593925270614830,1.677,0.61,0.152
1593925271116358,1.639,0.61,0.152
1593925271617814,1.563,0.533,0.152
1593925272119282,1.639,0.61,0.152
1593925272620792,1.601,0.61,0.152
1593925273122277,1.639,0.61,0.152
1593925273623778,1.639,0.61,0.152
1593925274125364,1.601,0.61,0.152
1593925274629599,1.639,0.61,0.152
1593925275131170,1.601,0.533,0.152
1593925275632664,1.639,0.61,0.152
1593925276134153,1.601,0.61,0.152
1593925276635609,1.563,0.533,0.152
1593925277137075,1.639,0.61,0.152
1593925277638586,1.601,0.533,0.152
1593925278139968,1.639,0.61,0.152
1593925278641870,1.639,0.61,0.152
1593925279143594,1.601,0.61,0.152
1593925279645062,1.601,0.61,0.152
1593925280146485,1.563,0.533,0.152
1593925280649255,1.677,0.61,0.152
1593925281150765,1.601,0.61,0.152
1593925281652265,1.563,0.533,0.152
1593925282153674,1.639,0.61,0.152
1593925282655182,1.601,0.533,0.152
1593925283156839,1.639,0.61,0.152
1593925283658386,1.601,0.61,0.152
1593925284159914,1.601,0.61,0.152
1593925284664001,1.601,0.61,0.152
1593925285165454,1.563,0.533,0.152
1593925285666916,1.715,0.61,0.152
1593925286168379,1.601,0.533,0.152
1593925286669797,1.601,0.533,0.152
1593925287171599,1.677,0.61,0.152
1593925287673108,1.601,0.61,0.152
1593925288174542,1.639,0.61,0.152
1593925288675956,1.563,0.533,0.152
1593925289177372,1.715,0.61,0.152
1593925289681060,1.639,0.61,0.152
1593925290182477,1.563,0.533,0.152
1593925290684113,1.677,0.61,0.152
1593925291185616,1.601,0.61,0.152
1593925291687078,1.639,0.61,0.152
1593925292188700,1.601,0.61,0.152
1593925292690190,1.639,0.61,0.152
1593925293191730,1.639,0.61,0.152
1593925293693136,1.563,0.533,0.152
1593925294194666,1.677,0.61,0.152
1593925294698896,1.639,0.61,0.152
1593925295200419,1.563,0.533,0.152
1593925295701901,1.639,0.61,0.152
1593925296203409,1.601,0.61,0.152
1593925296704862,1.639,0.61,0.152
1593925297206353,1.639,0.61,0.152
1593925297707847,1.639,0.61,0.152
1593925298209296,1.639,0.61,0.152
1593925298710850,1.563,0.533,0.152
1593925299213986,1.677,0.61,0.152
1593925299718202,1.639,0.61,0.152
1593925300219654,1.563,0.533,0.152
1593925300721129,1.639,0.61,0.152
1593925301222625,1.601,0.61,0.152
1593925301724104,1.639,0.61,0.152
1593925302225590,1.639,0.61,0.152
1593925302727187,1.639,0.61,0.152
1593925303228846,1.639,0.61,0.152
1593925303730345,1.601,0.61,0.152
1593925304231815,1.639,0.61,0.152
1593925304735656,1.639,0.61,0.152
1593925305237238,1.601,0.61,0.152
1593925305738741,1.639,0.61,0.152
1593925306240247,1.639,0.61,0.152
1593925306741694,1.639,0.61,0.152
1593925307243162,1.601,0.61,0.152
1593925307745190,1.601,0.61,0.152
1593925308246686,1.639,0.61,0.152
1593925308748191,1.601,0.533,0.152
1593925309249573,1.639,0.61,0.152
1593925309751053,1.639,0.61,0.152
1593925310252589,1.601,0.61,0.152
1593925310754050,1.601,0.61,0.152
1593925311256609,1.601,0.61,0.152
1593925311758192,1.677,0.61,0.152
1593925312259824,1.601,0.533,0.152
1593925312761271,1.563,0.533,0.152
1593925313262761,1.639,0.61,0.152
1593925313764270,1.563,0.533,0.152
1593925314265735,1.639,0.61,0.152
1593925314767201,1.639,0.61,0.152
1593925315268789,1.601,0.61,0.152
1593925315770241,1.601,0.61,0.152
1593925316271854,1.563,0.533,0.152
1593925316773411,1.677,0.61,0.152
1593925317274875,1.563,0.533,0.152
1593925317776291,1.563,0.533,0.152
1593925318277861,1.715,0.61,0.152
1593925318779360,1.563,0.533,0.152
1593925319280826,1.639,0.61,0.152
1593925319782374,1.639,0.61,0.152
1593925320283868,1.601,0.61,0.152
1593925320785280,1.601,0.61,0.152
1593925321286684,1.563,0.533,0.152
1593925321788265,1.677,0.61,0.152
1593925322289993,1.829,0.61,0.152
1593925322791475,1.981,0.533,0.152
1593925323294046,2.058,0.61,0.152
1593925323798135,1.943,0.61,0.152
1593925324299643,1.753,0.61,0.152
1593925324801082,1.601,0.533,0.152
1593925325304938,1.677,0.61,0.152
1593925325806379,1.639,0.61,0.152
1593925326307809,1.563,0.533,0.152
1593925326809327,1.677,0.61,0.152
1593925327310802,1.601,0.61,0.152
1593925327812261,1.601,0.533,0.152
1593925328313719,1.639,0.61,0.152
1593925328815210,1.601,0.61,0.152
1593925329316829,1.639,0.61,0.152
1593925329818456,1.601,0.61,0.152
1593925330322474,1.715,0.61,0.152
1593925330823959,1.639,0.61,0.152
1593925331325476,1.563,0.533,0.152
1593925331827041,1.639,0.61,0.152
1593925332328543,1.601,0.61,0.152
1593925332829994,1.601,0.533,0.152
1593925333331465,1.639,0.61,0.152
1593925333832958,1.601,0.61,0.152
1593925334334370,1.639,0.61,0.152
1593925334835844,1.601,0.61,0.152
1593925335340016,1.677,0.61,0.152
1593925335841503,1.601,0.61,0.152
1593925336343084,1.601,0.61,0.152
1593925336844716,1.639,0.61,0.152
1593925337346220,1.601,0.61,0.152
1593925337847657,1.639,0.533,0.152
1593925338349127,1.639,0.61,0.152
1593925338850626,1.639,0.61,0.152
1593925339352084,1.639,0.61,0.152
1593925339853525,1.601,0.61,0.152
1593925340358299,1.639,0.61,0.152
1593925340859784,1.639,0.61,0.152
1593925341361294,1.601,0.61,0.152
1593925341862745,1.639,0.61,0.152
1593925342364209,1.601,0.61,0.152
1593925342866129,1.677,0.61,0.152
1593925343367637,1.601,0.61,0.152
1593925343870143,1.601,0.61,0.152
1593925344371626,1.639,0.61,0.152
1593925344873108,1.601,0.533,0.152
1593925345376872,1.639,0.61,0.152
1593925345878338,1.639,0.61,0.152
1593925346379904,1.601,0.61,0.152
1593925346881328,1.601,0.61,0.152
1593925347382784,1.601,0.61,0.152
1593925347884274,1.677,0.61,0.152
1593925348385769,1.563,0.533,0.152
1593925348887263,1.563,0.533,0.152
1593925349388912,1.677,0.61,0.152
1593925349892962,1.601,0.61,0.152
1593925350397047,1.563,0.533,0.152
1593925350898606,1.639,0.61,0.152
1593925351400160,1.601,0.533,0.152
1593925351901605,1.601,0.533,0.152
1593925352403133,1.639,0.61,0.152
1593925352904626,1.601,0.533,0.152
1593925353406081,1.601,0.533,0.152
1593925353907476,1.563,0.533,0.152
1593925354408887,1.639,0.61,0.152
1593925354910253,1.601,0.61,0.152
1593925355411659,1.563,0.533,0.152
1593925355913223,1.715,0.61,0.152
1593925356414721,1.601,0.533,0.152
1593925356916188,1.601,0.533,0.152
1593925357417735,1.601,0.533,0.152
1593925357919215,1.639,0.61,0.152
1593925358420809,1.639,0.533,0.152
1593925358922201,1.563,0.533,0.152
1593925359423859,1.639,0.61,0.152
1593925359925338,1.601,0.533,0.152
1593925360426793,1.563,0.533,0.152
1593925360930608,1.677,0.61,0.152
1593925361432283,1.639,0.61,0.152
1593925361933704,1.563,0.533,0.152
1593925362435075,1.601,0.533,0.152
1593925362936535,1.639,0.61,0.152
1593925363438001,1.639,0.61,0.152
1593925363939413,1.563,0.533,0.152
1593925364440904,1.601,0.61,0.152
1593925364942396,1.639,0.61,0.152
1593925365443893,1.563,0.533,0.152
1593925365947783,1.677,0.61,0.152
1593925366449281,1.639,0.61,0.152
1593925366950729,1.563,0.533,0.152
1593925367452390,1.677,0.61,0.152
1593925367953945,1.639,0.61,0.152
1593925368455435,1.677,0.61,0.152
1593925368957034,1.601,0.533,0.152
1593925369458534,1.563,0.533,0.152
1593925369960024,1.639,0.61,0.152
1593925370461481,1.563,0.533,0.152
1593925370965658,1.677,0.61,0.152
1593925371467146,1.639,0.61,0.152
1593925371968590,1.563,0.533,0.152
1593925372470017,1.639,0.61,0.152
1593925372971746,1.601,0.533,0.152
1593925373473239,1.677,0.61,0.152
1593925373974711,1.639,0.61,0.152
1593925374476181,1.563,0.533,0.152
1593925374977556,1.677,0.61,0.152
1593925375479136,1.563,0.533,0.152
1593925375983255,1.639,0.533,0.152
1593925376485023,1.639,0.61,0.152
1593925376986508,1.563,0.533,0.152
1593925377487996,1.639,0.61,0.152
1593925377989441,1.563,0.533,0.152
1593925378490881,1.639,0.61,0.152
1593925378992411,1.639,0.61,0.152
1593925379493866,1.563,0.533,0.152
1593925379995375,1.677,0.61,0.152
1593925380496862,1.639,0.61,0.152
1593925381000602,1.639,0.61,0.152
1593925381502135,1.639,0.61,0.152
1593925382003862,1.601,0.61,0.152
1593925382505349,1.639,0.61,0.152
1593925383006796,1.563,0.533,0.152
1593925383508313,1.677,0.61,0.152
1593925384009806,1.639,0.61,0.152
1593925384518506,1.563,0.533,0.152
1593925385020164,1.753,0.61,0.152
1593925385521660,1.943,0.61,0.152
1593925386025234,2.058,0.61,0.152
1593925386526768,2.019,0.61,0.152
1593925387028350,1.867,0.61,0.152
1593925387529849,1.715,0.61,0.152
1593925388031285,1.563,0.533,0.152
1593925388532949,1.639,0.533,0.152
1593925389034440,1.677,0.61,0.152
1593925389535955,1.563,0.533,0.152
1593925390037399,1.639,0.61,0.152
1593925390538990,1.677,0.61,0.152
1593925391043096,1.677,0.61,0.152
1593925391544665,1.601,0.533,0.152
1593925392046229,1.601,0.61,0.152
1593925392547771,1.639,0.61,0.152
1593925393049211,1.563,0.533,0.152
1593925393550603,1.639,0.533,0.152
1593925394052061,1.677,0.61,0.152
1593925394553516,1.563,0.533,0.152
1593925395054889,1.601,0.61,0.152
1593925395556578,1.601,0.61,0.152
1593925396060561,1.677,0.61,0.152
1593925396562020,1.601,0.533,0.152
1593925397063788,1.601,0.61,0.152
1593925397565284,1.677,0.61,0.152
1593925398066726,1.563,0.533,0.152
1593925398568352,1.677,0.61,0.152
1593925399069928,1.639,0.61,0.152
1593925399571417,1.563,0.533,0.152
1593925400072956,1.601,0.533,0.152
1593925400574428,1.563,0.533,0.152
1593925401078253,1.677,0.61,0.152
1593925401579741,1.563,0.533,0.152
1593925402081213,1.601,0.533,0.152
1593925402582715,1.677,0.61,0.152
1593925403084166,1.563,0.533,0.152
1593925403585632,1.639,0.61,0.152
1593925404087639,1.601,0.61,0.152
1593925404589141,1.601,0.61,0.152
1593925405090599,1.639,0.61,0.152
1593925405592066,1.563,0.533,0.152
1593925406096224,1.677,0.61,0.152
1593925406597799,1.601,0.61,0.152
1593925407099346,1.563,0.533,0.152
1593925407600906,1.677,0.61,0.152
1593925408102384,1.563,0.533,0.152
1593925408603921,1.639,0.61,0.152
1593925409105371,1.563,0.533,0.152
1593925409606820,1.601,0.61,0.152
1593925410108356,1.639,0.61,0.152
1593925410609818,1.563,0.533,0.152
1593925411113690,1.677,0.61,0.152
1593925411615191,1.639,0.61,0.152
1593925412116679,1.601,0.533,0.152
1593925412618176,1.639,0.61,0.152
1593925413120923,1.601,0.61,0.152
1593925413622391,1.639,0.61,0.152
1593925414123848,1.563,0.533,0.152
1593925414625294,1.639,0.61,0.152
1593925415126663,1.639,0.61,0.152
1593925415628035,1.563,0.533,0.152
1593925416131907,1.677,0.61,0.152
1593925416633401,1.601,0.61,0.152
1593925417134854,1.601,0.533,0.152
1593925417636454,1.601,0.61,0.152
1593925418137943,1.639,0.61,0.152
1593925418639414,1.639,0.61,0.152
1593925419140834,1.563,0.533,0.152
1593925419642362,1.715,0.61,0.152
1593925420143879,1.639,0.61,0.152
1593925420645342,1.563,0.533,0.152
1593925421149403,1.639,0.61,0.152
1593925421650900,1.601,0.61,0.152
1593925422152387,1.639,0.61,0.152
1593925422653794,1.601,0.61,0.152
1593925423155481,1.677,0.61,0.152
1593925423656961,1.639,0.61,0.152
1593925424158353,1.563,0.533,0.152
1593925424659903,1.639,0.61,0.152
1593925425161402,1.639,0.61,0.152
1593925425662859,1.563,0.533,0.152
1593925426166591,1.601,0.61,0.152
1593925426668076,1.639,0.61,0.152
1593925427169528,1.677,0.61,0.152
1593925427670932,1.601,0.533,0.152
1593925428172554,1.601,0.61,0.152
1593925428674054,1.639,0.61,0.152
1593925429175535,1.563,0.533,0.152
1593925429676997,1.677,0.61,0.152
1593925430178495,1.639,0.61,0.152
1593925430679953,1.563,0.533,0.152
1593925431183925,1.639,0.61,0.152
1593925431685483,1.639,0.61,0.152
1593925432186964,1.639,0.61,0.152
1593925432688403,1.601,0.533,0.152
1593925433189879,1.563,0.61,0.152
1593925433691382,1.639,0.61,0.152
1593925434192818,1.563,0.533,0.152
1593925434694226,1.677,0.61,0.152
1593925435195805,1.677,0.61,0.152
1593925435697220,1.563,0.533,0.152
1593925436201251,1.677,0.61,0.152
1593925436702844,1.601,0.533,0.152
1593925437204348,1.677,0.61,0.152
1593925437705936,1.601,0.61,0.152
1593925438207480,1.563,0.533,0.152
1593925438708971,1.639,0.61,0.152
1593925439210444,1.563,0.533,0.152
1593925439711980,1.639,0.61,0.152
1593925440214163,1.639,0.61,0.152
1593925440715654,1.563,0.533,0.152
1593925441219599,1.639,0.61,0.152
1593925441721089,1.563,0.533,0.152
1593925442222550,1.677,0.61,0.152
1593925442724076,1.639,0.61,0.152
1593925443225522,1.563,0.533,0.152
1593925443726979,1.677,0.61,0.152
1593925444228562,1.601,0.61,0.152
1593925444730026,1.563,0.533,0.152
1593925445231696,1.639,0.61,0.152
1593925445733176,1.563,0.533,0.152
1593925446236949,1.639,0.61,0.152
1593925446738401,1.563,0.533,0.152
1593925447239871,1.601,0.61,0.152
1593925447741374,1.639,0.61,0.152
1593925448242824,1.792,0.533,0.152
1593925448744400,2.058,0.61,0.152
1593925449245941,2.019,0.61,0.152
1593925449747561,1.943,0.61,0.152
1593925450249117,1.753,0.61,0.152
1593925450750730,1.677,0.61,0.152
1593925451252183,1.677,0.61,0.152
1593925451753623,1.563,0.533,0.152
1593925452255880,1.639,0.61,0.152
1593925452757379,1.639,0.61,0.152
1593925453258875,1.563,0.533,0.152
1593925453760496,1.639,0.61,0.152
1593925454261999,1.639,0.61,0.152
1593925454763480,1.563,0.533,0.152
1593925455264850,1.601,0.61,0.152
1593925455766361,1.639,0.61,0.152
1593925456270136,1.639,0.61,0.152
1593925456771568,1.563,0.533,0.152
1593925457273127,1.639,0.61,0.152
1593925457774627,1.639,0.61,0.152
1593925458276111,1.563,0.533,0.152
1593925458777527,1.601,0.61,0.152
1593925459278983,1.677,0.61,0.152
1593925459780447,1.601,0.61,0.152
1593925460281862,1.601,0.61,0.152
1593925460783483,1.601,0.61,0.152
1593925461287358,1.677,0.61,0.152
1593925461788810,1.563,0.533,0.152
1593925462290397,1.639,0.61,0.152
1593925462791884,1.677,0.61,0.152
1593925463293327,1.563,0.533,0.152
1593925463794738,1.601,0.61,0.152
1593925464296346,1.639,0.61,0.152
1593925464797874,1.563,0.533,0.152
1593925465299365,1.601,0.61,0.152
1593925465800838,1.601,0.533,0.152
1593925466304807,1.601,0.61,0.152
1593925466806291,1.601,0.61,0.152
1593925467307789,1.601,0.533,0.152
1593925467809287,1.677,0.61,0.152
1593925468310727,1.563,0.533,0.152
1593925468812313,1.639,0.61,0.152
1593925469313882,1.639,0.61,0.152
1593925469815377,1.563,0.533,0.152
1593925470316978,1.601,0.61,0.152
1593925470818463,1.563,0.533,0.152
1593925471322144,1.677,0.61,0.152
1593925471823598,1.601,0.533,0.152
1593925472325067,1.563,0.533,0.152
1593925472827467,1.677,0.61,0.152
1593925473328953,1.563,0.533,0.152
1593925473830408,1.677,0.61,0.152
1593925474331863,1.563,0.533,0.152
1593925474833314,1.601,0.533,0.152
1593925475334776,1.677,0.61,0.152
1593925475836227,1.563,0.533,0.152
1593925476340106,1.677,0.61,0.152
1593925476841676,1.601,0.61,0.152
1593925477343134,1.563,0.533,0.152
1593925477844746,1.639,0.61,0.152
1593925478346229,1.563,0.533,0.152
1593925478847840,1.677,0.61,0.152
1593925479349291,1.601,0.533,0.152
1593925479850734,1.601,0.61,0.152
1593925480352241,1.639,0.61,0.152
1593925480853711,1.563,0.533,0.152
1593925481355244,1.677,0.61,0.152
1593925481856828,1.639,0.61,0.152
1593925482358288,1.601,0.533,0.152
1593925482859736,1.601,0.61,0.152
1593925483361323,1.601,0.61,0.152
1593925483862833,1.639,0.61,0.152
1593925484364281,1.563,0.533,0.152
1593925484865724,1.639,0.61,0.152
1593925485367227,1.639,0.61,0.152
1593925485868840,1.563,0.533,0.152
1593925486372668,1.601,0.533,0.152
1593925486874171,1.677,0.61,0.152
1593925487375625,1.563,0.533,0.152
1593925487877039,1.639,0.533,0.152
1593925488378520,1.677,0.61,0.152
1593925488880040,1.563,0.533,0.152
1593925489381471,1.601,0.61,0.152
1593925489883531,1.639,0.61,0.152
1593925490385042,1.677,0.61,0.152
1593925490886504,1.601,0.533,0.152
1593925491390300,1.563,0.533,0.152
1593925491891770,1.715,0.61,0.152
1593925492393221,1.563,0.533,0.152
1593925492894628,1.639,0.61,0.152
1593925493396638,1.639,0.61,0.152
1593925493898136,1.601,0.61,0.152
1593925494399619,1.601,0.61,0.152
1593925494901140,1.563,0.533,0.152
1593925495402636,1.715,0.61,0.152
1593925495904435,1.601,0.61,0.152
1593925496408236,1.563,0.533,0.152
1593925496910012,1.677,0.61,0.152
1593925497411627,1.563,0.533,0.152
1593925497913071,1.639,0.61,0.152
1593925498414510,1.601,0.61,0.152
1593925498916014,1.601,0.61,0.152
1593925499417449,1.601,0.61,0.152
1593925499918886,1.601,0.61,0.152
1593925500420396,1.715,0.61,0.152
1593925500921850,1.601,0.61,0.152
1593925501425715,1.601,0.533,0.152
1593925501927290,1.639,0.61,0.152
1593925502428905,1.601,0.533,0.152
1593925502930363,1.639,0.533,0.152
1593925503431973,1.601,0.61,0.152
1593925503933468,1.601,0.61,0.152
1593925504434875,1.601,0.61,0.152
1593925504936479,1.601,0.533,0.152
1593925505438918,1.677,0.61,0.152
1593925505940652,1.601,0.61,0.152
1593925506444580,1.639,0.61,0.152
1593925506946037,1.639,0.61,0.152
1593925507447505,1.601,0.533,0.152
1593925507949078,1.677,0.61,0.152
1593925508450572,1.601,0.61,0.152
1593925508952067,1.639,0.61,0.152
1593925509453529,1.601,0.61,0.152
1593925509955005,1.563,0.533,0.152
1593925510456980,1.677,0.61,0.152
1593925510958437,1.601,0.61,0.152
1593925511462197,1.905,0.61,0.152
1593925511963656,2.019,0.61,0.152
1593925512465112,2.019,0.533,0.152
1593925512966606,1.943,0.61,0.152
1593925513468681,1.639,0.61,0.152
1593925513970231,1.639,0.61,0.152
1593925514471915,1.639,0.61,0.152
1593925514973414,1.563,0.533,0.152
1593925515474856,1.639,0.61,0.152
1593925515976397,1.601,0.61,0.152
1593925516480499,1.601,0.61,0.152
1593925516982012,1.601,0.61,0.152
1593925517483388,1.601,0.61,0.152
1593925517984928,1.677,0.61,0.152
1593925518486395,1.563,0.533,0.152
1593925518987910,1.601,0.61,0.152
1593925519489377,1.677,0.61,0.152
1593925519990841,1.563,0.533,0.152
1593925520492296,1.639,0.61,0.152
1593925520993842,1.639,0.61,0.152
1593925521497767,1.601,0.61,0.152
1593925521999221,1.601,0.61,0.152
1593925522500620,1.639,0.61,0.152
1593925523002112,1.677,0.61,0.152
1593925523503750,1.563,0.533,0.152
1593925524006277,1.601,0.533,0.152
1593925524507977,1.677,0.61,0.152
1593925525009533,1.563,0.533,0.152
1593925525510938,1.601,0.61,0.152
1593925526012596,1.677,0.61,0.152
1593925526516481,1.639,0.61,0.152
1593925527017934,1.601,0.61,0.152
1593925527519624,1.563,0.533,0.152
1593925528021148,1.677,0.61,0.152
1593925528522612,1.563,0.533,0.152
1593925529024045,1.601,0.533,0.152
1593925529525569,1.715,0.61,0.152
1593925530027051,1.563,0.533,0.152
1593925530528492,1.601,0.61,0.152
1593925531029924,1.601,0.61,0.152
1593925531531426,1.677,0.61,0.152
1593925532032870,1.601,0.61,0.152
1593925532534404,1.563,0.533,0.152
1593925533035888,1.715,0.61,0.152
1593925533537340,1.563,0.533,0.152
1593925534038745,1.639,0.61,0.152
1593925534540300,1.639,0.61,0.152
1593925535041758,1.601,0.61,0.152
1593925535543170,1.639,0.61,0.152
1593925536044890,1.601,0.61,0.152
1593925536548740,1.715,0.61,0.152
1593925537050193,1.601,0.61,0.152
1593925537551613,1.601,0.61,0.152
1593925538053187,1.677,0.61,0.152
1593925538554678,1.601,0.533,0.152
1593925539056348,1.639,0.61,0.152
1593925539557919,1.601,0.61,0.152
1593925540059418,1.601,0.61,0.152
1593925540560869,1.601,0.61,0.152
1593925541062342,1.563,0.533,0.152
1593925541566293,1.715,0.61,0.152
1593925542067870,1.601,0.61,0.152
1593925542569294,1.601,0.61,0.152
1593925543070891,1.639,0.61,0.152
1593925543572391,1.563,0.533,0.152
1593925544073857,1.677,0.61,0.152
1593925544575463,1.601,0.61,0.152
1593925545076930,1.601,0.61,0.152
1593925545578652,1.639,0.61,0.152
1593925546080193,1.563,0.533,0.152
1593925546584062,1.715,0.61,0.152
1593925547085537,1.601,0.61,0.152
1593925547587053,1.601,0.61,0.152
1593925548088500,1.601,0.61,0.152
1593925548589956,1.601,0.533,0.152
1593925549091465,1.677,0.61,0.152
1593925549592941,1.601,0.533,0.152
1593925550094401,1.601,0.61,0.152
1593925550596033,1.677,0.61,0.152
1593925551097489,1.563,0.533,0.152
1593925551601553,1.601,0.61,0.152
1593925552103138,1.639,0.61,0.152
1593925552604550,1.601,0.533,0.152
1593925553105901,1.639,0.533,0.152
1593925553607361,1.601,0.61,0.152
1593925554108862,1.601,0.533,0.152
1593925554610341,1.601,0.61,0.152
1593925555112806,1.639,0.61,0.152
1593925555614312,1.677,0.61,0.152
1593925556115850,1.601,0.61,0.152
1593925556619988,1.563,0.533,0.152
1593925557121475,1.677,0.61,0.152
1593925557622943,1.563,0.533,0.152
1593925558124393,1.639,0.61,0.152
1593925558625936,1.677,0.61,0.152
1593925559127409,1.601,0.61,0.152
1593925559628823,1.601,0.61,0.152
1593925560130388,1.601,0.61,0.152
1593925560631925,1.715,0.61,0.152
1593925561133378,1.601,0.61,0.152
1593925561637435,1.563,0.533,0.152
1593925562138966,1.715,0.61,0.152
1593925562640454,1.601,0.533,0.152
1593925563141902,1.639,0.61,0.152
1593925563643528,1.601,0.61,0.152
1593925564145029,1.601,0.61,0.152
1593925564646512,1.601,0.61,0.152
1593925565147837,1.563,0.533,0.152
1593925565649281,1.715,0.61,0.152
1593925566150682,1.601,0.61,0.152
1593925566654472,1.563,0.533,0.152
1593925567156180,1.677,0.61,0.152
1593925567657694,1.601,0.61,0.152
1593925568159145,1.639,0.61,0.152
1593925568660707,1.639,0.61,0.152
1593925569162205,1.601,0.61,0.152
1593925569663738,1.601,0.61,0.152
1593925570165296,1.639,0.61,0.152
1593925570666858,1.715,0.61,0.152
1593925571168361,1.601,0.61,0.152
1593925571672047,1.563,0.533,0.152
1593925572173528,1.639,0.61,0.152
1593925572675024,1.601,0.533,0.152
1593925573176475,1.639,0.61,0.152
1593925573677955,1.601,0.61,0.152
1593925574179433,1.829,0.61,0.152
1593925574680849,1.981,0.61,0.152
1593925575182220,2.019,0.61,0.152
1593925575688084,1.981,0.61,0.152
1593925576189587,1.829,0.61,0.152
1593925576693829,1.677,0.61,0.152
1593925577195366,1.639,0.61,0.152
1593925577696893,1.601,0.61,0.152
1593925578198390,1.601,0.533,0.152
1593925578699885,1.601,0.61,0.152
1593925579201344,1.563,0.533,0.152
1593925579702800,1.677,0.61,0.152
1593925580204347,1.601,0.61,0.152
1593925580705812,1.601,0.533,0.152
1593925581208285,1.677,0.61,0.152
1593925581709783,1.601,0.61,0.152
1593925582211241,1.639,0.61,0.152
1593925582714292,1.563,0.533,0.152
1593925583215816,1.677,0.61,0.152
1593925583717279,1.639,0.61,0.152
1593925584218698,1.563,0.533,0.152
1593925584720338,1.677,0.61,0.152
1593925585221844,1.601,0.61,0.152
1593925585723353,1.601,0.533,0.152
1593925586225932,1.639,0.61,0.152
1593925586727436,1.601,0.61,0.152
1593925587228905,1.639,0.61,0.152
1593925587730311,1.563,0.533,0.152
1593925588231784,1.677,0.61,0.152
1593925588733375,1.601,0.61,0.152
1593925589234796,1.563,0.533,0.152
1593925589736378,1.677,0.61,0.152
1593925590237878,1.639,0.61,0.152
1593925590739376,1.601,0.533,0.152
1593925591240784,1.601,0.61,0.152
1593925591744643,1.639,0.61,0.152
1593925592246055,1.639,0.61,0.152
1593925592747483,1.563,0.533,0.152
1593925593249024,1.639,0.61,0.152
1593925593750518,1.639,0.61,0.152
1593925594252014,1.563,0.533,0.152
1593925594753566,1.677,0.61,0.152
1593925595254969,1.639,0.61,0.152
1593925595756377,1.601,0.533,0.152
1593925596257685,1.601,0.533,0.152
1593925596762355,1.639,0.61,0.152
1593925597263831,1.639,0.61,0.152
1593925597765273,1.563,0.533,0.152
1593925598266741,1.639,0.61,0.152
1593925598768223,1.639,0.61,0.152
1593925599269666,1.563,0.533,0.152
1593925599771127,1.639,0.61,0.152
1593925600272895,1.639,0.61,0.152
1593925600774349,1.601,0.61,0.152
1593925601275826,1.639,0.61,0.152
1593925601777437,1.601,0.61,0.152
1593925602278928,1.639,0.61,0.152
1593925602780570,1.563,0.533,0.152
1593925603282027,1.601,0.61,0.152
1593925603783615,1.639,0.61,0.152
1593925604285062,1.563,0.533,0.152
1593925604786531,1.639,0.61,0.152
1593925605288249,1.639,0.61,0.152
1593925605789739,1.601,0.61,0.152
1593925606291230,1.601,0.61,0.152
1593925606795414,1.563,0.533,0.152
1593925607296881,1.677,0.61,0.152
1593925607798335,1.639,0.61,0.152
1593925608299800,1.563,0.533,0.152
1593925608801217,1.677,0.61,0.152
1593925609302798,1.601,0.533,0.152
1593925609804309,1.639,0.61,0.152
1593925610305968,1.639,0.61,0.152
1593925610807465,1.563,0.533,0.152
1593925611308962,1.639,0.61,0.152
1593925611812892,1.563,0.533,0.152
1593925612314364,1.677,0.61,0.152
1593925612815862,1.639,0.61,0.152
1593925613317328,1.563,0.533,0.152
1593925613818737,1.677,0.61,0.152
1593925614320248,1.639,0.61,0.152
1593925614821714,1.639,0.61,0.152
1593925615323296,1.601,0.61,0.152
1593925615825234,1.601,0.61,0.152
1593925616326757,1.639,0.61,0.152
1593925616830455,1.601,0.533,0.152
1593925617331956,1.677,0.61,0.152
1593925617833416,1.601,0.61,0.152
1593925618334867,1.563,0.533,0.152
1593925618836428,1.639,0.61,0.152
1593925619337923,1.601,0.61,0.152
1593925619839389,1.639,0.533,0.152
1593925620340817,1.563,0.533,0.152
1593925620842308,1.639,0.61,0.152
1593925621343778,1.639,0.61,0.152
1593925621847786,1.563,0.533,0.152
1593925622350430,1.715,0.61,0.152
1593925622851976,1.601,0.61,0.152
1593925623353429,1.563,0.533,0.152
1593925623854820,1.601,0.61,0.152
1593925624356269,1.639,0.61,0.152
1593925624864552,1.639,0.61,0.152
1593925625365962,1.563,0.533,0.152
1593925625867908,1.639,0.61,0.152
1593925626369394,1.639,0.61,0.152
1593925626873149,1.563,0.533,0.152
1593925627374748,1.639,0.61,0.152
1593925627876244,1.639,0.61,0.152
1593925628377644,1.563,0.533,0.152
1593925628879047,1.601,0.61,0.152
1593925629380570,1.639,0.61,0.152
1593925629882051,1.639,0.61,0.152
1593925630383557,1.601,0.533,0.152
1593925630885040,1.601,0.61,0.152
1593925631386530,1.639,0.61,0.152
1593925631890319,1.563,0.533,0.152
1593925632391809,1.677,0.61,0.152
1593925632893342,1.639,0.61,0.152
1593925633394791,1.563,0.533,0.152
1593925633896446,1.639,0.61,0.152
1593925634398026,1.601,0.61,0.152
1593925634899641,1.639,0.61,0.152
1593925635401035,1.601,0.533,0.152
1593925635902544,1.601,0.61,0.152
1593925636404038,1.639,0.61,0.152
1593925636908174,1.563,0.533,0.152
1593925637409606,1.943,0.61,0.152
1593925637911174,2.058,0.61,0.152
1593925638412837,1.981,0.533,0.152
1593925638939474,1.943,0.61,0.152
1593925639448075,1.791,0.61,0.152
1593925639949581,1.715,0.61,0.152
1593925640450992,1.601,0.533,0.152
1593925640952424,1.639,0.61,0.152
1593925641453925,1.677,0.61,0.152
1593925641958038,1.563,0.533,0.152
1593925642459605,1.677,0.61,0.152
1593925642961169,1.639,0.61,0.152
1593925643462689,1.639,0.61,0.152
1593925643964370,1.601,0.61,0.152
1593925644465878,1.563,0.533,0.152
1593925644967399,1.639,0.61,0.152
1593925645468835,1.563,0.533,0.152
1593925645970285,1.639,0.61,0.152
1593925646471783,1.677,0.61,0.152
1593925646975549,1.563,0.533,0.152
1593925647477300,1.639,0.61,0.152
1593925647978887,1.601,0.533,0.152
1593925648480480,1.639,0.61,0.152
1593925648981986,1.639,0.61,0.152
1593925649483440,1.563,0.533,0.152
1593925649984890,1.677,0.61,0.152
1593925650486465,1.601,0.61,0.152
1593925650987974,1.639,0.61,0.152
1593925651489553,1.639,0.61,0.152
1593925651993421,1.601,0.533,0.152
1593925652494908,1.639,0.61,0.152
1593925652996378,1.563,0.533,0.152
1593925653497794,1.677,0.61,0.152
1593925653999294,1.639,0.61,0.152
1593925654500779,1.563,0.533,0.152
1593925655002229,1.715,0.61,0.152
1593925655503776,1.639,0.61,0.152
1593925656005250,1.563,0.533,0.152
1593925656507190,1.639,0.61,0.152
1593925657011268,1.601,0.61,0.152
1593925657512989,1.639,0.61,0.152
1593925658014446,1.563,0.533,0.152
1593925658515898,1.601,0.61,0.152
1593925659017360,1.639,0.61,0.152
1593925659518809,1.563,0.533,0.152
1593925660020361,1.677,0.61,0.152
1593925660521868,1.639,0.61,0.152
1593925661023354,1.563,0.533,0.152
1593925661524772,1.601,0.61,0.152
1593925662028829,1.639,0.61,0.152
1593925662530327,1.639,0.61,0.152
1593925663031759,1.563,0.533,0.152
1593925663533333,1.639,0.61,0.152
1593925664034837,1.639,0.61,0.152
1593925664536285,1.563,0.533,0.152
1593925665037766,1.639,0.533,0.152
1593925665539282,1.639,0.61,0.152
1593925666040785,1.601,0.533,0.152
1593925666542188,1.601,0.61,0.152
1593925667046783,1.639,0.61,0.152
1593925667548291,1.677,0.61,0.152
1593925668049747,1.563,0.533,0.152
1593925668551443,1.563,0.533,0.152
1593925669052943,1.677,0.61,0.152
1593925669554399,1.715,0.61,0.152
1593925670055887,1.867,0.686,0.152
1593925670564870,1.829,0.686,0.152
1593925671071870,1.791,0.686,0.152
1593925671573375,1.867,0.686,0.152
1593925672074881,1.791,0.686,0.152
1593925672576406,1.867,0.686,0.152
1593925673087408,1.791,0.686,0.152
1593925673588918,1.791,0.686,0.152
1593925674096771,1.829,0.686,0.152
1593925674598280,1.753,0.686,0.152
1593925675113855,1.829,0.686,0.152
1593925675615390,1.791,0.686,0.152
1593925676127419,1.791,0.686,0.152
1593925676628946,1.829,0.686,0.152
1593925677131923,1.792,0.686,0.152
1593925677636908,1.867,0.686,0.152
1593925678138432,1.829,0.686,0.152
1593925678639991,1.791,0.686,0.152
1593925679151658,1.829,0.686,0.152
1593925679653283,1.791,0.686,0.152
1593925680154830,1.867,0.686,0.152
1593925680656372,1.905,0.686,0.152
1593925681157820,1.829,0.61,0.152
1593925681659300,1.791,0.686,0.152
1593925682160911,1.601,0.533,0.152
1593925682665562,1.639,0.61,0.152
1593925683167095,1.639,0.61,0.152
1593925683668773,1.601,0.61,0.152
1593925684170228,1.601,0.61,0.152
1593925684671625,1.563,0.533,0.152
1593925685173078,1.677,0.61,0.152
1593925685674525,1.601,0.533,0.152
1593925686175949,1.563,0.533,0.152
1593925686678403,2.096,0.61,0.152
1593925687180053,2.096,0.61,0.152
1593925687684224,1.791,0.61,0.152
1593925688185661,1.601,0.533,0.152
1593925688687255,1.677,0.61,0.152
1593925689189166,1.639,0.61,0.152
1593925689690606,1.563,0.533,0.152
1593925690192142,1.677,0.61,0.152
1593925690693634,1.639,0.61,0.152
1593925691195054,1.601,0.61,0.152
1593925691696484,1.601,0.533,0.152
1593925692197898,1.639,0.61,0.152
1593925692699350,1.639,0.61,0.152
1593925693200770,1.563,0.533,0.152
1593925693702331,1.677,0.61,0.152
1593925694203833,1.601,0.61,0.152
1593925694705264,1.563,0.533,0.152
1593925695206719,1.639,0.61,0.152
1593925695708207,1.639,0.61,0.152
1593925696209659,1.639,0.61,0.152
1593925696711224,1.639,0.61,0.152
1593925697212909,1.639,0.61,0.152
1593925697714399,1.639,0.61,0.152
1593925698215849,1.563,0.533,0.152
1593925698717323,1.639,0.61,0.152
1593925699218857,1.601,0.61,0.152
1593925699720299,1.563,0.533,0.152
1593925700221751,1.829,0.61,0.152
1593925700723195,2.019,0.61,0.152
1593925701224870,2.058,0.61,0.152
1593925701726428,1.981,0.61,0.152
1593925702228129,1.753,0.61,0.152
1593925702732152,1.677,0.61,0.152
1593925703233726,1.601,0.533,0.152
1593925703735198,1.639,0.61,0.152
1593925704236783,1.601,0.61,0.152
1593925704738224,1.639,0.61,0.152
1593925705239692,1.601,0.61,0.152
1593925705741258,1.601,0.61,0.152
1593925706242738,1.639,0.61,0.152
1593925706744246,1.601,0.533,0.152
1593925707245752,1.639,0.61,0.152
1593925707749526,1.639,0.61,0.152
1593925708251019,1.601,0.61,0.152
1593925708752465,1.601,0.61,0.152
1593925709253877,1.639,0.61,0.152
1593925709755603,1.677,0.61,0.152
1593925710257107,1.601,0.61,0.152
1593925710758647,1.563,0.533,0.152
1593925711260245,1.639,0.61,0.152
1593925711761744,1.601,0.533,0.152
1593925712263214,1.639,0.533,0.152
1593925712767547,1.639,0.61,0.152
1593925713269045,1.601,0.61,0.152
1593925713770487,1.601,0.61,0.152
1593925714272421,1.601,0.61,0.152
1593925714773914,1.677,0.61,0.152
1593925715275373,1.601,0.61,0.152
1593925715776736,1.563,0.533,0.152
1593925716278488,1.715,0.61,0.152
1593925716779994,1.563,0.533,0.152
1593925717281402,1.639,0.61,0.152
1593925717785365,1.639,0.61,0.152
1593925718286897,1.601,0.61,0.152
1593925718788383,1.601,0.61,0.152
1593925719289933,1.563,0.533,0.152
1593925719791970,1.677,0.61,0.152
1593925720293426,1.601,0.533,0.152
1593925720794829,1.563,0.533,0.152
1593925721296302,1.715,0.61,0.152
1593925721797781,1.601,0.533,0.152
1593925722299194,1.639,0.533,0.152
1593925722803254,1.601,0.533,0.152
1593925723304847,1.639,0.61,0.152
1593925723806309,1.601,0.61,0.152
1593925724307759,1.563,0.533,0.152
1593925724810389,1.753,0.61,0.152
1593925725311856,1.601,0.61,0.152
1593925725813291,1.563,0.533,0.152
1593925726316395,1.639,0.61,0.152
1593925726817901,1.601,0.61,0.152
1593925727319355,1.639,0.533,0.152
1593925727823712,1.601,0.61,0.152
1593925728325175,1.639,0.61,0.152
1593925728826677,1.639,0.61,0.152
1593925729328141,1.563,0.533,0.152
1593925729829714,1.715,0.61,0.152
1593925730331200,1.601,0.61,0.152
1593925730832781,1.563,0.533,0.152
1593925731334248,1.639,0.61,0.152
1593925731835872,1.601,0.61,0.152
1593925732337321,1.639,0.533,0.152
1593925732841188,1.639,0.61,0.152
1593925733342638,1.639,0.61,0.152
1593925733844095,1.639,0.61,0.152
1593925734345651,1.601,0.61,0.152
1593925734848326,1.677,0.61,0.152
1593925735349696,1.639,0.61,0.152
1593925735851150,1.563,0.533,0.152
1593925736352667,1.601,0.61,0.152
1593925736854172,1.601,0.61,0.152
1593925737355623,1.639,0.533,0.152
1593925737859421,1.601,0.61,0.152
1593925738361805,1.639,0.61,0.152
1593925738863454,1.639,0.61,0.152
1593925739365244,1.601,0.533,0.152
1593925739866713,1.639,0.61,0.152
1593925740368187,1.639,0.61,0.152
1593925740869646,1.601,0.61,0.152
1593925741371101,1.639,0.61,0.152
1593925741872553,1.639,0.61,0.152
1593925742374128,1.639,0.61,0.152
1593925742878082,1.601,0.61,0.152
1593925743379651,1.601,0.533,0.152
1593925743881156,1.639,0.61,0.152
1593925744382666,1.601,0.533,0.152
1593925744884165,1.639,0.61,0.152
1593925745385619,1.639,0.61,0.152
1593925745887121,1.601,0.61,0.152
1593925746388575,1.601,0.61,0.152
1593925746890119,1.601,0.61,0.152
1593925747391619,1.715,0.61,0.152
1593925747895408,1.601,0.61,0.152
1593925748396831,1.563,0.533,0.152
1593925748898382,1.677,0.61,0.152
1593925749399901,1.563,0.533,0.152
1593925749901368,1.639,0.533,0.152
1593925750402834,1.677,0.61,0.152
1593925750904324,1.601,0.61,0.152
1593925751405777,1.601,0.61,0.152
1593925751907297,1.563,0.533,0.152
1593925752409024,1.715,0.61,0.152
1593925752913075,1.601,0.533,0.152
1593925753414496,1.563,0.533,0.152
1593925753915970,1.715,0.61,0.152
1593925754417424,1.563,0.533,0.152
1593925754918830,1.639,0.533,0.152
1593925755420491,1.639,0.61,0.152
1593925755922004,1.601,0.61,0.152
1593925756423457,1.601,0.61,0.152
1593925756924863,1.563,0.533,0.152
1593925757426479,1.677,0.61,0.152
1593925757930379,1.639,0.61,0.152
1593925758431811,1.563,0.533,0.152
1593925758933226,1.677,0.61,0.152
1593925759434619,1.601,0.61,0.152
1593925759936088,1.601,0.533,0.152
1593925760437642,1.601,0.61,0.152
1593925760939143,1.601,0.61,0.152
1593925761440599,1.639,0.61,0.152
1593925761942004,1.563,0.533,0.152
1593925762443681,1.639,0.61,0.152
1593925762952675,1.639,0.61,0.152
1593925763454096,1.867,0.533,0.152
1593925763955574,2.058,0.61,0.152
1593925764457063,2.019,0.61,0.152
1593925764958529,1.829,0.61,0.152
1593925765460001,1.715,0.61,0.152
1593925765961454,1.639,0.61,0.152
1593925766462897,1.639,0.61,0.152
1593925766964589,1.601,0.533,0.152
1593925767466188,1.601,0.533,0.152
1593925767970147,1.639,0.61,0.152
1593925768471604,1.563,0.533,0.152
1593925768973058,1.639,0.61,0.152
1593925769474554,1.639,0.61,0.152
1593925769976021,1.601,0.533,0.152
1593925770477512,1.639,0.61,0.152
1593925770980121,1.601,0.61,0.152
1593925771481591,1.639,0.61,0.152
1593925771983085,1.601,0.61,0.152
1593925772484568,1.601,0.533,0.152
1593925772988337,1.639,0.61,0.152
1593925773489885,1.601,0.533,0.152
1593925773991489,1.639,0.61,0.152
1593925774492948,1.639,0.61,0.152
1593925774994402,1.601,0.61,0.152
1593925775495777,1.639,0.61,0.152
1593925775997343,1.563,0.533,0.152
1593925776498828,1.639,0.61,0.152
1593925777000437,1.601,0.61,0.152
1593925777501887,1.601,0.533,0.152
1593925778005617,1.639,0.61,0.152
1593925778507455,1.601,0.533,0.152
1593925779008930,1.639,0.533,0.152
1593925779512033,1.639,0.61,0.152
1593925780013616,1.639,0.61,0.152
1593925780515118,1.639,0.61,0.152
1593925781016580,1.563,0.533,0.152
1593925781518047,1.677,0.61,0.152
1593925782019556,1.601,0.61,0.152
1593925782521029,1.563,0.533,0.152
1593925783025416,1.677,0.61,0.152
1593925783526915,1.601,0.61,0.152
1593925784028416,1.639,0.61,0.152
1593925784529936,1.601,0.61,0.152
1593925785031570,1.639,0.61,0.152
1593925785533020,1.601,0.61,0.152
1593925786034426,1.563,0.533,0.152
1593925786536033,1.715,0.61,0.152
1593925787037528,1.601,0.61,0.152
1593925787538972,1.563,0.533,0.152
1593925788042910,1.677,0.61,0.152
1593925788544419,1.601,0.533,0.152
1593925789045890,1.639,0.61,0.152
1593925789547337,1.563,0.533,0.152
1593925790048906,1.639,0.61,0.152
1593925790550358,1.639,0.61,0.152
1593925791051780,1.563,0.533,0.152
1593925791553347,1.677,0.61,0.152
1593925792054858,1.639,0.61,0.152
1593925792556564,1.563,0.533,0.152
1593925793060296,1.601,0.61,0.152
1593925793561756,1.639,0.61,0.152
1593925794063218,1.639,0.61,0.152
1593925794564725,1.563,0.533,0.152
1593925795066253,1.639,0.61,0.152
1593925795567741,1.639,0.61,0.152
1593925796069143,1.563,0.533,0.152
1593925796570616,1.677,0.61,0.152
1593925797072158,1.639,0.61,0.152
1593925797573605,1.563,0.533,0.152
1593925798077461,1.639,0.61,0.152
1593925798578910,1.639,0.61,0.152
1593925799080500,1.639,0.61,0.152
1593925799581909,1.563,0.533,0.152
1593925800083935,1.601,0.533,0.152
1593925800585335,1.639,0.61,0.152
1593925801086728,1.563,0.533,0.152
1593925801588214,1.677,0.61,0.152
1593925802089708,1.639,0.61,0.152
1593925802591150,1.563,0.533,0.152
1593925803095053,1.639,0.61,0.152
1593925803596726,1.601,0.61,0.152
1593925804098201,1.639,0.61,0.152
1593925804599878,1.639,0.61,0.152
1593925805101388,1.563,0.533,0.152
1593925805602881,1.639,0.61,0.152
1593925806104371,1.563,0.533,0.152
1593925806605843,1.639,0.61,0.152
1593925807107289,1.639,0.61,0.152
1593925807608792,1.563,0.533,0.152
1593925808110232,1.639,0.61,0.152
1593925808612657,1.563,0.533,0.152
1593925809114147,1.639,0.61,0.152
1593925809615693,1.601,0.61,0.152
1593925810117176,1.563,0.533,0.152
1593925810618688,1.677,0.61,0.152
1593925811120371,1.639,0.61,0.152
1593925811621871,1.563,0.533,0.152
1593925812123528,1.639,0.61,0.152
1593925812625005,1.563,0.533,0.152
1593925813130819,1.639,0.61,0.152
1593925813632274,1.563,0.533,0.152
1593925814133733,1.601,0.61,0.152
1593925814635235,1.639,0.61,0.152
1593925815136848,1.563,0.533,0.152
1593925815638273,1.677,0.61,0.152
1593925816139790,1.639,0.61,0.152
1593925816641253,1.563,0.533,0.152
1593925817142784,1.601,0.61,0.152
1593925817644250,1.639,0.61,0.152
1593925818147978,1.639,0.61,0.152
1593925818649399,1.563,0.533,0.152
1593925819150935,1.639,0.61,0.152
1593925819652532,1.639,0.61,0.152
1593925820153966,1.563,0.533,0.152
1593925820655661,1.677,0.61,0.152
1593925821157164,1.601,0.61,0.152
1593925821658656,1.563,0.533,0.152
1593925822160047,1.601,0.61,0.152
1593925822661509,1.639,0.61,0.152
1593925823165269,1.639,0.61,0.152
1593925823666687,1.563,0.533,0.152
1593925824168391,1.639,0.61,0.152
1593925824669892,1.639,0.61,0.152
1593925825171361,1.563,0.533,0.152
1593925825672774,1.601,0.61,0.152
1593925826174253,1.829,0.61,0.152
1593925826675685,1.943,0.61,0.152
1593925827177109,2.019,0.61,0.152
1593925827683695,1.981,0.61,0.152
1593925828191155,1.867,0.61,0.152
1593925828692583,1.639,0.533,0.152
1593925829194143,1.639,0.61,0.152
1593925829695708,1.677,0.61,0.152
1593925830197191,1.563,0.533,0.152
1593925830698708,1.639,0.61,0.152
1593925831200212,1.601,0.533,0.152
1593925831701674,1.601,0.61,0.152
1593925832203133,1.601,0.61,0.152
1593925832704749,1.563,0.533,0.152
1593925833208513,1.677,0.61,0.152
1593925833709959,1.563,0.533,0.152
1593925834211423,1.601,0.61,0.152
1593925834712990,1.639,0.61,0.152
1593925835214509,1.563,0.533,0.152
1593925835715998,1.677,0.61,0.152
1593925836217462,1.563,0.533,0.152
1593925836718921,1.639,0.61,0.152
1593925837220532,1.639,0.61,0.152
1593925837722014,1.563,0.533,0.152
1593925838225821,1.677,0.61,0.152
1593925838727294,1.601,0.533,0.152
1593925839228917,1.639,0.61,0.152
1593925839730357,1.601,0.61,0.152
1593925840231815,1.563,0.533,0.152
1593925840733321,1.639,0.61,0.152
1593925841234757,1.563,0.533,0.152
1593925841736239,1.639,0.61,0.152
1593925842237742,1.677,0.61,0.152
1593925842739206,1.563,0.533,0.152
1593925843244148,1.677,0.61,0.152
1593925843745793,1.601,0.61,0.152
1593925844247447,1.639,0.61,0.152
1593925844748868,1.601,0.61,0.152
1593925845250317,1.601,0.533,0.152
1593925845751824,1.639,0.61,0.152
1593925846253299,1.563,0.533,0.152
1593925846754713,1.639,0.61,0.152
1593925847256250,1.639,0.61,0.152
1593925847757703,1.563,0.533,0.152
1593925848261785,1.639,0.61,0.152
1593925848763292,1.639,0.61,0.152
1593925849264803,1.601,0.61,0.152
1593925849766222,1.601,0.533,0.152
1593925850267812,1.639,0.61,0.152
1593925850769320,1.639,0.61,0.152
1593925851270742,1.563,0.533,0.152
1593925851772356,1.601,0.533,0.152
1593925852273881,1.639,0.61,0.152
1593925852775455,1.563,0.533,0.152
1593925853279282,1.639,0.533,0.152
1593925853780901,1.715,0.61,0.152
1593925854282364,1.563,0.533,0.152
1593925854783790,1.601,0.61,0.152
1593925855285359,1.601,0.533,0.152
1593925855786896,1.676,0.61,0.152
1593925856288441,1.601,0.61,0.152
1593925856789817,1.563,0.533,0.152
1593925857291259,1.715,0.61,0.152
1593925857792777,1.563,0.533,0.152
1593925858296483,1.639,0.533,0.152
1593925858798834,1.639,0.61,0.152
1593925859300379,1.601,0.533,0.152
1593925859801820,1.601,0.61,0.152
1593925860303287,1.601,0.61,0.152
1593925860804817,1.677,0.61,0.152
1593925861306269,1.601,0.61,0.152
1593925861807946,1.601,0.533,0.152
1593925862309521,1.677,0.61,0.152
1593925862811050,1.563,0.533,0.152
1593925863314841,1.639,0.533,0.152
1593925863816313,1.601,0.61,0.152
1593925864317809,1.601,0.533,0.152
1593925864819253,1.601,0.61,0.152
1593925865320739,1.601,0.61,0.152
1593925865822262,1.677,0.61,0.152
1593925866323754,1.601,0.61,0.152
1593925866825230,1.601,0.61,0.152
1593925867326793,1.639,0.61,0.152
1593925867828278,1.601,0.533,0.152
1593925868332334,1.677,0.61,0.152
1593925868833845,1.601,0.61,0.152
1593925869335292,1.601,0.61,0.152
1593925869837024,1.601,0.61,0.152
1593925870338526,1.601,0.533,0.152
1593925870840166,1.677,0.61,0.152
1593925871341646,1.601,0.61,0.152
1593925871843113,1.601,0.61,0.152
1593925872344596,1.601,0.61,0.152
1593925872846103,1.601,0.533,0.152
1593925873350059,1.677,0.61,0.152
1593925873851554,1.601,0.61,0.152
1593925874353004,1.601,0.61,0.152
1593925874854594,1.677,0.61,0.152
1593925875356137,1.563,0.533,0.152
1593925875858078,1.677,0.61,0.152
1593925876359578,1.601,0.61,0.152
1593925876861077,1.563,0.533,0.152
1593925877362514,1.601,0.61,0.152
1593925877863972,1.601,0.61,0.152
1593925878367844,1.677,0.61,0.152
1593925878869301,1.601,0.61,0.152
1593925879370710,1.639,0.61,0.152
1593925879872210,1.677,0.61,0.152
1593925880373673,1.563,0.533,0.152
1593925880875233,1.639,0.533,0.152
1593925881376952,1.677,0.61,0.152
1593925881878445,1.563,0.533,0.152
1593925882379901,1.601,0.61,0.152
1593925882881361,1.601,0.61,0.152
1593925883385455,1.677,0.61,0.152
1593925883886908,1.601,0.533,0.152
1593925884388545,1.601,0.533,0.152
1593925884890043,1.677,0.61,0.152
1593925885391552,1.563,0.533,0.152
1593925885892967,1.601,0.533,0.152
1593925886394435,1.677,0.61,0.152
1593925886895944,1.563,0.533,0.152
1593925887397369,1.601,0.61,0.152
1593925887898933,1.639,0.61,0.152
1593925888403180,1.677,0.61,0.152
1593925888904630,1.601,0.61,0.152
1593925889406031,1.829,0.533,0.152
1593925889907551,2.096,0.61,0.152
1593925890409005,1.981,0.533,0.152
1593925890910483,1.905,0.61,0.152
1593925891412980,1.753,0.61,0.152
1593925891914475,1.601,0.61,0.152
1593925892416001,1.639,0.61,0.152
1593925892917563,1.601,0.533,0.152
1593925893421485,1.677,0.61,0.152
1593925893922967,1.601,0.61,0.152
1593925894424379,1.525,0.533,0.152
1593925894925917,1.715,0.61,0.152
1593925895427410,1.601,0.61,0.152
1593925895928791,1.563,0.533,0.152
1593925896430297,1.639,0.61,0.152
1593925896931803,1.601,0.533,0.152
1593925897433258,1.639,0.533,0.152
1593925897934739,1.601,0.61,0.152
1593925898438634,1.639,0.61,0.152
1593925898940082,1.601,0.61,0.152
1593925899441633,1.601,0.533,0.152
1593925899943181,1.677,0.61,0.152
1593925900444849,1.601,0.533,0.152
1593925900946286,1.563,0.533,0.152
1593925901447780,1.601,0.61,0.152
1593925901949269,1.601,0.533,0.152
1593925902450739,1.639,0.61,0.152
1593925902952116,1.601,0.533,0.152
1593925903453689,1.639,0.61,0.152
1593925903955166,1.601,0.61,0.152
1593925904456811,1.601,0.533,0.152
1593925904958257,1.639,0.533,0.152
1593925905459746,1.601,0.533,0.152
1593925905961247,1.639,0.61,0.152
1593925906462722,1.601,0.61,0.152
1593925906964201,1.601,0.61,0.152
1593925907465772,1.639,0.61,0.152
1593925907967268,1.601,0.533,0.152
1593925908469430,1.639,0.61,0.152
1593925908970946,1.601,0.61,0.152
1593925909472456,1.563,0.533,0.152
1593925909973910,1.601,0.61,0.152
1593925910475365,1.601,0.61,0.152
1593925910976825,1.639,0.61,0.152
1593925911478296,1.601,0.61,0.152
1593925911980137,1.601,0.61,0.152
1593925912481639,1.676,0.61,0.152
1593925912983098,1.563,0.533,0.152
1593925913484807,1.601,0.533,0.152
1593925913986381,1.639,0.61,0.152
1593925914487971,1.563,0.533,0.152
1593925914989429,1.601,0.61,0.152
1593925915490932,1.601,0.61,0.152
1593925915992534,1.601,0.61,0.152
1593925916493965,1.601,0.533,0.152
1593925916995790,1.563,0.533,0.152
1593925917497282,1.677,0.61,0.152
1593925917998740,1.601,0.533,0.152
1593925918500283,1.563,0.533,0.152
1593925919004189,1.715,0.61,0.152
1593925919505640,1.563,0.533,0.152
1593925920007038,1.639,0.533,0.152
1593925920509933,1.677,0.61,0.152
1593925921011446,1.601,0.61,0.152
1593925921512906,1.601,0.61,0.152
1593925922014273,1.563,0.533,0.152
1593925922515854,1.715,0.61,0.152
1593925923017295,1.601,0.61,0.152
1593925923518615,1.563,0.533,0.152
1593925924020267,1.677,0.61,0.152
1593925924521726,1.601,0.533,0.152
1593925925023170,1.639,0.61,0.152
1593925925524750,1.563,0.533,0.152
1593925926026207,1.601,0.61,0.152
1593925926527736,1.601,0.61,0.152
1593925927029104,1.563,0.533,0.152
1593925927530805,1.715,0.61,0.152
1593925928032305,1.601,0.533,0.152
1593925928533745,1.563,0.533,0.152
1593925929037471,1.639,0.61,0.152
1593925929538967,1.601,0.533,0.152
1593925930040486,1.677,0.61,0.152
1593925930541961,1.639,0.61,0.152
1593925931043462,1.639,0.61,0.152
1593925931544924,1.601,0.61,0.152
1593925932046485,1.563,0.533,0.152
1593925932548068,1.677,0.61,0.152
1593925933049562,1.601,0.533,0.152
1593925933551022,1.601,0.533,0.152
1593925934054794,1.601,0.61,0.152
1593925934556308,1.601,0.61,0.152
1593925935057746,1.601,0.61,0.152
1593925935564829,1.601,0.533,0.152
1593925936066442,1.715,0.61,0.152
1593925936567970,1.601,0.533,0.152
1593925937069462,1.601,0.61,0.152
1593925937570939,1.601,0.61,0.152
1593925938072417,1.601,0.533,0.152
1593925938574028,1.677,0.61,0.152
1593925939077922,1.601,0.61,0.152
1593925939579507,1.601,0.61,0.152
1593925940080949,1.639,0.61,0.152
1593925940582415,1.563,0.533,0.152
1593925941084076,1.677,0.61,0.152
1593925941585572,1.601,0.61,0.152
1593925942087072,1.601,0.61,0.152
1593925942588567,1.601,0.61,0.152
1593925943090024,1.601,0.533,0.152
1593925943591657,1.677,0.61,0.152
1593925944095428,1.601,0.533,0.152
1593925944596849,1.639,0.61,0.152
1593925945098423,1.677,0.61,0.152
1593925945600101,1.563,0.533,0.152
1593925946101706,1.639,0.61,0.152
1593925946603227,1.601,0.61,0.152
1593925947104892,1.601,0.533,0.152
1593925947606364,1.601,0.61,0.152
1593925948107823,1.601,0.61,0.152
1593925948609319,1.639,0.533,0.152
1593925949113092,1.601,0.533,0.152
1593925949614628,1.601,0.533,0.152
1593925950116196,1.677,0.61,0.152
1593925950617662,1.563,0.533,0.152
1593925951119031,1.563,0.533,0.152
1593925951620574,1.677,0.61,0.152
1593925952122080,1.753,0.533,0.152
1593925952623901,1.981,0.61,0.152
1593925953125320,2.019,0.61,0.152
1593925953626775,2.019,0.61,0.152
1593925954128298,1.753,0.61,0.152
1593925954629899,1.601,0.533,0.152
1593925955131410,1.677,0.61,0.152
1593925955632807,1.563,0.533,0.152
1593925956134128,1.639,0.533,0.152
1593925956635722,1.677,0.61,0.152
1593925957137218,1.601,0.533,0.152
1593925957638675,1.601,0.533,0.152
1593925958140118,1.525,0.533,0.152
1593925958641573,1.715,0.61,0.152
1593925959143012,1.601,0.533,0.152
1593925959644452,1.563,0.533,0.152
1593925960146000,1.677,0.61,0.152
1593925960647488,1.601,0.533,0.152
1593925961148930,1.601,0.533,0.152
1593925961650390,1.639,0.61,0.152
1593925962151884,1.601,0.533,0.152
1593925962653348,1.639,0.533,0.152
1593925963154919,1.601,0.61,0.152
1593925963656426,1.639,0.61,0.152
1593925964157873,1.639,0.61,0.152
1593925964661487,1.563,0.533,0.152
1593925965163021,1.677,0.61,0.152
1593925965664515,1.601,0.61,0.152
1593925966165949,1.563,0.533,0.152
1593925966667406,1.639,0.61,0.152
1593925967168888,1.601,0.61,0.152
1593925967670337,1.639,0.61,0.152
1593925968172291,1.601,0.61,0.152
1593925968673869,1.639,0.61,0.152
1593925969175381,1.601,0.61,0.152
1593925969679255,1.601,0.533,0.152
1593925970180842,1.639,0.61,0.152
1593925970682336,1.601,0.61,0.152
1593925971183803,1.563,0.533,0.152
1593925971685269,1.601,0.61,0.152
1593925972186787,1.601,0.61,0.152
1593925972688243,1.639,0.61,0.152
1593925973189705,1.601,0.61,0.152
1593925973691670,1.601,0.61,0.152
1593925974193177,1.639,0.61,0.152
1593925974696491,1.601,0.533,0.152
1593925975198010,1.639,0.61,0.152
1593925975699403,1.639,0.61,0.152
1593925976200874,1.639,0.61,0.152
1593925976702372,1.601,0.61,0.152
1593925977203901,1.639,0.61,0.152
1593925977705506,1.639,0.61,0.152
1593925978206974,1.601,0.533,0.152
1593925978708921,1.563,0.533,0.152
1593925979210372,1.639,0.61,0.152
1593925979714176,1.601,0.533,0.152
1593925980215648,1.639,0.61,0.152
1593925980717092,1.601,0.61,0.152
1593925981218586,1.639,0.61,0.152
1593925981720046,1.601,0.61,0.152
1593925982221570,1.601,0.533,0.152
1593925982723016,1.677,0.61,0.152
1593925983224615,1.601,0.533,0.152
1593925983726032,1.563,0.533,0.152
1593925984227733,1.639,0.61,0.152
1593925984731858,1.563,0.533,0.152
1593925985233339,1.601,0.61,0.152
1593925985734765,1.639,0.61,0.152
1593925986236251,1.639,0.61,0.152
1593925986737709,1.601,0.61,0.152
1593925987239260,1.563,0.533,0.152
1593925987740869,1.677,0.61,0.152
1593925988242303,1.563,0.533,0.152
1593925988743776,1.601,0.533,0.152
1593925989245479,1.715,0.61,0.152
1593925989746911,1.601,0.533,0.152
1593925990248410,1.639,0.61,0.152
1593925990750526,1.601,0.533,0.152
1593925991252033,1.677,0.61,0.152
1593925991753485,1.601,0.61,0.152
1593925992254887,1.525,0.533,0.152
1593925992756541,1.715,0.61,0.152
1593925993258058,1.601,0.61,0.152
1593925993759533,1.563,0.533,0.152
1593925994261078,1.677,0.61,0.152
1593925994762573,1.601,0.61,0.152
1593925995264051,1.639,0.533,0.152
1593925995765628,1.601,0.533,0.152
1593925996267129,1.639,0.61,0.152
1593925996768592,1.601,0.61,0.152
1593925997270007,1.563,0.533,0.152
1593925997771600,1.677,0.61,0.152
1593925998273064,1.601,0.61,0.152
1593925998774505,1.563,0.533,0.152
1593925999275973,1.639,0.61,0.152
1593925999780101,1.601,0.533,0.152
1593926000281523,1.639,0.533,0.152
1593926000782959,1.601,0.61,0.152
1593926001284552,1.639,0.61,0.152
1593926001786065,1.601,0.61,0.152
1593926002287698,1.563,0.533,0.152
1593926002789199,1.639,0.61,0.152
1593926003290669,1.601,0.533,0.152
1593926003792149,1.601,0.533,0.152
1593926004293619,1.601,0.61,0.152
1593926004797538,1.601,0.61,0.152
1593926005299006,1.639,0.61,0.152
1593926005800691,1.601,0.533,0.152
1593926006302250,1.639,0.61,0.152
1593926006803862,1.601,0.61,0.152
1593926007305362,1.601,0.61,0.152
1593926007806819,1.601,0.61,0.152
1593926008308273,1.601,0.533,0.152
1593926008809856,1.677,0.61,0.152
1593926009311482,1.601,0.533,0.152
1593926009816149,1.639,0.61,0.152
1593926010317638,1.639,0.61,0.152
1593926010819129,1.563,0.533,0.152
1593926011320597,1.639,0.533,0.152
1593926011822063,1.601,0.61,0.152
1593926012323586,1.601,0.533,0.152
1593926012825038,1.601,0.533,0.152
1593926013326494,1.601,0.533,0.152
1593926013828022,1.677,0.61,0.152
1593926014329494,1.563,0.533,0.152
1593926014833558,1.601,0.61,0.152
1593926015335154,1.943,0.61,0.152
1593926015836530,1.981,0.533,0.152
1593926016337900,2.019,0.61,0.152
1593926016839708,1.943,0.61,0.152
1593926017341222,1.677,0.61,0.152
1593926017842674,1.639,0.61,0.152
1593926018344285,1.601,0.61,0.152
1593926018845746,1.677,0.61,0.152
1593926019347212,1.563,0.533,0.152
1593926019851013,1.563,0.533,0.152
1593926020352487,1.677,0.61,0.152
1593926020853940,1.563,0.533,0.152
1593926021355358,1.601,0.61,0.152
1593926021856964,1.639,0.61,0.152
1593926022358474,1.601,0.61,0.152
1593926022859951,1.601,0.61,0.152
1593926023361473,1.563,0.533,0.152
1593926023862922,1.715,0.61,0.152
1593926024364382,1.601,0.533,0.152
1593926024868250,1.601,0.533,0.152
1593926025370557,1.677,0.61,0.152
1593926025872097,1.601,0.533,0.152
1593926026373511,1.601,0.61,0.152
1593926026875068,1.563,0.533,0.152
1593926027376624,1.677,0.61,0.152
1593926027878068,1.601,0.533,0.152
1593926028379462,1.525,0.533,0.152
1593926028880941,1.677,0.61,0.152
1593926029382430,1.563,0.533,0.152
1593926029886481,1.639,0.533,0.152
1593926030387995,1.601,0.61,0.152
1593926030889489,1.601,0.533,0.152
1593926031390950,1.601,0.533,0.152
1593926031892428,1.601,0.533,0.152
1593926032393928,1.677,0.61,0.152
1593926032895370,1.563,0.533,0.152
1593926033396901,1.601,0.533,0.152
1593926033898630,1.639,0.61,0.152
1593926034400169,1.563,0.533,0.152
1593926034904072,1.601,0.533,0.152
1593926035405538,1.601,0.533,0.152
1593926035907036,1.639,0.61,0.152
1593926036408653,1.601,0.61,0.152
1593926036910219,1.563,0.533,0.152
1593926037411865,1.677,0.61,0.152
1593926037913343,1.601,0.533,0.152
1593926038414833,1.639,0.61,0.152
1593926038916258,1.601,0.61,0.152
1593926039417706,1.601,0.533,0.152
1593926039922510,1.677,0.61,0.152
1593926040424009,1.563,0.533,0.152
1593926040925539,1.639,0.61,0.152
1593926041428478,1.601,0.61,0.152
1593926041929964,1.563,0.533,0.152
1593926042431591,1.639,0.61,0.152
1593926042933074,1.601,0.533,0.152
1593926043434588,1.639,0.61,0.152
1593926043936073,1.601,0.61,0.152
1593926044437523,1.601,0.61,0.152
1593926044941659,1.677,0.61,0.152
1593926045443163,1.563,0.533,0.152
1593926045944735,1.676,0.61,0.152
1593926046446197,1.639,0.61,0.152
1593926046947677,1.563,0.533,0.152
1593926047449173,1.601,0.533,0.152
1593926047950746,1.601,0.61,0.152
1593926048452229,1.601,0.61,0.152
1593926048953585,1.601,0.533,0.152
1593926049455038,1.601,0.61,0.152
1593926049959061,1.639,0.61,0.152
1593926050460599,1.563,0.533,0.152
1593926050962193,1.677,0.61,0.152
1593926051463731,1.639,0.61,0.152
1593926051965182,1.563,0.533,0.152
1593926052466590,1.601,0.533,0.152
1593926052968038,1.639,0.61,0.152
1593926053469509,1.639,0.61,0.152
1593926053970918,1.563,0.533,0.152
1593926054472926,1.639,0.61,0.152
1593926054976926,1.639,0.61,0.152
1593926055478387,1.563,0.533,0.152
1593926055979752,1.639,0.533,0.152
1593926056481232,1.677,0.61,0.152
1593926056982652,1.563,0.533,0.152
1593926057484095,1.601,0.533,0.152
1593926057985678,1.601,0.61,0.152
1593926058487175,1.677,0.61,0.152
1593926058988624,1.563,0.533,0.152
1593926059490037,1.563,0.533,0.152
1593926059993868,1.639,0.61,0.152
1593926060495361,1.563,0.533,0.152
1593926060996779,1.601,0.533,0.152
1593926061498661,1.639,0.61,0.152
1593926062000435,1.601,0.533,0.152
1593926062501840,1.601,0.533,0.152
1593926063003459,1.563,0.533,0.152
1593926063504942,1.639,0.61,0.152
1593926064006390,1.563,0.533,0.152
1593926064508003,1.639,0.61,0.152
1593926065011963,1.677,0.61,0.152
1593926065513412,1.563,0.533,0.152
1593926066014969,1.601,0.533,0.152
1593926066516603,1.601,0.533,0.152
1593926067018097,1.677,0.61,0.152
1593926067519548,1.601,0.533,0.152
1593926068021016,1.601,0.533,0.152
1593926068522515,1.639,0.61,0.152
1593926069024066,1.563,0.533,0.152
1593926069525540,1.639,0.61,0.152
1593926070030085,1.639,0.61,0.152
1593926070531583,1.563,0.533,0.152
1593926071033110,1.639,0.61,0.152
1593926071534576,1.563,0.533,0.152
1593926072036084,1.677,0.61,0.152
1593926072537656,1.601,0.61,0.152
1593926073039171,1.601,0.533,0.152
1593926073540704,1.677,0.61,0.152
1593926074042130,1.563,0.533,0.152
1593926074543599,1.639,0.61,0.152
1593926075047467,1.601,0.61,0.152
1593926075548967,1.601,0.533,0.152
1593926076050468,1.639,0.61,0.152
1593926076552298,1.563,0.533,0.152
1593926077053856,1.677,0.61,0.152
1593926077555361,1.639,0.61,0.152
1593926078058238,1.677,0.533,0.152
1593926078559915,2.019,0.61,0.152
1593926079061499,2.019,0.61,0.152
1593926079563011,2.058,0.61,0.152
1593926080066973,1.753,0.61,0.152
1593926080568612,1.639,0.61,0.152
1593926081070121,1.639,0.61,0.152
1593926081571604,1.563,0.533,0.152
1593926082073064,1.677,0.61,0.152
1593926082574514,1.601,0.61,0.152
1593926083075969,1.563,0.533,0.152
1593926083577472,1.639,0.61,0.152
1593926084078980,1.601,0.61,0.152
1593926084580452,1.639,0.61,0.152
1593926085084277,1.563,0.533,0.152
1593926085585822,1.639,0.61,0.152
1593926086087365,1.639,0.61,0.152
1593926086588811,1.563,0.533,0.152
1593926087090238,1.715,0.61,0.152
1593926087591791,1.601,0.61,0.152
1593926088093246,1.563,0.533,0.152
1593926088594792,1.601,0.533,0.152
1593926089096296,1.601,0.61,0.152
1593926089597798,1.639,0.61,0.152
1593926090101549,1.563,0.533,0.152
1593926090603072,1.639,0.61,0.152
1593926091104618,1.639,0.61,0.152
1593926091606039,1.563,0.533,0.152
1593926092107454,1.639,0.533,0.152
1593926092608900,1.639,0.61,0.152
1593926093110352,1.563,0.533,0.152
1593926093611764,1.601,0.533,0.152
1593926094113555,1.639,0.61,0.152
1593926094615094,1.639,0.61,0.152
1593926095119267,1.563,0.533,0.152
1593926095620939,1.601,0.61,0.152
1593926096122437,1.639,0.61,0.152
1593926096623901,1.563,0.533,0.152
1593926097125493,1.639,0.61,0.152
1593926097627103,1.639,0.61,0.152
1593926098128584,1.601,0.533,0.152
1593926098629988,1.601,0.533,0.152
1593926099131705,1.601,0.533,0.152
1593926099633231,1.639,0.61,0.152
1593926100137131,1.563,0.533,0.152
1593926100638622,1.601,0.61,0.152
1593926101140187,1.639,0.61,0.152
1593926101641642,1.563,0.533,0.152
1593926102143109,1.715,0.686,0.152
