TimeStamp,Total Power,CPU Power,GPU Power
1592831401384769,4.304,1.905,0.152
1592831401886129,4.571,2.133,0.152
1592831402387512,4.952,2.514,0.152
1592831402888864,5.066,2.666,0.152
1592831403390275,5.104,2.666,0.152
1592831403891702,5.104,2.59,0.152
1592831404393129,5.142,2.666,0.152
1592831404894499,5.142,2.742,0.152
1592831405395840,5.181,2.742,0.152
1592831405897202,5.104,2.666,0.152
1592831406398655,5.104,2.666,0.152
1592831406900060,5.142,2.666,0.152
1592831407401436,5.142,2.742,0.152
1592831407902777,5.142,2.742,0.152
1592831408404193,5.104,2.666,0.152
1592831408905712,5.104,2.666,0.152
1592831409407133,5.104,2.666,0.152
1592831409908522,5.142,2.742,0.152
1592831410409839,5.142,2.742,0.152
1592831410911238,5.104,2.666,0.152
1592831411412716,5.142,2.666,0.152
1592831411914136,5.104,2.666,0.152
1592831412415519,5.142,2.742,0.152
1592831412916893,5.142,2.742,0.152
1592831413418310,5.142,2.666,0.152
1592831413919839,5.104,2.666,0.152
1592831414421260,5.104,2.666,0.152
1592831414922634,5.142,2.742,0.152
1592831415423969,5.142,2.742,0.152
1592831415925386,5.142,2.666,0.152
1592831416426874,5.181,2.666,0.152
1592831416928360,5.142,2.666,0.152
1592831417429749,5.142,2.742,0.152
1592831417931140,5.142,2.742,0.152
1592831418432539,5.104,2.666,0.152
1592831418933947,5.104,2.666,0.152
1592831419435387,5.104,2.666,0.152
1592831419936787,5.104,2.742,0.152
1592831420438202,5.142,2.742,0.152
1592831420939628,5.104,2.666,0.152
1592831421441060,5.104,2.666,0.152
1592831421942489,5.104,2.666,0.152
1592831422443884,5.104,2.742,0.152
1592831422945329,5.104,2.666,0.152
1592831423446746,5.104,2.666,0.152
1592831423948218,5.104,2.666,0.152
1592831424449720,5.104,2.666,0.152
1592831424951105,5.181,2.742,0.152
1592831425452545,5.142,2.666,0.152
1592831425953951,5.104,2.666,0.152
1592831426455358,5.142,2.666,0.152
1592831426958928,5.142,2.666,0.152
1592831427460377,5.104,2.666,0.152
1592831427961795,5.104,2.666,0.152
1592831428463221,5.104,2.666,0.152
1592831428964630,5.104,2.666,0.152
1592831429466062,5.104,2.666,0.152
1592831429967528,5.104,2.666,0.152
1592831430468996,5.142,2.666,0.152
1592831430970438,5.104,2.666,0.152
1592831431471899,5.104,2.666,0.152
1592831431975113,5.142,2.666,0.152
1592831432476286,5.142,2.666,0.152
1592831432977457,5.142,2.666,0.152
1592831433478615,5.142,2.666,0.152
1592831433979786,5.142,2.666,0.152
1592831434480936,5.104,2.666,0.152
1592831434982080,5.142,2.666,0.152
1592831435483219,5.142,2.742,0.152
1592831435984380,5.142,2.666,0.152
1592831436485553,5.219,2.666,0.152
1592831436988379,5.142,2.666,0.152
1592831437489530,5.104,2.666,0.152
1592831437990659,5.142,2.742,0.152
1592831438491797,5.104,2.666,0.152
1592831438993008,5.104,2.666,0.152
1592831439494160,5.104,2.666,0.152
1592831439995313,5.104,2.666,0.152
1592831440496452,5.142,2.742,0.152
1592831440997597,5.181,2.666,0.152
1592831441498771,5.142,2.666,0.152
1592831442001767,5.104,2.666,0.152
1592831442502925,5.181,2.666,0.152
1592831443004088,5.181,2.742,0.152
1592831443505252,5.142,2.666,0.152
1592831444006416,5.104,2.666,0.152
1592831444507571,5.104,2.666,0.152
1592831445008707,5.142,2.742,0.152
1592831445509840,5.142,2.742,0.152
1592831446010976,5.104,2.666,0.152
1592831446512129,5.104,2.666,0.152
1592831447015156,5.104,2.666,0.152
1592831447516309,5.104,2.666,0.152
1592831448017456,5.142,2.742,0.152
1592831448518634,5.142,2.666,0.152
1592831449019812,5.142,2.666,0.152
1592831449520999,5.142,2.666,0.152
1592831450022143,5.142,2.742,0.152
1592831450523272,5.142,2.742,0.152
1592831451024545,5.142,2.666,0.152
1592831451525709,5.104,2.666,0.152
1592831452028977,5.104,2.666,0.152
1592831452530334,5.142,2.742,0.152
1592831453031658,5.142,2.742,0.152
1592831453533174,5.104,2.666,0.152
1592831454034629,5.104,2.666,0.152
1592831454536038,5.104,2.666,0.152
1592831455037422,5.142,2.742,0.152
1592831455538774,5.142,2.742,0.152
1592831456040131,5.142,2.742,0.152
1592831456541635,5.104,2.666,0.152
1592831457044994,5.257,2.666,0.152
1592831457546395,5.219,2.666,0.152
1592831458047752,5.181,2.742,0.152
1592831458549178,5.142,2.742,0.152
1592831459050583,5.142,2.666,0.152
1592831459552032,5.104,2.666,0.152
1592831460053448,5.104,2.666,0.152
1592831460554817,5.181,2.742,0.152
1592831461056151,5.142,2.742,0.152
1592831461557566,5.104,2.666,0.152
