timestamp	VIRTUAL_SCALING	CPU0_F	CPU1_F	CPU2_F	CPU3_F	CPU4_F	CPU5_F	GPU_FREQ	CPU_GOVERNOR	EMC_F	TEMP0	TEMP1	TEMP2	TEMP3	TEMP4	TEMP5	TEMP6	TEMP7
1592834387892967578	1	806	345	345	806	806	806	114750000	performance	665	33	34	32	33	31	30	100	33
1592834389468504767 	0	806	345	345	806	805	805	114750000	performance	665	33	33	31	33	31	30	100	32
1592834392861349171	1	806	345	345	806	806	806	114750000	performance	665	33	33	31	33	30	29	100	32
1592834394144250129 	0	805	345	345	806	806	806	114750000	performance	665	33	33	31	33	30	29	100	32
1592834397549041254	1	806	345	345	806	806	806	114750000	performance	665	33	33	31	32	30	29	100	31
1592834398661193294 	0	806	345	345	805	806	806	114750000	performance	665	33	32	31	33	30	29	100	32
1592834402442996620	1	806	345	345	806	806	806	114750000	performance	665	32	33	31	32	30	29	100	32
1592834403591531630 	0	805	345	345	805	806	806	114750000	performance	665	32	33	31	33	30	29	100	31
1592834407133893554	1	806	345	345	806	806	806	114750000	performance	665	32	32	31	32	30	29	100	31
1592834408277389534 	0	805	345	345	806	806	806	114750000	performance	665	32	32	31	32	30	29	100	31
1592834411917600613	1	806	345	345	806	806	806	114750000	performance	665	32	32	30	32	30	29	100	31
1592834413724896868 	0	806	345	345	807	806	806	114750000	performance	665	32	32	30	32	30	29	100	31
1592834417309875514	1	806	345	345	806	806	806	114750000	performance	665	32	32	30	32	30	29	100	31
1592834419027638531 	0	806	345	345	806	806	806	114750000	performance	665	32	32	31	32	30	28	100	31
1592834422061986370	1	806	345	345	806	806	806	114750000	performance	665	32	32	30	32	30	28	100	31
1592834423610096771 	0	806	345	345	806	805	806	114750000	performance	665	32	32	30	32	30	29	100	31
1592834426850333702	1	806	345	345	806	806	806	114750000	performance	665	32	32	30	32	30	28	100	31
1592834428024969128 	0	806	345	345	805	805	803	114750000	performance	665	32	32	30	32	30	28	100	31
1592834431562250486	1	806	345	345	806	806	806	114750000	performance	665	32	32	30	32	30	28	100	31
1592834432709386718 	0	806	345	345	806	806	806	114750000	performance	665	32	32	30	32	30	28	100	31
1592834436394214479	1	806	345	345	806	806	806	114750000	performance	665	32	32	30	32	30	28	100	31
1592834438141978233 	0	805	345	345	806	806	807	114750000	performance	665	32	32	30	32	30	28	100	31
1592834441702412944	1	806	345	345	806	806	806	114750000	performance	665	32	32	30	32	30	28	100	31
1592834443510468811 	0	806	345	345	806	806	806	114750000	performance	665	32	32	30	32	30	28	100	31
1592834446530231855	1	806	345	345	806	806	806	114750000	performance	665	32	32	30	32	30	28	100	31
