bi,Li,Fb,FL,Energy(J),Est_Energy(J),MSE,RMSE,MAPE
4,1,800000000,1300000000,1176.1925,1191.29,,,
4,1,300000000,200000000,2818.684,2612.4619,,,
4,1,1400000000,300000000,1071.6316,1102.4707,,,
2,4,1000000000,400000000,2008.3338,1413.1659,,,
2,4,200000000,700000000,2523.2062,1996.4364,,,
2,3,1600000000,1000000000,1458.7965,1140.54,,,
2,3,1400000000,1300000000,1352.3131,1082.7868,,,
4,0,300000000,900000000,3869.8515,2799.713,,,
0,1,200000000,800000000,7252.1899,6790.6919,,,
0,1,200000000,1400000000,6129.1157,4054.7218,,,
0,1,1200000000,1100000000,7753.5147,5075.2728,,,
2,2,400000000,800000000,2129.6304,2106.6202,,,
2,2,200000000,1400000000,1931.7818,2082.0133,,,
2,2,1300000000,600000000,1434.9991,1383.8846,,,
1,4,400000000,200000000,6523.8901,3670.2183,,,
1,3,700000000,700000000,1865.0653,1856.2881,,,
1,3,600000000,400000000,2788.2661,2567.818,,,
3,0,1200000000,700000000,1208.7245,1374.4253,,,
3,0,1700000000,300000000,1185.4014,1285.984,,,
3,0,800000000,600000000,1467.3629,1621.893,,,
3,1,600000000,600000000,2630.1792,1740.5535,,,
3,1,1000000000,1000000000,1692.3867,1281.558,,,
1,2,300000000,300000000,8114.9227,4791.232,,,
1,2,1500000000,1000000000,2283.9389,1559.5584,,,
2,0,1500000000,200000000,1906.3257,1550.9885,,,
2,0,1100000000,1200000000,2269.0853,1777.3962,,,
2,0,600000000,500000000,3775.3003,2694.7311,,,
0,3,800000000,900000000,2895.7781,2275.223,,,
0,3,1000000000,300000000,9919.1447,6261.306,,,
0,3,200000000,600000000,4389.6276,3249.7296,,,
0,4,1300000000,1300000000,1101.164,1392.4142,,,
0,4,1700000000,600000000,2119.6837,2539.507,,,
4,2,1800000000,500000000,1390.1231,1124.4958,,,
4,2,900000000,800000000,1402.0452,1105.6888,,,
4,2,200000000,1300000000,2729.7855,1900.6288,,,
0,2,600000000,1200000000,3357.9792,2547.7241,,,
0,2,700000000,200000000,24817.2928,13572.2424,,,
2,1,1700000000,1200000000,1442.0331,1360.543,,,
4,3,200000000,200000000,3262.3619,3019.7502,,,
4,3,1100000000,900000000,944.2741,983.8403,,,
4,4,700000000,1100000000,906.0572,991.7819,,,
1,0,900000000,1400000000,3418.4641,3425.1892,,,
3,3,1300000000,200000000,1699.2241,1236.8325,,,
3,3,500000000,1200000000,1675.7831,1277.8449,,,
3,4,500000000,1100000000,1482.5071,1187.2503,,,
3,4,1600000000,800000000,1231.1796,1026.4178,,,
3,4,1100000000,400000000,1526.5579,1167.7123,,,
3,2,1200000000,200000000,1339.6952,1313.598,,,
1,1,1600000000,400000000,3407.7555,2110.5033,,,
1,1,200000000,900000000,7125.7879,4563.8133,,,
1,1,900000000,200000000,5801.4709,3104.9604,,,
1,1,300000000,800000000,7027.2886,4204.0415,,,
,,,,,,3913517.9882,1978.2614,0.2066
