bi,Li,Fb,FL,Run_Time(s),Est_Time(S),MSE,RMSE,MAPE
1,2,345600000,499200000,17.1195,14.8573,,,
1,2,1420800000,345600000,15.049,15.1485,,,
1,2,499200000,1267200000,8.541,6.0738,,,
1,3,1881600000,1420800000,4.0106,3.4011,,,
1,3,1574400000,1881600000,3.509,2.6716,,,
1,4,345600000,960000000,8.0505,4.1202,,,
0,1,1881600000,499200000,34.1502,32.453,,,
0,1,345600000,1113600000,14.5479,14.5479,,,
0,1,1267200000,1574400000,8.5242,10.29,,,
2,2,345600000,1881600000,6.0198,4.1043,,,
2,2,960000000,1113600000,7.5247,5.9162,,,
2,3,1574400000,345600000,10.034,8.6399,,,
2,4,1267200000,652800000,6.5256,4.9303,,,
2,4,806400000,1574400000,4.0104,2.4083,,,
1,1,960000000,345600000,30.1448,26.9481,,,
1,0,806400000,652800000,103.8648,75.4626,,,
1,0,1267200000,1728000000,66.1858,48.0216,,,
0,2,652800000,1728000000,4.5113,4.6877,,,
2,1,1728000000,499200000,12.5434,11.4147,,,
2,1,652800000,960000000,13.0583,12.3897,,,
2,0,1881600000,345600000,43.2,16.1706,,,
2,0,345600000,1420800000,48.1369,88.0397,,,
0,4,499200000,345600000,33.8327,11.7191,,,
0,4,1881600000,960000000,5.5195,4.2189,,,
0,3,345600000,806400000,8.0277,6.6967,,,
0,3,960000000,1267200000,6.0174,4.2615,,,
,,,,,,154.3853,12.4252,0.2505
