timestamp	VIRTUAL_SCALING	CPU0_F	CPU1_F	CPU2_F	CPU3_F	CPU4_F	CPU5_F	GPU_FREQ	CPU_GOVERNOR	EMC_F	TEMP0	TEMP1	TEMP2	TEMP3	TEMP4	TEMP5	TEMP6	TEMP7
1594004597203630462	1	345	960	960	345	345	345	114750000	performance	40	23	23	22	23	20	19	100	22
/home/jetsonuob/Projects/iperfect/tools/check_temp.sh: line 105: <unknown>/1000: syntax error: operand expected (error token is "<unknown>/1000")
