TimeStamp,Total Power,CPU Power,GPU Power
1592832008087725,3.277,0.762,0.152
1592832008589159,2.402,0.915,0.152
1592832009090476,2.097,0.991,0.152
1592832009591796,2.02,0.991,0.152
1592832010093148,2.02,0.991,0.152
1592832010594479,1.982,0.991,0.152
1592832011098576,1.982,0.991,0.152
1592832011599914,1.982,0.991,0.152
1592832012101303,2.097,0.991,0.152
1592832012602635,2.058,0.991,0.152
1592832013103924,1.982,0.991,0.152
1592832013605250,1.982,0.991,0.152
1592832014106650,1.982,0.991,0.152
1592832014608008,1.982,0.991,0.152
1592832015109291,1.982,0.991,0.152
1592832015610616,1.982,0.991,0.152
1592832016114140,2.02,0.991,0.152
1592832016615472,1.982,0.991,0.152
1592832017116736,1.982,0.991,0.152
1592832017618051,1.982,0.991,0.152
1592832018119409,2.02,0.991,0.152
1592832018620757,2.02,0.991,0.152
1592832019122055,2.02,0.991,0.152
1592832019623409,2.02,0.991,0.152
1592832020124782,2.02,0.991,0.152
1592832020626106,1.982,0.991,0.152
1592832021129869,1.982,0.991,0.152
1592832021631196,2.02,0.991,0.152
1592832022132614,1.982,0.991,0.152
1592832022633942,1.982,0.991,0.152
1592832023135214,1.982,0.991,0.152
1592832023636629,1.982,0.991,0.152
1592832024137970,1.982,0.991,0.152
1592832024639297,1.982,0.991,0.152
1592832025140607,1.982,0.991,0.152
1592832025641923,2.02,0.991,0.152
1592832026145500,1.982,0.991,0.152
1592832026646786,1.982,0.991,0.152
1592832027148114,1.982,0.991,0.152
1592832027649501,1.982,0.991,0.152
1592832028150805,1.982,0.991,0.152
1592832028652105,1.982,0.991,0.152
1592832029153491,2.02,0.991,0.152
1592832029654856,2.135,0.991,0.152
1592832030156201,2.02,0.991,0.152
1592832030657480,2.02,0.991,0.152
1592832031161322,2.02,0.991,0.152
1592832031662687,2.02,0.991,0.152
1592832032164013,1.982,0.991,0.152
1592832032665309,1.982,0.991,0.152
1592832033166714,2.02,0.991,0.152
1592832033668092,1.982,0.991,0.152
1592832034169503,1.982,0.991,0.152
1592832034670831,1.944,0.991,0.152
1592832035172164,1.982,0.991,0.152
1592832035673542,1.982,0.991,0.152
1592832036177292,1.982,0.991,0.152
1592832036678586,1.982,0.991,0.152
1592832037179931,2.02,0.991,0.152
1592832037681306,1.982,0.991,0.152
1592832038182620,1.982,0.991,0.152
1592832038683874,1.982,0.991,0.152
1592832039185192,1.982,0.991,0.152
1592832039686531,2.02,0.991,0.152
1592832040187835,1.982,0.991,0.152
1592832040689186,2.02,0.991,0.152
1592832041192857,2.02,0.991,0.152
1592832041694195,1.982,0.991,0.152
1592832042195477,2.058,0.991,0.152
1592832042696835,2.058,0.991,0.152
1592832043198212,2.02,0.991,0.152
1592832043699535,1.982,0.991,0.152
1592832044200804,1.982,0.991,0.152
1592832044702162,1.982,0.991,0.152
1592832045203559,1.982,0.991,0.152
1592832045704906,1.982,0.991,0.152
1592832046208380,1.982,0.991,0.152
1592832046709703,1.982,0.991,0.152
1592832047211073,1.982,0.991,0.152
1592832047712408,1.982,0.991,0.152
1592832048213679,1.982,0.991,0.152
1592832048715024,2.02,0.991,0.152
1592832049216401,1.982,0.991,0.152
1592832049717727,1.982,0.991,0.152
1592832050219012,1.982,0.991,0.152
1592832050720357,2.02,0.991,0.152
1592832051223875,2.02,0.991,0.152
1592832051725199,1.982,0.991,0.152
1592832052226461,1.982,0.991,0.152
1592832052727796,2.02,0.991,0.152
1592832053229128,1.982,0.991,0.152
1592832053730445,1.982,0.991,0.152
1592832054231748,2.097,0.991,0.152
1592832054733137,2.058,0.991,0.152
1592832055234451,1.982,0.991,0.152
1592832055735740,1.982,0.991,0.152
1592832056239236,1.982,0.991,0.152
1592832056740604,1.982,0.991,0.152
1592832057241916,1.982,0.991,0.152
1592832057743186,1.982,0.991,0.152
1592832058244589,1.982,0.991,0.152
1592832058745943,1.982,0.991,0.152
1592832059247254,1.982,0.991,0.152
1592832059748539,1.982,0.991,0.152
1592832060249872,1.982,0.991,0.152
1592832060751249,1.982,0.991,0.152
1592832061255121,2.02,0.991,0.152
1592832061756444,2.02,0.991,0.152
1592832062257852,2.02,0.991,0.152
1592832062759209,1.982,0.991,0.152
1592832063260560,1.982,0.991,0.152
1592832063761867,1.982,0.991,0.152
1592832064263224,2.02,0.991,0.152
1592832064764590,1.982,0.991,0.152
1592832065265920,1.982,0.991,0.152
1592832065767222,1.982,0.991,0.152
1592832066270665,2.02,0.991,0.152
1592832066772061,1.982,0.991,0.152
1592832067273437,1.982,0.991,0.152
1592832067774687,1.982,0.991,0.152
