timestamp	VIRTUAL_SCALING	CPU0_F	CPU1_F	CPU2_F	CPU3_F	CPU4_F	CPU5_F	GPU_FREQ	CPU_GOVERNOR	EMC_F	TEMP0	TEMP1	TEMP2	TEMP3	TEMP4	TEMP5	TEMP6	TEMP7
1592833099944622349	1	1728	499	499	1728	1728	1728	114750000	performance	1866	34	34	31	34	30	29	100	33
1592833100377800642 	0	1725	499	499	1728	1727	1723	114750000	performance	1866	34	34	31	34	30	29	100	33
1592833102493790167	1	1728	499	499	1728	1728	1728	114750000	performance	1866	34	34	31	34	30	30	100	33
1592833102933811716 	0	1726	499	499	1728	1728	1727	114750000	performance	1866	34	34	32	34	30	30	100	33
1592833104945774527	1	1728	499	499	1728	1728	1728	114750000	performance	1866	34	34	32	34	30	30	100	33
1592833105353788124 	0	1725	499	499	1727	1723	1727	114750000	performance	1866	34	34	31	34	30	30	100	33
1592833107365799095	1	1728	499	499	1728	1728	1728	114750000	performance	1866	34	34	32	34	30	30	100	33
1592833107797794456 	0	1719	499	499	1720	1726	1729	114750000	performance	1866	34	34	32	34	30	30	100	33
1592833109853801988	1	1728	499	499	1728	1728	1728	114750000	performance	1866	34	34	32	34	30	30	100	33
1592833110261856545 	0	1722	499	499	1727	1723	1726	114750000	performance	1866	34	34	32	34	30	30	100	33
1592833112341974735	1	1728	499	499	1728	1728	1728	114750000	performance	1866	34	34	32	34	30	30	100	33
1592833112725797419 	0	1727	499	499	1694	1720	1722	114750000	performance	1866	34	34	32	34	30	30	100	33
1592833114701784192	1	1728	499	499	1728	1728	1728	114750000	performance	1866	34	34	32	34	30	30	100	33
1592833115085814138 	0	1723	499	499	1720	1727	1721	114750000	performance	1866	35	34	32	34	30	30	100	33
1592833117085804530	1	1728	499	499	1728	1728	1728	114750000	performance	1866	34	34	32	34	30	30	100	33
1592833117549742180 	0	1729	499	498	1726	1725	1727	114750000	performance	1866	34	34	32	34	30	30	100	33
1592833119581774796	1	1728	499	499	1728	1728	1728	114750000	performance	1866	34	34	32	34	30	30	100	33
1592833120048496704 	0	1725	499	499	1726	1728	1723	114750000	performance	1866	34	34	32	34	30	30	100	33
1592833122073749967	1	1728	499	499	1728	1728	1728	114750000	performance	1866	35	35	32	34	30	30	100	33
1592833122541924692 	0	1723	499	499	1722	1724	1721	114750000	performance	1866	34	34	32	34	30	30	100	34
1592833124577814419	1	1728	499	499	1728	1728	1728	114750000	performance	1866	34	34	32	34	30	30	100	33
1592833125029943456 	0	1722	499	499	1731	1722	1729	114750000	performance	1866	34	34	32	34	30	30	100	33
1592833127141718306	1	1728	499	499	1728	1728	1728	114750000	performance	1866	34	35	32	35	31	30	100	33
1592833127745776946 	0	1729	499	499	1727	1732	1726	114750000	performance	1866	35	35	32	34	31	30	100	33
1592833129808714772	1	1728	499	499	1728	1728	1728	114750000	performance	1866	34	35	32	35	31	30	100	33
1592833130533897611 	0	1724	499	499	1728	1728	1726	114750000	performance	1866	35	34	32	34	31	30	100	33
1592833132593943468	1	1728	499	499	1728	1728	1728	114750000	performance	1866	34	34	32	34	31	30	100	33
1592833133025784463 	0	1722	499	499	1724	1722	1725	114750000	performance	1866	35	34	32	35	31	30	100	33
1592833135057757271	1	1728	499	499	1728	1728	1728	114750000	performance	1866	35	34	32	35	31	30	100	33
1592833135533969608 	0	1692	499	499	1728	1724	1727	114750000	performance	1866	35	35	32	35	31	30	100	33
1592833137561781820	1	1728	499	499	1728	1728	1728	114750000	performance	1866	34	35	32	35	31	30	100	33
1592833137965749732 	0	1729	499	499	1689	1690	1727	114750000	performance	1866	34	35	32	35	31	30	100	33
1592833139997802827	1	1728	499	499	1728	1728	1728	114750000	performance	1866	34	34	32	34	31	30	100	33
1592833140398015483 	0	1727	499	498	1721	1728	1726	114750000	performance	1866	35	34	32	35	31	30	100	33
1592833142394665079	1	1728	499	499	1728	1728	1728	114750000	performance	1866	35	35	32	35	31	30	100	33
1592833142877765599 	0	1717	498	499	1720	1725	1724	114750000	performance	1866	35	35	32	35	31	30	100	33
1592833144928126950	1	1728	499	499	1728	1728	1728	114750000	performance	1866	34	35	32	34	31	30	100	33
1592833145457820804 	0	1721	499	499	1723	1723	1727	114750000	performance	1866	35	35	32	34	31	30	100	33
1592833147560521284	1	1728	499	499	1728	1728	1728	114750000	performance	1866	35	35	32	35	31	30	100	33
1592833147953789341 	0	1724	499	499	1727	1724	1727	114750000	performance	1866	35	35	32	35	31	30	100	33
1592833149997814662	1	1728	499	499	1728	1728	1728	114750000	performance	1866	35	35	32	35	31	30	100	33
1592833150405805636 	0	1722	498	499	1694	1727	1727	114750000	performance	1866	35	35	32	35	31	30	100	34
1592833152425766283	1	1728	499	499	1728	1728	1728	114750000	performance	1866	35	35	32	35	31	30	100	34
1592833152869790894 	0	1726	499	498	1725	1724	1716	114750000	performance	1866	35	35	32	35	31	30	100	34
1592833154877748371	1	1728	499	499	1728	1728	1728	114750000	performance	1866	35	35	32	35	31	30	100	33
1592833155308052870 	0	1719	499	499	1721	1722	1725	114750000	performance	1866	35	35	32	35	31	30	100	33
1592833157534135221	1	1728	499	499	1728	1728	1728	114750000	performance	1866	35	35	32	35	31	30	100	34
1592833157949866017 	0	1726	499	499	1728	1690	1727	114750000	performance	1866	35	35	32	35	31	30	100	34
